Sat Oct 07 23.11.11 EEST 2017
Dataset: letter
Test set size: 10000
Initial Labelled set size: 2000
Initial Unlabelled set size: 8000
Batch mode: QBestBatchMode
Batch size: 20
Classifiers: NaiveBayes-1cores
Scenario: PoolBasedSamplingScenario
Query strategy: RandomSelectionQueryStrategy-1cores
Time begining: Sat Oct 07 23.11.11 EEST 2017
		
Iteration: 1
Labeled set size: 2000
Unlabelled set size: 8000
	
Mean region size: 11.085884615385277
Incorrectly Classified Instances: 37.79700000000001
Correctly Classified Instances: 62.202999999999996
Weighted Precision: 0.6373542665602485
Weighted AreaUnderROC: 0.950765658630908
Root mean squared error: 0.1441367779270653
Relative absolute error: 44.78132505514136
Root relative squared error: 74.9511245220792
Weighted TruePositiveRate: 0.62203
Weighted MatthewsCorrelation: 0.6101632253862077
Weighted FMeasure: 0.6198420746871988
Iteration time: 152.5
Weighted AreaUnderPRC: 0.6700748095254977
Mean absolute error: 0.03312228184551414
Coverage of cases: 84.74699999999999
Instances selection time: 146.1
Test time: 2115.1
Accumulative iteration time: 152.5
Weighted Recall: 0.62203
Weighted FalsePositiveRate: 0.015084452220123525
Kappa statistic: 0.6068970520675546
Training time: 6.4
		
Iteration: 2
Labeled set size: 2020
Unlabelled set size: 7980
	
Mean region size: 11.096615384616035
Incorrectly Classified Instances: 37.831
Correctly Classified Instances: 62.169000000000004
Weighted Precision: 0.6372491306872313
Weighted AreaUnderROC: 0.9508820088664821
Root mean squared error: 0.14409306466006797
Relative absolute error: 44.77542191309487
Root relative squared error: 74.92839362324057
Weighted TruePositiveRate: 0.62169
Weighted MatthewsCorrelation: 0.6099247631356788
Weighted FMeasure: 0.6196134898477126
Iteration time: 164.2
Weighted AreaUnderPRC: 0.6702300268146358
Mean absolute error: 0.03311791561618981
Coverage of cases: 84.79100000000001
Instances selection time: 156.5
Test time: 2037.3
Accumulative iteration time: 316.7
Weighted Recall: 0.62169
Weighted FalsePositiveRate: 0.015099707769998041
Kappa statistic: 0.6065429045977171
Training time: 7.7
		
Iteration: 3
Labeled set size: 2040
Unlabelled set size: 7960
	
Mean region size: 11.093538461539111
Incorrectly Classified Instances: 37.725
Correctly Classified Instances: 62.275
Weighted Precision: 0.638539922800681
Weighted AreaUnderROC: 0.9509929799543709
Root mean squared error: 0.14387606457366892
Relative absolute error: 44.69616585230597
Root relative squared error: 74.81555357831306
Weighted TruePositiveRate: 0.62275
Weighted MatthewsCorrelation: 0.6111586542812869
Weighted FMeasure: 0.6208337889268188
Iteration time: 165.6
Weighted AreaUnderPRC: 0.6710975789062473
Mean absolute error: 0.03305929426945246
Coverage of cases: 84.79100000000001
Instances selection time: 157.8
Test time: 2043.8
Accumulative iteration time: 482.3
Weighted Recall: 0.62275
Weighted FalsePositiveRate: 0.0150575567425532
Kappa statistic: 0.6076453600635499
Training time: 7.8
		
Iteration: 4
Labeled set size: 2060
Unlabelled set size: 7940
	
Mean region size: 11.1095384615391
Incorrectly Classified Instances: 37.73199999999999
Correctly Classified Instances: 62.26800000000001
Weighted Precision: 0.6384541189307129
Weighted AreaUnderROC: 0.9509725586122526
Root mean squared error: 0.14388179549695868
Relative absolute error: 44.71482242352509
Root relative squared error: 74.81853365842372
Weighted TruePositiveRate: 0.62268
Weighted MatthewsCorrelation: 0.6110547018996122
Weighted FMeasure: 0.6207057234766993
Iteration time: 144.8
Weighted AreaUnderPRC: 0.6711268732556108
Mean absolute error: 0.03307309350851987
Coverage of cases: 84.801
Instances selection time: 138.4
Test time: 2048.4
Accumulative iteration time: 627.1
Weighted Recall: 0.62268
Weighted FalsePositiveRate: 0.015059493791559039
Kappa statistic: 0.607572860665295
Training time: 6.4
		
Iteration: 5
Labeled set size: 2080
Unlabelled set size: 7920
	
Mean region size: 11.12069230769293
Incorrectly Classified Instances: 37.754000000000005
Correctly Classified Instances: 62.246
Weighted Precision: 0.6379093143321906
Weighted AreaUnderROC: 0.9510661170856286
Root mean squared error: 0.14388767100813388
Relative absolute error: 44.719312934652194
Root relative squared error: 74.82158892423487
Weighted TruePositiveRate: 0.62246
Weighted MatthewsCorrelation: 0.6107254376818548
Weighted FMeasure: 0.6204554892803896
Iteration time: 143.1
Weighted AreaUnderPRC: 0.6711887348912737
Mean absolute error: 0.03307641489248961
Coverage of cases: 84.82899999999998
Instances selection time: 136.5
Test time: 2043.7
Accumulative iteration time: 770.2
Weighted Recall: 0.62246
Weighted FalsePositiveRate: 0.015067152352650576
Kappa statistic: 0.6073443290221147
Training time: 6.6
		
Iteration: 6
Labeled set size: 2100
Unlabelled set size: 7900
	
Mean region size: 11.115500000000628
Incorrectly Classified Instances: 37.834
Correctly Classified Instances: 62.16600000000001
Weighted Precision: 0.6369229046835516
Weighted AreaUnderROC: 0.9510482878658847
Root mean squared error: 0.14399985773261278
Relative absolute error: 44.7544360683587
Root relative squared error: 74.87992602096388
Weighted TruePositiveRate: 0.6216600000000001
Weighted MatthewsCorrelation: 0.6097899307608694
Weighted FMeasure: 0.6195333109031995
Iteration time: 143.5
Weighted AreaUnderPRC: 0.6707811567870511
Mean absolute error: 0.033102393541680805
Coverage of cases: 84.82399999999998
Instances selection time: 136.2
Test time: 2052.3
Accumulative iteration time: 913.7
Weighted Recall: 0.6216600000000001
Weighted FalsePositiveRate: 0.015099552941333153
Kappa statistic: 0.606512261629844
Training time: 7.3
		
Iteration: 7
Labeled set size: 2120
Unlabelled set size: 7880
	
Mean region size: 11.101538461539104
Incorrectly Classified Instances: 37.748
Correctly Classified Instances: 62.251999999999995
Weighted Precision: 0.6381784477481923
Weighted AreaUnderROC: 0.9510012784168435
Root mean squared error: 0.14402144008189346
Relative absolute error: 44.73705546935717
Root relative squared error: 74.8911488425898
Weighted TruePositiveRate: 0.62252
Weighted MatthewsCorrelation: 0.6108487609414638
Weighted FMeasure: 0.6205259092852032
Iteration time: 142.8
Weighted AreaUnderPRC: 0.6703813608482512
Mean absolute error: 0.033089538069046555
Coverage of cases: 84.78099999999999
Instances selection time: 135.9
Test time: 2045.0
Accumulative iteration time: 1056.5
Weighted Recall: 0.62252
Weighted FalsePositiveRate: 0.015064506978773044
Kappa statistic: 0.6074073461670151
Training time: 6.9
		
Iteration: 8
Labeled set size: 2140
Unlabelled set size: 7860
	
Mean region size: 11.095961538462182
Incorrectly Classified Instances: 37.745
Correctly Classified Instances: 62.25500000000001
Weighted Precision: 0.6387421526048833
Weighted AreaUnderROC: 0.9510668670160035
Root mean squared error: 0.143956496024506
Relative absolute error: 44.71153711956347
Root relative squared error: 74.85737793274834
Weighted TruePositiveRate: 0.6225499999999999
Weighted MatthewsCorrelation: 0.6111467781719557
Weighted FMeasure: 0.6208235156407957
Iteration time: 142.3
Weighted AreaUnderPRC: 0.6709121448572557
Mean absolute error: 0.03307066354996838
Coverage of cases: 84.792
Instances selection time: 135.3
Test time: 2043.0
Accumulative iteration time: 1198.8
Weighted Recall: 0.6225499999999999
Weighted FalsePositiveRate: 0.015063902074138973
Kappa statistic: 0.6074386267141529
Training time: 7.0
		
Iteration: 9
Labeled set size: 2160
Unlabelled set size: 7840
	
Mean region size: 11.091269230769878
Incorrectly Classified Instances: 37.666
Correctly Classified Instances: 62.33400000000002
Weighted Precision: 0.639275852294275
Weighted AreaUnderROC: 0.9511145010144825
Root mean squared error: 0.1439012045763366
Relative absolute error: 44.66951385682507
Root relative squared error: 74.82862637970025
Weighted TruePositiveRate: 0.62334
Weighted MatthewsCorrelation: 0.6118303435707821
Weighted FMeasure: 0.6214676338556239
Iteration time: 141.0
Weighted AreaUnderPRC: 0.6711689146523954
Mean absolute error: 0.03303958125504352
Coverage of cases: 84.813
Instances selection time: 133.9
Test time: 2041.8
Accumulative iteration time: 1339.8
Weighted Recall: 0.62334
Weighted FalsePositiveRate: 0.015032016093515801
Kappa statistic: 0.6082597220299497
Training time: 7.1
		
Iteration: 10
Labeled set size: 2180
Unlabelled set size: 7820
	
Mean region size: 11.10965384615448
Incorrectly Classified Instances: 37.609
Correctly Classified Instances: 62.391000000000005
Weighted Precision: 0.6394672960572001
Weighted AreaUnderROC: 0.9512401451424319
Root mean squared error: 0.14371754159329025
Relative absolute error: 44.63051276742379
Root relative squared error: 74.73312162851612
Weighted TruePositiveRate: 0.62391
Weighted MatthewsCorrelation: 0.6123410229911556
Weighted FMeasure: 0.6220741850687823
Iteration time: 148.0
Weighted AreaUnderPRC: 0.6719413746872028
Mean absolute error: 0.03301073429542719
Coverage of cases: 84.859
Instances selection time: 140.5
Test time: 2061.9
Accumulative iteration time: 1487.8
Weighted Recall: 0.62391
Weighted FalsePositiveRate: 0.015007896601837665
Kappa statistic: 0.6088528373581865
Training time: 7.5
		
Iteration: 11
Labeled set size: 2200
Unlabelled set size: 7800
	
Mean region size: 11.117230769231398
Incorrectly Classified Instances: 37.605
Correctly Classified Instances: 62.395
Weighted Precision: 0.6396339617030717
Weighted AreaUnderROC: 0.9513028296954351
Root mean squared error: 0.14368476206556002
Relative absolute error: 44.621389055771985
Root relative squared error: 74.71607627409642
Weighted TruePositiveRate: 0.62395
Weighted MatthewsCorrelation: 0.6124205451925203
Weighted FMeasure: 0.6221215883219484
Iteration time: 151.5
Weighted AreaUnderPRC: 0.6721616367406195
Mean absolute error: 0.03300398598799243
Coverage of cases: 84.89300000000001
Instances selection time: 144.1
Test time: 2056.9
Accumulative iteration time: 1639.3
Weighted Recall: 0.62395
Weighted FalsePositiveRate: 0.015004879915277259
Kappa statistic: 0.6088951621325432
Training time: 7.4
		
Iteration: 12
Labeled set size: 2220
Unlabelled set size: 7780
	
Mean region size: 11.119615384616008
Incorrectly Classified Instances: 37.614999999999995
Correctly Classified Instances: 62.385000000000005
Weighted Precision: 0.6391856106522016
Weighted AreaUnderROC: 0.9513106472301761
Root mean squared error: 0.14365470803200503
Relative absolute error: 44.62077970132695
Root relative squared error: 74.70044817664782
Weighted TruePositiveRate: 0.62385
Weighted MatthewsCorrelation: 0.6121322447554737
Weighted FMeasure: 0.6218284722304444
Iteration time: 163.5
Weighted AreaUnderPRC: 0.672106387873504
Mean absolute error: 0.03300353528204197
Coverage of cases: 84.90400000000001
Instances selection time: 154.9
Test time: 2047.8
Accumulative iteration time: 1802.8
Weighted Recall: 0.62385
Weighted FalsePositiveRate: 0.015008660005934163
Kappa statistic: 0.6087910143262814
Training time: 8.6
		
Iteration: 13
Labeled set size: 2240
Unlabelled set size: 7760
	
Mean region size: 11.106615384616017
Incorrectly Classified Instances: 37.539
Correctly Classified Instances: 62.461
Weighted Precision: 0.6403419807086033
Weighted AreaUnderROC: 0.9513274134412477
Root mean squared error: 0.14360574851267602
Relative absolute error: 44.59523101658915
Root relative squared error: 74.67498922659675
Weighted TruePositiveRate: 0.6246099999999999
Weighted MatthewsCorrelation: 0.6130555784921033
Weighted FMeasure: 0.6226482055840427
Iteration time: 138.4
Weighted AreaUnderPRC: 0.6722143825135627
Mean absolute error: 0.032984638325874956
Coverage of cases: 84.883
Instances selection time: 130.8
Test time: 2042.3
Accumulative iteration time: 1941.2
Weighted Recall: 0.6246099999999999
Weighted FalsePositiveRate: 0.014979108213258211
Kappa statistic: 0.609580702247587
Training time: 7.6
		
Iteration: 14
Labeled set size: 2260
Unlabelled set size: 7740
	
Mean region size: 11.12711538461601
Incorrectly Classified Instances: 37.501999999999995
Correctly Classified Instances: 62.498000000000005
Weighted Precision: 0.6410285030460581
Weighted AreaUnderROC: 0.9514420933902452
Root mean squared error: 0.14352385737005124
Relative absolute error: 44.5912208315513
Root relative squared error: 74.63240583243186
Weighted TruePositiveRate: 0.6249799999999999
Weighted MatthewsCorrelation: 0.6135517832233656
Weighted FMeasure: 0.6230776521692565
Iteration time: 140.0
Weighted AreaUnderPRC: 0.6726394569976684
Mean absolute error: 0.03298167221268127
Coverage of cases: 84.896
Instances selection time: 133.0
Test time: 2076.8
Accumulative iteration time: 2081.2
Weighted Recall: 0.6249799999999999
Weighted FalsePositiveRate: 0.014964525176797472
Kappa statistic: 0.6099652696615572
Training time: 7.0
		
Iteration: 15
Labeled set size: 2280
Unlabelled set size: 7720
	
Mean region size: 11.102269230769867
Incorrectly Classified Instances: 37.453
Correctly Classified Instances: 62.547000000000004
Weighted Precision: 0.64095036573851
Weighted AreaUnderROC: 0.9516045834449178
Root mean squared error: 0.14333998145242913
Relative absolute error: 44.50302823034374
Root relative squared error: 74.53679035526832
Weighted TruePositiveRate: 0.62547
Weighted MatthewsCorrelation: 0.6139032683347604
Weighted FMeasure: 0.6235575984540908
Iteration time: 156.7
Weighted AreaUnderPRC: 0.6734207168855721
Mean absolute error: 0.03291644099877036
Coverage of cases: 84.958
Instances selection time: 148.0
Test time: 2049.4
Accumulative iteration time: 2237.9
Weighted Recall: 0.62547
Weighted FalsePositiveRate: 0.014947306633951848
Kappa statistic: 0.6104737802824227
Training time: 8.7
		
Iteration: 16
Labeled set size: 2300
Unlabelled set size: 7700
	
Mean region size: 11.120230769231389
Incorrectly Classified Instances: 37.419999999999995
Correctly Classified Instances: 62.58
Weighted Precision: 0.6411780467999539
Weighted AreaUnderROC: 0.951560159967641
Root mean squared error: 0.14334607173099248
Relative absolute error: 44.52305802748875
Root relative squared error: 74.53995730012129
Weighted TruePositiveRate: 0.6257999999999999
Weighted MatthewsCorrelation: 0.614195902957717
Weighted FMeasure: 0.6238382706667934
Iteration time: 137.3
Weighted AreaUnderPRC: 0.6734119756796647
Mean absolute error: 0.03293125593748709
Coverage of cases: 84.964
Instances selection time: 129.6
Test time: 2041.9
Accumulative iteration time: 2375.2
Weighted Recall: 0.6257999999999999
Weighted FalsePositiveRate: 0.01493506530522111
Kappa statistic: 0.6108169026231918
Training time: 7.7
		
Iteration: 17
Labeled set size: 2320
Unlabelled set size: 7680
	
Mean region size: 11.14611538461599
Incorrectly Classified Instances: 37.397000000000006
Correctly Classified Instances: 62.602999999999994
Weighted Precision: 0.6414070533372426
Weighted AreaUnderROC: 0.9517331097592547
Root mean squared error: 0.143212858374069
Relative absolute error: 44.48763240309408
Root relative squared error: 74.47068635452106
Weighted TruePositiveRate: 0.6260300000000001
Weighted MatthewsCorrelation: 0.6143973856208712
Weighted FMeasure: 0.6239905062626564
Iteration time: 137.1
Weighted AreaUnderPRC: 0.6743183370496908
Mean absolute error: 0.032905053552579784
Coverage of cases: 85.001
Instances selection time: 129.5
Test time: 2056.6
Accumulative iteration time: 2512.3
Weighted Recall: 0.6260300000000001
Weighted FalsePositiveRate: 0.014927334011447826
Kappa statistic: 0.6110557228700981
Training time: 7.6
		
Iteration: 18
Labeled set size: 2340
Unlabelled set size: 7660
	
Mean region size: 11.15723076923137
Incorrectly Classified Instances: 37.428999999999995
Correctly Classified Instances: 62.57099999999999
Weighted Precision: 0.6408864552574111
Weighted AreaUnderROC: 0.9517460511137974
Root mean squared error: 0.1432265560287364
Relative absolute error: 44.51127410944397
Root relative squared error: 74.47780913494813
Weighted TruePositiveRate: 0.62571
Weighted MatthewsCorrelation: 0.6139994471578075
Weighted FMeasure: 0.6236400253906698
Iteration time: 178.7
Weighted AreaUnderPRC: 0.6742953289960212
Mean absolute error: 0.032922540021773486
Coverage of cases: 85.007
Instances selection time: 168.3
Test time: 2077.6
Accumulative iteration time: 2691.0
Weighted Recall: 0.62571
Weighted FalsePositiveRate: 0.01493851727063951
Kappa statistic: 0.6107235187205532
Training time: 10.4
		
Iteration: 19
Labeled set size: 2360
Unlabelled set size: 7640
	
Mean region size: 11.169615384615978
Incorrectly Classified Instances: 37.428
Correctly Classified Instances: 62.572
Weighted Precision: 0.640886696695654
Weighted AreaUnderROC: 0.9517584211390948
Root mean squared error: 0.14319121391453044
Relative absolute error: 44.51347295916891
Root relative squared error: 74.45943123556104
Weighted TruePositiveRate: 0.62572
Weighted MatthewsCorrelation: 0.6140083493957722
Weighted FMeasure: 0.6236492114790707
Iteration time: 134.4
Weighted AreaUnderPRC: 0.6745246373611731
Mean absolute error: 0.03292416638991324
Coverage of cases: 85.01299999999999
Instances selection time: 126.5
Test time: 2085.3
Accumulative iteration time: 2825.4
Weighted Recall: 0.62572
Weighted FalsePositiveRate: 0.014936685533978275
Kappa statistic: 0.6107345707629805
Training time: 7.9
		
Iteration: 20
Labeled set size: 2380
Unlabelled set size: 7620
	
Mean region size: 11.17496153846213
Incorrectly Classified Instances: 37.412
Correctly Classified Instances: 62.58799999999999
Weighted Precision: 0.6411486887081352
Weighted AreaUnderROC: 0.9518316692667834
Root mean squared error: 0.1431740469902662
Relative absolute error: 44.52001156388283
Root relative squared error: 74.45050443494361
Weighted TruePositiveRate: 0.62588
Weighted MatthewsCorrelation: 0.6141980165770622
Weighted FMeasure: 0.62380324703607
Iteration time: 134.5
Weighted AreaUnderPRC: 0.674735489494854
Mean absolute error: 0.032929002636003415
Coverage of cases: 85.048
Instances selection time: 126.6
Test time: 2066.0
Accumulative iteration time: 2959.9
Weighted Recall: 0.62588
Weighted FalsePositiveRate: 0.01493015799754797
Kappa statistic: 0.6109011696329706
Training time: 7.9
		
Iteration: 21
Labeled set size: 2400
Unlabelled set size: 7600
	
Mean region size: 11.168307692308286
Incorrectly Classified Instances: 37.35799999999999
Correctly Classified Instances: 62.641999999999996
Weighted Precision: 0.6416609204885874
Weighted AreaUnderROC: 0.9519185304317009
Root mean squared error: 0.14303880879402436
Relative absolute error: 44.46192674945944
Root relative squared error: 74.38018057289786
Weighted TruePositiveRate: 0.6264200000000001
Weighted MatthewsCorrelation: 0.6147642105737079
Weighted FMeasure: 0.6243680118885566
Iteration time: 134.6
Weighted AreaUnderPRC: 0.6752340189901215
Mean absolute error: 0.03288604049515772
Coverage of cases: 85.108
Instances selection time: 126.8
Test time: 2042.6
Accumulative iteration time: 3094.5
Weighted Recall: 0.6264200000000001
Weighted FalsePositiveRate: 0.01490877347123086
Kappa statistic: 0.611462510138014
Training time: 7.8
		
Iteration: 22
Labeled set size: 2420
Unlabelled set size: 7580
	
Mean region size: 11.18080769230828
Incorrectly Classified Instances: 37.399
Correctly Classified Instances: 62.601
Weighted Precision: 0.6411563107403979
Weighted AreaUnderROC: 0.9518913074418227
Root mean squared error: 0.14308289042826156
Relative absolute error: 44.48167094482724
Root relative squared error: 74.4031030227012
Weighted TruePositiveRate: 0.62601
Weighted MatthewsCorrelation: 0.6142301781634464
Weighted FMeasure: 0.6237822582926633
Iteration time: 158.6
Weighted AreaUnderPRC: 0.6752246328410891
Mean absolute error: 0.03290064418995639
Coverage of cases: 85.09299999999999
Instances selection time: 149.3
Test time: 2076.8
Accumulative iteration time: 3253.1
Weighted Recall: 0.62601
Weighted FalsePositiveRate: 0.01492710432437781
Kappa statistic: 0.6110354385101795
Training time: 9.3
		
Iteration: 23
Labeled set size: 2440
Unlabelled set size: 7560
	
Mean region size: 11.193846153846733
Incorrectly Classified Instances: 37.354
Correctly Classified Instances: 62.646
Weighted Precision: 0.6413101996831928
Weighted AreaUnderROC: 0.9519349573630214
Root mean squared error: 0.14301485011382503
Relative absolute error: 44.482340905424294
Root relative squared error: 74.36772205919422
Weighted TruePositiveRate: 0.62646
Weighted MatthewsCorrelation: 0.6146217663953404
Weighted FMeasure: 0.6242393543740903
Iteration time: 147.7
Weighted AreaUnderPRC: 0.6754858454886484
Mean absolute error: 0.03290113972294238
Coverage of cases: 85.107
Instances selection time: 138.3
Test time: 2071.7
Accumulative iteration time: 3400.8
Weighted Recall: 0.62646
Weighted FalsePositiveRate: 0.014908925526799236
Kappa statistic: 0.6115032462521149
Training time: 9.4
		
Iteration: 24
Labeled set size: 2460
Unlabelled set size: 7540
	
Mean region size: 11.179653846154432
Incorrectly Classified Instances: 37.351
Correctly Classified Instances: 62.649
Weighted Precision: 0.6417639331958339
Weighted AreaUnderROC: 0.9519696881742672
Root mean squared error: 0.14297067834008692
Relative absolute error: 44.452413666293836
Root relative squared error: 74.34475273685038
Weighted TruePositiveRate: 0.6264900000000001
Weighted MatthewsCorrelation: 0.614883660335947
Weighted FMeasure: 0.6245229269353907
Iteration time: 137.0
Weighted AreaUnderPRC: 0.6757680272829816
Mean absolute error: 0.03287900419104115
Coverage of cases: 85.122
Instances selection time: 128.8
Test time: 2058.0
Accumulative iteration time: 3537.8
Weighted Recall: 0.6264900000000001
Weighted FalsePositiveRate: 0.014909192864767695
Kappa statistic: 0.6115338651367281
Training time: 8.2
		
Iteration: 25
Labeled set size: 2480
Unlabelled set size: 7520
	
Mean region size: 11.187923076923658
Incorrectly Classified Instances: 37.357000000000006
Correctly Classified Instances: 62.642999999999994
Weighted Precision: 0.6419128068797961
Weighted AreaUnderROC: 0.9520949572430123
Root mean squared error: 0.14297032047272953
Relative absolute error: 44.46126512391952
Root relative squared error: 74.34456664582454
Weighted TruePositiveRate: 0.62643
Weighted MatthewsCorrelation: 0.6148889423519197
Weighted FMeasure: 0.6244902827053125
Iteration time: 131.7
Weighted AreaUnderPRC: 0.6759894535472765
Mean absolute error: 0.03288555112715481
Coverage of cases: 85.146
Instances selection time: 123.6
Test time: 2050.3
Accumulative iteration time: 3669.5
Weighted Recall: 0.62643
Weighted FalsePositiveRate: 0.014911301004509287
Kappa statistic: 0.6114715092507901
Training time: 8.1
		
Iteration: 26
Labeled set size: 2500
Unlabelled set size: 7500
	
Mean region size: 11.20503846153903
Incorrectly Classified Instances: 37.342
Correctly Classified Instances: 62.658
Weighted Precision: 0.6417570844793083
Weighted AreaUnderROC: 0.9522305635837206
Root mean squared error: 0.14293159264890723
Relative absolute error: 44.457917103332655
Root relative squared error: 74.32442817743694
Weighted TruePositiveRate: 0.62658
Weighted MatthewsCorrelation: 0.6149035385858707
Weighted FMeasure: 0.6245093730147685
Iteration time: 134.5
Weighted AreaUnderPRC: 0.6763117910619425
Mean absolute error: 0.0328830747805669
Coverage of cases: 85.164
Instances selection time: 126.0
Test time: 2051.1
Accumulative iteration time: 3804.0
Weighted Recall: 0.62658
Weighted FalsePositiveRate: 0.014905640339715153
Kappa statistic: 0.6116271732385381
Training time: 8.5
		
Iteration: 27
Labeled set size: 2520
Unlabelled set size: 7480
	
Mean region size: 11.219961538462103
Incorrectly Classified Instances: 37.376999999999995
Correctly Classified Instances: 62.623000000000005
Weighted Precision: 0.6422864775869409
Weighted AreaUnderROC: 0.9521768000923911
Root mean squared error: 0.14302100537820395
Relative absolute error: 44.52055728237841
Root relative squared error: 74.37092279667122
Weighted TruePositiveRate: 0.6262300000000001
Weighted MatthewsCorrelation: 0.6148600539450589
Weighted FMeasure: 0.6243381818779868
Iteration time: 130.8
Weighted AreaUnderPRC: 0.6756647301911431
Mean absolute error: 0.03292940627394393
Coverage of cases: 85.15899999999999
Instances selection time: 121.9
Test time: 2044.7
Accumulative iteration time: 3934.8
Weighted Recall: 0.6262300000000001
Weighted FalsePositiveRate: 0.01492269888673591
Kappa statistic: 0.6112617472053355
Training time: 8.9
		
Iteration: 28
Labeled set size: 2540
Unlabelled set size: 7460
	
Mean region size: 11.220307692308253
Incorrectly Classified Instances: 37.361999999999995
Correctly Classified Instances: 62.63800000000001
Weighted Precision: 0.6423053132059136
Weighted AreaUnderROC: 0.9522612535981393
Root mean squared error: 0.1429794975970375
Relative absolute error: 44.500906280200645
Root relative squared error: 74.3493387504647
Weighted TruePositiveRate: 0.6263799999999999
Weighted MatthewsCorrelation: 0.6149116677600259
Weighted FMeasure: 0.6243409640086546
Iteration time: 132.7
Weighted AreaUnderPRC: 0.6759961262410403
Mean absolute error: 0.03291487150901956
Coverage of cases: 85.174
Instances selection time: 124.3
Test time: 2050.8
Accumulative iteration time: 4067.5
Weighted Recall: 0.6263799999999999
Weighted FalsePositiveRate: 0.014916347500109558
Kappa statistic: 0.6114179020790327
Training time: 8.4
		
Iteration: 29
Labeled set size: 2560
Unlabelled set size: 7440
	
Mean region size: 11.226846153846719
Incorrectly Classified Instances: 37.382999999999996
Correctly Classified Instances: 62.617000000000004
Weighted Precision: 0.642215527799392
Weighted AreaUnderROC: 0.9523935986396342
Root mean squared error: 0.14295182299645118
Relative absolute error: 44.49077680439502
Root relative squared error: 74.3349479581598
Weighted TruePositiveRate: 0.62617
Weighted MatthewsCorrelation: 0.6147240277580688
Weighted FMeasure: 0.6241274206908505
Iteration time: 130.3
Weighted AreaUnderPRC: 0.6763617542950535
Mean absolute error: 0.03290737929318699
Coverage of cases: 85.224
Instances selection time: 121.9
Test time: 2057.1
Accumulative iteration time: 4197.8
Weighted Recall: 0.62617
Weighted FalsePositiveRate: 0.014922434726054801
Kappa statistic: 0.6112005798633477
Training time: 8.4
		
Iteration: 30
Labeled set size: 2580
Unlabelled set size: 7420
	
Mean region size: 11.22446153846209
Incorrectly Classified Instances: 37.319
Correctly Classified Instances: 62.681
Weighted Precision: 0.6428588697330121
Weighted AreaUnderROC: 0.952396196999954
Root mean squared error: 0.14293579074650448
Relative absolute error: 44.47957666666339
Root relative squared error: 74.32661118818751
Weighted TruePositiveRate: 0.62681
Weighted MatthewsCorrelation: 0.6154011396018083
Weighted FMeasure: 0.6247963475017385
Iteration time: 130.1
Weighted AreaUnderPRC: 0.6766259322310024
Mean absolute error: 0.03289909516764586
Coverage of cases: 85.24300000000001
Instances selection time: 121.6
Test time: 2047.4
Accumulative iteration time: 4327.9
Weighted Recall: 0.62681
Weighted FalsePositiveRate: 0.014896712690009709
Kappa statistic: 0.611865949571523
Training time: 8.5
		
Iteration: 31
Labeled set size: 2600
Unlabelled set size: 7400
	
Mean region size: 11.232576923077467
Incorrectly Classified Instances: 37.323
Correctly Classified Instances: 62.677
Weighted Precision: 0.643030024967576
Weighted AreaUnderROC: 0.9524565044009364
Root mean squared error: 0.14287872599929158
Relative absolute error: 44.46691844661741
Root relative squared error: 74.29693751963681
Weighted TruePositiveRate: 0.6267699999999999
Weighted MatthewsCorrelation: 0.6154252916924297
Weighted FMeasure: 0.6247759478022614
Iteration time: 128.2
Weighted AreaUnderPRC: 0.6771374752215984
Mean absolute error: 0.03288973257885444
Coverage of cases: 85.32000000000001
Instances selection time: 119.5
Test time: 2120.0
Accumulative iteration time: 4456.1
Weighted Recall: 0.6267699999999999
Weighted FalsePositiveRate: 0.014899449945291465
Kappa statistic: 0.6118239447063584
Training time: 8.7
		
Iteration: 32
Labeled set size: 2620
Unlabelled set size: 7380
	
Mean region size: 11.240730769231316
Incorrectly Classified Instances: 37.241
Correctly Classified Instances: 62.75899999999999
Weighted Precision: 0.6437380749123162
Weighted AreaUnderROC: 0.9525463420397606
Root mean squared error: 0.14272384096365903
Relative absolute error: 44.434822784423204
Root relative squared error: 74.21639730110788
Weighted TruePositiveRate: 0.6275900000000001
Weighted MatthewsCorrelation: 0.6162990990478728
Weighted FMeasure: 0.6257049473306285
Iteration time: 127.6
Weighted AreaUnderPRC: 0.6775085419649007
Mean absolute error: 0.03286599318374038
Coverage of cases: 85.34900000000002
Instances selection time: 119.1
Test time: 2040.9
Accumulative iteration time: 4583.7
Weighted Recall: 0.6275900000000001
Weighted FalsePositiveRate: 0.014866196578042879
Kappa statistic: 0.6126769935603102
Training time: 8.5
		
Iteration: 33
Labeled set size: 2640
Unlabelled set size: 7360
	
Mean region size: 11.243884615385154
Incorrectly Classified Instances: 37.198
Correctly Classified Instances: 62.802
Weighted Precision: 0.6443090117457105
Weighted AreaUnderROC: 0.9525360874350387
Root mean squared error: 0.1426774430917774
Relative absolute error: 44.41465015432374
Root relative squared error: 74.19227040772945
Weighted TruePositiveRate: 0.62802
Weighted MatthewsCorrelation: 0.6168023705401373
Weighted FMeasure: 0.6261721580707421
Iteration time: 129.7
Weighted AreaUnderPRC: 0.6777556916971604
Mean absolute error: 0.032851072599347296
Coverage of cases: 85.36800000000001
Instances selection time: 120.7
Test time: 2089.2
Accumulative iteration time: 4713.4
Weighted Recall: 0.62802
Weighted FalsePositiveRate: 0.014849129841869327
Kappa statistic: 0.6131243722887738
Training time: 9.0
		
Iteration: 34
Labeled set size: 2660
Unlabelled set size: 7340
	
Mean region size: 11.242384615385152
Incorrectly Classified Instances: 37.168000000000006
Correctly Classified Instances: 62.83200000000001
Weighted Precision: 0.644497853792504
Weighted AreaUnderROC: 0.9525566528374154
Root mean squared error: 0.14265157943730586
Relative absolute error: 44.40954839194998
Root relative squared error: 74.17882130740422
Weighted TruePositiveRate: 0.62832
Weighted MatthewsCorrelation: 0.617055534242147
Weighted FMeasure: 0.6264087302491139
Iteration time: 135.6
Weighted AreaUnderPRC: 0.6777537009725807
Mean absolute error: 0.03284729910646731
Coverage of cases: 85.389
Instances selection time: 125.4
Test time: 2064.4
Accumulative iteration time: 4849.0
Weighted Recall: 0.62832
Weighted FalsePositiveRate: 0.014835588927103776
Kappa statistic: 0.613437080707752
Training time: 10.2
		
Iteration: 35
Labeled set size: 2680
Unlabelled set size: 7320
	
Mean region size: 11.258000000000537
Incorrectly Classified Instances: 37.224000000000004
Correctly Classified Instances: 62.77600000000001
Weighted Precision: 0.6440866362921094
Weighted AreaUnderROC: 0.9525365336013047
Root mean squared error: 0.1426798391839964
Relative absolute error: 44.45256109161169
Root relative squared error: 74.19351637568332
Weighted TruePositiveRate: 0.6277599999999999
Weighted MatthewsCorrelation: 0.6165537189304071
Weighted FMeasure: 0.6259391601914834
Iteration time: 130.0
Weighted AreaUnderPRC: 0.6773566010637319
Mean absolute error: 0.03287911323343602
Coverage of cases: 85.424
Instances selection time: 120.9
Test time: 2057.5
Accumulative iteration time: 4979.0
Weighted Recall: 0.6277599999999999
Weighted FalsePositiveRate: 0.014858951481736582
Kappa statistic: 0.612854254223481
Training time: 9.1
		
Iteration: 36
Labeled set size: 2700
Unlabelled set size: 7300
	
Mean region size: 11.258153846154382
Incorrectly Classified Instances: 37.248
Correctly Classified Instances: 62.75200000000001
Weighted Precision: 0.6439991171775044
Weighted AreaUnderROC: 0.9524845212534263
Root mean squared error: 0.14271661315608508
Relative absolute error: 44.46371427684274
Root relative squared error: 74.21263884116942
Weighted TruePositiveRate: 0.62752
Weighted MatthewsCorrelation: 0.6163813677712593
Weighted FMeasure: 0.6257804973774393
Iteration time: 125.4
Weighted AreaUnderPRC: 0.6771120473750779
Mean absolute error: 0.03288736263079626
Coverage of cases: 85.45500000000001
Instances selection time: 116.4
Test time: 2040.9
Accumulative iteration time: 5104.4
Weighted Recall: 0.62752
Weighted FalsePositiveRate: 0.014867777431718323
Kappa statistic: 0.6126049530600115
Training time: 9.0
		
Iteration: 37
Labeled set size: 2720
Unlabelled set size: 7280
	
Mean region size: 11.245807692308228
Incorrectly Classified Instances: 37.205000000000005
Correctly Classified Instances: 62.795
Weighted Precision: 0.644644752055968
Weighted AreaUnderROC: 0.9525622388725801
Root mean squared error: 0.1426345943942528
Relative absolute error: 44.39722060720036
Root relative squared error: 74.16998908501665
Weighted TruePositiveRate: 0.6279499999999999
Weighted MatthewsCorrelation: 0.616874970854008
Weighted FMeasure: 0.6261858233136002
Iteration time: 141.3
Weighted AreaUnderPRC: 0.6778975875805148
Mean absolute error: 0.03283818092248089
Coverage of cases: 85.468
Instances selection time: 130.9
Test time: 2112.5
Accumulative iteration time: 5245.7
Weighted Recall: 0.6279499999999999
Weighted FalsePositiveRate: 0.014851406738985024
Kappa statistic: 0.6130517629989873
Training time: 10.4
		
Iteration: 38
Labeled set size: 2740
Unlabelled set size: 7260
	
Mean region size: 11.260269230769769
Incorrectly Classified Instances: 37.175
Correctly Classified Instances: 62.82500000000001
Weighted Precision: 0.6448730622162191
Weighted AreaUnderROC: 0.9526038295922312
Root mean squared error: 0.1425806912893755
Relative absolute error: 44.38425219670384
Root relative squared error: 74.14195947048044
Weighted TruePositiveRate: 0.62825
Weighted MatthewsCorrelation: 0.6171750192062072
Weighted FMeasure: 0.6265010054758436
Iteration time: 125.9
Weighted AreaUnderPRC: 0.6782592145900355
Mean absolute error: 0.03282858890288287
Coverage of cases: 85.48399999999998
Instances selection time: 116.3
Test time: 2036.0
Accumulative iteration time: 5371.6
Weighted Recall: 0.62825
Weighted FalsePositiveRate: 0.014839800859027003
Kappa statistic: 0.6133634688273337
Training time: 9.6
		
Iteration: 39
Labeled set size: 2760
Unlabelled set size: 7240
	
Mean region size: 11.262846153846699
Incorrectly Classified Instances: 37.133
Correctly Classified Instances: 62.867000000000004
Weighted Precision: 0.6453008185154003
Weighted AreaUnderROC: 0.9525938958663158
Root mean squared error: 0.14255154867037506
Relative absolute error: 44.378225974868414
Root relative squared error: 74.12680530860021
Weighted TruePositiveRate: 0.6286700000000001
Weighted MatthewsCorrelation: 0.6176232246671891
Weighted FMeasure: 0.6269371846777592
Iteration time: 124.4
Weighted AreaUnderPRC: 0.6785777303195174
Mean absolute error: 0.0328241316382117
Coverage of cases: 85.48400000000001
Instances selection time: 115.1
Test time: 2044.5
Accumulative iteration time: 5496.0
Weighted Recall: 0.6286700000000001
Weighted FalsePositiveRate: 0.014823063935343602
Kappa statistic: 0.6138001937421335
Training time: 9.3
		
Iteration: 40
Labeled set size: 2780
Unlabelled set size: 7220
	
Mean region size: 11.280500000000528
Incorrectly Classified Instances: 37.107000000000006
Correctly Classified Instances: 62.89300000000001
Weighted Precision: 0.645450807915127
Weighted AreaUnderROC: 0.9525703950803693
Root mean squared error: 0.1424954956029304
Relative absolute error: 44.38066564902333
Root relative squared error: 74.09765771352897
Weighted TruePositiveRate: 0.62893
Weighted MatthewsCorrelation: 0.6178766923308011
Weighted FMeasure: 0.627231657629983
Iteration time: 142.9
Weighted AreaUnderPRC: 0.6785888902661557
Mean absolute error: 0.032825936130929836
Coverage of cases: 85.48400000000002
Instances selection time: 132.2
Test time: 2042.5
Accumulative iteration time: 5638.9
Weighted Recall: 0.62893
Weighted FalsePositiveRate: 0.014812917767771905
Kappa statistic: 0.6140702965219199
Training time: 10.7
		
Iteration: 41
Labeled set size: 2800
Unlabelled set size: 7200
	
Mean region size: 11.266846153846686
Incorrectly Classified Instances: 37.126
Correctly Classified Instances: 62.87400000000001
Weighted Precision: 0.6454037592104518
Weighted AreaUnderROC: 0.9525762512727096
Root mean squared error: 0.14258090793288622
Relative absolute error: 44.391006913493285
Root relative squared error: 74.14207212510601
Weighted TruePositiveRate: 0.62874
Weighted MatthewsCorrelation: 0.6177303067339888
Weighted FMeasure: 0.6270703961971476
Iteration time: 123.0
Weighted AreaUnderPRC: 0.6782397599875774
Mean absolute error: 0.03283358499518276
Coverage of cases: 85.475
Instances selection time: 113.7
Test time: 2042.5
Accumulative iteration time: 5761.9
Weighted Recall: 0.62874
Weighted FalsePositiveRate: 0.014821193059884547
Kappa statistic: 0.6138725960610155
Training time: 9.3
		
Iteration: 42
Labeled set size: 2820
Unlabelled set size: 7180
	
Mean region size: 11.267115384615918
Incorrectly Classified Instances: 37.11999999999999
Correctly Classified Instances: 62.879999999999995
Weighted Precision: 0.6453476660823325
Weighted AreaUnderROC: 0.9525640079471005
Root mean squared error: 0.14252750631069638
Relative absolute error: 44.363566728232435
Root relative squared error: 74.11430328156727
Weighted TruePositiveRate: 0.6288
Weighted MatthewsCorrelation: 0.6177569499919434
Weighted FMeasure: 0.6271206975816117
Iteration time: 142.5
Weighted AreaUnderPRC: 0.6785764190250102
Mean absolute error: 0.03281328900016735
Coverage of cases: 85.47400000000002
Instances selection time: 131.5
Test time: 2098.1
Accumulative iteration time: 5904.4
Weighted Recall: 0.6288
Weighted FalsePositiveRate: 0.014818343849104599
Kappa statistic: 0.6139352605170927
Training time: 11.0
		
Iteration: 43
Labeled set size: 2840
Unlabelled set size: 7160
	
Mean region size: 11.27207692307746
Incorrectly Classified Instances: 37.11399999999999
Correctly Classified Instances: 62.886
Weighted Precision: 0.6451471922432496
Weighted AreaUnderROC: 0.9525825967391123
Root mean squared error: 0.14250611312451422
Relative absolute error: 44.36968953396958
Root relative squared error: 74.10317882475256
Weighted TruePositiveRate: 0.62886
Weighted MatthewsCorrelation: 0.6176897727307138
Weighted FMeasure: 0.6270552793163796
Iteration time: 121.5
Weighted AreaUnderPRC: 0.6787498084859434
Mean absolute error: 0.03281781770263564
Coverage of cases: 85.484
Instances selection time: 111.7
Test time: 2045.0
Accumulative iteration time: 6025.9
Weighted Recall: 0.62886
Weighted FalsePositiveRate: 0.014817579422456253
Kappa statistic: 0.6139968701252235
Training time: 9.8
		
Iteration: 44
Labeled set size: 2860
Unlabelled set size: 7140
	
Mean region size: 11.271307692308232
Incorrectly Classified Instances: 37.14
Correctly Classified Instances: 62.860000000000014
Weighted Precision: 0.6447000468212956
Weighted AreaUnderROC: 0.9526472991402087
Root mean squared error: 0.14249350747175832
Relative absolute error: 44.364416979418536
Root relative squared error: 74.09662388531949
Weighted TruePositiveRate: 0.6286
Weighted MatthewsCorrelation: 0.6173631785137944
Weighted FMeasure: 0.6267834262985502
Iteration time: 122.9
Weighted AreaUnderPRC: 0.6787764427915333
Mean absolute error: 0.032813917884180734
Coverage of cases: 85.492
Instances selection time: 113.2
Test time: 2051.5
Accumulative iteration time: 6148.8
Weighted Recall: 0.6286
Weighted FalsePositiveRate: 0.014826343130506948
Kappa statistic: 0.613727207687915
Training time: 9.7
		
Iteration: 45
Labeled set size: 2880
Unlabelled set size: 7120
	
Mean region size: 11.260884615385155
Incorrectly Classified Instances: 37.095000000000006
Correctly Classified Instances: 62.904999999999994
Weighted Precision: 0.6451412676067776
Weighted AreaUnderROC: 0.9526663565561371
Root mean squared error: 0.142445797617411
Relative absolute error: 44.32953568269973
Root relative squared error: 74.07181476105889
Weighted TruePositiveRate: 0.6290500000000001
Weighted MatthewsCorrelation: 0.6177926845965392
Weighted FMeasure: 0.6271608241078586
Iteration time: 160.8
Weighted AreaUnderPRC: 0.6791021301299098
Mean absolute error: 0.03278811810850115
Coverage of cases: 85.45400000000001
Instances selection time: 148.1
Test time: 2048.0
Accumulative iteration time: 6309.6
Weighted Recall: 0.6290500000000001
Weighted FalsePositiveRate: 0.014808124589895583
Kappa statistic: 0.6141955329957457
Training time: 12.7
		
Iteration: 46
Labeled set size: 2900
Unlabelled set size: 7100
	
Mean region size: 11.272423076923605
Incorrectly Classified Instances: 37.059
Correctly Classified Instances: 62.940999999999995
Weighted Precision: 0.6454632003035534
Weighted AreaUnderROC: 0.9526936894755866
Root mean squared error: 0.14242739702733892
Relative absolute error: 44.3287599016814
Root relative squared error: 74.0622464542214
Weighted TruePositiveRate: 0.6294099999999999
Weighted MatthewsCorrelation: 0.6181101857621158
Weighted FMeasure: 0.627424485412363
Iteration time: 121.1
Weighted AreaUnderPRC: 0.679359781190408
Mean absolute error: 0.03278754430597279
Coverage of cases: 85.465
Instances selection time: 111.1
Test time: 2063.0
Accumulative iteration time: 6430.7
Weighted Recall: 0.6294099999999999
Weighted FalsePositiveRate: 0.014795310955970448
Kappa statistic: 0.6145694020890309
Training time: 10.0
		
Time end:Sat Oct 07 23.31.06 EEST 2017