Sat Oct 07 23.15.03 EEST 2017
Dataset: letter
Test set size: 10000
Initial Labelled set size: 2000
Initial Unlabelled set size: 8000
Batch mode: QBestBatchMode
Batch size: 20
Classifiers: NaiveBayes-1cores
Scenario: PoolBasedSamplingScenario
Query strategy: RandomSelectionQueryStrategy-1cores
Time begining: Sat Oct 07 23.15.03 EEST 2017
		
Iteration: 1
Labeled set size: 2000
Unlabelled set size: 8000
	
Mean region size: 11.223846153846857
Incorrectly Classified Instances: 38.81
Correctly Classified Instances: 61.19
Weighted Precision: 0.6271240518447734
Weighted AreaUnderROC: 0.9505419969692533
Root mean squared error: 0.14514172995641972
Relative absolute error: 45.19458138716977
Root relative squared error: 75.47369957734352
Weighted TruePositiveRate: 0.6119
Weighted MatthewsCorrelation: 0.5994293299287381
Weighted FMeasure: 0.6092805889785067
Iteration time: 145.0
Weighted AreaUnderPRC: 0.6682202653345017
Mean absolute error: 0.03342794481299073
Coverage of cases: 84.71
Instances selection time: 139.0
Test time: 2108.0
Accumulative iteration time: 145.0
Weighted Recall: 0.6119
Weighted FalsePositiveRate: 0.015492866977284041
Kappa statistic: 0.5963591071442649
Training time: 6.0
		
Iteration: 2
Labeled set size: 2020
Unlabelled set size: 7980
	
Mean region size: 11.176153846154566
Incorrectly Classified Instances: 38.67
Correctly Classified Instances: 61.33
Weighted Precision: 0.6288384067464641
Weighted AreaUnderROC: 0.950570819897439
Root mean squared error: 0.1453140408609776
Relative absolute error: 45.191511512369786
Root relative squared error: 75.56330124771362
Weighted TruePositiveRate: 0.6133
Weighted MatthewsCorrelation: 0.6009610459057585
Weighted FMeasure: 0.6106602835390432
Iteration time: 144.0
Weighted AreaUnderPRC: 0.6671169052801272
Mean absolute error: 0.033425674195535125
Coverage of cases: 84.64
Instances selection time: 137.0
Test time: 2041.0
Accumulative iteration time: 289.0
Weighted Recall: 0.6133
Weighted FalsePositiveRate: 0.015433066423236448
Kappa statistic: 0.5978166404566256
Training time: 7.0
		
Iteration: 3
Labeled set size: 2040
Unlabelled set size: 7960
	
Mean region size: 11.178461538462289
Incorrectly Classified Instances: 38.53
Correctly Classified Instances: 61.47
Weighted Precision: 0.6298198971739665
Weighted AreaUnderROC: 0.9506698617104871
Root mean squared error: 0.14492246529382366
Relative absolute error: 45.11418747688082
Root relative squared error: 75.35968195279357
Weighted TruePositiveRate: 0.6147
Weighted MatthewsCorrelation: 0.6021627050023629
Weighted FMeasure: 0.6117686502267432
Iteration time: 145.0
Weighted AreaUnderPRC: 0.6673987774364738
Mean absolute error: 0.033368481861593594
Coverage of cases: 84.54
Instances selection time: 139.0
Test time: 2043.0
Accumulative iteration time: 434.0
Weighted Recall: 0.6147
Weighted FalsePositiveRate: 0.015377691348790598
Kappa statistic: 0.5992725751999646
Training time: 6.0
		
Iteration: 4
Labeled set size: 2060
Unlabelled set size: 7940
	
Mean region size: 11.20423076923148
Incorrectly Classified Instances: 38.48
Correctly Classified Instances: 61.52
Weighted Precision: 0.631239672561651
Weighted AreaUnderROC: 0.950846605562615
Root mean squared error: 0.1446934794066633
Relative absolute error: 45.072559427185865
Root relative squared error: 75.24060929147016
Weighted TruePositiveRate: 0.6152
Weighted MatthewsCorrelation: 0.6032393276615002
Weighted FMeasure: 0.61293913601469
Iteration time: 143.0
Weighted AreaUnderPRC: 0.6687894213634434
Mean absolute error: 0.03333769188400857
Coverage of cases: 84.75
Instances selection time: 137.0
Test time: 2036.0
Accumulative iteration time: 577.0
Weighted Recall: 0.6152
Weighted FalsePositiveRate: 0.015355365527929222
Kappa statistic: 0.5997931862647482
Training time: 6.0
		
Iteration: 5
Labeled set size: 2080
Unlabelled set size: 7920
	
Mean region size: 11.245384615385309
Incorrectly Classified Instances: 38.47
Correctly Classified Instances: 61.53
Weighted Precision: 0.630976226265177
Weighted AreaUnderROC: 0.9512505293780982
Root mean squared error: 0.1446594549640928
Relative absolute error: 45.06392574657601
Root relative squared error: 75.22291658133351
Weighted TruePositiveRate: 0.6153
Weighted MatthewsCorrelation: 0.6031137375124378
Weighted FMeasure: 0.6127469733102826
Iteration time: 141.0
Weighted AreaUnderPRC: 0.6691597582883558
Mean absolute error: 0.03333130602556933
Coverage of cases: 84.85
Instances selection time: 134.0
Test time: 2031.0
Accumulative iteration time: 718.0
Weighted Recall: 0.6153
Weighted FalsePositiveRate: 0.015348085860619523
Kappa statistic: 0.5998984676059307
Training time: 7.0
		
Iteration: 6
Labeled set size: 2100
Unlabelled set size: 7900
	
Mean region size: 11.291923076923752
Incorrectly Classified Instances: 38.75
Correctly Classified Instances: 61.25
Weighted Precision: 0.6279910489004177
Weighted AreaUnderROC: 0.9516349323214467
Root mean squared error: 0.144782099433916
Relative absolute error: 45.17109078016644
Root relative squared error: 75.28669170564157
Weighted TruePositiveRate: 0.6125
Weighted MatthewsCorrelation: 0.6001513354543444
Weighted FMeasure: 0.609937008054243
Iteration time: 142.0
Weighted AreaUnderPRC: 0.6686582950957353
Mean absolute error: 0.03341057010366874
Coverage of cases: 84.96
Instances selection time: 135.0
Test time: 2045.0
Accumulative iteration time: 860.0
Weighted Recall: 0.6125
Weighted FalsePositiveRate: 0.015461855632851584
Kappa statistic: 0.5969848727465956
Training time: 7.0
		
Iteration: 7
Labeled set size: 2120
Unlabelled set size: 7880
	
Mean region size: 11.256923076923776
Incorrectly Classified Instances: 38.4
Correctly Classified Instances: 61.6
Weighted Precision: 0.6317995703572873
Weighted AreaUnderROC: 0.9514005181861231
Root mean squared error: 0.14472813544445703
Relative absolute error: 45.137529888891464
Root relative squared error: 75.25863043112291
Weighted TruePositiveRate: 0.616
Weighted MatthewsCorrelation: 0.603969242991054
Weighted FMeasure: 0.6136780733431791
Iteration time: 142.0
Weighted AreaUnderPRC: 0.6684073314690837
Mean absolute error: 0.033385746959234595
Coverage of cases: 84.88
Instances selection time: 135.0
Test time: 2037.0
Accumulative iteration time: 1002.0
Weighted Recall: 0.616
Weighted FalsePositiveRate: 0.015318101013368878
Kappa statistic: 0.6006292585245373
Training time: 7.0
		
Iteration: 8
Labeled set size: 2140
Unlabelled set size: 7860
	
Mean region size: 11.229615384616098
Incorrectly Classified Instances: 38.51
Correctly Classified Instances: 61.49
Weighted Precision: 0.6303787367175901
Weighted AreaUnderROC: 0.9512007423056199
Root mean squared error: 0.1448330524239397
Relative absolute error: 45.154622361548576
Root relative squared error: 75.3131872604539
Weighted TruePositiveRate: 0.6149
Weighted MatthewsCorrelation: 0.6028546396646077
Weighted FMeasure: 0.6128302460262617
Iteration time: 142.0
Weighted AreaUnderPRC: 0.6678341329013804
Mean absolute error: 0.03339838932066737
Coverage of cases: 84.64
Instances selection time: 135.0
Test time: 2051.0
Accumulative iteration time: 1144.0
Weighted Recall: 0.6149
Weighted FalsePositiveRate: 0.015361132145856016
Kappa statistic: 0.5994856817899286
Training time: 7.0
		
Iteration: 9
Labeled set size: 2160
Unlabelled set size: 7840
	
Mean region size: 11.180769230769972
Incorrectly Classified Instances: 38.5
Correctly Classified Instances: 61.5
Weighted Precision: 0.630570391238378
Weighted AreaUnderROC: 0.9511054090701949
Root mean squared error: 0.14484274284465548
Relative absolute error: 45.07586277307463
Root relative squared error: 75.31822627922611
Weighted TruePositiveRate: 0.615
Weighted MatthewsCorrelation: 0.6031032311320057
Weighted FMeasure: 0.613195183250678
Iteration time: 140.0
Weighted AreaUnderPRC: 0.6680561663363865
Mean absolute error: 0.03334013518718073
Coverage of cases: 84.67
Instances selection time: 133.0
Test time: 2003.0
Accumulative iteration time: 1284.0
Weighted Recall: 0.615
Weighted FalsePositiveRate: 0.015358262966951516
Kappa statistic: 0.5995894679216927
Training time: 7.0
		
Iteration: 10
Labeled set size: 2180
Unlabelled set size: 7820
	
Mean region size: 11.221153846154548
Incorrectly Classified Instances: 38.18
Correctly Classified Instances: 61.82
Weighted Precision: 0.6328636339395617
Weighted AreaUnderROC: 0.9513480099335813
Root mean squared error: 0.14434067630397504
Relative absolute error: 44.89821389946231
Root relative squared error: 75.05715167807226
Weighted TruePositiveRate: 0.6182
Weighted MatthewsCorrelation: 0.6059267647315099
Weighted FMeasure: 0.615835550681494
Iteration time: 140.0
Weighted AreaUnderPRC: 0.670137421828428
Mean absolute error: 0.03320873809131365
Coverage of cases: 84.91
Instances selection time: 133.0
Test time: 2046.0
Accumulative iteration time: 1424.0
Weighted Recall: 0.6182
Weighted FalsePositiveRate: 0.015231061515196995
Kappa statistic: 0.6029161926335712
Training time: 7.0
		
Iteration: 11
Labeled set size: 2200
Unlabelled set size: 7800
	
Mean region size: 11.237692307693003
Incorrectly Classified Instances: 38.14
Correctly Classified Instances: 61.86
Weighted Precision: 0.633092333101131
Weighted AreaUnderROC: 0.9513038946840863
Root mean squared error: 0.14434636969418146
Relative absolute error: 44.92444588033492
Root relative squared error: 75.0601122409796
Weighted TruePositiveRate: 0.6186
Weighted MatthewsCorrelation: 0.6062765446776104
Weighted FMeasure: 0.6161961349062196
Iteration time: 140.0
Weighted AreaUnderPRC: 0.6698645607060013
Mean absolute error: 0.03322814044403007
Coverage of cases: 84.91
Instances selection time: 132.0
Test time: 2030.0
Accumulative iteration time: 1564.0
Weighted Recall: 0.6186
Weighted FalsePositiveRate: 0.015209072292826212
Kappa statistic: 0.6033350061765961
Training time: 8.0
		
Iteration: 12
Labeled set size: 2220
Unlabelled set size: 7780
	
Mean region size: 11.283461538462216
Incorrectly Classified Instances: 38.28
Correctly Classified Instances: 61.72
Weighted Precision: 0.6320404323234108
Weighted AreaUnderROC: 0.9516348886402156
Root mean squared error: 0.14419089096018062
Relative absolute error: 44.900610657377335
Root relative squared error: 74.97926329929916
Weighted TruePositiveRate: 0.6172
Weighted MatthewsCorrelation: 0.6048335753689412
Weighted FMeasure: 0.6146232266644608
Iteration time: 145.0
Weighted AreaUnderPRC: 0.6708678820034302
Mean absolute error: 0.0332105108412508
Coverage of cases: 85.11
Instances selection time: 137.0
Test time: 2055.0
Accumulative iteration time: 1709.0
Weighted Recall: 0.6172
Weighted FalsePositiveRate: 0.015266926679437813
Kappa statistic: 0.6018786129346871
Training time: 8.0
		
Iteration: 13
Labeled set size: 2240
Unlabelled set size: 7760
	
Mean region size: 11.285000000000679
Incorrectly Classified Instances: 38.29
Correctly Classified Instances: 61.71
Weighted Precision: 0.632280944533207
Weighted AreaUnderROC: 0.9518636743577128
Root mean squared error: 0.14417026571061864
Relative absolute error: 44.90133979710105
Root relative squared error: 74.96853816952692
Weighted TruePositiveRate: 0.6171
Weighted MatthewsCorrelation: 0.6048503595684284
Weighted FMeasure: 0.6145858701548456
Iteration time: 137.0
Weighted AreaUnderPRC: 0.6709524778718442
Mean absolute error: 0.03321105014578017
Coverage of cases: 85.16
Instances selection time: 129.0
Test time: 2020.0
Accumulative iteration time: 1846.0
Weighted Recall: 0.6171
Weighted FalsePositiveRate: 0.015271221890788101
Kappa statistic: 0.6017737531607973
Training time: 8.0
		
Iteration: 14
Labeled set size: 2260
Unlabelled set size: 7740
	
Mean region size: 11.370384615385237
Incorrectly Classified Instances: 38.34
Correctly Classified Instances: 61.66
Weighted Precision: 0.6310810999538182
Weighted AreaUnderROC: 0.9521571375715252
Root mean squared error: 0.14399602870649625
Relative absolute error: 44.95213101412314
Root relative squared error: 74.87793492738328
Weighted TruePositiveRate: 0.6166
Weighted MatthewsCorrelation: 0.6040599230809489
Weighted FMeasure: 0.6138943553208889
Iteration time: 137.0
Weighted AreaUnderPRC: 0.6717626538999982
Mean absolute error: 0.03324861761399177
Coverage of cases: 85.32
Instances selection time: 130.0
Test time: 2050.0
Accumulative iteration time: 1983.0
Weighted Recall: 0.6166
Weighted FalsePositiveRate: 0.015291007059463312
Kappa statistic: 0.601253296043479
Training time: 7.0
		
Iteration: 15
Labeled set size: 2280
Unlabelled set size: 7720
	
Mean region size: 11.169230769231508
Incorrectly Classified Instances: 38.15
Correctly Classified Instances: 61.85
Weighted Precision: 0.6291883601075868
Weighted AreaUnderROC: 0.953172254904321
Root mean squared error: 0.14355084515164795
Relative absolute error: 44.71123574902233
Root relative squared error: 74.64643947886215
Weighted TruePositiveRate: 0.6185
Weighted MatthewsCorrelation: 0.6048245102230022
Weighted FMeasure: 0.6154158615236721
Iteration time: 137.0
Weighted AreaUnderPRC: 0.6729447626663607
Mean absolute error: 0.033070440642763384
Coverage of cases: 85.53
Instances selection time: 130.0
Test time: 2009.0
Accumulative iteration time: 2120.0
Weighted Recall: 0.6185
Weighted FalsePositiveRate: 0.015223470050583705
Kappa statistic: 0.6032250574556638
Training time: 7.0
		
Iteration: 16
Labeled set size: 2300
Unlabelled set size: 7700
	
Mean region size: 11.158846153846895
Incorrectly Classified Instances: 38.15
Correctly Classified Instances: 61.85
Weighted Precision: 0.6290599743387093
Weighted AreaUnderROC: 0.9530697179252334
Root mean squared error: 0.1436329452988628
Relative absolute error: 44.72224440911749
Root relative squared error: 74.68913155541387
Weighted TruePositiveRate: 0.6185
Weighted MatthewsCorrelation: 0.6047323162069717
Weighted FMeasure: 0.6152946621378401
Iteration time: 136.0
Weighted AreaUnderPRC: 0.6726695289576761
Mean absolute error: 0.033078583142833774
Coverage of cases: 85.52
Instances selection time: 128.0
Test time: 2038.0
Accumulative iteration time: 2256.0
Weighted Recall: 0.6185
Weighted FalsePositiveRate: 0.015229734691824526
Kappa statistic: 0.6032220656373669
Training time: 8.0
		
Iteration: 17
Labeled set size: 2320
Unlabelled set size: 7680
	
Mean region size: 11.128076923077675
Incorrectly Classified Instances: 38.07
Correctly Classified Instances: 61.93
Weighted Precision: 0.6299846912699926
Weighted AreaUnderROC: 0.9531156227996848
Root mean squared error: 0.14361391286725303
Relative absolute error: 44.652512033107
Root relative squared error: 74.67923469097678
Weighted TruePositiveRate: 0.6193
Weighted MatthewsCorrelation: 0.6055721086437096
Weighted FMeasure: 0.6160476758175929
Iteration time: 134.0
Weighted AreaUnderPRC: 0.6728741869470956
Mean absolute error: 0.03302700594164259
Coverage of cases: 85.38
Instances selection time: 127.0
Test time: 2038.0
Accumulative iteration time: 2390.0
Weighted Recall: 0.6193
Weighted FalsePositiveRate: 0.015198318110177083
Kappa statistic: 0.6040546056436914
Training time: 7.0
		
Iteration: 18
Labeled set size: 2340
Unlabelled set size: 7660
	
Mean region size: 11.179615384616094
Incorrectly Classified Instances: 37.99
Correctly Classified Instances: 62.01
Weighted Precision: 0.630702273469773
Weighted AreaUnderROC: 0.9531661645553031
Root mean squared error: 0.1435254630565657
Relative absolute error: 44.66812483401898
Root relative squared error: 74.63324078941936
Weighted TruePositiveRate: 0.6201
Weighted MatthewsCorrelation: 0.6062457083297477
Weighted FMeasure: 0.6165528425396152
Iteration time: 136.0
Weighted AreaUnderPRC: 0.6736091518334569
Mean absolute error: 0.03303855387131121
Coverage of cases: 85.39
Instances selection time: 128.0
Test time: 2045.0
Accumulative iteration time: 2526.0
Weighted Recall: 0.6201
Weighted FalsePositiveRate: 0.015172782653592643
Kappa statistic: 0.6048838354836136
Training time: 8.0
		
Iteration: 19
Labeled set size: 2360
Unlabelled set size: 7640
	
Mean region size: 11.181923076923786
Incorrectly Classified Instances: 38.17
Correctly Classified Instances: 61.83
Weighted Precision: 0.62873573958876
Weighted AreaUnderROC: 0.9532174240201547
Root mean squared error: 0.14368369972807335
Relative absolute error: 44.74084609303738
Root relative squared error: 74.71552385860336
Weighted TruePositiveRate: 0.6183
Weighted MatthewsCorrelation: 0.6043087676422487
Weighted FMeasure: 0.6146976389996324
Iteration time: 135.0
Weighted AreaUnderPRC: 0.6732473661645558
Mean absolute error: 0.03309234178478635
Coverage of cases: 85.3
Instances selection time: 127.0
Test time: 2042.0
Accumulative iteration time: 2661.0
Weighted Recall: 0.6183
Weighted FalsePositiveRate: 0.015247187017613795
Kappa statistic: 0.603010414564669
Training time: 8.0
		
Iteration: 20
Labeled set size: 2380
Unlabelled set size: 7620
	
Mean region size: 11.22923076923148
Incorrectly Classified Instances: 38.23
Correctly Classified Instances: 61.77
Weighted Precision: 0.6281121810158802
Weighted AreaUnderROC: 0.9534391886390987
Root mean squared error: 0.1435835676392605
Relative absolute error: 44.76337929830152
Root relative squared error: 74.66345517242067
Weighted TruePositiveRate: 0.6177
Weighted MatthewsCorrelation: 0.6035768998207078
Weighted FMeasure: 0.6138721702917457
Iteration time: 135.0
Weighted AreaUnderPRC: 0.673299979076639
Mean absolute error: 0.03310900835672728
Coverage of cases: 85.46
Instances selection time: 127.0
Test time: 2260.0
Accumulative iteration time: 2796.0
Weighted Recall: 0.6177
Weighted FalsePositiveRate: 0.015271722860198941
Kappa statistic: 0.6023864881547367
Training time: 8.0
		
Iteration: 21
Labeled set size: 2400
Unlabelled set size: 7600
	
Mean region size: 11.193076923077639
Incorrectly Classified Instances: 37.97
Correctly Classified Instances: 62.03
Weighted Precision: 0.6308680028815608
Weighted AreaUnderROC: 0.9533145491884623
Root mean squared error: 0.14348578726428105
Relative absolute error: 44.70375905500705
Root relative squared error: 74.61260937743135
Weighted TruePositiveRate: 0.6203
Weighted MatthewsCorrelation: 0.6064858687773028
Weighted FMeasure: 0.6168264859697652
Iteration time: 133.0
Weighted AreaUnderPRC: 0.6738015759315534
Mean absolute error: 0.03306491054363966
Coverage of cases: 85.4
Instances selection time: 125.0
Test time: 2026.0
Accumulative iteration time: 2929.0
Weighted Recall: 0.6203
Weighted FalsePositiveRate: 0.015166964347436689
Kappa statistic: 0.6050910123249046
Training time: 8.0
		
Iteration: 22
Labeled set size: 2420
Unlabelled set size: 7580
	
Mean region size: 11.187692307693016
Incorrectly Classified Instances: 38.1
Correctly Classified Instances: 61.9
Weighted Precision: 0.6293819975287237
Weighted AreaUnderROC: 0.9533572128526899
Root mean squared error: 0.1434719387498318
Relative absolute error: 44.687735987653966
Root relative squared error: 74.60540814991775
Weighted TruePositiveRate: 0.619
Weighted MatthewsCorrelation: 0.6050193424690692
Weighted FMeasure: 0.6153818661876197
Iteration time: 137.0
Weighted AreaUnderPRC: 0.6743168950120229
Mean absolute error: 0.033053059162461346
Coverage of cases: 85.37
Instances selection time: 129.0
Test time: 2277.0
Accumulative iteration time: 3066.0
Weighted Recall: 0.619
Weighted FalsePositiveRate: 0.015216595908744903
Kappa statistic: 0.603739303145299
Training time: 8.0
		
Iteration: 23
Labeled set size: 2440
Unlabelled set size: 7560
	
Mean region size: 11.200384615385328
Incorrectly Classified Instances: 38.15
Correctly Classified Instances: 61.85
Weighted Precision: 0.6289768386728385
Weighted AreaUnderROC: 0.9534126799135776
Root mean squared error: 0.14340394177731633
Relative absolute error: 44.69551410532802
Root relative squared error: 74.5700497242097
Weighted TruePositiveRate: 0.6185
Weighted MatthewsCorrelation: 0.6045314296071174
Weighted FMeasure: 0.614902482040603
Iteration time: 138.0
Weighted AreaUnderPRC: 0.6744598306392195
Mean absolute error: 0.03305881220807825
Coverage of cases: 85.47
Instances selection time: 130.0
Test time: 2056.0
Accumulative iteration time: 3204.0
Weighted Recall: 0.6185
Weighted FalsePositiveRate: 0.015235980133930812
Kappa statistic: 0.6032198826132004
Training time: 8.0
		
Iteration: 24
Labeled set size: 2460
Unlabelled set size: 7540
	
Mean region size: 11.173461538462256
Incorrectly Classified Instances: 38.19
Correctly Classified Instances: 61.81
Weighted Precision: 0.6281244802732188
Weighted AreaUnderROC: 0.9534186644730351
Root mean squared error: 0.1433507659727687
Relative absolute error: 44.6386798233691
Root relative squared error: 74.54239830584493
Weighted TruePositiveRate: 0.6181
Weighted MatthewsCorrelation: 0.6040097470656101
Weighted FMeasure: 0.6145332507258913
Iteration time: 137.0
Weighted AreaUnderPRC: 0.6749436427040132
Mean absolute error: 0.03301677501728024
Coverage of cases: 85.39
Instances selection time: 129.0
Test time: 2074.0
Accumulative iteration time: 3341.0
Weighted Recall: 0.6181
Weighted FalsePositiveRate: 0.015252075883646321
Kappa statistic: 0.6028036632298003
Training time: 8.0
		
Iteration: 25
Labeled set size: 2480
Unlabelled set size: 7520
	
Mean region size: 11.151923076923792
Incorrectly Classified Instances: 38.25
Correctly Classified Instances: 61.75
Weighted Precision: 0.6273053974175637
Weighted AreaUnderROC: 0.9536148079609824
Root mean squared error: 0.14327394249167408
Relative absolute error: 44.57277434662405
Root relative squared error: 74.50245009567573
Weighted TruePositiveRate: 0.6175
Weighted MatthewsCorrelation: 0.6033516396472607
Weighted FMeasure: 0.613984899204822
Iteration time: 132.0
Weighted AreaUnderPRC: 0.676206729854244
Mean absolute error: 0.03296802836288302
Coverage of cases: 85.41
Instances selection time: 124.0
Test time: 2079.0
Accumulative iteration time: 3473.0
Weighted Recall: 0.6175
Weighted FalsePositiveRate: 0.015277671722737963
Kappa statistic: 0.602178754117671
Training time: 8.0
		
Iteration: 26
Labeled set size: 2500
Unlabelled set size: 7500
	
Mean region size: 11.171153846154557
Incorrectly Classified Instances: 38.46
Correctly Classified Instances: 61.54
Weighted Precision: 0.624773500733795
Weighted AreaUnderROC: 0.9535507481079403
Root mean squared error: 0.14352880309376131
Relative absolute error: 44.69695128352259
Root relative squared error: 74.63497760876109
Weighted TruePositiveRate: 0.6154
Weighted MatthewsCorrelation: 0.6010166178229006
Weighted FMeasure: 0.6117928553724147
Iteration time: 134.0
Weighted AreaUnderPRC: 0.6747322746423196
Mean absolute error: 0.033059875209701446
Coverage of cases: 85.32
Instances selection time: 124.0
Test time: 2082.0
Accumulative iteration time: 3607.0
Weighted Recall: 0.6154
Weighted FalsePositiveRate: 0.015361542684775128
Kappa statistic: 0.5999941299190568
Training time: 10.0
		
Iteration: 27
Labeled set size: 2520
Unlabelled set size: 7480
	
Mean region size: 11.18538461538533
Incorrectly Classified Instances: 38.6
Correctly Classified Instances: 61.4
Weighted Precision: 0.6239190983694193
Weighted AreaUnderROC: 0.95320185659781
Root mean squared error: 0.14389620188354205
Relative absolute error: 44.86823053075309
Root relative squared error: 74.82602497944708
Weighted TruePositiveRate: 0.614
Weighted MatthewsCorrelation: 0.5996719672793637
Weighted FMeasure: 0.6103150847507545
Iteration time: 138.0
Weighted AreaUnderPRC: 0.6725671239568384
Mean absolute error: 0.0331865610434518
Coverage of cases: 85.29
Instances selection time: 125.0
Test time: 2058.0
Accumulative iteration time: 3745.0
Weighted Recall: 0.614
Weighted FalsePositiveRate: 0.015418074707443838
Kappa statistic: 0.5985378373616039
Training time: 13.0
		
Iteration: 28
Labeled set size: 2540
Unlabelled set size: 7460
	
Mean region size: 11.228846153846854
Incorrectly Classified Instances: 38.78
Correctly Classified Instances: 61.22
Weighted Precision: 0.6217691908594601
Weighted AreaUnderROC: 0.9532356977796388
Root mean squared error: 0.1441004225915607
Relative absolute error: 45.004158861426355
Root relative squared error: 74.9322197476168
Weighted TruePositiveRate: 0.6122
Weighted MatthewsCorrelation: 0.5976357918443508
Weighted FMeasure: 0.6083632340524378
Iteration time: 132.0
Weighted AreaUnderPRC: 0.6712378593032571
Mean absolute error: 0.033287099749571065
Coverage of cases: 85.37
Instances selection time: 123.0
Test time: 2079.0
Accumulative iteration time: 3877.0
Weighted Recall: 0.6122
Weighted FalsePositiveRate: 0.015489628140935135
Kappa statistic: 0.5966661031640743
Training time: 9.0
		
Iteration: 29
Labeled set size: 2560
Unlabelled set size: 7440
	
Mean region size: 11.265384615385285
Incorrectly Classified Instances: 38.73
Correctly Classified Instances: 61.27
Weighted Precision: 0.6220933411865334
Weighted AreaUnderROC: 0.953307946821189
Root mean squared error: 0.14391717717173566
Relative absolute error: 44.95153717588946
Root relative squared error: 74.83693212930777
Weighted TruePositiveRate: 0.6127
Weighted MatthewsCorrelation: 0.5980552807858941
Weighted FMeasure: 0.6087512060859952
Iteration time: 130.0
Weighted AreaUnderPRC: 0.6717993268067971
Mean absolute error: 0.033248178384528995
Coverage of cases: 85.48
Instances selection time: 121.0
Test time: 2071.0
Accumulative iteration time: 4007.0
Weighted Recall: 0.6127
Weighted FalsePositiveRate: 0.01547131556583298
Kappa statistic: 0.5971854485078977
Training time: 9.0
		
Iteration: 30
Labeled set size: 2580
Unlabelled set size: 7420
	
Mean region size: 11.276923076923753
Incorrectly Classified Instances: 38.59
Correctly Classified Instances: 61.41
Weighted Precision: 0.6232712530750613
Weighted AreaUnderROC: 0.9534333296477496
Root mean squared error: 0.14388720715129566
Relative absolute error: 44.93143483886014
Root relative squared error: 74.82134771867896
Weighted TruePositiveRate: 0.6141
Weighted MatthewsCorrelation: 0.5994072295655665
Weighted FMeasure: 0.6100635875465783
Iteration time: 131.0
Weighted AreaUnderPRC: 0.6726735236827394
Mean absolute error: 0.033233309792051684
Coverage of cases: 85.59
Instances selection time: 122.0
Test time: 2096.0
Accumulative iteration time: 4138.0
Weighted Recall: 0.6141
Weighted FalsePositiveRate: 0.015419031264510238
Kappa statistic: 0.5986400272504596
Training time: 9.0
		
Iteration: 31
Labeled set size: 2600
Unlabelled set size: 7400
	
Mean region size: 11.255000000000683
Incorrectly Classified Instances: 38.57
Correctly Classified Instances: 61.43
Weighted Precision: 0.6239110083752187
Weighted AreaUnderROC: 0.9535451463106851
Root mean squared error: 0.14375029949651344
Relative absolute error: 44.8671259255038
Root relative squared error: 74.7501557381922
Weighted TruePositiveRate: 0.6143
Weighted MatthewsCorrelation: 0.599809875366702
Weighted FMeasure: 0.6104301479080052
Iteration time: 131.0
Weighted AreaUnderPRC: 0.67345019002568
Mean absolute error: 0.03318574402773487
Coverage of cases: 85.76
Instances selection time: 122.0
Test time: 2073.0
Accumulative iteration time: 4269.0
Weighted Recall: 0.6143
Weighted FalsePositiveRate: 0.01541103130029308
Kappa statistic: 0.5988479103356331
Training time: 9.0
		
Iteration: 32
Labeled set size: 2620
Unlabelled set size: 7380
	
Mean region size: 11.217692307692996
Incorrectly Classified Instances: 38.61
Correctly Classified Instances: 61.39
Weighted Precision: 0.6233982843549019
Weighted AreaUnderROC: 0.9534677013742182
Root mean squared error: 0.1440121288072272
Relative absolute error: 44.89825694791155
Root relative squared error: 74.88630697976336
Weighted TruePositiveRate: 0.6139
Weighted MatthewsCorrelation: 0.5993577277371678
Weighted FMeasure: 0.6100160375050038
Iteration time: 129.0
Weighted AreaUnderPRC: 0.6728565976795103
Mean absolute error: 0.03320876993188261
Coverage of cases: 85.6
Instances selection time: 121.0
Test time: 2069.0
Accumulative iteration time: 4398.0
Weighted Recall: 0.6139
Weighted FalsePositiveRate: 0.01542549172696938
Kappa statistic: 0.5984322320069481
Training time: 8.0
		
Iteration: 33
Labeled set size: 2640
Unlabelled set size: 7360
	
Mean region size: 11.205769230769938
Incorrectly Classified Instances: 38.61
Correctly Classified Instances: 61.39
Weighted Precision: 0.6230802736435828
Weighted AreaUnderROC: 0.9534922151930368
Root mean squared error: 0.144006869677989
Relative absolute error: 44.867418069977816
Root relative squared error: 74.88357223255952
Weighted TruePositiveRate: 0.6139
Weighted MatthewsCorrelation: 0.5992601104563803
Weighted FMeasure: 0.6099865994815874
Iteration time: 128.0
Weighted AreaUnderPRC: 0.6726478538479863
Mean absolute error: 0.033185960110925714
Coverage of cases: 85.59
Instances selection time: 119.0
Test time: 2532.0
Accumulative iteration time: 4526.0
Weighted Recall: 0.6139
Weighted FalsePositiveRate: 0.015425603474993608
Kappa statistic: 0.5984327415456442
Training time: 9.0
		
Iteration: 34
Labeled set size: 2660
Unlabelled set size: 7340
	
Mean region size: 11.210384615385317
Incorrectly Classified Instances: 38.54
Correctly Classified Instances: 61.46
Weighted Precision: 0.6232967166591766
Weighted AreaUnderROC: 0.9536779516631927
Root mean squared error: 0.14388095081246635
Relative absolute error: 44.814520369955375
Root relative squared error: 74.81809442248773
Weighted TruePositiveRate: 0.6146
Weighted MatthewsCorrelation: 0.5997666186383014
Weighted FMeasure: 0.6104831526918797
Iteration time: 126.0
Weighted AreaUnderPRC: 0.6731987935501057
Mean absolute error: 0.03314683459315764
Coverage of cases: 85.75
Instances selection time: 117.0
Test time: 2041.0
Accumulative iteration time: 4652.0
Weighted Recall: 0.6146
Weighted FalsePositiveRate: 0.015394781434211212
Kappa statistic: 0.5991611297374183
Training time: 9.0
		
Iteration: 35
Labeled set size: 2680
Unlabelled set size: 7320
	
Mean region size: 11.24615384615452
Incorrectly Classified Instances: 38.49
Correctly Classified Instances: 61.51
Weighted Precision: 0.6242289036064643
Weighted AreaUnderROC: 0.953848213767136
Root mean squared error: 0.14370041850121337
Relative absolute error: 44.76022220244867
Root relative squared error: 74.72421762063617
Weighted TruePositiveRate: 0.6151
Weighted MatthewsCorrelation: 0.6004013300251506
Weighted FMeasure: 0.6109849985220971
Iteration time: 125.0
Weighted AreaUnderPRC: 0.6743816458089287
Mean absolute error: 0.033106673226658605
Coverage of cases: 85.79
Instances selection time: 116.0
Test time: 2038.0
Accumulative iteration time: 4777.0
Weighted Recall: 0.6151
Weighted FalsePositiveRate: 0.015375059000143161
Kappa statistic: 0.5996810261744749
Training time: 9.0
		
Iteration: 36
Labeled set size: 2700
Unlabelled set size: 7300
	
Mean region size: 11.22153846153916
Incorrectly Classified Instances: 38.2
Correctly Classified Instances: 61.8
Weighted Precision: 0.6268528182886403
Weighted AreaUnderROC: 0.9538030126277608
Root mean squared error: 0.1435185889723573
Relative absolute error: 44.66169080432544
Root relative squared error: 74.62966626563102
Weighted TruePositiveRate: 0.618
Weighted MatthewsCorrelation: 0.6032927853273854
Weighted FMeasure: 0.6137947593926105
Iteration time: 125.0
Weighted AreaUnderPRC: 0.6750357679781164
Mean absolute error: 0.033033794973608886
Coverage of cases: 85.8
Instances selection time: 115.0
Test time: 2033.0
Accumulative iteration time: 4902.0
Weighted Recall: 0.618
Weighted FalsePositiveRate: 0.015263402744009844
Kappa statistic: 0.602694984404842
Training time: 10.0
		
Iteration: 37
Labeled set size: 2720
Unlabelled set size: 7280
	
Mean region size: 11.21653846153915
Incorrectly Classified Instances: 38.1
Correctly Classified Instances: 61.9
Weighted Precision: 0.6280490593070872
Weighted AreaUnderROC: 0.9537903473298079
Root mean squared error: 0.14330869777417682
Relative absolute error: 44.60580570676255
Root relative squared error: 74.52052284257715
Weighted TruePositiveRate: 0.619
Weighted MatthewsCorrelation: 0.6044649381132595
Weighted FMeasure: 0.6149715321024517
Iteration time: 124.0
Weighted AreaUnderPRC: 0.6760192966248968
Mean absolute error: 0.0329924598422754
Coverage of cases: 85.76
Instances selection time: 116.0
Test time: 2033.0
Accumulative iteration time: 5026.0
Weighted Recall: 0.619
Weighted FalsePositiveRate: 0.015223197398394268
Kappa statistic: 0.6037350746191816
Training time: 8.0
		
Iteration: 38
Labeled set size: 2740
Unlabelled set size: 7260
	
Mean region size: 11.252307692308372
Incorrectly Classified Instances: 38.04
Correctly Classified Instances: 61.96
Weighted Precision: 0.6286918639021913
Weighted AreaUnderROC: 0.9537428223432313
Root mean squared error: 0.14348638548470058
Relative absolute error: 44.69538008026334
Root relative squared error: 74.61292045204951
Weighted TruePositiveRate: 0.6196
Weighted MatthewsCorrelation: 0.605038883698836
Weighted FMeasure: 0.6154414792605866
Iteration time: 125.0
Weighted AreaUnderPRC: 0.6756572667357218
Mean absolute error: 0.03305871307711325
Coverage of cases: 85.72
Instances selection time: 116.0
Test time: 2031.0
Accumulative iteration time: 5151.0
Weighted Recall: 0.6196
Weighted FalsePositiveRate: 0.015203604907946906
Kappa statistic: 0.604356990559546
Training time: 9.0
		
Iteration: 39
Labeled set size: 2760
Unlabelled set size: 7240
	
Mean region size: 11.24192307692378
Incorrectly Classified Instances: 38.01
Correctly Classified Instances: 61.99
Weighted Precision: 0.6295514854756908
Weighted AreaUnderROC: 0.9537701329842948
Root mean squared error: 0.14347974316973605
Relative absolute error: 44.707548855655865
Root relative squared error: 74.60946644826795
Weighted TruePositiveRate: 0.6199
Weighted MatthewsCorrelation: 0.6056349263848175
Weighted FMeasure: 0.6160316484921463
Iteration time: 124.0
Weighted AreaUnderPRC: 0.6760635600721081
Mean absolute error: 0.03306771365062843
Coverage of cases: 85.77
Instances selection time: 115.0
Test time: 2055.0
Accumulative iteration time: 5275.0
Weighted Recall: 0.6199
Weighted FalsePositiveRate: 0.015187978778044725
Kappa statistic: 0.6046708662387287
Training time: 9.0
		
Iteration: 40
Labeled set size: 2780
Unlabelled set size: 7220
	
Mean region size: 11.236923076923786
Incorrectly Classified Instances: 37.96
Correctly Classified Instances: 62.04
Weighted Precision: 0.6297541780374337
Weighted AreaUnderROC: 0.9537643150781819
Root mean squared error: 0.14334393452853877
Relative absolute error: 44.67038682887761
Root relative squared error: 74.53884595484537
Weighted TruePositiveRate: 0.6204
Weighted MatthewsCorrelation: 0.6061216835890034
Weighted FMeasure: 0.6166317846178812
Iteration time: 122.0
Weighted AreaUnderPRC: 0.6761497012211954
Mean absolute error: 0.0330402269444315
Coverage of cases: 85.68
Instances selection time: 113.0
Test time: 2049.0
Accumulative iteration time: 5397.0
Weighted Recall: 0.6204
Weighted FalsePositiveRate: 0.015165481257757471
Kappa statistic: 0.6051918232106396
Training time: 9.0
		
Iteration: 41
Labeled set size: 2800
Unlabelled set size: 7200
	
Mean region size: 11.228846153846861
Incorrectly Classified Instances: 37.88
Correctly Classified Instances: 62.12
Weighted Precision: 0.6312904889142466
Weighted AreaUnderROC: 0.953751820086537
Root mean squared error: 0.14333543914544886
Relative absolute error: 44.679286819072914
Root relative squared error: 74.53442835563861
Weighted TruePositiveRate: 0.6212
Weighted MatthewsCorrelation: 0.6072096143624934
Weighted FMeasure: 0.6175608495466065
Iteration time: 121.0
Weighted AreaUnderPRC: 0.6756351001112859
Mean absolute error: 0.03304680977741619
Coverage of cases: 85.69
Instances selection time: 112.0
Test time: 2055.0
Accumulative iteration time: 5518.0
Weighted Recall: 0.6212
Weighted FalsePositiveRate: 0.015137644581540774
Kappa statistic: 0.6060223826297723
Training time: 9.0
		
Iteration: 42
Labeled set size: 2820
Unlabelled set size: 7180
	
Mean region size: 11.216538461539166
Incorrectly Classified Instances: 37.77
Correctly Classified Instances: 62.23
Weighted Precision: 0.6329072457747719
Weighted AreaUnderROC: 0.9536642532086391
Root mean squared error: 0.14325007919083282
Relative absolute error: 44.625072912434916
Root relative squared error: 74.49004117923826
Weighted TruePositiveRate: 0.6223
Weighted MatthewsCorrelation: 0.6085781511958155
Weighted FMeasure: 0.6188594733091036
Iteration time: 121.0
Weighted AreaUnderPRC: 0.6760021705171173
Mean absolute error: 0.033006710734044896
Coverage of cases: 85.6
Instances selection time: 112.0
Test time: 2043.0
Accumulative iteration time: 5639.0
Weighted Recall: 0.6223
Weighted FalsePositiveRate: 0.015093895965377862
Kappa statistic: 0.6071671761081926
Training time: 9.0
		
Iteration: 43
Labeled set size: 2840
Unlabelled set size: 7160
	
Mean region size: 11.201923076923789
Incorrectly Classified Instances: 37.8
Correctly Classified Instances: 62.2
Weighted Precision: 0.6322675529244405
Weighted AreaUnderROC: 0.9537307766775457
Root mean squared error: 0.1432751994180828
Relative absolute error: 44.60440950164393
Root relative squared error: 74.50310369740826
Weighted TruePositiveRate: 0.622
Weighted MatthewsCorrelation: 0.6081283990233204
Weighted FMeasure: 0.618453661579499
Iteration time: 121.0
Weighted AreaUnderPRC: 0.6763656585853675
Mean absolute error: 0.032991427146181744
Coverage of cases: 85.69
Instances selection time: 112.0
Test time: 2052.0
Accumulative iteration time: 5760.0
Weighted Recall: 0.622
Weighted FalsePositiveRate: 0.015108789313631672
Kappa statistic: 0.6068540687234064
Training time: 9.0
		
Iteration: 44
Labeled set size: 2860
Unlabelled set size: 7140
	
Mean region size: 11.198461538462269
Incorrectly Classified Instances: 37.86
Correctly Classified Instances: 62.14
Weighted Precision: 0.6318824267941912
Weighted AreaUnderROC: 0.9537301353548915
Root mean squared error: 0.14329941814416094
Relative absolute error: 44.633255257126535
Root relative squared error: 74.5156974349689
Weighted TruePositiveRate: 0.6214
Weighted MatthewsCorrelation: 0.6076929293965849
Weighted FMeasure: 0.6181398337146105
Iteration time: 120.0
Weighted AreaUnderPRC: 0.6764887113341785
Mean absolute error: 0.033012762764142244
Coverage of cases: 85.68
Instances selection time: 110.0
Test time: 2040.0
Accumulative iteration time: 5880.0
Weighted Recall: 0.6214
Weighted FalsePositiveRate: 0.015131172622676624
Kappa statistic: 0.606230584546849
Training time: 10.0
		
Iteration: 45
Labeled set size: 2880
Unlabelled set size: 7120
	
Mean region size: 11.17307692307765
Incorrectly Classified Instances: 37.78
Correctly Classified Instances: 62.22
Weighted Precision: 0.6327712592702193
Weighted AreaUnderROC: 0.9537051799642168
Root mean squared error: 0.14323939811505956
Relative absolute error: 44.55771648893639
Root relative squared error: 74.48448701983618
Weighted TruePositiveRate: 0.6222
Weighted MatthewsCorrelation: 0.6085409470142163
Weighted FMeasure: 0.6189263823940643
Iteration time: 122.0
Weighted AreaUnderPRC: 0.6770966231345891
Mean absolute error: 0.03295689089417913
Coverage of cases: 85.58
Instances selection time: 112.0
Test time: 2056.0
Accumulative iteration time: 6002.0
Weighted Recall: 0.6222
Weighted FalsePositiveRate: 0.015102808022052591
Kappa statistic: 0.6070619475784235
Training time: 10.0
		
Iteration: 46
Labeled set size: 2900
Unlabelled set size: 7100
	
Mean region size: 11.201923076923809
Incorrectly Classified Instances: 37.79
Correctly Classified Instances: 62.21
Weighted Precision: 0.6321589013364804
Weighted AreaUnderROC: 0.9538041045592972
Root mean squared error: 0.14314559090250623
Relative absolute error: 44.57433159052135
Root relative squared error: 74.43570726930844
Weighted TruePositiveRate: 0.6221
Weighted MatthewsCorrelation: 0.6082502477029001
Weighted FMeasure: 0.6187278330323598
Iteration time: 119.0
Weighted AreaUnderPRC: 0.6771994591515833
Mean absolute error: 0.032969180170499365
Coverage of cases: 85.77
Instances selection time: 109.0
Test time: 2043.0
Accumulative iteration time: 6121.0
Weighted Recall: 0.6221
Weighted FalsePositiveRate: 0.01510240994890415
Kappa statistic: 0.6069602176344168
Training time: 10.0
		
Time end:Sat Oct 07 23.17.04 EEST 2017