Sat Oct 07 23.39.37 EEST 2017
Dataset: letter
Test set size: 10000
Initial Labelled set size: 2000
Initial Unlabelled set size: 8000
Batch mode: QBestBatchMode
Batch size: 20
Classifiers: SMO-1cores
Scenario: PoolBasedSamplingScenario
Query strategy: RandomSelectionQueryStrategy-1cores
Time begining: Sat Oct 07 23.39.37 EEST 2017
		
Iteration: 1
Labeled set size: 2000
Unlabelled set size: 8000
	
Mean region size: 78.56384615384331
Incorrectly Classified Instances: 26.98
Correctly Classified Instances: 73.02
Weighted Precision: 0.7548213900520077
Weighted AreaUnderROC: 0.9599826827478135
Root mean squared error: 0.18651440049787454
Relative absolute error: 96.3426240000002
Root relative squared error: 96.98748825890152
Weighted TruePositiveRate: 0.7302
Weighted MatthewsCorrelation: 0.7259928862869569
Weighted FMeasure: 0.7300268431586977
Iteration time: 2506.0
Weighted AreaUnderPRC: 0.6424575136893153
Mean absolute error: 0.07125933727809673
Coverage of cases: 99.77
Instances selection time: 142.0
Test time: 426.0
Accumulative iteration time: 2506.0
Weighted Recall: 0.7302
Weighted FalsePositiveRate: 0.01081813144814457
Kappa statistic: 0.7193753795206164
Training time: 2364.0
		
Iteration: 2
Labeled set size: 2020
Unlabelled set size: 7980
	
Mean region size: 78.56499999999714
Incorrectly Classified Instances: 26.74
Correctly Classified Instances: 73.26
Weighted Precision: 0.7567951221017495
Weighted AreaUnderROC: 0.9601138976621967
Root mean squared error: 0.18651359048496674
Relative absolute error: 96.34214400000005
Root relative squared error: 96.98706705218947
Weighted TruePositiveRate: 0.7326
Weighted MatthewsCorrelation: 0.7283272548573194
Weighted FMeasure: 0.7323145997390624
Iteration time: 2538.0
Weighted AreaUnderPRC: 0.6446693045992031
Mean absolute error: 0.07125898224851081
Coverage of cases: 99.77
Instances selection time: 138.0
Test time: 425.0
Accumulative iteration time: 5044.0
Weighted Recall: 0.7326
Weighted FalsePositiveRate: 0.010718385474402053
Kappa statistic: 0.7218727631962819
Training time: 2400.0
		
Iteration: 3
Labeled set size: 2040
Unlabelled set size: 7960
	
Mean region size: 78.60730769230508
Incorrectly Classified Instances: 26.55
Correctly Classified Instances: 73.45
Weighted Precision: 0.7583982130623648
Weighted AreaUnderROC: 0.9601927900142969
Root mean squared error: 0.1865119831387431
Relative absolute error: 96.3415679999999
Root relative squared error: 96.98623123215319
Weighted TruePositiveRate: 0.7345
Weighted MatthewsCorrelation: 0.7301484312864496
Weighted FMeasure: 0.7340482963049586
Iteration time: 2730.0
Weighted AreaUnderPRC: 0.6466645970385316
Mean absolute error: 0.07125855621300774
Coverage of cases: 99.77
Instances selection time: 143.0
Test time: 421.0
Accumulative iteration time: 7774.0
Weighted Recall: 0.7345
Weighted FalsePositiveRate: 0.010645256867254727
Kappa statistic: 0.7238472646338275
Training time: 2587.0
		
Iteration: 4
Labeled set size: 2060
Unlabelled set size: 7940
	
Mean region size: 78.67923076922857
Incorrectly Classified Instances: 26.63
Correctly Classified Instances: 73.37
Weighted Precision: 0.7573452206195833
Weighted AreaUnderROC: 0.9606936309852881
Root mean squared error: 0.18650212478395634
Relative absolute error: 96.33727999999991
Root relative squared error: 96.98110488766406
Weighted TruePositiveRate: 0.7337
Weighted MatthewsCorrelation: 0.7292671782252718
Weighted FMeasure: 0.7332969079323071
Iteration time: 2624.0
Weighted AreaUnderPRC: 0.6466743890456127
Mean absolute error: 0.07125538461537462
Coverage of cases: 99.76
Instances selection time: 137.0
Test time: 426.0
Accumulative iteration time: 10398.0
Weighted Recall: 0.7337
Weighted FalsePositiveRate: 0.010677001198509381
Kappa statistic: 0.7230155261186946
Training time: 2487.0
		
Iteration: 5
Labeled set size: 2080
Unlabelled set size: 7920
	
Mean region size: 78.72423076922883
Incorrectly Classified Instances: 26.71
Correctly Classified Instances: 73.29
Weighted Precision: 0.7569714134408745
Weighted AreaUnderROC: 0.9609517271268614
Root mean squared error: 0.1864973555148146
Relative absolute error: 96.33548799999996
Root relative squared error: 96.97862486771038
Weighted TruePositiveRate: 0.7329
Weighted MatthewsCorrelation: 0.7286605801740796
Weighted FMeasure: 0.7327313273567772
Iteration time: 2609.0
Weighted AreaUnderPRC: 0.646586197558352
Mean absolute error: 0.07125405917158767
Coverage of cases: 99.76
Instances selection time: 138.0
Test time: 424.0
Accumulative iteration time: 13007.0
Weighted Recall: 0.7329
Weighted FalsePositiveRate: 0.010709889113638973
Kappa statistic: 0.7221831598269568
Training time: 2471.0
		
Iteration: 6
Labeled set size: 2100
Unlabelled set size: 7900
	
Mean region size: 78.72576923076731
Incorrectly Classified Instances: 26.79
Correctly Classified Instances: 73.21
Weighted Precision: 0.7557887073728206
Weighted AreaUnderROC: 0.9607449954612745
Root mean squared error: 0.18649908403996812
Relative absolute error: 96.33628799999995
Root relative squared error: 96.97952370079018
Weighted TruePositiveRate: 0.7321
Weighted MatthewsCorrelation: 0.7278027389297116
Weighted FMeasure: 0.7320827040353206
Iteration time: 2454.0
Weighted AreaUnderPRC: 0.645998652227312
Mean absolute error: 0.071254650887564
Coverage of cases: 99.76
Instances selection time: 137.0
Test time: 418.0
Accumulative iteration time: 15461.0
Weighted Recall: 0.7321
Weighted FalsePositiveRate: 0.010741175427734758
Kappa statistic: 0.7213519541372151
Training time: 2317.0
		
Iteration: 7
Labeled set size: 2120
Unlabelled set size: 7880
	
Mean region size: 78.72115384615194
Incorrectly Classified Instances: 26.83
Correctly Classified Instances: 73.17
Weighted Precision: 0.7547754567818556
Weighted AreaUnderROC: 0.9609181880628357
Root mean squared error: 0.18649866894547634
Relative absolute error: 96.3360000000001
Root relative squared error: 96.97930785165447
Weighted TruePositiveRate: 0.7317
Weighted MatthewsCorrelation: 0.7270317661957847
Weighted FMeasure: 0.731295858980352
Iteration time: 2553.0
Weighted AreaUnderPRC: 0.645383827625894
Mean absolute error: 0.07125443786981263
Coverage of cases: 99.75
Instances selection time: 139.0
Test time: 426.0
Accumulative iteration time: 18014.0
Weighted Recall: 0.7317
Weighted FalsePositiveRate: 0.010754990052019518
Kappa statistic: 0.7209368757548772
Training time: 2414.0
		
Iteration: 8
Labeled set size: 2140
Unlabelled set size: 7860
	
Mean region size: 78.73038461538287
Incorrectly Classified Instances: 26.36
Correctly Classified Instances: 73.64
Weighted Precision: 0.7603111196156253
Weighted AreaUnderROC: 0.9615386511239005
Root mean squared error: 0.1864881241421635
Relative absolute error: 96.33100799999994
Root relative squared error: 96.97382455393179
Weighted TruePositiveRate: 0.7364
Weighted MatthewsCorrelation: 0.7326650612505372
Weighted FMeasure: 0.7370823466218349
Iteration time: 2934.0
Weighted AreaUnderPRC: 0.6516713090671422
Mean absolute error: 0.0712507455621202
Coverage of cases: 99.77
Instances selection time: 157.0
Test time: 789.0
Accumulative iteration time: 20948.0
Weighted Recall: 0.7364
Weighted FalsePositiveRate: 0.010568978490897434
Kappa statistic: 0.725823624376202
Training time: 2777.0
		
Iteration: 9
Labeled set size: 2160
Unlabelled set size: 7840
	
Mean region size: 78.73807692307516
Incorrectly Classified Instances: 26.27
Correctly Classified Instances: 73.73
Weighted Precision: 0.7613483005301062
Weighted AreaUnderROC: 0.9616528399865256
Root mean squared error: 0.18648770843750095
Relative absolute error: 96.33094399999976
Root relative squared error: 96.97360838750727
Weighted TruePositiveRate: 0.7373
Weighted MatthewsCorrelation: 0.7334573718814927
Weighted FMeasure: 0.7376374991973261
Iteration time: 2502.0
Weighted AreaUnderPRC: 0.6519110358813487
Mean absolute error: 0.07125069822484197
Coverage of cases: 99.77
Instances selection time: 135.0
Test time: 422.0
Accumulative iteration time: 23450.0
Weighted Recall: 0.7373
Weighted FalsePositiveRate: 0.010537548641519507
Kappa statistic: 0.7267580183155962
Training time: 2367.0
		
Iteration: 10
Labeled set size: 2180
Unlabelled set size: 7820
	
Mean region size: 78.7349999999983
Incorrectly Classified Instances: 26.15
Correctly Classified Instances: 73.85
Weighted Precision: 0.7619594375875274
Weighted AreaUnderROC: 0.9617198244482162
Root mean squared error: 0.18648583863372553
Relative absolute error: 96.33011199999977
Root relative squared error: 96.97263608954405
Weighted TruePositiveRate: 0.7385
Weighted MatthewsCorrelation: 0.734666050736149
Weighted FMeasure: 0.7390689153972245
Iteration time: 2559.0
Weighted AreaUnderPRC: 0.6535830183053122
Mean absolute error: 0.07125008284022659
Coverage of cases: 99.76
Instances selection time: 134.0
Test time: 428.0
Accumulative iteration time: 26009.0
Weighted Recall: 0.7385
Weighted FalsePositiveRate: 0.010488875358589703
Kappa statistic: 0.7280065554684657
Training time: 2425.0
		
Iteration: 11
Labeled set size: 2200
Unlabelled set size: 7800
	
Mean region size: 78.72423076922901
Incorrectly Classified Instances: 25.93
Correctly Classified Instances: 74.07
Weighted Precision: 0.7637783650608967
Weighted AreaUnderROC: 0.9620102925123636
Root mean squared error: 0.1864830635729279
Relative absolute error: 96.32851199999979
Root relative squared error: 96.97119305792927
Weighted TruePositiveRate: 0.7407
Weighted MatthewsCorrelation: 0.7367817708478313
Weighted FMeasure: 0.7411149317009232
Iteration time: 2628.0
Weighted AreaUnderPRC: 0.6550916137410203
Mean absolute error: 0.07124889940827395
Coverage of cases: 99.75
Instances selection time: 136.0
Test time: 435.0
Accumulative iteration time: 28637.0
Weighted Recall: 0.7407
Weighted FalsePositiveRate: 0.010399235363417266
Kappa statistic: 0.7302959533336486
Training time: 2492.0
		
Iteration: 12
Labeled set size: 2220
Unlabelled set size: 7780
	
Mean region size: 78.7457692307676
Incorrectly Classified Instances: 26.02
Correctly Classified Instances: 73.98
Weighted Precision: 0.7628499286522826
Weighted AreaUnderROC: 0.961805068277053
Root mean squared error: 0.18648634513839582
Relative absolute error: 96.33030399999983
Root relative squared error: 96.9728994719726
Weighted TruePositiveRate: 0.7398
Weighted MatthewsCorrelation: 0.7355544461759108
Weighted FMeasure: 0.7396292779765836
Iteration time: 2639.0
Weighted AreaUnderPRC: 0.654244910130795
Mean absolute error: 0.07125022485206095
Coverage of cases: 99.75
Instances selection time: 133.0
Test time: 428.0
Accumulative iteration time: 31276.0
Weighted Recall: 0.7398
Weighted FalsePositiveRate: 0.010435043087692638
Kappa statistic: 0.7293594733389438
Training time: 2506.0
		
Iteration: 13
Labeled set size: 2240
Unlabelled set size: 7760
	
Mean region size: 78.80538461538339
Incorrectly Classified Instances: 26.03
Correctly Classified Instances: 73.97
Weighted Precision: 0.7635891761707939
Weighted AreaUnderROC: 0.9620040582002483
Root mean squared error: 0.18648000045301816
Relative absolute error: 96.3276799999997
Root relative squared error: 96.96960023557622
Weighted TruePositiveRate: 0.7397
Weighted MatthewsCorrelation: 0.7358215765311841
Weighted FMeasure: 0.7398426642727075
Iteration time: 2493.0
Weighted AreaUnderPRC: 0.6537637972525367
Mean absolute error: 0.07124828402365849
Coverage of cases: 99.78
Instances selection time: 132.0
Test time: 419.0
Accumulative iteration time: 33769.0
Weighted Recall: 0.7397
Weighted FalsePositiveRate: 0.01043917326445386
Kappa statistic: 0.7292551398046161
Training time: 2361.0
		
Iteration: 14
Labeled set size: 2260
Unlabelled set size: 7740
	
Mean region size: 78.80653846153714
Incorrectly Classified Instances: 26.02
Correctly Classified Instances: 73.98
Weighted Precision: 0.7631568642153078
Weighted AreaUnderROC: 0.9621724250845267
Root mean squared error: 0.18647745494198076
Relative absolute error: 96.32655999999983
Root relative squared error: 96.96827656983676
Weighted TruePositiveRate: 0.7398
Weighted MatthewsCorrelation: 0.7357450383420998
Weighted FMeasure: 0.7398766345299523
Iteration time: 2363.0
Weighted AreaUnderPRC: 0.6537420683926123
Mean absolute error: 0.07124745562129171
Coverage of cases: 99.78
Instances selection time: 130.0
Test time: 420.0
Accumulative iteration time: 36132.0
Weighted Recall: 0.7398
Weighted FalsePositiveRate: 0.01043012465022855
Kappa statistic: 0.7293610609895146
Training time: 2233.0
		
Iteration: 15
Labeled set size: 2280
Unlabelled set size: 7720
	
Mean region size: 78.79269230769094
Incorrectly Classified Instances: 26.22
Correctly Classified Instances: 73.78
Weighted Precision: 0.7615047113925149
Weighted AreaUnderROC: 0.9621655182564367
Root mean squared error: 0.1864780257127817
Relative absolute error: 96.32675199999976
Root relative squared error: 96.96857337065325
Weighted TruePositiveRate: 0.7378
Weighted MatthewsCorrelation: 0.7337048895973869
Weighted FMeasure: 0.7377684894065855
Iteration time: 2335.0
Weighted AreaUnderPRC: 0.6524177262706621
Mean absolute error: 0.07124759763312599
Coverage of cases: 99.78
Instances selection time: 134.0
Test time: 423.0
Accumulative iteration time: 38467.0
Weighted Recall: 0.7378
Weighted FalsePositiveRate: 0.01051233677407813
Kappa statistic: 0.7272800232554627
Training time: 2201.0
		
Iteration: 16
Labeled set size: 2300
Unlabelled set size: 7700
	
Mean region size: 78.80538461538335
Incorrectly Classified Instances: 26.08
Correctly Classified Instances: 73.92
Weighted Precision: 0.7625478662418071
Weighted AreaUnderROC: 0.9623539669214186
Root mean squared error: 0.18647759553570334
Relative absolute error: 96.3265279999999
Root relative squared error: 96.96834967857251
Weighted TruePositiveRate: 0.7392
Weighted MatthewsCorrelation: 0.7350351168412577
Weighted FMeasure: 0.7390996864197023
Iteration time: 2372.0
Weighted AreaUnderPRC: 0.6543367144387019
Mean absolute error: 0.07124743195265272
Coverage of cases: 99.78
Instances selection time: 128.0
Test time: 419.0
Accumulative iteration time: 40839.0
Weighted Recall: 0.7392
Weighted FalsePositiveRate: 0.01045408483447345
Kappa statistic: 0.7287366680001006
Training time: 2244.0
		
Iteration: 17
Labeled set size: 2320
Unlabelled set size: 7680
	
Mean region size: 78.80538461538326
Incorrectly Classified Instances: 26.04
Correctly Classified Instances: 73.96
Weighted Precision: 0.7617829549284724
Weighted AreaUnderROC: 0.9623505035798334
Root mean squared error: 0.1864775476947959
Relative absolute error: 96.32655999999996
Root relative squared error: 96.96832480130064
Weighted TruePositiveRate: 0.7396
Weighted MatthewsCorrelation: 0.7352669133930078
Weighted FMeasure: 0.7397176305293189
Iteration time: 2427.0
Weighted AreaUnderPRC: 0.6537204628778527
Mean absolute error: 0.07124745562129181
Coverage of cases: 99.78
Instances selection time: 128.0
Test time: 422.0
Accumulative iteration time: 43266.0
Weighted Recall: 0.7396
Weighted FalsePositiveRate: 0.010435024840756129
Kappa statistic: 0.7291539640413195
Training time: 2299.0
		
Iteration: 18
Labeled set size: 2340
Unlabelled set size: 7660
	
Mean region size: 78.78730769230623
Incorrectly Classified Instances: 25.99
Correctly Classified Instances: 74.01
Weighted Precision: 0.7626871587817061
Weighted AreaUnderROC: 0.9622599536838119
Root mean squared error: 0.18647946952273806
Relative absolute error: 96.32739200000009
Root relative squared error: 96.96932415183056
Weighted TruePositiveRate: 0.7401
Weighted MatthewsCorrelation: 0.7361659873661629
Weighted FMeasure: 0.740781931948243
Iteration time: 2416.0
Weighted AreaUnderPRC: 0.6539452192048758
Mean absolute error: 0.0712480710059073
Coverage of cases: 99.78
Instances selection time: 128.0
Test time: 421.0
Accumulative iteration time: 45682.0
Weighted Recall: 0.7401
Weighted FalsePositiveRate: 0.010414123945953976
Kappa statistic: 0.7296748961505393
Training time: 2288.0
		
Iteration: 19
Labeled set size: 2360
Unlabelled set size: 7640
	
Mean region size: 78.79384615384474
Incorrectly Classified Instances: 25.87
Correctly Classified Instances: 74.13
Weighted Precision: 0.7633362921023701
Weighted AreaUnderROC: 0.9622723578088389
Root mean squared error: 0.1864767750136219
Relative absolute error: 96.32611200000008
Root relative squared error: 96.96792300709015
Weighted TruePositiveRate: 0.7413
Weighted MatthewsCorrelation: 0.7373219337855298
Weighted FMeasure: 0.7420895203316697
Iteration time: 2444.0
Weighted AreaUnderPRC: 0.6555035740924099
Mean absolute error: 0.07124712426034516
Coverage of cases: 99.79
Instances selection time: 131.0
Test time: 421.0
Accumulative iteration time: 48126.0
Weighted Recall: 0.7413
Weighted FalsePositiveRate: 0.010365621029798483
Kappa statistic: 0.7309234167479756
Training time: 2313.0
		
Iteration: 20
Labeled set size: 2380
Unlabelled set size: 7620
	
Mean region size: 78.79461538461392
Incorrectly Classified Instances: 25.84
Correctly Classified Instances: 74.16
Weighted Precision: 0.7632932861153527
Weighted AreaUnderROC: 0.9626972238755322
Root mean squared error: 0.18647227184136603
Relative absolute error: 96.32387199999998
Root relative squared error: 96.96558135751711
Weighted TruePositiveRate: 0.7416
Weighted MatthewsCorrelation: 0.7372676829939891
Weighted FMeasure: 0.7418277339385991
Iteration time: 2425.0
Weighted AreaUnderPRC: 0.6554189489674859
Mean absolute error: 0.07124546745561136
Coverage of cases: 99.79
Instances selection time: 127.0
Test time: 423.0
Accumulative iteration time: 50551.0
Weighted Recall: 0.7416
Weighted FalsePositiveRate: 0.010352868299998843
Kappa statistic: 0.731235511394231
Training time: 2298.0
		
Iteration: 21
Labeled set size: 2400
Unlabelled set size: 7600
	
Mean region size: 78.83961538461412
Incorrectly Classified Instances: 25.45
Correctly Classified Instances: 74.55
Weighted Precision: 0.767168773243367
Weighted AreaUnderROC: 0.9630555741654802
Root mean squared error: 0.18646221024348267
Relative absolute error: 96.31939199999984
Root relative squared error: 96.96034932661776
Weighted TruePositiveRate: 0.7455
Weighted MatthewsCorrelation: 0.7413565038291096
Weighted FMeasure: 0.745811136353607
Iteration time: 2432.0
Weighted AreaUnderPRC: 0.6587421521583567
Mean absolute error: 0.0712421538461438
Coverage of cases: 99.79
Instances selection time: 126.0
Test time: 421.0
Accumulative iteration time: 52983.0
Weighted Recall: 0.7455
Weighted FalsePositiveRate: 0.010198107279652478
Kappa statistic: 0.7352907712304941
Training time: 2306.0
		
Iteration: 22
Labeled set size: 2420
Unlabelled set size: 7580
	
Mean region size: 78.86961538461442
Incorrectly Classified Instances: 25.75
Correctly Classified Instances: 74.25
Weighted Precision: 0.7638658501300948
Weighted AreaUnderROC: 0.9629401026385945
Root mean squared error: 0.18646148846836608
Relative absolute error: 96.31932799999966
Root relative squared error: 96.95997400355712
Weighted TruePositiveRate: 0.7425
Weighted MatthewsCorrelation: 0.7379292630775509
Weighted FMeasure: 0.7423343889283872
Iteration time: 2439.0
Weighted AreaUnderPRC: 0.6563426588976129
Mean absolute error: 0.07124210650886556
Coverage of cases: 99.79
Instances selection time: 129.0
Test time: 421.0
Accumulative iteration time: 55422.0
Weighted Recall: 0.7425
Weighted FalsePositiveRate: 0.010319730038261428
Kappa statistic: 0.7321700896126637
Training time: 2310.0
		
Iteration: 23
Labeled set size: 2440
Unlabelled set size: 7560
	
Mean region size: 78.85576923076815
Incorrectly Classified Instances: 25.78
Correctly Classified Instances: 74.22
Weighted Precision: 0.7630861457737276
Weighted AreaUnderROC: 0.9630626185670932
Root mean squared error: 0.18645969378273894
Relative absolute error: 96.31859199999987
Root relative squared error: 96.95904076703101
Weighted TruePositiveRate: 0.7422
Weighted MatthewsCorrelation: 0.7376612821316663
Weighted FMeasure: 0.7423963967663484
Iteration time: 2383.0
Weighted AreaUnderPRC: 0.6560522878876466
Mean absolute error: 0.0712415621301675
Coverage of cases: 99.79
Instances selection time: 131.0
Test time: 431.0
Accumulative iteration time: 57805.0
Weighted Recall: 0.7422
Weighted FalsePositiveRate: 0.010329501914107005
Kappa statistic: 0.7318589305048867
Training time: 2252.0
		
Iteration: 24
Labeled set size: 2460
Unlabelled set size: 7540
	
Mean region size: 78.84269230769117
Incorrectly Classified Instances: 25.81
Correctly Classified Instances: 74.19
Weighted Precision: 0.7642726064085348
Weighted AreaUnderROC: 0.9629119526344438
Root mean squared error: 0.18646373072705022
Relative absolute error: 96.32041599999992
Root relative squared error: 96.96113997807288
Weighted TruePositiveRate: 0.7419
Weighted MatthewsCorrelation: 0.7381361109871641
Weighted FMeasure: 0.7429068795965686
Iteration time: 2425.0
Weighted AreaUnderPRC: 0.6566988160275787
Mean absolute error: 0.07124291124259356
Coverage of cases: 99.79
Instances selection time: 124.0
Test time: 421.0
Accumulative iteration time: 60230.0
Weighted Recall: 0.7419
Weighted FalsePositiveRate: 0.010340801001911905
Kappa statistic: 0.7315470390798136
Training time: 2301.0
		
Iteration: 25
Labeled set size: 2480
Unlabelled set size: 7520
	
Mean region size: 78.83307692307582
Incorrectly Classified Instances: 25.84
Correctly Classified Instances: 74.16
Weighted Precision: 0.7638584828933155
Weighted AreaUnderROC: 0.9629557286981854
Root mean squared error: 0.1864627531352628
Relative absolute error: 96.3197439999999
Root relative squared error: 96.96063163034343
Weighted TruePositiveRate: 0.7416
Weighted MatthewsCorrelation: 0.7377192080520838
Weighted FMeasure: 0.7424597197785449
Iteration time: 2427.0
Weighted AreaUnderPRC: 0.6565590498301934
Mean absolute error: 0.07124241420117343
Coverage of cases: 99.81
Instances selection time: 125.0
Test time: 435.0
Accumulative iteration time: 62657.0
Weighted Recall: 0.7416
Weighted FalsePositiveRate: 0.010354054181143707
Kappa statistic: 0.7312346448028686
Training time: 2302.0
		
Iteration: 26
Labeled set size: 2500
Unlabelled set size: 7500
	
Mean region size: 78.82384615384501
Incorrectly Classified Instances: 25.8
Correctly Classified Instances: 74.2
Weighted Precision: 0.7639943635701782
Weighted AreaUnderROC: 0.9631062048378047
Root mean squared error: 0.18645854001924475
Relative absolute error: 96.31756799999994
Root relative squared error: 96.95844081001404
Weighted TruePositiveRate: 0.742
Weighted MatthewsCorrelation: 0.7379350243032585
Weighted FMeasure: 0.7425958487037061
Iteration time: 2445.0
Weighted AreaUnderPRC: 0.6575684707161665
Mean absolute error: 0.07124080473371784
Coverage of cases: 99.81
Instances selection time: 123.0
Test time: 427.0
Accumulative iteration time: 65102.0
Weighted Recall: 0.742
Weighted FalsePositiveRate: 0.010337788430531255
Kappa statistic: 0.7316505813899367
Training time: 2322.0
		
Iteration: 27
Labeled set size: 2520
Unlabelled set size: 7480
	
Mean region size: 78.82384615384504
Incorrectly Classified Instances: 25.68
Correctly Classified Instances: 74.32
Weighted Precision: 0.7651975375292875
Weighted AreaUnderROC: 0.9632799433328822
Root mean squared error: 0.1864561773986658
Relative absolute error: 96.31647999999987
Root relative squared error: 96.95721224731298
Weighted TruePositiveRate: 0.7432
Weighted MatthewsCorrelation: 0.7391494436339846
Weighted FMeasure: 0.7437324497838238
Iteration time: 2423.0
Weighted AreaUnderPRC: 0.659412461963608
Mean absolute error: 0.07123999999998998
Coverage of cases: 99.8
Instances selection time: 125.0
Test time: 427.0
Accumulative iteration time: 67525.0
Weighted Recall: 0.7432
Weighted FalsePositiveRate: 0.01029272728930407
Kappa statistic: 0.7328979514469011
Training time: 2298.0
		
Iteration: 28
Labeled set size: 2540
Unlabelled set size: 7460
	
Mean region size: 78.84384615384506
Incorrectly Classified Instances: 25.54
Correctly Classified Instances: 74.46
Weighted Precision: 0.766640426546701
Weighted AreaUnderROC: 0.9635102093176625
Root mean squared error: 0.18645251447689434
Relative absolute error: 96.31472000000005
Root relative squared error: 96.95530752799183
Weighted TruePositiveRate: 0.7446
Weighted MatthewsCorrelation: 0.7405773076777634
Weighted FMeasure: 0.745056760794621
Iteration time: 2443.0
Weighted AreaUnderPRC: 0.6609048247102303
Mean absolute error: 0.07123869822484219
Coverage of cases: 99.82
Instances selection time: 122.0
Test time: 418.0
Accumulative iteration time: 69968.0
Weighted Recall: 0.7446
Weighted FalsePositiveRate: 0.010238786361354021
Kappa statistic: 0.7343539964527418
Training time: 2321.0
		
Iteration: 29
Labeled set size: 2560
Unlabelled set size: 7440
	
Mean region size: 78.83692307692196
Incorrectly Classified Instances: 25.58
Correctly Classified Instances: 74.42
Weighted Precision: 0.76653240699413
Weighted AreaUnderROC: 0.9637449958684987
Root mean squared error: 0.18645123860864554
Relative absolute error: 96.31404800000001
Root relative squared error: 96.95464407650245
Weighted TruePositiveRate: 0.7442
Weighted MatthewsCorrelation: 0.740246608481845
Weighted FMeasure: 0.7446625645918445
Iteration time: 2455.0
Weighted AreaUnderPRC: 0.6605268320374096
Mean absolute error: 0.07123820118342204
Coverage of cases: 99.83
Instances selection time: 122.0
Test time: 420.0
Accumulative iteration time: 72423.0
Weighted Recall: 0.7442
Weighted FalsePositiveRate: 0.010252691170537313
Kappa statistic: 0.7339381957566886
Training time: 2333.0
		
Iteration: 30
Labeled set size: 2580
Unlabelled set size: 7420
	
Mean region size: 78.83846153846048
Incorrectly Classified Instances: 25.28
Correctly Classified Instances: 74.72
Weighted Precision: 0.7697156839938544
Weighted AreaUnderROC: 0.9639694849234305
Root mean squared error: 0.1864438937498722
Relative absolute error: 96.31052800000003
Root relative squared error: 96.95082474994031
Weighted TruePositiveRate: 0.7472
Weighted MatthewsCorrelation: 0.7435115802978619
Weighted FMeasure: 0.7478793941593631
Iteration time: 2474.0
Weighted AreaUnderPRC: 0.6627969491344705
Mean absolute error: 0.07123559763312619
Coverage of cases: 99.82
Instances selection time: 122.0
Test time: 417.0
Accumulative iteration time: 74897.0
Weighted Recall: 0.7472
Weighted FalsePositiveRate: 0.010131876330455234
Kappa statistic: 0.7370587777643255
Training time: 2352.0
		
Iteration: 31
Labeled set size: 2600
Unlabelled set size: 7400
	
Mean region size: 78.86230769230684
Incorrectly Classified Instances: 25.36
Correctly Classified Instances: 74.64
Weighted Precision: 0.7697639085664947
Weighted AreaUnderROC: 0.9637307569726674
Root mean squared error: 0.18644666646414967
Relative absolute error: 96.31219199999987
Root relative squared error: 96.95226656136461
Weighted TruePositiveRate: 0.7464
Weighted MatthewsCorrelation: 0.7429267884117904
Weighted FMeasure: 0.7471327393270468
Iteration time: 2514.0
Weighted AreaUnderPRC: 0.6622317389788804
Mean absolute error: 0.07123682840235684
Coverage of cases: 99.82
Instances selection time: 122.0
Test time: 424.0
Accumulative iteration time: 77411.0
Weighted Recall: 0.7464
Weighted FalsePositiveRate: 0.010164737538294858
Kappa statistic: 0.7362257716844544
Training time: 2392.0
		
Iteration: 32
Labeled set size: 2620
Unlabelled set size: 7380
	
Mean region size: 78.83653846153737
Incorrectly Classified Instances: 25.36
Correctly Classified Instances: 74.64
Weighted Precision: 0.7697257727763603
Weighted AreaUnderROC: 0.963929983636736
Root mean squared error: 0.18644408944465982
Relative absolute error: 96.31078399999988
Root relative squared error: 96.95092651122988
Weighted TruePositiveRate: 0.7464
Weighted MatthewsCorrelation: 0.7431569185638764
Weighted FMeasure: 0.7475887834568381
Iteration time: 2499.0
Weighted AreaUnderPRC: 0.6640441108304919
Mean absolute error: 0.07123578698223851
Coverage of cases: 99.81
Instances selection time: 120.0
Test time: 421.0
Accumulative iteration time: 79910.0
Weighted Recall: 0.7464
Weighted FalsePositiveRate: 0.01015965417748233
Kappa statistic: 0.7362281667961603
Training time: 2379.0
		
Iteration: 33
Labeled set size: 2640
Unlabelled set size: 7360
	
Mean region size: 78.87423076922977
Incorrectly Classified Instances: 25.35
Correctly Classified Instances: 74.65
Weighted Precision: 0.7695253020788723
Weighted AreaUnderROC: 0.9640003633468089
Root mean squared error: 0.1864423234968298
Relative absolute error: 96.31020799999995
Root relative squared error: 96.95000821835826
Weighted TruePositiveRate: 0.7465
Weighted MatthewsCorrelation: 0.7433511125529931
Weighted FMeasure: 0.7480417778771076
Iteration time: 2588.0
Weighted AreaUnderPRC: 0.664515027199997
Mean absolute error: 0.07123536094673559
Coverage of cases: 99.85
Instances selection time: 119.0
Test time: 421.0
Accumulative iteration time: 82498.0
Weighted Recall: 0.7465
Weighted FalsePositiveRate: 0.010150963537956522
Kappa statistic: 0.7363342455509707
Training time: 2469.0
		
Iteration: 34
Labeled set size: 2660
Unlabelled set size: 7340
	
Mean region size: 78.85153846153742
Incorrectly Classified Instances: 25.25
Correctly Classified Instances: 74.75
Weighted Precision: 0.7700682794181033
Weighted AreaUnderROC: 0.9643914285877688
Root mean squared error: 0.18643501051357847
Relative absolute error: 96.30643199999996
Root relative squared error: 96.94620546706757
Weighted TruePositiveRate: 0.7475
Weighted MatthewsCorrelation: 0.7441187104300571
Weighted FMeasure: 0.7487306682618134
Iteration time: 2692.0
Weighted AreaUnderPRC: 0.6646664661820688
Mean absolute error: 0.07123256804732732
Coverage of cases: 99.84
Instances selection time: 118.0
Test time: 430.0
Accumulative iteration time: 85190.0
Weighted Recall: 0.7475
Weighted FalsePositiveRate: 0.010113498109297984
Kappa statistic: 0.7373743116359687
Training time: 2574.0
		
Iteration: 35
Labeled set size: 2680
Unlabelled set size: 7320
	
Mean region size: 78.88230769230678
Incorrectly Classified Instances: 25.22
Correctly Classified Instances: 74.78
Weighted Precision: 0.7703558759766991
Weighted AreaUnderROC: 0.964454393547538
Root mean squared error: 0.18643107744236798
Relative absolute error: 96.30492799999998
Root relative squared error: 96.94416027003811
Weighted TruePositiveRate: 0.7478
Weighted MatthewsCorrelation: 0.7444436523847737
Weighted FMeasure: 0.7490657631207853
Iteration time: 2924.0
Weighted AreaUnderPRC: 0.6645799323438125
Mean absolute error: 0.07123145562129184
Coverage of cases: 99.84
Instances selection time: 123.0
Test time: 417.0
Accumulative iteration time: 88114.0
Weighted Recall: 0.7478
Weighted FalsePositiveRate: 0.010099652860991605
Kappa statistic: 0.7376864485615815
Training time: 2801.0
		
Iteration: 36
Labeled set size: 2700
Unlabelled set size: 7300
	
Mean region size: 78.8434615384604
Incorrectly Classified Instances: 25.16
Correctly Classified Instances: 74.84
Weighted Precision: 0.7711844496659003
Weighted AreaUnderROC: 0.9645936167794665
Root mean squared error: 0.18643044207277903
Relative absolute error: 96.30435199999981
Root relative squared error: 96.94382987785187
Weighted TruePositiveRate: 0.7484
Weighted MatthewsCorrelation: 0.7452461928365978
Weighted FMeasure: 0.7499128287339413
Iteration time: 2623.0
Weighted AreaUnderPRC: 0.6653762325475417
Mean absolute error: 0.07123102958578875
Coverage of cases: 99.87
Instances selection time: 121.0
Test time: 426.0
Accumulative iteration time: 90737.0
Weighted Recall: 0.7484
Weighted FalsePositiveRate: 0.010075629013097071
Kappa statistic: 0.7383104603570406
Training time: 2502.0
		
Iteration: 37
Labeled set size: 2720
Unlabelled set size: 7280
	
Mean region size: 78.85076923076826
Incorrectly Classified Instances: 25.28
Correctly Classified Instances: 74.72
Weighted Precision: 0.7704375299272781
Weighted AreaUnderROC: 0.9645445468173619
Root mean squared error: 0.18643209992776813
Relative absolute error: 96.30531199999983
Root relative squared error: 96.9446919624462
Weighted TruePositiveRate: 0.7472
Weighted MatthewsCorrelation: 0.7440886225422388
Weighted FMeasure: 0.7486470315261993
Iteration time: 2611.0
Weighted AreaUnderPRC: 0.6643102061472602
Mean absolute error: 0.07123173964496037
Coverage of cases: 99.86
Instances selection time: 118.0
Test time: 564.0
Accumulative iteration time: 93348.0
Weighted Recall: 0.7472
Weighted FalsePositiveRate: 0.010123753739341977
Kappa statistic: 0.7370617232107214
Training time: 2493.0
		
Iteration: 38
Labeled set size: 2740
Unlabelled set size: 7260
	
Mean region size: 78.87999999999907
Incorrectly Classified Instances: 25.25
Correctly Classified Instances: 74.75
Weighted Precision: 0.7708850877891968
Weighted AreaUnderROC: 0.9644757443378248
Root mean squared error: 0.18643155714204285
Relative absolute error: 96.30505599999984
Root relative squared error: 96.94440971386904
Weighted TruePositiveRate: 0.7475
Weighted MatthewsCorrelation: 0.7444240498005493
Weighted FMeasure: 0.7489049698200252
Iteration time: 2570.0
Weighted AreaUnderPRC: 0.6647658229589293
Mean absolute error: 0.07123155029584793
Coverage of cases: 99.85
Instances selection time: 120.0
Test time: 420.0
Accumulative iteration time: 95918.0
Weighted Recall: 0.7475
Weighted FalsePositiveRate: 0.010115343268301134
Kappa statistic: 0.7373722574759952
Training time: 2450.0
		
Iteration: 39
Labeled set size: 2760
Unlabelled set size: 7240
	
Mean region size: 78.88269230769141
Incorrectly Classified Instances: 25.24
Correctly Classified Instances: 74.76
Weighted Precision: 0.771135807548388
Weighted AreaUnderROC: 0.9646322090470819
Root mean squared error: 0.1864289877264919
Relative absolute error: 96.30374399999987
Root relative squared error: 96.94307361778256
Weighted TruePositiveRate: 0.7476
Weighted MatthewsCorrelation: 0.7444787029100609
Weighted FMeasure: 0.7488146370835431
Iteration time: 2514.0
Weighted AreaUnderPRC: 0.6658725486303071
Mean absolute error: 0.07123057988164679
Coverage of cases: 99.86
Instances selection time: 116.0
Test time: 425.0
Accumulative iteration time: 98432.0
Weighted Recall: 0.7476
Weighted FalsePositiveRate: 0.010108276574220646
Kappa statistic: 0.7374772323385365
Training time: 2398.0
		
Iteration: 40
Labeled set size: 2780
Unlabelled set size: 7220
	
Mean region size: 78.88115384615294
Incorrectly Classified Instances: 24.93
Correctly Classified Instances: 75.07
Weighted Precision: 0.7737220717319219
Weighted AreaUnderROC: 0.9649640135015864
Root mean squared error: 0.18642514750242692
Relative absolute error: 96.30195199999982
Root relative squared error: 96.94107670126877
Weighted TruePositiveRate: 0.7507
Weighted MatthewsCorrelation: 0.7477463900019593
Weighted FMeasure: 0.7522953832189794
Iteration time: 2622.0
Weighted AreaUnderPRC: 0.6686022779396837
Mean absolute error: 0.07122925443785975
Coverage of cases: 99.86
Instances selection time: 114.0
Test time: 424.0
Accumulative iteration time: 101054.0
Weighted Recall: 0.7507
Weighted FalsePositiveRate: 0.00998163350969705
Kappa statistic: 0.7407021544353838
Training time: 2508.0
		
Iteration: 41
Labeled set size: 2800
Unlabelled set size: 7200
	
Mean region size: 78.90538461538384
Incorrectly Classified Instances: 24.88
Correctly Classified Instances: 75.12
Weighted Precision: 0.7740638578340171
Weighted AreaUnderROC: 0.9649894006734521
Root mean squared error: 0.18642341594782266
Relative absolute error: 96.30127999999996
Root relative squared error: 96.94017629287455
Weighted TruePositiveRate: 0.7512
Weighted MatthewsCorrelation: 0.7481912687420318
Weighted FMeasure: 0.7527324338871272
Iteration time: 2559.0
Weighted AreaUnderPRC: 0.6692970835367252
Mean absolute error: 0.07122875739643975
Coverage of cases: 99.86
Instances selection time: 118.0
Test time: 423.0
Accumulative iteration time: 103613.0
Weighted Recall: 0.7512
Weighted FalsePositiveRate: 0.00996208923290821
Kappa statistic: 0.7412224915764176
Training time: 2441.0
		
Iteration: 42
Labeled set size: 2820
Unlabelled set size: 7180
	
Mean region size: 78.89038461538378
Incorrectly Classified Instances: 24.62
Correctly Classified Instances: 75.38
Weighted Precision: 0.7771532598423324
Weighted AreaUnderROC: 0.9650443179043097
Root mean squared error: 0.18642288153584416
Relative absolute error: 96.30083199999986
Root relative squared error: 96.93989839864574
Weighted TruePositiveRate: 0.7538
Weighted MatthewsCorrelation: 0.7511072272575652
Weighted FMeasure: 0.7554977848357229
Iteration time: 2597.0
Weighted AreaUnderPRC: 0.6718998623306668
Mean absolute error: 0.07122842603549293
Coverage of cases: 99.86
Instances selection time: 114.0
Test time: 422.0
Accumulative iteration time: 106210.0
Weighted Recall: 0.7538
Weighted FalsePositiveRate: 0.009854836437912245
Kappa statistic: 0.7439274239978779
Training time: 2483.0
		
Iteration: 43
Labeled set size: 2840
Unlabelled set size: 7160
	
Mean region size: 78.886153846153
Incorrectly Classified Instances: 24.69
Correctly Classified Instances: 75.31
Weighted Precision: 0.7765860096488417
Weighted AreaUnderROC: 0.965046409219877
Root mean squared error: 0.18642489045596883
Relative absolute error: 96.30188799999979
Root relative squared error: 96.94094303711056
Weighted TruePositiveRate: 0.7531
Weighted MatthewsCorrelation: 0.7504729201677496
Weighted FMeasure: 0.7549331900789777
Iteration time: 2610.0
Weighted AreaUnderPRC: 0.6719158021881798
Mean absolute error: 0.07122920710058163
Coverage of cases: 99.87
Instances selection time: 115.0
Test time: 427.0
Accumulative iteration time: 108820.0
Weighted Recall: 0.7531
Weighted FalsePositiveRate: 0.009886233215405252
Kappa statistic: 0.7431986863754724
Training time: 2495.0
		
Iteration: 44
Labeled set size: 2860
Unlabelled set size: 7140
	
Mean region size: 78.90692307692225
Incorrectly Classified Instances: 24.7
Correctly Classified Instances: 75.3
Weighted Precision: 0.7768607795692666
Weighted AreaUnderROC: 0.9650367536089257
Root mean squared error: 0.1864241804511836
Relative absolute error: 96.30163199999969
Root relative squared error: 96.94057383462224
Weighted TruePositiveRate: 0.753
Weighted MatthewsCorrelation: 0.7505673146231026
Weighted FMeasure: 0.7550246205155065
Iteration time: 2571.0
Weighted AreaUnderPRC: 0.6727829687664626
Mean absolute error: 0.07122901775146913
Coverage of cases: 99.88
Instances selection time: 114.0
Test time: 422.0
Accumulative iteration time: 111391.0
Weighted Recall: 0.753
Weighted FalsePositiveRate: 0.009887489860297529
Kappa statistic: 0.7430949326421956
Training time: 2457.0
		
Iteration: 45
Labeled set size: 2880
Unlabelled set size: 7120
	
Mean region size: 78.93346153846096
Incorrectly Classified Instances: 24.61
Correctly Classified Instances: 75.39
Weighted Precision: 0.7771546829156165
Weighted AreaUnderROC: 0.9651076932822885
Root mean squared error: 0.18642359740534226
Relative absolute error: 96.30131199999978
Root relative squared error: 96.94027065078474
Weighted TruePositiveRate: 0.7539
Weighted MatthewsCorrelation: 0.7512752045450675
Weighted FMeasure: 0.7557838519259334
Iteration time: 2586.0
Weighted AreaUnderPRC: 0.6732365300990751
Mean absolute error: 0.07122878106507867
Coverage of cases: 99.87
Instances selection time: 111.0
Test time: 419.0
Accumulative iteration time: 113977.0
Weighted Recall: 0.7539
Weighted FalsePositiveRate: 0.009850028148841533
Kappa statistic: 0.7440314313176785
Training time: 2475.0
		
Iteration: 46
Labeled set size: 2900
Unlabelled set size: 7100
	
Mean region size: 78.9088461538455
Incorrectly Classified Instances: 24.6
Correctly Classified Instances: 75.4
Weighted Precision: 0.7774785741314013
Weighted AreaUnderROC: 0.9650993256789925
Root mean squared error: 0.1864247902546327
Relative absolute error: 96.30179199999968
Root relative squared error: 96.94089093241577
Weighted TruePositiveRate: 0.754
Weighted MatthewsCorrelation: 0.7514288404112481
Weighted FMeasure: 0.7558586986638908
Iteration time: 2551.0
Weighted AreaUnderPRC: 0.674233738026303
Mean absolute error: 0.0712291360946644
Coverage of cases: 99.87
Instances selection time: 114.0
Test time: 422.0
Accumulative iteration time: 116528.0
Weighted Recall: 0.754
Weighted FalsePositiveRate: 0.009846249650678165
Kappa statistic: 0.7441350900158236
Training time: 2437.0
		
Time end:Sat Oct 07 23.42.13 EEST 2017