Sat Oct 07 15.49.21 EEST 2017
Dataset: letter
Test set size: 10000
Initial Labelled set size: 2000
Initial Unlabelled set size: 8000
Batch mode: QBestBatchMode
Batch size: 20
Classifiers: J48-1cores
Scenario: PoolBasedSamplingScenario
Query strategy: EntropySamplingQueryStrategy-1cores
Time begining: Sat Oct 07 15.49.21 EEST 2017
		
Iteration: 1
Labeled set size: 2000
Unlabelled set size: 8000
	
Mean region size: 5.415000000000648
Incorrectly Classified Instances: 29.77
Correctly Classified Instances: 70.23
Weighted Precision: 0.706217326272504
Weighted AreaUnderROC: 0.869556225285119
Root mean squared error: 0.141196811156678
Relative absolute error: 33.37841202399245
Root relative squared error: 73.42234180147769
Weighted TruePositiveRate: 0.7023
Weighted MatthewsCorrelation: 0.6915291872195746
Weighted FMeasure: 0.70244151766437
Iteration time: 1167.0
Weighted AreaUnderPRC: 0.5938222702099377
Mean absolute error: 0.02468817457395547
Coverage of cases: 74.89
Instances selection time: 183.0
Test time: 450.0
Accumulative iteration time: 1167.0
Weighted Recall: 0.7023
Weighted FalsePositiveRate: 0.011944999364977482
Kappa statistic: 0.6903600803353855
Training time: 984.0
		
Iteration: 2
Labeled set size: 2020
Unlabelled set size: 7980
	
Mean region size: 5.373461538462201
Incorrectly Classified Instances: 29.07
Correctly Classified Instances: 70.93
Weighted Precision: 0.7167636716931576
Weighted AreaUnderROC: 0.8724900409020216
Root mean squared error: 0.13921145824656692
Relative absolute error: 32.36552010186438
Root relative squared error: 72.38995828821986
Weighted TruePositiveRate: 0.7093
Weighted MatthewsCorrelation: 0.7003962893836259
Weighted FMeasure: 0.7108059219129896
Iteration time: 596.0
Weighted AreaUnderPRC: 0.6095578951217737
Mean absolute error: 0.023938994158180373
Coverage of cases: 75.39
Instances selection time: 214.0
Test time: 333.0
Accumulative iteration time: 1763.0
Weighted Recall: 0.7093
Weighted FalsePositiveRate: 0.011660200358063418
Kappa statistic: 0.6976461424562198
Training time: 382.0
		
Iteration: 3
Labeled set size: 2040
Unlabelled set size: 7960
	
Mean region size: 5.622307692308324
Incorrectly Classified Instances: 29.56
Correctly Classified Instances: 70.44
Weighted Precision: 0.7119097867520888
Weighted AreaUnderROC: 0.8724182482665752
Root mean squared error: 0.13997506138139185
Relative absolute error: 32.93880765431408
Root relative squared error: 72.78703191832884
Weighted TruePositiveRate: 0.7044
Weighted MatthewsCorrelation: 0.6955480583119337
Weighted FMeasure: 0.7064336610031573
Iteration time: 354.0
Weighted AreaUnderPRC: 0.6059006438309856
Mean absolute error: 0.024363023412950803
Coverage of cases: 75.32
Instances selection time: 93.0
Test time: 284.0
Accumulative iteration time: 2117.0
Weighted Recall: 0.7044
Weighted FalsePositiveRate: 0.011844579864951556
Kappa statistic: 0.6925548740926404
Training time: 261.0
		
Iteration: 4
Labeled set size: 2060
Unlabelled set size: 7940
	
Mean region size: 5.397692307692951
Incorrectly Classified Instances: 29.36
Correctly Classified Instances: 70.64
Weighted Precision: 0.7152991110924741
Weighted AreaUnderROC: 0.8734012511799135
Root mean squared error: 0.14007435456390419
Relative absolute error: 32.61899464140834
Root relative squared error: 72.83866437323526
Weighted TruePositiveRate: 0.7064
Weighted MatthewsCorrelation: 0.6981095735151986
Weighted FMeasure: 0.7086499038535992
Iteration time: 283.0
Weighted AreaUnderPRC: 0.5947680933534467
Mean absolute error: 0.024126475326482093
Coverage of cases: 75.52
Instances selection time: 83.0
Test time: 177.0
Accumulative iteration time: 2400.0
Weighted Recall: 0.7064
Weighted FalsePositiveRate: 0.01176203422717516
Kappa statistic: 0.6946379198776705
Training time: 200.0
		
Iteration: 5
Labeled set size: 2080
Unlabelled set size: 7920
	
Mean region size: 5.428846153846761
Incorrectly Classified Instances: 29.58
Correctly Classified Instances: 70.42
Weighted Precision: 0.7118820742682473
Weighted AreaUnderROC: 0.8726271209992005
Root mean squared error: 0.14041182911743907
Relative absolute error: 32.79545169247774
Root relative squared error: 73.01415114107341
Weighted TruePositiveRate: 0.7042
Weighted MatthewsCorrelation: 0.695274689415236
Weighted FMeasure: 0.7059813143184601
Iteration time: 218.0
Weighted AreaUnderPRC: 0.5931159119383111
Mean absolute error: 0.024256990896799675
Coverage of cases: 75.43
Instances selection time: 46.0
Test time: 164.0
Accumulative iteration time: 2618.0
Weighted Recall: 0.7042
Weighted FalsePositiveRate: 0.011843533110734463
Kappa statistic: 0.6923504819442027
Training time: 172.0
		
Iteration: 6
Labeled set size: 2100
Unlabelled set size: 7900
	
Mean region size: 5.609230769231499
Incorrectly Classified Instances: 28.52
Correctly Classified Instances: 71.48
Weighted Precision: 0.7248737290740856
Weighted AreaUnderROC: 0.8781968845977727
Root mean squared error: 0.1375683283242416
Relative absolute error: 32.072746713571
Root relative squared error: 71.53553072861062
Weighted TruePositiveRate: 0.7148
Weighted MatthewsCorrelation: 0.70723831081625
Weighted FMeasure: 0.7171756956008608
Iteration time: 203.0
Weighted AreaUnderPRC: 0.6196678162797441
Mean absolute error: 0.02372244579405808
Coverage of cases: 76.1
Instances selection time: 43.0
Test time: 166.0
Accumulative iteration time: 2821.0
Weighted Recall: 0.7148
Weighted FalsePositiveRate: 0.011398598075176326
Kappa statistic: 0.7033814679064573
Training time: 160.0
		
Iteration: 7
Labeled set size: 2120
Unlabelled set size: 7880
	
Mean region size: 5.638076923077584
Incorrectly Classified Instances: 29.15
Correctly Classified Instances: 70.85
Weighted Precision: 0.7159733888147728
Weighted AreaUnderROC: 0.8766971879608615
Root mean squared error: 0.13932191203731864
Relative absolute error: 32.74614421785486
Root relative squared error: 72.44739425941076
Weighted TruePositiveRate: 0.7085
Weighted MatthewsCorrelation: 0.6997840474242997
Weighted FMeasure: 0.7104992881582928
Iteration time: 224.0
Weighted AreaUnderPRC: 0.6087942078420244
Mean absolute error: 0.024220520871191045
Coverage of cases: 76.2
Instances selection time: 45.0
Test time: 162.0
Accumulative iteration time: 3045.0
Weighted Recall: 0.7085
Weighted FalsePositiveRate: 0.011666219695491595
Kappa statistic: 0.6968271289776645
Training time: 179.0
		
Iteration: 8
Labeled set size: 2140
Unlabelled set size: 7860
	
Mean region size: 5.3765384615390985
Incorrectly Classified Instances: 29.71
Correctly Classified Instances: 70.29
Weighted Precision: 0.7113475171128575
Weighted AreaUnderROC: 0.8738502279787934
Root mean squared error: 0.14045559193763787
Relative absolute error: 33.05911522164691
Root relative squared error: 73.0369078075768
Weighted TruePositiveRate: 0.7029
Weighted MatthewsCorrelation: 0.6943767055469137
Weighted FMeasure: 0.7052044522447857
Iteration time: 229.0
Weighted AreaUnderPRC: 0.6052152861025657
Mean absolute error: 0.024452008300031285
Coverage of cases: 75.59
Instances selection time: 46.0
Test time: 164.0
Accumulative iteration time: 3274.0
Weighted Recall: 0.7029
Weighted FalsePositiveRate: 0.011878362032639523
Kappa statistic: 0.6910043375149116
Training time: 183.0
		
Iteration: 9
Labeled set size: 2160
Unlabelled set size: 7840
	
Mean region size: 5.314615384615995
Incorrectly Classified Instances: 29.67
Correctly Classified Instances: 70.33
Weighted Precision: 0.7127867701240033
Weighted AreaUnderROC: 0.874408801865567
Root mean squared error: 0.14042809628458083
Relative absolute error: 32.84045349919598
Root relative squared error: 73.02261006798713
Weighted TruePositiveRate: 0.7033
Weighted MatthewsCorrelation: 0.6952287930149299
Weighted FMeasure: 0.7059359434313919
Iteration time: 233.0
Weighted AreaUnderPRC: 0.605862424111668
Mean absolute error: 0.024290276256798367
Coverage of cases: 75.68
Instances selection time: 46.0
Test time: 165.0
Accumulative iteration time: 3507.0
Weighted Recall: 0.7033
Weighted FalsePositiveRate: 0.011856632911874405
Kappa statistic: 0.6914225419774807
Training time: 187.0
		
Iteration: 10
Labeled set size: 2180
Unlabelled set size: 7820
	
Mean region size: 5.722307692308375
Incorrectly Classified Instances: 29.58
Correctly Classified Instances: 70.42
Weighted Precision: 0.7126766970185203
Weighted AreaUnderROC: 0.8760678827416623
Root mean squared error: 0.13977595913103844
Relative absolute error: 33.03210556435982
Root relative squared error: 72.68349874814507
Weighted TruePositiveRate: 0.7042
Weighted MatthewsCorrelation: 0.6955483356710445
Weighted FMeasure: 0.7060866062142822
Iteration time: 312.0
Weighted AreaUnderPRC: 0.6073926722206234
Mean absolute error: 0.02443203074286628
Coverage of cases: 76.1
Instances selection time: 87.0
Test time: 177.0
Accumulative iteration time: 3819.0
Weighted Recall: 0.7042
Weighted FalsePositiveRate: 0.011829202497676298
Kappa statistic: 0.6923551694877567
Training time: 225.0
		
Iteration: 11
Labeled set size: 2200
Unlabelled set size: 7800
	
Mean region size: 5.527692307692972
Incorrectly Classified Instances: 29.12
Correctly Classified Instances: 70.88
Weighted Precision: 0.7187494677547027
Weighted AreaUnderROC: 0.8790692582826599
Root mean squared error: 0.13959828037098712
Relative absolute error: 32.6967338940858
Root relative squared error: 72.59110579291837
Weighted TruePositiveRate: 0.7088
Weighted MatthewsCorrelation: 0.7009666131368468
Weighted FMeasure: 0.7111951507667521
Iteration time: 235.0
Weighted AreaUnderPRC: 0.6096867511716093
Mean absolute error: 0.02418397477372873
Coverage of cases: 76.69
Instances selection time: 45.0
Test time: 168.0
Accumulative iteration time: 4054.0
Weighted Recall: 0.7088
Weighted FalsePositiveRate: 0.011646069042582915
Kappa statistic: 0.6971393879149588
Training time: 190.0
		
Iteration: 12
Labeled set size: 2220
Unlabelled set size: 7780
	
Mean region size: 5.711153846154501
Incorrectly Classified Instances: 27.78
Correctly Classified Instances: 72.22
Weighted Precision: 0.7307460249424201
Weighted AreaUnderROC: 0.8833169544007811
Root mean squared error: 0.1362058814010681
Relative absolute error: 31.619868594736896
Root relative squared error: 70.82705832856035
Weighted TruePositiveRate: 0.7222
Weighted MatthewsCorrelation: 0.7144207499821481
Weighted FMeasure: 0.724392971371175
Iteration time: 268.0
Weighted AreaUnderPRC: 0.6329059977721423
Mean absolute error: 0.023387476771251834
Coverage of cases: 77.04
Instances selection time: 41.0
Test time: 169.0
Accumulative iteration time: 4322.0
Weighted Recall: 0.7222
Weighted FalsePositiveRate: 0.011098222712394743
Kappa statistic: 0.7110822154036839
Training time: 227.0
		
Iteration: 13
Labeled set size: 2240
Unlabelled set size: 7760
	
Mean region size: 5.664230769231406
Incorrectly Classified Instances: 27.24
Correctly Classified Instances: 72.76
Weighted Precision: 0.735197899959993
Weighted AreaUnderROC: 0.8863774485835519
Root mean squared error: 0.13530710725678716
Relative absolute error: 31.088357512485615
Root relative squared error: 70.35969577353424
Weighted TruePositiveRate: 0.7276
Weighted MatthewsCorrelation: 0.7196890295741338
Weighted FMeasure: 0.7295990690615627
Iteration time: 304.0
Weighted AreaUnderPRC: 0.6335604493747516
Mean absolute error: 0.022994347272545325
Coverage of cases: 77.62
Instances selection time: 85.0
Test time: 175.0
Accumulative iteration time: 4626.0
Weighted Recall: 0.7276
Weighted FalsePositiveRate: 0.010888530469745975
Kappa statistic: 0.7166948039133351
Training time: 219.0
		
Iteration: 14
Labeled set size: 2260
Unlabelled set size: 7740
	
Mean region size: 5.535769230769953
Incorrectly Classified Instances: 27.52
Correctly Classified Instances: 72.48
Weighted Precision: 0.7313522219446209
Weighted AreaUnderROC: 0.8841563737579753
Root mean squared error: 0.13533499422975095
Relative absolute error: 31.081423005209704
Root relative squared error: 70.37419699947542
Weighted TruePositiveRate: 0.7248
Weighted MatthewsCorrelation: 0.7163102172283324
Weighted FMeasure: 0.7263349483686937
Iteration time: 350.0
Weighted AreaUnderPRC: 0.633611409414013
Mean absolute error: 0.022989218199116396
Coverage of cases: 77.24
Instances selection time: 50.0
Test time: 182.0
Accumulative iteration time: 4976.0
Weighted Recall: 0.7248
Weighted FalsePositiveRate: 0.010951782680641347
Kappa statistic: 0.7137968929283185
Training time: 300.0
		
Iteration: 15
Labeled set size: 2280
Unlabelled set size: 7720
	
Mean region size: 5.517307692308404
Incorrectly Classified Instances: 27.5
Correctly Classified Instances: 72.5
Weighted Precision: 0.7312391352518657
Weighted AreaUnderROC: 0.8839677027094865
Root mean squared error: 0.1356050753538272
Relative absolute error: 31.023390657674128
Root relative squared error: 70.51463918399507
Weighted TruePositiveRate: 0.725
Weighted MatthewsCorrelation: 0.7163464544648022
Weighted FMeasure: 0.7263328071375921
Iteration time: 227.0
Weighted AreaUnderPRC: 0.6301244613512154
Mean absolute error: 0.022946294865140385
Coverage of cases: 77.21
Instances selection time: 41.0
Test time: 174.0
Accumulative iteration time: 5203.0
Weighted Recall: 0.725
Weighted FalsePositiveRate: 0.010935077052104806
Kappa statistic: 0.7140068999839282
Training time: 186.0
		
Iteration: 16
Labeled set size: 2300
Unlabelled set size: 7700
	
Mean region size: 5.5346153846161075
Incorrectly Classified Instances: 28.7
Correctly Classified Instances: 71.3
Weighted Precision: 0.7205428066988984
Weighted AreaUnderROC: 0.8790263050839235
Root mean squared error: 0.13809458520139048
Relative absolute error: 32.436252379252736
Root relative squared error: 71.80918430472806
Weighted TruePositiveRate: 0.713
Weighted MatthewsCorrelation: 0.7043053725073412
Weighted FMeasure: 0.7145293499917897
Iteration time: 247.0
Weighted AreaUnderPRC: 0.6147937143250726
Mean absolute error: 0.023991310931396607
Coverage of cases: 76.56
Instances selection time: 44.0
Test time: 177.0
Accumulative iteration time: 5450.0
Weighted Recall: 0.713
Weighted FalsePositiveRate: 0.011443381611367558
Kappa statistic: 0.701515035836864
Training time: 203.0
		
Iteration: 17
Labeled set size: 2320
Unlabelled set size: 7680
	
Mean region size: 5.847307692308431
Incorrectly Classified Instances: 27.37
Correctly Classified Instances: 72.63
Weighted Precision: 0.7329265041294414
Weighted AreaUnderROC: 0.8866200973068844
Root mean squared error: 0.13536568117506068
Relative absolute error: 31.337146360426974
Root relative squared error: 70.39015421103646
Weighted TruePositiveRate: 0.7263
Weighted MatthewsCorrelation: 0.7179353455792157
Weighted FMeasure: 0.727981680685736
Iteration time: 237.0
Weighted AreaUnderPRC: 0.6270100718795925
Mean absolute error: 0.023178362692620268
Coverage of cases: 77.92
Instances selection time: 47.0
Test time: 176.0
Accumulative iteration time: 5687.0
Weighted Recall: 0.7263
Weighted FalsePositiveRate: 0.010920024308495315
Kappa statistic: 0.7153519758618475
Training time: 190.0
		
Iteration: 18
Labeled set size: 2340
Unlabelled set size: 7660
	
Mean region size: 5.868461538462296
Incorrectly Classified Instances: 28.79
Correctly Classified Instances: 71.21
Weighted Precision: 0.7197948879806603
Weighted AreaUnderROC: 0.8799008735908099
Root mean squared error: 0.1385060695566415
Relative absolute error: 32.89520388623701
Root relative squared error: 72.0231561694586
Weighted TruePositiveRate: 0.7121
Weighted MatthewsCorrelation: 0.7032774030904355
Weighted FMeasure: 0.7134057486128855
Iteration time: 253.0
Weighted AreaUnderPRC: 0.6095479429863209
Mean absolute error: 0.024330772105201497
Coverage of cases: 76.84
Instances selection time: 52.0
Test time: 180.0
Accumulative iteration time: 5940.0
Weighted Recall: 0.7121
Weighted FalsePositiveRate: 0.01150206792454713
Kappa statistic: 0.7005734460523676
Training time: 201.0
		
Iteration: 19
Labeled set size: 2360
Unlabelled set size: 7640
	
Mean region size: 5.905769230769975
Incorrectly Classified Instances: 26.95
Correctly Classified Instances: 73.05
Weighted Precision: 0.7352862492249502
Weighted AreaUnderROC: 0.8874586153971342
Root mean squared error: 0.13490459272488917
Relative absolute error: 31.035813064352475
Root relative squared error: 70.15038821694726
Weighted TruePositiveRate: 0.7305
Weighted MatthewsCorrelation: 0.7215600604310927
Weighted FMeasure: 0.7316397584195095
Iteration time: 243.0
Weighted AreaUnderPRC: 0.628889977725932
Mean absolute error: 0.022955483035760463
Coverage of cases: 78.11
Instances selection time: 46.0
Test time: 182.0
Accumulative iteration time: 6183.0
Weighted Recall: 0.7305
Weighted FalsePositiveRate: 0.010746183334512174
Kappa statistic: 0.7197207894904801
Training time: 197.0
		
Iteration: 20
Labeled set size: 2380
Unlabelled set size: 7620
	
Mean region size: 5.878846153846898
Incorrectly Classified Instances: 27.66
Correctly Classified Instances: 72.34
Weighted Precision: 0.7305359677808756
Weighted AreaUnderROC: 0.8815182877123247
Root mean squared error: 0.1361670326876876
Relative absolute error: 31.3537173912065
Root relative squared error: 70.8068569976025
Weighted TruePositiveRate: 0.7234
Weighted MatthewsCorrelation: 0.7150905263607227
Weighted FMeasure: 0.7251211796641136
Iteration time: 231.0
Weighted AreaUnderPRC: 0.6233289273870811
Mean absolute error: 0.023190619372190923
Coverage of cases: 76.98
Instances selection time: 44.0
Test time: 184.0
Accumulative iteration time: 6414.0
Weighted Recall: 0.7234
Weighted FalsePositiveRate: 0.011029930083430629
Kappa statistic: 0.7123321611302239
Training time: 187.0
		
Iteration: 21
Labeled set size: 2400
Unlabelled set size: 7600
	
Mean region size: 5.757307692308414
Incorrectly Classified Instances: 26.65
Correctly Classified Instances: 73.35
Weighted Precision: 0.7400281078586465
Weighted AreaUnderROC: 0.8907364350380902
Root mean squared error: 0.133930367312574
Relative absolute error: 30.57986725214678
Root relative squared error: 69.64379100254334
Weighted TruePositiveRate: 0.7335
Weighted MatthewsCorrelation: 0.7253391325245775
Weighted FMeasure: 0.7350322329223423
Iteration time: 248.0
Weighted AreaUnderPRC: 0.636098230883678
Mean absolute error: 0.022618245008981148
Coverage of cases: 78.73
Instances selection time: 46.0
Test time: 194.0
Accumulative iteration time: 6662.0
Weighted Recall: 0.7335
Weighted FalsePositiveRate: 0.01061601564340581
Kappa statistic: 0.7228438792987902
Training time: 202.0
		
Iteration: 22
Labeled set size: 2420
Unlabelled set size: 7580
	
Mean region size: 5.416538461539114
Incorrectly Classified Instances: 27.72
Correctly Classified Instances: 72.28
Weighted Precision: 0.7319180523803057
Weighted AreaUnderROC: 0.8804822099167815
Root mean squared error: 0.13616587497237018
Relative absolute error: 30.98170483626071
Root relative squared error: 70.80625498563742
Weighted TruePositiveRate: 0.7228
Weighted MatthewsCorrelation: 0.7146536494021427
Weighted FMeasure: 0.7237617307764774
Iteration time: 247.0
Weighted AreaUnderPRC: 0.624444687951339
Mean absolute error: 0.02291546215699437
Coverage of cases: 76.96
Instances selection time: 45.0
Test time: 181.0
Accumulative iteration time: 6909.0
Weighted Recall: 0.7228
Weighted FalsePositiveRate: 0.011058858344608945
Kappa statistic: 0.7117108602200569
Training time: 202.0
		
Iteration: 23
Labeled set size: 2440
Unlabelled set size: 7560
	
Mean region size: 5.643846153846866
Incorrectly Classified Instances: 27.48
Correctly Classified Instances: 72.52
Weighted Precision: 0.7330083689081877
Weighted AreaUnderROC: 0.8805394348573278
Root mean squared error: 0.1359316680024565
Relative absolute error: 31.193095984440806
Root relative squared error: 70.68446736128232
Weighted TruePositiveRate: 0.7252
Weighted MatthewsCorrelation: 0.7169253676658289
Weighted FMeasure: 0.7264568924727929
Iteration time: 252.0
Weighted AreaUnderPRC: 0.6250384708628944
Mean absolute error: 0.02307181655653584
Coverage of cases: 76.87
Instances selection time: 45.0
Test time: 182.0
Accumulative iteration time: 7161.0
Weighted Recall: 0.7252
Weighted FalsePositiveRate: 0.010967783211709247
Kappa statistic: 0.7142033508887495
Training time: 207.0
		
Iteration: 24
Labeled set size: 2460
Unlabelled set size: 7540
	
Mean region size: 5.542692307692969
Incorrectly Classified Instances: 27.1
Correctly Classified Instances: 72.9
Weighted Precision: 0.735605412069604
Weighted AreaUnderROC: 0.8801909701107877
Root mean squared error: 0.13528304739635283
Relative absolute error: 30.84814452391863
Root relative squared error: 70.34718464610839
Weighted TruePositiveRate: 0.729
Weighted MatthewsCorrelation: 0.720371403855344
Weighted FMeasure: 0.729879287109324
Iteration time: 261.0
Weighted AreaUnderPRC: 0.6259988872278687
Mean absolute error: 0.022816674943723612
Coverage of cases: 76.79
Instances selection time: 46.0
Test time: 179.0
Accumulative iteration time: 7422.0
Weighted Recall: 0.729
Weighted FalsePositiveRate: 0.010822746876033962
Kappa statistic: 0.7181536710843149
Training time: 215.0
		
Iteration: 25
Labeled set size: 2480
Unlabelled set size: 7520
	
Mean region size: 5.5657692307698845
Incorrectly Classified Instances: 27.12
Correctly Classified Instances: 72.88
Weighted Precision: 0.7364159200707799
Weighted AreaUnderROC: 0.8808148883187432
Root mean squared error: 0.13521988402644228
Relative absolute error: 30.914412863536146
Root relative squared error: 70.31433969375489
Weighted TruePositiveRate: 0.7288
Weighted MatthewsCorrelation: 0.7206186144411466
Weighted FMeasure: 0.7300689915702832
Iteration time: 256.0
Weighted AreaUnderPRC: 0.6282036376806269
Mean absolute error: 0.0228656899878194
Coverage of cases: 76.84
Instances selection time: 44.0
Test time: 178.0
Accumulative iteration time: 7678.0
Weighted Recall: 0.7288
Weighted FalsePositiveRate: 0.01082749243462274
Kappa statistic: 0.717946267765589
Training time: 212.0
		
Iteration: 26
Labeled set size: 2500
Unlabelled set size: 7500
	
Mean region size: 5.796153846154571
Incorrectly Classified Instances: 26.85
Correctly Classified Instances: 73.15
Weighted Precision: 0.7374458118853211
Weighted AreaUnderROC: 0.8846976576420742
Root mean squared error: 0.13439517523976427
Relative absolute error: 30.95046584990169
Root relative squared error: 69.8854911246823
Weighted TruePositiveRate: 0.7315
Weighted MatthewsCorrelation: 0.7227585308833803
Weighted FMeasure: 0.7323017634055173
Iteration time: 258.0
Weighted AreaUnderPRC: 0.6420607603502657
Mean absolute error: 0.022892356397853083
Coverage of cases: 77.58
Instances selection time: 44.0
Test time: 176.0
Accumulative iteration time: 7936.0
Weighted Recall: 0.7315
Weighted FalsePositiveRate: 0.010723056118389475
Kappa statistic: 0.7207534593758269
Training time: 214.0
		
Iteration: 27
Labeled set size: 2520
Unlabelled set size: 7480
	
Mean region size: 5.7530769230776215
Incorrectly Classified Instances: 26.46
Correctly Classified Instances: 73.54
Weighted Precision: 0.7414944679728531
Weighted AreaUnderROC: 0.8841517970982512
Root mean squared error: 0.133714987274765
Relative absolute error: 30.564700595265023
Root relative squared error: 69.53179338288265
Weighted TruePositiveRate: 0.7354
Weighted MatthewsCorrelation: 0.7268834062917021
Weighted FMeasure: 0.736281791847783
Iteration time: 265.0
Weighted AreaUnderPRC: 0.6421135228401318
Mean absolute error: 0.02260702706750056
Coverage of cases: 77.56
Instances selection time: 45.0
Test time: 175.0
Accumulative iteration time: 8201.0
Weighted Recall: 0.7354
Weighted FalsePositiveRate: 0.010576045117789265
Kappa statistic: 0.724806967063887
Training time: 220.0
		
Iteration: 28
Labeled set size: 2540
Unlabelled set size: 7460
	
Mean region size: 5.388461538462234
Incorrectly Classified Instances: 26.42
Correctly Classified Instances: 73.58
Weighted Precision: 0.7402872557772916
Weighted AreaUnderROC: 0.8864610856349987
Root mean squared error: 0.13353838057012565
Relative absolute error: 30.03352368345417
Root relative squared error: 69.43995789647019
Weighted TruePositiveRate: 0.7358
Weighted MatthewsCorrelation: 0.7268770989903209
Weighted FMeasure: 0.7366969392506356
Iteration time: 251.0
Weighted AreaUnderPRC: 0.6336521079098422
Mean absolute error: 0.02221414473627957
Coverage of cases: 77.74
Instances selection time: 42.0
Test time: 165.0
Accumulative iteration time: 8452.0
Weighted Recall: 0.7358
Weighted FalsePositiveRate: 0.010545282553475397
Kappa statistic: 0.7252286047048226
Training time: 209.0
		
Iteration: 29
Labeled set size: 2560
Unlabelled set size: 7440
	
Mean region size: 5.66153846153914
Incorrectly Classified Instances: 26.1
Correctly Classified Instances: 73.9
Weighted Precision: 0.7458630629914689
Weighted AreaUnderROC: 0.8868149075373593
Root mean squared error: 0.13254366416405666
Relative absolute error: 29.967325097330242
Root relative squared error: 68.92270536531427
Weighted TruePositiveRate: 0.739
Weighted MatthewsCorrelation: 0.7308771603063953
Weighted FMeasure: 0.7399603402018664
Iteration time: 267.0
Weighted AreaUnderPRC: 0.6446150368618491
Mean absolute error: 0.022165181285004484
Coverage of cases: 78.04
Instances selection time: 45.0
Test time: 168.0
Accumulative iteration time: 8719.0
Weighted Recall: 0.739
Weighted FalsePositiveRate: 0.0104326668787706
Kappa statistic: 0.7285490375071699
Training time: 222.0
		
Iteration: 30
Labeled set size: 2580
Unlabelled set size: 7420
	
Mean region size: 5.5365384615391084
Incorrectly Classified Instances: 25.95
Correctly Classified Instances: 74.05
Weighted Precision: 0.7450763370929394
Weighted AreaUnderROC: 0.8856070668044058
Root mean squared error: 0.13264239536924322
Relative absolute error: 29.654001562366563
Root relative squared error: 68.9740455920113
Weighted TruePositiveRate: 0.7405
Weighted MatthewsCorrelation: 0.7315456563133779
Weighted FMeasure: 0.7408656869471558
Iteration time: 271.0
Weighted AreaUnderPRC: 0.6444142053605845
Mean absolute error: 0.021933433108256233
Coverage of cases: 77.74
Instances selection time: 44.0
Test time: 167.0
Accumulative iteration time: 8990.0
Weighted Recall: 0.7405
Weighted FalsePositiveRate: 0.010368250110410237
Kappa statistic: 0.7301108043353254
Training time: 227.0
		
Iteration: 31
Labeled set size: 2600
Unlabelled set size: 7400
	
Mean region size: 5.528076923077584
Incorrectly Classified Instances: 26.14
Correctly Classified Instances: 73.86
Weighted Precision: 0.7444421201897975
Weighted AreaUnderROC: 0.8844234833512428
Root mean squared error: 0.13293244582213232
Relative absolute error: 29.811523310280446
Root relative squared error: 69.12487182751363
Weighted TruePositiveRate: 0.7386
Weighted MatthewsCorrelation: 0.7299904456417696
Weighted FMeasure: 0.7391312463824864
Iteration time: 277.0
Weighted AreaUnderPRC: 0.6407672911633862
Mean absolute error: 0.022049943276831574
Coverage of cases: 77.55
Instances selection time: 45.0
Test time: 168.0
Accumulative iteration time: 9267.0
Weighted Recall: 0.7386
Weighted FalsePositiveRate: 0.010443209386199831
Kappa statistic: 0.7281343326743624
Training time: 232.0
		
Iteration: 32
Labeled set size: 2620
Unlabelled set size: 7380
	
Mean region size: 5.74730769230838
Incorrectly Classified Instances: 25.89
Correctly Classified Instances: 74.11
Weighted Precision: 0.7458819542217904
Weighted AreaUnderROC: 0.8867343744549817
Root mean squared error: 0.1323464923556305
Relative absolute error: 29.945325177167373
Root relative squared error: 68.82017602493266
Weighted TruePositiveRate: 0.7411
Weighted MatthewsCorrelation: 0.7322159375961623
Weighted FMeasure: 0.7414463290407701
Iteration time: 274.0
Weighted AreaUnderPRC: 0.6464364252859601
Mean absolute error: 0.022148909154706502
Coverage of cases: 78.09
Instances selection time: 43.0
Test time: 168.0
Accumulative iteration time: 9541.0
Weighted Recall: 0.7411
Weighted FalsePositiveRate: 0.010343764557788142
Kappa statistic: 0.7307345539527403
Training time: 231.0
		
Iteration: 33
Labeled set size: 2640
Unlabelled set size: 7360
	
Mean region size: 5.808846153846905
Incorrectly Classified Instances: 26.48
Correctly Classified Instances: 73.52
Weighted Precision: 0.7390082561512583
Weighted AreaUnderROC: 0.8873694316523028
Root mean squared error: 0.13412553612449968
Relative absolute error: 30.6058911494389
Root relative squared error: 69.7452787847447
Weighted TruePositiveRate: 0.7352
Weighted MatthewsCorrelation: 0.7258492238908603
Weighted FMeasure: 0.7356210072367592
Iteration time: 280.0
Weighted AreaUnderPRC: 0.6321662750406937
Mean absolute error: 0.022637493453723838
Coverage of cases: 78.37
Instances selection time: 44.0
Test time: 173.0
Accumulative iteration time: 9821.0
Weighted Recall: 0.7352
Weighted FalsePositiveRate: 0.01057924028798537
Kappa statistic: 0.7246010138988397
Training time: 236.0
		
Iteration: 34
Labeled set size: 2660
Unlabelled set size: 7340
	
Mean region size: 5.7523076923083885
Incorrectly Classified Instances: 26.86
Correctly Classified Instances: 73.14
Weighted Precision: 0.7346294259067502
Weighted AreaUnderROC: 0.8861944103425808
Root mean squared error: 0.13475405507590854
Relative absolute error: 30.702947947148882
Root relative squared error: 70.07210863947732
Weighted TruePositiveRate: 0.7314
Weighted MatthewsCorrelation: 0.7216321544112668
Weighted FMeasure: 0.731583265408618
Iteration time: 284.0
Weighted AreaUnderPRC: 0.6275823269679873
Mean absolute error: 0.022709281025994524
Coverage of cases: 78.21
Instances selection time: 43.0
Test time: 173.0
Accumulative iteration time: 10105.0
Weighted Recall: 0.7314
Weighted FalsePositiveRate: 0.01073468411168127
Kappa statistic: 0.7206476963086433
Training time: 241.0
		
Iteration: 35
Labeled set size: 2680
Unlabelled set size: 7320
	
Mean region size: 5.454615384616104
Incorrectly Classified Instances: 27.17
Correctly Classified Instances: 72.83
Weighted Precision: 0.7327831839166811
Weighted AreaUnderROC: 0.8879852139692163
Root mean squared error: 0.1349623191400718
Relative absolute error: 30.83728911406877
Root relative squared error: 70.18040595284224
Weighted TruePositiveRate: 0.7283
Weighted MatthewsCorrelation: 0.7188446285818609
Weighted FMeasure: 0.728712206835865
Iteration time: 284.0
Weighted AreaUnderPRC: 0.6366498591224922
Mean absolute error: 0.02280864579442638
Coverage of cases: 78.34
Instances selection time: 44.0
Test time: 178.0
Accumulative iteration time: 10389.0
Weighted Recall: 0.7283
Weighted FalsePositiveRate: 0.010870738168330313
Kappa statistic: 0.7174199033112209
Training time: 240.0
		
Iteration: 36
Labeled set size: 2700
Unlabelled set size: 7300
	
Mean region size: 5.411923076923799
Incorrectly Classified Instances: 25.99
Correctly Classified Instances: 74.01
Weighted Precision: 0.7435096031686187
Weighted AreaUnderROC: 0.8887789470488782
Root mean squared error: 0.13324849668597097
Relative absolute error: 29.75281781666024
Root relative squared error: 69.28921827670973
Weighted TruePositiveRate: 0.7401
Weighted MatthewsCorrelation: 0.7306851203492952
Weighted FMeasure: 0.7402070696452684
Iteration time: 285.0
Weighted AreaUnderPRC: 0.6356347895384004
Mean absolute error: 0.02200652205373971
Coverage of cases: 78.58
Instances selection time: 43.0
Test time: 183.0
Accumulative iteration time: 10674.0
Weighted Recall: 0.7401
Weighted FalsePositiveRate: 0.010399550156701017
Kappa statistic: 0.7296921334846599
Training time: 242.0
		
Iteration: 37
Labeled set size: 2720
Unlabelled set size: 7280
	
Mean region size: 5.5353846153853254
Incorrectly Classified Instances: 26.12
Correctly Classified Instances: 73.88
Weighted Precision: 0.743014799723672
Weighted AreaUnderROC: 0.8899735830948381
Root mean squared error: 0.13315088715905565
Relative absolute error: 30.02840697510266
Root relative squared error: 69.23846132271377
Weighted TruePositiveRate: 0.7388
Weighted MatthewsCorrelation: 0.7296917588515252
Weighted FMeasure: 0.7392062794920312
Iteration time: 287.0
Weighted AreaUnderPRC: 0.6396486367329277
Mean absolute error: 0.022210360188682297
Coverage of cases: 78.8
Instances selection time: 42.0
Test time: 181.0
Accumulative iteration time: 10961.0
Weighted Recall: 0.7388
Weighted FalsePositiveRate: 0.01044997361240747
Kappa statistic: 0.7283402973346648
Training time: 245.0
		
Iteration: 38
Labeled set size: 2740
Unlabelled set size: 7260
	
Mean region size: 5.488461538462185
Incorrectly Classified Instances: 26.64
Correctly Classified Instances: 73.36
Weighted Precision: 0.7370905902960059
Weighted AreaUnderROC: 0.8875079931537928
Root mean squared error: 0.1345032992257278
Relative absolute error: 30.27374882567561
Root relative squared error: 69.94171559738334
Weighted TruePositiveRate: 0.7336
Weighted MatthewsCorrelation: 0.7240493125680225
Weighted FMeasure: 0.7339398356480686
Iteration time: 296.0
Weighted AreaUnderPRC: 0.6273302870100002
Mean absolute error: 0.02239182605449067
Coverage of cases: 78.42
Instances selection time: 42.0
Test time: 183.0
Accumulative iteration time: 11257.0
Weighted Recall: 0.7336
Weighted FalsePositiveRate: 0.010652845274618659
Kappa statistic: 0.7229367584534684
Training time: 254.0
		
Iteration: 39
Labeled set size: 2760
Unlabelled set size: 7240
	
Mean region size: 5.606153846154587
Incorrectly Classified Instances: 25.68
Correctly Classified Instances: 74.32
Weighted Precision: 0.7460133853869907
Weighted AreaUnderROC: 0.8926295886188118
Root mean squared error: 0.1322805184977604
Relative absolute error: 29.690036465152204
Root relative squared error: 68.78586961884021
Weighted TruePositiveRate: 0.7432
Weighted MatthewsCorrelation: 0.733603461699966
Weighted FMeasure: 0.7429975676281728
Iteration time: 292.0
Weighted AreaUnderPRC: 0.6418626014300121
Mean absolute error: 0.02196008614286099
Coverage of cases: 79.32
Instances selection time: 42.0
Test time: 176.0
Accumulative iteration time: 11549.0
Weighted Recall: 0.7432
Weighted FalsePositiveRate: 0.010282850434085855
Kappa statistic: 0.7329141055507645
Training time: 250.0
		
Iteration: 40
Labeled set size: 2780
Unlabelled set size: 7220
	
Mean region size: 5.483846153846867
Incorrectly Classified Instances: 25.92
Correctly Classified Instances: 74.08
Weighted Precision: 0.7438225685671324
Weighted AreaUnderROC: 0.8914922963774788
Root mean squared error: 0.13273476198856696
Relative absolute error: 29.70874811982235
Root relative squared error: 69.02207623405964
Weighted TruePositiveRate: 0.7408
Weighted MatthewsCorrelation: 0.731157850721818
Weighted FMeasure: 0.74056532321331
Iteration time: 297.0
Weighted AreaUnderPRC: 0.6427926842441121
Mean absolute error: 0.021973926124125888
Coverage of cases: 79.14
Instances selection time: 42.0
Test time: 176.0
Accumulative iteration time: 11846.0
Weighted Recall: 0.7408
Weighted FalsePositiveRate: 0.010362757717288024
Kappa statistic: 0.7304222850661403
Training time: 255.0
		
Iteration: 41
Labeled set size: 2800
Unlabelled set size: 7200
	
Mean region size: 5.355769230769879
Incorrectly Classified Instances: 27.38
Correctly Classified Instances: 72.62
Weighted Precision: 0.7298168349433034
Weighted AreaUnderROC: 0.8850659715175905
Root mean squared error: 0.13576160712110064
Relative absolute error: 30.711980399530454
Root relative squared error: 70.59603570297726
Weighted TruePositiveRate: 0.7262
Weighted MatthewsCorrelation: 0.7162011139706148
Weighted FMeasure: 0.7261098351814964
Iteration time: 302.0
Weighted AreaUnderPRC: 0.6255939554786373
Mean absolute error: 0.02271596183396906
Coverage of cases: 77.92
Instances selection time: 42.0
Test time: 176.0
Accumulative iteration time: 12148.0
Weighted Recall: 0.7262
Weighted FalsePositiveRate: 0.010940564685984422
Kappa statistic: 0.7152416471550513
Training time: 260.0
		
Iteration: 42
Labeled set size: 2820
Unlabelled set size: 7180
	
Mean region size: 5.449615384616082
Incorrectly Classified Instances: 26.04
Correctly Classified Instances: 73.96
Weighted Precision: 0.7432427627680385
Weighted AreaUnderROC: 0.8905785002621145
Root mean squared error: 0.13325347710568594
Relative absolute error: 29.875293976282293
Root relative squared error: 69.29180809496152
Weighted TruePositiveRate: 0.7396
Weighted MatthewsCorrelation: 0.7302929777075067
Weighted FMeasure: 0.7398425161751666
Iteration time: 308.0
Weighted AreaUnderPRC: 0.6373123400241768
Mean absolute error: 0.022097110929199797
Coverage of cases: 78.85
Instances selection time: 42.0
Test time: 176.0
Accumulative iteration time: 12456.0
Weighted Recall: 0.7396
Weighted FalsePositiveRate: 0.0104143537452419
Kappa statistic: 0.7291737922352379
Training time: 266.0
		
Iteration: 43
Labeled set size: 2840
Unlabelled set size: 7160
	
Mean region size: 5.395000000000693
Incorrectly Classified Instances: 26.07
Correctly Classified Instances: 73.93
Weighted Precision: 0.7433112441393096
Weighted AreaUnderROC: 0.8901777892503041
Root mean squared error: 0.1334162698237144
Relative absolute error: 29.762714041641722
Root relative squared error: 69.37646030833633
Weighted TruePositiveRate: 0.7393
Weighted MatthewsCorrelation: 0.7300427794438745
Weighted FMeasure: 0.7394613538637863
Iteration time: 307.0
Weighted AreaUnderPRC: 0.639208745779743
Mean absolute error: 0.022013841746773347
Coverage of cases: 78.81
Instances selection time: 44.0
Test time: 181.0
Accumulative iteration time: 12763.0
Weighted Recall: 0.7393
Weighted FalsePositiveRate: 0.010428864778981087
Kappa statistic: 0.7288613913223414
Training time: 263.0
		
Iteration: 44
Labeled set size: 2860
Unlabelled set size: 7140
	
Mean region size: 5.346538461539171
Incorrectly Classified Instances: 26.15
Correctly Classified Instances: 73.85
Weighted Precision: 0.7415758124546635
Weighted AreaUnderROC: 0.8894385737938392
Root mean squared error: 0.13352167238392457
Relative absolute error: 29.78902473460435
Root relative squared error: 69.43126963964562
Weighted TruePositiveRate: 0.7385
Weighted MatthewsCorrelation: 0.7288153477977082
Weighted FMeasure: 0.7383624223533719
Iteration time: 307.0
Weighted AreaUnderPRC: 0.6369174933432135
Mean absolute error: 0.02203330231849127
Coverage of cases: 78.63
Instances selection time: 42.0
Test time: 176.0
Accumulative iteration time: 13070.0
Weighted Recall: 0.7385
Weighted FalsePositiveRate: 0.010470682345453662
Kappa statistic: 0.7280269402888296
Training time: 265.0
		
Iteration: 45
Labeled set size: 2880
Unlabelled set size: 7120
	
Mean region size: 5.506923076923785
Incorrectly Classified Instances: 26.37
Correctly Classified Instances: 73.63
Weighted Precision: 0.7399284633591182
Weighted AreaUnderROC: 0.8906717975246018
Root mean squared error: 0.1333560997190534
Relative absolute error: 30.23505165990886
Root relative squared error: 69.3451718539126
Weighted TruePositiveRate: 0.7363
Weighted MatthewsCorrelation: 0.7268411653913142
Weighted FMeasure: 0.7365074591957713
Iteration time: 315.0
Weighted AreaUnderPRC: 0.6396391453751318
Mean absolute error: 0.02236320389046201
Coverage of cases: 78.94
Instances selection time: 42.0
Test time: 177.0
Accumulative iteration time: 13385.0
Weighted Recall: 0.7363
Weighted FalsePositiveRate: 0.010552820729192617
Kappa statistic: 0.7257391156624712
Training time: 273.0
		
Iteration: 46
Labeled set size: 2900
Unlabelled set size: 7100
	
Mean region size: 5.49846153846225
Incorrectly Classified Instances: 26.24
Correctly Classified Instances: 73.76
Weighted Precision: 0.7420802701428951
Weighted AreaUnderROC: 0.8915528820976227
Root mean squared error: 0.13285238149259618
Relative absolute error: 29.997442193819293
Root relative squared error: 69.08323837615484
Weighted TruePositiveRate: 0.7376
Weighted MatthewsCorrelation: 0.7285035060451741
Weighted FMeasure: 0.7379857778959247
Iteration time: 319.0
Weighted AreaUnderPRC: 0.6436307870814058
Mean absolute error: 0.022187457243946083
Coverage of cases: 79.09
Instances selection time: 41.0
Test time: 177.0
Accumulative iteration time: 13704.0
Weighted Recall: 0.7376
Weighted FalsePositiveRate: 0.010505577864431266
Kappa statistic: 0.7270902510251745
Training time: 278.0
		
Time end:Sat Oct 07 15.49.52 EEST 2017