Sat Oct 07 23.23.07 EEST 2017
Dataset: letter
Test set size: 10000
Initial Labelled set size: 2000
Initial Unlabelled set size: 8000
Batch mode: QBestBatchMode
Batch size: 20
Classifiers: NaiveBayes-1cores
Scenario: PoolBasedSamplingScenario
Query strategy: RandomSelectionQueryStrategy-1cores
Time begining: Sat Oct 07 23.23.07 EEST 2017
		
Iteration: 1
Labeled set size: 2000
Unlabelled set size: 8000
	
Mean region size: 10.762692307692914
Incorrectly Classified Instances: 37.66
Correctly Classified Instances: 62.34
Weighted Precision: 0.6390570283913061
Weighted AreaUnderROC: 0.9514503564102473
Root mean squared error: 0.14533473724766613
Relative absolute error: 44.4464352713482
Root relative squared error: 75.57406336879167
Weighted TruePositiveRate: 0.6234
Weighted MatthewsCorrelation: 0.6116795230642535
Weighted FMeasure: 0.621156802322394
Iteration time: 151.0
Weighted AreaUnderPRC: 0.6684150409776957
Mean absolute error: 0.03287458230128846
Coverage of cases: 84.21
Instances selection time: 144.0
Test time: 2365.0
Accumulative iteration time: 151.0
Weighted Recall: 0.6234
Weighted FalsePositiveRate: 0.015029807974817374
Kappa statistic: 0.6083203165187859
Training time: 7.0
		
Iteration: 2
Labeled set size: 2020
Unlabelled set size: 7980
	
Mean region size: 10.750384615385233
Incorrectly Classified Instances: 37.87
Correctly Classified Instances: 62.13
Weighted Precision: 0.6383877124923464
Weighted AreaUnderROC: 0.9514025905318239
Root mean squared error: 0.14561704280421134
Relative absolute error: 44.52748372590447
Root relative squared error: 75.72086225819518
Weighted TruePositiveRate: 0.6213
Weighted MatthewsCorrelation: 0.6100817042751487
Weighted FMeasure: 0.6194685530857621
Iteration time: 147.0
Weighted AreaUnderPRC: 0.6670020728153163
Mean absolute error: 0.03293452938306084
Coverage of cases: 84.29
Instances selection time: 140.0
Test time: 2026.0
Accumulative iteration time: 298.0
Weighted Recall: 0.6213
Weighted FalsePositiveRate: 0.01511482396931148
Kappa statistic: 0.6061359136454394
Training time: 7.0
		
Iteration: 3
Labeled set size: 2040
Unlabelled set size: 7960
	
Mean region size: 10.794230769231369
Incorrectly Classified Instances: 37.92
Correctly Classified Instances: 62.08
Weighted Precision: 0.6382944245743426
Weighted AreaUnderROC: 0.9517441053482915
Root mean squared error: 0.1454396461752473
Relative absolute error: 44.56053771997005
Root relative squared error: 75.62861601113387
Weighted TruePositiveRate: 0.6208
Weighted MatthewsCorrelation: 0.609655936223572
Weighted FMeasure: 0.618948911038295
Iteration time: 145.0
Weighted AreaUnderPRC: 0.6683177656847791
Mean absolute error: 0.032958977603523544
Coverage of cases: 84.29
Instances selection time: 138.0
Test time: 2028.0
Accumulative iteration time: 443.0
Weighted Recall: 0.6208
Weighted FalsePositiveRate: 0.015130486961639423
Kappa statistic: 0.6056175002907687
Training time: 7.0
		
Iteration: 4
Labeled set size: 2060
Unlabelled set size: 7940
	
Mean region size: 10.87384615384672
Incorrectly Classified Instances: 38.0
Correctly Classified Instances: 62.0
Weighted Precision: 0.6364294494740309
Weighted AreaUnderROC: 0.9514120234170814
Root mean squared error: 0.14555932246537576
Relative absolute error: 44.77500431421045
Root relative squared error: 75.69084768200068
Weighted TruePositiveRate: 0.62
Weighted MatthewsCorrelation: 0.608174536942356
Weighted FMeasure: 0.6173795180716466
Iteration time: 144.0
Weighted AreaUnderPRC: 0.6672566201183865
Mean absolute error: 0.0331176067412753
Coverage of cases: 84.21
Instances selection time: 138.0
Test time: 2041.0
Accumulative iteration time: 587.0
Weighted Recall: 0.62
Weighted FalsePositiveRate: 0.015173634402031984
Kappa statistic: 0.6047822841287555
Training time: 6.0
		
Iteration: 5
Labeled set size: 2080
Unlabelled set size: 7920
	
Mean region size: 10.897692307692866
Incorrectly Classified Instances: 38.39
Correctly Classified Instances: 61.61
Weighted Precision: 0.6323513547561522
Weighted AreaUnderROC: 0.9510406267167304
Root mean squared error: 0.14605621067283778
Relative absolute error: 44.934111474903204
Root relative squared error: 75.94922954988094
Weighted TruePositiveRate: 0.6161
Weighted MatthewsCorrelation: 0.6040534524242595
Weighted FMeasure: 0.6134385209526126
Iteration time: 140.0
Weighted AreaUnderPRC: 0.66543990434712
Mean absolute error: 0.03323528955243856
Coverage of cases: 84.05
Instances selection time: 134.0
Test time: 2029.0
Accumulative iteration time: 727.0
Weighted Recall: 0.6161
Weighted FalsePositiveRate: 0.015331170205638983
Kappa statistic: 0.6007261479869479
Training time: 6.0
		
Iteration: 6
Labeled set size: 2100
Unlabelled set size: 7900
	
Mean region size: 10.878076923077488
Incorrectly Classified Instances: 38.17
Correctly Classified Instances: 61.83
Weighted Precision: 0.6349727036247481
Weighted AreaUnderROC: 0.9511500924364403
Root mean squared error: 0.1459157486657566
Relative absolute error: 44.801890189522396
Root relative squared error: 75.87618930619873
Weighted TruePositiveRate: 0.6183
Weighted MatthewsCorrelation: 0.6063733329924069
Weighted FMeasure: 0.6154619537509639
Iteration time: 142.0
Weighted AreaUnderPRC: 0.6662077910853048
Mean absolute error: 0.03313749274372496
Coverage of cases: 84.05
Instances selection time: 135.0
Test time: 2023.0
Accumulative iteration time: 869.0
Weighted Recall: 0.6183
Weighted FalsePositiveRate: 0.015248770302593308
Kappa statistic: 0.6030117729734471
Training time: 7.0
		
Iteration: 7
Labeled set size: 2120
Unlabelled set size: 7880
	
Mean region size: 10.906923076923638
Incorrectly Classified Instances: 38.14
Correctly Classified Instances: 61.86
Weighted Precision: 0.6360875660218444
Weighted AreaUnderROC: 0.9511967433381806
Root mean squared error: 0.14579564889249688
Relative absolute error: 44.7954054193452
Root relative squared error: 75.81373742410368
Weighted TruePositiveRate: 0.6186
Weighted MatthewsCorrelation: 0.6068354891974791
Weighted FMeasure: 0.6156172835854822
Iteration time: 141.0
Weighted AreaUnderPRC: 0.6666931312499806
Mean absolute error: 0.033132696316079104
Coverage of cases: 84.01
Instances selection time: 135.0
Test time: 2023.0
Accumulative iteration time: 1010.0
Weighted Recall: 0.6186
Weighted FalsePositiveRate: 0.015235368258497348
Kappa statistic: 0.6033248739121205
Training time: 6.0
		
Iteration: 8
Labeled set size: 2140
Unlabelled set size: 7860
	
Mean region size: 10.940000000000522
Incorrectly Classified Instances: 38.09
Correctly Classified Instances: 61.91
Weighted Precision: 0.6365618641094832
Weighted AreaUnderROC: 0.9515740862888324
Root mean squared error: 0.14550168261235735
Relative absolute error: 44.699521766286985
Root relative squared error: 75.6608749584311
Weighted TruePositiveRate: 0.6191
Weighted MatthewsCorrelation: 0.6073242070525411
Weighted FMeasure: 0.6160727806063767
Iteration time: 141.0
Weighted AreaUnderPRC: 0.6686373177162033
Mean absolute error: 0.03306177645434966
Coverage of cases: 84.18
Instances selection time: 134.0
Test time: 2024.0
Accumulative iteration time: 1151.0
Weighted Recall: 0.6191
Weighted FalsePositiveRate: 0.015218198551887914
Kappa statistic: 0.6038431190461931
Training time: 7.0
		
Iteration: 9
Labeled set size: 2160
Unlabelled set size: 7840
	
Mean region size: 10.955000000000519
Incorrectly Classified Instances: 37.97
Correctly Classified Instances: 62.03
Weighted Precision: 0.6374581613968988
Weighted AreaUnderROC: 0.9518082983293809
Root mean squared error: 0.14528437040103365
Relative absolute error: 44.61031939501254
Root relative squared error: 75.54787260854278
Weighted TruePositiveRate: 0.6203
Weighted MatthewsCorrelation: 0.6084027844550467
Weighted FMeasure: 0.6170868078614095
Iteration time: 138.0
Weighted AreaUnderPRC: 0.6698949123157675
Mean absolute error: 0.03299579836908751
Coverage of cases: 84.45
Instances selection time: 131.0
Test time: 2027.0
Accumulative iteration time: 1289.0
Weighted Recall: 0.6203
Weighted FalsePositiveRate: 0.01517123365930408
Kappa statistic: 0.6050899772897095
Training time: 7.0
		
Iteration: 10
Labeled set size: 2180
Unlabelled set size: 7820
	
Mean region size: 10.99692307692357
Incorrectly Classified Instances: 38.01
Correctly Classified Instances: 61.99
Weighted Precision: 0.6370366585431076
Weighted AreaUnderROC: 0.9518738342513119
Root mean squared error: 0.14524124084553172
Relative absolute error: 44.66482272676436
Root relative squared error: 75.52544523968177
Weighted TruePositiveRate: 0.6199
Weighted MatthewsCorrelation: 0.6080784170759431
Weighted FMeasure: 0.6168860594031885
Iteration time: 140.0
Weighted AreaUnderPRC: 0.6693109972148221
Mean absolute error: 0.03303611148428856
Coverage of cases: 84.45
Instances selection time: 133.0
Test time: 2031.0
Accumulative iteration time: 1429.0
Weighted Recall: 0.6199
Weighted FalsePositiveRate: 0.015185942661639836
Kappa statistic: 0.6046742048982644
Training time: 7.0
		
Iteration: 11
Labeled set size: 2200
Unlabelled set size: 7800
	
Mean region size: 11.007692307692805
Incorrectly Classified Instances: 37.96
Correctly Classified Instances: 62.04
Weighted Precision: 0.6381541962523596
Weighted AreaUnderROC: 0.9520924306948826
Root mean squared error: 0.1450692062140407
Relative absolute error: 44.66543087622004
Root relative squared error: 75.43598723130643
Weighted TruePositiveRate: 0.6204
Weighted MatthewsCorrelation: 0.6087850753475139
Weighted FMeasure: 0.6174367590483397
Iteration time: 141.0
Weighted AreaUnderPRC: 0.6700700088145113
Mean absolute error: 0.03303656129897471
Coverage of cases: 84.46
Instances selection time: 133.0
Test time: 2022.0
Accumulative iteration time: 1570.0
Weighted Recall: 0.6204
Weighted FalsePositiveRate: 0.015164158966507815
Kappa statistic: 0.6051944224538871
Training time: 8.0
		
Iteration: 12
Labeled set size: 2220
Unlabelled set size: 7780
	
Mean region size: 10.99615384615434
Incorrectly Classified Instances: 37.97
Correctly Classified Instances: 62.03
Weighted Precision: 0.6378468238810521
Weighted AreaUnderROC: 0.9518826881507035
Root mean squared error: 0.14522904509266504
Relative absolute error: 44.75744791923592
Root relative squared error: 75.5191034481911
Weighted TruePositiveRate: 0.6203
Weighted MatthewsCorrelation: 0.6087901351258675
Weighted FMeasure: 0.6177031317871878
Iteration time: 140.0
Weighted AreaUnderPRC: 0.6688037421823828
Mean absolute error: 0.03310462124203378
Coverage of cases: 84.51
Instances selection time: 132.0
Test time: 2041.0
Accumulative iteration time: 1710.0
Weighted Recall: 0.6203
Weighted FalsePositiveRate: 0.015166215333591674
Kappa statistic: 0.6050904701642886
Training time: 8.0
		
Iteration: 13
Labeled set size: 2240
Unlabelled set size: 7760
	
Mean region size: 10.973461538462058
Incorrectly Classified Instances: 37.77
Correctly Classified Instances: 62.23
Weighted Precision: 0.6410916585680215
Weighted AreaUnderROC: 0.9521138176686829
Root mean squared error: 0.1449023888178864
Relative absolute error: 44.63102823781949
Root relative squared error: 75.34924218530618
Weighted TruePositiveRate: 0.6223
Weighted MatthewsCorrelation: 0.6112881776410338
Weighted FMeasure: 0.6198906044383995
Iteration time: 136.0
Weighted AreaUnderPRC: 0.6711335703135696
Mean absolute error: 0.03301111556051277
Coverage of cases: 84.57
Instances selection time: 129.0
Test time: 2040.0
Accumulative iteration time: 1846.0
Weighted Recall: 0.6223
Weighted FalsePositiveRate: 0.015085780791962176
Kappa statistic: 0.6071710983598015
Training time: 7.0
		
Iteration: 14
Labeled set size: 2260
Unlabelled set size: 7740
	
Mean region size: 11.01461538461588
Incorrectly Classified Instances: 37.79
Correctly Classified Instances: 62.21
Weighted Precision: 0.641116243049086
Weighted AreaUnderROC: 0.952143857244157
Root mean squared error: 0.1447700504787444
Relative absolute error: 44.63156557069403
Root relative squared error: 75.28042624895234
Weighted TruePositiveRate: 0.6221
Weighted MatthewsCorrelation: 0.6111910725057167
Weighted FMeasure: 0.6197994537103165
Iteration time: 138.0
Weighted AreaUnderPRC: 0.6716475252060483
Mean absolute error: 0.03301151299607086
Coverage of cases: 84.63
Instances selection time: 131.0
Test time: 2023.0
Accumulative iteration time: 1984.0
Weighted Recall: 0.6221
Weighted FalsePositiveRate: 0.015096552764897544
Kappa statistic: 0.6069620162850644
Training time: 7.0
		
Iteration: 15
Labeled set size: 2280
Unlabelled set size: 7720
	
Mean region size: 11.0150000000005
Incorrectly Classified Instances: 37.79
Correctly Classified Instances: 62.21
Weighted Precision: 0.6406549649063245
Weighted AreaUnderROC: 0.952240762493558
Root mean squared error: 0.144452491600947
Relative absolute error: 44.44345675817183
Root relative squared error: 75.11529563249769
Weighted TruePositiveRate: 0.6221
Weighted MatthewsCorrelation: 0.6110461849621529
Weighted FMeasure: 0.6197568672592798
Iteration time: 137.0
Weighted AreaUnderPRC: 0.6731531943813911
Mean absolute error: 0.03287237925899825
Coverage of cases: 84.61
Instances selection time: 130.0
Test time: 2023.0
Accumulative iteration time: 2121.0
Weighted Recall: 0.6221
Weighted FalsePositiveRate: 0.015094725790428146
Kappa statistic: 0.6069623760132186
Training time: 7.0
		
Iteration: 16
Labeled set size: 2300
Unlabelled set size: 7700
	
Mean region size: 11.01307692307744
Incorrectly Classified Instances: 37.83
Correctly Classified Instances: 62.17
Weighted Precision: 0.6402648956543564
Weighted AreaUnderROC: 0.9521631661916652
Root mean squared error: 0.14437948298391107
Relative absolute error: 44.39040832071226
Root relative squared error: 75.07733115163899
Weighted TruePositiveRate: 0.6217
Weighted MatthewsCorrelation: 0.6106739852647631
Weighted FMeasure: 0.6194437350609318
Iteration time: 137.0
Weighted AreaUnderPRC: 0.673452674448992
Mean absolute error: 0.03283314224904295
Coverage of cases: 84.54
Instances selection time: 129.0
Test time: 2018.0
Accumulative iteration time: 2258.0
Weighted Recall: 0.6217
Weighted FalsePositiveRate: 0.015111928691787367
Kappa statistic: 0.6065466804958107
Training time: 8.0
		
Iteration: 17
Labeled set size: 2320
Unlabelled set size: 7680
	
Mean region size: 11.017692307692814
Incorrectly Classified Instances: 37.74
Correctly Classified Instances: 62.26
Weighted Precision: 0.6411753098311936
Weighted AreaUnderROC: 0.9521211256694054
Root mean squared error: 0.14428071861996394
Relative absolute error: 44.353858459067894
Root relative squared error: 75.02597368238648
Weighted TruePositiveRate: 0.6226
Weighted MatthewsCorrelation: 0.6116267573735872
Weighted FMeasure: 0.6203814299179604
Iteration time: 134.0
Weighted AreaUnderPRC: 0.6742355965715892
Mean absolute error: 0.03280610832770836
Coverage of cases: 84.41
Instances selection time: 126.0
Test time: 2024.0
Accumulative iteration time: 2392.0
Weighted Recall: 0.6226
Weighted FalsePositiveRate: 0.015080147366426449
Kappa statistic: 0.607480841055607
Training time: 8.0
		
Iteration: 18
Labeled set size: 2340
Unlabelled set size: 7660
	
Mean region size: 11.068461538461992
Incorrectly Classified Instances: 37.84
Correctly Classified Instances: 62.16
Weighted Precision: 0.6385460688053916
Weighted AreaUnderROC: 0.9522548587147929
Root mean squared error: 0.14410747972760068
Relative absolute error: 44.321490766749754
Root relative squared error: 74.9358894583576
Weighted TruePositiveRate: 0.6216
Weighted MatthewsCorrelation: 0.609970878713579
Weighted FMeasure: 0.6189964647265741
Iteration time: 137.0
Weighted AreaUnderPRC: 0.6742120233057092
Mean absolute error: 0.03278216772688134
Coverage of cases: 84.62
Instances selection time: 129.0
Test time: 2015.0
Accumulative iteration time: 2529.0
Weighted Recall: 0.6216
Weighted FalsePositiveRate: 0.015114507103162513
Kappa statistic: 0.6064428467752828
Training time: 8.0
		
Iteration: 19
Labeled set size: 2360
Unlabelled set size: 7640
	
Mean region size: 11.127307692308108
Incorrectly Classified Instances: 37.7
Correctly Classified Instances: 62.3
Weighted Precision: 0.6399394940149522
Weighted AreaUnderROC: 0.9521051433765335
Root mean squared error: 0.14400658353591617
Relative absolute error: 44.33581523802102
Root relative squared error: 74.88342343868163
Weighted TruePositiveRate: 0.623
Weighted MatthewsCorrelation: 0.6113357954772054
Weighted FMeasure: 0.6201998642814935
Iteration time: 135.0
Weighted AreaUnderPRC: 0.6742151373412877
Mean absolute error: 0.03279276275001097
Coverage of cases: 84.74
Instances selection time: 127.0
Test time: 2017.0
Accumulative iteration time: 2664.0
Weighted Recall: 0.623
Weighted FalsePositiveRate: 0.015059641138848088
Kappa statistic: 0.6078998956160878
Training time: 8.0
		
Iteration: 20
Labeled set size: 2380
Unlabelled set size: 7620
	
Mean region size: 11.198461538461876
Incorrectly Classified Instances: 37.47
Correctly Classified Instances: 62.53
Weighted Precision: 0.6424713719458934
Weighted AreaUnderROC: 0.9524426306295014
Root mean squared error: 0.14373149764064377
Relative absolute error: 44.310038615592255
Root relative squared error: 74.74037877313998
Weighted TruePositiveRate: 0.6253
Weighted MatthewsCorrelation: 0.6137406743740887
Weighted FMeasure: 0.6224240695621136
Iteration time: 134.0
Weighted AreaUnderPRC: 0.675190782958505
Mean absolute error: 0.03277369720087727
Coverage of cases: 84.78
Instances selection time: 126.0
Test time: 2026.0
Accumulative iteration time: 2798.0
Weighted Recall: 0.6253
Weighted FalsePositiveRate: 0.014971454398062951
Kappa statistic: 0.610290846898937
Training time: 8.0
		
Iteration: 21
Labeled set size: 2400
Unlabelled set size: 7600
	
Mean region size: 11.198461538461885
Incorrectly Classified Instances: 37.55
Correctly Classified Instances: 62.45
Weighted Precision: 0.6417668611303408
Weighted AreaUnderROC: 0.9524098182168141
Root mean squared error: 0.14367259204528526
Relative absolute error: 44.32848434542927
Root relative squared error: 74.70974786355355
Weighted TruePositiveRate: 0.6245
Weighted MatthewsCorrelation: 0.6130445627928062
Weighted FMeasure: 0.6218451751405194
Iteration time: 138.0
Weighted AreaUnderPRC: 0.6747225511562177
Mean absolute error: 0.03278734049217683
Coverage of cases: 85.0
Instances selection time: 130.0
Test time: 2030.0
Accumulative iteration time: 2936.0
Weighted Recall: 0.6245
Weighted FalsePositiveRate: 0.01500528887801584
Kappa statistic: 0.6094581559011424
Training time: 8.0
		
Iteration: 22
Labeled set size: 2420
Unlabelled set size: 7580
	
Mean region size: 11.2011538461542
Incorrectly Classified Instances: 37.7
Correctly Classified Instances: 62.3
Weighted Precision: 0.6397103480306233
Weighted AreaUnderROC: 0.9523948508718586
Root mean squared error: 0.14364188942803513
Relative absolute error: 44.3008576260397
Root relative squared error: 74.69378250258347
Weighted TruePositiveRate: 0.623
Weighted MatthewsCorrelation: 0.6111611053134858
Weighted FMeasure: 0.6199655998396907
Iteration time: 133.0
Weighted AreaUnderPRC: 0.675246333532971
Mean absolute error: 0.0327669065281313
Coverage of cases: 84.97
Instances selection time: 125.0
Test time: 2012.0
Accumulative iteration time: 3069.0
Weighted Recall: 0.623
Weighted FalsePositiveRate: 0.015063695274260852
Kappa statistic: 0.6078989821307189
Training time: 8.0
		
Iteration: 23
Labeled set size: 2440
Unlabelled set size: 7560
	
Mean region size: 11.159615384615758
Incorrectly Classified Instances: 37.7
Correctly Classified Instances: 62.3
Weighted Precision: 0.6389781463500855
Weighted AreaUnderROC: 0.9521398371617499
Root mean squared error: 0.14383975594043438
Relative absolute error: 44.34013976555253
Root relative squared error: 74.7966730890311
Weighted TruePositiveRate: 0.623
Weighted MatthewsCorrelation: 0.6109002959315196
Weighted FMeasure: 0.6198175876754117
Iteration time: 132.0
Weighted AreaUnderPRC: 0.6745143820080076
Mean absolute error: 0.03279596136504907
Coverage of cases: 84.89
Instances selection time: 124.0
Test time: 2063.0
Accumulative iteration time: 3201.0
Weighted Recall: 0.623
Weighted FalsePositiveRate: 0.015065414549842638
Kappa statistic: 0.6078978728927631
Training time: 8.0
		
Iteration: 24
Labeled set size: 2460
Unlabelled set size: 7540
	
Mean region size: 11.136538461538871
Incorrectly Classified Instances: 37.58
Correctly Classified Instances: 62.42
Weighted Precision: 0.6413725013538458
Weighted AreaUnderROC: 0.9524262242403655
Root mean squared error: 0.14369203789100188
Relative absolute error: 44.243007617087976
Root relative squared error: 74.7198597033262
Weighted TruePositiveRate: 0.6242
Weighted MatthewsCorrelation: 0.6126077629991997
Weighted FMeasure: 0.6213248288977427
Iteration time: 131.0
Weighted AreaUnderPRC: 0.6750349916827005
Mean absolute error: 0.032724118059971746
Coverage of cases: 84.9
Instances selection time: 123.0
Test time: 2027.0
Accumulative iteration time: 3332.0
Weighted Recall: 0.6242
Weighted FalsePositiveRate: 0.015025082026653886
Kappa statistic: 0.6091425895780336
Training time: 8.0
		
Iteration: 25
Labeled set size: 2480
Unlabelled set size: 7520
	
Mean region size: 11.165384615384971
Incorrectly Classified Instances: 37.69
Correctly Classified Instances: 62.31
Weighted Precision: 0.6401967836537857
Weighted AreaUnderROC: 0.9524832492178297
Root mean squared error: 0.1437395945229715
Relative absolute error: 44.28905069479383
Root relative squared error: 74.7445891519504
Weighted TruePositiveRate: 0.6231
Weighted MatthewsCorrelation: 0.6115069710119703
Weighted FMeasure: 0.620355799657018
Iteration time: 129.0
Weighted AreaUnderPRC: 0.6748300956882833
Mean absolute error: 0.03275817359081927
Coverage of cases: 85.0
Instances selection time: 121.0
Test time: 2020.0
Accumulative iteration time: 3461.0
Weighted Recall: 0.6231
Weighted FalsePositiveRate: 0.015064261494923986
Kappa statistic: 0.6080006801172599
Training time: 8.0
		
Iteration: 26
Labeled set size: 2500
Unlabelled set size: 7500
	
Mean region size: 11.18653846153881
Incorrectly Classified Instances: 37.69
Correctly Classified Instances: 62.31
Weighted Precision: 0.6391000046227965
Weighted AreaUnderROC: 0.9528345980576636
Root mean squared error: 0.1434057150592384
Relative absolute error: 44.194690114073914
Root relative squared error: 74.57097183080917
Weighted TruePositiveRate: 0.6231
Weighted MatthewsCorrelation: 0.6110668468714451
Weighted FMeasure: 0.6200418171422428
Iteration time: 131.0
Weighted AreaUnderPRC: 0.6758429444604654
Mean absolute error: 0.03268838026188443
Coverage of cases: 85.06
Instances selection time: 123.0
Test time: 2031.0
Accumulative iteration time: 3592.0
Weighted Recall: 0.6231
Weighted FalsePositiveRate: 0.015062309868796496
Kappa statistic: 0.6080017849907575
Training time: 8.0
		
Iteration: 27
Labeled set size: 2520
Unlabelled set size: 7480
	
Mean region size: 11.134230769231165
Incorrectly Classified Instances: 37.75
Correctly Classified Instances: 62.25
Weighted Precision: 0.6400009467652344
Weighted AreaUnderROC: 0.9527446812951688
Root mean squared error: 0.14370483236089562
Relative absolute error: 44.30675106314725
Root relative squared error: 74.72651282767094
Weighted TruePositiveRate: 0.6225
Weighted MatthewsCorrelation: 0.6110192943367845
Weighted FMeasure: 0.6197994092505638
Iteration time: 131.0
Weighted AreaUnderPRC: 0.6750139797944602
Mean absolute error: 0.03277126557924635
Coverage of cases: 85.01
Instances selection time: 122.0
Test time: 2023.0
Accumulative iteration time: 3723.0
Weighted Recall: 0.6225
Weighted FalsePositiveRate: 0.015089248825093446
Kappa statistic: 0.6073765409053685
Training time: 9.0
		
Iteration: 28
Labeled set size: 2540
Unlabelled set size: 7460
	
Mean region size: 11.130384615385013
Incorrectly Classified Instances: 37.71
Correctly Classified Instances: 62.29
Weighted Precision: 0.6400529489327208
Weighted AreaUnderROC: 0.9527667976857087
Root mean squared error: 0.14355548884613623
Relative absolute error: 44.228334283039416
Root relative squared error: 74.64885419999605
Weighted TruePositiveRate: 0.6229
Weighted MatthewsCorrelation: 0.6111976030307655
Weighted FMeasure: 0.6198975751750939
Iteration time: 135.0
Weighted AreaUnderPRC: 0.6754790538027995
Mean absolute error: 0.03271326500224352
Coverage of cases: 85.06
Instances selection time: 126.0
Test time: 2036.0
Accumulative iteration time: 3858.0
Weighted Recall: 0.6229
Weighted FalsePositiveRate: 0.015075870651520914
Kappa statistic: 0.6077915908312137
Training time: 9.0
		
Iteration: 29
Labeled set size: 2560
Unlabelled set size: 7440
	
Mean region size: 11.125000000000409
Incorrectly Classified Instances: 37.7
Correctly Classified Instances: 62.3
Weighted Precision: 0.6406254442808684
Weighted AreaUnderROC: 0.9528054594033878
Root mean squared error: 0.14352914938592845
Relative absolute error: 44.195107192757085
Root relative squared error: 74.635157680688
Weighted TruePositiveRate: 0.623
Weighted MatthewsCorrelation: 0.611516944389137
Weighted FMeasure: 0.6201825998932506
Iteration time: 132.0
Weighted AreaUnderPRC: 0.6762407136986873
Mean absolute error: 0.032688688752034706
Coverage of cases: 85.02
Instances selection time: 124.0
Test time: 2038.0
Accumulative iteration time: 3990.0
Weighted Recall: 0.623
Weighted FalsePositiveRate: 0.015070847670137527
Kappa statistic: 0.6078963639928214
Training time: 8.0
		
Iteration: 30
Labeled set size: 2580
Unlabelled set size: 7420
	
Mean region size: 11.090000000000419
Incorrectly Classified Instances: 37.69
Correctly Classified Instances: 62.31
Weighted Precision: 0.6407618519527686
Weighted AreaUnderROC: 0.9529134374054221
Root mean squared error: 0.14339383167453207
Relative absolute error: 44.131735668575125
Root relative squared error: 74.56479247076187
Weighted TruePositiveRate: 0.6231
Weighted MatthewsCorrelation: 0.6116375500998718
Weighted FMeasure: 0.6203063549997185
Iteration time: 130.0
Weighted AreaUnderPRC: 0.6767102217802965
Mean absolute error: 0.03264181632290604
Coverage of cases: 85.04
Instances selection time: 121.0
Test time: 2030.0
Accumulative iteration time: 4120.0
Weighted Recall: 0.6231
Weighted FalsePositiveRate: 0.015065239271465879
Kappa statistic: 0.6080007983512528
Training time: 9.0
		
Iteration: 31
Labeled set size: 2600
Unlabelled set size: 7400
	
Mean region size: 11.120769230769628
Incorrectly Classified Instances: 37.6
Correctly Classified Instances: 62.4
Weighted Precision: 0.6422311033880034
Weighted AreaUnderROC: 0.9528939855962164
Root mean squared error: 0.143474210556334
Relative absolute error: 44.18814148942783
Root relative squared error: 74.60658948929888
Weighted TruePositiveRate: 0.624
Weighted MatthewsCorrelation: 0.6127631947104184
Weighted FMeasure: 0.6212791626676178
Iteration time: 128.0
Weighted AreaUnderPRC: 0.6768859615545706
Mean absolute error: 0.03268353660460182
Coverage of cases: 85.21
Instances selection time: 120.0
Test time: 2033.0
Accumulative iteration time: 4248.0
Weighted Recall: 0.624
Weighted FalsePositiveRate: 0.015033170946246335
Kappa statistic: 0.6089354098585719
Training time: 8.0
		
Iteration: 32
Labeled set size: 2620
Unlabelled set size: 7380
	
Mean region size: 11.161153846154198
Incorrectly Classified Instances: 37.53
Correctly Classified Instances: 62.47
Weighted Precision: 0.6429183172680084
Weighted AreaUnderROC: 0.9531104750729904
Root mean squared error: 0.14327594521475712
Relative absolute error: 44.172373337236756
Root relative squared error: 74.5034915116789
Weighted TruePositiveRate: 0.6247
Weighted MatthewsCorrelation: 0.6134984234742561
Weighted FMeasure: 0.6220040343446787
Iteration time: 127.0
Weighted AreaUnderPRC: 0.677381781267553
Mean absolute error: 0.03267187377014097
Coverage of cases: 85.26
Instances selection time: 118.0
Test time: 2030.0
Accumulative iteration time: 4375.0
Weighted Recall: 0.6247
Weighted FalsePositiveRate: 0.015005626081559476
Kappa statistic: 0.6096633541441807
Training time: 9.0
		
Iteration: 33
Labeled set size: 2640
Unlabelled set size: 7360
	
Mean region size: 11.197692307692614
Incorrectly Classified Instances: 37.62
Correctly Classified Instances: 62.38
Weighted Precision: 0.6423342706341639
Weighted AreaUnderROC: 0.9530623690302725
Root mean squared error: 0.14318005973428105
Relative absolute error: 44.19113612891715
Root relative squared error: 74.45363106183135
Weighted TruePositiveRate: 0.6238
Weighted MatthewsCorrelation: 0.6125817471498048
Weighted FMeasure: 0.6209685799631953
Iteration time: 125.0
Weighted AreaUnderPRC: 0.6768758863228269
Mean absolute error: 0.0326857515746383
Coverage of cases: 85.44
Instances selection time: 116.0
Test time: 2029.0
Accumulative iteration time: 4500.0
Weighted Recall: 0.6238
Weighted FalsePositiveRate: 0.01503874413188453
Kappa statistic: 0.6087287234282652
Training time: 9.0
		
Iteration: 34
Labeled set size: 2660
Unlabelled set size: 7340
	
Mean region size: 11.210000000000283
Incorrectly Classified Instances: 37.6
Correctly Classified Instances: 62.4
Weighted Precision: 0.6425666891233571
Weighted AreaUnderROC: 0.9529964947927836
Root mean squared error: 0.14323608730998832
Relative absolute error: 44.2522276390671
Root relative squared error: 74.48276540119913
Weighted TruePositiveRate: 0.624
Weighted MatthewsCorrelation: 0.612879271482988
Weighted FMeasure: 0.6213501149170978
Iteration time: 126.0
Weighted AreaUnderPRC: 0.6769242328058718
Mean absolute error: 0.03273093760285571
Coverage of cases: 85.46
Instances selection time: 117.0
Test time: 2034.0
Accumulative iteration time: 4626.0
Weighted Recall: 0.624
Weighted FalsePositiveRate: 0.015029059842171184
Kappa statistic: 0.6089372360800871
Training time: 9.0
		
Iteration: 35
Labeled set size: 2680
Unlabelled set size: 7320
	
Mean region size: 11.205000000000304
Incorrectly Classified Instances: 37.67
Correctly Classified Instances: 62.33
Weighted Precision: 0.6426235832203439
Weighted AreaUnderROC: 0.9532215555238878
Root mean squared error: 0.14322166762252383
Relative absolute error: 44.22451571848486
Root relative squared error: 74.47526716371759
Weighted TruePositiveRate: 0.6233
Weighted MatthewsCorrelation: 0.6123765252660882
Weighted FMeasure: 0.6207034282656974
Iteration time: 126.0
Weighted AreaUnderPRC: 0.6773424278251561
Mean absolute error: 0.03271044062017654
Coverage of cases: 85.5
Instances selection time: 117.0
Test time: 2120.0
Accumulative iteration time: 4752.0
Weighted Recall: 0.6233
Weighted FalsePositiveRate: 0.01506135036538249
Kappa statistic: 0.6082067120940253
Training time: 9.0
		
Iteration: 36
Labeled set size: 2700
Unlabelled set size: 7300
	
Mean region size: 11.18269230769264
Incorrectly Classified Instances: 37.58
Correctly Classified Instances: 62.42
Weighted Precision: 0.6428141868535294
Weighted AreaUnderROC: 0.9532431206833809
Root mean squared error: 0.14315080739714706
Relative absolute error: 44.17206929978402
Root relative squared error: 74.43841984652167
Weighted TruePositiveRate: 0.6242
Weighted MatthewsCorrelation: 0.6130292565895166
Weighted FMeasure: 0.6213952652575757
Iteration time: 126.0
Weighted AreaUnderPRC: 0.6778966917692896
Mean absolute error: 0.032671648890368235
Coverage of cases: 85.6
Instances selection time: 117.0
Test time: 2048.0
Accumulative iteration time: 4878.0
Weighted Recall: 0.6242
Weighted FalsePositiveRate: 0.015019235555489766
Kappa statistic: 0.6091450733880568
Training time: 9.0
		
Iteration: 37
Labeled set size: 2720
Unlabelled set size: 7280
	
Mean region size: 11.168076923077287
Incorrectly Classified Instances: 37.47
Correctly Classified Instances: 62.53
Weighted Precision: 0.6444394618339078
Weighted AreaUnderROC: 0.9531967291351864
Root mean squared error: 0.14302469198785178
Relative absolute error: 44.083866945460876
Root relative squared error: 74.37283983368812
Weighted TruePositiveRate: 0.6253
Weighted MatthewsCorrelation: 0.6142591260244902
Weighted FMeasure: 0.6223988068127515
Iteration time: 123.0
Weighted AreaUnderPRC: 0.6789079876911566
Mean absolute error: 0.03260641046261444
Coverage of cases: 85.58
Instances selection time: 114.0
Test time: 2036.0
Accumulative iteration time: 5001.0
Weighted Recall: 0.6253
Weighted FalsePositiveRate: 0.014979326105741375
Kappa statistic: 0.6102868909402684
Training time: 9.0
		
Iteration: 38
Labeled set size: 2740
Unlabelled set size: 7260
	
Mean region size: 11.140000000000391
Incorrectly Classified Instances: 37.38
Correctly Classified Instances: 62.62
Weighted Precision: 0.6455400626624663
Weighted AreaUnderROC: 0.9532076739394147
Root mean squared error: 0.14308107332607337
Relative absolute error: 44.021842354860034
Root relative squared error: 74.40215812956335
Weighted TruePositiveRate: 0.6262
Weighted MatthewsCorrelation: 0.6152863720864541
Weighted FMeasure: 0.6233876816220401
Iteration time: 125.0
Weighted AreaUnderPRC: 0.6787761509532932
Mean absolute error: 0.032560534286134535
Coverage of cases: 85.57
Instances selection time: 116.0
Test time: 2031.0
Accumulative iteration time: 5126.0
Weighted Recall: 0.6262
Weighted FalsePositiveRate: 0.014945642537778364
Kappa statistic: 0.6112221951064669
Training time: 9.0
		
Iteration: 39
Labeled set size: 2760
Unlabelled set size: 7240
	
Mean region size: 11.098076923077349
Incorrectly Classified Instances: 37.48
Correctly Classified Instances: 62.52
Weighted Precision: 0.644354982133697
Weighted AreaUnderROC: 0.9530703137567432
Root mean squared error: 0.14326106868291497
Relative absolute error: 44.040714227520915
Root relative squared error: 74.49575571512098
Weighted TruePositiveRate: 0.6252
Weighted MatthewsCorrelation: 0.614126858322642
Weighted FMeasure: 0.6222230679513929
Iteration time: 124.0
Weighted AreaUnderPRC: 0.6780988358171668
Mean absolute error: 0.03257449277183045
Coverage of cases: 85.37
Instances selection time: 114.0
Test time: 2009.0
Accumulative iteration time: 5250.0
Weighted Recall: 0.6252
Weighted FalsePositiveRate: 0.014984819834969
Kappa statistic: 0.6101830991200788
Training time: 10.0
		
Iteration: 40
Labeled set size: 2780
Unlabelled set size: 7220
	
Mean region size: 11.127307692308072
Incorrectly Classified Instances: 37.42
Correctly Classified Instances: 62.58
Weighted Precision: 0.6443193305570913
Weighted AreaUnderROC: 0.953300386161419
Root mean squared error: 0.14308662047807097
Relative absolute error: 43.97334854307342
Root relative squared error: 74.40504264860209
Weighted TruePositiveRate: 0.6258
Weighted MatthewsCorrelation: 0.6145624145559294
Weighted FMeasure: 0.6227724285865007
Iteration time: 124.0
Weighted AreaUnderPRC: 0.6788333088439126
Mean absolute error: 0.03252466608215036
Coverage of cases: 85.46
Instances selection time: 114.0
Test time: 2005.0
Accumulative iteration time: 5374.0
Weighted Recall: 0.6258
Weighted FalsePositiveRate: 0.014962950336630797
Kappa statistic: 0.6108063941742855
Training time: 10.0
		
Iteration: 41
Labeled set size: 2800
Unlabelled set size: 7200
	
Mean region size: 11.068846153846582
Incorrectly Classified Instances: 37.39
Correctly Classified Instances: 62.61
Weighted Precision: 0.6441321238001102
Weighted AreaUnderROC: 0.9532531624241894
Root mean squared error: 0.14324928482345506
Relative absolute error: 43.93890306927388
Root relative squared error: 74.48962810820183
Weighted TruePositiveRate: 0.6261
Weighted MatthewsCorrelation: 0.6147387547786863
Weighted FMeasure: 0.6230563127857635
Iteration time: 121.0
Weighted AreaUnderPRC: 0.6783670220287472
Mean absolute error: 0.032499188660701
Coverage of cases: 85.38
Instances selection time: 111.0
Test time: 2036.0
Accumulative iteration time: 5495.0
Weighted Recall: 0.6261
Weighted FalsePositiveRate: 0.014950717371490552
Kappa statistic: 0.6111185845773187
Training time: 10.0
		
Iteration: 42
Labeled set size: 2820
Unlabelled set size: 7180
	
Mean region size: 11.02576923076969
Incorrectly Classified Instances: 37.37
Correctly Classified Instances: 62.63
Weighted Precision: 0.6433163597121972
Weighted AreaUnderROC: 0.9532782929471326
Root mean squared error: 0.14316128419416016
Relative absolute error: 43.858168623339694
Root relative squared error: 74.44386778096847
Weighted TruePositiveRate: 0.6263
Weighted MatthewsCorrelation: 0.614537651326873
Weighted FMeasure: 0.6229642346747112
Iteration time: 123.0
Weighted AreaUnderPRC: 0.6785168898599012
Mean absolute error: 0.03243947383382661
Coverage of cases: 85.37
Instances selection time: 113.0
Test time: 2035.0
Accumulative iteration time: 5618.0
Weighted Recall: 0.6263
Weighted FalsePositiveRate: 0.014945482503581922
Kappa statistic: 0.6113254662778714
Training time: 10.0
		
Iteration: 43
Labeled set size: 2840
Unlabelled set size: 7160
	
Mean region size: 11.058461538461982
Incorrectly Classified Instances: 37.44
Correctly Classified Instances: 62.56
Weighted Precision: 0.6422651194648917
Weighted AreaUnderROC: 0.9533557897406952
Root mean squared error: 0.14317387226390071
Relative absolute error: 43.89969242374143
Root relative squared error: 74.45041357723356
Weighted TruePositiveRate: 0.6256
Weighted MatthewsCorrelation: 0.613612983039939
Weighted FMeasure: 0.6220433664052374
Iteration time: 122.0
Weighted AreaUnderPRC: 0.6781684022737742
Mean absolute error: 0.032470186703946226
Coverage of cases: 85.38
Instances selection time: 112.0
Test time: 2036.0
Accumulative iteration time: 5740.0
Weighted Recall: 0.6256
Weighted FalsePositiveRate: 0.014975953746521747
Kappa statistic: 0.610596440508242
Training time: 10.0
		
Iteration: 44
Labeled set size: 2860
Unlabelled set size: 7140
	
Mean region size: 11.054230769231225
Incorrectly Classified Instances: 37.49
Correctly Classified Instances: 62.51
Weighted Precision: 0.6418349366993333
Weighted AreaUnderROC: 0.9533282535896834
Root mean squared error: 0.14315733483890838
Relative absolute error: 43.90957610451983
Root relative squared error: 74.44181411623755
Weighted TruePositiveRate: 0.6251
Weighted MatthewsCorrelation: 0.6130499514880888
Weighted FMeasure: 0.6214198246968684
Iteration time: 133.0
Weighted AreaUnderPRC: 0.6783811052341603
Mean absolute error: 0.03247749711872315
Coverage of cases: 85.35
Instances selection time: 124.0
Test time: 2055.0
Accumulative iteration time: 5873.0
Weighted Recall: 0.6251
Weighted FalsePositiveRate: 0.014989431135992106
Kappa statistic: 0.6100793033588844
Training time: 9.0
		
Iteration: 45
Labeled set size: 2880
Unlabelled set size: 7120
	
Mean region size: 11.038076923077384
Incorrectly Classified Instances: 37.42
Correctly Classified Instances: 62.58
Weighted Precision: 0.6427876039711415
Weighted AreaUnderROC: 0.9535330978673721
Root mean squared error: 0.14291143147486104
Relative absolute error: 43.82728681855169
Root relative squared error: 74.31394436693293
Weighted TruePositiveRate: 0.6258
Weighted MatthewsCorrelation: 0.6138162349506705
Weighted FMeasure: 0.6220651656979203
Iteration time: 119.0
Weighted AreaUnderPRC: 0.6801105940710149
Mean absolute error: 0.03241663226223785
Coverage of cases: 85.42
Instances selection time: 110.0
Test time: 2037.0
Accumulative iteration time: 5992.0
Weighted Recall: 0.6258
Weighted FalsePositiveRate: 0.014961719455386307
Kappa statistic: 0.6108078595012628
Training time: 9.0
		
Iteration: 46
Labeled set size: 2900
Unlabelled set size: 7100
	
Mean region size: 11.099615384615781
Incorrectly Classified Instances: 37.52
Correctly Classified Instances: 62.48
Weighted Precision: 0.6418676956224871
Weighted AreaUnderROC: 0.9535569205188503
Root mean squared error: 0.14300211781571598
Relative absolute error: 43.979945269931086
Root relative squared error: 74.36110126417749
Weighted TruePositiveRate: 0.6248
Weighted MatthewsCorrelation: 0.6125752172720101
Weighted FMeasure: 0.6206050324322405
Iteration time: 120.0
Weighted AreaUnderPRC: 0.6799992011295569
Mean absolute error: 0.03252954531799183
Coverage of cases: 85.5
Instances selection time: 110.0
Test time: 2034.0
Accumulative iteration time: 6112.0
Weighted Recall: 0.6248
Weighted FalsePositiveRate: 0.015002355534693841
Kappa statistic: 0.6097674500020006
Training time: 10.0
		
Time end:Sat Oct 07 23.25.08 EEST 2017