Mon Nov 27 16.18.27 EET 2017
Dataset: hypothyroid
Test set size: 1886
Initial Labelled set size: 377
Initial Unlabelled set size: 1509
Batch mode: QBestBatchMode
Batch size: 20
Classifiers: SMOsync-1cores
Scenario: PoolBasedSamplingScenario
Query strategy: MarginSamplingQueryStrategy-1cores
Time begining: Mon Nov 27 16.18.27 EET 2017
		
Iteration: 1
Labeled set size: 377
Unlabelled set size: 1509
	
Mean region size: 27.38865323435843
Incorrectly Classified Instances: 5.360551431601273
Correctly Classified Instances: 94.6394485683987
Weighted Precision: 0.9492862688733721
Weighted AreaUnderROC: 0.951898025722073
Root mean squared error: 0.14926838274804455
Relative absolute error: 8.503658008896025
Root relative squared error: 34.47205638443345
Weighted TruePositiveRate: 0.9463944856839873
Weighted MatthewsCorrelation: 0.7044159122105043
Weighted FMeasure: 0.9463577320013247
Iteration time: 144.4
Weighted AreaUnderPRC: 0.9606512633937705
Mean absolute error: 0.031888717533360096
Coverage of cases: 97.13149522799577
Instances selection time: 52.9
Test time: 72.5
Accumulative iteration time: 144.4
Weighted Recall: 0.9463944856839873
Weighted FalsePositiveRate: 0.2307611194459677
Kappa statistic: 0.637395327892069
Training time: 91.5
		
Iteration: 2
Labeled set size: 397
Unlabelled set size: 1489
	
Mean region size: 27.168610816542945
Incorrectly Classified Instances: 4.36373276776246
Correctly Classified Instances: 95.63626723223754
Weighted Precision: 0.9586577957972828
Weighted AreaUnderROC: 0.9680534235688141
Root mean squared error: 0.13456127892264602
Relative absolute error: 7.102282091191839
Root relative squared error: 31.075596243395996
Weighted TruePositiveRate: 0.9563626723223754
Weighted MatthewsCorrelation: 0.7634469469405701
Weighted FMeasure: 0.9560800677941929
Iteration time: 159.0
Weighted AreaUnderPRC: 0.9671411758275262
Mean absolute error: 0.026633557841969396
Coverage of cases: 97.70943796394485
Instances selection time: 55.3
Test time: 77.7
Accumulative iteration time: 303.4
Weighted Recall: 0.9563626723223754
Weighted FalsePositiveRate: 0.1865396927083549
Kappa statistic: 0.7025457149111325
Training time: 103.7
		
Iteration: 3
Labeled set size: 417
Unlabelled set size: 1469
	
Mean region size: 27.57290562036055
Incorrectly Classified Instances: 3.7963944856839866
Correctly Classified Instances: 96.20360551431602
Weighted Precision: 0.9643756792606488
Weighted AreaUnderROC: 0.9741375060496325
Root mean squared error: 0.1257177519732167
Relative absolute error: 6.891098964158823
Root relative squared error: 29.033271177460506
Weighted TruePositiveRate: 0.96203605514316
Weighted MatthewsCorrelation: 0.7950034576739162
Weighted FMeasure: 0.9625030587931516
Iteration time: 190.3
Weighted AreaUnderPRC: 0.9708399854525229
Mean absolute error: 0.025841621115595587
Coverage of cases: 98.2608695652174
Instances selection time: 58.0
Test time: 83.1
Accumulative iteration time: 493.7
Weighted Recall: 0.96203605514316
Weighted FalsePositiveRate: 0.16084948247875083
Kappa statistic: 0.7416163185481184
Training time: 132.3
		
Iteration: 4
Labeled set size: 437
Unlabelled set size: 1449
	
Mean region size: 27.545068928950155
Incorrectly Classified Instances: 3.685047720042418
Correctly Classified Instances: 96.31495227995757
Weighted Precision: 0.9662896659453495
Weighted AreaUnderROC: 0.9764315270666254
Root mean squared error: 0.12259900121982384
Relative absolute error: 6.689368341517913
Root relative squared error: 28.31302654265782
Weighted TruePositiveRate: 0.9631495227995757
Weighted MatthewsCorrelation: 0.804512157472753
Weighted FMeasure: 0.9640094374806729
Iteration time: 206.3
Weighted AreaUnderPRC: 0.9731860847000018
Mean absolute error: 0.025085131280692164
Coverage of cases: 98.38282078472957
Instances selection time: 61.6
Test time: 88.1
Accumulative iteration time: 700.0
Weighted Recall: 0.9631495227995757
Weighted FalsePositiveRate: 0.14439214469293088
Kappa statistic: 0.7519198234424846
Training time: 144.7
		
Iteration: 5
Labeled set size: 457
Unlabelled set size: 1429
	
Mean region size: 27.716065747614
Incorrectly Classified Instances: 3.488865323435843
Correctly Classified Instances: 96.51113467656417
Weighted Precision: 0.9687615959308056
Weighted AreaUnderROC: 0.9786286806108719
Root mean squared error: 0.11884589700790944
Relative absolute error: 6.591139144388478
Root relative squared error: 27.44628425183962
Weighted TruePositiveRate: 0.9651113467656416
Weighted MatthewsCorrelation: 0.8144425590147625
Weighted FMeasure: 0.9662908437953938
Iteration time: 241.9
Weighted AreaUnderPRC: 0.9759088441550888
Mean absolute error: 0.024716771791456794
Coverage of cases: 98.54718981972428
Instances selection time: 72.4
Test time: 89.9
Accumulative iteration time: 941.9
Weighted Recall: 0.9651113467656416
Weighted FalsePositiveRate: 0.13161643131358633
Kappa statistic: 0.7662931967710974
Training time: 169.5
		
Iteration: 6
Labeled set size: 477
Unlabelled set size: 1409
	
Mean region size: 27.763785790031818
Incorrectly Classified Instances: 3.4199363732767765
Correctly Classified Instances: 96.58006362672322
Weighted Precision: 0.9690634732890968
Weighted AreaUnderROC: 0.9801185279151069
Root mean squared error: 0.11729305679796895
Relative absolute error: 6.521424181108856
Root relative squared error: 27.087671166552582
Weighted TruePositiveRate: 0.9658006362672322
Weighted MatthewsCorrelation: 0.8156605863997489
Weighted FMeasure: 0.9668928376121319
Iteration time: 260.0
Weighted AreaUnderPRC: 0.9761713416476816
Mean absolute error: 0.024455340679158208
Coverage of cases: 98.54188759278898
Instances selection time: 65.8
Test time: 93.1
Accumulative iteration time: 1201.9
Weighted Recall: 0.9658006362672322
Weighted FalsePositiveRate: 0.12979627064190574
Kappa statistic: 0.7715904140853935
Training time: 194.2
		
Iteration: 7
Labeled set size: 497
Unlabelled set size: 1389
	
Mean region size: 27.57953340402969
Incorrectly Classified Instances: 3.197242841993637
Correctly Classified Instances: 96.80275715800636
Weighted Precision: 0.9708583834034755
Weighted AreaUnderROC: 0.9818408916885671
Root mean squared error: 0.11375678007541565
Relative absolute error: 6.178142275820383
Root relative squared error: 26.27100303947452
Weighted TruePositiveRate: 0.9680275715800637
Weighted MatthewsCorrelation: 0.8287330878769135
Weighted FMeasure: 0.9690462689239746
Iteration time: 271.6
Weighted AreaUnderPRC: 0.9768476877160858
Mean absolute error: 0.02316803353432643
Coverage of cases: 98.57900318133616
Instances selection time: 66.1
Test time: 95.2
Accumulative iteration time: 1473.5
Weighted Recall: 0.9680275715800637
Weighted FalsePositiveRate: 0.11957172834185459
Kappa statistic: 0.7866788691491773
Training time: 205.5
		
Iteration: 8
Labeled set size: 517
Unlabelled set size: 1369
	
Mean region size: 27.429745493107106
Incorrectly Classified Instances: 3.0116648992576884
Correctly Classified Instances: 96.98833510074232
Weighted Precision: 0.9715881866571852
Weighted AreaUnderROC: 0.9844244340063151
Root mean squared error: 0.11015575146066311
Relative absolute error: 5.7625120479207705
Root relative squared error: 25.43938110343974
Weighted TruePositiveRate: 0.9698833510074231
Weighted MatthewsCorrelation: 0.83873960998583
Weighted FMeasure: 0.970400131351609
Iteration time: 288.4
Weighted AreaUnderPRC: 0.9787707270514794
Mean absolute error: 0.021609420179702892
Coverage of cases: 98.73276776246024
Instances selection time: 65.8
Test time: 99.3
Accumulative iteration time: 1761.9
Weighted Recall: 0.9698833510074231
Weighted FalsePositiveRate: 0.1201144964395345
Kappa statistic: 0.7955909152115324
Training time: 222.6
		
Iteration: 9
Labeled set size: 537
Unlabelled set size: 1349
	
Mean region size: 27.36611876988335
Incorrectly Classified Instances: 2.704135737009544
Correctly Classified Instances: 97.29586426299046
Weighted Precision: 0.9742680627051777
Weighted AreaUnderROC: 0.9883940781049315
Root mean squared error: 0.1044028272446808
Relative absolute error: 5.326647325905757
Root relative squared error: 24.110800165549783
Weighted TruePositiveRate: 0.9729586426299044
Weighted MatthewsCorrelation: 0.8531538299917919
Weighted FMeasure: 0.9733223564405934
Iteration time: 279.0
Weighted AreaUnderPRC: 0.9826222547458731
Mean absolute error: 0.01997492747214659
Coverage of cases: 98.97667020148462
Instances selection time: 66.4
Test time: 97.3
Accumulative iteration time: 2040.9
Weighted Recall: 0.9729586426299044
Weighted FalsePositiveRate: 0.11683023430495701
Kappa statistic: 0.8144473240641487
Training time: 212.6
		
Iteration: 10
Labeled set size: 557
Unlabelled set size: 1329
	
Mean region size: 27.3449098621421
Incorrectly Classified Instances: 2.720042417815482
Correctly Classified Instances: 97.27995758218454
Weighted Precision: 0.9741303598991099
Weighted AreaUnderROC: 0.9893166159171057
Root mean squared error: 0.10403122430391978
Relative absolute error: 5.266172849814348
Root relative squared error: 24.02498214239777
Weighted TruePositiveRate: 0.9727995758218452
Weighted MatthewsCorrelation: 0.8516399466979487
Weighted FMeasure: 0.9731555900155595
Iteration time: 353.9
Weighted AreaUnderPRC: 0.9829681072140655
Mean absolute error: 0.019748148186803805
Coverage of cases: 98.99787910922586
Instances selection time: 73.7
Test time: 98.3
Accumulative iteration time: 2394.8
Weighted Recall: 0.9727995758218452
Weighted FalsePositiveRate: 0.1206008454565394
Kappa statistic: 0.8126502462070985
Training time: 280.2
		
Iteration: 11
Labeled set size: 577
Unlabelled set size: 1309
	
Mean region size: 27.376723223753977
Incorrectly Classified Instances: 2.7041357370095436
Correctly Classified Instances: 97.29586426299046
Weighted Precision: 0.9743076289177743
Weighted AreaUnderROC: 0.9892425079869728
Root mean squared error: 0.10327643587638931
Relative absolute error: 5.24522920348716
Root relative squared error: 23.850671221671398
Weighted TruePositiveRate: 0.9729586426299045
Weighted MatthewsCorrelation: 0.853452245410589
Weighted FMeasure: 0.9733444031251024
Iteration time: 318.9
Weighted AreaUnderPRC: 0.983156569566986
Mean absolute error: 0.019669609513076853
Coverage of cases: 99.09331919406151
Instances selection time: 64.8
Test time: 97.7
Accumulative iteration time: 2713.7
Weighted Recall: 0.9729586426299045
Weighted FalsePositiveRate: 0.12123633324818675
Kappa statistic: 0.8135197082561912
Training time: 254.1
		
Iteration: 12
Labeled set size: 597
Unlabelled set size: 1289
	
Mean region size: 27.323700954400845
Incorrectly Classified Instances: 2.725344644750795
Correctly Classified Instances: 97.2746553552492
Weighted Precision: 0.9740342612208563
Weighted AreaUnderROC: 0.9896489059549183
Root mean squared error: 0.10312149213150794
Relative absolute error: 5.213976889260144
Root relative squared error: 23.8148884965448
Weighted TruePositiveRate: 0.9727465535524921
Weighted MatthewsCorrelation: 0.8523606093073198
Weighted FMeasure: 0.9730917347584194
Iteration time: 317.6
Weighted AreaUnderPRC: 0.9833982199272022
Mean absolute error: 0.019552413334725544
Coverage of cases: 99.07211028632027
Instances selection time: 64.6
Test time: 98.3
Accumulative iteration time: 3031.3
Weighted Recall: 0.9727465535524921
Weighted FalsePositiveRate: 0.1256748548028273
Kappa statistic: 0.8112793312899983
Training time: 253.0
		
Iteration: 13
Labeled set size: 617
Unlabelled set size: 1269
	
Mean region size: 27.19247083775186
Incorrectly Classified Instances: 2.6458112407211027
Correctly Classified Instances: 97.35418875927888
Weighted Precision: 0.9746566388270947
Weighted AreaUnderROC: 0.9906033126571122
Root mean squared error: 0.10175530980026744
Relative absolute error: 5.051265169355315
Root relative squared error: 23.49938220186327
Weighted TruePositiveRate: 0.9735418875927889
Weighted MatthewsCorrelation: 0.8570745076883908
Weighted FMeasure: 0.9738074111299488
Iteration time: 365.0
Weighted AreaUnderPRC: 0.9837116849907387
Mean absolute error: 0.018942244385082428
Coverage of cases: 99.11983032873806
Instances selection time: 64.7
Test time: 108.4
Accumulative iteration time: 3396.3
Weighted Recall: 0.9735418875927889
Weighted FalsePositiveRate: 0.12249661984076102
Kappa statistic: 0.8164920082600199
Training time: 300.3
		
Iteration: 14
Labeled set size: 637
Unlabelled set size: 1249
	
Mean region size: 27.226935312831387
Incorrectly Classified Instances: 2.6617179215270412
Correctly Classified Instances: 97.33828207847294
Weighted Precision: 0.9744703518106643
Weighted AreaUnderROC: 0.990652136879401
Root mean squared error: 0.10249194417305729
Relative absolute error: 5.099961916235399
Root relative squared error: 23.6695006232331
Weighted TruePositiveRate: 0.9733828207847296
Weighted MatthewsCorrelation: 0.8559818343500183
Weighted FMeasure: 0.9736467931302724
Iteration time: 424.5
Weighted AreaUnderPRC: 0.9839393439421956
Mean absolute error: 0.01912485718588275
Coverage of cases: 99.12513255567339
Instances selection time: 62.5
Test time: 100.2
Accumulative iteration time: 3820.8
Weighted Recall: 0.9733828207847296
Weighted FalsePositiveRate: 0.12373704205639627
Kappa statistic: 0.8152643680414456
Training time: 362.0
		
Iteration: 15
Labeled set size: 657
Unlabelled set size: 1229
	
Mean region size: 27.31972428419936
Incorrectly Classified Instances: 2.6139978791092258
Correctly Classified Instances: 97.38600212089077
Weighted Precision: 0.9750971993520766
Weighted AreaUnderROC: 0.9902818129726491
Root mean squared error: 0.10227505470976703
Relative absolute error: 5.156557771958175
Root relative squared error: 23.619412147227088
Weighted TruePositiveRate: 0.9738600212089077
Weighted MatthewsCorrelation: 0.8597386563044551
Weighted FMeasure: 0.9741661222247522
Iteration time: 381.1
Weighted AreaUnderPRC: 0.9837262463403833
Mean absolute error: 0.01933709164484315
Coverage of cases: 99.07741251325557
Instances selection time: 61.1
Test time: 106.3
Accumulative iteration time: 4201.9
Weighted Recall: 0.9738600212089077
Weighted FalsePositiveRate: 0.12056308927697905
Kappa statistic: 0.8186106461561294
Training time: 320.0
		
Iteration: 16
Labeled set size: 677
Unlabelled set size: 1209
	
Mean region size: 27.401908801696713
Incorrectly Classified Instances: 2.698833510074231
Correctly Classified Instances: 97.30116648992575
Weighted Precision: 0.9741773304076972
Weighted AreaUnderROC: 0.9903510312432477
Root mean squared error: 0.10298683489497192
Relative absolute error: 5.2861059456682415
Root relative squared error: 23.78379073983983
Weighted TruePositiveRate: 0.9730116648992576
Weighted MatthewsCorrelation: 0.8547781993680257
Weighted FMeasure: 0.9732981525038678
Iteration time: 423.5
Weighted AreaUnderPRC: 0.98377128129266
Mean absolute error: 0.019822897296255904
Coverage of cases: 99.08271474019088
Instances selection time: 59.3
Test time: 95.2
Accumulative iteration time: 4625.4
Weighted Recall: 0.9730116648992576
Weighted FalsePositiveRate: 0.12503976277484283
Kappa statistic: 0.8130259992733798
Training time: 364.2
		
Iteration: 17
Labeled set size: 697
Unlabelled set size: 1189
	
Mean region size: 27.35286320254507
Incorrectly Classified Instances: 2.672322375397667
Correctly Classified Instances: 97.32767762460233
Weighted Precision: 0.9743060948731221
Weighted AreaUnderROC: 0.9905696786225725
Root mean squared error: 0.10274033897779981
Relative absolute error: 5.220965321046792
Root relative squared error: 23.726864946186446
Weighted TruePositiveRate: 0.9732767762460235
Weighted MatthewsCorrelation: 0.8549615757840909
Weighted FMeasure: 0.9734333237989015
Iteration time: 456.8
Weighted AreaUnderPRC: 0.9837264936045578
Mean absolute error: 0.01957861995392547
Coverage of cases: 99.09331919406152
Instances selection time: 62.9
Test time: 95.0
Accumulative iteration time: 5082.2
Weighted Recall: 0.9732767762460235
Weighted FalsePositiveRate: 0.12942064214755297
Kappa statistic: 0.8136681049795771
Training time: 393.9
		
Iteration: 18
Labeled set size: 717
Unlabelled set size: 1169
	
Mean region size: 27.363467656415697
Incorrectly Classified Instances: 2.6086956521739126
Correctly Classified Instances: 97.3913043478261
Weighted Precision: 0.975000791434487
Weighted AreaUnderROC: 0.9907832636274321
Root mean squared error: 0.10238050345485265
Relative absolute error: 5.200783161147507
Root relative squared error: 23.643764491771435
Weighted TruePositiveRate: 0.9739130434782609
Weighted MatthewsCorrelation: 0.8600674649870463
Weighted FMeasure: 0.9741485760665716
Iteration time: 447.6
Weighted AreaUnderPRC: 0.9837280819108711
Mean absolute error: 0.01950293685430315
Coverage of cases: 99.0880169671262
Instances selection time: 57.6
Test time: 100.8
Accumulative iteration time: 5529.8
Weighted Recall: 0.9739130434782609
Weighted FalsePositiveRate: 0.12243256695505936
Kappa statistic: 0.8186464862098047
Training time: 390.0
		
Iteration: 19
Labeled set size: 737
Unlabelled set size: 1149
	
Mean region size: 27.367444326617182
Incorrectly Classified Instances: 2.6617179215270412
Correctly Classified Instances: 97.33828207847296
Weighted Precision: 0.974329479336004
Weighted AreaUnderROC: 0.9907905608243507
Root mean squared error: 0.10236171978827877
Relative absolute error: 5.202923574656614
Root relative squared error: 23.639426589790315
Weighted TruePositiveRate: 0.9733828207847296
Weighted MatthewsCorrelation: 0.8571719587074155
Weighted FMeasure: 0.9735053245275488
Iteration time: 513.2
Weighted AreaUnderPRC: 0.9836383511295912
Mean absolute error: 0.019510963404962302
Coverage of cases: 99.0933191940615
Instances selection time: 55.8
Test time: 94.0
Accumulative iteration time: 6043.0
Weighted Recall: 0.9733828207847296
Weighted FalsePositiveRate: 0.1250171821832541
Kappa statistic: 0.8147341930793861
Training time: 457.4
		
Iteration: 20
Labeled set size: 757
Unlabelled set size: 1129
	
Mean region size: 27.511930010604452
Incorrectly Classified Instances: 2.735949098621421
Correctly Classified Instances: 97.26405090137857
Weighted Precision: 0.9740555049587781
Weighted AreaUnderROC: 0.9910085168426039
Root mean squared error: 0.1040757095879092
Relative absolute error: 5.420145301990782
Root relative squared error: 24.03525557867227
Weighted TruePositiveRate: 0.9726405090137857
Weighted MatthewsCorrelation: 0.8526346377610791
Weighted FMeasure: 0.9729755365992647
Iteration time: 496.8
Weighted AreaUnderPRC: 0.9834484343031052
Mean absolute error: 0.020325544882465435
Coverage of cases: 99.10922587486745
Instances selection time: 54.6
Test time: 92.7
Accumulative iteration time: 6539.8
Weighted Recall: 0.9726405090137857
Weighted FalsePositiveRate: 0.13007391750960492
Kappa statistic: 0.8094083468580251
Training time: 442.2
		
Iteration: 21
Labeled set size: 777
Unlabelled set size: 1109
	
Mean region size: 27.489395546129373
Incorrectly Classified Instances: 2.7147401908801694
Correctly Classified Instances: 97.28525980911982
Weighted Precision: 0.9740324603042453
Weighted AreaUnderROC: 0.9908586283591223
Root mean squared error: 0.10366974519779337
Relative absolute error: 5.388046270203725
Root relative squared error: 23.941502118706364
Weighted TruePositiveRate: 0.9728525980911982
Weighted MatthewsCorrelation: 0.8530767843584103
Weighted FMeasure: 0.9730897423195787
Iteration time: 539.4
Weighted AreaUnderPRC: 0.9835229701495078
Mean absolute error: 0.020205173513263973
Coverage of cases: 99.07741251325555
Instances selection time: 52.7
Test time: 92.8
Accumulative iteration time: 7079.2
Weighted Recall: 0.9728525980911982
Weighted FalsePositiveRate: 0.13198775987655018
Kappa statistic: 0.8104949370808668
Training time: 486.7
		
Iteration: 22
Labeled set size: 797
Unlabelled set size: 1089
	
Mean region size: 27.488069989395548
Incorrectly Classified Instances: 2.7200424178154825
Correctly Classified Instances: 97.27995758218451
Weighted Precision: 0.9741866846859126
Weighted AreaUnderROC: 0.9912409150338272
Root mean squared error: 0.10383997382507534
Relative absolute error: 5.35242070092742
Root relative squared error: 23.980814736220378
Weighted TruePositiveRate: 0.9727995758218452
Weighted MatthewsCorrelation: 0.8536053293596122
Weighted FMeasure: 0.9731290421213918
Iteration time: 584.5
Weighted AreaUnderPRC: 0.9835240825293526
Mean absolute error: 0.020071577628477826
Coverage of cases: 99.07741251325557
Instances selection time: 52.2
Test time: 92.4
Accumulative iteration time: 7663.7
Weighted Recall: 0.9727995758218452
Weighted FalsePositiveRate: 0.13007153630572768
Kappa statistic: 0.8103201568509097
Training time: 532.3
		
Iteration: 23
Labeled set size: 817
Unlabelled set size: 1069
	
Mean region size: 27.534464475079535
Incorrectly Classified Instances: 2.735949098621421
Correctly Classified Instances: 97.26405090137857
Weighted Precision: 0.9740674227693626
Weighted AreaUnderROC: 0.9913728414054306
Root mean squared error: 0.10347676539172894
Relative absolute error: 5.369516521171803
Root relative squared error: 23.896935341514585
Weighted TruePositiveRate: 0.9726405090137857
Weighted MatthewsCorrelation: 0.8557809373039215
Weighted FMeasure: 0.9729246948276098
Iteration time: 652.6
Weighted AreaUnderPRC: 0.9836509052327231
Mean absolute error: 0.020135686954394254
Coverage of cases: 99.10922587486745
Instances selection time: 51.3
Test time: 92.8
Accumulative iteration time: 8316.3
Weighted Recall: 0.9726405090137857
Weighted FalsePositiveRate: 0.12694123374402203
Kappa statistic: 0.8093868000619153
Training time: 601.3
		
Iteration: 24
Labeled set size: 837
Unlabelled set size: 1049
	
Mean region size: 27.485418875927888
Incorrectly Classified Instances: 2.7094379639448567
Correctly Classified Instances: 97.29056203605515
Weighted Precision: 0.9745289423506509
Weighted AreaUnderROC: 0.9913653235727932
Root mean squared error: 0.10392507429830164
Relative absolute error: 5.355959483189497
Root relative squared error: 24.000467848670525
Weighted TruePositiveRate: 0.9729056203605513
Weighted MatthewsCorrelation: 0.8592758684845366
Weighted FMeasure: 0.9732535676711276
Iteration time: 636.5
Weighted AreaUnderPRC: 0.9834329051487108
Mean absolute error: 0.020084848061960613
Coverage of cases: 99.0880169671262
Instances selection time: 49.8
Test time: 91.1
Accumulative iteration time: 8952.8
Weighted Recall: 0.9729056203605513
Weighted FalsePositiveRate: 0.12248935982019012
Kappa statistic: 0.8116272581848198
Training time: 586.7
		
Iteration: 25
Labeled set size: 857
Unlabelled set size: 1029
	
Mean region size: 27.489395546129373
Incorrectly Classified Instances: 2.6458112407211023
Correctly Classified Instances: 97.35418875927891
Weighted Precision: 0.9754019371955458
Weighted AreaUnderROC: 0.991239059163464
Root mean squared error: 0.10362662553858344
Relative absolute error: 5.369330285193661
Root relative squared error: 23.931544059965475
Weighted TruePositiveRate: 0.9735418875927889
Weighted MatthewsCorrelation: 0.8635753105240536
Weighted FMeasure: 0.9739739738015203
Iteration time: 669.5
Weighted AreaUnderPRC: 0.983763072197249
Mean absolute error: 0.020134988569476233
Coverage of cases: 99.08271474019088
Instances selection time: 48.9
Test time: 91.0
Accumulative iteration time: 9622.3
Weighted Recall: 0.9735418875927889
Weighted FalsePositiveRate: 0.11804479306349105
Kappa statistic: 0.8161673027406436
Training time: 620.6
		
Iteration: 26
Labeled set size: 877
Unlabelled set size: 1009
	
Mean region size: 27.466861081654297
Incorrectly Classified Instances: 2.704135737009544
Correctly Classified Instances: 97.29586426299045
Weighted Precision: 0.9747490087982043
Weighted AreaUnderROC: 0.9912690734836478
Root mean squared error: 0.10411348360566648
Relative absolute error: 5.376420552016218
Root relative squared error: 24.043979114400496
Weighted TruePositiveRate: 0.9729586426299045
Weighted MatthewsCorrelation: 0.858547365543982
Weighted FMeasure: 0.9733615495780213
Iteration time: 686.5
Weighted AreaUnderPRC: 0.9836709245210628
Mean absolute error: 0.02016157707006081
Coverage of cases: 99.07741251325557
Instances selection time: 47.5
Test time: 89.8
Accumulative iteration time: 10308.8
Weighted Recall: 0.9729586426299045
Weighted FalsePositiveRate: 0.12247910731246867
Kappa statistic: 0.8121174789631944
Training time: 639.0
		
Iteration: 27
Labeled set size: 897
Unlabelled set size: 989
	
Mean region size: 27.534464475079535
Incorrectly Classified Instances: 2.725344644750795
Correctly Classified Instances: 97.27465535524921
Weighted Precision: 0.9743947762648576
Weighted AreaUnderROC: 0.9906159954898868
Root mean squared error: 0.10400870024235671
Relative absolute error: 5.4173535199586444
Root relative squared error: 24.019780433195095
Weighted TruePositiveRate: 0.972746553552492
Weighted MatthewsCorrelation: 0.8567319162751226
Weighted FMeasure: 0.9730992843602972
Iteration time: 681.0
Weighted AreaUnderPRC: 0.9836138599772724
Mean absolute error: 0.020315075699844913
Coverage of cases: 99.0880169671262
Instances selection time: 45.5
Test time: 89.3
Accumulative iteration time: 10989.8
Weighted Recall: 0.972746553552492
Weighted FalsePositiveRate: 0.12754009223003268
Kappa statistic: 0.8098905672674845
Training time: 635.5
		
Iteration: 28
Labeled set size: 917
Unlabelled set size: 969
	
Mean region size: 27.523860021208908
Incorrectly Classified Instances: 2.7094379639448567
Correctly Classified Instances: 97.29056203605514
Weighted Precision: 0.9746528616808258
Weighted AreaUnderROC: 0.9907003969792344
Root mean squared error: 0.10441371542695214
Relative absolute error: 5.428524605232953
Root relative squared error: 24.113314683535922
Weighted TruePositiveRate: 0.9729056203605513
Weighted MatthewsCorrelation: 0.8583868618491973
Weighted FMeasure: 0.9732616909560825
Iteration time: 734.2
Weighted AreaUnderPRC: 0.9835531655868953
Mean absolute error: 0.020356967269623574
Coverage of cases: 99.08801696712618
Instances selection time: 44.6
Test time: 87.3
Accumulative iteration time: 11724.0
Weighted Recall: 0.9729056203605513
Weighted FalsePositiveRate: 0.1256415177661767
Kappa statistic: 0.8110614401363392
Training time: 689.6
		
Iteration: 29
Labeled set size: 937
Unlabelled set size: 949
	
Mean region size: 27.527836691410393
Incorrectly Classified Instances: 2.783669141039236
Correctly Classified Instances: 97.21633085896077
Weighted Precision: 0.9737039399704216
Weighted AreaUnderROC: 0.9899905488422933
Root mean squared error: 0.10559218387646359
Relative absolute error: 5.5200109941539415
Root relative squared error: 24.385470314158688
Weighted TruePositiveRate: 0.9721633085896076
Weighted MatthewsCorrelation: 0.852193558616747
Weighted FMeasure: 0.9724768011268301
Iteration time: 658.5
Weighted AreaUnderPRC: 0.9831856762250715
Mean absolute error: 0.02070004122807728
Coverage of cases: 99.02439024390243
Instances selection time: 43.3
Test time: 87.0
Accumulative iteration time: 12382.5
Weighted Recall: 0.9721633085896076
Weighted FalsePositiveRate: 0.13323302512728286
Kappa statistic: 0.805291455844465
Training time: 615.2
		
Iteration: 30
Labeled set size: 957
Unlabelled set size: 929
	
Mean region size: 27.52253446447508
Incorrectly Classified Instances: 2.730646871686108
Correctly Classified Instances: 97.2693531283139
Weighted Precision: 0.9743106570892159
Weighted AreaUnderROC: 0.990644316679772
Root mean squared error: 0.10442148841583268
Relative absolute error: 5.444738057859391
Root relative squared error: 24.115109778424955
Weighted TruePositiveRate: 0.9726935312831388
Weighted MatthewsCorrelation: 0.8565250383591467
Weighted FMeasure: 0.9729996322906723
Iteration time: 698.5
Weighted AreaUnderPRC: 0.9834300633321647
Mean absolute error: 0.020417767716972717
Coverage of cases: 99.08271474019088
Instances selection time: 42.0
Test time: 85.5
Accumulative iteration time: 13081.0
Weighted Recall: 0.9726935312831388
Weighted FalsePositiveRate: 0.12820319021228316
Kappa statistic: 0.8093780467702807
Training time: 656.5
		
Iteration: 31
Labeled set size: 977
Unlabelled set size: 909
	
Mean region size: 27.523860021208908
Incorrectly Classified Instances: 2.7465535524920464
Correctly Classified Instances: 97.25344644750795
Weighted Precision: 0.9742412261437965
Weighted AreaUnderROC: 0.9904039864287913
Root mean squared error: 0.10479780043684246
Relative absolute error: 5.452530638478797
Root relative squared error: 24.202015317076672
Weighted TruePositiveRate: 0.9725344644750795
Weighted MatthewsCorrelation: 0.8557798562299388
Weighted FMeasure: 0.9729161062460931
Iteration time: 774.1
Weighted AreaUnderPRC: 0.9832792190244832
Mean absolute error: 0.02044698989429549
Coverage of cases: 99.06150583244963
Instances selection time: 47.2
Test time: 98.4
Accumulative iteration time: 13855.1
Weighted Recall: 0.9725344644750795
Weighted FalsePositiveRate: 0.1275489093530936
Kappa statistic: 0.8086332980162604
Training time: 726.9
		
Iteration: 32
Labeled set size: 997
Unlabelled set size: 889
	
Mean region size: 27.44697773064687
Incorrectly Classified Instances: 2.7624602332979853
Correctly Classified Instances: 97.23753976670201
Weighted Precision: 0.9740829629915252
Weighted AreaUnderROC: 0.9904867758343341
Root mean squared error: 0.10469324172102538
Relative absolute error: 5.359594341789386
Root relative squared error: 24.177868515987434
Weighted TruePositiveRate: 0.9723753976670201
Weighted MatthewsCorrelation: 0.857101569812975
Weighted FMeasure: 0.9726220015363417
Iteration time: 911.2
Weighted AreaUnderPRC: 0.9832067214883302
Mean absolute error: 0.020098478781710196
Coverage of cases: 99.07741251325555
Instances selection time: 40.0
Test time: 85.8
Accumulative iteration time: 14766.3
Weighted Recall: 0.9723753976670201
Weighted FalsePositiveRate: 0.12820595621467862
Kappa statistic: 0.8069742881512397
Training time: 871.2
		
Iteration: 33
Labeled set size: 1017
Unlabelled set size: 869
	
Mean region size: 27.417815482502654
Incorrectly Classified Instances: 2.7465535524920464
Correctly Classified Instances: 97.25344644750794
Weighted Precision: 0.9744063108348462
Weighted AreaUnderROC: 0.9905966427980125
Root mean squared error: 0.10483756004320557
Relative absolute error: 5.34204231209786
Root relative squared error: 24.211197404851312
Weighted TruePositiveRate: 0.9725344644750795
Weighted MatthewsCorrelation: 0.8580510686960535
Weighted FMeasure: 0.9728503323276703
Iteration time: 836.6
Weighted AreaUnderPRC: 0.9831805388603174
Mean absolute error: 0.020032658670366976
Coverage of cases: 99.05090137857901
Instances selection time: 38.7
Test time: 84.6
Accumulative iteration time: 15602.9
Weighted Recall: 0.9725344644750795
Weighted FalsePositiveRate: 0.1250256947077924
Kappa statistic: 0.8086265722825458
Training time: 797.9
		
Iteration: 34
Labeled set size: 1037
Unlabelled set size: 849
	
Mean region size: 27.454931071049838
Incorrectly Classified Instances: 2.735949098621421
Correctly Classified Instances: 97.26405090137857
Weighted Precision: 0.9745230582200388
Weighted AreaUnderROC: 0.9905591481211931
Root mean squared error: 0.1049808509888562
Relative absolute error: 5.3782727711904394
Root relative squared error: 24.244289031268845
Weighted TruePositiveRate: 0.9726405090137857
Weighted MatthewsCorrelation: 0.8589030575309705
Weighted FMeasure: 0.9729551190347119
Iteration time: 856.5
Weighted AreaUnderPRC: 0.9830904521232398
Mean absolute error: 0.020168522891964146
Coverage of cases: 99.08801696712618
Instances selection time: 44.1
Test time: 93.8
Accumulative iteration time: 16459.4
Weighted Recall: 0.9726405090137857
Weighted FalsePositiveRate: 0.12378549456062242
Kappa statistic: 0.8094729516528643
Training time: 812.4
		
Iteration: 35
Labeled set size: 1057
Unlabelled set size: 829
	
Mean region size: 27.35949098621421
Incorrectly Classified Instances: 2.7730646871686107
Correctly Classified Instances: 97.22693531283139
Weighted Precision: 0.9742337030651201
Weighted AreaUnderROC: 0.9909290699530345
Root mean squared error: 0.10547618850457527
Relative absolute error: 5.29763191280681
Root relative squared error: 24.358682330484893
Weighted TruePositiveRate: 0.972269353128314
Weighted MatthewsCorrelation: 0.8563965316973648
Weighted FMeasure: 0.9726266725672884
Iteration time: 894.6
Weighted AreaUnderPRC: 0.9831805269561297
Mean absolute error: 0.01986611967302554
Coverage of cases: 99.02969247083776
Instances selection time: 37.4
Test time: 84.4
Accumulative iteration time: 17354.0
Weighted Recall: 0.972269353128314
Weighted FalsePositiveRate: 0.12127951361033991
Kappa statistic: 0.8078161735437401
Training time: 857.2
		
Iteration: 36
Labeled set size: 1077
Unlabelled set size: 809
	
Mean region size: 27.38467656415695
Incorrectly Classified Instances: 2.778366914103923
Correctly Classified Instances: 97.22163308589607
Weighted Precision: 0.9742569717155861
Weighted AreaUnderROC: 0.9907051809185263
Root mean squared error: 0.10552698553563518
Relative absolute error: 5.3285665350070195
Root relative squared error: 24.370413402307484
Weighted TruePositiveRate: 0.9722163308589608
Weighted MatthewsCorrelation: 0.8575872907093371
Weighted FMeasure: 0.9726053333476654
Iteration time: 878.1
Weighted AreaUnderPRC: 0.9829772626432494
Mean absolute error: 0.019982124506276323
Coverage of cases: 99.0455991516437
Instances selection time: 35.7
Test time: 83.9
Accumulative iteration time: 18232.1
Weighted Recall: 0.9722163308589608
Weighted FalsePositiveRate: 0.1212800916719295
Kappa statistic: 0.8073089547585962
Training time: 842.4
		
Iteration: 37
Labeled set size: 1097
Unlabelled set size: 789
	
Mean region size: 27.325026511134674
Incorrectly Classified Instances: 2.8048780487804876
Correctly Classified Instances: 97.1951219512195
Weighted Precision: 0.9739151235233052
Weighted AreaUnderROC: 0.9908697818982658
Root mean squared error: 0.10544823408653428
Relative absolute error: 5.292206553513043
Root relative squared error: 24.352226534172495
Weighted TruePositiveRate: 0.9719512195121951
Weighted MatthewsCorrelation: 0.8559224796499796
Weighted FMeasure: 0.9722595434397876
Iteration time: 874.0
Weighted AreaUnderPRC: 0.9832174604183994
Mean absolute error: 0.019845774575673908
Coverage of cases: 99.0137857900318
Instances selection time: 35.2
Test time: 83.0
Accumulative iteration time: 19106.1
Weighted Recall: 0.9719512195121951
Weighted FalsePositiveRate: 0.12317157188000889
Kappa statistic: 0.8051788341732978
Training time: 838.8
		
Iteration: 38
Labeled set size: 1117
Unlabelled set size: 769
	
Mean region size: 27.35816542948038
Incorrectly Classified Instances: 2.751855779427359
Correctly Classified Instances: 97.24814422057264
Weighted Precision: 0.9746914651678121
Weighted AreaUnderROC: 0.9910088553329883
Root mean squared error: 0.10559753672880583
Relative absolute error: 5.310372118394712
Root relative squared error: 24.386706502454977
Weighted TruePositiveRate: 0.9724814422057264
Weighted MatthewsCorrelation: 0.8603617061847675
Weighted FMeasure: 0.9728974346843456
Iteration time: 902.1
Weighted AreaUnderPRC: 0.9831983060665545
Mean absolute error: 0.019913895443980173
Coverage of cases: 99.050901378579
Instances selection time: 41.0
Test time: 116.5
Accumulative iteration time: 20008.2
Weighted Recall: 0.9724814422057264
Weighted FalsePositiveRate: 0.1155868403729073
Kappa statistic: 0.8098675695872355
Training time: 861.1
		
Iteration: 39
Labeled set size: 1137
Unlabelled set size: 749
	
Mean region size: 27.326352067868505
Incorrectly Classified Instances: 2.7518557794273595
Correctly Classified Instances: 97.24814422057264
Weighted Precision: 0.9747838061363036
Weighted AreaUnderROC: 0.9909193851401138
Root mean squared error: 0.10541743737758831
Relative absolute error: 5.29377652813901
Root relative squared error: 24.34511433889245
Weighted TruePositiveRate: 0.9724814422057264
Weighted MatthewsCorrelation: 0.8603281696495679
Weighted FMeasure: 0.9729346110105647
Iteration time: 968.0
Weighted AreaUnderPRC: 0.9832266814557327
Mean absolute error: 0.019851661980521285
Coverage of cases: 99.02969247083776
Instances selection time: 32.3
Test time: 82.3
Accumulative iteration time: 20976.2
Weighted Recall: 0.9724814422057264
Weighted FalsePositiveRate: 0.11558302378436955
Kappa statistic: 0.8099108091884016
Training time: 935.7
		
Iteration: 40
Labeled set size: 1157
Unlabelled set size: 729
	
Mean region size: 27.317073170731703
Incorrectly Classified Instances: 2.8154825026511134
Correctly Classified Instances: 97.18451749734888
Weighted Precision: 0.9739901917666931
Weighted AreaUnderROC: 0.9910127514061353
Root mean squared error: 0.10535988065378643
Relative absolute error: 5.277245558790139
Root relative squared error: 24.331822182900176
Weighted TruePositiveRate: 0.9718451749734889
Weighted MatthewsCorrelation: 0.8557666028462043
Weighted FMeasure: 0.97219761789308
Iteration time: 851.8
Weighted AreaUnderPRC: 0.983109555897323
Mean absolute error: 0.01978967084546302
Coverage of cases: 99.02439024390245
Instances selection time: 32.6
Test time: 81.7
Accumulative iteration time: 21828.0
Weighted Recall: 0.9718451749734889
Weighted FalsePositiveRate: 0.1213077862481072
Kappa statistic: 0.8049016044739501
Training time: 819.2
		
Iteration: 41
Labeled set size: 1177
Unlabelled set size: 709
	
Mean region size: 27.31707317073171
Incorrectly Classified Instances: 2.8101802757158008
Correctly Classified Instances: 97.1898197242842
Weighted Precision: 0.9740618766795428
Weighted AreaUnderROC: 0.9909945853391756
Root mean squared error: 0.10571940481842627
Relative absolute error: 5.2916837755665185
Root relative squared error: 24.414850732194175
Weighted TruePositiveRate: 0.971898197242842
Weighted MatthewsCorrelation: 0.8559625691642013
Weighted FMeasure: 0.9723101443030535
Iteration time: 977.3
Weighted AreaUnderPRC: 0.9830469007581764
Mean absolute error: 0.019843814158374443
Coverage of cases: 99.0455991516437
Instances selection time: 31.2
Test time: 80.7
Accumulative iteration time: 22805.3
Weighted Recall: 0.971898197242842
Weighted FalsePositiveRate: 0.11941324898469796
Kappa statistic: 0.8058983644635245
Training time: 946.1
		
Iteration: 42
Labeled set size: 1197
Unlabelled set size: 689
	
Mean region size: 27.32237539766702
Incorrectly Classified Instances: 2.8366914103923646
Correctly Classified Instances: 97.16330858960764
Weighted Precision: 0.9736026127398223
Weighted AreaUnderROC: 0.9909473039428915
Root mean squared error: 0.1057581294562309
Relative absolute error: 5.296574429291842
Root relative squared error: 24.42379380421848
Weighted TruePositiveRate: 0.9716330858960763
Weighted MatthewsCorrelation: 0.8540840117950987
Weighted FMeasure: 0.9719431244104154
Iteration time: 969.3
Weighted AreaUnderPRC: 0.9831407300981544
Mean absolute error: 0.01986215410984441
Coverage of cases: 99.02439024390245
Instances selection time: 29.4
Test time: 81.3
Accumulative iteration time: 23774.6
Weighted Recall: 0.9716330858960763
Weighted FalsePositiveRate: 0.12447807861932458
Kappa statistic: 0.8031500746272886
Training time: 939.9
		
Iteration: 43
Labeled set size: 1217
Unlabelled set size: 669
	
Mean region size: 27.33165429480382
Incorrectly Classified Instances: 2.8472958642629904
Correctly Classified Instances: 97.15270413573701
Weighted Precision: 0.9738241574936568
Weighted AreaUnderROC: 0.9909309587567117
Root mean squared error: 0.10601495449177592
Relative absolute error: 5.320967376557965
Root relative squared error: 24.4831050055811
Weighted TruePositiveRate: 0.97152704135737
Weighted MatthewsCorrelation: 0.8534578016603511
Weighted FMeasure: 0.9719778247060494
Iteration time: 1058.4
Weighted AreaUnderPRC: 0.982933310854276
Mean absolute error: 0.019953627662092372
Coverage of cases: 99.03499469777306
Instances selection time: 28.7
Test time: 80.1
Accumulative iteration time: 24833.0
Weighted Recall: 0.97152704135737
Weighted FalsePositiveRate: 0.12320867915569682
Kappa statistic: 0.8028617078889917
Training time: 1029.7
		
Iteration: 44
Labeled set size: 1237
Unlabelled set size: 649
	
Mean region size: 27.293213149522796
Incorrectly Classified Instances: 2.8366914103923646
Correctly Classified Instances: 97.16330858960764
Weighted Precision: 0.9737060993428337
Weighted AreaUnderROC: 0.990596171271801
Root mean squared error: 0.10652658858117385
Relative absolute error: 5.322983598754902
Root relative squared error: 24.6012618372773
Weighted TruePositiveRate: 0.9716330858960763
Weighted MatthewsCorrelation: 0.8537149374383926
Weighted FMeasure: 0.97199830249637
Iteration time: 1021.6
Weighted AreaUnderPRC: 0.9829393617882184
Mean absolute error: 0.019961188495330885
Coverage of cases: 98.98727465535525
Instances selection time: 28.1
Test time: 79.2
Accumulative iteration time: 25854.6
Weighted Recall: 0.9716330858960763
Weighted FalsePositiveRate: 0.12131743958939792
Kappa statistic: 0.8039613837728151
Training time: 993.5
		
Iteration: 45
Labeled set size: 1257
Unlabelled set size: 629
	
Mean region size: 27.307794273594915
Incorrectly Classified Instances: 2.7730646871686107
Correctly Classified Instances: 97.22693531283139
Weighted Precision: 0.9744351456301661
Weighted AreaUnderROC: 0.9910609489077797
Root mean squared error: 0.10565356138133508
Relative absolute error: 5.289656461860022
Root relative squared error: 24.39964484174258
Weighted TruePositiveRate: 0.972269353128314
Weighted MatthewsCorrelation: 0.8597344105493196
Weighted FMeasure: 0.972609507993876
Iteration time: 961.7
Weighted AreaUnderPRC: 0.9831020936328111
Mean absolute error: 0.019836211731975084
Coverage of cases: 99.01378579003182
Instances selection time: 27.2
Test time: 80.2
Accumulative iteration time: 26816.3
Weighted Recall: 0.972269353128314
Weighted FalsePositiveRate: 0.11622870123121261
Kappa statistic: 0.8082374093744832
Training time: 934.5
		
Iteration: 46
Labeled set size: 1277
Unlabelled set size: 609
	
Mean region size: 27.338282078472965
Incorrectly Classified Instances: 2.8419936373276773
Correctly Classified Instances: 97.15800636267232
Weighted Precision: 0.9736168331476428
Weighted AreaUnderROC: 0.9908633403481888
Root mean squared error: 0.10646689210355001
Relative absolute error: 5.340865151063275
Root relative squared error: 24.58747552630697
Weighted TruePositiveRate: 0.9715800636267232
Weighted MatthewsCorrelation: 0.8530282616855178
Weighted FMeasure: 0.9719178675275263
Iteration time: 1019.7
Weighted AreaUnderPRC: 0.982843277981582
Mean absolute error: 0.020028244316487285
Coverage of cases: 99.00318133616118
Instances selection time: 25.9
Test time: 77.6
Accumulative iteration time: 27836.0
Weighted Recall: 0.9715800636267232
Weighted FalsePositiveRate: 0.12635951631792638
Kappa statistic: 0.8025617021834485
Training time: 993.8
		
Time end:Mon Nov 27 16.24.18 EET 2017