Mon Nov 27 16.18.27 EET 2017
Dataset: hypothyroid
Test set size: 1886
Initial Labelled set size: 377
Initial Unlabelled set size: 1509
Batch mode: QBestBatchMode
Batch size: 20
Classifiers: SMOsync-1cores
Scenario: PoolBasedSamplingScenario
Query strategy: MarginSamplingQueryStrategy-1cores
Time begining: Mon Nov 27 16.18.27 EET 2017
		
Iteration: 1
Labeled set size: 377
Unlabelled set size: 1509
	
Mean region size: 27.637857900318135
Incorrectly Classified Instances: 4.453870625662779
Correctly Classified Instances: 95.54612937433723
Weighted Precision: 0.9521121846569648
Weighted AreaUnderROC: 0.9671142760882077
Root mean squared error: 0.136144832219778
Relative absolute error: 7.659067176558814
Root relative squared error: 31.441302212346105
Weighted TruePositiveRate: 0.9554612937433722
Weighted MatthewsCorrelation: 0.7084580860340373
Weighted FMeasure: 0.9535117315385934
Iteration time: 164.0
Weighted AreaUnderPRC: 0.9698582220456594
Mean absolute error: 0.028721501912095552
Coverage of cases: 98.03817603393425
Instances selection time: 59.0
Test time: 68.0
Accumulative iteration time: 164.0
Weighted Recall: 0.9554612937433722
Weighted FalsePositiveRate: 0.29386760125521183
Kappa statistic: 0.6706498690283145
Training time: 105.0
		
Iteration: 2
Labeled set size: 397
Unlabelled set size: 1489
	
Mean region size: 27.412513255567337
Incorrectly Classified Instances: 4.506892895015906
Correctly Classified Instances: 95.49310710498409
Weighted Precision: 0.9530404782562789
Weighted AreaUnderROC: 0.9670756139175278
Root mean squared error: 0.13479695391492974
Relative absolute error: 7.2353728828206165
Root relative squared error: 31.130023051490507
Weighted TruePositiveRate: 0.954931071049841
Weighted MatthewsCorrelation: 0.7133792511443978
Weighted FMeasure: 0.9539012863185482
Iteration time: 148.0
Weighted AreaUnderPRC: 0.9664915116048185
Mean absolute error: 0.027132648310577313
Coverage of cases: 97.77306468716861
Instances selection time: 55.0
Test time: 76.0
Accumulative iteration time: 312.0
Weighted Recall: 0.954931071049841
Weighted FalsePositiveRate: 0.2620716695745591
Kappa statistic: 0.6790295002142342
Training time: 93.0
		
Iteration: 3
Labeled set size: 417
Unlabelled set size: 1469
	
Mean region size: 27.067868504772004
Incorrectly Classified Instances: 3.0752916224814424
Correctly Classified Instances: 96.92470837751856
Weighted Precision: 0.970265420460444
Weighted AreaUnderROC: 0.9812779968932228
Root mean squared error: 0.1152408602959283
Relative absolute error: 5.724546885047711
Root relative squared error: 26.613736685399306
Weighted TruePositiveRate: 0.9692470837751855
Weighted MatthewsCorrelation: 0.8278712323185334
Weighted FMeasure: 0.9696418541031158
Iteration time: 168.0
Weighted AreaUnderPRC: 0.975101363460517
Mean absolute error: 0.021467050818928912
Coverage of cases: 98.46235418875928
Instances selection time: 66.0
Test time: 92.0
Accumulative iteration time: 480.0
Weighted Recall: 0.9692470837751855
Weighted FalsePositiveRate: 0.11550071127021463
Kappa statistic: 0.7939923539049697
Training time: 102.0
		
Iteration: 4
Labeled set size: 437
Unlabelled set size: 1449
	
Mean region size: 27.47879109225875
Incorrectly Classified Instances: 3.552492046659597
Correctly Classified Instances: 96.4475079533404
Weighted Precision: 0.9676178327602751
Weighted AreaUnderROC: 0.983645997811667
Root mean squared error: 0.12323881521854282
Relative absolute error: 6.683213489704014
Root relative squared error: 28.4607852564145
Weighted TruePositiveRate: 0.9644750795334041
Weighted MatthewsCorrelation: 0.8074264687841066
Weighted FMeasure: 0.9655983971955081
Iteration time: 198.0
Weighted AreaUnderPRC: 0.9766160273878357
Mean absolute error: 0.02506205058639005
Coverage of cases: 98.3032873806999
Instances selection time: 78.0
Test time: 101.0
Accumulative iteration time: 678.0
Weighted Recall: 0.9644750795334041
Weighted FalsePositiveRate: 0.10311468540185109
Kappa statistic: 0.7704253857977029
Training time: 120.0
		
Iteration: 5
Labeled set size: 457
Unlabelled set size: 1429
	
Mean region size: 28.31389183457052
Incorrectly Classified Instances: 3.552492046659597
Correctly Classified Instances: 96.4475079533404
Weighted Precision: 0.973623869522006
Weighted AreaUnderROC: 0.983604253059049
Root mean squared error: 0.12328552403615907
Relative absolute error: 7.241164717853009
Root relative squared error: 28.47157219578421
Weighted TruePositiveRate: 0.9644750795334041
Weighted MatthewsCorrelation: 0.8249906518043738
Weighted FMeasure: 0.968406865691119
Iteration time: 250.0
Weighted AreaUnderPRC: 0.9797978149405733
Mean absolute error: 0.027154367691948785
Coverage of cases: 98.51537645811241
Instances selection time: 71.0
Test time: 94.0
Accumulative iteration time: 928.0
Weighted Recall: 0.9644750795334041
Weighted FalsePositiveRate: 0.0584404090206754
Kappa statistic: 0.7787578701142263
Training time: 179.0
		
Iteration: 6
Labeled set size: 477
Unlabelled set size: 1409
	
Mean region size: 27.783669141039237
Incorrectly Classified Instances: 3.3404029692470836
Correctly Classified Instances: 96.65959703075292
Weighted Precision: 0.9751718106702109
Weighted AreaUnderROC: 0.9850136844586876
Root mean squared error: 0.11959197527231916
Relative absolute error: 6.595508943746634
Root relative squared error: 27.618583646557017
Weighted TruePositiveRate: 0.9665959703075292
Weighted MatthewsCorrelation: 0.8381957937230541
Weighted FMeasure: 0.9699753944200817
Iteration time: 217.0
Weighted AreaUnderPRC: 0.9791336044700257
Mean absolute error: 0.02473315853904988
Coverage of cases: 98.40933191940616
Instances selection time: 69.0
Test time: 99.0
Accumulative iteration time: 1145.0
Weighted Recall: 0.9665959703075292
Weighted FalsePositiveRate: 0.04573758379366612
Kappa statistic: 0.7918417115447283
Training time: 148.0
		
Iteration: 7
Labeled set size: 497
Unlabelled set size: 1389
	
Mean region size: 27.399257688229056
Incorrectly Classified Instances: 3.499469777306469
Correctly Classified Instances: 96.50053022269353
Weighted Precision: 0.9711954902385355
Weighted AreaUnderROC: 0.9835724658390789
Root mean squared error: 0.11990405442200833
Relative absolute error: 6.379758344155543
Root relative squared error: 27.69065523898962
Weighted TruePositiveRate: 0.9650053022269353
Weighted MatthewsCorrelation: 0.8153949322709704
Weighted FMeasure: 0.967493435562925
Iteration time: 246.0
Weighted AreaUnderPRC: 0.9761608400975818
Mean absolute error: 0.023924093790583283
Coverage of cases: 98.35630965005302
Instances selection time: 72.0
Test time: 101.0
Accumulative iteration time: 1391.0
Weighted Recall: 0.9650053022269353
Weighted FalsePositiveRate: 0.09665546769198012
Kappa statistic: 0.7739635729720892
Training time: 174.0
		
Iteration: 8
Labeled set size: 517
Unlabelled set size: 1369
	
Mean region size: 27.399257688229056
Incorrectly Classified Instances: 2.8101802757158008
Correctly Classified Instances: 97.1898197242842
Weighted Precision: 0.9746741569453543
Weighted AreaUnderROC: 0.9852894900890985
Root mean squared error: 0.10683635662658122
Relative absolute error: 5.588256314955764
Root relative squared error: 24.672799703038212
Weighted TruePositiveRate: 0.971898197242842
Weighted MatthewsCorrelation: 0.8529784448327448
Weighted FMeasure: 0.9728422077066698
Iteration time: 246.0
Weighted AreaUnderPRC: 0.9802148583093558
Mean absolute error: 0.020955961181084115
Coverage of cases: 98.83351007423117
Instances selection time: 67.0
Test time: 107.0
Accumulative iteration time: 1637.0
Weighted Recall: 0.971898197242842
Weighted FalsePositiveRate: 0.07739613247695382
Kappa statistic: 0.8150453514319654
Training time: 179.0
		
Iteration: 9
Labeled set size: 537
Unlabelled set size: 1349
	
Mean region size: 27.386002120890772
Incorrectly Classified Instances: 2.1208907741251326
Correctly Classified Instances: 97.87910922587487
Weighted Precision: 0.979652729204438
Weighted AreaUnderROC: 0.9918674116215095
Root mean squared error: 0.09841370855290205
Relative absolute error: 5.192015502754535
Root relative squared error: 22.72767244998695
Weighted TruePositiveRate: 0.9787910922587487
Weighted MatthewsCorrelation: 0.8935510933412667
Weighted FMeasure: 0.9790606499079914
Iteration time: 205.0
Weighted AreaUnderPRC: 0.9832322298403351
Mean absolute error: 0.019470058135329506
Coverage of cases: 98.99257688229056
Instances selection time: 64.0
Test time: 95.0
Accumulative iteration time: 1842.0
Weighted Recall: 0.9787910922587487
Weighted FalsePositiveRate: 0.07705279349566113
Kappa statistic: 0.8546502666543362
Training time: 141.0
		
Iteration: 10
Labeled set size: 557
Unlabelled set size: 1329
	
Mean region size: 27.332979851537647
Incorrectly Classified Instances: 2.545068928950159
Correctly Classified Instances: 97.45493107104984
Weighted Precision: 0.9763804142771618
Weighted AreaUnderROC: 0.9917338457171663
Root mean squared error: 0.10428638612570586
Relative absolute error: 5.261396856990203
Root relative squared error: 24.083909240995812
Weighted TruePositiveRate: 0.9745493107104984
Weighted MatthewsCorrelation: 0.8679663228621809
Weighted FMeasure: 0.9751762481622329
Iteration time: 247.0
Weighted AreaUnderPRC: 0.982951288275919
Mean absolute error: 0.01973023821371326
Coverage of cases: 98.93955461293743
Instances selection time: 69.0
Test time: 112.0
Accumulative iteration time: 2089.0
Weighted Recall: 0.9745493107104984
Weighted FalsePositiveRate: 0.0772523884823408
Kappa statistic: 0.8299068440850318
Training time: 178.0
		
Iteration: 11
Labeled set size: 577
Unlabelled set size: 1309
	
Mean region size: 27.2932131495228
Incorrectly Classified Instances: 2.757158006362672
Correctly Classified Instances: 97.24284199363733
Weighted Precision: 0.9752620726675651
Weighted AreaUnderROC: 0.9914000214188693
Root mean squared error: 0.1046895563927014
Relative absolute error: 5.22282351799669
Root relative squared error: 24.177017425867465
Weighted TruePositiveRate: 0.9724284199363733
Weighted MatthewsCorrelation: 0.8551026988683619
Weighted FMeasure: 0.9736038607903509
Iteration time: 261.0
Weighted AreaUnderPRC: 0.9830881824661816
Mean absolute error: 0.01958558819248759
Coverage of cases: 98.99257688229056
Instances selection time: 66.0
Test time: 101.0
Accumulative iteration time: 2350.0
Weighted Recall: 0.9724284199363733
Weighted FalsePositiveRate: 0.08363283118001659
Kappa statistic: 0.8169465204309426
Training time: 195.0
		
Iteration: 12
Labeled set size: 597
Unlabelled set size: 1289
	
Mean region size: 27.399257688229056
Incorrectly Classified Instances: 2.8101802757158008
Correctly Classified Instances: 97.1898197242842
Weighted Precision: 0.974734653792415
Weighted AreaUnderROC: 0.9914854602201879
Root mean squared error: 0.10690322203936568
Relative absolute error: 5.505907327048559
Root relative squared error: 24.68824160866645
Weighted TruePositiveRate: 0.971898197242842
Weighted MatthewsCorrelation: 0.8509781349328716
Weighted FMeasure: 0.9731038339893704
Iteration time: 257.0
Weighted AreaUnderPRC: 0.9845294267060675
Mean absolute error: 0.020647152476432094
Coverage of cases: 99.15164369034994
Instances selection time: 64.0
Test time: 99.0
Accumulative iteration time: 2607.0
Weighted Recall: 0.971898197242842
Weighted FalsePositiveRate: 0.09001435791297381
Kappa statistic: 0.8128519861002936
Training time: 193.0
		
Iteration: 13
Labeled set size: 617
Unlabelled set size: 1269
	
Mean region size: 26.948568398727467
Incorrectly Classified Instances: 2.757158006362672
Correctly Classified Instances: 97.24284199363733
Weighted Precision: 0.9739290041059785
Weighted AreaUnderROC: 0.991387397721011
Root mean squared error: 0.10500476896371118
Relative absolute error: 5.01676120353159
Root relative squared error: 24.249812650957246
Weighted TruePositiveRate: 0.9724284199363733
Weighted MatthewsCorrelation: 0.8488123273517869
Weighted FMeasure: 0.9730167015569682
Iteration time: 319.0
Weighted AreaUnderPRC: 0.9841103994362603
Mean absolute error: 0.018812854513243462
Coverage of cases: 99.09862142099682
Instances selection time: 67.0
Test time: 150.0
Accumulative iteration time: 2926.0
Weighted Recall: 0.9724284199363733
Weighted FalsePositiveRate: 0.1027177046047674
Kappa statistic: 0.8140265177948361
Training time: 252.0
		
Iteration: 14
Labeled set size: 637
Unlabelled set size: 1249
	
Mean region size: 27.27995758218452
Incorrectly Classified Instances: 2.704135737009544
Correctly Classified Instances: 97.29586426299046
Weighted Precision: 0.974631304276384
Weighted AreaUnderROC: 0.9919264908575002
Root mean squared error: 0.10374878372409987
Relative absolute error: 5.176933164371786
Root relative squared error: 23.959755284482135
Weighted TruePositiveRate: 0.9729586426299046
Weighted MatthewsCorrelation: 0.8565924952379596
Weighted FMeasure: 0.9735848490402793
Iteration time: 298.0
Weighted AreaUnderPRC: 0.9844071458311249
Mean absolute error: 0.0194134993663942
Coverage of cases: 98.99257688229056
Instances selection time: 64.0
Test time: 99.0
Accumulative iteration time: 3224.0
Weighted Recall: 0.9729586426299046
Weighted FalsePositiveRate: 0.08999859764012613
Kappa statistic: 0.8187331333202675
Training time: 234.0
		
Iteration: 15
Labeled set size: 657
Unlabelled set size: 1229
	
Mean region size: 26.816012725344645
Incorrectly Classified Instances: 2.4390243902439024
Correctly Classified Instances: 97.5609756097561
Weighted Precision: 0.9777331409746101
Weighted AreaUnderROC: 0.9924541383246902
Root mean squared error: 0.0982441286277781
Relative absolute error: 4.51184111922755
Root relative squared error: 22.68850964381916
Weighted TruePositiveRate: 0.975609756097561
Weighted MatthewsCorrelation: 0.8753643954210819
Weighted FMeasure: 0.9764061785379419
Iteration time: 266.0
Weighted AreaUnderPRC: 0.9842952724267828
Mean absolute error: 0.016919404197103312
Coverage of cases: 99.04559915164369
Instances selection time: 64.0
Test time: 200.0
Accumulative iteration time: 3490.0
Weighted Recall: 0.975609756097561
Weighted FalsePositiveRate: 0.07082884313913751
Kappa statistic: 0.8370234557279239
Training time: 202.0
		
Iteration: 16
Labeled set size: 677
Unlabelled set size: 1209
	
Mean region size: 27.266702014846235
Incorrectly Classified Instances: 2.863202545068929
Correctly Classified Instances: 97.13679745493107
Weighted Precision: 0.9737786915700443
Weighted AreaUnderROC: 0.9917116707512097
Root mean squared error: 0.10632140138260987
Relative absolute error: 5.3733925505488225
Root relative squared error: 24.553875883547224
Weighted TruePositiveRate: 0.9713679745493107
Weighted MatthewsCorrelation: 0.8491211164872512
Weighted FMeasure: 0.9722912764381308
Iteration time: 316.0
Weighted AreaUnderPRC: 0.9839244710105268
Mean absolute error: 0.020150222064558083
Coverage of cases: 99.04559915164369
Instances selection time: 62.0
Test time: 100.0
Accumulative iteration time: 3806.0
Weighted Recall: 0.9713679745493107
Weighted FalsePositiveRate: 0.09642435215960507
Kappa statistic: 0.8080689296456273
Training time: 254.0
		
Iteration: 17
Labeled set size: 697
Unlabelled set size: 1189
	
Mean region size: 27.05461293743372
Incorrectly Classified Instances: 2.863202545068929
Correctly Classified Instances: 97.13679745493107
Weighted Precision: 0.9742175896698863
Weighted AreaUnderROC: 0.9915657842584228
Root mean squared error: 0.10484394281370794
Relative absolute error: 5.0353973391256535
Root relative squared error: 24.212671442558406
Weighted TruePositiveRate: 0.9713679745493107
Weighted MatthewsCorrelation: 0.8489670183910436
Weighted FMeasure: 0.9724676969692565
Iteration time: 343.0
Weighted AreaUnderPRC: 0.9833839392795409
Mean absolute error: 0.0188827400217212
Coverage of cases: 98.99257688229056
Instances selection time: 61.0
Test time: 100.0
Accumulative iteration time: 4149.0
Weighted Recall: 0.9713679745493107
Weighted FalsePositiveRate: 0.08371879629153584
Kappa statistic: 0.8110318620720365
Training time: 282.0
		
Iteration: 18
Labeled set size: 717
Unlabelled set size: 1169
	
Mean region size: 27.160657476139978
Incorrectly Classified Instances: 2.863202545068929
Correctly Classified Instances: 97.13679745493107
Weighted Precision: 0.9744471928085234
Weighted AreaUnderROC: 0.9916122315042103
Root mean squared error: 0.10542097647041172
Relative absolute error: 5.072837956322718
Root relative squared error: 24.345931657370166
Weighted TruePositiveRate: 0.9713679745493107
Weighted MatthewsCorrelation: 0.8515966261379558
Weighted FMeasure: 0.9726413917282694
Iteration time: 360.0
Weighted AreaUnderPRC: 0.9835683021260172
Mean absolute error: 0.01902314233621019
Coverage of cases: 98.99257688229056
Instances selection time: 60.0
Test time: 153.0
Accumulative iteration time: 4509.0
Weighted Recall: 0.9713679745493107
Weighted FalsePositiveRate: 0.0836903287778618
Kappa statistic: 0.8104875325641977
Training time: 300.0
		
Iteration: 19
Labeled set size: 737
Unlabelled set size: 1149
	
Mean region size: 27.09437963944857
Incorrectly Classified Instances: 2.863202545068929
Correctly Classified Instances: 97.13679745493107
Weighted Precision: 0.9745271762114346
Weighted AreaUnderROC: 0.9917838673134727
Root mean squared error: 0.1049317013458336
Relative absolute error: 5.058192713217523
Root relative squared error: 24.23293840741698
Weighted TruePositiveRate: 0.9713679745493107
Weighted MatthewsCorrelation: 0.8502122690288242
Weighted FMeasure: 0.9725552345748603
Iteration time: 343.0
Weighted AreaUnderPRC: 0.9837943130864026
Mean absolute error: 0.018968222674565712
Coverage of cases: 98.99257688229056
Instances selection time: 58.0
Test time: 98.0
Accumulative iteration time: 4852.0
Weighted Recall: 0.9713679745493107
Weighted FalsePositiveRate: 0.07738121605985179
Kappa statistic: 0.8121777233529309
Training time: 285.0
		
Iteration: 20
Labeled set size: 757
Unlabelled set size: 1129
	
Mean region size: 27.62460233297985
Incorrectly Classified Instances: 3.1283138918345705
Correctly Classified Instances: 96.87168610816543
Weighted Precision: 0.972032747106951
Weighted AreaUnderROC: 0.9885057611114814
Root mean squared error: 0.11158979499867654
Relative absolute error: 5.843211878007293
Root relative squared error: 25.770559272520423
Weighted TruePositiveRate: 0.9687168610816543
Weighted MatthewsCorrelation: 0.8394953581932568
Weighted FMeasure: 0.9697496946719704
Iteration time: 616.0
Weighted AreaUnderPRC: 0.9820861711112856
Mean absolute error: 0.021912044542527348
Coverage of cases: 99.04559915164369
Instances selection time: 56.0
Test time: 97.0
Accumulative iteration time: 5468.0
Weighted Recall: 0.9687168610816543
Weighted FalsePositiveRate: 0.10920151929258866
Kappa statistic: 0.788946801408109
Training time: 560.0
		
Iteration: 21
Labeled set size: 777
Unlabelled set size: 1109
	
Mean region size: 27.836691410392365
Incorrectly Classified Instances: 3.2343584305408273
Correctly Classified Instances: 96.76564156945918
Weighted Precision: 0.9700221748314671
Weighted AreaUnderROC: 0.9874929102879592
Root mean squared error: 0.11023170976927775
Relative absolute error: 5.9929394221282655
Root relative squared error: 25.456922923410083
Weighted TruePositiveRate: 0.9676564156945917
Weighted MatthewsCorrelation: 0.8295671383752253
Weighted FMeasure: 0.9681649854881663
Iteration time: 741.0
Weighted AreaUnderPRC: 0.9816071828012086
Mean absolute error: 0.022473522832980996
Coverage of cases: 99.15164369034994
Instances selection time: 54.0
Test time: 93.0
Accumulative iteration time: 6209.0
Weighted Recall: 0.9676564156945917
Weighted FalsePositiveRate: 0.12834389031518467
Kappa statistic: 0.778933695096596
Training time: 687.0
		
Iteration: 22
Labeled set size: 797
Unlabelled set size: 1089
	
Mean region size: 27.47879109225875
Incorrectly Classified Instances: 2.8101802757158008
Correctly Classified Instances: 97.1898197242842
Weighted Precision: 0.9743896314225994
Weighted AreaUnderROC: 0.9891283544197397
Root mean squared error: 0.10715468898481528
Relative absolute error: 5.491271159714281
Root relative squared error: 24.746315412125494
Weighted TruePositiveRate: 0.971898197242842
Weighted MatthewsCorrelation: 0.8573303213217215
Weighted FMeasure: 0.9724735976688973
Iteration time: 657.0
Weighted AreaUnderPRC: 0.9824566551291161
Mean absolute error: 0.020592266848928554
Coverage of cases: 98.93955461293743
Instances selection time: 53.0
Test time: 96.0
Accumulative iteration time: 6866.0
Weighted Recall: 0.971898197242842
Weighted FalsePositiveRate: 0.0964259987653836
Kappa statistic: 0.809747314406657
Training time: 604.0
		
Iteration: 23
Labeled set size: 817
Unlabelled set size: 1069
	
Mean region size: 27.651113467656415
Incorrectly Classified Instances: 2.9692470837751856
Correctly Classified Instances: 97.03075291622481
Weighted Precision: 0.9742679233420798
Weighted AreaUnderROC: 0.988896926898492
Root mean squared error: 0.10843907937003751
Relative absolute error: 5.704515358876308
Root relative squared error: 25.04293266598654
Weighted TruePositiveRate: 0.9703075291622482
Weighted MatthewsCorrelation: 0.8521406199190952
Weighted FMeasure: 0.9714467645817604
Iteration time: 800.0
Weighted AreaUnderPRC: 0.9826217128889302
Mean absolute error: 0.021391932595786155
Coverage of cases: 98.99257688229056
Instances selection time: 52.0
Test time: 96.0
Accumulative iteration time: 7666.0
Weighted Recall: 0.9703075291622482
Weighted FalsePositiveRate: 0.09011772990311928
Kappa statistic: 0.8015162164498587
Training time: 748.0
		
Iteration: 24
Labeled set size: 837
Unlabelled set size: 1049
	
Mean region size: 27.372746553552492
Incorrectly Classified Instances: 2.704135737009544
Correctly Classified Instances: 97.29586426299046
Weighted Precision: 0.97595752478107
Weighted AreaUnderROC: 0.989400784661367
Root mean squared error: 0.10609350666588202
Relative absolute error: 5.372818910825785
Root relative squared error: 24.501245853127337
Weighted TruePositiveRate: 0.9729586426299046
Weighted MatthewsCorrelation: 0.8675832176766116
Weighted FMeasure: 0.9737669663017534
Iteration time: 669.0
Weighted AreaUnderPRC: 0.9821198974869838
Mean absolute error: 0.020148070915596696
Coverage of cases: 98.99257688229056
Instances selection time: 51.0
Test time: 92.0
Accumulative iteration time: 8335.0
Weighted Recall: 0.9729586426299046
Weighted FalsePositiveRate: 0.08997398590850626
Kappa statistic: 0.8164017912020375
Training time: 618.0
		
Iteration: 25
Labeled set size: 857
Unlabelled set size: 1029
	
Mean region size: 27.372746553552492
Incorrectly Classified Instances: 2.863202545068929
Correctly Classified Instances: 97.13679745493107
Weighted Precision: 0.9752644068717273
Weighted AreaUnderROC: 0.988958148729782
Root mean squared error: 0.10827976173370069
Relative absolute error: 5.505570448503193
Root relative squared error: 25.006139833896253
Weighted TruePositiveRate: 0.9713679745493107
Weighted MatthewsCorrelation: 0.8574459248065597
Weighted FMeasure: 0.9725014495296657
Iteration time: 735.0
Weighted AreaUnderPRC: 0.9829442010045442
Mean absolute error: 0.020645889181886975
Coverage of cases: 98.8865323435843
Instances selection time: 50.0
Test time: 92.0
Accumulative iteration time: 9070.0
Weighted Recall: 0.9713679745493107
Weighted FalsePositiveRate: 0.09638454272563464
Kappa statistic: 0.8062269779901973
Training time: 685.0
		
Iteration: 26
Labeled set size: 877
Unlabelled set size: 1009
	
Mean region size: 27.332979851537647
Incorrectly Classified Instances: 2.8101802757158008
Correctly Classified Instances: 97.1898197242842
Weighted Precision: 0.9747033680936968
Weighted AreaUnderROC: 0.9889845352355491
Root mean squared error: 0.10807377926649757
Relative absolute error: 5.496507398881948
Root relative squared error: 24.958570220741027
Weighted TruePositiveRate: 0.971898197242842
Weighted MatthewsCorrelation: 0.8583967736643922
Weighted FMeasure: 0.9725663536674806
Iteration time: 1002.0
Weighted AreaUnderPRC: 0.9823419496923211
Mean absolute error: 0.020611902745807303
Coverage of cases: 98.83351007423117
Instances selection time: 48.0
Test time: 91.0
Accumulative iteration time: 10072.0
Weighted Recall: 0.971898197242842
Weighted FalsePositiveRate: 0.09008841853369957
Kappa statistic: 0.8109305369559131
Training time: 954.0
		
Iteration: 27
Labeled set size: 897
Unlabelled set size: 989
	
Mean region size: 27.386002120890772
Incorrectly Classified Instances: 2.651113467656416
Correctly Classified Instances: 97.34888653234358
Weighted Precision: 0.9765586855367748
Weighted AreaUnderROC: 0.9898689891928345
Root mean squared error: 0.10518729877799816
Relative absolute error: 5.272461699619636
Root relative squared error: 24.291966105922736
Weighted TruePositiveRate: 0.9734888653234358
Weighted MatthewsCorrelation: 0.8715913460234435
Weighted FMeasure: 0.9741462756084175
Iteration time: 778.0
Weighted AreaUnderPRC: 0.9833907121432262
Mean absolute error: 0.019771731373573635
Coverage of cases: 98.99257688229056
Instances selection time: 48.0
Test time: 91.0
Accumulative iteration time: 10850.0
Weighted Recall: 0.9734888653234358
Weighted FalsePositiveRate: 0.08365132209392423
Kappa statistic: 0.820514967871608
Training time: 730.0
		
Iteration: 28
Labeled set size: 917
Unlabelled set size: 969
	
Mean region size: 27.35949098621421
Incorrectly Classified Instances: 2.757158006362672
Correctly Classified Instances: 97.24284199363733
Weighted Precision: 0.9765973409370439
Weighted AreaUnderROC: 0.9893016387579678
Root mean squared error: 0.10899358407192263
Relative absolute error: 5.470504985398244
Root relative squared error: 25.170990041546656
Weighted TruePositiveRate: 0.9724284199363733
Weighted MatthewsCorrelation: 0.8649142517253938
Weighted FMeasure: 0.9737217761042096
Iteration time: 754.0
Weighted AreaUnderPRC: 0.9824867183966631
Mean absolute error: 0.020514393695243417
Coverage of cases: 98.93955461293743
Instances selection time: 45.0
Test time: 89.0
Accumulative iteration time: 11604.0
Weighted Recall: 0.9724284199363733
Weighted FalsePositiveRate: 0.08996099738243135
Kappa statistic: 0.813437832902146
Training time: 709.0
		
Iteration: 29
Labeled set size: 937
Unlabelled set size: 949
	
Mean region size: 27.319724284199363
Incorrectly Classified Instances: 2.863202545068929
Correctly Classified Instances: 97.13679745493107
Weighted Precision: 0.9755704847343821
Weighted AreaUnderROC: 0.9888131234527251
Root mean squared error: 0.10850089521517922
Relative absolute error: 5.4672172197298545
Root relative squared error: 25.057208423919644
Weighted TruePositiveRate: 0.9713679745493107
Weighted MatthewsCorrelation: 0.8585095849084401
Weighted FMeasure: 0.972592830120237
Iteration time: 732.0
Weighted AreaUnderPRC: 0.9823795307569619
Mean absolute error: 0.020502064573986956
Coverage of cases: 98.83351007423117
Instances selection time: 46.0
Test time: 88.0
Accumulative iteration time: 12336.0
Weighted Recall: 0.9713679745493107
Weighted FalsePositiveRate: 0.0900469624939506
Kappa statistic: 0.8074316658851288
Training time: 686.0
		
Iteration: 30
Labeled set size: 957
Unlabelled set size: 929
	
Mean region size: 27.35949098621421
Incorrectly Classified Instances: 2.8101802757158008
Correctly Classified Instances: 97.1898197242842
Weighted Precision: 0.9749336380247663
Weighted AreaUnderROC: 0.9890916972123261
Root mean squared error: 0.10761273118112721
Relative absolute error: 5.4106449962157415
Root relative squared error: 24.85209572626185
Weighted TruePositiveRate: 0.971898197242842
Weighted MatthewsCorrelation: 0.860181451030577
Weighted FMeasure: 0.9725748447998539
Iteration time: 896.0
Weighted AreaUnderPRC: 0.9826807895907809
Mean absolute error: 0.020289918735809032
Coverage of cases: 98.99257688229056
Instances selection time: 43.0
Test time: 87.0
Accumulative iteration time: 13232.0
Weighted Recall: 0.971898197242842
Weighted FalsePositiveRate: 0.09641272895406013
Kappa statistic: 0.8091486745534111
Training time: 853.0
		
Iteration: 31
Labeled set size: 977
Unlabelled set size: 909
	
Mean region size: 27.452279957582185
Incorrectly Classified Instances: 2.757158006362672
Correctly Classified Instances: 97.24284199363733
Weighted Precision: 0.975575014016181
Weighted AreaUnderROC: 0.9893155964931423
Root mean squared error: 0.10615966636581778
Relative absolute error: 5.414258587438667
Root relative squared error: 24.516524781354303
Weighted TruePositiveRate: 0.9724284199363733
Weighted MatthewsCorrelation: 0.8652608121259731
Weighted FMeasure: 0.9731906731938872
Iteration time: 925.0
Weighted AreaUnderPRC: 0.9829720511637731
Mean absolute error: 0.020303469702895
Coverage of cases: 98.93955461293743
Instances selection time: 42.0
Test time: 86.0
Accumulative iteration time: 14157.0
Weighted Recall: 0.9724284199363733
Weighted FalsePositiveRate: 0.08369362198941886
Kappa statistic: 0.8145140241711273
Training time: 883.0
		
Iteration: 32
Labeled set size: 997
Unlabelled set size: 889
	
Mean region size: 27.412513255567337
Incorrectly Classified Instances: 2.757158006362672
Correctly Classified Instances: 97.24284199363733
Weighted Precision: 0.9754679583465299
Weighted AreaUnderROC: 0.9894499233739821
Root mean squared error: 0.10487593678936814
Relative absolute error: 5.312723080128536
Root relative squared error: 24.22006013474235
Weighted TruePositiveRate: 0.9724284199363733
Weighted MatthewsCorrelation: 0.8678095542370652
Weighted FMeasure: 0.9730591148151677
Iteration time: 977.0
Weighted AreaUnderPRC: 0.9827535089161397
Mean absolute error: 0.01992271155048201
Coverage of cases: 98.93955461293743
Instances selection time: 42.0
Test time: 95.0
Accumulative iteration time: 15134.0
Weighted Recall: 0.9724284199363733
Weighted FalsePositiveRate: 0.08369362198941886
Kappa statistic: 0.8139178348348122
Training time: 935.0
		
Iteration: 33
Labeled set size: 1017
Unlabelled set size: 869
	
Mean region size: 27.213679745493106
Incorrectly Classified Instances: 2.704135737009544
Correctly Classified Instances: 97.29586426299046
Weighted Precision: 0.9759168487385728
Weighted AreaUnderROC: 0.9892049511995322
Root mean squared error: 0.106735548184427
Relative absolute error: 5.283989630683367
Root relative squared error: 24.64951899055248
Weighted TruePositiveRate: 0.9729586426299046
Weighted MatthewsCorrelation: 0.867469351310209
Weighted FMeasure: 0.973593486052028
Iteration time: 907.0
Weighted AreaUnderPRC: 0.9823920920181567
Mean absolute error: 0.019814961115062625
Coverage of cases: 98.93955461293743
Instances selection time: 40.0
Test time: 86.0
Accumulative iteration time: 16041.0
Weighted Recall: 0.9729586426299046
Weighted FalsePositiveRate: 0.09001765112453088
Kappa statistic: 0.8163506113627167
Training time: 867.0
		
Iteration: 34
Labeled set size: 1037
Unlabelled set size: 849
	
Mean region size: 27.27995758218452
Incorrectly Classified Instances: 2.651113467656416
Correctly Classified Instances: 97.34888653234358
Weighted Precision: 0.9768960705641918
Weighted AreaUnderROC: 0.989197795283849
Root mean squared error: 0.10610374536095636
Relative absolute error: 5.302807818896864
Root relative squared error: 24.503610378470263
Weighted TruePositiveRate: 0.9734888653234358
Weighted MatthewsCorrelation: 0.871787051589932
Weighted FMeasure: 0.9743440363930657
Iteration time: 926.0
Weighted AreaUnderPRC: 0.9828524130242935
Mean absolute error: 0.019885529320863238
Coverage of cases: 98.93955461293743
Instances selection time: 39.0
Test time: 84.0
Accumulative iteration time: 16967.0
Weighted Recall: 0.9734888653234358
Weighted FalsePositiveRate: 0.08362285458025019
Kappa statistic: 0.8205477575130162
Training time: 887.0
		
Iteration: 35
Labeled set size: 1057
Unlabelled set size: 829
	
Mean region size: 27.319724284199363
Incorrectly Classified Instances: 2.8101802757158008
Correctly Classified Instances: 97.1898197242842
Weighted Precision: 0.9755710112937086
Weighted AreaUnderROC: 0.9891784408281584
Root mean squared error: 0.10839803680106176
Relative absolute error: 5.448518656343939
Root relative squared error: 25.033454290687988
Weighted TruePositiveRate: 0.971898197242842
Weighted MatthewsCorrelation: 0.8623736719226219
Weighted FMeasure: 0.9729221188586078
Iteration time: 912.0
Weighted AreaUnderPRC: 0.9822922594392851
Mean absolute error: 0.02043194496128977
Coverage of cases: 98.8865323435843
Instances selection time: 37.0
Test time: 86.0
Accumulative iteration time: 17879.0
Weighted Recall: 0.971898197242842
Weighted FalsePositiveRate: 0.08369390327466741
Kappa statistic: 0.8115671008728108
Training time: 875.0
		
Iteration: 36
Labeled set size: 1077
Unlabelled set size: 809
	
Mean region size: 27.27995758218452
Incorrectly Classified Instances: 2.704135737009544
Correctly Classified Instances: 97.29586426299046
Weighted Precision: 0.9761661077355601
Weighted AreaUnderROC: 0.9895804982502415
Root mean squared error: 0.10747575254245836
Relative absolute error: 5.403378073476676
Root relative squared error: 24.820461864698377
Weighted TruePositiveRate: 0.9729586426299046
Weighted MatthewsCorrelation: 0.8702810765496448
Weighted FMeasure: 0.9736567008848607
Iteration time: 878.0
Weighted AreaUnderPRC: 0.9824395763143114
Mean absolute error: 0.020262667775537535
Coverage of cases: 98.93955461293743
Instances selection time: 36.0
Test time: 86.0
Accumulative iteration time: 18757.0
Weighted Recall: 0.9729586426299046
Weighted FalsePositiveRate: 0.08998918361085684
Kappa statistic: 0.8157885665038787
Training time: 842.0
		
Iteration: 37
Labeled set size: 1097
Unlabelled set size: 789
	
Mean region size: 27.332979851537647
Incorrectly Classified Instances: 2.757158006362672
Correctly Classified Instances: 97.24284199363733
Weighted Precision: 0.9754679583465299
Weighted AreaUnderROC: 0.988843291454167
Root mean squared error: 0.1070838415525822
Relative absolute error: 5.447974796300131
Root relative squared error: 24.729953898497026
Weighted TruePositiveRate: 0.9724284199363733
Weighted MatthewsCorrelation: 0.8678095542370652
Weighted FMeasure: 0.9730591148151677
Iteration time: 755.0
Weighted AreaUnderPRC: 0.9826562377179702
Mean absolute error: 0.020429905486125492
Coverage of cases: 98.93955461293743
Instances selection time: 40.0
Test time: 87.0
Accumulative iteration time: 19512.0
Weighted Recall: 0.9724284199363733
Weighted FalsePositiveRate: 0.08369362198941886
Kappa statistic: 0.8139178348348122
Training time: 715.0
		
Iteration: 38
Labeled set size: 1117
Unlabelled set size: 769
	
Mean region size: 27.412513255567337
Incorrectly Classified Instances: 2.9692470837751856
Correctly Classified Instances: 97.03075291622481
Weighted Precision: 0.9745053039505783
Weighted AreaUnderROC: 0.9889511709796938
Root mean squared error: 0.10911233514852098
Relative absolute error: 5.556199136331739
Root relative squared error: 25.198414427962902
Weighted TruePositiveRate: 0.9703075291622482
Weighted MatthewsCorrelation: 0.8547132409365062
Weighted FMeasure: 0.9713464510140526
Iteration time: 1002.0
Weighted AreaUnderPRC: 0.9830280119487836
Mean absolute error: 0.020835746761244025
Coverage of cases: 98.8865323435843
Instances selection time: 34.0
Test time: 82.0
Accumulative iteration time: 20514.0
Weighted Recall: 0.9703075291622482
Weighted FalsePositiveRate: 0.09013292760546986
Kappa statistic: 0.80086354808907
Training time: 968.0
		
Iteration: 39
Labeled set size: 1137
Unlabelled set size: 749
	
Mean region size: 27.332979851537647
Incorrectly Classified Instances: 2.916224814422057
Correctly Classified Instances: 97.08377518557795
Weighted Precision: 0.97417386980705
Weighted AreaUnderROC: 0.9896213683122506
Root mean squared error: 0.10654831017567197
Relative absolute error: 5.4174579668650225
Root relative squared error: 24.606278224649582
Weighted TruePositiveRate: 0.9708377518557795
Weighted MatthewsCorrelation: 0.8566054797395638
Weighted FMeasure: 0.9716834365329274
Iteration time: 909.0
Weighted AreaUnderPRC: 0.9824383826198496
Mean absolute error: 0.020315467375743832
Coverage of cases: 98.99257688229056
Instances selection time: 33.0
Test time: 81.0
Accumulative iteration time: 21423.0
Weighted Recall: 0.9708377518557795
Weighted FalsePositiveRate: 0.09642656133588072
Kappa statistic: 0.8026025332643184
Training time: 876.0
		
Iteration: 40
Labeled set size: 1157
Unlabelled set size: 729
	
Mean region size: 27.306468716861083
Incorrectly Classified Instances: 2.757158006362672
Correctly Classified Instances: 97.24284199363733
Weighted Precision: 0.9760170585145586
Weighted AreaUnderROC: 0.9894974747230924
Root mean squared error: 0.10584529584975867
Relative absolute error: 5.30489526773633
Root relative squared error: 24.4439240205255
Weighted TruePositiveRate: 0.9724284199363733
Weighted MatthewsCorrelation: 0.8707127844033129
Weighted FMeasure: 0.9732588744189052
Iteration time: 579.0
Weighted AreaUnderPRC: 0.9824885672277515
Mean absolute error: 0.01989335725401124
Coverage of cases: 98.8865323435843
Instances selection time: 32.0
Test time: 82.0
Accumulative iteration time: 22002.0
Weighted Recall: 0.9724284199363733
Weighted FalsePositiveRate: 0.08368035217809539
Kappa statistic: 0.813351908312684
Training time: 547.0
		
Iteration: 41
Labeled set size: 1177
Unlabelled set size: 709
	
Mean region size: 27.253446447507955
Incorrectly Classified Instances: 2.863202545068929
Correctly Classified Instances: 97.13679745493107
Weighted Precision: 0.9751530866751091
Weighted AreaUnderROC: 0.9894866079604384
Root mean squared error: 0.10781842085023233
Relative absolute error: 5.388084633923541
Root relative squared error: 24.899597720592798
Weighted TruePositiveRate: 0.9713679745493107
Weighted MatthewsCorrelation: 0.8609511167814959
Weighted FMeasure: 0.9724338324446291
Iteration time: 1459.0
Weighted AreaUnderPRC: 0.9828973471013902
Mean absolute error: 0.020205317377213282
Coverage of cases: 99.04559915164369
Instances selection time: 31.0
Test time: 80.0
Accumulative iteration time: 23461.0
Weighted Recall: 0.9713679745493107
Weighted FalsePositiveRate: 0.09003176479160002
Kappa statistic: 0.8068312001638758
Training time: 1428.0
		
Iteration: 42
Labeled set size: 1197
Unlabelled set size: 689
	
Mean region size: 27.2932131495228
Incorrectly Classified Instances: 2.757158006362672
Correctly Classified Instances: 97.24284199363733
Weighted Precision: 0.9758224530317698
Weighted AreaUnderROC: 0.9892549188785387
Root mean squared error: 0.1069039369710387
Relative absolute error: 5.357166802609032
Root relative squared error: 24.688406715063994
Weighted TruePositiveRate: 0.9724284199363733
Weighted MatthewsCorrelation: 0.867106757367255
Weighted FMeasure: 0.9731912886481056
Iteration time: 1009.0
Weighted AreaUnderPRC: 0.9828638522424368
Mean absolute error: 0.020089375509783867
Coverage of cases: 98.83351007423117
Instances selection time: 30.0
Test time: 81.0
Accumulative iteration time: 24470.0
Weighted Recall: 0.9724284199363733
Weighted FalsePositiveRate: 0.09001793240977943
Kappa statistic: 0.8127660874313186
Training time: 979.0
		
Iteration: 43
Labeled set size: 1217
Unlabelled set size: 669
	
Mean region size: 27.332979851537647
Incorrectly Classified Instances: 2.916224814422057
Correctly Classified Instances: 97.08377518557795
Weighted Precision: 0.974619102578131
Weighted AreaUnderROC: 0.9894264468340492
Root mean squared error: 0.10833701477320273
Relative absolute error: 5.4781120444259415
Root relative squared error: 25.019361857003627
Weighted TruePositiveRate: 0.9708377518557795
Weighted MatthewsCorrelation: 0.8532796584503944
Weighted FMeasure: 0.9719434071491785
Iteration time: 1130.0
Weighted AreaUnderPRC: 0.9825298910558473
Mean absolute error: 0.02054292016659728
Coverage of cases: 98.99257688229056
Instances selection time: 29.0
Test time: 79.0
Accumulative iteration time: 25600.0
Weighted Recall: 0.9708377518557795
Weighted FalsePositiveRate: 0.10275087175624129
Kappa statistic: 0.8020193151887623
Training time: 1101.0
		
Iteration: 44
Labeled set size: 1237
Unlabelled set size: 649
	
Mean region size: 27.266702014846235
Incorrectly Classified Instances: 2.863202545068929
Correctly Classified Instances: 97.13679745493107
Weighted Precision: 0.9741698014506005
Weighted AreaUnderROC: 0.9890992449600191
Root mean squared error: 0.10743806617597412
Relative absolute error: 5.3976536349782185
Root relative squared error: 24.811758571164596
Weighted TruePositiveRate: 0.9713679745493107
Weighted MatthewsCorrelation: 0.8603776049392895
Weighted FMeasure: 0.9718529289444078
Iteration time: 985.0
Weighted AreaUnderPRC: 0.9826584870634653
Mean absolute error: 0.02024120113116832
Coverage of cases: 98.93955461293743
Instances selection time: 29.0
Test time: 79.0
Accumulative iteration time: 26585.0
Weighted Recall: 0.9713679745493107
Weighted FalsePositiveRate: 0.09011716733262216
Kappa statistic: 0.8067256234106347
Training time: 956.0
		
Iteration: 45
Labeled set size: 1257
Unlabelled set size: 629
	
Mean region size: 27.306468716861083
Incorrectly Classified Instances: 2.863202545068929
Correctly Classified Instances: 97.13679745493107
Weighted Precision: 0.9744919121275947
Weighted AreaUnderROC: 0.9894207115159527
Root mean squared error: 0.10772534779849033
Relative absolute error: 5.46000257950114
Root relative squared error: 24.878103420001782
Weighted TruePositiveRate: 0.9713679745493107
Weighted MatthewsCorrelation: 0.8605663625588426
Weighted FMeasure: 0.9720447452801616
Iteration time: 994.0
Weighted AreaUnderPRC: 0.982817033962787
Mean absolute error: 0.020475009673129273
Coverage of cases: 99.04559915164369
Instances selection time: 27.0
Test time: 78.0
Accumulative iteration time: 27579.0
Weighted Recall: 0.9713679745493107
Weighted FalsePositiveRate: 0.09008869981894813
Kappa statistic: 0.8067608284823046
Training time: 967.0
		
Iteration: 46
Labeled set size: 1277
Unlabelled set size: 609
	
Mean region size: 27.2932131495228
Incorrectly Classified Instances: 2.916224814422057
Correctly Classified Instances: 97.08377518557795
Weighted Precision: 0.9749244275865087
Weighted AreaUnderROC: 0.9889858383056512
Root mean squared error: 0.1091497888237751
Relative absolute error: 5.501982250970602
Root relative squared error: 25.207063983758943
Weighted TruePositiveRate: 0.9708377518557795
Weighted MatthewsCorrelation: 0.8543502219080003
Weighted FMeasure: 0.9720378970784698
Iteration time: 1089.0
Weighted AreaUnderPRC: 0.9824096860367572
Mean absolute error: 0.020632433441139755
Coverage of cases: 98.8865323435843
Instances selection time: 27.0
Test time: 78.0
Accumulative iteration time: 28668.0
Weighted Recall: 0.9708377518557795
Weighted FalsePositiveRate: 0.09641329152455724
Kappa statistic: 0.8032540001669111
Training time: 1062.0
		
Time end:Mon Nov 27 16.19.02 EET 2017