Mon Nov 27 16.12.51 EET 2017
Dataset: hypothyroid
Test set size: 1886
Initial Labelled set size: 377
Initial Unlabelled set size: 1509
Batch mode: QBestBatchMode
Batch size: 20
Classifiers: SMOsync-1cores
Scenario: PoolBasedSamplingScenario
Query strategy: LeastConfidentSamplingQueryStrategy-1cores
Time begining: Mon Nov 27 16.12.51 EET 2017
		
Iteration: 1
Labeled set size: 377
Unlabelled set size: 1509
	
Mean region size: 27.637857900318135
Incorrectly Classified Instances: 4.453870625662779
Correctly Classified Instances: 95.54612937433723
Weighted Precision: 0.9521121846569648
Weighted AreaUnderROC: 0.9671142760882077
Root mean squared error: 0.136144832219778
Relative absolute error: 7.659067176558814
Root relative squared error: 31.441302212346105
Weighted TruePositiveRate: 0.9554612937433722
Weighted MatthewsCorrelation: 0.7084580860340373
Weighted FMeasure: 0.9535117315385934
Iteration time: 180.0
Weighted AreaUnderPRC: 0.9698582220456594
Mean absolute error: 0.028721501912095552
Coverage of cases: 98.03817603393425
Instances selection time: 52.0
Test time: 67.0
Accumulative iteration time: 180.0
Weighted Recall: 0.9554612937433722
Weighted FalsePositiveRate: 0.29386760125521183
Kappa statistic: 0.6706498690283145
Training time: 128.0
		
Iteration: 2
Labeled set size: 397
Unlabelled set size: 1489
	
Mean region size: 27.028101802757156
Incorrectly Classified Instances: 4.3478260869565215
Correctly Classified Instances: 95.65217391304348
Weighted Precision: 0.954360597432657
Weighted AreaUnderROC: 0.9711929012352397
Root mean squared error: 0.1337379807909786
Relative absolute error: 6.920539675300201
Root relative squared error: 30.8854636842194
Weighted TruePositiveRate: 0.9565217391304348
Weighted MatthewsCorrelation: 0.7199769492829095
Weighted FMeasure: 0.9553361447145559
Iteration time: 158.0
Weighted AreaUnderPRC: 0.9701649544004691
Mean absolute error: 0.025952023782375756
Coverage of cases: 97.72004241781548
Instances selection time: 63.0
Test time: 89.0
Accumulative iteration time: 338.0
Weighted Recall: 0.9565217391304348
Weighted FalsePositiveRate: 0.2620158185824924
Kappa statistic: 0.6882745164437353
Training time: 95.0
		
Iteration: 3
Labeled set size: 417
Unlabelled set size: 1469
	
Mean region size: 27.372746553552492
Incorrectly Classified Instances: 3.711558854718982
Correctly Classified Instances: 96.28844114528101
Weighted Precision: 0.9648974887432636
Weighted AreaUnderROC: 0.9799158920856775
Root mean squared error: 0.12226390289195664
Relative absolute error: 6.341568775727414
Root relative squared error: 28.235638898738173
Weighted TruePositiveRate: 0.9628844114528102
Weighted MatthewsCorrelation: 0.7913892144616228
Weighted FMeasure: 0.9636757603511587
Iteration time: 172.0
Weighted AreaUnderPRC: 0.9767664463544198
Mean absolute error: 0.023780882908977806
Coverage of cases: 98.46235418875928
Instances selection time: 63.0
Test time: 175.0
Accumulative iteration time: 510.0
Weighted Recall: 0.9628844114528102
Weighted FalsePositiveRate: 0.13488883295703916
Kappa statistic: 0.7550240299864543
Training time: 109.0
		
Iteration: 4
Labeled set size: 437
Unlabelled set size: 1449
	
Mean region size: 27.42576882290562
Incorrectly Classified Instances: 3.2343584305408273
Correctly Classified Instances: 96.76564156945918
Weighted Precision: 0.9706758283253216
Weighted AreaUnderROC: 0.9817641905081249
Root mean squared error: 0.11710355669387461
Relative absolute error: 6.375842962531219
Root relative squared error: 27.043907992108444
Weighted TruePositiveRate: 0.9676564156945917
Weighted MatthewsCorrelation: 0.8189284578873165
Weighted FMeasure: 0.9687602330775061
Iteration time: 246.0
Weighted AreaUnderPRC: 0.9740411732650522
Mean absolute error: 0.02390941110949207
Coverage of cases: 98.40933191940616
Instances selection time: 72.0
Test time: 136.0
Accumulative iteration time: 756.0
Weighted Recall: 0.9676564156945917
Weighted FalsePositiveRate: 0.09648303075782691
Kappa statistic: 0.7906061620897521
Training time: 174.0
		
Iteration: 5
Labeled set size: 457
Unlabelled set size: 1429
	
Mean region size: 27.61134676564157
Incorrectly Classified Instances: 2.8101802757158008
Correctly Classified Instances: 97.1898197242842
Weighted Precision: 0.9732744729731289
Weighted AreaUnderROC: 0.9843787030859328
Root mean squared error: 0.11005540295813686
Relative absolute error: 5.918758774332613
Root relative squared error: 25.416206609461224
Weighted TruePositiveRate: 0.971898197242842
Weighted MatthewsCorrelation: 0.8391501635875446
Weighted FMeasure: 0.9724013412250834
Iteration time: 191.0
Weighted AreaUnderPRC: 0.9802995721775707
Mean absolute error: 0.022195345403747298
Coverage of cases: 98.72746553552491
Instances selection time: 69.0
Test time: 100.0
Accumulative iteration time: 947.0
Weighted Recall: 0.971898197242842
Weighted FalsePositiveRate: 0.0964354127946529
Kappa statistic: 0.8139679443753769
Training time: 122.0
		
Iteration: 6
Labeled set size: 477
Unlabelled set size: 1409
	
Mean region size: 27.92948038176034
Incorrectly Classified Instances: 3.2343584305408273
Correctly Classified Instances: 96.76564156945918
Weighted Precision: 0.9776379840770565
Weighted AreaUnderROC: 0.9853653990471245
Root mean squared error: 0.11621238186572122
Relative absolute error: 6.564913338429078
Root relative squared error: 26.838099981336693
Weighted TruePositiveRate: 0.9676564156945917
Weighted MatthewsCorrelation: 0.8422229642528609
Weighted FMeasure: 0.9717988746410413
Iteration time: 238.0
Weighted AreaUnderPRC: 0.9810711894034119
Mean absolute error: 0.024618425019109044
Coverage of cases: 98.62142099681867
Instances selection time: 71.0
Test time: 96.0
Accumulative iteration time: 1185.0
Weighted Recall: 0.9676564156945917
Weighted FalsePositiveRate: 0.04561180924817643
Kappa statistic: 0.797968551890785
Training time: 167.0
		
Iteration: 7
Labeled set size: 497
Unlabelled set size: 1389
	
Mean region size: 27.717391304347824
Incorrectly Classified Instances: 3.499469777306469
Correctly Classified Instances: 96.50053022269353
Weighted Precision: 0.9714431451567208
Weighted AreaUnderROC: 0.9819110409701938
Root mean squared error: 0.11940182241418934
Relative absolute error: 6.540506989249555
Root relative squared error: 27.574669725025647
Weighted TruePositiveRate: 0.9650053022269353
Weighted MatthewsCorrelation: 0.8156477814888891
Weighted FMeasure: 0.9678074542930276
Iteration time: 244.0
Weighted AreaUnderPRC: 0.9768833883111607
Mean absolute error: 0.02452690120968583
Coverage of cases: 98.62142099681867
Instances selection time: 71.0
Test time: 98.0
Accumulative iteration time: 1429.0
Weighted Recall: 0.9650053022269353
Weighted FalsePositiveRate: 0.0965681372599309
Kappa statistic: 0.7740833638848452
Training time: 173.0
		
Iteration: 8
Labeled set size: 517
Unlabelled set size: 1369
	
Mean region size: 27.584835630965006
Incorrectly Classified Instances: 2.704135737009544
Correctly Classified Instances: 97.29586426299046
Weighted Precision: 0.9747668292215412
Weighted AreaUnderROC: 0.9861283855467001
Root mean squared error: 0.10464194887907628
Relative absolute error: 5.499255674204856
Root relative squared error: 24.1660229415447
Weighted TruePositiveRate: 0.9729586426299046
Weighted MatthewsCorrelation: 0.8618903825859171
Weighted FMeasure: 0.9736791215644126
Iteration time: 250.0
Weighted AreaUnderPRC: 0.9811600128784035
Mean absolute error: 0.02062220877826821
Coverage of cases: 98.8865323435843
Instances selection time: 65.0
Test time: 96.0
Accumulative iteration time: 1679.0
Weighted Recall: 0.9729586426299046
Weighted FalsePositiveRate: 0.08997013012645208
Kappa statistic: 0.8176188399476672
Training time: 185.0
		
Iteration: 9
Labeled set size: 537
Unlabelled set size: 1349
	
Mean region size: 27.346235418875928
Incorrectly Classified Instances: 2.545068928950159
Correctly Classified Instances: 97.45493107104984
Weighted Precision: 0.9763210633057252
Weighted AreaUnderROC: 0.9872713115155776
Root mean squared error: 0.10297389589290298
Relative absolute error: 5.223102671752816
Root relative squared error: 23.780802605308818
Weighted TruePositiveRate: 0.9745493107104984
Weighted MatthewsCorrelation: 0.8654247824898901
Weighted FMeasure: 0.9752775146473474
Iteration time: 240.0
Weighted AreaUnderPRC: 0.9825023866774842
Mean absolute error: 0.01958663501907306
Coverage of cases: 98.8865323435843
Instances selection time: 70.0
Test time: 100.0
Accumulative iteration time: 1919.0
Weighted Recall: 0.9745493107104984
Weighted FalsePositiveRate: 0.07722199307763966
Kappa statistic: 0.8304941299829612
Training time: 170.0
		
Iteration: 10
Labeled set size: 557
Unlabelled set size: 1329
	
Mean region size: 27.584835630965006
Incorrectly Classified Instances: 2.5980911983032873
Correctly Classified Instances: 97.4019088016967
Weighted Precision: 0.9755418621863933
Weighted AreaUnderROC: 0.9866927007391563
Root mean squared error: 0.1043610469804225
Relative absolute error: 5.460038411258588
Root relative squared error: 24.101151426823247
Weighted TruePositiveRate: 0.9740190880169671
Weighted MatthewsCorrelation: 0.8576741001375778
Weighted FMeasure: 0.9746900708070154
Iteration time: 236.0
Weighted AreaUnderPRC: 0.9821508348261738
Mean absolute error: 0.020475144042219708
Coverage of cases: 99.04559915164369
Instances selection time: 66.0
Test time: 99.0
Accumulative iteration time: 2155.0
Weighted Recall: 0.9740190880169671
Weighted FalsePositiveRate: 0.08992590233993036
Kappa statistic: 0.8259072550260723
Training time: 170.0
		
Iteration: 11
Labeled set size: 577
Unlabelled set size: 1309
	
Mean region size: 27.213679745493106
Incorrectly Classified Instances: 2.4920466595970305
Correctly Classified Instances: 97.50795334040296
Weighted Precision: 0.9769783717570694
Weighted AreaUnderROC: 0.9876514691195792
Root mean squared error: 0.10172718207192703
Relative absolute error: 5.017522726125811
Root relative squared error: 23.492886381251658
Weighted TruePositiveRate: 0.9750795334040296
Weighted MatthewsCorrelation: 0.8712587708818279
Weighted FMeasure: 0.9759353105564785
Iteration time: 473.0
Weighted AreaUnderPRC: 0.9827160026256326
Mean absolute error: 0.01881571022297179
Coverage of cases: 98.93955461293743
Instances selection time: 71.0
Test time: 107.0
Accumulative iteration time: 2628.0
Weighted Recall: 0.9750795334040296
Weighted FalsePositiveRate: 0.07716477676504302
Kappa statistic: 0.8330275505860101
Training time: 402.0
		
Iteration: 12
Labeled set size: 597
Unlabelled set size: 1289
	
Mean region size: 27.014846235418876
Incorrectly Classified Instances: 2.4390243902439024
Correctly Classified Instances: 97.5609756097561
Weighted Precision: 0.977681901943447
Weighted AreaUnderROC: 0.9884461558925753
Root mean squared error: 0.1004577307399295
Relative absolute error: 4.761578832150908
Root relative squared error: 23.1997191539509
Weighted TruePositiveRate: 0.975609756097561
Weighted MatthewsCorrelation: 0.8667183461433978
Weighted FMeasure: 0.9765478681097449
Iteration time: 316.0
Weighted AreaUnderPRC: 0.9840034473252529
Mean absolute error: 0.017855920620565905
Coverage of cases: 98.99257688229056
Instances selection time: 73.0
Test time: 113.0
Accumulative iteration time: 2944.0
Weighted Recall: 0.975609756097561
Weighted FalsePositiveRate: 0.07713602796612042
Kappa statistic: 0.8376164682012329
Training time: 243.0
		
Iteration: 13
Labeled set size: 617
Unlabelled set size: 1269
	
Mean region size: 27.028101802757156
Incorrectly Classified Instances: 2.3329798515376456
Correctly Classified Instances: 97.66702014846236
Weighted Precision: 0.9776893044067531
Weighted AreaUnderROC: 0.9889753305021328
Root mean squared error: 0.09891585114800262
Relative absolute error: 4.678087153794654
Root relative squared error: 22.84363731496811
Weighted TruePositiveRate: 0.9766702014846236
Weighted MatthewsCorrelation: 0.8724516174405158
Weighted FMeasure: 0.9770851346553315
Iteration time: 311.0
Weighted AreaUnderPRC: 0.98433753564334
Mean absolute error: 0.017542826826729953
Coverage of cases: 98.99257688229056
Instances selection time: 73.0
Test time: 113.0
Accumulative iteration time: 3255.0
Weighted Recall: 0.9766702014846236
Weighted FalsePositiveRate: 0.0771354653956233
Kappa statistic: 0.8436582728255835
Training time: 238.0
		
Iteration: 14
Labeled set size: 637
Unlabelled set size: 1249
	
Mean region size: 27.028101802757156
Incorrectly Classified Instances: 2.3329798515376456
Correctly Classified Instances: 97.66702014846236
Weighted Precision: 0.9774626063832482
Weighted AreaUnderROC: 0.988712293476193
Root mean squared error: 0.10016196608145447
Relative absolute error: 4.73949443579285
Root relative squared error: 23.131415231875966
Weighted TruePositiveRate: 0.9766702014846236
Weighted MatthewsCorrelation: 0.8714620472314601
Weighted FMeasure: 0.9770071468236613
Iteration time: 304.0
Weighted AreaUnderPRC: 0.9844957127910419
Mean absolute error: 0.01777310413422319
Coverage of cases: 99.04559915164369
Instances selection time: 69.0
Test time: 111.0
Accumulative iteration time: 3559.0
Weighted Recall: 0.9766702014846236
Weighted FalsePositiveRate: 0.08347304562730735
Kappa statistic: 0.8426837637299102
Training time: 235.0
		
Iteration: 15
Labeled set size: 657
Unlabelled set size: 1229
	
Mean region size: 27.09437963944857
Incorrectly Classified Instances: 2.4920466595970305
Correctly Classified Instances: 97.50795334040296
Weighted Precision: 0.9768465888274691
Weighted AreaUnderROC: 0.992895455526141
Root mean squared error: 0.100356080351488
Relative absolute error: 4.845380034670195
Root relative squared error: 23.176244002298926
Weighted TruePositiveRate: 0.9750795334040296
Weighted MatthewsCorrelation: 0.8685072273485187
Weighted FMeasure: 0.9757219695097256
Iteration time: 320.0
Weighted AreaUnderPRC: 0.9846055977754834
Mean absolute error: 0.018170175130013233
Coverage of cases: 98.99257688229056
Instances selection time: 66.0
Test time: 110.0
Accumulative iteration time: 3879.0
Weighted Recall: 0.9750795334040296
Weighted FalsePositiveRate: 0.0772236396834182
Kappa statistic: 0.833466096536383
Training time: 254.0
		
Iteration: 16
Labeled set size: 677
Unlabelled set size: 1209
	
Mean region size: 27.067868504772004
Incorrectly Classified Instances: 2.5980911983032873
Correctly Classified Instances: 97.4019088016967
Weighted Precision: 0.9759212035515141
Weighted AreaUnderROC: 0.9922751280370423
Root mean squared error: 0.1013827630750328
Relative absolute error: 4.861134382478187
Root relative squared error: 23.413346221023296
Weighted TruePositiveRate: 0.9740190880169671
Weighted MatthewsCorrelation: 0.8674439328344837
Weighted FMeasure: 0.9746840797290028
Iteration time: 537.0
Weighted AreaUnderPRC: 0.9842292082485415
Mean absolute error: 0.0182292539342932
Coverage of cases: 99.04559915164369
Instances selection time: 63.0
Test time: 102.0
Accumulative iteration time: 4416.0
Weighted Recall: 0.9740190880169671
Weighted FalsePositiveRate: 0.0772811372812634
Kappa statistic: 0.8263632366701364
Training time: 474.0
		
Iteration: 17
Labeled set size: 697
Unlabelled set size: 1189
	
Mean region size: 27.014846235418876
Incorrectly Classified Instances: 2.5980911983032873
Correctly Classified Instances: 97.4019088016967
Weighted Precision: 0.9757432647026866
Weighted AreaUnderROC: 0.992420218261726
Root mean squared error: 0.10237370437431585
Relative absolute error: 4.879353289187727
Root relative squared error: 23.64219431138017
Weighted TruePositiveRate: 0.9740190880169671
Weighted MatthewsCorrelation: 0.8638354462772916
Weighted FMeasure: 0.9746220122987403
Iteration time: 364.0
Weighted AreaUnderPRC: 0.9840138434047939
Mean absolute error: 0.01829757483445398
Coverage of cases: 98.99257688229056
Instances selection time: 61.0
Test time: 101.0
Accumulative iteration time: 4780.0
Weighted Recall: 0.9740190880169671
Weighted FalsePositiveRate: 0.08361871751294744
Kappa statistic: 0.8258252258840292
Training time: 303.0
		
Iteration: 18
Labeled set size: 717
Unlabelled set size: 1169
	
Mean region size: 27.120890774125133
Incorrectly Classified Instances: 2.651113467656416
Correctly Classified Instances: 97.34888653234358
Weighted Precision: 0.9753629304741358
Weighted AreaUnderROC: 0.991955083009852
Root mean squared error: 0.1021235031367845
Relative absolute error: 4.949400147418421
Root relative squared error: 23.584412810644054
Weighted TruePositiveRate: 0.9734888653234358
Weighted MatthewsCorrelation: 0.8598713578136514
Weighted FMeasure: 0.9742607915041267
Iteration time: 323.0
Weighted AreaUnderPRC: 0.9837679579604248
Mean absolute error: 0.01856025055281908
Coverage of cases: 98.99257688229056
Instances selection time: 60.0
Test time: 99.0
Accumulative iteration time: 5103.0
Weighted Recall: 0.9734888653234358
Weighted FalsePositiveRate: 0.08994138132752948
Kappa statistic: 0.8217674320145759
Training time: 263.0
		
Iteration: 19
Labeled set size: 737
Unlabelled set size: 1149
	
Mean region size: 26.89554612937434
Incorrectly Classified Instances: 2.545068928950159
Correctly Classified Instances: 97.45493107104984
Weighted Precision: 0.9765763068349519
Weighted AreaUnderROC: 0.9924263768279092
Root mean squared error: 0.10188285169682626
Relative absolute error: 4.734878334668426
Root relative squared error: 23.528836741187746
Weighted TruePositiveRate: 0.9745493107104984
Weighted MatthewsCorrelation: 0.8645834225388062
Weighted FMeasure: 0.9753723520291111
Iteration time: 353.0
Weighted AreaUnderPRC: 0.9838150356375318
Mean absolute error: 0.017755793755006594
Coverage of cases: 98.99257688229056
Instances selection time: 59.0
Test time: 101.0
Accumulative iteration time: 5456.0
Weighted Recall: 0.9745493107104984
Weighted FalsePositiveRate: 0.0835615012003508
Kappa statistic: 0.8294267496721486
Training time: 294.0
		
Iteration: 20
Labeled set size: 757
Unlabelled set size: 1129
	
Mean region size: 28.777836691410393
Incorrectly Classified Instances: 3.022269353128314
Correctly Classified Instances: 96.97773064687169
Weighted Precision: 0.969895709581483
Weighted AreaUnderROC: 0.9881985992352805
Root mean squared error: 0.10596630784744146
Relative absolute error: 6.933691787772482
Root relative squared error: 24.471870544300433
Weighted TruePositiveRate: 0.9697773064687168
Weighted MatthewsCorrelation: 0.8346838804291301
Weighted FMeasure: 0.9696135129800163
Iteration time: 359.0
Weighted AreaUnderPRC: 0.9811888285107104
Mean absolute error: 0.02600134420414681
Coverage of cases: 99.20466595970308
Instances selection time: 44.0
Test time: 78.0
Accumulative iteration time: 5815.0
Weighted Recall: 0.9697773064687168
Weighted FalsePositiveRate: 0.15990159857556394
Kappa statistic: 0.7846695590515221
Training time: 315.0
		
Iteration: 21
Labeled set size: 777
Unlabelled set size: 1109
	
Mean region size: 29.427359490986213
Incorrectly Classified Instances: 2.9692470837751856
Correctly Classified Instances: 97.03075291622481
Weighted Precision: 0.9697256236026482
Weighted AreaUnderROC: 0.9877979443227011
Root mean squared error: 0.10603531474262745
Relative absolute error: 7.3907372106361064
Root relative squared error: 24.48780700410506
Weighted TruePositiveRate: 0.9703075291622482
Weighted MatthewsCorrelation: 0.8334295756714496
Weighted FMeasure: 0.9697139514527561
Iteration time: 423.0
Weighted AreaUnderPRC: 0.9806237973999018
Mean absolute error: 0.0277152645398854
Coverage of cases: 99.31071049840934
Instances selection time: 40.0
Test time: 84.0
Accumulative iteration time: 6238.0
Weighted Recall: 0.9703075291622482
Weighted FalsePositiveRate: 0.17259167545603404
Kappa statistic: 0.7855599772598069
Training time: 383.0
		
Iteration: 22
Labeled set size: 797
Unlabelled set size: 1089
	
Mean region size: 29.599681866383882
Incorrectly Classified Instances: 3.022269353128314
Correctly Classified Instances: 96.97773064687169
Weighted Precision: 0.9689383318171619
Weighted AreaUnderROC: 0.9875471479512694
Root mean squared error: 0.10846506509330232
Relative absolute error: 7.71790942766756
Root relative squared error: 25.048933811715354
Weighted TruePositiveRate: 0.9697773064687168
Weighted MatthewsCorrelation: 0.8291080543825261
Weighted FMeasure: 0.9690913965838543
Iteration time: 380.0
Weighted AreaUnderPRC: 0.9805564317663611
Mean absolute error: 0.028942160353753348
Coverage of cases: 99.20466595970308
Instances selection time: 39.0
Test time: 76.0
Accumulative iteration time: 6618.0
Weighted Recall: 0.9697773064687168
Weighted FalsePositiveRate: 0.1789428067842901
Kappa statistic: 0.7810219870204469
Training time: 341.0
		
Iteration: 23
Labeled set size: 817
Unlabelled set size: 1069
	
Mean region size: 29.71898197242842
Incorrectly Classified Instances: 3.0752916224814424
Correctly Classified Instances: 96.92470837751856
Weighted Precision: 0.9686463027531627
Weighted AreaUnderROC: 0.9870795924068478
Root mean squared error: 0.10971641787483663
Relative absolute error: 7.920975569052218
Root relative squared error: 25.337921357823358
Weighted TruePositiveRate: 0.9692470837751855
Weighted MatthewsCorrelation: 0.8256580018501337
Weighted FMeasure: 0.9686443156986991
Iteration time: 438.0
Weighted AreaUnderPRC: 0.9800622531244874
Mean absolute error: 0.02970365838394582
Coverage of cases: 99.31071049840934
Instances selection time: 38.0
Test time: 72.0
Accumulative iteration time: 7056.0
Weighted Recall: 0.9692470837751855
Weighted FalsePositiveRate: 0.17898675328556327
Kappa statistic: 0.7779014050190852
Training time: 400.0
		
Iteration: 24
Labeled set size: 837
Unlabelled set size: 1049
	
Mean region size: 29.65270413573701
Incorrectly Classified Instances: 3.022269353128314
Correctly Classified Instances: 96.97773064687169
Weighted Precision: 0.969185379858238
Weighted AreaUnderROC: 0.9874347538349986
Root mean squared error: 0.10860508567079892
Relative absolute error: 7.790540343075102
Root relative squared error: 25.08127017895925
Weighted TruePositiveRate: 0.9697773064687168
Weighted MatthewsCorrelation: 0.8316091760301552
Weighted FMeasure: 0.9690971536602935
Iteration time: 445.0
Weighted AreaUnderPRC: 0.9805504947799882
Mean absolute error: 0.029214526286531633
Coverage of cases: 99.31071049840934
Instances selection time: 39.0
Test time: 72.0
Accumulative iteration time: 7501.0
Weighted Recall: 0.9697773064687168
Weighted FalsePositiveRate: 0.1852671172046507
Kappa statistic: 0.7788206731956215
Training time: 406.0
		
Iteration: 25
Labeled set size: 857
Unlabelled set size: 1029
	
Mean region size: 29.692470837751856
Incorrectly Classified Instances: 3.2343584305408273
Correctly Classified Instances: 96.76564156945918
Weighted Precision: 0.9671877115570846
Weighted AreaUnderROC: 0.9874413657262798
Root mean squared error: 0.10994601717962042
Relative absolute error: 7.933140475212515
Root relative squared error: 25.39094504599243
Weighted TruePositiveRate: 0.9676564156945917
Weighted MatthewsCorrelation: 0.816658041409473
Weighted FMeasure: 0.9670806238045039
Iteration time: 418.0
Weighted AreaUnderPRC: 0.9807160391011777
Mean absolute error: 0.029749276782046936
Coverage of cases: 99.31071049840934
Instances selection time: 37.0
Test time: 70.0
Accumulative iteration time: 7919.0
Weighted Recall: 0.9676564156945917
Weighted FalsePositiveRate: 0.19171969263202512
Kappa statistic: 0.764889808063303
Training time: 381.0
		
Iteration: 26
Labeled set size: 877
Unlabelled set size: 1009
	
Mean region size: 29.53340402969247
Incorrectly Classified Instances: 3.022269353128314
Correctly Classified Instances: 96.97773064687169
Weighted Precision: 0.9686692400385108
Weighted AreaUnderROC: 0.9875130478329527
Root mean squared error: 0.10840268027952171
Relative absolute error: 7.761643764826353
Root relative squared error: 25.03452665610352
Weighted TruePositiveRate: 0.9697773064687168
Weighted MatthewsCorrelation: 0.8276672918951884
Weighted FMeasure: 0.9688364962447678
Iteration time: 584.0
Weighted AreaUnderPRC: 0.9807194048120338
Mean absolute error: 0.029106164118098823
Coverage of cases: 99.31071049840934
Instances selection time: 36.0
Test time: 71.0
Accumulative iteration time: 8503.0
Weighted Recall: 0.9697773064687168
Weighted FalsePositiveRate: 0.19163316495000876
Kappa statistic: 0.7780260169316539
Training time: 548.0
		
Iteration: 27
Labeled set size: 897
Unlabelled set size: 989
	
Mean region size: 29.440615058324497
Incorrectly Classified Instances: 3.2343584305408273
Correctly Classified Instances: 96.76564156945918
Weighted Precision: 0.9680578926897261
Weighted AreaUnderROC: 0.9871285760618688
Root mean squared error: 0.11010773935765801
Relative absolute error: 7.7889588988629095
Root relative squared error: 25.428293183202005
Weighted TruePositiveRate: 0.9676564156945917
Weighted MatthewsCorrelation: 0.8171059789151495
Weighted FMeasure: 0.9674790533215162
Iteration time: 479.0
Weighted AreaUnderPRC: 0.9805046178018753
Mean absolute error: 0.02920859587073591
Coverage of cases: 99.31071049840934
Instances selection time: 35.0
Test time: 70.0
Accumulative iteration time: 8982.0
Weighted Recall: 0.9676564156945917
Weighted FalsePositiveRate: 0.19166275760467702
Kappa statistic: 0.7649820232064062
Training time: 444.0
		
Iteration: 28
Labeled set size: 917
Unlabelled set size: 969
	
Mean region size: 29.453870625662777
Incorrectly Classified Instances: 2.9692470837751856
Correctly Classified Instances: 97.03075291622481
Weighted Precision: 0.968873673183859
Weighted AreaUnderROC: 0.9874783729311214
Root mean squared error: 0.1080924746695047
Relative absolute error: 7.656232509113031
Root relative squared error: 24.96288773912454
Weighted TruePositiveRate: 0.9703075291622482
Weighted MatthewsCorrelation: 0.8317342541513867
Weighted FMeasure: 0.9692428480359173
Iteration time: 452.0
Weighted AreaUnderPRC: 0.9804976693956864
Mean absolute error: 0.028710871909173864
Coverage of cases: 99.31071049840934
Instances selection time: 35.0
Test time: 69.0
Accumulative iteration time: 9434.0
Weighted Recall: 0.9703075291622482
Weighted FalsePositiveRate: 0.18529530343307618
Kappa statistic: 0.782615138891176
Training time: 417.0
		
Iteration: 29
Labeled set size: 937
Unlabelled set size: 949
	
Mean region size: 29.347826086956523
Incorrectly Classified Instances: 3.1283138918345705
Correctly Classified Instances: 96.87168610816543
Weighted Precision: 0.9685259281352145
Weighted AreaUnderROC: 0.9872354670992282
Root mean squared error: 0.10937228042442786
Relative absolute error: 7.637367369805337
Root relative squared error: 25.25844621797067
Weighted TruePositiveRate: 0.9687168610816543
Weighted MatthewsCorrelation: 0.8239486640136557
Weighted FMeasure: 0.9682159525843268
Iteration time: 591.0
Weighted AreaUnderPRC: 0.9804409944338106
Mean absolute error: 0.028640127636770013
Coverage of cases: 99.31071049840934
Instances selection time: 34.0
Test time: 70.0
Accumulative iteration time: 10025.0
Weighted Recall: 0.9687168610816543
Weighted FalsePositiveRate: 0.19163372752050586
Kappa statistic: 0.7711052051277835
Training time: 557.0
		
Iteration: 30
Labeled set size: 957
Unlabelled set size: 929
	
Mean region size: 29.202014846235418
Incorrectly Classified Instances: 3.1813361611876987
Correctly Classified Instances: 96.8186638388123
Weighted Precision: 0.9674145729876055
Weighted AreaUnderROC: 0.9873206768266612
Root mean squared error: 0.10984045643086446
Relative absolute error: 7.615945746803496
Root relative squared error: 25.366566835308387
Weighted TruePositiveRate: 0.968186638388123
Weighted MatthewsCorrelation: 0.8178425538446958
Weighted FMeasure: 0.9675489518062774
Iteration time: 617.0
Weighted AreaUnderPRC: 0.9806231954752269
Mean absolute error: 0.02855979655051311
Coverage of cases: 99.2576882290562
Instances selection time: 33.0
Test time: 70.0
Accumulative iteration time: 10642.0
Weighted Recall: 0.968186638388123
Weighted FalsePositiveRate: 0.18536663341274198
Kappa statistic: 0.770266155064255
Training time: 584.0
		
Iteration: 31
Labeled set size: 977
Unlabelled set size: 909
	
Mean region size: 29.294803817603395
Incorrectly Classified Instances: 3.1283138918345705
Correctly Classified Instances: 96.87168610816543
Weighted Precision: 0.9685259281352145
Weighted AreaUnderROC: 0.9872773834030757
Root mean squared error: 0.11059258327482055
Relative absolute error: 7.632236019988358
Root relative squared error: 25.540263089637502
Weighted TruePositiveRate: 0.9687168610816543
Weighted MatthewsCorrelation: 0.8239486640136557
Weighted FMeasure: 0.9682159525843268
Iteration time: 550.0
Weighted AreaUnderPRC: 0.980627920661214
Mean absolute error: 0.028620885074956345
Coverage of cases: 99.31071049840934
Instances selection time: 32.0
Test time: 70.0
Accumulative iteration time: 11192.0
Weighted Recall: 0.9687168610816543
Weighted FalsePositiveRate: 0.19163372752050586
Kappa statistic: 0.7711052051277835
Training time: 518.0
		
Iteration: 32
Labeled set size: 997
Unlabelled set size: 889
	
Mean region size: 29.28154825026511
Incorrectly Classified Instances: 3.1283138918345705
Correctly Classified Instances: 96.87168610816543
Weighted Precision: 0.9675599931454613
Weighted AreaUnderROC: 0.9872105315205343
Root mean squared error: 0.10982545733899765
Relative absolute error: 7.601862906543086
Root relative squared error: 25.363102943417626
Weighted TruePositiveRate: 0.9687168610816543
Weighted MatthewsCorrelation: 0.819750609485057
Weighted FMeasure: 0.9677529830997489
Iteration time: 512.0
Weighted AreaUnderPRC: 0.9801070472809252
Mean absolute error: 0.02850698589953657
Coverage of cases: 99.2576882290562
Instances selection time: 32.0
Test time: 69.0
Accumulative iteration time: 11704.0
Weighted Recall: 0.9687168610816543
Weighted FalsePositiveRate: 0.198028242779538
Kappa statistic: 0.7702374561222386
Training time: 480.0
		
Iteration: 33
Labeled set size: 1017
Unlabelled set size: 869
	
Mean region size: 29.241781548250266
Incorrectly Classified Instances: 2.9692470837751856
Correctly Classified Instances: 97.03075291622481
Weighted Precision: 0.9693167169401393
Weighted AreaUnderROC: 0.9874824865878469
Root mean squared error: 0.10842405374794738
Relative absolute error: 7.4882127545117525
Root relative squared error: 25.03946264720315
Weighted TruePositiveRate: 0.9703075291622482
Weighted MatthewsCorrelation: 0.8319625144056284
Weighted FMeasure: 0.969446906484989
Iteration time: 672.0
Weighted AreaUnderPRC: 0.9807667345969698
Mean absolute error: 0.02808079782941907
Coverage of cases: 99.31071049840934
Instances selection time: 31.0
Test time: 69.0
Accumulative iteration time: 12376.0
Weighted Recall: 0.9703075291622482
Weighted FalsePositiveRate: 0.18526683591940213
Kappa statistic: 0.7826580840590687
Training time: 641.0
		
Iteration: 34
Labeled set size: 1037
Unlabelled set size: 849
	
Mean region size: 29.228525980911982
Incorrectly Classified Instances: 3.1283138918345705
Correctly Classified Instances: 96.87168610816543
Weighted Precision: 0.9675599931454613
Weighted AreaUnderROC: 0.9869998037591916
Root mean squared error: 0.11072648833248566
Relative absolute error: 7.608502412765444
Root relative squared error: 25.57118713807302
Weighted TruePositiveRate: 0.9687168610816543
Weighted MatthewsCorrelation: 0.819750609485057
Weighted FMeasure: 0.9677529830997489
Iteration time: 512.0
Weighted AreaUnderPRC: 0.9801737585304323
Mean absolute error: 0.028531884047870413
Coverage of cases: 99.2576882290562
Instances selection time: 31.0
Test time: 68.0
Accumulative iteration time: 12888.0
Weighted Recall: 0.9687168610816543
Weighted FalsePositiveRate: 0.198028242779538
Kappa statistic: 0.7702374561222386
Training time: 481.0
		
Iteration: 35
Labeled set size: 1057
Unlabelled set size: 829
	
Mean region size: 29.14899257688229
Incorrectly Classified Instances: 3.2343584305408273
Correctly Classified Instances: 96.76564156945918
Weighted Precision: 0.9666712932840364
Weighted AreaUnderROC: 0.9869826046159984
Root mean squared error: 0.11179810067141005
Relative absolute error: 7.611793814059445
Root relative squared error: 25.818665407010993
Weighted TruePositiveRate: 0.9676564156945917
Weighted MatthewsCorrelation: 0.8126677522652314
Weighted FMeasure: 0.9668201209825162
Iteration time: 489.0
Weighted AreaUnderPRC: 0.980121815961639
Mean absolute error: 0.02854422680272292
Coverage of cases: 99.31071049840934
Instances selection time: 28.0
Test time: 70.0
Accumulative iteration time: 13377.0
Weighted Recall: 0.9676564156945917
Weighted FalsePositiveRate: 0.19808574037738322
Kappa statistic: 0.7640507969843392
Training time: 461.0
		
Iteration: 36
Labeled set size: 1077
Unlabelled set size: 809
	
Mean region size: 29.122481442205725
Incorrectly Classified Instances: 3.1813361611876987
Correctly Classified Instances: 96.8186638388123
Weighted Precision: 0.9678726059438937
Weighted AreaUnderROC: 0.9870968066743435
Root mean squared error: 0.1101282117767239
Relative absolute error: 7.513670237776413
Root relative squared error: 25.433021085865462
Weighted TruePositiveRate: 0.968186638388123
Weighted MatthewsCorrelation: 0.8196217429978732
Weighted FMeasure: 0.9675980274556845
Iteration time: 536.0
Weighted AreaUnderPRC: 0.9802527441424623
Mean absolute error: 0.02817626339166155
Coverage of cases: 99.2576882290562
Instances selection time: 27.0
Test time: 70.0
Accumulative iteration time: 13913.0
Weighted Recall: 0.968186638388123
Weighted FalsePositiveRate: 0.19800005655111252
Kappa statistic: 0.7664357719012904
Training time: 509.0
		
Iteration: 37
Labeled set size: 1097
Unlabelled set size: 789
	
Mean region size: 28.963414634146343
Incorrectly Classified Instances: 3.1813361611876987
Correctly Classified Instances: 96.8186638388123
Weighted Precision: 0.9687128034096233
Weighted AreaUnderROC: 0.9874022130150244
Root mean squared error: 0.11080917599957915
Relative absolute error: 7.464911545401104
Root relative squared error: 25.59028303681506
Weighted TruePositiveRate: 0.968186638388123
Weighted MatthewsCorrelation: 0.8214373694104448
Weighted FMeasure: 0.9680924473376555
Iteration time: 567.0
Weighted AreaUnderPRC: 0.9791380314240345
Mean absolute error: 0.027993418295254136
Coverage of cases: 99.2576882290562
Instances selection time: 26.0
Test time: 71.0
Accumulative iteration time: 14480.0
Weighted Recall: 0.968186638388123
Weighted FalsePositiveRate: 0.18529642857407042
Kappa statistic: 0.7696085217972002
Training time: 541.0
		
Iteration: 38
Labeled set size: 1117
Unlabelled set size: 769
	
Mean region size: 29.02969247083775
Incorrectly Classified Instances: 3.1813361611876987
Correctly Classified Instances: 96.8186638388123
Weighted Precision: 0.9674336528432784
Weighted AreaUnderROC: 0.9871972881530785
Root mean squared error: 0.11014632430629241
Relative absolute error: 7.389879147651268
Root relative squared error: 25.4372039953943
Weighted TruePositiveRate: 0.968186638388123
Weighted MatthewsCorrelation: 0.8163824986632806
Weighted FMeasure: 0.9674649292628011
Iteration time: 756.0
Weighted AreaUnderPRC: 0.9807199221300551
Mean absolute error: 0.027712046803692252
Coverage of cases: 99.2576882290562
Instances selection time: 26.0
Test time: 70.0
Accumulative iteration time: 15236.0
Weighted Recall: 0.968186638388123
Weighted FalsePositiveRate: 0.198013326362436
Kappa statistic: 0.7672036042708141
Training time: 730.0
		
Iteration: 39
Labeled set size: 1137
Unlabelled set size: 749
	
Mean region size: 29.003181336161187
Incorrectly Classified Instances: 3.2343584305408273
Correctly Classified Instances: 96.76564156945918
Weighted Precision: 0.9678404572737901
Weighted AreaUnderROC: 0.9874917939361377
Root mean squared error: 0.11117691501594068
Relative absolute error: 7.408210671997846
Root relative squared error: 25.6752087248502
Weighted TruePositiveRate: 0.9676564156945917
Weighted MatthewsCorrelation: 0.817748969808998
Weighted FMeasure: 0.967424935080915
Iteration time: 618.0
Weighted AreaUnderPRC: 0.978943364824087
Mean absolute error: 0.027780790019991924
Coverage of cases: 99.2576882290562
Instances selection time: 27.0
Test time: 67.0
Accumulative iteration time: 15854.0
Weighted Recall: 0.9676564156945917
Weighted FalsePositiveRate: 0.18535364488666706
Kappa statistic: 0.766504570621377
Training time: 591.0
		
Iteration: 40
Labeled set size: 1157
Unlabelled set size: 729
	
Mean region size: 29.003181336161187
Incorrectly Classified Instances: 3.2873806998939554
Correctly Classified Instances: 96.71261930010604
Weighted Precision: 0.966523612031943
Weighted AreaUnderROC: 0.9875524748513834
Root mean squared error: 0.11037823705893007
Relative absolute error: 7.387129605014025
Root relative squared error: 25.490761951459845
Weighted TruePositiveRate: 0.9671261930010604
Weighted MatthewsCorrelation: 0.8123076214836731
Weighted FMeasure: 0.9664652367232612
Iteration time: 597.0
Weighted AreaUnderPRC: 0.9802594607120119
Mean absolute error: 0.027701736018802596
Coverage of cases: 99.2576882290562
Instances selection time: 27.0
Test time: 67.0
Accumulative iteration time: 16451.0
Weighted Recall: 0.9671261930010604
Weighted FalsePositiveRate: 0.19808602166263176
Kappa statistic: 0.7602299849902803
Training time: 570.0
		
Iteration: 41
Labeled set size: 1177
Unlabelled set size: 709
	
Mean region size: 28.989925768822907
Incorrectly Classified Instances: 3.2343584305408273
Correctly Classified Instances: 96.76564156945918
Weighted Precision: 0.9661997847417314
Weighted AreaUnderROC: 0.9876406804614646
Root mean squared error: 0.10920864040759803
Relative absolute error: 7.3057287516454865
Root relative squared error: 25.220655174863907
Weighted TruePositiveRate: 0.9676564156945917
Weighted MatthewsCorrelation: 0.8161780272543495
Weighted FMeasure: 0.9666612112735177
Iteration time: 592.0
Weighted AreaUnderPRC: 0.9791409800051682
Mean absolute error: 0.027396482818670576
Coverage of cases: 99.36373276776246
Instances selection time: 27.0
Test time: 70.0
Accumulative iteration time: 17043.0
Weighted Recall: 0.9676564156945917
Weighted FalsePositiveRate: 0.19176142995702264
Kappa statistic: 0.764821560715147
Training time: 565.0
		
Iteration: 42
Labeled set size: 1197
Unlabelled set size: 689
	
Mean region size: 28.910392364793214
Incorrectly Classified Instances: 3.1813361611876987
Correctly Classified Instances: 96.8186638388123
Weighted Precision: 0.9683369678705678
Weighted AreaUnderROC: 0.9872990398347702
Root mean squared error: 0.11054647352146296
Relative absolute error: 7.3290323565827356
Root relative squared error: 25.529614498232196
Weighted TruePositiveRate: 0.968186638388123
Weighted MatthewsCorrelation: 0.8198558500575729
Weighted FMeasure: 0.9678018637424788
Iteration time: 604.0
Weighted AreaUnderPRC: 0.9806237978501857
Mean absolute error: 0.02748387133718526
Coverage of cases: 99.2576882290562
Instances selection time: 25.0
Test time: 66.0
Accumulative iteration time: 17647.0
Weighted Recall: 0.968186638388123
Weighted FalsePositiveRate: 0.19797158903743847
Kappa statistic: 0.7664820424773211
Training time: 579.0
		
Iteration: 43
Labeled set size: 1217
Unlabelled set size: 669
	
Mean region size: 29.02969247083775
Incorrectly Classified Instances: 3.393425238600212
Correctly Classified Instances: 96.60657476139978
Weighted Precision: 0.9651122696791209
Weighted AreaUnderROC: 0.9871536546891375
Root mean squared error: 0.11152127208178053
Relative absolute error: 7.432187986556509
Root relative squared error: 25.754734582714196
Weighted TruePositiveRate: 0.9660657476139979
Weighted MatthewsCorrelation: 0.7997376660176349
Weighted FMeasure: 0.9651587912809634
Iteration time: 646.0
Weighted AreaUnderPRC: 0.9798853987220031
Mean absolute error: 0.02787070494958691
Coverage of cases: 99.2576882290562
Instances selection time: 25.0
Test time: 66.0
Accumulative iteration time: 18293.0
Weighted Recall: 0.9660657476139979
Weighted FalsePositiveRate: 0.21715625995552912
Kappa statistic: 0.7499668566883204
Training time: 621.0
		
Iteration: 44
Labeled set size: 1237
Unlabelled set size: 649
	
Mean region size: 28.963414634146343
Incorrectly Classified Instances: 3.0752916224814424
Correctly Classified Instances: 96.92470837751856
Weighted Precision: 0.9685348837133475
Weighted AreaUnderROC: 0.987613141072979
Root mean squared error: 0.10909294899976238
Relative absolute error: 7.213537858957962
Root relative squared error: 25.19393738868117
Weighted TruePositiveRate: 0.9692470837751855
Weighted MatthewsCorrelation: 0.827311441995838
Weighted FMeasure: 0.9684829417589341
Iteration time: 617.0
Weighted AreaUnderPRC: 0.9790808908243789
Mean absolute error: 0.027050766971092356
Coverage of cases: 99.2576882290562
Instances selection time: 24.0
Test time: 66.0
Accumulative iteration time: 18910.0
Weighted Recall: 0.9692470837751855
Weighted FalsePositiveRate: 0.1916334462352573
Kappa statistic: 0.7741765002188289
Training time: 593.0
		
Iteration: 45
Labeled set size: 1257
Unlabelled set size: 629
	
Mean region size: 28.8441145281018
Incorrectly Classified Instances: 3.1813361611876987
Correctly Classified Instances: 96.8186638388123
Weighted Precision: 0.9667649671732976
Weighted AreaUnderROC: 0.9878613299426539
Root mean squared error: 0.10877053964800663
Relative absolute error: 7.187717821496304
Root relative squared error: 25.119480138270998
Weighted TruePositiveRate: 0.968186638388123
Weighted MatthewsCorrelation: 0.8167541669173215
Weighted FMeasure: 0.9672083559679063
Iteration time: 625.0
Weighted AreaUnderPRC: 0.980749100079304
Mean absolute error: 0.02695394183061114
Coverage of cases: 99.20466595970308
Instances selection time: 23.0
Test time: 67.0
Accumulative iteration time: 19535.0
Weighted Recall: 0.968186638388123
Weighted FalsePositiveRate: 0.19173268115810002
Kappa statistic: 0.7686769449657186
Training time: 602.0
		
Iteration: 46
Labeled set size: 1277
Unlabelled set size: 609
	
Mean region size: 28.88388123011665
Incorrectly Classified Instances: 3.1283138918345705
Correctly Classified Instances: 96.87168610816543
Weighted Precision: 0.9675599931454613
Weighted AreaUnderROC: 0.9871963967097762
Root mean squared error: 0.11045775886979291
Relative absolute error: 7.296612873595813
Root relative squared error: 25.509126727023084
Weighted TruePositiveRate: 0.9687168610816543
Weighted MatthewsCorrelation: 0.819750609485057
Weighted FMeasure: 0.9677529830997489
Iteration time: 599.0
Weighted AreaUnderPRC: 0.9804544689519054
Mean absolute error: 0.0273622982759843
Coverage of cases: 99.20466595970308
Instances selection time: 23.0
Test time: 75.0
Accumulative iteration time: 20134.0
Weighted Recall: 0.9687168610816543
Weighted FalsePositiveRate: 0.198028242779538
Kappa statistic: 0.7702374561222386
Training time: 576.0
		
Time end:Mon Nov 27 16.13.17 EET 2017