Mon Nov 27 16.25.03 EET 2017
Dataset: hypothyroid
Test set size: 1886
Initial Labelled set size: 377
Initial Unlabelled set size: 1509
Batch mode: QBestBatchMode
Batch size: 20
Classifiers: SMOsync-1cores
Scenario: PoolBasedSamplingScenario
Query strategy: RandomSelectionQueryStrategy-1cores
Time begining: Mon Nov 27 16.25.03 EET 2017
		
Iteration: 1
Labeled set size: 377
Unlabelled set size: 1509
	
Mean region size: 31.76033934252386
Incorrectly Classified Instances: 8.589607635206788
Correctly Classified Instances: 91.41039236479321
Weighted Precision: 0.9128335698167117
Weighted AreaUnderROC: 0.8602821704783425
Root mean squared error: 0.1883640074310614
Relative absolute error: 15.621229211422943
Root relative squared error: 43.500804158383986
Weighted TruePositiveRate: 0.9141039236479321
Weighted MatthewsCorrelation: 0.42504394302676757
Weighted FMeasure: 0.9132040782064054
Iteration time: 85.0
Weighted AreaUnderPRC: 0.9349636744815623
Mean absolute error: 0.05857960954283603
Coverage of cases: 97.03075291622481
Instances selection time: 5.0
Test time: 64.0
Accumulative iteration time: 85.0
Weighted Recall: 0.9141039236479321
Weighted FalsePositiveRate: 0.5052197598120471
Kappa statistic: 0.38353079803719003
Training time: 80.0
		
Iteration: 2
Labeled set size: 397
Unlabelled set size: 1489
	
Mean region size: 27.91622481442206
Incorrectly Classified Instances: 6.097560975609756
Correctly Classified Instances: 93.90243902439025
Weighted Precision: 0.9511285834007698
Weighted AreaUnderROC: 0.9478687725762348
Root mean squared error: 0.15792263425471215
Relative absolute error: 9.72972095433554
Root relative squared error: 36.47067015923715
Weighted TruePositiveRate: 0.9390243902439024
Weighted MatthewsCorrelation: 0.6636276421034738
Weighted FMeasure: 0.9429615597748835
Iteration time: 126.0
Weighted AreaUnderPRC: 0.9568668985644041
Mean absolute error: 0.03648645357875828
Coverage of cases: 97.08377518557795
Instances selection time: 4.0
Test time: 75.0
Accumulative iteration time: 211.0
Weighted Recall: 0.9390243902439024
Weighted FalsePositiveRate: 0.21238546871227043
Kappa statistic: 0.6179173155383928
Training time: 122.0
		
Iteration: 3
Labeled set size: 417
Unlabelled set size: 1469
	
Mean region size: 28.207847295864262
Incorrectly Classified Instances: 4.506892895015906
Correctly Classified Instances: 95.49310710498409
Weighted Precision: 0.9636249764055204
Weighted AreaUnderROC: 0.9607847969887455
Root mean squared error: 0.14099443345560497
Relative absolute error: 8.38591152201475
Root relative squared error: 32.561269643932924
Weighted TruePositiveRate: 0.954931071049841
Weighted MatthewsCorrelation: 0.7590253425325842
Weighted FMeasure: 0.9572087049494963
Iteration time: 129.0
Weighted AreaUnderPRC: 0.9646638220592565
Mean absolute error: 0.03144716820755531
Coverage of cases: 97.87910922587487
Instances selection time: 5.0
Test time: 76.0
Accumulative iteration time: 340.0
Weighted Recall: 0.954931071049841
Weighted FalsePositiveRate: 0.1291344617326998
Kappa statistic: 0.7151411766796386
Training time: 124.0
		
Iteration: 4
Labeled set size: 437
Unlabelled set size: 1449
	
Mean region size: 28.11505832449629
Incorrectly Classified Instances: 4.559915164369035
Correctly Classified Instances: 95.44008483563097
Weighted Precision: 0.9638927569446993
Weighted AreaUnderROC: 0.9570749680920279
Root mean squared error: 0.13784045795944616
Relative absolute error: 8.012167630561128
Root relative squared error: 31.832890203243014
Weighted TruePositiveRate: 0.9544008483563097
Weighted MatthewsCorrelation: 0.7585581711647471
Weighted FMeasure: 0.9569141922116491
Iteration time: 129.0
Weighted AreaUnderPRC: 0.9644184037116387
Mean absolute error: 0.03004562861460423
Coverage of cases: 97.87910922587487
Instances selection time: 12.0
Test time: 76.0
Accumulative iteration time: 469.0
Weighted Recall: 0.9544008483563097
Weighted FalsePositiveRate: 0.12282563029993837
Kappa statistic: 0.7142937668001875
Training time: 117.0
		
Iteration: 5
Labeled set size: 457
Unlabelled set size: 1429
	
Mean region size: 28.035524920466596
Incorrectly Classified Instances: 4.40084835630965
Correctly Classified Instances: 95.59915164369035
Weighted Precision: 0.9641440046521907
Weighted AreaUnderROC: 0.9596335379129913
Root mean squared error: 0.13971325924977251
Relative absolute error: 8.130666587273991
Root relative squared error: 32.265395134886454
Weighted TruePositiveRate: 0.9559915164369035
Weighted MatthewsCorrelation: 0.7619701453506691
Weighted FMeasure: 0.9581789968659998
Iteration time: 139.0
Weighted AreaUnderPRC: 0.9624654142891987
Mean absolute error: 0.030489999702277466
Coverage of cases: 97.77306468716861
Instances selection time: 12.0
Test time: 78.0
Accumulative iteration time: 608.0
Weighted Recall: 0.9559915164369035
Weighted FalsePositiveRate: 0.1290769641348546
Kappa statistic: 0.7210536444894293
Training time: 127.0
		
Iteration: 6
Labeled set size: 477
Unlabelled set size: 1409
	
Mean region size: 27.836691410392365
Incorrectly Classified Instances: 3.9236479321314954
Correctly Classified Instances: 96.0763520678685
Weighted Precision: 0.9676294646948302
Weighted AreaUnderROC: 0.9629996032747783
Root mean squared error: 0.13208593319198828
Relative absolute error: 7.500472325485518
Root relative squared error: 30.503939633822945
Weighted TruePositiveRate: 0.9607635206786851
Weighted MatthewsCorrelation: 0.7879897382918434
Weighted FMeasure: 0.9624849826954908
Iteration time: 141.0
Weighted AreaUnderPRC: 0.9662166867865364
Mean absolute error: 0.028126771220570692
Coverage of cases: 97.98515376458113
Instances selection time: 5.0
Test time: 80.0
Accumulative iteration time: 749.0
Weighted Recall: 0.9607635206786851
Weighted FalsePositiveRate: 0.10980548424949903
Kappa statistic: 0.7498575110496151
Training time: 136.0
		
Iteration: 7
Labeled set size: 497
Unlabelled set size: 1389
	
Mean region size: 26.882290562036054
Incorrectly Classified Instances: 2.863202545068929
Correctly Classified Instances: 97.13679745493107
Weighted Precision: 0.9733541021272194
Weighted AreaUnderROC: 0.9743122867188806
Root mean squared error: 0.11052119522697541
Relative absolute error: 5.252146985442487
Root relative squared error: 25.523776726181378
Weighted TruePositiveRate: 0.9713679745493107
Weighted MatthewsCorrelation: 0.8475191164770604
Weighted FMeasure: 0.9713222355289579
Iteration time: 213.0
Weighted AreaUnderPRC: 0.9726645863177262
Mean absolute error: 0.019695551195409326
Coverage of cases: 98.46235418875928
Instances selection time: 5.0
Test time: 109.0
Accumulative iteration time: 962.0
Weighted Recall: 0.9713679745493107
Weighted FalsePositiveRate: 0.10289292803936297
Kappa statistic: 0.8066199311879568
Training time: 208.0
		
Iteration: 8
Labeled set size: 517
Unlabelled set size: 1369
	
Mean region size: 26.736479321314953
Incorrectly Classified Instances: 3.0752916224814424
Correctly Classified Instances: 96.92470837751856
Weighted Precision: 0.9725443813107695
Weighted AreaUnderROC: 0.9734028380583577
Root mean squared error: 0.11602580797430882
Relative absolute error: 5.442521786001724
Root relative squared error: 26.79501258676441
Weighted TruePositiveRate: 0.9692470837751855
Weighted MatthewsCorrelation: 0.8356658550726053
Weighted FMeasure: 0.9695564165299231
Iteration time: 175.0
Weighted AreaUnderPRC: 0.9719779361353125
Mean absolute error: 0.020409456697506465
Coverage of cases: 98.3032873806999
Instances selection time: 4.0
Test time: 79.0
Accumulative iteration time: 1137.0
Weighted Recall: 0.9692470837751855
Weighted FalsePositiveRate: 0.10302312093740393
Kappa statistic: 0.794837746493666
Training time: 171.0
		
Iteration: 9
Labeled set size: 537
Unlabelled set size: 1349
	
Mean region size: 26.762990455991517
Incorrectly Classified Instances: 2.757158006362672
Correctly Classified Instances: 97.24284199363733
Weighted Precision: 0.9753394185135122
Weighted AreaUnderROC: 0.9718040594066716
Root mean squared error: 0.10868244006421249
Relative absolute error: 5.071363089137605
Root relative squared error: 25.09913441090338
Weighted TruePositiveRate: 0.9724284199363733
Weighted MatthewsCorrelation: 0.859236341987488
Weighted FMeasure: 0.9726294336229124
Iteration time: 235.0
Weighted AreaUnderPRC: 0.9746058545514432
Mean absolute error: 0.019017611584266018
Coverage of cases: 98.56839872746554
Instances selection time: 4.0
Test time: 80.0
Accumulative iteration time: 1372.0
Weighted Recall: 0.9724284199363733
Weighted FalsePositiveRate: 0.07113233158074696
Kappa statistic: 0.8183360686407808
Training time: 231.0
		
Iteration: 10
Labeled set size: 557
Unlabelled set size: 1329
	
Mean region size: 27.74390243902439
Incorrectly Classified Instances: 3.552492046659597
Correctly Classified Instances: 96.4475079533404
Weighted Precision: 0.9680959509236576
Weighted AreaUnderROC: 0.9643232802452685
Root mean squared error: 0.12222409610042476
Relative absolute error: 6.86268081819243
Root relative squared error: 28.22644591401557
Weighted TruePositiveRate: 0.9644750795334041
Weighted MatthewsCorrelation: 0.8060215202558146
Weighted FMeasure: 0.9653428222767941
Iteration time: 244.0
Weighted AreaUnderPRC: 0.9696406925493627
Mean absolute error: 0.025735053068221613
Coverage of cases: 98.35630965005302
Instances selection time: 12.0
Test time: 75.0
Accumulative iteration time: 1616.0
Weighted Recall: 0.9644750795334041
Weighted FalsePositiveRate: 0.10954345184763854
Kappa statistic: 0.7688344949966158
Training time: 232.0
		
Iteration: 11
Labeled set size: 577
Unlabelled set size: 1309
	
Mean region size: 28.340402969247084
Incorrectly Classified Instances: 3.8176033934252387
Correctly Classified Instances: 96.18239660657476
Weighted Precision: 0.9667986588425295
Weighted AreaUnderROC: 0.9660882748376877
Root mean squared error: 0.13035067198340075
Relative absolute error: 7.7482179266865225
Root relative squared error: 30.103198223466013
Weighted TruePositiveRate: 0.9618239660657476
Weighted MatthewsCorrelation: 0.7822692920365201
Weighted FMeasure: 0.9633928038914291
Iteration time: 245.0
Weighted AreaUnderPRC: 0.9660243632095076
Mean absolute error: 0.02905581722507446
Coverage of cases: 98.3032873806999
Instances selection time: 4.0
Test time: 75.0
Accumulative iteration time: 1861.0
Weighted Recall: 0.9618239660657476
Weighted FalsePositiveRate: 0.10964160273519986
Kappa statistic: 0.7589861914735011
Training time: 241.0
		
Iteration: 12
Labeled set size: 597
Unlabelled set size: 1289
	
Mean region size: 27.982502651113467
Incorrectly Classified Instances: 4.188759278897137
Correctly Classified Instances: 95.81124072110286
Weighted Precision: 0.9647843291597964
Weighted AreaUnderROC: 0.9655281566083528
Root mean squared error: 0.12929081816449278
Relative absolute error: 7.528490177089416
Root relative squared error: 29.858435468406746
Weighted TruePositiveRate: 0.9581124072110286
Weighted MatthewsCorrelation: 0.7789745268586404
Weighted FMeasure: 0.9599782408012033
Iteration time: 249.0
Weighted AreaUnderPRC: 0.9658616698711959
Mean absolute error: 0.028231838164085307
Coverage of cases: 98.09119830328738
Instances selection time: 4.0
Test time: 72.0
Accumulative iteration time: 2110.0
Weighted Recall: 0.9581124072110286
Weighted FalsePositiveRate: 0.10988843743470977
Kappa statistic: 0.7353664168235587
Training time: 245.0
		
Iteration: 13
Labeled set size: 617
Unlabelled set size: 1269
	
Mean region size: 27.213679745493106
Incorrectly Classified Instances: 2.9692470837751856
Correctly Classified Instances: 97.03075291622481
Weighted Precision: 0.9720736390002619
Weighted AreaUnderROC: 0.9714493813254834
Root mean squared error: 0.11164046334485855
Relative absolute error: 5.53694260807151
Root relative squared error: 25.782260625843453
Weighted TruePositiveRate: 0.9703075291622482
Weighted MatthewsCorrelation: 0.8411703656596801
Weighted FMeasure: 0.9706572138656377
Iteration time: 212.0
Weighted AreaUnderPRC: 0.9712687835111641
Mean absolute error: 0.020763534780268166
Coverage of cases: 98.51537645811241
Instances selection time: 4.0
Test time: 77.0
Accumulative iteration time: 2322.0
Weighted Recall: 0.9703075291622482
Weighted FalsePositiveRate: 0.09018407895973667
Kappa statistic: 0.8038918597742128
Training time: 208.0
		
Iteration: 14
Labeled set size: 637
Unlabelled set size: 1249
	
Mean region size: 27.2932131495228
Incorrectly Classified Instances: 3.0752916224814424
Correctly Classified Instances: 96.92470837751856
Weighted Precision: 0.9726308375326755
Weighted AreaUnderROC: 0.9714740670266276
Root mean squared error: 0.11352089114913287
Relative absolute error: 5.792554020149715
Root relative squared error: 26.216526825439228
Weighted TruePositiveRate: 0.9692470837751855
Weighted MatthewsCorrelation: 0.8323431282041076
Weighted FMeasure: 0.9699970903932925
Iteration time: 238.0
Weighted AreaUnderPRC: 0.9707882474619015
Mean absolute error: 0.02172207757556143
Coverage of cases: 98.51537645811241
Instances selection time: 4.0
Test time: 78.0
Accumulative iteration time: 2560.0
Weighted Recall: 0.9692470837751855
Weighted FalsePositiveRate: 0.08394958943294951
Kappa statistic: 0.8005048110241387
Training time: 234.0
		
Iteration: 15
Labeled set size: 657
Unlabelled set size: 1229
	
Mean region size: 27.465535524920465
Incorrectly Classified Instances: 2.9692470837751856
Correctly Classified Instances: 97.03075291622481
Weighted Precision: 0.9727731839226551
Weighted AreaUnderROC: 0.9705916687468189
Root mean squared error: 0.11325501314813737
Relative absolute error: 5.947028012109701
Root relative squared error: 26.155124931260687
Weighted TruePositiveRate: 0.9703075291622482
Weighted MatthewsCorrelation: 0.8342144599468153
Weighted FMeasure: 0.9708827268759257
Iteration time: 301.0
Weighted AreaUnderPRC: 0.9708299195170257
Mean absolute error: 0.022301355045411378
Coverage of cases: 98.40933191940616
Instances selection time: 3.0
Test time: 79.0
Accumulative iteration time: 2861.0
Weighted Recall: 0.9703075291622482
Weighted FalsePositiveRate: 0.0902144743644378
Kappa statistic: 0.8056714726251721
Training time: 298.0
		
Iteration: 16
Labeled set size: 677
Unlabelled set size: 1209
	
Mean region size: 27.35949098621421
Incorrectly Classified Instances: 2.8101802757158008
Correctly Classified Instances: 97.1898197242842
Weighted Precision: 0.9739271090815862
Weighted AreaUnderROC: 0.9701279554541697
Root mean squared error: 0.11206286953457677
Relative absolute error: 5.840522955492994
Root relative squared error: 25.879811156779922
Weighted TruePositiveRate: 0.971898197242842
Weighted MatthewsCorrelation: 0.8464845087294648
Weighted FMeasure: 0.9722585396535004
Iteration time: 255.0
Weighted AreaUnderPRC: 0.9705966583671088
Mean absolute error: 0.021901961083098727
Coverage of cases: 98.51537645811241
Instances selection time: 4.0
Test time: 84.0
Accumulative iteration time: 3116.0
Weighted Recall: 0.971898197242842
Weighted FalsePositiveRate: 0.08379064773598595
Kappa statistic: 0.8149453674322508
Training time: 251.0
		
Iteration: 17
Labeled set size: 697
Unlabelled set size: 1189
	
Mean region size: 27.187168610816542
Incorrectly Classified Instances: 2.916224814422057
Correctly Classified Instances: 97.08377518557795
Weighted Precision: 0.9731186123124905
Weighted AreaUnderROC: 0.9762880704515909
Root mean squared error: 0.11424776317688227
Relative absolute error: 5.624625085360573
Root relative squared error: 26.38439072979424
Weighted TruePositiveRate: 0.9708377518557795
Weighted MatthewsCorrelation: 0.8360043078761012
Weighted FMeasure: 0.9714597452484347
Iteration time: 296.0
Weighted AreaUnderPRC: 0.9742712847161088
Mean absolute error: 0.021092344070102145
Coverage of cases: 98.62142099681867
Instances selection time: 4.0
Test time: 79.0
Accumulative iteration time: 3412.0
Weighted Recall: 0.9708377518557795
Weighted FalsePositiveRate: 0.08380255222677944
Kappa statistic: 0.8103586968444918
Training time: 292.0
		
Iteration: 18
Labeled set size: 717
Unlabelled set size: 1169
	
Mean region size: 27.081124072110285
Incorrectly Classified Instances: 2.9692470837751856
Correctly Classified Instances: 97.03075291622481
Weighted Precision: 0.9720821672708837
Weighted AreaUnderROC: 0.9715450730246457
Root mean squared error: 0.11200919257282183
Relative absolute error: 5.539284851963935
Root relative squared error: 25.867414993452524
Weighted TruePositiveRate: 0.9703075291622482
Weighted MatthewsCorrelation: 0.8399940762221824
Weighted FMeasure: 0.970595912460922
Iteration time: 372.0
Weighted AreaUnderPRC: 0.9725996562549151
Mean absolute error: 0.020772318194864758
Coverage of cases: 98.56839872746554
Instances selection time: 4.0
Test time: 79.0
Accumulative iteration time: 3784.0
Weighted Recall: 0.9703075291622482
Weighted FalsePositiveRate: 0.09655205459612184
Kappa statistic: 0.802650362873992
Training time: 368.0
		
Iteration: 19
Labeled set size: 737
Unlabelled set size: 1149
	
Mean region size: 27.399257688229056
Incorrectly Classified Instances: 3.1283138918345705
Correctly Classified Instances: 96.87168610816543
Weighted Precision: 0.9721604175548771
Weighted AreaUnderROC: 0.9688628758154829
Root mean squared error: 0.11715677625939455
Relative absolute error: 6.123657849749271
Root relative squared error: 27.05619852430008
Weighted TruePositiveRate: 0.9687168610816543
Weighted MatthewsCorrelation: 0.8387759649770585
Weighted FMeasure: 0.9692498087422494
Iteration time: 384.0
Weighted AreaUnderPRC: 0.9705636542751539
Mean absolute error: 0.022963716936559766
Coverage of cases: 98.40933191940616
Instances selection time: 3.0
Test time: 77.0
Accumulative iteration time: 4168.0
Weighted Recall: 0.9687168610816543
Weighted FalsePositiveRate: 0.08399353593422268
Kappa statistic: 0.7951479403231273
Training time: 381.0
		
Iteration: 20
Labeled set size: 757
Unlabelled set size: 1129
	
Mean region size: 27.22693531283139
Incorrectly Classified Instances: 3.2343584305408273
Correctly Classified Instances: 96.76564156945918
Weighted Precision: 0.9709840169754346
Weighted AreaUnderROC: 0.9770478121722267
Root mean squared error: 0.11714974219338863
Relative absolute error: 5.926792496748135
Root relative squared error: 27.054574076339275
Weighted TruePositiveRate: 0.9676564156945917
Weighted MatthewsCorrelation: 0.832037184658547
Weighted FMeasure: 0.9685267061563968
Iteration time: 345.0
Weighted AreaUnderPRC: 0.9723429871216731
Mean absolute error: 0.022225471862805508
Coverage of cases: 98.46235418875928
Instances selection time: 4.0
Test time: 97.0
Accumulative iteration time: 4513.0
Weighted Recall: 0.9676564156945917
Weighted FalsePositiveRate: 0.077637464788631
Kappa statistic: 0.7914934337631079
Training time: 341.0
		
Iteration: 21
Labeled set size: 777
Unlabelled set size: 1109
	
Mean region size: 27.24019088016967
Incorrectly Classified Instances: 3.2873806998939554
Correctly Classified Instances: 96.71261930010604
Weighted Precision: 0.9704562422261692
Weighted AreaUnderROC: 0.9759041414101306
Root mean squared error: 0.12065808381504346
Relative absolute error: 6.217782003869442
Root relative squared error: 27.864790868207912
Weighted TruePositiveRate: 0.9671261930010604
Weighted MatthewsCorrelation: 0.8351475505334515
Weighted FMeasure: 0.968125834530021
Iteration time: 406.0
Weighted AreaUnderPRC: 0.9710815177494508
Mean absolute error: 0.02331668251451041
Coverage of cases: 98.35630965005302
Instances selection time: 3.0
Test time: 76.0
Accumulative iteration time: 4919.0
Weighted Recall: 0.9671261930010604
Weighted FalsePositiveRate: 0.07128304024881785
Kappa statistic: 0.788762112595654
Training time: 403.0
		
Iteration: 22
Labeled set size: 797
Unlabelled set size: 1089
	
Mean region size: 27.4390243902439
Incorrectly Classified Instances: 2.9692470837751856
Correctly Classified Instances: 97.03075291622481
Weighted Precision: 0.9725418592685201
Weighted AreaUnderROC: 0.9718004171530387
Root mean squared error: 0.11402417160332366
Relative absolute error: 5.970559946350548
Root relative squared error: 26.3327544677212
Weighted TruePositiveRate: 0.9703075291622482
Weighted MatthewsCorrelation: 0.8389015915410725
Weighted FMeasure: 0.9707821702016863
Iteration time: 332.0
Weighted AreaUnderPRC: 0.9690665407801899
Mean absolute error: 0.022389599798814552
Coverage of cases: 98.51537645811241
Instances selection time: 3.0
Test time: 73.0
Accumulative iteration time: 5251.0
Weighted Recall: 0.9703075291622482
Weighted FalsePositiveRate: 0.0902144743644378
Kappa statistic: 0.8044705769095482
Training time: 329.0
		
Iteration: 23
Labeled set size: 817
Unlabelled set size: 1069
	
Mean region size: 27.067868504772004
Incorrectly Classified Instances: 3.022269353128314
Correctly Classified Instances: 96.97773064687169
Weighted Precision: 0.9725849797531649
Weighted AreaUnderROC: 0.9748302636058922
Root mean squared error: 0.11300429377955111
Relative absolute error: 5.610160834733548
Root relative squared error: 26.097223773282956
Weighted TruePositiveRate: 0.9697773064687168
Weighted MatthewsCorrelation: 0.8373844135746163
Weighted FMeasure: 0.9704136445092236
Iteration time: 352.0
Weighted AreaUnderPRC: 0.9713105852444641
Mean absolute error: 0.021038103130250802
Coverage of cases: 98.46235418875928
Instances selection time: 2.0
Test time: 75.0
Accumulative iteration time: 5603.0
Weighted Recall: 0.9697773064687168
Weighted FalsePositiveRate: 0.08390564293167635
Kappa statistic: 0.802779744847602
Training time: 350.0
		
Iteration: 24
Labeled set size: 837
Unlabelled set size: 1049
	
Mean region size: 27.120890774125133
Incorrectly Classified Instances: 3.022269353128314
Correctly Classified Instances: 96.97773064687169
Weighted Precision: 0.9724676280292693
Weighted AreaUnderROC: 0.9729010475592782
Root mean squared error: 0.11427193613804516
Relative absolute error: 5.639115164405137
Root relative squared error: 26.38997323604804
Weighted TruePositiveRate: 0.9697773064687168
Weighted MatthewsCorrelation: 0.8397238651729707
Weighted FMeasure: 0.9704022140801498
Iteration time: 323.0
Weighted AreaUnderPRC: 0.9693406975407155
Mean absolute error: 0.021146681866519263
Coverage of cases: 98.35630965005302
Instances selection time: 3.0
Test time: 73.0
Accumulative iteration time: 5926.0
Weighted Recall: 0.9697773064687168
Weighted FalsePositiveRate: 0.08390564293167635
Kappa statistic: 0.802183121657877
Training time: 320.0
		
Iteration: 25
Labeled set size: 857
Unlabelled set size: 1029
	
Mean region size: 27.160657476139978
Incorrectly Classified Instances: 3.0752916224814424
Correctly Classified Instances: 96.92470837751856
Weighted Precision: 0.970808971314503
Weighted AreaUnderROC: 0.9734334991470129
Root mean squared error: 0.11334586163489575
Relative absolute error: 5.565886187052029
Root relative squared error: 26.17610549057486
Weighted TruePositiveRate: 0.9692470837751855
Weighted MatthewsCorrelation: 0.8230506985941685
Weighted FMeasure: 0.9696044778024208
Iteration time: 317.0
Weighted AreaUnderPRC: 0.9705353234442582
Mean absolute error: 0.020872073201445105
Coverage of cases: 98.51537645811241
Instances selection time: 3.0
Test time: 76.0
Accumulative iteration time: 6243.0
Weighted Recall: 0.9692470837751855
Weighted FalsePositiveRate: 0.1156222928890192
Kappa statistic: 0.795010756557002
Training time: 314.0
		
Iteration: 26
Labeled set size: 877
Unlabelled set size: 1009
	
Mean region size: 27.253446447507955
Incorrectly Classified Instances: 3.0752916224814424
Correctly Classified Instances: 96.92470837751856
Weighted Precision: 0.9712332642287522
Weighted AreaUnderROC: 0.980258234950947
Root mean squared error: 0.11214218867749967
Relative absolute error: 5.583014160650539
Root relative squared error: 25.898129128187296
Weighted TruePositiveRate: 0.9692470837751855
Weighted MatthewsCorrelation: 0.830453127370331
Weighted FMeasure: 0.9696053365072603
Iteration time: 351.0
Weighted AreaUnderPRC: 0.9737762821791139
Mean absolute error: 0.02093630310243952
Coverage of cases: 98.62142099681867
Instances selection time: 3.0
Test time: 76.0
Accumulative iteration time: 6594.0
Weighted Recall: 0.9692470837751855
Weighted FalsePositiveRate: 0.1029471324256511
Kappa statistic: 0.7962281303090814
Training time: 348.0
		
Iteration: 27
Labeled set size: 897
Unlabelled set size: 989
	
Mean region size: 27.346235418875928
Incorrectly Classified Instances: 3.3404029692470836
Correctly Classified Instances: 96.65959703075292
Weighted Precision: 0.9688780547553023
Weighted AreaUnderROC: 0.977516922467107
Root mean squared error: 0.1145640499202153
Relative absolute error: 5.874343867203755
Root relative squared error: 26.45743402435601
Weighted TruePositiveRate: 0.9665959703075292
Weighted MatthewsCorrelation: 0.8119808509867515
Weighted FMeasure: 0.9669820580430004
Iteration time: 366.0
Weighted AreaUnderPRC: 0.9726027900867817
Mean absolute error: 0.02202878950201408
Coverage of cases: 98.56839872746554
Instances selection time: 2.0
Test time: 74.0
Accumulative iteration time: 6960.0
Weighted Recall: 0.9665959703075292
Weighted FalsePositiveRate: 0.12211881481766683
Kappa statistic: 0.7779401650618983
Training time: 364.0
		
Iteration: 28
Labeled set size: 917
Unlabelled set size: 969
	
Mean region size: 27.10763520678685
Incorrectly Classified Instances: 2.9692470837751856
Correctly Classified Instances: 97.03075291622481
Weighted Precision: 0.9719429358468
Weighted AreaUnderROC: 0.9804420498605838
Root mean squared error: 0.11083842634220216
Relative absolute error: 5.424116590318001
Root relative squared error: 25.597038114089973
Weighted TruePositiveRate: 0.9703075291622482
Weighted MatthewsCorrelation: 0.8387332979272357
Weighted FMeasure: 0.970336182053779
Iteration time: 361.0
Weighted AreaUnderPRC: 0.9740410964078965
Mean absolute error: 0.020340437213692504
Coverage of cases: 98.56839872746554
Instances selection time: 6.0
Test time: 203.0
Accumulative iteration time: 7321.0
Weighted Recall: 0.9703075291622482
Weighted FalsePositiveRate: 0.10290483253015646
Kappa statistic: 0.8013743713962246
Training time: 355.0
		
Iteration: 29
Labeled set size: 937
Unlabelled set size: 949
	
Mean region size: 27.584835630965006
Incorrectly Classified Instances: 3.552492046659597
Correctly Classified Instances: 96.4475079533404
Weighted Precision: 0.9681457281327049
Weighted AreaUnderROC: 0.9792579920181951
Root mean squared error: 0.11732351265796677
Relative absolute error: 6.242666331858792
Root relative squared error: 27.09470464613983
Weighted TruePositiveRate: 0.9644750795334041
Weighted MatthewsCorrelation: 0.8068765476219776
Weighted FMeasure: 0.9651982439072163
Iteration time: 467.0
Weighted AreaUnderPRC: 0.9737933407740589
Mean absolute error: 0.02340999874447047
Coverage of cases: 98.56839872746554
Instances selection time: 2.0
Test time: 73.0
Accumulative iteration time: 7788.0
Weighted Recall: 0.9644750795334041
Weighted FalsePositiveRate: 0.11591142748402374
Kappa statistic: 0.7666651894199593
Training time: 465.0
		
Iteration: 30
Labeled set size: 957
Unlabelled set size: 929
	
Mean region size: 27.35949098621421
Incorrectly Classified Instances: 3.393425238600212
Correctly Classified Instances: 96.60657476139978
Weighted Precision: 0.9693140601896217
Weighted AreaUnderROC: 0.9810985071402977
Root mean squared error: 0.11874292177132881
Relative absolute error: 6.251823491366671
Root relative squared error: 27.422503139615745
Weighted TruePositiveRate: 0.9660657476139979
Weighted MatthewsCorrelation: 0.8153974653283029
Weighted FMeasure: 0.9665741270790189
Iteration time: 405.0
Weighted AreaUnderPRC: 0.9758422121125837
Mean absolute error: 0.023444338092625014
Coverage of cases: 98.62142099681867
Instances selection time: 2.0
Test time: 73.0
Accumulative iteration time: 8193.0
Weighted Recall: 0.9660657476139979
Weighted FalsePositiveRate: 0.1158403787896065
Kappa statistic: 0.7750435174796764
Training time: 403.0
		
Iteration: 31
Labeled set size: 977
Unlabelled set size: 909
	
Mean region size: 27.187168610816542
Incorrectly Classified Instances: 3.1283138918345705
Correctly Classified Instances: 96.87168610816543
Weighted Precision: 0.9714963194443977
Weighted AreaUnderROC: 0.9784436987724618
Root mean squared error: 0.11457743833113199
Relative absolute error: 5.806661379427602
Root relative squared error: 26.46052594541472
Weighted TruePositiveRate: 0.9687168610816543
Weighted MatthewsCorrelation: 0.8325139633799798
Weighted FMeasure: 0.9690154906733848
Iteration time: 424.0
Weighted AreaUnderPRC: 0.9745473349004998
Mean absolute error: 0.02177498017285351
Coverage of cases: 98.56839872746554
Instances selection time: 2.0
Test time: 73.0
Accumulative iteration time: 8617.0
Weighted Recall: 0.9687168610816543
Weighted FalsePositiveRate: 0.1030214743316254
Kappa statistic: 0.7919808869330485
Training time: 422.0
		
Iteration: 32
Labeled set size: 997
Unlabelled set size: 889
	
Mean region size: 26.829268292682926
Incorrectly Classified Instances: 2.757158006362672
Correctly Classified Instances: 97.24284199363733
Weighted Precision: 0.9738781551601933
Weighted AreaUnderROC: 0.9829895580093259
Root mean squared error: 0.11103024908695192
Relative absolute error: 5.242070276812299
Root relative squared error: 25.641337679417155
Weighted TruePositiveRate: 0.9724284199363733
Weighted MatthewsCorrelation: 0.8571953618019732
Weighted FMeasure: 0.9721641689829472
Iteration time: 647.0
Weighted AreaUnderPRC: 0.9761589392638503
Mean absolute error: 0.019657763538046123
Coverage of cases: 98.72746553552491
Instances selection time: 2.0
Test time: 73.0
Accumulative iteration time: 9264.0
Weighted Recall: 0.9724284199363733
Weighted FalsePositiveRate: 0.09648265250748314
Kappa statistic: 0.813199036967056
Training time: 645.0
		
Iteration: 33
Labeled set size: 1017
Unlabelled set size: 869
	
Mean region size: 27.05461293743372
Incorrectly Classified Instances: 3.1283138918345705
Correctly Classified Instances: 96.87168610816543
Weighted Precision: 0.9713902092148919
Weighted AreaUnderROC: 0.9842593091215583
Root mean squared error: 0.11479359657028507
Relative absolute error: 5.813943279925598
Root relative squared error: 26.510445552439755
Weighted TruePositiveRate: 0.9687168610816543
Weighted MatthewsCorrelation: 0.8348988382678025
Weighted FMeasure: 0.9688850116532561
Iteration time: 416.0
Weighted AreaUnderPRC: 0.9762754454318329
Mean absolute error: 0.02180228729972099
Coverage of cases: 98.56839872746554
Instances selection time: 2.0
Test time: 72.0
Accumulative iteration time: 9680.0
Weighted Recall: 0.9687168610816543
Weighted FalsePositiveRate: 0.1030214743316254
Kappa statistic: 0.7913200357070524
Training time: 414.0
		
Iteration: 34
Labeled set size: 1037
Unlabelled set size: 849
	
Mean region size: 27.001590668080595
Incorrectly Classified Instances: 3.1813361611876987
Correctly Classified Instances: 96.8186638388123
Weighted Precision: 0.9704028404456557
Weighted AreaUnderROC: 0.9847173100780025
Root mean squared error: 0.11259262706648544
Relative absolute error: 5.568337851646203
Root relative squared error: 26.002153418241004
Weighted TruePositiveRate: 0.968186638388123
Weighted MatthewsCorrelation: 0.8305839022125003
Weighted FMeasure: 0.9683029298589962
Iteration time: 457.0
Weighted AreaUnderPRC: 0.9765102783028341
Mean absolute error: 0.02088126694367326
Coverage of cases: 98.56839872746554
Instances selection time: 4.0
Test time: 73.0
Accumulative iteration time: 10137.0
Weighted Recall: 0.968186638388123
Weighted FalsePositiveRate: 0.10937260565988148
Kappa statistic: 0.7871467964802853
Training time: 453.0
		
Iteration: 35
Labeled set size: 1057
Unlabelled set size: 829
	
Mean region size: 27.05461293743372
Incorrectly Classified Instances: 3.022269353128314
Correctly Classified Instances: 96.97773064687169
Weighted Precision: 0.9720103563258781
Weighted AreaUnderROC: 0.9844574399899678
Root mean squared error: 0.11227592895298591
Relative absolute error: 5.602473349031263
Root relative squared error: 25.929015121808686
Weighted TruePositiveRate: 0.9697773064687168
Weighted MatthewsCorrelation: 0.8419534024024519
Weighted FMeasure: 0.9698512123543422
Iteration time: 495.0
Weighted AreaUnderPRC: 0.9748929831779766
Mean absolute error: 0.021009275058867235
Coverage of cases: 98.72746553552491
Instances selection time: 2.0
Test time: 72.0
Accumulative iteration time: 10632.0
Weighted Recall: 0.9697773064687168
Weighted FalsePositiveRate: 0.09661119879974558
Kappa statistic: 0.7984128353316656
Training time: 493.0
		
Iteration: 36
Labeled set size: 1077
Unlabelled set size: 809
	
Mean region size: 26.97507953340403
Incorrectly Classified Instances: 3.0752916224814424
Correctly Classified Instances: 96.92470837751856
Weighted Precision: 0.971685149515442
Weighted AreaUnderROC: 0.9842350690351506
Root mean squared error: 0.11251854865831608
Relative absolute error: 5.523715418654866
Root relative squared error: 25.985045742681915
Weighted TruePositiveRate: 0.9692470837751855
Weighted MatthewsCorrelation: 0.8378500024474574
Weighted FMeasure: 0.969336281894219
Iteration time: 518.0
Weighted AreaUnderPRC: 0.9758859248016679
Mean absolute error: 0.020713932819955743
Coverage of cases: 98.56839872746554
Instances selection time: 1.0
Test time: 73.0
Accumulative iteration time: 11150.0
Weighted Recall: 0.9692470837751855
Weighted FalsePositiveRate: 0.10299272553270279
Kappa statistic: 0.7942225499638812
Training time: 517.0
		
Iteration: 37
Labeled set size: 1097
Unlabelled set size: 789
	
Mean region size: 27.081124072110285
Incorrectly Classified Instances: 3.1283138918345705
Correctly Classified Instances: 96.87168610816543
Weighted Precision: 0.9713902092148919
Weighted AreaUnderROC: 0.9839641376817782
Root mean squared error: 0.11321982878451549
Relative absolute error: 5.649540651356027
Root relative squared error: 26.146999450537344
Weighted TruePositiveRate: 0.9687168610816543
Weighted MatthewsCorrelation: 0.8348988382678025
Weighted FMeasure: 0.9688850116532561
Iteration time: 533.0
Weighted AreaUnderPRC: 0.9752249320869487
Mean absolute error: 0.0211857774425851
Coverage of cases: 98.67444326617179
Instances selection time: 2.0
Test time: 73.0
Accumulative iteration time: 11683.0
Weighted Recall: 0.9687168610816543
Weighted FalsePositiveRate: 0.1030214743316254
Kappa statistic: 0.7913200357070524
Training time: 531.0
		
Iteration: 38
Labeled set size: 1117
Unlabelled set size: 769
	
Mean region size: 26.816012725344645
Incorrectly Classified Instances: 2.916224814422057
Correctly Classified Instances: 97.08377518557795
Weighted Precision: 0.9725214342644196
Weighted AreaUnderROC: 0.9756533770618107
Root mean squared error: 0.10958078690656206
Relative absolute error: 5.2178271873549935
Root relative squared error: 25.306598727405852
Weighted TruePositiveRate: 0.9708377518557795
Weighted MatthewsCorrelation: 0.8417927519844377
Weighted FMeasure: 0.9708177202605379
Iteration time: 601.0
Weighted AreaUnderPRC: 0.9738929456270049
Mean absolute error: 0.019566851952581225
Coverage of cases: 98.56839872746554
Instances selection time: 2.0
Test time: 73.0
Accumulative iteration time: 12284.0
Weighted Recall: 0.9708377518557795
Weighted FalsePositiveRate: 0.10289128143358443
Kappa statistic: 0.8042977888461252
Training time: 599.0
		
Iteration: 39
Labeled set size: 1137
Unlabelled set size: 749
	
Mean region size: 27.05461293743372
Incorrectly Classified Instances: 3.1813361611876987
Correctly Classified Instances: 96.8186638388123
Weighted Precision: 0.9693454641289927
Weighted AreaUnderROC: 0.9745710294811106
Root mean squared error: 0.11319893464083172
Relative absolute error: 5.644887698922832
Root relative squared error: 26.14217415474522
Weighted TruePositiveRate: 0.968186638388123
Weighted MatthewsCorrelation: 0.8218030199606672
Weighted FMeasure: 0.9681295225323092
Iteration time: 454.0
Weighted AreaUnderPRC: 0.974179582417301
Mean absolute error: 0.02116832887096062
Coverage of cases: 98.56839872746554
Instances selection time: 1.0
Test time: 71.0
Accumulative iteration time: 12738.0
Weighted Recall: 0.968186638388123
Weighted FalsePositiveRate: 0.12837014865258306
Kappa statistic: 0.7845219914768509
Training time: 453.0
		
Iteration: 40
Labeled set size: 1157
Unlabelled set size: 729
	
Mean region size: 27.028101802757156
Incorrectly Classified Instances: 3.0752916224814424
Correctly Classified Instances: 96.92470837751856
Weighted Precision: 0.9738551680160075
Weighted AreaUnderROC: 0.983036040918037
Root mean squared error: 0.11194491070370195
Relative absolute error: 5.443063282904199
Root relative squared error: 25.85256973167638
Weighted TruePositiveRate: 0.9692470837751855
Weighted MatthewsCorrelation: 0.8391375226220931
Weighted FMeasure: 0.9706577425841919
Iteration time: 711.0
Weighted AreaUnderPRC: 0.9772842439551316
Mean absolute error: 0.02041148731089075
Coverage of cases: 98.35630965005302
Instances selection time: 1.0
Test time: 74.0
Accumulative iteration time: 13449.0
Weighted Recall: 0.9692470837751855
Weighted FalsePositiveRate: 0.10279345293698448
Kappa statistic: 0.7944823543557984
Training time: 710.0
		
Iteration: 41
Labeled set size: 1177
Unlabelled set size: 709
	
Mean region size: 27.028101802757156
Incorrectly Classified Instances: 3.0752916224814424
Correctly Classified Instances: 96.92470837751856
Weighted Precision: 0.9726889433458216
Weighted AreaUnderROC: 0.9843106139012667
Root mean squared error: 0.11297608094473016
Relative absolute error: 5.576563564833535
Root relative squared error: 26.090708298171567
Weighted TruePositiveRate: 0.9692470837751855
Weighted MatthewsCorrelation: 0.833840285859943
Weighted FMeasure: 0.9701125963981442
Iteration time: 600.0
Weighted AreaUnderPRC: 0.9777924841293688
Mean absolute error: 0.020912113368125755
Coverage of cases: 98.62142099681867
Instances selection time: 2.0
Test time: 76.0
Accumulative iteration time: 14049.0
Weighted Recall: 0.9692470837751855
Weighted FalsePositiveRate: 0.11552554842770066
Kappa statistic: 0.792484614859276
Training time: 598.0
		
Iteration: 42
Labeled set size: 1197
Unlabelled set size: 689
	
Mean region size: 26.762990455991517
Incorrectly Classified Instances: 2.651113467656416
Correctly Classified Instances: 97.34888653234358
Weighted Precision: 0.9770861665118031
Weighted AreaUnderROC: 0.9819632784613633
Root mean squared error: 0.10896529953945314
Relative absolute error: 5.232187690277158
Root relative squared error: 25.164458008572588
Weighted TruePositiveRate: 0.9734888653234358
Weighted MatthewsCorrelation: 0.8589641279382394
Weighted FMeasure: 0.9746935947213379
Iteration time: 594.0
Weighted AreaUnderPRC: 0.9731686541818326
Mean absolute error: 0.019620703838539342
Coverage of cases: 98.46235418875928
Instances selection time: 1.0
Test time: 77.0
Accumulative iteration time: 14643.0
Weighted Recall: 0.9734888653234358
Weighted FalsePositiveRate: 0.08360765687789962
Kappa statistic: 0.8233778104092838
Training time: 593.0
		
Iteration: 43
Labeled set size: 1217
Unlabelled set size: 669
	
Mean region size: 26.98833510074231
Incorrectly Classified Instances: 2.9692470837751856
Correctly Classified Instances: 97.03075291622481
Weighted Precision: 0.9747269829735352
Weighted AreaUnderROC: 0.9831263944242805
Root mean squared error: 0.11281815158980965
Relative absolute error: 5.610858336476873
Root relative squared error: 26.054236075941045
Weighted TruePositiveRate: 0.9703075291622482
Weighted MatthewsCorrelation: 0.8402823966469182
Weighted FMeasure: 0.9719321883748052
Iteration time: 618.0
Weighted AreaUnderPRC: 0.9763446250226412
Mean absolute error: 0.021040718761788275
Coverage of cases: 98.40933191940616
Instances selection time: 2.0
Test time: 75.0
Accumulative iteration time: 15261.0
Weighted Recall: 0.9703075291622482
Weighted FalsePositiveRate: 0.10273595533913928
Kappa statistic: 0.8016250756002
Training time: 616.0
		
Iteration: 44
Labeled set size: 1237
Unlabelled set size: 649
	
Mean region size: 26.89554612937434
Incorrectly Classified Instances: 2.8101802757158008
Correctly Classified Instances: 97.1898197242842
Weighted Precision: 0.9761708708530659
Weighted AreaUnderROC: 0.9796610412243849
Root mean squared error: 0.11050868549570049
Relative absolute error: 5.339619851403387
Root relative squared error: 25.52088772749375
Weighted TruePositiveRate: 0.971898197242842
Weighted MatthewsCorrelation: 0.8479929012983827
Weighted FMeasure: 0.9734437409533568
Iteration time: 552.0
Weighted AreaUnderPRC: 0.976443993058542
Mean absolute error: 0.0200235744427627
Coverage of cases: 98.46235418875928
Instances selection time: 2.0
Test time: 77.0
Accumulative iteration time: 15813.0
Weighted Recall: 0.971898197242842
Weighted FalsePositiveRate: 0.09631212871068744
Kappa statistic: 0.8122523036930462
Training time: 550.0
		
Iteration: 45
Labeled set size: 1257
Unlabelled set size: 629
	
Mean region size: 26.64369034994698
Incorrectly Classified Instances: 2.5980911983032873
Correctly Classified Instances: 97.4019088016967
Weighted Precision: 0.9778754584446678
Weighted AreaUnderROC: 0.9857742209383905
Root mean squared error: 0.10584599680800018
Relative absolute error: 4.716030318118515
Root relative squared error: 24.44408589989727
Weighted TruePositiveRate: 0.9740190880169671
Weighted MatthewsCorrelation: 0.8683207950721094
Weighted FMeasure: 0.9753249877093443
Iteration time: 551.0
Weighted AreaUnderPRC: 0.9779439523403882
Mean absolute error: 0.01768511369294443
Coverage of cases: 98.46235418875928
Instances selection time: 1.0
Test time: 78.0
Accumulative iteration time: 16364.0
Weighted Recall: 0.9740190880169671
Weighted FalsePositiveRate: 0.07721286033361893
Kappa statistic: 0.8263906370348105
Training time: 550.0
		
Iteration: 46
Labeled set size: 1277
Unlabelled set size: 609
	
Mean region size: 27.09437963944857
Incorrectly Classified Instances: 2.916224814422057
Correctly Classified Instances: 97.08377518557795
Weighted Precision: 0.9758712422687059
Weighted AreaUnderROC: 0.9873374358554474
Root mean squared error: 0.11109275801516989
Relative absolute error: 5.52408005721033
Root relative squared error: 25.65577349803052
Weighted TruePositiveRate: 0.9708377518557795
Weighted MatthewsCorrelation: 0.8495310707058218
Weighted FMeasure: 0.972192547685821
Iteration time: 562.0
Weighted AreaUnderPRC: 0.9783319738838695
Mean absolute error: 0.02071530021453874
Coverage of cases: 98.51537645811241
Instances selection time: 2.0
Test time: 75.0
Accumulative iteration time: 16926.0
Weighted Recall: 0.9708377518557795
Weighted FalsePositiveRate: 0.09640002171323377
Kappa statistic: 0.8044719063847758
Training time: 560.0
		
Time end:Mon Nov 27 16.25.27 EET 2017