Wed Nov 01 10.30.09 EET 2017
Dataset: splice
Test set size: 1595
Initial Labelled set size: 319
Initial Unlabelled set size: 1276
Batch mode: QBestBatchMode
Batch size: 20
Classifiers: RandomForest-1cores
Scenario: PoolBasedSamplingScenario
Query strategy: EntropySamplingQueryStrategy-1cores
Time begining: Wed Nov 01 10.30.09 EET 2017
		
Iteration: 1
Labeled set size: 319
Unlabelled set size: 1276
	
Mean region size: 94.4472309299897
Incorrectly Classified Instances: 24.852664576802507
Correctly Classified Instances: 75.14733542319749
Weighted Precision: 0.7626056955624597
Weighted AreaUnderROC: 0.8954854196428368
Root mean squared error: 0.36134457714947804
Relative absolute error: 68.96192017443282
Root relative squared error: 76.65276025421358
Weighted TruePositiveRate: 0.7514733542319749
Weighted MatthewsCorrelation: 0.5866821927059556
Weighted FMeasure: 0.7364373263403502
Iteration time: 95.3
Weighted AreaUnderPRC: 0.8416247453317947
Mean absolute error: 0.3064974229974861
Coverage of cases: 99.91222570532916
Instances selection time: 10.0
Test time: 14.4
Accumulative iteration time: 95.3
Weighted Recall: 0.7514733542319749
Weighted FalsePositiveRate: 0.21580730291877423
Kappa statistic: 0.5662741626881449
Training time: 85.3
		
Iteration: 2
Labeled set size: 339
Unlabelled set size: 1256
	
Mean region size: 94.97805642633242
Incorrectly Classified Instances: 23.141065830721004
Correctly Classified Instances: 76.85893416927898
Weighted Precision: 0.7758840530623761
Weighted AreaUnderROC: 0.9076942995009242
Root mean squared error: 0.3577556090973378
Relative absolute error: 68.9297119477653
Root relative squared error: 75.8914251600745
Weighted TruePositiveRate: 0.7685893416927899
Weighted MatthewsCorrelation: 0.6159925056215935
Weighted FMeasure: 0.7601518173993222
Iteration time: 80.6
Weighted AreaUnderPRC: 0.8590221657853283
Mean absolute error: 0.30635427532340825
Coverage of cases: 99.9435736677116
Instances selection time: 10.0
Test time: 13.3
Accumulative iteration time: 175.9
Weighted Recall: 0.7685893416927899
Weighted FalsePositiveRate: 0.18953009106886792
Kappa statistic: 0.6039383282760233
Training time: 70.6
		
Iteration: 3
Labeled set size: 359
Unlabelled set size: 1236
	
Mean region size: 95.75548589341702
Incorrectly Classified Instances: 21.203761755485893
Correctly Classified Instances: 78.79623824451411
Weighted Precision: 0.7917553798729905
Weighted AreaUnderROC: 0.9178321668509725
Root mean squared error: 0.353159057146618
Relative absolute error: 68.23324155623615
Root relative squared error: 74.91634924374547
Weighted TruePositiveRate: 0.787962382445141
Weighted MatthewsCorrelation: 0.6503387123233417
Weighted FMeasure: 0.7804964174402075
Iteration time: 79.1
Weighted AreaUnderPRC: 0.8704741692255906
Mean absolute error: 0.30325885136105646
Coverage of cases: 99.95611285266457
Instances selection time: 6.2
Test time: 12.9
Accumulative iteration time: 255.0
Weighted Recall: 0.787962382445141
Weighted FalsePositiveRate: 0.1696778946338487
Kappa statistic: 0.6393638437635574
Training time: 72.9
		
Iteration: 4
Labeled set size: 379
Unlabelled set size: 1216
	
Mean region size: 96.94670846394995
Incorrectly Classified Instances: 23.655172413793103
Correctly Classified Instances: 76.3448275862069
Weighted Precision: 0.7642234025857173
Weighted AreaUnderROC: 0.8913356883120631
Root mean squared error: 0.3657103008120805
Relative absolute error: 71.38395897859516
Root relative squared error: 77.57887009619739
Weighted TruePositiveRate: 0.7634482758620689
Weighted MatthewsCorrelation: 0.6046909548396793
Weighted FMeasure: 0.7561627182822936
Iteration time: 70.4
Weighted AreaUnderPRC: 0.8364022598954548
Mean absolute error: 0.31726203990487456
Coverage of cases: 99.97492163009404
Instances selection time: 5.6
Test time: 11.3
Accumulative iteration time: 325.4
Weighted Recall: 0.7634482758620689
Weighted FalsePositiveRate: 0.18619285756024193
Kappa statistic: 0.5983997123427948
Training time: 64.8
		
Iteration: 5
Labeled set size: 399
Unlabelled set size: 1196
	
Mean region size: 95.9435736677117
Incorrectly Classified Instances: 21.266457680250785
Correctly Classified Instances: 78.73354231974922
Weighted Precision: 0.7866920136106976
Weighted AreaUnderROC: 0.9082922069870948
Root mean squared error: 0.355515025888483
Relative absolute error: 68.99507062670808
Root relative squared error: 75.41612568583635
Weighted TruePositiveRate: 0.7873354231974921
Weighted MatthewsCorrelation: 0.6463044308234454
Weighted FMeasure: 0.7825443864547305
Iteration time: 76.2
Weighted AreaUnderPRC: 0.8612082716003491
Mean absolute error: 0.30664475834093174
Coverage of cases: 99.97492163009404
Instances selection time: 5.8
Test time: 13.1
Accumulative iteration time: 401.6
Weighted Recall: 0.7873354231974921
Weighted FalsePositiveRate: 0.1577958512107122
Kappa statistic: 0.6447157880243894
Training time: 70.4
		
Iteration: 6
Labeled set size: 419
Unlabelled set size: 1176
	
Mean region size: 93.47126436781622
Incorrectly Classified Instances: 18.721003134796238
Correctly Classified Instances: 81.27899686520377
Weighted Precision: 0.8122515241860782
Weighted AreaUnderROC: 0.9273132520983
Root mean squared error: 0.3417553708581927
Relative absolute error: 65.30397810429824
Root relative squared error: 72.49726207222461
Weighted TruePositiveRate: 0.8127899686520376
Weighted MatthewsCorrelation: 0.6937284769812717
Weighted FMeasure: 0.8095447400299
Iteration time: 88.6
Weighted AreaUnderPRC: 0.8856429408404687
Mean absolute error: 0.29023990268577654
Coverage of cases: 99.93730407523512
Instances selection time: 5.6
Test time: 17.5
Accumulative iteration time: 490.2
Weighted Recall: 0.8127899686520376
Weighted FalsePositiveRate: 0.1325366571219202
Kappa statistic: 0.6892065594143812
Training time: 83.0
		
Iteration: 7
Labeled set size: 439
Unlabelled set size: 1156
	
Mean region size: 95.95820271682354
Incorrectly Classified Instances: 21.542319749216297
Correctly Classified Instances: 78.4576802507837
Weighted Precision: 0.7839154221738308
Weighted AreaUnderROC: 0.910133128927967
Root mean squared error: 0.35589447189521206
Relative absolute error: 69.06225165397045
Root relative squared error: 75.49661833917204
Weighted TruePositiveRate: 0.784576802507837
Weighted MatthewsCorrelation: 0.64325664699
Weighted FMeasure: 0.7803658370435299
Iteration time: 91.0
Weighted AreaUnderPRC: 0.8624933574777582
Mean absolute error: 0.3069433406843201
Coverage of cases: 99.96238244514106
Instances selection time: 11.0
Test time: 11.5
Accumulative iteration time: 581.2
Weighted Recall: 0.784576802507837
Weighted FalsePositiveRate: 0.15865387964704664
Kappa statistic: 0.6403865406962527
Training time: 80.0
		
Iteration: 8
Labeled set size: 459
Unlabelled set size: 1136
	
Mean region size: 97.14524555903874
Incorrectly Classified Instances: 21.10344827586207
Correctly Classified Instances: 78.89655172413794
Weighted Precision: 0.7873846927627302
Weighted AreaUnderROC: 0.9090604102435302
Root mean squared error: 0.35956110569273386
Relative absolute error: 70.52810716720546
Root relative squared error: 76.27442882587866
Weighted TruePositiveRate: 0.7889655172413793
Weighted MatthewsCorrelation: 0.6510291784967286
Weighted FMeasure: 0.7851502724216841
Iteration time: 95.0
Weighted AreaUnderPRC: 0.8620714597858438
Mean absolute error: 0.31345825407647576
Coverage of cases: 99.98119122257053
Instances selection time: 7.7
Test time: 10.8
Accumulative iteration time: 676.2
Weighted Recall: 0.7889655172413793
Weighted FalsePositiveRate: 0.15340008463988214
Kappa statistic: 0.648290280608214
Training time: 87.3
		
Iteration: 9
Labeled set size: 479
Unlabelled set size: 1116
	
Mean region size: 96.14002089864167
Incorrectly Classified Instances: 20.50156739811912
Correctly Classified Instances: 79.49843260188088
Weighted Precision: 0.7951949436127073
Weighted AreaUnderROC: 0.9166526982744442
Root mean squared error: 0.35390882141850677
Relative absolute error: 68.86124257424807
Root relative squared error: 75.07539826402865
Weighted TruePositiveRate: 0.7949843260188088
Weighted MatthewsCorrelation: 0.6611312321975237
Weighted FMeasure: 0.7905805626100862
Iteration time: 94.2
Weighted AreaUnderPRC: 0.872075285343886
Mean absolute error: 0.3060499669966651
Coverage of cases: 99.95611285266459
Instances selection time: 8.2
Test time: 13.7
Accumulative iteration time: 770.4
Weighted Recall: 0.7949843260188088
Weighted FalsePositiveRate: 0.15409581266920844
Kappa statistic: 0.6562450783438358
Training time: 86.0
		
Iteration: 10
Labeled set size: 499
Unlabelled set size: 1096
	
Mean region size: 97.20794148380364
Incorrectly Classified Instances: 20.369905956112852
Correctly Classified Instances: 79.63009404388715
Weighted Precision: 0.7958966730264252
Weighted AreaUnderROC: 0.9151087111788987
Root mean squared error: 0.35439038033117376
Relative absolute error: 68.93660063559066
Root relative squared error: 75.17755233583493
Weighted TruePositiveRate: 0.7963009404388715
Weighted MatthewsCorrelation: 0.664973018368366
Weighted FMeasure: 0.7929446375231494
Iteration time: 113.4
Weighted AreaUnderPRC: 0.8672686158427532
Mean absolute error: 0.30638489171374317
Coverage of cases: 99.96238244514106
Instances selection time: 10.4
Test time: 11.0
Accumulative iteration time: 883.8
Weighted Recall: 0.7963009404388715
Weighted FalsePositiveRate: 0.1471611221768389
Kappa statistic: 0.6608989191860338
Training time: 103.0
		
Iteration: 11
Labeled set size: 519
Unlabelled set size: 1076
	
Mean region size: 97.50261233019863
Incorrectly Classified Instances: 21.69905956112853
Correctly Classified Instances: 78.30094043887148
Weighted Precision: 0.783041083742006
Weighted AreaUnderROC: 0.9085638256499683
Root mean squared error: 0.36216421732346477
Relative absolute error: 71.22753939652016
Root relative squared error: 76.82663219176126
Weighted TruePositiveRate: 0.7830094043887147
Weighted MatthewsCorrelation: 0.6392502271850474
Weighted FMeasure: 0.7788946784016824
Iteration time: 112.7
Weighted AreaUnderPRC: 0.8614049265371693
Mean absolute error: 0.316566841762319
Coverage of cases: 99.99373040752351
Instances selection time: 5.2
Test time: 10.7
Accumulative iteration time: 996.5
Weighted Recall: 0.7830094043887147
Weighted FalsePositiveRate: 0.16417507816447832
Kappa statistic: 0.6362755476895714
Training time: 107.5
		
Iteration: 12
Labeled set size: 539
Unlabelled set size: 1056
	
Mean region size: 96.24242424242433
Incorrectly Classified Instances: 19.009404388714735
Correctly Classified Instances: 80.99059561128527
Weighted Precision: 0.8097906375780639
Weighted AreaUnderROC: 0.9250271706275776
Root mean squared error: 0.34861939211205795
Relative absolute error: 67.77083243401026
Root relative squared error: 73.9533408646696
Weighted TruePositiveRate: 0.8099059561128525
Weighted MatthewsCorrelation: 0.6858166966183263
Weighted FMeasure: 0.806938365332423
Iteration time: 95.8
Weighted AreaUnderPRC: 0.8850372599428578
Mean absolute error: 0.30120369970671906
Coverage of cases: 99.97492163009403
Instances selection time: 6.0
Test time: 14.7
Accumulative iteration time: 1092.3
Weighted Recall: 0.8099059561128525
Weighted FalsePositiveRate: 0.13960586102829103
Kappa statistic: 0.6836019215070632
Training time: 89.8
		
Iteration: 13
Labeled set size: 559
Unlabelled set size: 1036
	
Mean region size: 97.29780564263328
Incorrectly Classified Instances: 20.595611285266457
Correctly Classified Instances: 79.40438871473353
Weighted Precision: 0.7930278895113918
Weighted AreaUnderROC: 0.9173387926556892
Root mean squared error: 0.35857244458777526
Relative absolute error: 70.5335997364769
Root relative squared error: 76.06470213439516
Weighted TruePositiveRate: 0.7940438871473354
Weighted MatthewsCorrelation: 0.6598282350289671
Weighted FMeasure: 0.7905918246724799
Iteration time: 108.5
Weighted AreaUnderPRC: 0.8713604282919578
Mean absolute error: 0.31348266549546
Coverage of cases: 99.98119122257054
Instances selection time: 7.4
Test time: 12.8
Accumulative iteration time: 1200.8
Weighted Recall: 0.7940438871473354
Weighted FalsePositiveRate: 0.1503096994620517
Kappa statistic: 0.6568531162725879
Training time: 101.1
		
Iteration: 14
Labeled set size: 579
Unlabelled set size: 1016
	
Mean region size: 95.86833855799384
Incorrectly Classified Instances: 19.768025078369906
Correctly Classified Instances: 80.2319749216301
Weighted Precision: 0.8013259888124112
Weighted AreaUnderROC: 0.917556815668191
Root mean squared error: 0.35260928111057993
Relative absolute error: 68.59033683035281
Root relative squared error: 74.79972413478056
Weighted TruePositiveRate: 0.8023197492163009
Weighted MatthewsCorrelation: 0.6727849804598452
Weighted FMeasure: 0.800032408952854
Iteration time: 122.8
Weighted AreaUnderPRC: 0.8768580764051512
Mean absolute error: 0.3048459414682417
Coverage of cases: 99.97492163009404
Instances selection time: 5.7
Test time: 12.3
Accumulative iteration time: 1323.6
Weighted Recall: 0.8023197492163009
Weighted FalsePositiveRate: 0.1423969317982849
Kappa statistic: 0.6721462691148726
Training time: 117.1
		
Iteration: 15
Labeled set size: 599
Unlabelled set size: 996
	
Mean region size: 96.58098223615472
Incorrectly Classified Instances: 17.71786833855799
Correctly Classified Instances: 82.28213166144201
Weighted Precision: 0.8229192086693502
Weighted AreaUnderROC: 0.9323867029612544
Root mean squared error: 0.3459260954682117
Relative absolute error: 67.54308741693083
Root relative squared error: 73.38200636848643
Weighted TruePositiveRate: 0.82282131661442
Weighted MatthewsCorrelation: 0.7081749776215314
Weighted FMeasure: 0.8203726518785762
Iteration time: 120.2
Weighted AreaUnderPRC: 0.8971868383359508
Mean absolute error: 0.3001914996308105
Coverage of cases: 99.98119122257053
Instances selection time: 4.9
Test time: 11.1
Accumulative iteration time: 1443.8
Weighted Recall: 0.82282131661442
Weighted FalsePositiveRate: 0.12701917581958372
Kappa statistic: 0.7063993922500074
Training time: 115.3
		
Iteration: 16
Labeled set size: 619
Unlabelled set size: 976
	
Mean region size: 96.63531870428427
Incorrectly Classified Instances: 19.34169278996865
Correctly Classified Instances: 80.65830721003135
Weighted Precision: 0.8055914783799496
Weighted AreaUnderROC: 0.922442846230305
Root mean squared error: 0.35108264780251675
Relative absolute error: 68.52355723826517
Root relative squared error: 74.47587630542556
Weighted TruePositiveRate: 0.8065830721003134
Weighted MatthewsCorrelation: 0.6816483328228308
Weighted FMeasure: 0.804192640981175
Iteration time: 120.4
Weighted AreaUnderPRC: 0.8808392102032461
Mean absolute error: 0.30454914328118543
Coverage of cases: 99.96238244514106
Instances selection time: 4.8
Test time: 11.4
Accumulative iteration time: 1564.2
Weighted Recall: 0.8065830721003134
Weighted FalsePositiveRate: 0.13544822616382368
Kappa statistic: 0.6800872140653682
Training time: 115.6
		
Iteration: 17
Labeled set size: 639
Unlabelled set size: 956
	
Mean region size: 95.03448275862084
Incorrectly Classified Instances: 18.06269592476489
Correctly Classified Instances: 81.93730407523512
Weighted Precision: 0.8193913838320876
Weighted AreaUnderROC: 0.9305734124474757
Root mean squared error: 0.34337804716738396
Relative absolute error: 66.52654452666869
Root relative squared error: 72.84148369879458
Weighted TruePositiveRate: 0.8193730407523511
Weighted MatthewsCorrelation: 0.7020467412992925
Weighted FMeasure: 0.8167236503608798
Iteration time: 128.5
Weighted AreaUnderPRC: 0.8933295685692982
Mean absolute error: 0.2956735312296453
Coverage of cases: 99.95611285266457
Instances selection time: 6.4
Test time: 14.5
Accumulative iteration time: 1692.7
Weighted Recall: 0.8193730407523511
Weighted FalsePositiveRate: 0.13101308718995436
Kappa statistic: 0.6998375173849186
Training time: 122.1
		
Iteration: 18
Labeled set size: 659
Unlabelled set size: 936
	
Mean region size: 96.5350052246605
Incorrectly Classified Instances: 18.288401253918494
Correctly Classified Instances: 81.7115987460815
Weighted Precision: 0.8174330706978481
Weighted AreaUnderROC: 0.932258747412174
Root mean squared error: 0.34395258275854
Relative absolute error: 66.6698954679843
Root relative squared error: 72.96336110255643
Weighted TruePositiveRate: 0.817115987460815
Weighted MatthewsCorrelation: 0.6987359433589483
Weighted FMeasure: 0.814097480364218
Iteration time: 131.2
Weighted AreaUnderPRC: 0.8942707804068798
Mean absolute error: 0.29631064652438144
Coverage of cases: 99.99373040752351
Instances selection time: 6.7
Test time: 11.5
Accumulative iteration time: 1823.9
Weighted Recall: 0.817115987460815
Weighted FalsePositiveRate: 0.13345209700019314
Kappa statistic: 0.6960458362142365
Training time: 124.5
		
Iteration: 19
Labeled set size: 679
Unlabelled set size: 916
	
Mean region size: 98.0020898641589
Incorrectly Classified Instances: 19.021943573667716
Correctly Classified Instances: 80.97805642633227
Weighted Precision: 0.8091824252302262
Weighted AreaUnderROC: 0.9257853243194878
Root mean squared error: 0.35372526663885434
Relative absolute error: 69.68455092700921
Root relative squared error: 75.03646041520521
Weighted TruePositiveRate: 0.8097805642633229
Weighted MatthewsCorrelation: 0.6858953900059153
Weighted FMeasure: 0.8072189909038778
Iteration time: 133.3
Weighted AreaUnderPRC: 0.8865775045538443
Mean absolute error: 0.3097091152311591
Coverage of cases: 99.98746081504702
Instances selection time: 4.4
Test time: 12.5
Accumulative iteration time: 1957.2
Weighted Recall: 0.8097805642633229
Weighted FalsePositiveRate: 0.1380150720773944
Kappa statistic: 0.6841117275411901
Training time: 128.9
		
Iteration: 20
Labeled set size: 699
Unlabelled set size: 896
	
Mean region size: 95.84535005224666
Incorrectly Classified Instances: 16.858934169278996
Correctly Classified Instances: 83.141065830721
Weighted Precision: 0.8312776444159136
Weighted AreaUnderROC: 0.9371803821214055
Root mean squared error: 0.33838962437158193
Relative absolute error: 65.33345936858588
Root relative squared error: 71.78327942289346
Weighted TruePositiveRate: 0.8314106583072102
Weighted MatthewsCorrelation: 0.7232381742000205
Weighted FMeasure: 0.8293041417789381
Iteration time: 138.4
Weighted AreaUnderPRC: 0.9025740556860246
Mean absolute error: 0.2903709305270549
Coverage of cases: 99.98119122257053
Instances selection time: 6.3
Test time: 13.8
Accumulative iteration time: 2095.6
Weighted Recall: 0.8314106583072102
Weighted FalsePositiveRate: 0.12046309528930461
Kappa statistic: 0.7209749855374393
Training time: 132.1
		
Iteration: 21
Labeled set size: 719
Unlabelled set size: 876
	
Mean region size: 95.08881922675043
Incorrectly Classified Instances: 16.858934169278996
Correctly Classified Instances: 83.14106583072099
Weighted Precision: 0.831625749767945
Weighted AreaUnderROC: 0.9385895156027922
Root mean squared error: 0.3383955155239655
Relative absolute error: 65.35626343064749
Root relative squared error: 71.78452912503329
Weighted TruePositiveRate: 0.83141065830721
Weighted MatthewsCorrelation: 0.7226921580106439
Weighted FMeasure: 0.8291818535667026
Iteration time: 135.6
Weighted AreaUnderPRC: 0.9055247013390245
Mean absolute error: 0.2904722819139953
Coverage of cases: 99.9937304075235
Instances selection time: 4.5
Test time: 15.3
Accumulative iteration time: 2231.2
Weighted Recall: 0.83141065830721
Weighted FalsePositiveRate: 0.12138365696126388
Kappa statistic: 0.7209879057896557
Training time: 131.1
		
Iteration: 22
Labeled set size: 739
Unlabelled set size: 856
	
Mean region size: 94.51410658307228
Incorrectly Classified Instances: 17.291536050156743
Correctly Classified Instances: 82.70846394984326
Weighted Precision: 0.8268477132666602
Weighted AreaUnderROC: 0.9363152426323735
Root mean squared error: 0.3377696100312596
Relative absolute error: 64.84146335874405
Root relative squared error: 71.65175451955102
Weighted TruePositiveRate: 0.8270846394984327
Weighted MatthewsCorrelation: 0.7160076859035722
Weighted FMeasure: 0.825352841534774
Iteration time: 152.3
Weighted AreaUnderPRC: 0.9017506063137801
Mean absolute error: 0.28818428159442444
Coverage of cases: 99.98119122257053
Instances selection time: 5.8
Test time: 14.0
Accumulative iteration time: 2383.5
Weighted Recall: 0.8270846394984327
Weighted FalsePositiveRate: 0.12112226174647456
Kappa statistic: 0.7147072515855466
Training time: 146.5
		
Iteration: 23
Labeled set size: 759
Unlabelled set size: 836
	
Mean region size: 96.95088819226756
Incorrectly Classified Instances: 18.068965517241377
Correctly Classified Instances: 81.9310344827586
Weighted Precision: 0.8185134650614108
Weighted AreaUnderROC: 0.9299430823932038
Root mean squared error: 0.3486262690006839
Relative absolute error: 68.34013954415434
Root relative squared error: 73.95479967304388
Weighted TruePositiveRate: 0.8193103448275861
Weighted MatthewsCorrelation: 0.7016036219389225
Weighted FMeasure: 0.817545900518559
Iteration time: 150.6
Weighted AreaUnderPRC: 0.8928674475164031
Mean absolute error: 0.3037339535295817
Coverage of cases: 99.98119122257054
Instances selection time: 4.5
Test time: 12.0
Accumulative iteration time: 2534.1
Weighted Recall: 0.8193103448275861
Weighted FalsePositiveRate: 0.12827523766921406
Kappa statistic: 0.7013288692661434
Training time: 146.1
		
Iteration: 24
Labeled set size: 779
Unlabelled set size: 816
	
Mean region size: 96.21943573667718
Incorrectly Classified Instances: 17.74921630094044
Correctly Classified Instances: 82.25078369905955
Weighted Precision: 0.8221349325109942
Weighted AreaUnderROC: 0.9333856014988303
Root mean squared error: 0.343416812195794
Relative absolute error: 66.73872237762839
Root relative squared error: 72.84970700313309
Weighted TruePositiveRate: 0.8225078369905956
Weighted MatthewsCorrelation: 0.7071021387258059
Weighted FMeasure: 0.8200873427503943
Iteration time: 155.7
Weighted AreaUnderPRC: 0.897475873727443
Mean absolute error: 0.2966165439005774
Coverage of cases: 99.98746081504702
Instances selection time: 4.3
Test time: 14.7
Accumulative iteration time: 2689.8
Weighted Recall: 0.8225078369905956
Weighted FalsePositiveRate: 0.12845692445382473
Kappa statistic: 0.7057535613378674
Training time: 151.4
		
Iteration: 25
Labeled set size: 799
Unlabelled set size: 796
	
Mean region size: 95.22884012539201
Incorrectly Classified Instances: 16.927899686520377
Correctly Classified Instances: 83.07210031347964
Weighted Precision: 0.8306730202554544
Weighted AreaUnderROC: 0.9337073247181259
Root mean squared error: 0.34067905939054144
Relative absolute error: 65.85507737439615
Root relative squared error: 72.2689419309911
Weighted TruePositiveRate: 0.8307210031347962
Weighted MatthewsCorrelation: 0.7208487227894553
Weighted FMeasure: 0.8287958135565802
Iteration time: 157.8
Weighted AreaUnderPRC: 0.9006879713343474
Mean absolute error: 0.2926892327751006
Coverage of cases: 99.97492163009404
Instances selection time: 4.5
Test time: 11.4
Accumulative iteration time: 2847.6
Weighted Recall: 0.8307210031347962
Weighted FalsePositiveRate: 0.12175949682303411
Kappa statistic: 0.7201277970022149
Training time: 153.3
		
Iteration: 26
Labeled set size: 819
Unlabelled set size: 776
	
Mean region size: 96.82758620689668
Incorrectly Classified Instances: 18.012539184952978
Correctly Classified Instances: 81.98746081504702
Weighted Precision: 0.8195762848922061
Weighted AreaUnderROC: 0.9320890250671751
Root mean squared error: 0.3468014870503291
Relative absolute error: 67.81688681530751
Root relative squared error: 73.56770496565908
Weighted TruePositiveRate: 0.8198746081504702
Weighted MatthewsCorrelation: 0.7015760005765553
Weighted FMeasure: 0.8173297743937408
Iteration time: 158.3
Weighted AreaUnderPRC: 0.8984142278018707
Mean absolute error: 0.301408385845818
Coverage of cases: 99.96238244514106
Instances selection time: 3.9
Test time: 11.3
Accumulative iteration time: 3005.9
Weighted Recall: 0.8198746081504702
Weighted FalsePositiveRate: 0.13185899630630557
Kappa statistic: 0.7011738698073554
Training time: 154.4
		
Iteration: 27
Labeled set size: 839
Unlabelled set size: 756
	
Mean region size: 96.63949843260195
Incorrectly Classified Instances: 17.855799373040753
Correctly Classified Instances: 82.14420062695926
Weighted Precision: 0.8213826764206331
Weighted AreaUnderROC: 0.9335346207627093
Root mean squared error: 0.34334880450183786
Relative absolute error: 66.76113957658234
Root relative squared error: 72.8352803926623
Weighted TruePositiveRate: 0.8214420062695925
Weighted MatthewsCorrelation: 0.7054729221280847
Weighted FMeasure: 0.8185283659986314
Iteration time: 162.1
Weighted AreaUnderPRC: 0.8993172632618226
Mean absolute error: 0.29671617589592814
Coverage of cases: 99.96238244514106
Instances selection time: 4.8
Test time: 12.5
Accumulative iteration time: 3168.0
Weighted Recall: 0.8214420062695925
Weighted FalsePositiveRate: 0.13104445761087527
Kappa statistic: 0.7031070253139544
Training time: 157.3
		
Iteration: 28
Labeled set size: 859
Unlabelled set size: 736
	
Mean region size: 97.18495297805651
Incorrectly Classified Instances: 18.670846394984327
Correctly Classified Instances: 81.32915360501568
Weighted Precision: 0.8132921492967002
Weighted AreaUnderROC: 0.9271990997894412
Root mean squared error: 0.3501639679479412
Relative absolute error: 68.62299525715628
Root relative squared error: 74.28099487895258
Weighted TruePositiveRate: 0.8132915360501567
Weighted MatthewsCorrelation: 0.6905403445729679
Weighted FMeasure: 0.8112035010210239
Iteration time: 166.9
Weighted AreaUnderPRC: 0.8928287619474405
Mean absolute error: 0.3049910900318126
Coverage of cases: 100.0
Instances selection time: 3.9
Test time: 12.7
Accumulative iteration time: 3334.9
Weighted Recall: 0.8132915360501567
Weighted FalsePositiveRate: 0.13691953589452102
Kappa statistic: 0.6901866900057265
Training time: 163.0
		
Iteration: 29
Labeled set size: 879
Unlabelled set size: 716
	
Mean region size: 96.26541274817147
Incorrectly Classified Instances: 16.520376175548588
Correctly Classified Instances: 83.47962382445141
Weighted Precision: 0.8351556040101139
Weighted AreaUnderROC: 0.9427252080366892
Root mean squared error: 0.33630551509990747
Relative absolute error: 65.06561208621403
Root relative squared error: 71.34117308327302
Weighted TruePositiveRate: 0.8347962382445141
Weighted MatthewsCorrelation: 0.7279109881598793
Weighted FMeasure: 0.8324481809600488
Iteration time: 162.1
Weighted AreaUnderPRC: 0.9112065550875885
Mean absolute error: 0.2891804981609577
Coverage of cases: 99.97492163009404
Instances selection time: 3.9
Test time: 12.3
Accumulative iteration time: 3497.0
Weighted Recall: 0.8347962382445141
Weighted FalsePositiveRate: 0.12212617306203259
Kappa statistic: 0.7257313184152531
Training time: 158.2
		
Iteration: 30
Labeled set size: 899
Unlabelled set size: 696
	
Mean region size: 97.06583072100318
Incorrectly Classified Instances: 16.5141065830721
Correctly Classified Instances: 83.4858934169279
Weighted Precision: 0.8341522708890773
Weighted AreaUnderROC: 0.9447261985957974
Root mean squared error: 0.3378782566348511
Relative absolute error: 65.73429113559096
Root relative squared error: 71.67480194459674
Weighted TruePositiveRate: 0.834858934169279
Weighted MatthewsCorrelation: 0.7283675433073469
Weighted FMeasure: 0.8328539912444631
Iteration time: 182.0
Weighted AreaUnderPRC: 0.9119883641426754
Mean absolute error: 0.2921524050470776
Coverage of cases: 99.98119122257053
Instances selection time: 4.3
Test time: 12.0
Accumulative iteration time: 3679.0
Weighted Recall: 0.834858934169279
Weighted FalsePositiveRate: 0.11962905476349747
Kappa statistic: 0.726419492159065
Training time: 177.7
		
Iteration: 31
Labeled set size: 919
Unlabelled set size: 676
	
Mean region size: 94.62068965517257
Incorrectly Classified Instances: 15.893416927899688
Correctly Classified Instances: 84.1065830721003
Weighted Precision: 0.84148201567769
Weighted AreaUnderROC: 0.9420586748148565
Root mean squared error: 0.3320783524849502
Relative absolute error: 63.70576370124883
Root relative squared error: 70.44445647820866
Weighted TruePositiveRate: 0.8410658307210032
Weighted MatthewsCorrelation: 0.7385327251782072
Weighted FMeasure: 0.8390061197502023
Iteration time: 180.5
Weighted AreaUnderPRC: 0.9109637281706142
Mean absolute error: 0.2831367275611123
Coverage of cases: 99.96865203761755
Instances selection time: 3.8
Test time: 11.6
Accumulative iteration time: 3859.5
Weighted Recall: 0.8410658307210032
Weighted FalsePositiveRate: 0.1159402377769776
Kappa statistic: 0.7364968306009368
Training time: 176.7
		
Iteration: 32
Labeled set size: 939
Unlabelled set size: 656
	
Mean region size: 97.63427377220484
Incorrectly Classified Instances: 17.253918495297807
Correctly Classified Instances: 82.7460815047022
Weighted Precision: 0.8282208035487818
Weighted AreaUnderROC: 0.9356499601534448
Root mean squared error: 0.3431660250067646
Relative absolute error: 67.17855582147057
Root relative squared error: 72.79650700653386
Weighted TruePositiveRate: 0.827460815047022
Weighted MatthewsCorrelation: 0.7134440498346101
Weighted FMeasure: 0.8245329846186713
Iteration time: 176.0
Weighted AreaUnderPRC: 0.904325170510214
Mean absolute error: 0.2985713592065426
Coverage of cases: 99.98746081504702
Instances selection time: 5.7
Test time: 13.2
Accumulative iteration time: 4035.5
Weighted Recall: 0.827460815047022
Weighted FalsePositiveRate: 0.1315699845650355
Kappa statistic: 0.7123594963837941
Training time: 170.3
		
Iteration: 33
Labeled set size: 959
Unlabelled set size: 636
	
Mean region size: 97.33960292580986
Incorrectly Classified Instances: 16.225705329153605
Correctly Classified Instances: 83.77429467084639
Weighted Precision: 0.8382876404150998
Weighted AreaUnderROC: 0.9420982138619571
Root mean squared error: 0.33842909689267325
Relative absolute error: 65.95133074066837
Root relative squared error: 71.7916528090937
Weighted TruePositiveRate: 0.837742946708464
Weighted MatthewsCorrelation: 0.7326410897308888
Weighted FMeasure: 0.8353641026210251
Iteration time: 166.5
Weighted AreaUnderPRC: 0.9112332299008494
Mean absolute error: 0.29311702551408836
Coverage of cases: 99.97492163009404
Instances selection time: 3.6
Test time: 12.5
Accumulative iteration time: 4202.0
Weighted Recall: 0.837742946708464
Weighted FalsePositiveRate: 0.1217527860138771
Kappa statistic: 0.7298949166812283
Training time: 162.9
		
Iteration: 34
Labeled set size: 979
Unlabelled set size: 616
	
Mean region size: 95.73249738766994
Incorrectly Classified Instances: 16.326018808777427
Correctly Classified Instances: 83.67398119122257
Weighted Precision: 0.837745477104743
Weighted AreaUnderROC: 0.9413765115863022
Root mean squared error: 0.3366338498229376
Relative absolute error: 65.15186040667989
Root relative squared error: 71.4108233960191
Weighted TruePositiveRate: 0.8367398119122257
Weighted MatthewsCorrelation: 0.7298620986214924
Weighted FMeasure: 0.8344615808527029
Iteration time: 192.1
Weighted AreaUnderPRC: 0.9120833754520067
Mean absolute error: 0.28956382402969494
Coverage of cases: 99.98746081504703
Instances selection time: 3.5
Test time: 16.2
Accumulative iteration time: 4394.1
Weighted Recall: 0.8367398119122257
Weighted FalsePositiveRate: 0.12432385952647877
Kappa statistic: 0.7281405521073101
Training time: 188.6
		
Iteration: 35
Labeled set size: 999
Unlabelled set size: 596
	
Mean region size: 95.15778474399178
Incorrectly Classified Instances: 15.686520376175551
Correctly Classified Instances: 84.31347962382446
Weighted Precision: 0.8430512156916998
Weighted AreaUnderROC: 0.9463953721519107
Root mean squared error: 0.3330597986840288
Relative absolute error: 64.24638173692341
Root relative squared error: 70.65265265703013
Weighted TruePositiveRate: 0.8431347962382446
Weighted MatthewsCorrelation: 0.7417373098523148
Weighted FMeasure: 0.8413126163168576
Iteration time: 189.4
Weighted AreaUnderPRC: 0.9164126846270779
Mean absolute error: 0.2855394743863328
Coverage of cases: 99.96865203761755
Instances selection time: 3.8
Test time: 14.0
Accumulative iteration time: 4583.5
Weighted Recall: 0.8431347962382446
Weighted FalsePositiveRate: 0.1150956840596887
Kappa statistic: 0.7400712993847709
Training time: 185.6
		
Iteration: 36
Labeled set size: 1019
Unlabelled set size: 576
	
Mean region size: 97.24137931034488
Incorrectly Classified Instances: 16.752351097178682
Correctly Classified Instances: 83.24764890282131
Weighted Precision: 0.8329986050751398
Weighted AreaUnderROC: 0.9383548910539407
Root mean squared error: 0.3377695206021231
Relative absolute error: 65.54312267255628
Root relative squared error: 71.65173554876635
Weighted TruePositiveRate: 0.8324764890282133
Weighted MatthewsCorrelation: 0.7213141913587923
Weighted FMeasure: 0.829410155597991
Iteration time: 197.4
Weighted AreaUnderPRC: 0.9066113215616095
Mean absolute error: 0.29130276743358996
Coverage of cases: 99.98119122257053
Instances selection time: 3.2
Test time: 12.8
Accumulative iteration time: 4780.9
Weighted Recall: 0.8324764890282133
Weighted FalsePositiveRate: 0.12887933802217058
Kappa statistic: 0.7203701553927169
Training time: 194.2
		
Iteration: 37
Labeled set size: 1039
Unlabelled set size: 556
	
Mean region size: 96.22779519331252
Incorrectly Classified Instances: 17.210031347962378
Correctly Classified Instances: 82.78996865203762
Weighted Precision: 0.8287436519043883
Weighted AreaUnderROC: 0.9348296730765316
Root mean squared error: 0.33849913655082353
Relative absolute error: 65.43856470890742
Root relative squared error: 71.80651046426271
Weighted TruePositiveRate: 0.827899686520376
Weighted MatthewsCorrelation: 0.7155002344013421
Weighted FMeasure: 0.8254177477905993
Iteration time: 207.0
Weighted AreaUnderPRC: 0.9027341308441168
Mean absolute error: 0.2908380653729285
Coverage of cases: 99.97492163009403
Instances selection time: 3.6
Test time: 13.4
Accumulative iteration time: 4987.9
Weighted Recall: 0.827899686520376
Weighted FalsePositiveRate: 0.1288440430433215
Kappa statistic: 0.7131683981466156
Training time: 203.4
		
Iteration: 38
Labeled set size: 1059
Unlabelled set size: 536
	
Mean region size: 94.42215256008376
Incorrectly Classified Instances: 15.354231974921628
Correctly Classified Instances: 84.64576802507837
Weighted Precision: 0.8466736760008299
Weighted AreaUnderROC: 0.9480887271927602
Root mean squared error: 0.32790382279083097
Relative absolute error: 62.75593158969026
Root relative squared error: 69.55890500171577
Weighted TruePositiveRate: 0.8464576802507835
Weighted MatthewsCorrelation: 0.7481864742567712
Weighted FMeasure: 0.8446874000695311
Iteration time: 211.6
Weighted AreaUnderPRC: 0.92038674191444
Mean absolute error: 0.27891525150974084
Coverage of cases: 99.96865203761756
Instances selection time: 3.2
Test time: 12.2
Accumulative iteration time: 5199.5
Weighted Recall: 0.8464576802507835
Weighted FalsePositiveRate: 0.11098078026204825
Kappa statistic: 0.7459570845201122
Training time: 208.4
		
Iteration: 39
Labeled set size: 1079
Unlabelled set size: 516
	
Mean region size: 96.36154649947758
Incorrectly Classified Instances: 15.561128526645765
Correctly Classified Instances: 84.43887147335423
Weighted Precision: 0.8448742874502392
Weighted AreaUnderROC: 0.9455948693275896
Root mean squared error: 0.33298971298005015
Relative absolute error: 64.43912250788652
Root relative squared error: 70.63778523406586
Weighted TruePositiveRate: 0.8443887147335423
Weighted MatthewsCorrelation: 0.7432882788338403
Weighted FMeasure: 0.8416610281813737
Iteration time: 190.9
Weighted AreaUnderPRC: 0.9170041808609403
Mean absolute error: 0.28639610003505767
Coverage of cases: 99.99373040752351
Instances selection time: 4.3
Test time: 14.1
Accumulative iteration time: 5390.4
Weighted Recall: 0.8443887147335423
Weighted FalsePositiveRate: 0.11894078752984891
Kappa statistic: 0.7406554368055559
Training time: 186.6
		
Iteration: 40
Labeled set size: 1099
Unlabelled set size: 496
	
Mean region size: 96.31138975966573
Incorrectly Classified Instances: 16.1692789968652
Correctly Classified Instances: 83.83072100313478
Weighted Precision: 0.839529101876028
Weighted AreaUnderROC: 0.9431411227887905
Root mean squared error: 0.33685430662963745
Relative absolute error: 65.31992300347846
Root relative squared error: 71.45758934691197
Weighted TruePositiveRate: 0.838307210031348
Weighted MatthewsCorrelation: 0.7332210280933329
Weighted FMeasure: 0.8357914648638467
Iteration time: 201.8
Weighted AreaUnderPRC: 0.9139357465908944
Mean absolute error: 0.29031076890435537
Coverage of cases: 99.99373040752351
Instances selection time: 2.8
Test time: 13.4
Accumulative iteration time: 5592.2
Weighted Recall: 0.838307210031348
Weighted FalsePositiveRate: 0.12267181033108587
Kappa statistic: 0.7306974736812722
Training time: 199.0
		
Iteration: 41
Labeled set size: 1119
Unlabelled set size: 476
	
Mean region size: 97.26227795193321
Incorrectly Classified Instances: 16.06896551724138
Correctly Classified Instances: 83.93103448275863
Weighted Precision: 0.8405402029704803
Weighted AreaUnderROC: 0.9450413283517184
Root mean squared error: 0.3382861277801471
Relative absolute error: 66.02458327826824
Root relative squared error: 71.76132448040346
Weighted TruePositiveRate: 0.8393103448275863
Weighted MatthewsCorrelation: 0.7347134779811219
Weighted FMeasure: 0.8369534606468921
Iteration time: 214.3
Weighted AreaUnderPRC: 0.9154451525177709
Mean absolute error: 0.2934425923478655
Coverage of cases: 99.97492163009404
Instances selection time: 3.0
Test time: 13.4
Accumulative iteration time: 5806.5
Weighted Recall: 0.8393103448275863
Weighted FalsePositiveRate: 0.12361476456311819
Kappa statistic: 0.7321302547633256
Training time: 211.3
		
Iteration: 42
Labeled set size: 1139
Unlabelled set size: 456
	
Mean region size: 95.4775339602927
Incorrectly Classified Instances: 14.946708463949847
Correctly Classified Instances: 85.05329153605015
Weighted Precision: 0.8515889578462648
Weighted AreaUnderROC: 0.9524487731162752
Root mean squared error: 0.32565257598248565
Relative absolute error: 62.526786083884915
Root relative squared error: 69.08134343642413
Weighted TruePositiveRate: 0.8505329153605017
Weighted MatthewsCorrelation: 0.7535860356076147
Weighted FMeasure: 0.8485329719432633
Iteration time: 220.7
Weighted AreaUnderPRC: 0.9282231589812394
Mean absolute error: 0.2778968270394948
Coverage of cases: 99.98746081504703
Instances selection time: 2.9
Test time: 14.5
Accumulative iteration time: 6027.2
Weighted Recall: 0.8505329153605017
Weighted FalsePositiveRate: 0.11371846846564429
Kappa statistic: 0.7513195347670658
Training time: 217.8
		
Iteration: 43
Labeled set size: 1159
Unlabelled set size: 436
	
Mean region size: 95.64681295715789
Incorrectly Classified Instances: 15.260188087774296
Correctly Classified Instances: 84.73981191222569
Weighted Precision: 0.8489067960895857
Weighted AreaUnderROC: 0.951366559764985
Root mean squared error: 0.32821562427975437
Relative absolute error: 63.23448976792184
Root relative squared error: 69.62504808587633
Weighted TruePositiveRate: 0.8473981191222573
Weighted MatthewsCorrelation: 0.7482888741518069
Weighted FMeasure: 0.8448701125784399
Iteration time: 214.8
Weighted AreaUnderPRC: 0.9255402346912319
Mean absolute error: 0.28104217674632564
Coverage of cases: 99.98746081504702
Instances selection time: 2.6
Test time: 13.7
Accumulative iteration time: 6242.0
Weighted Recall: 0.8473981191222573
Weighted FalsePositiveRate: 0.11861145264160408
Kappa statistic: 0.7453769513709912
Training time: 212.2
		
Iteration: 44
Labeled set size: 1179
Unlabelled set size: 416
	
Mean region size: 95.3605015673982
Incorrectly Classified Instances: 14.877742946708462
Correctly Classified Instances: 85.12225705329152
Weighted Precision: 0.8526875618859769
Weighted AreaUnderROC: 0.9519072701425723
Root mean squared error: 0.3260236513662278
Relative absolute error: 62.59194553537195
Root relative squared error: 69.16006041247675
Weighted TruePositiveRate: 0.8512225705329153
Weighted MatthewsCorrelation: 0.7533624856602728
Weighted FMeasure: 0.8489242341571629
Iteration time: 226.2
Weighted AreaUnderPRC: 0.9278503778191333
Mean absolute error: 0.27818642460165943
Coverage of cases: 99.9937304075235
Instances selection time: 2.4
Test time: 13.0
Accumulative iteration time: 6468.2
Weighted Recall: 0.8512225705329153
Weighted FalsePositiveRate: 0.11602516817989217
Kappa statistic: 0.7521047407484935
Training time: 223.8
		
Iteration: 45
Labeled set size: 1199
Unlabelled set size: 396
	
Mean region size: 95.03239289446196
Incorrectly Classified Instances: 16.626959247648905
Correctly Classified Instances: 83.37304075235109
Weighted Precision: 0.8354217150078345
Weighted AreaUnderROC: 0.9421373944042426
Root mean squared error: 0.3318050413415836
Relative absolute error: 63.61046871271428
Root relative squared error: 70.38647842935417
Weighted TruePositiveRate: 0.8337304075235108
Weighted MatthewsCorrelation: 0.7240372231360197
Weighted FMeasure: 0.8307280276994394
Iteration time: 218.0
Weighted AreaUnderPRC: 0.9118594276385947
Mean absolute error: 0.28271319427873653
Coverage of cases: 99.99373040752351
Instances selection time: 2.4
Test time: 11.8
Accumulative iteration time: 6686.2
Weighted Recall: 0.8337304075235108
Weighted FalsePositiveRate: 0.13046207462423476
Kappa statistic: 0.7215145761089661
Training time: 215.6
		
Iteration: 46
Labeled set size: 1219
Unlabelled set size: 376
	
Mean region size: 95.73458725182873
Incorrectly Classified Instances: 14.789968652037619
Correctly Classified Instances: 85.21003134796237
Weighted Precision: 0.854364004583099
Weighted AreaUnderROC: 0.9555531807196166
Root mean squared error: 0.32379805487491375
Relative absolute error: 62.082353909426274
Root relative squared error: 68.68794010111883
Weighted TruePositiveRate: 0.8521003134796239
Weighted MatthewsCorrelation: 0.7560328399148359
Weighted FMeasure: 0.8494493001134478
Iteration time: 217.0
Weighted AreaUnderPRC: 0.9314184378962229
Mean absolute error: 0.2759215729307897
Coverage of cases: 99.98746081504702
Instances selection time: 3.3
Test time: 11.8
Accumulative iteration time: 6903.2
Weighted Recall: 0.8521003134796239
Weighted FalsePositiveRate: 0.11825802092275321
Kappa statistic: 0.7525197308313152
Training time: 213.7
		
Time end:Wed Nov 01 10.32.14 EET 2017