Wed Nov 01 11.30.42 EET 2017
Dataset: splice
Test set size: 1595
Initial Labelled set size: 319
Initial Unlabelled set size: 1276
Batch mode: QBestBatchMode
Batch size: 20
Classifiers: SMO-1cores
Scenario: PoolBasedSamplingScenario
Query strategy: LeastConfidentSamplingQueryStrategy-1cores
Time begining: Wed Nov 01 11.30.42 EET 2017
		
Iteration: 1
Labeled set size: 319
Unlabelled set size: 1276
	
Mean region size: 67.2936259143145
Incorrectly Classified Instances: 9.780564263322884
Correctly Classified Instances: 90.21943573667711
Weighted Precision: 0.9052166936732353
Weighted AreaUnderROC: 0.9415201781205806
Root mean squared error: 0.31355461775661925
Relative absolute error: 55.7680250783699
Root relative squared error: 66.51497894641764
Weighted TruePositiveRate: 0.9021943573667711
Weighted MatthewsCorrelation: 0.8472287685006166
Weighted FMeasure: 0.9029435153201393
Iteration time: 990.0
Weighted AreaUnderPRC: 0.8702871996517344
Mean absolute error: 0.24785788923720517
Coverage of cases: 98.80877742946709
Instances selection time: 160.0
Test time: 209.0
Accumulative iteration time: 990.0
Weighted Recall: 0.9021943573667711
Weighted FalsePositiveRate: 0.04720837814849426
Kappa statistic: 0.8429836761584071
Training time: 830.0
		
Iteration: 2
Labeled set size: 339
Unlabelled set size: 1256
	
Mean region size: 66.98014629049
Incorrectly Classified Instances: 8.77742946708464
Correctly Classified Instances: 91.22257053291536
Weighted Precision: 0.9140326142873803
Weighted AreaUnderROC: 0.9452309280480997
Root mean squared error: 0.31087715739409966
Relative absolute error: 55.23510971786832
Root relative squared error: 65.94700383280892
Weighted TruePositiveRate: 0.9122257053291536
Weighted MatthewsCorrelation: 0.861306057219124
Weighted FMeasure: 0.9127315905891842
Iteration time: 1155.0
Weighted AreaUnderPRC: 0.8761946188604943
Mean absolute error: 0.24548937652386477
Coverage of cases: 98.87147335423198
Instances selection time: 166.0
Test time: 206.0
Accumulative iteration time: 2145.0
Weighted Recall: 0.9122257053291536
Weighted FalsePositiveRate: 0.04498014380974815
Kappa statistic: 0.858613615641779
Training time: 989.0
		
Iteration: 3
Labeled set size: 359
Unlabelled set size: 1236
	
Mean region size: 66.9383490073134
Incorrectly Classified Instances: 7.335423197492163
Correctly Classified Instances: 92.66457680250784
Weighted Precision: 0.9284105026022836
Weighted AreaUnderROC: 0.9538462460184076
Root mean squared error: 0.3051476013871015
Relative absolute error: 54.42006269592475
Root relative squared error: 64.73158146108797
Weighted TruePositiveRate: 0.9266457680250784
Weighted MatthewsCorrelation: 0.8836540447391625
Weighted FMeasure: 0.9270556242303264
Iteration time: 1122.0
Weighted AreaUnderPRC: 0.8965526360641919
Mean absolute error: 0.24186694531522657
Coverage of cases: 98.93416927899686
Instances selection time: 163.0
Test time: 208.0
Accumulative iteration time: 3267.0
Weighted Recall: 0.9266457680250784
Weighted FalsePositiveRate: 0.03612076286405442
Kappa statistic: 0.8819738010488688
Training time: 959.0
		
Iteration: 4
Labeled set size: 379
Unlabelled set size: 1216
	
Mean region size: 66.98014629049001
Incorrectly Classified Instances: 7.899686520376176
Correctly Classified Instances: 92.10031347962382
Weighted Precision: 0.9223017361392224
Weighted AreaUnderROC: 0.9507035471307728
Root mean squared error: 0.3065900287380283
Relative absolute error: 54.63949843260186
Root relative squared error: 65.03756650945076
Weighted TruePositiveRate: 0.9210031347962383
Weighted MatthewsCorrelation: 0.8741678992966867
Weighted FMeasure: 0.9213392580725539
Iteration time: 1546.0
Weighted AreaUnderPRC: 0.8884614376607521
Mean absolute error: 0.2428422152560138
Coverage of cases: 99.12225705329153
Instances selection time: 141.0
Test time: 188.0
Accumulative iteration time: 4813.0
Weighted Recall: 0.9210031347962383
Weighted FalsePositiveRate: 0.04124424063163599
Kappa statistic: 0.8726450874539219
Training time: 1405.0
		
Iteration: 5
Labeled set size: 399
Unlabelled set size: 1196
	
Mean region size: 66.91745036572509
Incorrectly Classified Instances: 8.338557993730408
Correctly Classified Instances: 91.6614420062696
Weighted Precision: 0.9180039268516276
Weighted AreaUnderROC: 0.9480486347770395
Root mean squared error: 0.30817643592976435
Relative absolute error: 54.827586206896534
Root relative squared error: 65.37409429435066
Weighted TruePositiveRate: 0.9166144200626959
Weighted MatthewsCorrelation: 0.8674981141340616
Weighted FMeasure: 0.9170047160738696
Iteration time: 1190.0
Weighted AreaUnderPRC: 0.8832433131579209
Mean absolute error: 0.24367816091954567
Coverage of cases: 98.99686520376176
Instances selection time: 140.0
Test time: 187.0
Accumulative iteration time: 6003.0
Weighted Recall: 0.9166144200626959
Weighted FalsePositiveRate: 0.04358851172248123
Kappa statistic: 0.8655698145346953
Training time: 1050.0
		
Iteration: 6
Labeled set size: 419
Unlabelled set size: 1176
	
Mean region size: 66.98014629049
Incorrectly Classified Instances: 9.153605015673982
Correctly Classified Instances: 90.84639498432603
Weighted Precision: 0.9093427113268832
Weighted AreaUnderROC: 0.9424599816387269
Root mean squared error: 0.31087715739409977
Relative absolute error: 55.23510971786832
Root relative squared error: 65.94700383280893
Weighted TruePositiveRate: 0.9084639498432602
Weighted MatthewsCorrelation: 0.8530157420277585
Weighted FMeasure: 0.9087457159849018
Iteration time: 1255.0
Weighted AreaUnderPRC: 0.8742515133490604
Mean absolute error: 0.2454893765238648
Coverage of cases: 98.93416927899686
Instances selection time: 143.0
Test time: 188.0
Accumulative iteration time: 7258.0
Weighted Recall: 0.9084639498432602
Weighted FalsePositiveRate: 0.05141248583280052
Kappa statistic: 0.8520978579054637
Training time: 1112.0
		
Iteration: 7
Labeled set size: 439
Unlabelled set size: 1156
	
Mean region size: 66.95924764890168
Incorrectly Classified Instances: 8.714733542319749
Correctly Classified Instances: 91.28526645768025
Weighted Precision: 0.913579949275525
Weighted AreaUnderROC: 0.9459617714408458
Root mean squared error: 0.30847768373964946
Relative absolute error: 54.89028213166143
Root relative squared error: 65.43799860510686
Weighted TruePositiveRate: 0.9128526645768025
Weighted MatthewsCorrelation: 0.8600150898303479
Weighted FMeasure: 0.9130993483081524
Iteration time: 1337.0
Weighted AreaUnderPRC: 0.8813638964089084
Mean absolute error: 0.24395680947405632
Coverage of cases: 99.05956112852665
Instances selection time: 147.0
Test time: 192.0
Accumulative iteration time: 8595.0
Weighted Recall: 0.9128526645768025
Weighted FalsePositiveRate: 0.049544534243744436
Kappa statistic: 0.8590304028384036
Training time: 1190.0
		
Iteration: 8
Labeled set size: 459
Unlabelled set size: 1136
	
Mean region size: 66.85475444096018
Incorrectly Classified Instances: 8.96551724137931
Correctly Classified Instances: 91.03448275862068
Weighted Precision: 0.9101416099725503
Weighted AreaUnderROC: 0.9417016259301706
Root mean squared error: 0.3106529940499214
Relative absolute error: 55.14106583072099
Root relative squared error: 65.89945160658034
Weighted TruePositiveRate: 0.9103448275862069
Weighted MatthewsCorrelation: 0.8556140764142122
Weighted FMeasure: 0.9101728254044518
Iteration time: 1485.0
Weighted AreaUnderPRC: 0.8716533307491938
Mean absolute error: 0.24507140369209884
Coverage of cases: 98.93416927899686
Instances selection time: 135.0
Test time: 193.0
Accumulative iteration time: 10080.0
Weighted Recall: 0.9103448275862069
Weighted FalsePositiveRate: 0.05748454510616285
Kappa statistic: 0.8537377559036184
Training time: 1350.0
		
Iteration: 9
Labeled set size: 479
Unlabelled set size: 1116
	
Mean region size: 66.85475444096019
Incorrectly Classified Instances: 8.77742946708464
Correctly Classified Instances: 91.22257053291536
Weighted Precision: 0.912092521677791
Weighted AreaUnderROC: 0.9422064001604502
Root mean squared error: 0.31042866883541087
Relative absolute error: 55.109717868338535
Root relative squared error: 65.85186504246889
Weighted TruePositiveRate: 0.9122257053291536
Weighted MatthewsCorrelation: 0.8584147068174136
Weighted FMeasure: 0.9121107346848627
Iteration time: 1483.0
Weighted AreaUnderPRC: 0.8732458616526401
Mean absolute error: 0.2449320794148435
Coverage of cases: 98.87147335423198
Instances selection time: 133.0
Test time: 193.0
Accumulative iteration time: 11563.0
Weighted Recall: 0.9122257053291536
Weighted FalsePositiveRate: 0.05593549235089873
Kappa statistic: 0.8569281257648547
Training time: 1350.0
		
Iteration: 10
Labeled set size: 499
Unlabelled set size: 1096
	
Mean region size: 66.89655172413681
Incorrectly Classified Instances: 8.589341692789969
Correctly Classified Instances: 91.41065830721003
Weighted Precision: 0.9139169473551758
Weighted AreaUnderROC: 0.9423798428551798
Root mean squared error: 0.31027902859107587
Relative absolute error: 55.109717868338535
Root relative squared error: 65.82012155301658
Weighted TruePositiveRate: 0.9141065830721004
Weighted MatthewsCorrelation: 0.8613135605386409
Weighted FMeasure: 0.9139528123688296
Iteration time: 1858.0
Weighted AreaUnderPRC: 0.8754546403040172
Mean absolute error: 0.2449320794148435
Coverage of cases: 98.74608150470219
Instances selection time: 137.0
Test time: 198.0
Accumulative iteration time: 13421.0
Weighted Recall: 0.9141065830721004
Weighted FalsePositiveRate: 0.055339078599212894
Kappa statistic: 0.8599144286567837
Training time: 1721.0
		
Iteration: 11
Labeled set size: 519
Unlabelled set size: 1076
	
Mean region size: 66.91745036572509
Incorrectly Classified Instances: 8.714733542319749
Correctly Classified Instances: 91.28526645768025
Weighted Precision: 0.9126045117414153
Weighted AreaUnderROC: 0.9414652114628446
Root mean squared error: 0.3108771573940997
Relative absolute error: 55.203761755485885
Root relative squared error: 65.94700383280893
Weighted TruePositiveRate: 0.9128526645768025
Weighted MatthewsCorrelation: 0.8591548046026245
Weighted FMeasure: 0.9126769054819124
Iteration time: 1773.0
Weighted AreaUnderPRC: 0.8734062714742191
Mean absolute error: 0.2453500522466095
Coverage of cases: 98.74608150470219
Instances selection time: 132.0
Test time: 199.0
Accumulative iteration time: 15194.0
Weighted Recall: 0.9128526645768025
Weighted FalsePositiveRate: 0.056213007268792595
Kappa statistic: 0.8578693838196565
Training time: 1641.0
		
Iteration: 12
Labeled set size: 539
Unlabelled set size: 1056
	
Mean region size: 66.98014629049
Incorrectly Classified Instances: 8.338557993730408
Correctly Classified Instances: 91.6614420062696
Weighted Precision: 0.9164354142621535
Weighted AreaUnderROC: 0.9436102162010636
Root mean squared error: 0.3102041813993969
Relative absolute error: 55.14106583072099
Root relative squared error: 65.8042440659799
Weighted TruePositiveRate: 0.9166144200626959
Weighted MatthewsCorrelation: 0.8661293186572162
Weighted FMeasure: 0.9165010241552479
Iteration time: 1687.0
Weighted AreaUnderPRC: 0.8782240527825957
Mean absolute error: 0.24507140369209884
Coverage of cases: 98.62068965517241
Instances selection time: 141.0
Test time: 195.0
Accumulative iteration time: 16881.0
Weighted Recall: 0.9166144200626959
Weighted FalsePositiveRate: 0.052162262754686016
Kappa statistic: 0.8641588330216953
Training time: 1546.0
		
Iteration: 13
Labeled set size: 559
Unlabelled set size: 1036
	
Mean region size: 66.91745036572509
Incorrectly Classified Instances: 8.84012539184953
Correctly Classified Instances: 91.15987460815047
Weighted Precision: 0.91121521543852
Weighted AreaUnderROC: 0.9415009355097431
Root mean squared error: 0.31110115921785186
Relative absolute error: 55.23510971786832
Root relative squared error: 65.99452179538092
Weighted TruePositiveRate: 0.9115987460815047
Weighted MatthewsCorrelation: 0.8578911162760341
Weighted FMeasure: 0.9113253715358731
Iteration time: 1845.0
Weighted AreaUnderPRC: 0.8734109962527248
Mean absolute error: 0.2454893765238648
Coverage of cases: 98.68338557993731
Instances selection time: 131.0
Test time: 195.0
Accumulative iteration time: 18726.0
Weighted Recall: 0.9115987460815047
Weighted FalsePositiveRate: 0.056610616436583154
Kappa statistic: 0.8557424011309944
Training time: 1714.0
		
Iteration: 14
Labeled set size: 579
Unlabelled set size: 1016
	
Mean region size: 66.93834900731342
Incorrectly Classified Instances: 8.96551724137931
Correctly Classified Instances: 91.03448275862068
Weighted Precision: 0.9099886332434818
Weighted AreaUnderROC: 0.940850175960177
Root mean squared error: 0.3114741376028675
Relative absolute error: 55.297805642633215
Root relative squared error: 66.07364245896508
Weighted TruePositiveRate: 0.9103448275862069
Weighted MatthewsCorrelation: 0.855802398792437
Weighted FMeasure: 0.9100971425163856
Iteration time: 1772.0
Weighted AreaUnderPRC: 0.8715249661938487
Mean absolute error: 0.24576802507837542
Coverage of cases: 98.74608150470219
Instances selection time: 130.0
Test time: 197.0
Accumulative iteration time: 20498.0
Weighted Recall: 0.9103448275862069
Weighted FalsePositiveRate: 0.05700822560437369
Kappa statistic: 0.8537792941454021
Training time: 1642.0
		
Iteration: 15
Labeled set size: 599
Unlabelled set size: 996
	
Mean region size: 66.89655172413678
Incorrectly Classified Instances: 8.84012539184953
Correctly Classified Instances: 91.15987460815047
Weighted Precision: 0.91128334874448
Weighted AreaUnderROC: 0.9423122972127451
Root mean squared error: 0.3105034619141581
Relative absolute error: 55.14106583072099
Root relative squared error: 65.86773105041928
Weighted TruePositiveRate: 0.9115987460815047
Weighted MatthewsCorrelation: 0.8579541510579997
Weighted FMeasure: 0.911386692630546
Iteration time: 1925.0
Weighted AreaUnderPRC: 0.8741343265774064
Mean absolute error: 0.24507140369209884
Coverage of cases: 98.80877742946709
Instances selection time: 123.0
Test time: 201.0
Accumulative iteration time: 22423.0
Weighted Recall: 0.9115987460815047
Weighted FalsePositiveRate: 0.056134296934794
Kappa statistic: 0.8558243389825293
Training time: 1802.0
		
Iteration: 16
Labeled set size: 619
Unlabelled set size: 976
	
Mean region size: 66.98014629049
Incorrectly Classified Instances: 9.216300940438872
Correctly Classified Instances: 90.78369905956113
Weighted Precision: 0.9074499714122355
Weighted AreaUnderROC: 0.9410207914168667
Root mean squared error: 0.311101159217852
Relative absolute error: 55.266457680250774
Root relative squared error: 65.99452179538093
Weighted TruePositiveRate: 0.9078369905956113
Weighted MatthewsCorrelation: 0.8517458225155422
Weighted FMeasure: 0.9075523877557524
Iteration time: 2093.0
Weighted AreaUnderPRC: 0.8706512375150268
Mean absolute error: 0.24562870080112012
Coverage of cases: 98.99686520376176
Instances selection time: 120.0
Test time: 200.0
Accumulative iteration time: 24516.0
Weighted Recall: 0.9078369905956113
Weighted FalsePositiveRate: 0.058756082943533114
Kappa statistic: 0.8496465043205028
Training time: 1973.0
		
Iteration: 17
Labeled set size: 639
Unlabelled set size: 956
	
Mean region size: 66.95924764890171
Incorrectly Classified Instances: 9.153605015673982
Correctly Classified Instances: 90.84639498432603
Weighted Precision: 0.9080084699089915
Weighted AreaUnderROC: 0.9399217956566722
Root mean squared error: 0.31162320396105553
Relative absolute error: 55.32915360501566
Root relative squared error: 66.10526420878155
Weighted TruePositiveRate: 0.9084639498432602
Weighted MatthewsCorrelation: 0.8524439043164024
Weighted FMeasure: 0.9080400603742167
Iteration time: 2064.0
Weighted AreaUnderPRC: 0.8701821828619556
Mean absolute error: 0.24590734935563074
Coverage of cases: 98.80877742946709
Instances selection time: 118.0
Test time: 200.0
Accumulative iteration time: 26580.0
Weighted Recall: 0.9084639498432602
Weighted FalsePositiveRate: 0.05998623686500531
Kappa statistic: 0.8504143523083417
Training time: 1946.0
		
Iteration: 18
Labeled set size: 659
Unlabelled set size: 936
	
Mean region size: 66.95924764890171
Incorrectly Classified Instances: 9.153605015673982
Correctly Classified Instances: 90.84639498432603
Weighted Precision: 0.9080313805907295
Weighted AreaUnderROC: 0.9400405784159614
Root mean squared error: 0.31162320396105553
Relative absolute error: 55.32915360501566
Root relative squared error: 66.10526420878155
Weighted TruePositiveRate: 0.9084639498432602
Weighted MatthewsCorrelation: 0.8524836173054179
Weighted FMeasure: 0.9080623963093947
Iteration time: 2085.0
Weighted AreaUnderPRC: 0.8703694167152944
Mean absolute error: 0.24590734935563074
Coverage of cases: 98.80877742946709
Instances selection time: 117.0
Test time: 201.0
Accumulative iteration time: 28665.0
Weighted Recall: 0.9084639498432602
Weighted FalsePositiveRate: 0.05950991736321614
Kappa statistic: 0.8504994372944423
Training time: 1968.0
		
Iteration: 19
Labeled set size: 679
Unlabelled set size: 916
	
Mean region size: 66.91745036572512
Incorrectly Classified Instances: 9.341692789968652
Correctly Classified Instances: 90.65830721003135
Weighted Precision: 0.9060776394351712
Weighted AreaUnderROC: 0.9381580254973998
Root mean squared error: 0.3124417976683387
Relative absolute error: 55.423197492163
Root relative squared error: 66.27891415721851
Weighted TruePositiveRate: 0.9065830721003135
Weighted MatthewsCorrelation: 0.8491477318834817
Weighted FMeasure: 0.9060777150321683
Iteration time: 2251.0
Weighted AreaUnderPRC: 0.8673201725745778
Mean absolute error: 0.2463253221873967
Coverage of cases: 98.74608150470219
Instances selection time: 114.0
Test time: 200.0
Accumulative iteration time: 30916.0
Weighted Recall: 0.9065830721003135
Weighted FalsePositiveRate: 0.062487928623847756
Kappa statistic: 0.8471231583118481
Training time: 2137.0
		
Iteration: 20
Labeled set size: 699
Unlabelled set size: 896
	
Mean region size: 66.93834900731342
Incorrectly Classified Instances: 9.341692789968652
Correctly Classified Instances: 90.65830721003135
Weighted Precision: 0.9061334119980021
Weighted AreaUnderROC: 0.9379904186156678
Root mean squared error: 0.31259040257456183
Relative absolute error: 55.454545454545446
Root relative squared error: 66.31043801829091
Weighted TruePositiveRate: 0.9065830721003135
Weighted MatthewsCorrelation: 0.8489730583923679
Weighted FMeasure: 0.9061791008687996
Iteration time: 2328.0
Weighted AreaUnderPRC: 0.8671578586101777
Mean absolute error: 0.24646464646465202
Coverage of cases: 98.74608150470219
Instances selection time: 112.0
Test time: 200.0
Accumulative iteration time: 33244.0
Weighted Recall: 0.9065830721003135
Weighted FalsePositiveRate: 0.0620116091220586
Kappa statistic: 0.8472537424134623
Training time: 2216.0
		
Iteration: 21
Labeled set size: 719
Unlabelled set size: 876
	
Mean region size: 67.02194357366662
Incorrectly Classified Instances: 9.467084639498433
Correctly Classified Instances: 90.53291536050156
Weighted Precision: 0.9050123042457244
Weighted AreaUnderROC: 0.9359105212461613
Root mean squared error: 0.3131841170745106
Relative absolute error: 55.57993730407522
Root relative squared error: 66.43638388299166
Weighted TruePositiveRate: 0.9053291536050156
Weighted MatthewsCorrelation: 0.8464720476372987
Weighted FMeasure: 0.90469687152129
Iteration time: 2675.0
Weighted AreaUnderPRC: 0.8649205116426052
Mean absolute error: 0.24702194357367327
Coverage of cases: 98.74608150470219
Instances selection time: 120.0
Test time: 221.0
Accumulative iteration time: 35919.0
Weighted Recall: 0.9053291536050156
Weighted FalsePositiveRate: 0.06669609380595154
Kappa statistic: 0.8445395020513337
Training time: 2555.0
		
Iteration: 22
Labeled set size: 739
Unlabelled set size: 856
	
Mean region size: 67.04284221525491
Incorrectly Classified Instances: 9.655172413793103
Correctly Classified Instances: 90.34482758620689
Weighted Precision: 0.9030334791337292
Weighted AreaUnderROC: 0.9350327824789655
Root mean squared error: 0.3142204180957462
Relative absolute error: 55.736677115987455
Root relative squared error: 66.65621652683153
Weighted TruePositiveRate: 0.903448275862069
Weighted MatthewsCorrelation: 0.8440130377403943
Weighted FMeasure: 0.9029207765546872
Iteration time: 2913.0
Weighted AreaUnderPRC: 0.8617800676612168
Mean absolute error: 0.24771856495994984
Coverage of cases: 98.68338557993731
Instances selection time: 119.0
Test time: 215.0
Accumulative iteration time: 38832.0
Weighted Recall: 0.903448275862069
Weighted FalsePositiveRate: 0.06586354905226992
Kappa statistic: 0.8417224372283159
Training time: 2794.0
		
Iteration: 23
Labeled set size: 759
Unlabelled set size: 836
	
Mean region size: 67.1264367816081
Incorrectly Classified Instances: 9.278996865203762
Correctly Classified Instances: 90.72100313479623
Weighted Precision: 0.9069182092066087
Weighted AreaUnderROC: 0.9378542197599591
Root mean squared error: 0.3128131775660704
Relative absolute error: 55.57993730407522
Root relative squared error: 66.35769573044325
Weighted TruePositiveRate: 0.9072100313479624
Weighted MatthewsCorrelation: 0.8506994152497239
Weighted FMeasure: 0.9065691703667763
Iteration time: 2976.0
Weighted AreaUnderPRC: 0.8661124519895635
Mean absolute error: 0.24702194357367327
Coverage of cases: 98.80877742946709
Instances selection time: 112.0
Test time: 223.0
Accumulative iteration time: 41808.0
Weighted Recall: 0.9072100313479624
Weighted FalsePositiveRate: 0.06371808254531994
Kappa statistic: 0.8477587202084403
Training time: 2864.0
		
Iteration: 24
Labeled set size: 779
Unlabelled set size: 816
	
Mean region size: 67.1055381400198
Incorrectly Classified Instances: 8.96551724137931
Correctly Classified Instances: 91.03448275862068
Weighted Precision: 0.9100777784803001
Weighted AreaUnderROC: 0.9387045753043548
Root mean squared error: 0.3119955582627939
Relative absolute error: 55.454545454545446
Root relative squared error: 66.18425248431049
Weighted TruePositiveRate: 0.9103448275862069
Weighted MatthewsCorrelation: 0.8548445053110983
Weighted FMeasure: 0.9097968955079406
Iteration time: 2879.0
Weighted AreaUnderPRC: 0.8691723443838691
Mean absolute error: 0.24646464646465202
Coverage of cases: 98.80877742946709
Instances selection time: 117.0
Test time: 219.0
Accumulative iteration time: 44687.0
Weighted Recall: 0.9103448275862069
Weighted FalsePositiveRate: 0.06272405962584356
Kappa statistic: 0.8529020066878847
Training time: 2762.0
		
Iteration: 25
Labeled set size: 799
Unlabelled set size: 796
	
Mean region size: 67.1264367816081
Incorrectly Classified Instances: 8.96551724137931
Correctly Classified Instances: 91.03448275862068
Weighted Precision: 0.9102008353945115
Weighted AreaUnderROC: 0.9391512047620341
Root mean squared error: 0.3112504042056728
Relative absolute error: 55.36050156739811
Root relative squared error: 66.0261814382648
Weighted TruePositiveRate: 0.9103448275862069
Weighted MatthewsCorrelation: 0.8546149269019963
Weighted FMeasure: 0.9097254909675497
Iteration time: 2946.0
Weighted AreaUnderPRC: 0.8705670729868327
Mean absolute error: 0.24604667363288607
Coverage of cases: 98.93416927899686
Instances selection time: 101.0
Test time: 209.0
Accumulative iteration time: 47633.0
Weighted Recall: 0.9103448275862069
Weighted FalsePositiveRate: 0.06415301813121102
Kappa statistic: 0.8526915749023154
Training time: 2845.0
		
Iteration: 26
Labeled set size: 819
Unlabelled set size: 776
	
Mean region size: 67.1264367816081
Incorrectly Classified Instances: 9.278996865203762
Correctly Classified Instances: 90.72100313479623
Weighted Precision: 0.9069487439607881
Weighted AreaUnderROC: 0.9383641927646219
Root mean squared error: 0.3116977104065818
Relative absolute error: 55.423197492163006
Root relative squared error: 66.12106941264366
Weighted TruePositiveRate: 0.9072100313479624
Weighted MatthewsCorrelation: 0.8497037254530794
Weighted FMeasure: 0.9065805442881458
Iteration time: 2688.0
Weighted AreaUnderPRC: 0.8674787975984362
Mean absolute error: 0.24632532218739672
Coverage of cases: 99.05956112852665
Instances selection time: 103.0
Test time: 209.0
Accumulative iteration time: 50321.0
Weighted Recall: 0.9072100313479624
Weighted FalsePositiveRate: 0.06562336055247654
Kappa statistic: 0.8475845384115241
Training time: 2585.0
		
Iteration: 27
Labeled set size: 839
Unlabelled set size: 756
	
Mean region size: 67.06374085684322
Incorrectly Classified Instances: 9.404388714733543
Correctly Classified Instances: 90.59561128526646
Weighted Precision: 0.9059600711880054
Weighted AreaUnderROC: 0.9333161157637624
Root mean squared error: 0.3148110585006183
Relative absolute error: 55.83072100313479
Root relative squared error: 66.78151027748989
Weighted TruePositiveRate: 0.9059561128526645
Weighted MatthewsCorrelation: 0.8476106836668563
Weighted FMeasure: 0.9050953374441174
Iteration time: 2852.0
Weighted AreaUnderPRC: 0.86212682879664
Mean absolute error: 0.2481365377917158
Coverage of cases: 98.43260188087774
Instances selection time: 97.0
Test time: 209.0
Accumulative iteration time: 53173.0
Weighted Recall: 0.9059561128526645
Weighted FalsePositiveRate: 0.0693552062327912
Kappa statistic: 0.8449928311209042
Training time: 2755.0
		
Iteration: 28
Labeled set size: 859
Unlabelled set size: 736
	
Mean region size: 67.02194357366662
Incorrectly Classified Instances: 9.090909090909092
Correctly Classified Instances: 90.9090909090909
Weighted Precision: 0.9091528692759441
Weighted AreaUnderROC: 0.9349160459955632
Root mean squared error: 0.31385070339176663
Relative absolute error: 55.67398119122256
Root relative squared error: 66.57778819454504
Weighted TruePositiveRate: 0.9090909090909091
Weighted MatthewsCorrelation: 0.8522775055967969
Weighted FMeasure: 0.9083945604142439
Iteration time: 2950.0
Weighted AreaUnderPRC: 0.8656396005932614
Mean absolute error: 0.24743991640543922
Coverage of cases: 98.43260188087774
Instances selection time: 100.0
Test time: 211.0
Accumulative iteration time: 56123.0
Weighted Recall: 0.9090909090909091
Weighted FalsePositiveRate: 0.06693222480794736
Kappa statistic: 0.8503315646863385
Training time: 2850.0
		
Iteration: 29
Labeled set size: 879
Unlabelled set size: 716
	
Mean region size: 66.91745036572512
Incorrectly Classified Instances: 8.84012539184953
Correctly Classified Instances: 91.15987460815047
Weighted Precision: 0.9117665092761545
Weighted AreaUnderROC: 0.9367382740538229
Root mean squared error: 0.3126646785415301
Relative absolute error: 55.454545454545446
Root relative squared error: 66.32619433026764
Weighted TruePositiveRate: 0.9115987460815047
Weighted MatthewsCorrelation: 0.8566130854571481
Weighted FMeasure: 0.910884225880738
Iteration time: 2962.0
Weighted AreaUnderPRC: 0.8680137643578362
Mean absolute error: 0.24646464646465202
Coverage of cases: 98.49529780564264
Instances selection time: 93.0
Test time: 208.0
Accumulative iteration time: 59085.0
Weighted Recall: 0.9115987460815047
Weighted FalsePositiveRate: 0.06566068697057709
Kappa statistic: 0.8543768531103115
Training time: 2869.0
		
Iteration: 30
Labeled set size: 899
Unlabelled set size: 696
	
Mean region size: 66.91745036572512
Incorrectly Classified Instances: 8.90282131661442
Correctly Classified Instances: 91.09717868338558
Weighted Precision: 0.9110763298397859
Weighted AreaUnderROC: 0.9369707419152588
Root mean squared error: 0.31266467854153007
Relative absolute error: 55.454545454545446
Root relative squared error: 66.32619433026763
Weighted TruePositiveRate: 0.9109717868338558
Weighted MatthewsCorrelation: 0.8555289889792038
Weighted FMeasure: 0.9103661313284923
Iteration time: 3164.0
Weighted AreaUnderPRC: 0.8675425541159834
Mean absolute error: 0.24646464646465202
Coverage of cases: 98.55799373040752
Instances selection time: 91.0
Test time: 210.0
Accumulative iteration time: 62249.0
Weighted Recall: 0.9109717868338558
Weighted FalsePositiveRate: 0.06490685255089407
Kappa statistic: 0.8535541046103075
Training time: 3073.0
		
Iteration: 31
Labeled set size: 919
Unlabelled set size: 676
	
Mean region size: 66.91745036572512
Incorrectly Classified Instances: 8.77742946708464
Correctly Classified Instances: 91.22257053291536
Weighted Precision: 0.9123296799381373
Weighted AreaUnderROC: 0.9378984612490692
Root mean squared error: 0.3122187576891685
Relative absolute error: 55.39184952978055
Root relative squared error: 66.23160023269443
Weighted TruePositiveRate: 0.9122257053291536
Weighted MatthewsCorrelation: 0.8576839855791496
Weighted FMeasure: 0.9116683126379171
Iteration time: 3279.0
Weighted AreaUnderPRC: 0.8693265520049409
Mean absolute error: 0.24618599791014137
Coverage of cases: 98.55799373040752
Instances selection time: 93.0
Test time: 210.0
Accumulative iteration time: 65528.0
Weighted Recall: 0.9122257053291536
Weighted FalsePositiveRate: 0.0635566043795252
Kappa statistic: 0.8556993894526786
Training time: 3186.0
		
Iteration: 32
Labeled set size: 939
Unlabelled set size: 656
	
Mean region size: 66.87565308254851
Incorrectly Classified Instances: 8.90282131661442
Correctly Classified Instances: 91.09717868338558
Weighted Precision: 0.9109974530608645
Weighted AreaUnderROC: 0.937981295818244
Root mean squared error: 0.3121443756136188
Relative absolute error: 55.36050156739811
Root relative squared error: 66.21582141168845
Weighted TruePositiveRate: 0.9109717868338558
Weighted MatthewsCorrelation: 0.8557693907122029
Weighted FMeasure: 0.910454429991189
Iteration time: 3497.0
Weighted AreaUnderPRC: 0.868576771138061
Mean absolute error: 0.24604667363288607
Coverage of cases: 98.62068965517241
Instances selection time: 85.0
Test time: 209.0
Accumulative iteration time: 69025.0
Weighted Recall: 0.9109717868338558
Weighted FalsePositiveRate: 0.0634778940455266
Kappa statistic: 0.8537635436110572
Training time: 3412.0
		
Iteration: 33
Labeled set size: 959
Unlabelled set size: 636
	
Mean region size: 66.93834900731342
Incorrectly Classified Instances: 9.153605015673982
Correctly Classified Instances: 90.84639498432603
Weighted Precision: 0.908327328872877
Weighted AreaUnderROC: 0.9378187164857019
Root mean squared error: 0.312367468703883
Relative absolute error: 55.423197492163006
Root relative squared error: 66.26314660277694
Weighted TruePositiveRate: 0.9084639498432602
Weighted MatthewsCorrelation: 0.8526049908068818
Weighted FMeasure: 0.9076970327756569
Iteration time: 3540.0
Weighted AreaUnderPRC: 0.8659155540023846
Mean absolute error: 0.24632532218739672
Coverage of cases: 98.80877742946709
Instances selection time: 86.0
Test time: 215.0
Accumulative iteration time: 72565.0
Weighted Recall: 0.9084639498432602
Weighted FalsePositiveRate: 0.06570207088647517
Kappa statistic: 0.8493425598372769
Training time: 3454.0
		
Iteration: 34
Labeled set size: 979
Unlabelled set size: 616
	
Mean region size: 66.9383490073134
Incorrectly Classified Instances: 9.404388714733543
Correctly Classified Instances: 90.59561128526646
Weighted Precision: 0.9058772022001402
Weighted AreaUnderROC: 0.9362237271793218
Root mean squared error: 0.3130357940176126
Relative absolute error: 55.51724137931035
Root relative squared error: 66.40491981119
Weighted TruePositiveRate: 0.9059561128526645
Weighted MatthewsCorrelation: 0.8483287173501782
Weighted FMeasure: 0.9051506714280155
Iteration time: 3899.0
Weighted AreaUnderPRC: 0.8641267520340564
Mean absolute error: 0.24674329501916267
Coverage of cases: 98.74608150470219
Instances selection time: 83.0
Test time: 214.0
Accumulative iteration time: 76464.0
Weighted Recall: 0.9059561128526645
Weighted FalsePositiveRate: 0.06792624772742374
Kappa statistic: 0.8451261841292692
Training time: 3816.0
		
Iteration: 35
Labeled set size: 999
Unlabelled set size: 596
	
Mean region size: 66.9383490073134
Incorrectly Classified Instances: 9.529780564263323
Correctly Classified Instances: 90.47021943573668
Weighted Precision: 0.904588583425552
Weighted AreaUnderROC: 0.9353887428036882
Root mean squared error: 0.31348055265159247
Relative absolute error: 55.57993730407523
Root relative squared error: 66.49926736501352
Weighted TruePositiveRate: 0.9047021943573668
Weighted MatthewsCorrelation: 0.8461658362736896
Weighted FMeasure: 0.9038853555277759
Iteration time: 3614.0
Weighted AreaUnderPRC: 0.8624405736613284
Mean absolute error: 0.2470219435736733
Coverage of cases: 98.74608150470219
Instances selection time: 79.0
Test time: 209.0
Accumulative iteration time: 80078.0
Weighted Recall: 0.9047021943573668
Weighted FalsePositiveRate: 0.06880017639700343
Kappa statistic: 0.8430611999176596
Training time: 3535.0
		
Iteration: 36
Labeled set size: 1019
Unlabelled set size: 576
	
Mean region size: 66.98014629049
Incorrectly Classified Instances: 9.153605015673982
Correctly Classified Instances: 90.84639498432603
Weighted Precision: 0.9081850226613767
Weighted AreaUnderROC: 0.9379765517343844
Root mean squared error: 0.3119955582627939
Relative absolute error: 55.39184952978056
Root relative squared error: 66.18425248431049
Weighted TruePositiveRate: 0.9084639498432602
Weighted MatthewsCorrelation: 0.8520790004320185
Weighted FMeasure: 0.9078072544925797
Iteration time: 3572.0
Weighted AreaUnderPRC: 0.8687904039747724
Mean absolute error: 0.24618599791014142
Coverage of cases: 98.74608150470219
Instances selection time: 78.0
Test time: 209.0
Accumulative iteration time: 83650.0
Weighted Recall: 0.9084639498432602
Weighted FalsePositiveRate: 0.06474943188289685
Kappa statistic: 0.8496011883618045
Training time: 3494.0
		
Iteration: 37
Labeled set size: 1039
Unlabelled set size: 556
	
Mean region size: 66.9383490073134
Incorrectly Classified Instances: 9.216300940438872
Correctly Classified Instances: 90.78369905956113
Weighted Precision: 0.9076008411286015
Weighted AreaUnderROC: 0.9378232253034487
Root mean squared error: 0.3123674687038829
Relative absolute error: 55.423197492163006
Root relative squared error: 66.26314660277693
Weighted TruePositiveRate: 0.9078369905956113
Weighted MatthewsCorrelation: 0.8515119754919197
Weighted FMeasure: 0.9071680853156125
Iteration time: 3985.0
Weighted AreaUnderPRC: 0.8668599394642773
Mean absolute error: 0.24632532218739672
Coverage of cases: 98.74608150470219
Instances selection time: 76.0
Test time: 216.0
Accumulative iteration time: 87635.0
Weighted Recall: 0.9078369905956113
Weighted FalsePositiveRate: 0.06494823646679213
Kappa statistic: 0.8485277216266869
Training time: 3909.0
		
Iteration: 38
Labeled set size: 1059
Unlabelled set size: 536
	
Mean region size: 66.9592476489017
Incorrectly Classified Instances: 8.96551724137931
Correctly Classified Instances: 91.03448275862068
Weighted Precision: 0.9100652767310347
Weighted AreaUnderROC: 0.9395632608870101
Root mean squared error: 0.31139957766461124
Relative absolute error: 55.29780564263323
Root relative squared error: 66.05782590758132
Weighted TruePositiveRate: 0.9103448275862069
Weighted MatthewsCorrelation: 0.8555535364188067
Weighted FMeasure: 0.909738713817425
Iteration time: 3826.0
Weighted AreaUnderPRC: 0.8700299952450924
Mean absolute error: 0.24576802507837547
Coverage of cases: 98.80877742946709
Instances selection time: 70.0
Test time: 214.0
Accumulative iteration time: 91461.0
Weighted Recall: 0.9103448275862069
Weighted FalsePositiveRate: 0.06272405962584356
Kappa statistic: 0.8527758198234485
Training time: 3756.0
		
Iteration: 39
Labeled set size: 1079
Unlabelled set size: 516
	
Mean region size: 66.98014629049
Incorrectly Classified Instances: 8.652037617554859
Correctly Classified Instances: 91.34796238244515
Weighted Precision: 0.9130124621967891
Weighted AreaUnderROC: 0.9433352622458102
Root mean squared error: 0.30907929851640564
Relative absolute error: 54.98432601880877
Root relative squared error: 65.56562037159875
Weighted TruePositiveRate: 0.9134796238244514
Weighted MatthewsCorrelation: 0.8606219629532051
Weighted FMeasure: 0.9128864722854994
Iteration time: 4259.0
Weighted AreaUnderPRC: 0.8754203598761341
Mean absolute error: 0.2443747823058223
Coverage of cases: 99.12225705329153
Instances selection time: 78.0
Test time: 213.0
Accumulative iteration time: 95720.0
Weighted Recall: 0.9134796238244514
Weighted FalsePositiveRate: 0.0593484391974214
Kappa statistic: 0.8581668593344648
Training time: 4181.0
		
Iteration: 40
Labeled set size: 1099
Unlabelled set size: 496
	
Mean region size: 66.85475444096019
Incorrectly Classified Instances: 7.648902821316614
Correctly Classified Instances: 92.35109717868339
Weighted Precision: 0.9230833419416125
Weighted AreaUnderROC: 0.9489210123081523
Root mean squared error: 0.30590762149678297
Relative absolute error: 54.482758620689644
Root relative squared error: 64.89280607310614
Weighted TruePositiveRate: 0.9235109717868338
Weighted MatthewsCorrelation: 0.877300530085387
Weighted FMeasure: 0.9230339595069176
Iteration time: 4246.0
Weighted AreaUnderPRC: 0.88732489544718
Mean absolute error: 0.24214559386973725
Coverage of cases: 98.99686520376176
Instances selection time: 70.0
Test time: 212.0
Accumulative iteration time: 99966.0
Weighted Recall: 0.9235109717868338
Weighted FalsePositiveRate: 0.0518806903389946
Kappa statistic: 0.8747542908192621
Training time: 4176.0
		
Iteration: 41
Labeled set size: 1119
Unlabelled set size: 476
	
Mean region size: 66.89655172413678
Incorrectly Classified Instances: 7.899686520376176
Correctly Classified Instances: 92.10031347962382
Weighted Precision: 0.9204986492493996
Weighted AreaUnderROC: 0.9480893125575425
Root mean squared error: 0.30666575802873197
Relative absolute error: 54.60815047021942
Root relative squared error: 65.05363111794806
Weighted TruePositiveRate: 0.9210031347962383
Weighted MatthewsCorrelation: 0.8732938778619509
Weighted FMeasure: 0.9205376769381997
Iteration time: 4437.0
Weighted AreaUnderPRC: 0.8854809057235772
Mean absolute error: 0.2427028909787585
Coverage of cases: 98.99686520376176
Instances selection time: 64.0
Test time: 214.0
Accumulative iteration time: 104403.0
Weighted Recall: 0.9210031347962383
Weighted FalsePositiveRate: 0.051723269670997406
Kappa statistic: 0.8709055369236375
Training time: 4373.0
		
Iteration: 42
Labeled set size: 1139
Unlabelled set size: 456
	
Mean region size: 66.89655172413678
Incorrectly Classified Instances: 8.401253918495298
Correctly Classified Instances: 91.5987460815047
Weighted Precision: 0.915541235332714
Weighted AreaUnderROC: 0.9446136349345126
Root mean squared error: 0.30847768373964957
Relative absolute error: 54.85893416927898
Root relative squared error: 65.43799860510688
Weighted TruePositiveRate: 0.915987460815047
Weighted MatthewsCorrelation: 0.8647332751071435
Weighted FMeasure: 0.9155426486429952
Iteration time: 4921.0
Weighted AreaUnderPRC: 0.878498590228679
Mean absolute error: 0.24381748519680102
Coverage of cases: 98.99686520376176
Instances selection time: 60.0
Test time: 249.0
Accumulative iteration time: 109324.0
Weighted Recall: 0.915987460815047
Weighted FalsePositiveRate: 0.05617162335289453
Kappa statistic: 0.8625526127093656
Training time: 4861.0
		
Iteration: 43
Labeled set size: 1159
Unlabelled set size: 436
	
Mean region size: 66.87565308254848
Incorrectly Classified Instances: 8.338557993730408
Correctly Classified Instances: 91.6614420062696
Weighted Precision: 0.9162243927815148
Weighted AreaUnderROC: 0.9448651741815921
Root mean squared error: 0.3085529497365582
Relative absolute error: 54.85893416927898
Root relative squared error: 65.45396493414894
Weighted TruePositiveRate: 0.9166144200626959
Weighted MatthewsCorrelation: 0.86588519143912
Weighted FMeasure: 0.9162660079836326
Iteration time: 5054.0
Weighted AreaUnderPRC: 0.879712081693712
Mean absolute error: 0.24381748519680102
Coverage of cases: 98.87147335423198
Instances selection time: 59.0
Test time: 214.0
Accumulative iteration time: 114378.0
Weighted Recall: 0.9166144200626959
Weighted FalsePositiveRate: 0.054543860263631797
Kappa statistic: 0.8637723877961223
Training time: 4995.0
		
Iteration: 44
Labeled set size: 1179
Unlabelled set size: 416
	
Mean region size: 66.87565308254848
Incorrectly Classified Instances: 8.025078369905955
Correctly Classified Instances: 91.97492163009404
Weighted Precision: 0.9193698346735824
Weighted AreaUnderROC: 0.9465762154076572
Root mean squared error: 0.3071953403416125
Relative absolute error: 54.670846394984316
Root relative squared error: 65.16597249133834
Weighted TruePositiveRate: 0.9197492163009404
Weighted MatthewsCorrelation: 0.8706896260487215
Weighted FMeasure: 0.9193364562577542
Iteration time: 4971.0
Weighted AreaUnderPRC: 0.8838141370922461
Mean absolute error: 0.24298153953326912
Coverage of cases: 98.93416927899686
Instances selection time: 55.0
Test time: 225.0
Accumulative iteration time: 119349.0
Weighted Recall: 0.9197492163009404
Weighted FalsePositiveRate: 0.05402615684594457
Kappa statistic: 0.8687069733343193
Training time: 4916.0
		
Iteration: 45
Labeled set size: 1199
Unlabelled set size: 396
	
Mean region size: 66.83385579937188
Incorrectly Classified Instances: 7.962382445141066
Correctly Classified Instances: 92.03761755485894
Weighted Precision: 0.919992724347074
Weighted AreaUnderROC: 0.9472794487379275
Root mean squared error: 0.30689283377849025
Relative absolute error: 54.60815047021943
Root relative squared error: 65.10180115869719
Weighted TruePositiveRate: 0.9203761755485893
Weighted MatthewsCorrelation: 0.8717882856623516
Weighted FMeasure: 0.920021446259245
Iteration time: 5336.0
Weighted AreaUnderPRC: 0.8840190478921472
Mean absolute error: 0.24270289097875852
Coverage of cases: 98.99686520376176
Instances selection time: 58.0
Test time: 216.0
Accumulative iteration time: 124685.0
Weighted Recall: 0.9203761755485893
Weighted FalsePositiveRate: 0.052874713258470984
Kappa statistic: 0.8698439399508071
Training time: 5278.0
		
Iteration: 46
Labeled set size: 1219
Unlabelled set size: 376
	
Mean region size: 66.83385579937188
Incorrectly Classified Instances: 7.460815047021944
Correctly Classified Instances: 92.53918495297806
Weighted Precision: 0.9250532012128564
Weighted AreaUnderROC: 0.949306691663927
Root mean squared error: 0.30552784776687736
Relative absolute error: 54.420062695924756
Root relative squared error: 64.81224389918631
Weighted TruePositiveRate: 0.9253918495297806
Weighted MatthewsCorrelation: 0.8796537205344063
Weighted FMeasure: 0.9250164337762776
Iteration time: 5805.0
Weighted AreaUnderPRC: 0.8905299704965666
Mean absolute error: 0.24186694531522662
Coverage of cases: 98.87147335423198
Instances selection time: 74.0
Test time: 218.0
Accumulative iteration time: 130490.0
Weighted Recall: 0.9253918495297806
Weighted FalsePositiveRate: 0.049378998580152156
Kappa statistic: 0.8781468016304017
Training time: 5731.0
		
Time end:Wed Nov 01 11.33.05 EET 2017