Wed Nov 01 14.19.49 EET 2017
Dataset: splice
Test set size: 1595
Initial Labelled set size: 319
Initial Unlabelled set size: 1276
Batch mode: QBestBatchMode
Batch size: 20
Classifiers: IBk-1cores
Scenario: PoolBasedSamplingScenario
Query strategy: VoteEntropyQueryStrategy-1cores
Time begining: Wed Nov 01 14.19.49 EET 2017
		
Iteration: 1
Labeled set size: 319
Unlabelled set size: 1276
	
Mean region size: 38.82967607105548
Incorrectly Classified Instances: 34.79623824451411
Correctly Classified Instances: 65.2037617554859
Weighted Precision: 0.7185459754647519
Weighted AreaUnderROC: 0.7933951190045757
Root mean squared error: 0.448903161162764
Relative absolute error: 51.52134827600524
Root relative squared error: 95.22674080627934
Weighted TruePositiveRate: 0.6520376175548589
Weighted MatthewsCorrelation: 0.5017534373830833
Weighted FMeasure: 0.6537393109625718
Iteration time: 606.0
Weighted AreaUnderPRC: 0.6649653982777575
Mean absolute error: 0.22898377011558405
Coverage of cases: 72.03761755485894
Instances selection time: 606.0
Test time: 748.0
Accumulative iteration time: 606.0
Weighted Recall: 0.6520376175548589
Weighted FalsePositiveRate: 0.14027311675400472
Kappa statistic: 0.4819525366754604
Training time: 0.0
		
Iteration: 2
Labeled set size: 339
Unlabelled set size: 1256
	
Mean region size: 38.72518286311399
Incorrectly Classified Instances: 36.1128526645768
Correctly Classified Instances: 63.8871473354232
Weighted Precision: 0.7135952394931185
Weighted AreaUnderROC: 0.7864135906885475
Root mean squared error: 0.45742517373423197
Relative absolute error: 53.208997198311216
Root relative squared error: 97.03453266987192
Weighted TruePositiveRate: 0.638871473354232
Weighted MatthewsCorrelation: 0.48809163369753134
Weighted FMeasure: 0.6389131985945719
Iteration time: 631.0
Weighted AreaUnderPRC: 0.6576186839959943
Mean absolute error: 0.23648443199249966
Coverage of cases: 70.78369905956113
Instances selection time: 630.0
Test time: 795.0
Accumulative iteration time: 1237.0
Weighted Recall: 0.638871473354232
Weighted FalsePositiveRate: 0.14254888962536424
Kappa statistic: 0.46608799854480626
Training time: 1.0
		
Iteration: 3
Labeled set size: 359
Unlabelled set size: 1236
	
Mean region size: 38.62068965517253
Incorrectly Classified Instances: 37.36677115987461
Correctly Classified Instances: 62.63322884012539
Weighted Precision: 0.7127136773083013
Weighted AreaUnderROC: 0.7836834233868877
Root mean squared error: 0.4632045275789133
Relative absolute error: 54.269743031843895
Root relative squared error: 98.26051875820713
Weighted TruePositiveRate: 0.6263322884012539
Weighted MatthewsCorrelation: 0.4783006117232902
Weighted FMeasure: 0.6255714696869278
Iteration time: 651.0
Weighted AreaUnderPRC: 0.6546248135548852
Mean absolute error: 0.24119885791931167
Coverage of cases: 69.90595611285266
Instances selection time: 650.0
Test time: 841.0
Accumulative iteration time: 1888.0
Weighted Recall: 0.6263322884012539
Weighted FalsePositiveRate: 0.1431883998966006
Kappa statistic: 0.45122334901426053
Training time: 1.0
		
Iteration: 4
Labeled set size: 379
Unlabelled set size: 1216
	
Mean region size: 38.516196447231025
Incorrectly Classified Instances: 38.244514106583075
Correctly Classified Instances: 61.755485893416925
Weighted Precision: 0.7097508190642625
Weighted AreaUnderROC: 0.7779285607380112
Root mean squared error: 0.46894949008227177
Relative absolute error: 55.31672171112062
Root relative squared error: 99.47920934134328
Weighted TruePositiveRate: 0.6175548589341693
Weighted MatthewsCorrelation: 0.4692531561145899
Weighted FMeasure: 0.6162324797459593
Iteration time: 676.0
Weighted AreaUnderPRC: 0.6473202365964305
Mean absolute error: 0.24585209649387502
Coverage of cases: 69.0282131661442
Instances selection time: 676.0
Test time: 887.0
Accumulative iteration time: 2564.0
Weighted Recall: 0.6175548589341693
Weighted FalsePositiveRate: 0.1455011414941076
Kappa statistic: 0.4401927723044012
Training time: 0.0
		
Iteration: 5
Labeled set size: 399
Unlabelled set size: 1196
	
Mean region size: 38.641588296760816
Incorrectly Classified Instances: 38.93416927899686
Correctly Classified Instances: 61.06583072100314
Weighted Precision: 0.7134468234757216
Weighted AreaUnderROC: 0.7728465538401929
Root mean squared error: 0.47251661261851285
Relative absolute error: 56.16157202303321
Root relative squared error: 100.23591030175308
Weighted TruePositiveRate: 0.6106583072100313
Weighted MatthewsCorrelation: 0.4666698719345907
Weighted FMeasure: 0.6081585347581204
Iteration time: 698.0
Weighted AreaUnderPRC: 0.6433340407651508
Mean absolute error: 0.24960698676904214
Coverage of cases: 68.65203761755485
Instances selection time: 697.0
Test time: 925.0
Accumulative iteration time: 3262.0
Weighted Recall: 0.6106583072100313
Weighted FalsePositiveRate: 0.14434527860064625
Kappa statistic: 0.433281019080875
Training time: 1.0
		
Iteration: 6
Labeled set size: 419
Unlabelled set size: 1176
	
Mean region size: 38.82967607105551
Incorrectly Classified Instances: 39.874608150470216
Correctly Classified Instances: 60.125391849529784
Weighted Precision: 0.7119744085565799
Weighted AreaUnderROC: 0.7701303376182357
Root mean squared error: 0.4767163609839734
Relative absolute error: 57.182194824567205
Root relative squared error: 101.12681146630136
Weighted TruePositiveRate: 0.6012539184952979
Weighted MatthewsCorrelation: 0.4578217401818804
Weighted FMeasure: 0.5968762146965367
Iteration time: 720.0
Weighted AreaUnderPRC: 0.6397560900847244
Mean absolute error: 0.25414308810919334
Coverage of cases: 68.27586206896552
Instances selection time: 720.0
Test time: 971.0
Accumulative iteration time: 3982.0
Weighted Recall: 0.6012539184952979
Weighted FalsePositiveRate: 0.14637608235562138
Kappa statistic: 0.42252385799285463
Training time: 0.0
		
Iteration: 7
Labeled set size: 439
Unlabelled set size: 1156
	
Mean region size: 38.95506792058527
Incorrectly Classified Instances: 40.75235109717868
Correctly Classified Instances: 59.24764890282132
Weighted Precision: 0.7124853358299774
Weighted AreaUnderROC: 0.7684382929195206
Root mean squared error: 0.4814599440674893
Relative absolute error: 58.301627133576346
Root relative squared error: 102.13307739594413
Weighted TruePositiveRate: 0.5924764890282131
Weighted MatthewsCorrelation: 0.4512427344954548
Weighted FMeasure: 0.5865474752011393
Iteration time: 741.0
Weighted AreaUnderPRC: 0.6376985881788961
Mean absolute error: 0.25911834281590074
Coverage of cases: 67.7115987460815
Instances selection time: 740.0
Test time: 1012.0
Accumulative iteration time: 4723.0
Weighted Recall: 0.5924764890282131
Weighted FalsePositiveRate: 0.14724932196702034
Kappa statistic: 0.41263085853624265
Training time: 1.0
		
Iteration: 8
Labeled set size: 459
Unlabelled set size: 1136
	
Mean region size: 38.8714733542321
Incorrectly Classified Instances: 41.2539184952978
Correctly Classified Instances: 58.7460815047022
Weighted Precision: 0.7116612578923033
Weighted AreaUnderROC: 0.7652059214210912
Root mean squared error: 0.4855770042534851
Relative absolute error: 59.073801212252334
Root relative squared error: 103.00643774876534
Weighted TruePositiveRate: 0.587460815047022
Weighted MatthewsCorrelation: 0.4465576589812952
Weighted FMeasure: 0.5810130034212873
Iteration time: 762.0
Weighted AreaUnderPRC: 0.633897446103952
Mean absolute error: 0.26255022761001634
Coverage of cases: 67.14733542319749
Instances selection time: 762.0
Test time: 1058.0
Accumulative iteration time: 5485.0
Weighted Recall: 0.587460815047022
Weighted FalsePositiveRate: 0.14884725319440945
Kappa statistic: 0.40644147664868574
Training time: 0.0
		
Iteration: 9
Labeled set size: 479
Unlabelled set size: 1116
	
Mean region size: 38.87147335423207
Incorrectly Classified Instances: 41.81818181818182
Correctly Classified Instances: 58.18181818181818
Weighted Precision: 0.7156648837360003
Weighted AreaUnderROC: 0.7593181457288737
Root mean squared error: 0.49030898747747126
Relative absolute error: 60.07988681012529
Root relative squared error: 104.0102429766078
Weighted TruePositiveRate: 0.5818181818181818
Weighted MatthewsCorrelation: 0.44466726121330186
Weighted FMeasure: 0.5743608644764794
Iteration time: 780.0
Weighted AreaUnderPRC: 0.627929658079283
Mean absolute error: 0.26702171915611844
Coverage of cases: 66.4576802507837
Instances selection time: 779.0
Test time: 1100.0
Accumulative iteration time: 6265.0
Weighted Recall: 0.5818181818181818
Weighted FalsePositiveRate: 0.14873192047267889
Kappa statistic: 0.40057594832579446
Training time: 1.0
		
Iteration: 10
Labeled set size: 499
Unlabelled set size: 1096
	
Mean region size: 38.95506792058528
Incorrectly Classified Instances: 42.44514106583072
Correctly Classified Instances: 57.55485893416928
Weighted Precision: 0.7149197082927486
Weighted AreaUnderROC: 0.7556434799504059
Root mean squared error: 0.4945671643188198
Relative absolute error: 61.07798293201289
Root relative squared error: 104.91353869261052
Weighted TruePositiveRate: 0.5755485893416928
Weighted MatthewsCorrelation: 0.4389039747337669
Weighted FMeasure: 0.566629985131327
Iteration time: 797.0
Weighted AreaUnderPRC: 0.6238445533196488
Mean absolute error: 0.2714577019200634
Coverage of cases: 65.8934169278997
Instances selection time: 796.0
Test time: 1144.0
Accumulative iteration time: 7062.0
Weighted Recall: 0.5755485893416928
Weighted FalsePositiveRate: 0.1502446744715513
Kappa statistic: 0.3934083650959057
Training time: 1.0
		
Iteration: 11
Labeled set size: 519
Unlabelled set size: 1076
	
Mean region size: 39.10135841170335
Incorrectly Classified Instances: 43.13479623824451
Correctly Classified Instances: 56.86520376175549
Weighted Precision: 0.7130550402138306
Weighted AreaUnderROC: 0.7522741292067954
Root mean squared error: 0.4982093146184741
Relative absolute error: 61.99644046346898
Root relative squared error: 105.68615544510637
Weighted TruePositiveRate: 0.5686520376175549
Weighted MatthewsCorrelation: 0.43204862616489265
Weighted FMeasure: 0.5583726627560993
Iteration time: 812.0
Weighted AreaUnderPRC: 0.6205611527670168
Mean absolute error: 0.2755397353932017
Coverage of cases: 65.45454545454545
Instances selection time: 811.0
Test time: 1184.0
Accumulative iteration time: 7874.0
Weighted Recall: 0.5686520376175549
Weighted FalsePositiveRate: 0.15195350776114558
Kappa statistic: 0.3852383478700764
Training time: 1.0
		
Iteration: 12
Labeled set size: 539
Unlabelled set size: 1056
	
Mean region size: 39.226750261233136
Incorrectly Classified Instances: 44.01253918495298
Correctly Classified Instances: 55.98746081504702
Weighted Precision: 0.7132901174633917
Weighted AreaUnderROC: 0.7514876787618179
Root mean squared error: 0.502044400376017
Relative absolute error: 62.95551202229534
Root relative squared error: 106.49969998878352
Weighted TruePositiveRate: 0.5598746081504702
Weighted MatthewsCorrelation: 0.42526654331968927
Weighted FMeasure: 0.5479164494922457
Iteration time: 826.0
Weighted AreaUnderPRC: 0.6193970492563667
Mean absolute error: 0.27980227565465227
Coverage of cases: 65.07836990595611
Instances selection time: 826.0
Test time: 1228.0
Accumulative iteration time: 8700.0
Weighted Recall: 0.5598746081504702
Weighted FalsePositiveRate: 0.15330408318250496
Kappa statistic: 0.37505755806457547
Training time: 0.0
		
Iteration: 13
Labeled set size: 559
Unlabelled set size: 1036
	
Mean region size: 39.28944618599805
Incorrectly Classified Instances: 44.63949843260188
Correctly Classified Instances: 55.36050156739812
Weighted Precision: 0.7139096991676728
Weighted AreaUnderROC: 0.7493313587124534
Root mean squared error: 0.5056091817657044
Relative absolute error: 63.80710092855925
Root relative squared error: 107.25590431701215
Weighted TruePositiveRate: 0.5536050156739812
Weighted MatthewsCorrelation: 0.42052120761076534
Weighted FMeasure: 0.5395900049896266
Iteration time: 840.0
Weighted AreaUnderPRC: 0.6164574651408036
Mean absolute error: 0.2835871152380475
Coverage of cases: 64.57680250783699
Instances selection time: 839.0
Test time: 1273.0
Accumulative iteration time: 9540.0
Weighted Recall: 0.5536050156739812
Weighted FalsePositiveRate: 0.1543381387248303
Kappa statistic: 0.3681885575834453
Training time: 1.0
		
Iteration: 14
Labeled set size: 579
Unlabelled set size: 1016
	
Mean region size: 39.24764890282142
Incorrectly Classified Instances: 44.827586206896555
Correctly Classified Instances: 55.172413793103445
Weighted Precision: 0.7151879307799435
Weighted AreaUnderROC: 0.7464399044747951
Root mean squared error: 0.5082698455927204
Relative absolute error: 64.32426827632642
Root relative squared error: 107.82031634737439
Weighted TruePositiveRate: 0.5517241379310345
Weighted MatthewsCorrelation: 0.41976428348465344
Weighted FMeasure: 0.5373833327457612
Iteration time: 854.0
Weighted AreaUnderPRC: 0.6141441884659835
Mean absolute error: 0.28588563678367945
Coverage of cases: 64.13793103448276
Instances selection time: 853.0
Test time: 1321.0
Accumulative iteration time: 10394.0
Weighted Recall: 0.5517241379310345
Weighted FalsePositiveRate: 0.15445857931314244
Kappa statistic: 0.3661513099937917
Training time: 1.0
		
Iteration: 15
Labeled set size: 599
Unlabelled set size: 996
	
Mean region size: 39.05956112852674
Incorrectly Classified Instances: 45.141065830721004
Correctly Classified Instances: 54.858934169278996
Weighted Precision: 0.7146518443861232
Weighted AreaUnderROC: 0.7472332353583114
Root mean squared error: 0.5116374342509913
Relative absolute error: 64.91310658459882
Root relative squared error: 108.53468978032745
Weighted TruePositiveRate: 0.54858934169279
Weighted MatthewsCorrelation: 0.4168087257351235
Weighted FMeasure: 0.534234820372418
Iteration time: 868.0
Weighted AreaUnderPRC: 0.6133785772030622
Mean absolute error: 0.28850269593155686
Coverage of cases: 63.510971786833856
Instances selection time: 867.0
Test time: 1359.0
Accumulative iteration time: 11262.0
Weighted Recall: 0.54858934169279
Weighted FalsePositiveRate: 0.15545532752579222
Kappa statistic: 0.3621888629644666
Training time: 1.0
		
Iteration: 16
Labeled set size: 619
Unlabelled set size: 976
	
Mean region size: 39.05956112852674
Incorrectly Classified Instances: 45.57993730407524
Correctly Classified Instances: 54.42006269592476
Weighted Precision: 0.7152302136847591
Weighted AreaUnderROC: 0.743066309233789
Root mean squared error: 0.5148242653604945
Relative absolute error: 65.65013038463516
Root relative squared error: 109.21071874673525
Weighted TruePositiveRate: 0.5442006269592476
Weighted MatthewsCorrelation: 0.41339827557867054
Weighted FMeasure: 0.5288486637976344
Iteration time: 884.0
Weighted AreaUnderPRC: 0.6078316366794877
Mean absolute error: 0.29177835726505175
Coverage of cases: 63.009404388714735
Instances selection time: 883.0
Test time: 1404.0
Accumulative iteration time: 12146.0
Weighted Recall: 0.5442006269592476
Weighted FalsePositiveRate: 0.15637166777297884
Kappa statistic: 0.3572541128996497
Training time: 1.0
		
Iteration: 17
Labeled set size: 639
Unlabelled set size: 956
	
Mean region size: 39.26854754440973
Incorrectly Classified Instances: 44.827586206896555
Correctly Classified Instances: 55.172413793103445
Weighted Precision: 0.7159012696513434
Weighted AreaUnderROC: 0.7501877601418111
Root mean squared error: 0.5076557148759195
Relative absolute error: 64.19051092652396
Root relative squared error: 107.69003954905895
Weighted TruePositiveRate: 0.5517241379310345
Weighted MatthewsCorrelation: 0.42045285064523624
Weighted FMeasure: 0.5393930603101539
Iteration time: 891.0
Weighted AreaUnderPRC: 0.6140792191289112
Mean absolute error: 0.28529115967344626
Coverage of cases: 64.45141065830721
Instances selection time: 891.0
Test time: 1443.0
Accumulative iteration time: 13037.0
Weighted Recall: 0.5517241379310345
Weighted FalsePositiveRate: 0.15494409100262307
Kappa statistic: 0.36520540198137963
Training time: 0.0
		
Iteration: 18
Labeled set size: 659
Unlabelled set size: 936
	
Mean region size: 39.184952978056515
Incorrectly Classified Instances: 43.44827586206897
Correctly Classified Instances: 56.55172413793103
Weighted Precision: 0.7194296573352619
Weighted AreaUnderROC: 0.7545157597558599
Root mean squared error: 0.5019033073292278
Relative absolute error: 62.771492744034965
Root relative squared error: 106.46976963373464
Weighted TruePositiveRate: 0.5655172413793104
Weighted MatthewsCorrelation: 0.43425093751831867
Weighted FMeasure: 0.5572287165419573
Iteration time: 899.0
Weighted AreaUnderPRC: 0.6188390708023129
Mean absolute error: 0.2789844121957173
Coverage of cases: 65.26645768025078
Instances selection time: 898.0
Test time: 1486.0
Accumulative iteration time: 13936.0
Weighted Recall: 0.5655172413793104
Weighted FalsePositiveRate: 0.15200989214303504
Kappa statistic: 0.38075533915639065
Training time: 1.0
		
Iteration: 19
Labeled set size: 679
Unlabelled set size: 916
	
Mean region size: 39.22675026123312
Incorrectly Classified Instances: 42.06896551724138
Correctly Classified Instances: 57.93103448275862
Weighted Precision: 0.7167490993513868
Weighted AreaUnderROC: 0.7594043439752288
Root mean squared error: 0.4939008698335284
Relative absolute error: 60.975971885427604
Root relative squared error: 104.77219628796549
Weighted TruePositiveRate: 0.5793103448275863
Weighted MatthewsCorrelation: 0.4435417969905242
Weighted FMeasure: 0.5746095329875958
Iteration time: 907.0
Weighted AreaUnderPRC: 0.624023324398614
Mean absolute error: 0.2710043194907955
Coverage of cases: 66.4576802507837
Instances selection time: 906.0
Test time: 1528.0
Accumulative iteration time: 14843.0
Weighted Recall: 0.5793103448275863
Weighted FalsePositiveRate: 0.15146441630312896
Kappa statistic: 0.39529705305872925
Training time: 1.0
		
Iteration: 20
Labeled set size: 699
Unlabelled set size: 896
	
Mean region size: 39.03866248693845
Incorrectly Classified Instances: 41.442006269592476
Correctly Classified Instances: 58.557993730407524
Weighted Precision: 0.7167121583007394
Weighted AreaUnderROC: 0.7632622895509781
Root mean squared error: 0.4894256751310365
Relative absolute error: 59.830029948283794
Root relative squared error: 103.82286413158687
Weighted TruePositiveRate: 0.5855799373040752
Weighted MatthewsCorrelation: 0.44853333590567285
Weighted FMeasure: 0.5822605795399154
Iteration time: 919.0
Weighted AreaUnderPRC: 0.6276245572135287
Mean absolute error: 0.26591124421460066
Coverage of cases: 67.02194357366771
Instances selection time: 918.0
Test time: 2129.0
Accumulative iteration time: 15762.0
Weighted Recall: 0.5855799373040752
Weighted FalsePositiveRate: 0.15091246583381748
Kappa statistic: 0.402057277547011
Training time: 1.0
		
Iteration: 21
Labeled set size: 719
Unlabelled set size: 876
	
Mean region size: 38.934169278996954
Incorrectly Classified Instances: 40.689655172413794
Correctly Classified Instances: 59.310344827586206
Weighted Precision: 0.7152822565992469
Weighted AreaUnderROC: 0.7679041133706974
Root mean squared error: 0.4832182979508274
Relative absolute error: 58.41776438115618
Root relative squared error: 102.50608058233432
Weighted TruePositiveRate: 0.593103448275862
Weighted MatthewsCorrelation: 0.4532455330633972
Weighted FMeasure: 0.5917950462999075
Iteration time: 920.0
Weighted AreaUnderPRC: 0.631134370545049
Mean absolute error: 0.2596345083607
Coverage of cases: 67.96238244514106
Instances selection time: 920.0
Test time: 1620.0
Accumulative iteration time: 16682.0
Weighted Recall: 0.593103448275862
Weighted FalsePositiveRate: 0.15139968288965006
Kappa statistic: 0.40948875087636427
Training time: 0.0
		
Iteration: 22
Labeled set size: 739
Unlabelled set size: 856
	
Mean region size: 39.01776384535014
Incorrectly Classified Instances: 40.18808777429467
Correctly Classified Instances: 59.81191222570533
Weighted Precision: 0.7156914334916523
Weighted AreaUnderROC: 0.7743818904310997
Root mean squared error: 0.47876963775388914
Relative absolute error: 57.52393098927549
Root relative squared error: 101.56237724459943
Weighted TruePositiveRate: 0.5981191222570533
Weighted MatthewsCorrelation: 0.45749252229985626
Weighted FMeasure: 0.5977900218132781
Iteration time: 918.0
Weighted AreaUnderPRC: 0.6372118732488598
Mean absolute error: 0.25566191550789685
Coverage of cases: 68.77742946708464
Instances selection time: 918.0
Test time: 1659.0
Accumulative iteration time: 17600.0
Weighted Recall: 0.5981191222570533
Weighted FalsePositiveRate: 0.1507659618082887
Kappa statistic: 0.4149890338517245
Training time: 0.0
		
Iteration: 23
Labeled set size: 759
Unlabelled set size: 836
	
Mean region size: 39.01776384535015
Incorrectly Classified Instances: 39.56112852664577
Correctly Classified Instances: 60.43887147335423
Weighted Precision: 0.7156686812647409
Weighted AreaUnderROC: 0.7779406110395329
Root mean squared error: 0.4745854326492718
Relative absolute error: 56.63144713905955
Root relative squared error: 100.67477330359435
Weighted TruePositiveRate: 0.6043887147335423
Weighted MatthewsCorrelation: 0.46214449503231786
Weighted FMeasure: 0.6049155414578163
Iteration time: 921.0
Weighted AreaUnderPRC: 0.6404731789062507
Mean absolute error: 0.25169532061804817
Coverage of cases: 69.40438871473354
Instances selection time: 920.0
Test time: 1823.0
Accumulative iteration time: 18521.0
Weighted Recall: 0.6043887147335423
Weighted FalsePositiveRate: 0.1506927097955243
Kappa statistic: 0.42176311847867987
Training time: 1.0
		
Iteration: 24
Labeled set size: 779
Unlabelled set size: 816
	
Mean region size: 38.934169278996954
Incorrectly Classified Instances: 38.62068965517241
Correctly Classified Instances: 61.37931034482759
Weighted Precision: 0.7191035262422383
Weighted AreaUnderROC: 0.7806604436036092
Root mean squared error: 0.4702542210571614
Relative absolute error: 55.62293676022635
Root relative squared error: 99.75598457733385
Weighted TruePositiveRate: 0.6137931034482759
Weighted MatthewsCorrelation: 0.4716780918203436
Weighted FMeasure: 0.6157079740751495
Iteration time: 920.0
Weighted AreaUnderPRC: 0.6442087421310444
Mean absolute error: 0.24721305226767828
Coverage of cases: 69.90595611285266
Instances selection time: 919.0
Test time: 1738.0
Accumulative iteration time: 19441.0
Weighted Recall: 0.6137931034482759
Weighted FalsePositiveRate: 0.1491494616999098
Kappa statistic: 0.4326111712976973
Training time: 1.0
		
Iteration: 25
Labeled set size: 799
Unlabelled set size: 796
	
Mean region size: 38.99686520376183
Incorrectly Classified Instances: 38.11912225705329
Correctly Classified Instances: 61.88087774294671
Weighted Precision: 0.7206837899638223
Weighted AreaUnderROC: 0.7832199598263164
Root mean squared error: 0.4665545132459568
Relative absolute error: 54.86735536986012
Root relative squared error: 98.97115803282037
Weighted TruePositiveRate: 0.618808777429467
Weighted MatthewsCorrelation: 0.47680877829318524
Weighted FMeasure: 0.6212167672663942
Iteration time: 918.0
Weighted AreaUnderPRC: 0.6468036030743236
Mean absolute error: 0.24385491275493942
Coverage of cases: 70.47021943573668
Instances selection time: 918.0
Test time: 1991.0
Accumulative iteration time: 20359.0
Weighted Recall: 0.618808777429467
Weighted FalsePositiveRate: 0.1480377234852947
Kappa statistic: 0.4385396101226833
Training time: 0.0
		
Iteration: 26
Labeled set size: 819
Unlabelled set size: 776
	
Mean region size: 39.03866248693844
Incorrectly Classified Instances: 37.68025078369906
Correctly Classified Instances: 62.31974921630094
Weighted Precision: 0.7217927657315542
Weighted AreaUnderROC: 0.7850589560973692
Root mean squared error: 0.46318724575202014
Relative absolute error: 54.22447330061243
Root relative squared error: 98.25685272911088
Weighted TruePositiveRate: 0.6231974921630095
Weighted MatthewsCorrelation: 0.48106903142607865
Weighted FMeasure: 0.6258206665711274
Iteration time: 918.0
Weighted AreaUnderPRC: 0.6496224092630182
Mean absolute error: 0.24099765911383847
Coverage of cases: 70.9090909090909
Instances selection time: 918.0
Test time: 1822.0
Accumulative iteration time: 21277.0
Weighted Recall: 0.6231974921630095
Weighted FalsePositiveRate: 0.14712410853128155
Kappa statistic: 0.44386009289545847
Training time: 0.0
		
Iteration: 27
Labeled set size: 839
Unlabelled set size: 756
	
Mean region size: 39.05956112852674
Incorrectly Classified Instances: 36.92789968652038
Correctly Classified Instances: 63.07210031347962
Weighted Precision: 0.7232879515489015
Weighted AreaUnderROC: 0.7867070139585532
Root mean squared error: 0.4596190181380517
Relative absolute error: 53.46475471552589
Root relative squared error: 97.49991734631465
Weighted TruePositiveRate: 0.6307210031347963
Weighted MatthewsCorrelation: 0.4876427368494763
Weighted FMeasure: 0.633898480250798
Iteration time: 916.0
Weighted AreaUnderPRC: 0.6515854151805278
Mean absolute error: 0.23762113206900934
Coverage of cases: 71.41065830721003
Instances selection time: 915.0
Test time: 1868.0
Accumulative iteration time: 22193.0
Weighted Recall: 0.6307210031347963
Weighted FalsePositiveRate: 0.1466539286740199
Kappa statistic: 0.45242323795113143
Training time: 1.0
		
Iteration: 28
Labeled set size: 859
Unlabelled set size: 736
	
Mean region size: 39.10135841170332
Incorrectly Classified Instances: 36.175548589341695
Correctly Classified Instances: 63.824451410658305
Weighted Precision: 0.7271724248490473
Weighted AreaUnderROC: 0.7909960723460021
Root mean squared error: 0.45393957215693664
Relative absolute error: 52.35269178874627
Root relative squared error: 96.29512491632592
Weighted TruePositiveRate: 0.6382445141065831
Weighted MatthewsCorrelation: 0.49620518565899974
Weighted FMeasure: 0.6419983918912494
Iteration time: 967.0
Weighted AreaUnderPRC: 0.6573102612055373
Mean absolute error: 0.2326786301722109
Coverage of cases: 72.16300940438872
Instances selection time: 966.0
Test time: 1909.0
Accumulative iteration time: 23160.0
Weighted Recall: 0.6382445141065831
Weighted FalsePositiveRate: 0.14474901609370378
Kappa statistic: 0.46176726711710686
Training time: 1.0
		
Iteration: 29
Labeled set size: 879
Unlabelled set size: 716
	
Mean region size: 39.05956112852672
Incorrectly Classified Instances: 35.67398119122257
Correctly Classified Instances: 64.32601880877743
Weighted Precision: 0.7270146802083471
Weighted AreaUnderROC: 0.7931964042555651
Root mean squared error: 0.4505921132495187
Relative absolute error: 51.61753625617425
Root relative squared error: 95.58502164837235
Weighted TruePositiveRate: 0.6432601880877743
Weighted MatthewsCorrelation: 0.4995987460602715
Weighted FMeasure: 0.6469391168391885
Iteration time: 1120.0
Weighted AreaUnderPRC: 0.6596511306759172
Mean absolute error: 0.2294112722496685
Coverage of cases: 72.60188087774294
Instances selection time: 1119.0
Test time: 1962.0
Accumulative iteration time: 24280.0
Weighted Recall: 0.6432601880877743
Weighted FalsePositiveRate: 0.1450720106021432
Kappa statistic: 0.4674310548392473
Training time: 1.0
		
Iteration: 30
Labeled set size: 899
Unlabelled set size: 696
	
Mean region size: 39.01776384535011
Incorrectly Classified Instances: 35.172413793103445
Correctly Classified Instances: 64.82758620689656
Weighted Precision: 0.7294684087287491
Weighted AreaUnderROC: 0.7948295450949734
Root mean squared error: 0.44780486843835365
Relative absolute error: 51.013276185514734
Root relative squared error: 94.99375773633182
Weighted TruePositiveRate: 0.6482758620689655
Weighted MatthewsCorrelation: 0.5052367548904343
Weighted FMeasure: 0.6522762378750776
Iteration time: 902.0
Weighted AreaUnderPRC: 0.6618821763653001
Mean absolute error: 0.22672567193562618
Coverage of cases: 72.91536050156739
Instances selection time: 901.0
Test time: 2000.0
Accumulative iteration time: 25182.0
Weighted Recall: 0.6482758620689655
Weighted FalsePositiveRate: 0.1439616350341148
Kappa statistic: 0.47354594790499765
Training time: 1.0
		
Iteration: 31
Labeled set size: 919
Unlabelled set size: 676
	
Mean region size: 38.97596656217352
Incorrectly Classified Instances: 34.921630094043884
Correctly Classified Instances: 65.07836990595611
Weighted Precision: 0.7298009672849525
Weighted AreaUnderROC: 0.7965346505172608
Root mean squared error: 0.446019350329661
Relative absolute error: 50.58665410483561
Root relative squared error: 94.61499214755543
Weighted TruePositiveRate: 0.6507836990595611
Weighted MatthewsCorrelation: 0.5074987213589514
Weighted FMeasure: 0.6547717499809523
Iteration time: 893.0
Weighted AreaUnderPRC: 0.6637764761094601
Mean absolute error: 0.22482957379927448
Coverage of cases: 73.16614420062696
Instances selection time: 892.0
Test time: 2043.0
Accumulative iteration time: 26075.0
Weighted Recall: 0.6507836990595611
Weighted FalsePositiveRate: 0.14364443383178743
Kappa statistic: 0.4764787722326295
Training time: 1.0
		
Iteration: 32
Labeled set size: 939
Unlabelled set size: 656
	
Mean region size: 39.038662486938414
Incorrectly Classified Instances: 34.79623824451411
Correctly Classified Instances: 65.2037617554859
Weighted Precision: 0.7307072044666618
Weighted AreaUnderROC: 0.798661066682932
Root mean squared error: 0.4441542033042828
Relative absolute error: 50.28591620642878
Root relative squared error: 94.21933471468898
Weighted TruePositiveRate: 0.6520376175548589
Weighted MatthewsCorrelation: 0.509117631807988
Weighted FMeasure: 0.6561291043047456
Iteration time: 904.0
Weighted AreaUnderPRC: 0.6665129660684433
Mean absolute error: 0.22349296091746632
Coverage of cases: 73.47962382445141
Instances selection time: 903.0
Test time: 2138.0
Accumulative iteration time: 26979.0
Weighted Recall: 0.6520376175548589
Weighted FalsePositiveRate: 0.14324750598729025
Kappa statistic: 0.4780851477793303
Training time: 1.0
		
Iteration: 33
Labeled set size: 959
Unlabelled set size: 636
	
Mean region size: 38.99686520376181
Incorrectly Classified Instances: 34.294670846394986
Correctly Classified Instances: 65.70532915360502
Weighted Precision: 0.7318738073093924
Weighted AreaUnderROC: 0.8001438115856754
Root mean squared error: 0.4416231456184805
Relative absolute error: 49.720183947045726
Root relative squared error: 93.68241629872745
Weighted TruePositiveRate: 0.6570532915360502
Weighted MatthewsCorrelation: 0.5135204433215033
Weighted FMeasure: 0.661126812035026
Iteration time: 894.0
Weighted AreaUnderPRC: 0.6690833696190104
Mean absolute error: 0.22097859532020825
Coverage of cases: 73.73040752351098
Instances selection time: 894.0
Test time: 2140.0
Accumulative iteration time: 27873.0
Weighted Recall: 0.6570532915360502
Weighted FalsePositiveRate: 0.1430931646857693
Kappa statistic: 0.48398607031792473
Training time: 0.0
		
Iteration: 34
Labeled set size: 979
Unlabelled set size: 616
	
Mean region size: 39.0177638453501
Incorrectly Classified Instances: 33.91849529780564
Correctly Classified Instances: 66.08150470219435
Weighted Precision: 0.7296394531232501
Weighted AreaUnderROC: 0.8020263765469963
Root mean squared error: 0.43740193707255387
Relative absolute error: 48.92114207303452
Root relative squared error: 92.78696274243926
Weighted TruePositiveRate: 0.6608150470219436
Weighted MatthewsCorrelation: 0.5143733331026847
Weighted FMeasure: 0.6643747766909774
Iteration time: 891.0
Weighted AreaUnderPRC: 0.6713944231441117
Mean absolute error: 0.21742729810238057
Coverage of cases: 74.29467084639498
Instances selection time: 891.0
Test time: 2300.0
Accumulative iteration time: 28764.0
Weighted Recall: 0.6608150470219436
Weighted FalsePositiveRate: 0.14476912130521344
Kappa statistic: 0.4874913061890432
Training time: 0.0
		
Iteration: 35
Labeled set size: 999
Unlabelled set size: 596
	
Mean region size: 38.9968652037618
Incorrectly Classified Instances: 33.47962382445141
Correctly Classified Instances: 66.52037617554859
Weighted Precision: 0.7305433688896408
Weighted AreaUnderROC: 0.8038331487975989
Root mean squared error: 0.4342842711775639
Relative absolute error: 48.276088507528534
Root relative squared error: 92.12560593369285
Weighted TruePositiveRate: 0.6652037617554859
Weighted MatthewsCorrelation: 0.5175297797009859
Weighted FMeasure: 0.6686309570662475
Iteration time: 941.0
Weighted AreaUnderPRC: 0.6737036749569115
Mean absolute error: 0.21456039336679836
Coverage of cases: 74.73354231974922
Instances selection time: 939.0
Test time: 2211.0
Accumulative iteration time: 29705.0
Weighted Recall: 0.6652037617554859
Weighted FalsePositiveRate: 0.14577166282397527
Kappa statistic: 0.49224564739827537
Training time: 2.0
		
Iteration: 36
Labeled set size: 1019
Unlabelled set size: 576
	
Mean region size: 38.95506792058522
Incorrectly Classified Instances: 33.10344827586207
Correctly Classified Instances: 66.89655172413794
Weighted Precision: 0.7318902240151236
Weighted AreaUnderROC: 0.8055061013246837
Root mean squared error: 0.4323420228057234
Relative absolute error: 47.850911465487734
Root relative squared error: 91.71359283534976
Weighted TruePositiveRate: 0.6689655172413793
Weighted MatthewsCorrelation: 0.5211198302288056
Weighted FMeasure: 0.6722828161126019
Iteration time: 836.0
Weighted AreaUnderPRC: 0.6757207549821348
Mean absolute error: 0.21267071762439474
Coverage of cases: 74.98432601880877
Instances selection time: 835.0
Test time: 2250.0
Accumulative iteration time: 30541.0
Weighted Recall: 0.6689655172413793
Weighted FalsePositiveRate: 0.1455362322336978
Kappa statistic: 0.49688480313234257
Training time: 1.0
		
Iteration: 37
Labeled set size: 1039
Unlabelled set size: 556
	
Mean region size: 38.93416927899692
Incorrectly Classified Instances: 32.66457680250784
Correctly Classified Instances: 67.33542319749216
Weighted Precision: 0.7340652601100004
Weighted AreaUnderROC: 0.8076550680569395
Root mean squared error: 0.4297776297128757
Relative absolute error: 47.343402119823104
Root relative squared error: 91.1696029116756
Weighted TruePositiveRate: 0.6733542319749216
Weighted MatthewsCorrelation: 0.526128916849766
Weighted FMeasure: 0.6766466218891485
Iteration time: 825.0
Weighted AreaUnderPRC: 0.6782070219597506
Mean absolute error: 0.2104151205325519
Coverage of cases: 75.29780564263324
Instances selection time: 824.0
Test time: 2293.0
Accumulative iteration time: 31366.0
Weighted Recall: 0.6733542319749216
Weighted FalsePositiveRate: 0.14462397992627132
Kappa statistic: 0.5023660212756275
Training time: 1.0
		
Iteration: 38
Labeled set size: 1059
Unlabelled set size: 536
	
Mean region size: 38.89237199582032
Incorrectly Classified Instances: 32.288401253918494
Correctly Classified Instances: 67.7115987460815
Weighted Precision: 0.7355865517517867
Weighted AreaUnderROC: 0.8105704239184255
Root mean squared error: 0.42686150007097695
Relative absolute error: 46.75400610220583
Root relative squared error: 90.5509983982939
Weighted TruePositiveRate: 0.677115987460815
Weighted MatthewsCorrelation: 0.5302396786491322
Weighted FMeasure: 0.6802908353441625
Iteration time: 806.0
Weighted AreaUnderPRC: 0.6815942641283372
Mean absolute error: 0.20779558267647505
Coverage of cases: 75.61128526645768
Instances selection time: 805.0
Test time: 2334.0
Accumulative iteration time: 32172.0
Weighted Recall: 0.677115987460815
Weighted FalsePositiveRate: 0.14390985087944674
Kappa statistic: 0.5070477898241533
Training time: 1.0
		
Iteration: 39
Labeled set size: 1079
Unlabelled set size: 516
	
Mean region size: 38.85057471264371
Incorrectly Classified Instances: 31.974921630094045
Correctly Classified Instances: 68.02507836990596
Weighted Precision: 0.7362906936172707
Weighted AreaUnderROC: 0.8096503102724791
Root mean squared error: 0.42556972264708376
Relative absolute error: 46.44941571380969
Root relative squared error: 90.27697102542834
Weighted TruePositiveRate: 0.6802507836990596
Weighted MatthewsCorrelation: 0.5330816059351287
Weighted FMeasure: 0.6835277422501255
Iteration time: 788.0
Weighted AreaUnderPRC: 0.680554701191254
Mean absolute error: 0.20644184761693665
Coverage of cases: 75.73667711598746
Instances selection time: 787.0
Test time: 2377.0
Accumulative iteration time: 32960.0
Weighted Recall: 0.6802507836990596
Weighted FalsePositiveRate: 0.14387254354977122
Kappa statistic: 0.5106599668780352
Training time: 1.0
		
Iteration: 40
Labeled set size: 1099
Unlabelled set size: 496
	
Mean region size: 38.8296760710554
Incorrectly Classified Instances: 31.598746081504704
Correctly Classified Instances: 68.4012539184953
Weighted Precision: 0.7386818125738529
Weighted AreaUnderROC: 0.8095902553445724
Root mean squared error: 0.42478139965822137
Relative absolute error: 46.26007060812975
Root relative squared error: 90.10974246607138
Weighted TruePositiveRate: 0.684012539184953
Weighted MatthewsCorrelation: 0.5376182366805945
Weighted FMeasure: 0.6874382309310337
Iteration time: 771.0
Weighted AreaUnderPRC: 0.6810078450414363
Mean absolute error: 0.2056003138139147
Coverage of cases: 75.73667711598746
Instances selection time: 770.0
Test time: 2419.0
Accumulative iteration time: 33731.0
Weighted Recall: 0.684012539184953
Weighted FalsePositiveRate: 0.14315977714953332
Kappa statistic: 0.5153805252757137
Training time: 1.0
		
Iteration: 41
Labeled set size: 1119
Unlabelled set size: 476
	
Mean region size: 38.871473354232
Incorrectly Classified Instances: 31.28526645768025
Correctly Classified Instances: 68.71473354231975
Weighted Precision: 0.739651266677968
Weighted AreaUnderROC: 0.8125059044357436
Root mean squared error: 0.4212159718245798
Relative absolute error: 45.61345941982148
Root relative squared error: 89.35340100637163
Weighted TruePositiveRate: 0.6871473354231975
Weighted MatthewsCorrelation: 0.5403231822425736
Weighted FMeasure: 0.6904675093039327
Iteration time: 752.0
Weighted AreaUnderPRC: 0.6840937724795138
Mean absolute error: 0.20272648631032228
Coverage of cases: 76.30094043887148
Instances selection time: 751.0
Test time: 2463.0
Accumulative iteration time: 34483.0
Weighted Recall: 0.6871473354231975
Weighted FalsePositiveRate: 0.1436018495996982
Kappa statistic: 0.518899356964884
Training time: 1.0
		
Iteration: 42
Labeled set size: 1139
Unlabelled set size: 456
	
Mean region size: 38.55799373040753
Incorrectly Classified Instances: 30.9717868338558
Correctly Classified Instances: 69.0282131661442
Weighted Precision: 0.7389630494835386
Weighted AreaUnderROC: 0.8115113365336529
Root mean squared error: 0.4203430726652395
Relative absolute error: 45.184556889125275
Root relative squared error: 89.16823113191316
Weighted TruePositiveRate: 0.690282131661442
Weighted MatthewsCorrelation: 0.5415484262892682
Weighted FMeasure: 0.6932037136557627
Iteration time: 733.0
Weighted AreaUnderPRC: 0.6832741262268545
Mean absolute error: 0.20082025284056135
Coverage of cases: 76.23824451410658
Instances selection time: 732.0
Test time: 2503.0
Accumulative iteration time: 35216.0
Weighted Recall: 0.690282131661442
Weighted FalsePositiveRate: 0.14547797344962432
Kappa statistic: 0.5216642221617842
Training time: 1.0
		
Iteration: 43
Labeled set size: 1159
Unlabelled set size: 436
	
Mean region size: 38.45350052246603
Incorrectly Classified Instances: 30.407523510971785
Correctly Classified Instances: 69.59247648902821
Weighted Precision: 0.7422185821367457
Weighted AreaUnderROC: 0.8138026627641374
Root mean squared error: 0.41690538991855125
Relative absolute error: 44.448356914128574
Root relative squared error: 88.4389884973878
Weighted TruePositiveRate: 0.6959247648902821
Weighted MatthewsCorrelation: 0.5486827929823752
Weighted FMeasure: 0.6986514327704788
Iteration time: 709.0
Weighted AreaUnderPRC: 0.6862470841457567
Mean absolute error: 0.19754825295168704
Coverage of cases: 76.61442006269593
Instances selection time: 708.0
Test time: 2548.0
Accumulative iteration time: 35925.0
Weighted Recall: 0.6959247648902821
Weighted FalsePositiveRate: 0.14368941351786021
Kappa statistic: 0.529236536466178
Training time: 1.0
		
Iteration: 44
Labeled set size: 1179
Unlabelled set size: 416
	
Mean region size: 38.453500522466015
Incorrectly Classified Instances: 30.219435736677116
Correctly Classified Instances: 69.78056426332289
Weighted Precision: 0.7419440694945588
Weighted AreaUnderROC: 0.812572337046788
Root mean squared error: 0.4172307133355858
Relative absolute error: 44.48830998939286
Root relative squared error: 88.50800001566697
Weighted TruePositiveRate: 0.6978056426332289
Weighted MatthewsCorrelation: 0.5496493882094584
Weighted FMeasure: 0.7000805971122942
Iteration time: 684.0
Weighted AreaUnderPRC: 0.6844625188907003
Mean absolute error: 0.19772582217508386
Coverage of cases: 76.55172413793103
Instances selection time: 684.0
Test time: 2585.0
Accumulative iteration time: 36609.0
Weighted Recall: 0.6978056426332289
Weighted FalsePositiveRate: 0.14452773248922893
Kappa statistic: 0.5311341237314599
Training time: 0.0
		
Iteration: 45
Labeled set size: 1199
Unlabelled set size: 396
	
Mean region size: 38.41170323928942
Incorrectly Classified Instances: 29.905956112852664
Correctly Classified Instances: 70.09404388714734
Weighted Precision: 0.7433912696006986
Weighted AreaUnderROC: 0.8140919319034963
Root mean squared error: 0.41539902980877297
Relative absolute error: 44.0983249171932
Root relative squared error: 88.11944126282785
Weighted TruePositiveRate: 0.7009404388714734
Weighted MatthewsCorrelation: 0.5532445829622139
Weighted FMeasure: 0.7029488381906261
Iteration time: 661.0
Weighted AreaUnderPRC: 0.686468010693822
Mean absolute error: 0.19599255518752978
Coverage of cases: 76.7398119122257
Instances selection time: 660.0
Test time: 2660.0
Accumulative iteration time: 37270.0
Weighted Recall: 0.7009404388714734
Weighted FalsePositiveRate: 0.14401240802629964
Kappa statistic: 0.535116127021759
Training time: 1.0
		
Iteration: 46
Labeled set size: 1219
Unlabelled set size: 376
	
Mean region size: 38.474399164054304
Incorrectly Classified Instances: 29.21630094043887
Correctly Classified Instances: 70.78369905956113
Weighted Precision: 0.7481683513044602
Weighted AreaUnderROC: 0.8176521204503142
Root mean squared error: 0.41045834007386994
Relative absolute error: 43.22822533169728
Root relative squared error: 87.07136269824126
Weighted TruePositiveRate: 0.7078369905956113
Weighted MatthewsCorrelation: 0.562102628284308
Weighted FMeasure: 0.7095972772051499
Iteration time: 637.0
Weighted AreaUnderPRC: 0.6915572505665204
Mean absolute error: 0.19212544591865893
Coverage of cases: 77.3667711598746
Instances selection time: 636.0
Test time: 2687.0
Accumulative iteration time: 37907.0
Weighted Recall: 0.7078369905956113
Weighted FalsePositiveRate: 0.14230630002987874
Kappa statistic: 0.5443522036637206
Training time: 1.0
		
Time end:Wed Nov 01 14.21.50 EET 2017