Wed Nov 01 12.17.48 EET 2017
Dataset: splice
Test set size: 1595
Initial Labelled set size: 319
Initial Unlabelled set size: 1276
Batch mode: QBestBatchMode
Batch size: 20
Classifiers: NaiveBayes-1cores
Scenario: PoolBasedSamplingScenario
Query strategy: MarginSamplingQueryStrategy-1cores
Time begining: Wed Nov 01 12.17.48 EET 2017
		
Iteration: 1
Labeled set size: 319
Unlabelled set size: 1276
	
Mean region size: 40.647857889237294
Incorrectly Classified Instances: 8.338557993730408
Correctly Classified Instances: 91.6614420062696
Weighted Precision: 0.9166853686646722
Weighted AreaUnderROC: 0.9839160052520565
Root mean squared error: 0.2072406224819326
Relative absolute error: 15.032043944739456
Root relative squared error: 43.96237484828825
Weighted TruePositiveRate: 0.9166144200626959
Weighted MatthewsCorrelation: 0.8640072521749923
Weighted FMeasure: 0.9161658629252647
Iteration time: 38.0
Weighted AreaUnderPRC: 0.973367458774532
Mean absolute error: 0.06680908419884354
Coverage of cases: 97.17868338557994
Instances selection time: 38.0
Test time: 52.0
Accumulative iteration time: 38.0
Weighted Recall: 0.9166144200626959
Weighted FalsePositiveRate: 0.059307055281523344
Kappa statistic: 0.8633057412426365
Training time: 0.0
		
Iteration: 2
Labeled set size: 339
Unlabelled set size: 1256
	
Mean region size: 40.81504702194368
Incorrectly Classified Instances: 7.586206896551724
Correctly Classified Instances: 92.41379310344827
Weighted Precision: 0.9241474076361607
Weighted AreaUnderROC: 0.9857967643507745
Root mean squared error: 0.20114054203317355
Relative absolute error: 14.554393617075108
Root relative squared error: 42.66835237295796
Weighted TruePositiveRate: 0.9241379310344827
Weighted MatthewsCorrelation: 0.8765752755435198
Weighted FMeasure: 0.9237029340870333
Iteration time: 39.0
Weighted AreaUnderPRC: 0.9763685711067578
Mean absolute error: 0.06468619385366861
Coverage of cases: 98.11912225705329
Instances selection time: 38.0
Test time: 53.0
Accumulative iteration time: 77.0
Weighted Recall: 0.9241379310344827
Weighted FalsePositiveRate: 0.054539802765834255
Kappa statistic: 0.87560354790451
Training time: 1.0
		
Iteration: 3
Labeled set size: 359
Unlabelled set size: 1236
	
Mean region size: 40.417972831766036
Incorrectly Classified Instances: 6.4576802507836994
Correctly Classified Instances: 93.5423197492163
Weighted Precision: 0.9354572179273798
Weighted AreaUnderROC: 0.9887875184060342
Root mean squared error: 0.18320897928868887
Relative absolute error: 12.819370969778332
Root relative squared error: 38.86449348878885
Weighted TruePositiveRate: 0.935423197492163
Weighted MatthewsCorrelation: 0.895167888224628
Weighted FMeasure: 0.9351804881939918
Iteration time: 37.0
Weighted AreaUnderPRC: 0.9810564930088886
Mean absolute error: 0.05697498208790499
Coverage of cases: 97.99373040752351
Instances selection time: 36.0
Test time: 52.0
Accumulative iteration time: 114.0
Weighted Recall: 0.935423197492163
Weighted FalsePositiveRate: 0.045245486234249434
Kappa statistic: 0.894380232448995
Training time: 1.0
		
Iteration: 4
Labeled set size: 379
Unlabelled set size: 1216
	
Mean region size: 40.355276907001176
Incorrectly Classified Instances: 5.266457680250784
Correctly Classified Instances: 94.73354231974922
Weighted Precision: 0.947451209146989
Weighted AreaUnderROC: 0.990762830213853
Root mean squared error: 0.170761904743538
Relative absolute error: 11.82334254571164
Root relative squared error: 36.22407024374569
Weighted TruePositiveRate: 0.9473354231974922
Weighted MatthewsCorrelation: 0.9151450336052683
Weighted FMeasure: 0.9473137211839848
Iteration time: 37.0
Weighted AreaUnderPRC: 0.9842985384528938
Mean absolute error: 0.05254818909205292
Coverage of cases: 98.68338557993731
Instances selection time: 37.0
Test time: 51.0
Accumulative iteration time: 151.0
Weighted Recall: 0.9473354231974922
Weighted FalsePositiveRate: 0.03337076760982357
Kappa statistic: 0.9142785301563883
Training time: 0.0
		
Iteration: 5
Labeled set size: 399
Unlabelled set size: 1196
	
Mean region size: 40.752351097178824
Incorrectly Classified Instances: 5.015673981191223
Correctly Classified Instances: 94.98432601880877
Weighted Precision: 0.9499816723215481
Weighted AreaUnderROC: 0.9918436319489925
Root mean squared error: 0.16262745784782157
Relative absolute error: 11.196806240943772
Root relative squared error: 34.49849347539683
Weighted TruePositiveRate: 0.9498432601880877
Weighted MatthewsCorrelation: 0.9201424970616419
Weighted FMeasure: 0.949843532718379
Iteration time: 38.0
Weighted AreaUnderPRC: 0.9860576336687733
Mean absolute error: 0.049763583293084564
Coverage of cases: 98.87147335423198
Instances selection time: 37.0
Test time: 51.0
Accumulative iteration time: 189.0
Weighted Recall: 0.9498432601880877
Weighted FalsePositiveRate: 0.03067027126708585
Kappa statistic: 0.9183836378382665
Training time: 1.0
		
Iteration: 6
Labeled set size: 419
Unlabelled set size: 1176
	
Mean region size: 40.50156739811925
Incorrectly Classified Instances: 4.263322884012539
Correctly Classified Instances: 95.73667711598746
Weighted Precision: 0.9574297847340052
Weighted AreaUnderROC: 0.992388549386631
Root mean squared error: 0.1556417807813788
Relative absolute error: 10.674650301155827
Root relative squared error: 33.01660758793853
Weighted TruePositiveRate: 0.9573667711598746
Weighted MatthewsCorrelation: 0.9326557303043502
Weighted FMeasure: 0.957371216908666
Iteration time: 41.0
Weighted AreaUnderPRC: 0.9871423200254817
Mean absolute error: 0.04744289022736031
Coverage of cases: 98.87147335423198
Instances selection time: 40.0
Test time: 52.0
Accumulative iteration time: 230.0
Weighted Recall: 0.9573667711598746
Weighted FalsePositiveRate: 0.025426699249607613
Kappa statistic: 0.9306457440107938
Training time: 1.0
		
Iteration: 7
Labeled set size: 439
Unlabelled set size: 1156
	
Mean region size: 40.75235109717889
Incorrectly Classified Instances: 4.38871473354232
Correctly Classified Instances: 95.61128526645768
Weighted Precision: 0.9564241427973066
Weighted AreaUnderROC: 0.9929832279664725
Root mean squared error: 0.1522449790108376
Relative absolute error: 10.37107236636069
Root relative squared error: 32.296037118049696
Weighted TruePositiveRate: 0.9561128526645768
Weighted MatthewsCorrelation: 0.9306746340711656
Weighted FMeasure: 0.9561991007863407
Iteration time: 37.0
Weighted AreaUnderPRC: 0.9881674748511996
Mean absolute error: 0.046093654961604114
Coverage of cases: 98.99686520376176
Instances selection time: 35.0
Test time: 52.0
Accumulative iteration time: 267.0
Weighted Recall: 0.9561128526645768
Weighted FalsePositiveRate: 0.025347988915609007
Kappa statistic: 0.9286867178453105
Training time: 2.0
		
Iteration: 8
Labeled set size: 459
Unlabelled set size: 1136
	
Mean region size: 40.668756530825725
Incorrectly Classified Instances: 4.075235109717869
Correctly Classified Instances: 95.92476489028213
Weighted Precision: 0.9597782466982759
Weighted AreaUnderROC: 0.9929245846858776
Root mean squared error: 0.1489788506262558
Relative absolute error: 10.087041475707766
Root relative squared error: 31.603186659360606
Weighted TruePositiveRate: 0.9592476489028213
Weighted MatthewsCorrelation: 0.9361670179393591
Weighted FMeasure: 0.9593816956216292
Iteration time: 35.0
Weighted AreaUnderPRC: 0.9879374900229261
Mean absolute error: 0.04483129544759109
Coverage of cases: 98.80877742946709
Instances selection time: 34.0
Test time: 52.0
Accumulative iteration time: 302.0
Weighted Recall: 0.9592476489028213
Weighted FalsePositiveRate: 0.0214960489853977
Kappa statistic: 0.9339114237777358
Training time: 1.0
		
Iteration: 9
Labeled set size: 479
Unlabelled set size: 1116
	
Mean region size: 40.54336468129587
Incorrectly Classified Instances: 4.137931034482759
Correctly Classified Instances: 95.86206896551724
Weighted Precision: 0.9588322046476926
Weighted AreaUnderROC: 0.9927733180131275
Root mean squared error: 0.14901272209896166
Relative absolute error: 10.136068404425618
Root relative squared error: 31.610371883772334
Weighted TruePositiveRate: 0.9586206896551724
Weighted MatthewsCorrelation: 0.9342537994653148
Weighted FMeasure: 0.9586957171574473
Iteration time: 34.0
Weighted AreaUnderPRC: 0.9878068870142495
Mean absolute error: 0.04504919290855933
Coverage of cases: 98.74608150470219
Instances selection time: 34.0
Test time: 52.0
Accumulative iteration time: 336.0
Weighted Recall: 0.9586206896551724
Weighted FalsePositiveRate: 0.022647492572871287
Kappa statistic: 0.9328946764512395
Training time: 0.0
		
Iteration: 10
Labeled set size: 499
Unlabelled set size: 1096
	
Mean region size: 40.75235109717886
Incorrectly Classified Instances: 3.8871473354231973
Correctly Classified Instances: 96.1128526645768
Weighted Precision: 0.961430983192931
Weighted AreaUnderROC: 0.99319096120269
Root mean squared error: 0.14700770501221283
Relative absolute error: 10.175659233129792
Root relative squared error: 31.18504353024184
Weighted TruePositiveRate: 0.961128526645768
Weighted MatthewsCorrelation: 0.938346863707987
Weighted FMeasure: 0.9612251627146774
Iteration time: 34.0
Weighted AreaUnderPRC: 0.988314194365113
Mean absolute error: 0.04522515214724455
Coverage of cases: 98.87147335423198
Instances selection time: 33.0
Test time: 53.0
Accumulative iteration time: 370.0
Weighted Recall: 0.961128526645768
Weighted FalsePositiveRate: 0.020423315731922718
Kappa statistic: 0.9370150255691355
Training time: 1.0
		
Iteration: 11
Labeled set size: 519
Unlabelled set size: 1076
	
Mean region size: 40.94043887147351
Incorrectly Classified Instances: 3.949843260188088
Correctly Classified Instances: 96.05015673981191
Weighted Precision: 0.9607976400037957
Weighted AreaUnderROC: 0.9934696679557901
Root mean squared error: 0.14654582671499106
Relative absolute error: 10.099225890995731
Root relative squared error: 31.08706434742732
Weighted TruePositiveRate: 0.9605015673981191
Weighted MatthewsCorrelation: 0.9372965874967444
Weighted FMeasure: 0.9605945664271739
Iteration time: 33.0
Weighted AreaUnderPRC: 0.9888453769517109
Mean absolute error: 0.04488544840442649
Coverage of cases: 98.93416927899686
Instances selection time: 32.0
Test time: 52.0
Accumulative iteration time: 403.0
Weighted Recall: 0.9605015673981191
Weighted FalsePositiveRate: 0.020622120315817994
Kappa statistic: 0.9360171919770773
Training time: 1.0
		
Iteration: 12
Labeled set size: 539
Unlabelled set size: 1056
	
Mean region size: 40.898641588296925
Incorrectly Classified Instances: 4.200626959247649
Correctly Classified Instances: 95.79937304075236
Weighted Precision: 0.9585140563178659
Weighted AreaUnderROC: 0.9935381634261692
Root mean squared error: 0.14787552888358552
Relative absolute error: 10.2508287235504
Root relative squared error: 31.36913677353879
Weighted TruePositiveRate: 0.9579937304075236
Weighted MatthewsCorrelation: 0.9336851843098312
Weighted FMeasure: 0.9581463620055723
Iteration time: 32.0
Weighted AreaUnderPRC: 0.9889890964359276
Mean absolute error: 0.04555923877133615
Coverage of cases: 98.99686520376176
Instances selection time: 31.0
Test time: 53.0
Accumulative iteration time: 435.0
Weighted Recall: 0.9579937304075236
Weighted FalsePositiveRate: 0.020941019149609937
Kappa statistic: 0.9320314805580715
Training time: 1.0
		
Iteration: 13
Labeled set size: 559
Unlabelled set size: 1036
	
Mean region size: 40.96133751306183
Incorrectly Classified Instances: 4.326018808777429
Correctly Classified Instances: 95.67398119122257
Weighted Precision: 0.9572985659487353
Weighted AreaUnderROC: 0.9934398828614744
Root mean squared error: 0.14815856688101464
Relative absolute error: 10.270777979141853
Root relative squared error: 31.42917819973347
Weighted TruePositiveRate: 0.9567398119122257
Weighted MatthewsCorrelation: 0.9316155638716059
Weighted FMeasure: 0.9568946860575951
Iteration time: 32.0
Weighted AreaUnderPRC: 0.9887068369596148
Mean absolute error: 0.04564790212952038
Coverage of cases: 98.93416927899686
Instances selection time: 31.0
Test time: 52.0
Accumulative iteration time: 467.0
Weighted Recall: 0.9567398119122257
Weighted FalsePositiveRate: 0.02133862831740049
Kappa statistic: 0.930041991967749
Training time: 1.0
		
Iteration: 14
Labeled set size: 579
Unlabelled set size: 1016
	
Mean region size: 41.10762800417992
Incorrectly Classified Instances: 4.137931034482759
Correctly Classified Instances: 95.86206896551724
Weighted Precision: 0.9590464392532981
Weighted AreaUnderROC: 0.9934537008694249
Root mean squared error: 0.14713941357881266
Relative absolute error: 10.284718393037036
Root relative squared error: 31.212983136416767
Weighted TruePositiveRate: 0.9586206896551724
Weighted MatthewsCorrelation: 0.934217019804064
Weighted FMeasure: 0.9587444868631162
Iteration time: 31.0
Weighted AreaUnderPRC: 0.9887055238658281
Mean absolute error: 0.04570985952461008
Coverage of cases: 98.93416927899686
Instances selection time: 30.0
Test time: 52.0
Accumulative iteration time: 498.0
Weighted Recall: 0.9586206896551724
Weighted FalsePositiveRate: 0.021218534067503823
Kappa statistic: 0.9330270659212928
Training time: 1.0
		
Iteration: 15
Labeled set size: 599
Unlabelled set size: 996
	
Mean region size: 41.04493207941505
Incorrectly Classified Instances: 4.075235109717869
Correctly Classified Instances: 95.92476489028213
Weighted Precision: 0.9596547434471995
Weighted AreaUnderROC: 0.993363746972415
Root mean squared error: 0.14615881282572102
Relative absolute error: 10.203365873475722
Root relative squared error: 31.004966303772452
Weighted TruePositiveRate: 0.9592476489028213
Weighted MatthewsCorrelation: 0.9355048896172026
Weighted FMeasure: 0.9593662319821448
Iteration time: 31.0
Weighted AreaUnderPRC: 0.9885509279929692
Mean absolute error: 0.04534829277100424
Coverage of cases: 98.93416927899686
Instances selection time: 30.0
Test time: 52.0
Accumulative iteration time: 529.0
Weighted Recall: 0.9592476489028213
Weighted FalsePositiveRate: 0.02054340998181939
Kappa statistic: 0.9340418073467278
Training time: 1.0
		
Iteration: 16
Labeled set size: 619
Unlabelled set size: 976
	
Mean region size: 40.96133751306186
Incorrectly Classified Instances: 3.8871473354231973
Correctly Classified Instances: 96.1128526645768
Weighted Precision: 0.9615534684894805
Weighted AreaUnderROC: 0.9932559034132433
Root mean squared error: 0.14589606437743827
Relative absolute error: 10.211196122516768
Root relative squared error: 30.94922894091436
Weighted TruePositiveRate: 0.961128526645768
Weighted MatthewsCorrelation: 0.938460577276306
Weighted FMeasure: 0.9612516856518725
Iteration time: 30.0
Weighted AreaUnderPRC: 0.9883563291843512
Mean absolute error: 0.045383093877853324
Coverage of cases: 98.93416927899686
Instances selection time: 29.0
Test time: 51.0
Accumulative iteration time: 559.0
Weighted Recall: 0.961128526645768
Weighted FalsePositiveRate: 0.01947067672834441
Kappa statistic: 0.9370860316230325
Training time: 1.0
		
Iteration: 17
Labeled set size: 639
Unlabelled set size: 956
	
Mean region size: 40.89864158829691
Incorrectly Classified Instances: 4.075235109717869
Correctly Classified Instances: 95.92476489028213
Weighted Precision: 0.9596771261913426
Weighted AreaUnderROC: 0.9933399318399693
Root mean squared error: 0.14521374989936128
Relative absolute error: 10.081994229718177
Root relative squared error: 30.804488182609358
Weighted TruePositiveRate: 0.9592476489028213
Weighted MatthewsCorrelation: 0.9355148925668433
Weighted FMeasure: 0.9593731807545084
Iteration time: 29.0
Weighted AreaUnderPRC: 0.9885090686110279
Mean absolute error: 0.044808863243192915
Coverage of cases: 98.93416927899686
Instances selection time: 28.0
Test time: 52.0
Accumulative iteration time: 588.0
Weighted Recall: 0.9592476489028213
Weighted FalsePositiveRate: 0.02054340998181939
Kappa statistic: 0.9340418073467278
Training time: 1.0
		
Iteration: 18
Labeled set size: 659
Unlabelled set size: 936
	
Mean region size: 40.54336468129584
Incorrectly Classified Instances: 4.200626959247649
Correctly Classified Instances: 95.79937304075236
Weighted Precision: 0.9583958006828542
Weighted AreaUnderROC: 0.9933887943869631
Root mean squared error: 0.14607344589934385
Relative absolute error: 10.103621507244448
Root relative squared error: 30.986857244013347
Weighted TruePositiveRate: 0.9579937304075236
Weighted MatthewsCorrelation: 0.9336000039277167
Weighted FMeasure: 0.9581182253185753
Iteration time: 29.0
Weighted AreaUnderPRC: 0.9887905079510291
Mean absolute error: 0.044904984476643005
Coverage of cases: 98.93416927899686
Instances selection time: 28.0
Test time: 51.0
Accumulative iteration time: 617.0
Weighted Recall: 0.9579937304075236
Weighted FalsePositiveRate: 0.0214173386513991
Kappa statistic: 0.9319931576328161
Training time: 1.0
		
Iteration: 19
Labeled set size: 679
Unlabelled set size: 916
	
Mean region size: 40.77324973876715
Incorrectly Classified Instances: 4.137931034482759
Correctly Classified Instances: 95.86206896551724
Weighted Precision: 0.9588645843528903
Weighted AreaUnderROC: 0.9932777717017552
Root mean squared error: 0.14384377302873672
Relative absolute error: 9.887941298158736
Root relative squared error: 30.51387220202316
Weighted TruePositiveRate: 0.9586206896551724
Weighted MatthewsCorrelation: 0.9342955185208276
Weighted FMeasure: 0.9587042792218637
Iteration time: 28.0
Weighted AreaUnderPRC: 0.9887439101572026
Mean absolute error: 0.04394640576959538
Coverage of cases: 98.87147335423198
Instances selection time: 27.0
Test time: 53.0
Accumulative iteration time: 645.0
Weighted Recall: 0.9586206896551724
Weighted FalsePositiveRate: 0.022171173071082132
Kappa statistic: 0.9329325553925996
Training time: 1.0
		
Iteration: 20
Labeled set size: 699
Unlabelled set size: 896
	
Mean region size: 40.56426332288419
Incorrectly Classified Instances: 3.8871473354231973
Correctly Classified Instances: 96.1128526645768
Weighted Precision: 0.9612867748512093
Weighted AreaUnderROC: 0.9933003478109492
Root mean squared error: 0.14481819362805518
Relative absolute error: 9.928282425795958
Root relative squared error: 30.720578026074936
Weighted TruePositiveRate: 0.961128526645768
Weighted MatthewsCorrelation: 0.9382304502167187
Weighted FMeasure: 0.9611875011273953
Iteration time: 28.0
Weighted AreaUnderPRC: 0.9886193420900107
Mean absolute error: 0.04412569967020526
Coverage of cases: 98.87147335423198
Instances selection time: 27.0
Test time: 52.0
Accumulative iteration time: 673.0
Weighted Recall: 0.961128526645768
Weighted FalsePositiveRate: 0.021375954735501027
Kappa statistic: 0.93694385905623
Training time: 1.0
		
Iteration: 21
Labeled set size: 719
Unlabelled set size: 876
	
Mean region size: 40.37617554858952
Incorrectly Classified Instances: 3.8871473354231973
Correctly Classified Instances: 96.1128526645768
Weighted Precision: 0.9612469676673105
Weighted AreaUnderROC: 0.9933754563488467
Root mean squared error: 0.14312189025958882
Relative absolute error: 9.77727458646403
Root relative squared error: 30.3607377416373
Weighted TruePositiveRate: 0.961128526645768
Weighted MatthewsCorrelation: 0.9386636021592984
Weighted FMeasure: 0.9611766374837872
Iteration time: 27.0
Weighted AreaUnderPRC: 0.9888715713130333
Mean absolute error: 0.043454553717618895
Coverage of cases: 98.87147335423198
Instances selection time: 26.0
Test time: 52.0
Accumulative iteration time: 700.0
Weighted Recall: 0.961128526645768
Weighted FalsePositiveRate: 0.021375954735501027
Kappa statistic: 0.9369082154575828
Training time: 1.0
		
Iteration: 22
Labeled set size: 739
Unlabelled set size: 856
	
Mean region size: 40.52246603970756
Incorrectly Classified Instances: 3.824451410658307
Correctly Classified Instances: 96.17554858934169
Weighted Precision: 0.9620734318789641
Weighted AreaUnderROC: 0.9934906194479893
Root mean squared error: 0.14369294546660394
Relative absolute error: 9.79933220868822
Root relative squared error: 30.48187684443098
Weighted TruePositiveRate: 0.961755485893417
Weighted MatthewsCorrelation: 0.9394294330241524
Weighted FMeasure: 0.9618535100922252
Iteration time: 27.0
Weighted AreaUnderPRC: 0.9890473422744543
Mean absolute error: 0.043552587594170855
Coverage of cases: 98.87147335423198
Instances selection time: 25.0
Test time: 52.0
Accumulative iteration time: 727.0
Weighted Recall: 0.961755485893417
Weighted FalsePositiveRate: 0.019748191646238287
Kappa statistic: 0.9380483922317734
Training time: 2.0
		
Iteration: 23
Labeled set size: 759
Unlabelled set size: 836
	
Mean region size: 40.54336468129591
Incorrectly Classified Instances: 3.8871473354231973
Correctly Classified Instances: 96.1128526645768
Weighted Precision: 0.9614289855239553
Weighted AreaUnderROC: 0.9933942142710456
Root mean squared error: 0.1435584807367113
Relative absolute error: 9.784962372396354
Root relative squared error: 30.45335256772973
Weighted TruePositiveRate: 0.961128526645768
Weighted MatthewsCorrelation: 0.9387917039757465
Weighted FMeasure: 0.961225820986731
Iteration time: 26.0
Weighted AreaUnderPRC: 0.9889374713992708
Mean absolute error: 0.04348872165509589
Coverage of cases: 98.93416927899686
Instances selection time: 25.0
Test time: 52.0
Accumulative iteration time: 753.0
Weighted Recall: 0.961128526645768
Weighted FalsePositiveRate: 0.020423315731922718
Kappa statistic: 0.9369794624040336
Training time: 1.0
		
Iteration: 24
Labeled set size: 779
Unlabelled set size: 816
	
Mean region size: 40.25078369905972
Incorrectly Classified Instances: 4.075235109717869
Correctly Classified Instances: 95.92476489028213
Weighted Precision: 0.9595709858129673
Weighted AreaUnderROC: 0.993510832784334
Root mean squared error: 0.14475401935147622
Relative absolute error: 9.842606881844151
Root relative squared error: 30.70696460623092
Weighted TruePositiveRate: 0.9592476489028213
Weighted MatthewsCorrelation: 0.9356290116350798
Weighted FMeasure: 0.9593533420777991
Iteration time: 26.0
Weighted AreaUnderPRC: 0.9890970789801676
Mean absolute error: 0.04374491947486389
Coverage of cases: 98.93416927899686
Instances selection time: 25.0
Test time: 52.0
Accumulative iteration time: 779.0
Weighted Recall: 0.9592476489028213
Weighted FalsePositiveRate: 0.0214960489853977
Kappa statistic: 0.933948728795742
Training time: 1.0
		
Iteration: 25
Labeled set size: 799
Unlabelled set size: 796
	
Mean region size: 40.02089864158846
Incorrectly Classified Instances: 3.573667711598746
Correctly Classified Instances: 96.42633228840126
Weighted Precision: 0.9644980912042397
Weighted AreaUnderROC: 0.9936949362697132
Root mean squared error: 0.14384076616322522
Relative absolute error: 9.725352642931867
Root relative squared error: 30.51323434952517
Weighted TruePositiveRate: 0.9642633228840125
Weighted MatthewsCorrelation: 0.9435884386850267
Weighted FMeasure: 0.9643377642666072
Iteration time: 25.0
Weighted AreaUnderPRC: 0.9894577995233571
Mean absolute error: 0.04322378952414261
Coverage of cases: 98.93416927899686
Instances selection time: 24.0
Test time: 56.0
Accumulative iteration time: 804.0
Weighted Recall: 0.9642633228840125
Weighted FalsePositiveRate: 0.018952973310657182
Kappa statistic: 0.9420454023897068
Training time: 1.0
		
Iteration: 26
Labeled set size: 819
Unlabelled set size: 776
	
Mean region size: 40.04179728317675
Incorrectly Classified Instances: 3.573667711598746
Correctly Classified Instances: 96.42633228840126
Weighted Precision: 0.9644928676559837
Weighted AreaUnderROC: 0.9935737560206552
Root mean squared error: 0.14323275352307469
Relative absolute error: 9.60765745903545
Root relative squared error: 30.3842553912559
Weighted TruePositiveRate: 0.9642633228840125
Weighted MatthewsCorrelation: 0.9436103987812848
Weighted FMeasure: 0.9643394778432774
Iteration time: 24.0
Weighted AreaUnderPRC: 0.9892889248433185
Mean absolute error: 0.0427006998179363
Coverage of cases: 98.87147335423198
Instances selection time: 23.0
Test time: 52.0
Accumulative iteration time: 828.0
Weighted Recall: 0.9642633228840125
Weighted FalsePositiveRate: 0.01847665380886803
Kappa statistic: 0.9420781160208815
Training time: 1.0
		
Iteration: 27
Labeled set size: 839
Unlabelled set size: 756
	
Mean region size: 39.93730407523529
Incorrectly Classified Instances: 3.699059561128527
Correctly Classified Instances: 96.30094043887148
Weighted Precision: 0.9633127434336316
Weighted AreaUnderROC: 0.9933096485747162
Root mean squared error: 0.14410079655294888
Relative absolute error: 9.612337537675291
Root relative squared error: 30.568395125091623
Weighted TruePositiveRate: 0.9630094043887147
Weighted MatthewsCorrelation: 0.9415191503715984
Weighted FMeasure: 0.963096501749874
Iteration time: 24.0
Weighted AreaUnderPRC: 0.988800682008364
Mean absolute error: 0.042721500167446705
Coverage of cases: 98.93416927899686
Instances selection time: 23.0
Test time: 52.0
Accumulative iteration time: 852.0
Weighted Recall: 0.9630094043887147
Weighted FalsePositiveRate: 0.019350582478447738
Kappa statistic: 0.9400457692145967
Training time: 1.0
		
Iteration: 28
Labeled set size: 859
Unlabelled set size: 736
	
Mean region size: 40.00000000000019
Incorrectly Classified Instances: 3.699059561128527
Correctly Classified Instances: 96.30094043887148
Weighted Precision: 0.9633403172980517
Weighted AreaUnderROC: 0.9933327686946632
Root mean squared error: 0.14444403163700595
Relative absolute error: 9.607546458595424
Root relative squared error: 30.64120628173499
Weighted TruePositiveRate: 0.9630094043887147
Weighted MatthewsCorrelation: 0.9413084814493842
Weighted FMeasure: 0.9630977630946328
Iteration time: 24.0
Weighted AreaUnderPRC: 0.9887626606186134
Mean absolute error: 0.042700206482647295
Coverage of cases: 98.93416927899686
Instances selection time: 23.0
Test time: 51.0
Accumulative iteration time: 876.0
Weighted Recall: 0.9630094043887147
Weighted FalsePositiveRate: 0.019350582478447738
Kappa statistic: 0.9400626856222417
Training time: 1.0
		
Iteration: 29
Labeled set size: 879
Unlabelled set size: 716
	
Mean region size: 39.8955067920587
Incorrectly Classified Instances: 3.761755485893417
Correctly Classified Instances: 96.23824451410658
Weighted Precision: 0.9626752219155925
Weighted AreaUnderROC: 0.9932701076890519
Root mean squared error: 0.1444448957535738
Relative absolute error: 9.537779677777277
Root relative squared error: 30.64138958854045
Weighted TruePositiveRate: 0.9623824451410659
Weighted MatthewsCorrelation: 0.9404393365739412
Weighted FMeasure: 0.9624561216982777
Iteration time: 23.0
Weighted AreaUnderPRC: 0.988628806612485
Mean absolute error: 0.04239013190123331
Coverage of cases: 98.87147335423198
Instances selection time: 22.0
Test time: 51.0
Accumulative iteration time: 899.0
Weighted Recall: 0.9623824451410659
Weighted FalsePositiveRate: 0.02002570656413217
Kappa statistic: 0.9390123829716456
Training time: 1.0
		
Iteration: 30
Labeled set size: 899
Unlabelled set size: 696
	
Mean region size: 39.7910135841172
Incorrectly Classified Instances: 3.6363636363636362
Correctly Classified Instances: 96.36363636363636
Weighted Precision: 0.9639190716208688
Weighted AreaUnderROC: 0.9932482447934599
Root mean squared error: 0.143737886261364
Relative absolute error: 9.433537353624763
Root relative squared error: 30.491410226649005
Weighted TruePositiveRate: 0.9636363636363636
Weighted MatthewsCorrelation: 0.9428081721725051
Weighted FMeasure: 0.9637212632649051
Iteration time: 23.0
Weighted AreaUnderPRC: 0.9885665145315052
Mean absolute error: 0.04192683268277768
Coverage of cases: 98.80877742946709
Instances selection time: 21.0
Test time: 51.0
Accumulative iteration time: 922.0
Weighted Recall: 0.9636363636363636
Weighted FalsePositiveRate: 0.018675458392763307
Kappa statistic: 0.9410619426177391
Training time: 2.0
		
Iteration: 31
Labeled set size: 919
Unlabelled set size: 676
	
Mean region size: 39.66562173458743
Incorrectly Classified Instances: 3.6363636363636362
Correctly Classified Instances: 96.36363636363636
Weighted Precision: 0.9639190716208688
Weighted AreaUnderROC: 0.9933424462886793
Root mean squared error: 0.1432855405354785
Relative absolute error: 9.356871084210752
Root relative squared error: 30.395453207584694
Weighted TruePositiveRate: 0.9636363636363636
Weighted MatthewsCorrelation: 0.9428081721725051
Weighted FMeasure: 0.9637212632649051
Iteration time: 21.0
Weighted AreaUnderPRC: 0.9887281415864657
Mean absolute error: 0.041586093707604285
Coverage of cases: 98.74608150470219
Instances selection time: 20.0
Test time: 52.0
Accumulative iteration time: 943.0
Weighted Recall: 0.9636363636363636
Weighted FalsePositiveRate: 0.018675458392763307
Kappa statistic: 0.9410619426177391
Training time: 1.0
		
Iteration: 32
Labeled set size: 939
Unlabelled set size: 656
	
Mean region size: 39.56112852664593
Incorrectly Classified Instances: 3.824451410658307
Correctly Classified Instances: 96.17554858934169
Weighted Precision: 0.9620388616303477
Weighted AreaUnderROC: 0.9933073404051765
Root mean squared error: 0.14442328200835633
Relative absolute error: 9.399357696302104
Root relative squared error: 30.636804620797413
Weighted TruePositiveRate: 0.961755485893417
Weighted MatthewsCorrelation: 0.939833683088186
Weighted FMeasure: 0.9618363509206999
Iteration time: 21.0
Weighted AreaUnderPRC: 0.9887278457260761
Mean absolute error: 0.041774923094676966
Coverage of cases: 98.74608150470219
Instances selection time: 20.0
Test time: 52.0
Accumulative iteration time: 964.0
Weighted Recall: 0.961755485893417
Weighted FalsePositiveRate: 0.020224511148027445
Kappa statistic: 0.9379784130837214
Training time: 1.0
		
Iteration: 33
Labeled set size: 959
Unlabelled set size: 636
	
Mean region size: 39.540229885057684
Incorrectly Classified Instances: 3.824451410658307
Correctly Classified Instances: 96.17554858934169
Weighted Precision: 0.9621236237450146
Weighted AreaUnderROC: 0.9931713276051901
Root mean squared error: 0.14408148951323385
Relative absolute error: 9.297378233029674
Root relative squared error: 30.56429948347948
Weighted TruePositiveRate: 0.961755485893417
Weighted MatthewsCorrelation: 0.9398963307480833
Weighted FMeasure: 0.961854287319098
Iteration time: 21.0
Weighted AreaUnderPRC: 0.9886851270474303
Mean absolute error: 0.04132168103568838
Coverage of cases: 98.80877742946709
Instances selection time: 19.0
Test time: 51.0
Accumulative iteration time: 985.0
Weighted Recall: 0.961755485893417
Weighted FalsePositiveRate: 0.019748191646238287
Kappa statistic: 0.938013422408312
Training time: 2.0
		
Iteration: 34
Labeled set size: 979
Unlabelled set size: 616
	
Mean region size: 39.54022988505767
Incorrectly Classified Instances: 3.761755485893417
Correctly Classified Instances: 96.23824451410658
Weighted Precision: 0.962741326897725
Weighted AreaUnderROC: 0.9932664640978248
Root mean squared error: 0.14437760909317818
Relative absolute error: 9.30067593304987
Root relative squared error: 30.627115932385706
Weighted TruePositiveRate: 0.9623824451410659
Weighted MatthewsCorrelation: 0.9409415633817151
Weighted FMeasure: 0.9624774141864819
Iteration time: 20.0
Weighted AreaUnderPRC: 0.9888165733172496
Mean absolute error: 0.04133633748022258
Coverage of cases: 98.74608150470219
Instances selection time: 18.0
Test time: 52.0
Accumulative iteration time: 1005.0
Weighted Recall: 0.9623824451410659
Weighted FalsePositiveRate: 0.019549387062343007
Kappa statistic: 0.9390123829716456
Training time: 2.0
		
Iteration: 35
Labeled set size: 999
Unlabelled set size: 596
	
Mean region size: 39.54022988505767
Incorrectly Classified Instances: 3.8871473354231973
Correctly Classified Instances: 96.1128526645768
Weighted Precision: 0.9615184809677275
Weighted AreaUnderROC: 0.9932272973459502
Root mean squared error: 0.1451468671244969
Relative absolute error: 9.34582082120333
Root relative squared error: 30.790300203514008
Weighted TruePositiveRate: 0.961128526645768
Weighted MatthewsCorrelation: 0.9388309577054545
Weighted FMeasure: 0.9612257057894806
Iteration time: 20.0
Weighted AreaUnderPRC: 0.9887047010123335
Mean absolute error: 0.04153698142757129
Coverage of cases: 98.74608150470219
Instances selection time: 18.0
Test time: 51.0
Accumulative iteration time: 1025.0
Weighted Recall: 0.961128526645768
Weighted FalsePositiveRate: 0.020423315731922718
Kappa statistic: 0.9369794624040336
Training time: 2.0
		
Iteration: 36
Labeled set size: 1019
Unlabelled set size: 576
	
Mean region size: 39.54022988505763
Incorrectly Classified Instances: 3.699059561128527
Correctly Classified Instances: 96.30094043887148
Weighted Precision: 0.963253122323175
Weighted AreaUnderROC: 0.9932656868433042
Root mean squared error: 0.1440424461804529
Relative absolute error: 9.260483878724827
Root relative squared error: 30.556017141868622
Weighted TruePositiveRate: 0.9630094043887147
Weighted MatthewsCorrelation: 0.9419179775185167
Weighted FMeasure: 0.9630692327092163
Iteration time: 19.0
Weighted AreaUnderPRC: 0.9888428870046065
Mean absolute error: 0.04115770612766683
Coverage of cases: 98.80877742946709
Instances selection time: 18.0
Test time: 51.0
Accumulative iteration time: 1044.0
Weighted Recall: 0.9630094043887147
Weighted FalsePositiveRate: 0.019826901980236893
Kappa statistic: 0.9399780079880499
Training time: 1.0
		
Iteration: 37
Labeled set size: 1039
Unlabelled set size: 556
	
Mean region size: 39.519331243469374
Incorrectly Classified Instances: 3.824451410658307
Correctly Classified Instances: 96.17554858934169
Weighted Precision: 0.9620267502634369
Weighted AreaUnderROC: 0.9933137343853408
Root mean squared error: 0.14454103654755773
Relative absolute error: 9.284617057918377
Root relative squared error: 30.661784130752856
Weighted TruePositiveRate: 0.961755485893417
Weighted MatthewsCorrelation: 0.9398045806858059
Weighted FMeasure: 0.9618163099142224
Iteration time: 19.0
Weighted AreaUnderPRC: 0.9888417812610988
Mean absolute error: 0.04126496470186039
Coverage of cases: 98.87147335423198
Instances selection time: 17.0
Test time: 51.0
Accumulative iteration time: 1063.0
Weighted Recall: 0.961755485893417
Weighted FalsePositiveRate: 0.0207008306498166
Kappa statistic: 0.9379433641910346
Training time: 2.0
		
Iteration: 38
Labeled set size: 1059
Unlabelled set size: 536
	
Mean region size: 39.41483803552788
Incorrectly Classified Instances: 3.761755485893417
Correctly Classified Instances: 96.23824451410658
Weighted Precision: 0.9626085224626008
Weighted AreaUnderROC: 0.9932901187909161
Root mean squared error: 0.14437234771191146
Relative absolute error: 9.195147353867274
Root relative squared error: 30.625999824874075
Weighted TruePositiveRate: 0.9623824451410659
Weighted MatthewsCorrelation: 0.9408364614105678
Weighted FMeasure: 0.9624311652042794
Iteration time: 18.0
Weighted AreaUnderPRC: 0.9888824189378022
Mean absolute error: 0.040867321572744364
Coverage of cases: 98.80877742946709
Instances selection time: 16.0
Test time: 54.0
Accumulative iteration time: 1081.0
Weighted Recall: 0.9623824451410659
Weighted FalsePositiveRate: 0.020502026065921324
Kappa statistic: 0.9389434343137899
Training time: 2.0
		
Iteration: 39
Labeled set size: 1079
Unlabelled set size: 516
	
Mean region size: 39.22675026123317
Incorrectly Classified Instances: 3.8871473354231973
Correctly Classified Instances: 96.1128526645768
Weighted Precision: 0.9613848822367426
Weighted AreaUnderROC: 0.9934947470537403
Root mean squared error: 0.14423822396245478
Relative absolute error: 9.168321000406632
Root relative squared error: 30.59754788104638
Weighted TruePositiveRate: 0.961128526645768
Weighted MatthewsCorrelation: 0.9389507510631955
Weighted FMeasure: 0.9611891129156667
Iteration time: 20.0
Weighted AreaUnderPRC: 0.9892372025954232
Mean absolute error: 0.040748093335141504
Coverage of cases: 98.80877742946709
Instances selection time: 18.0
Test time: 52.0
Accumulative iteration time: 1101.0
Weighted Recall: 0.961128526645768
Weighted FalsePositiveRate: 0.021375954735501024
Kappa statistic: 0.9368903785428561
Training time: 2.0
		
Iteration: 40
Labeled set size: 1099
Unlabelled set size: 496
	
Mean region size: 39.18495297805658
Incorrectly Classified Instances: 4.075235109717869
Correctly Classified Instances: 95.92476489028213
Weighted Precision: 0.9594425058366131
Weighted AreaUnderROC: 0.9934539698412842
Root mean squared error: 0.14470246915250107
Relative absolute error: 9.183487364949052
Root relative squared error: 30.696029157650866
Weighted TruePositiveRate: 0.9592476489028213
Weighted MatthewsCorrelation: 0.9357236338660081
Weighted FMeasure: 0.9592988778435425
Iteration time: 17.0
Weighted AreaUnderPRC: 0.9891825229201333
Mean absolute error: 0.04081549939977449
Coverage of cases: 98.74608150470219
Instances selection time: 15.0
Test time: 51.0
Accumulative iteration time: 1118.0
Weighted Recall: 0.9592476489028213
Weighted FalsePositiveRate: 0.022925007490765162
Kappa statistic: 0.9338179766143021
Training time: 2.0
		
Iteration: 41
Labeled set size: 1119
Unlabelled set size: 476
	
Mean region size: 39.10135841170338
Incorrectly Classified Instances: 4.075235109717869
Correctly Classified Instances: 95.92476489028213
Weighted Precision: 0.9594596724946544
Weighted AreaUnderROC: 0.9932976837087236
Root mean squared error: 0.14434677357610948
Relative absolute error: 9.144807088565187
Root relative squared error: 30.620574731419502
Weighted TruePositiveRate: 0.9592476489028213
Weighted MatthewsCorrelation: 0.9354828579463177
Weighted FMeasure: 0.9592901471998319
Iteration time: 17.0
Weighted AreaUnderPRC: 0.98892711829417
Mean absolute error: 0.04064358706029064
Coverage of cases: 98.74608150470219
Instances selection time: 15.0
Test time: 52.0
Accumulative iteration time: 1135.0
Weighted Recall: 0.9592476489028213
Weighted FalsePositiveRate: 0.023401326992554317
Kappa statistic: 0.9337992554611224
Training time: 2.0
		
Iteration: 42
Labeled set size: 1139
Unlabelled set size: 456
	
Mean region size: 39.12225705329169
Incorrectly Classified Instances: 4.137931034482759
Correctly Classified Instances: 95.86206896551724
Weighted Precision: 0.9586950415600186
Weighted AreaUnderROC: 0.9932954746340796
Root mean squared error: 0.14456363086483312
Relative absolute error: 9.107886377215536
Root relative squared error: 30.66657710924137
Weighted TruePositiveRate: 0.9586206896551724
Weighted MatthewsCorrelation: 0.9338341188645961
Weighted FMeasure: 0.9586104543018151
Iteration time: 16.0
Weighted AreaUnderPRC: 0.9889167119565893
Mean absolute error: 0.040479495009847745
Coverage of cases: 98.80877742946709
Instances selection time: 14.0
Test time: 51.0
Accumulative iteration time: 1151.0
Weighted Recall: 0.9586206896551724
Weighted FalsePositiveRate: 0.025505409583606215
Kappa statistic: 0.9326855750692999
Training time: 2.0
		
Iteration: 43
Labeled set size: 1159
Unlabelled set size: 436
	
Mean region size: 39.12225705329168
Incorrectly Classified Instances: 4.012539184952978
Correctly Classified Instances: 95.98746081504702
Weighted Precision: 0.9599177556325581
Weighted AreaUnderROC: 0.9932495188706881
Root mean squared error: 0.1449166819814972
Relative absolute error: 9.104890005809438
Root relative squared error: 30.741470560850967
Weighted TruePositiveRate: 0.9598746081504702
Weighted MatthewsCorrelation: 0.9361803572827869
Weighted FMeasure: 0.9598516186884035
Iteration time: 15.0
Weighted AreaUnderPRC: 0.9888986349956949
Mean absolute error: 0.040466177803598416
Coverage of cases: 98.80877742946709
Instances selection time: 13.0
Test time: 52.0
Accumulative iteration time: 1166.0
Weighted Recall: 0.9598746081504702
Weighted FalsePositiveRate: 0.024631480914026508
Kappa statistic: 0.934706910270613
Training time: 2.0
		
Iteration: 44
Labeled set size: 1179
Unlabelled set size: 416
	
Mean region size: 39.22675026123317
Incorrectly Classified Instances: 4.075235109717869
Correctly Classified Instances: 95.92476489028213
Weighted Precision: 0.9593573667608275
Weighted AreaUnderROC: 0.993349494834446
Root mean squared error: 0.1458961447106202
Relative absolute error: 9.164909571719878
Root relative squared error: 30.94924598215567
Weighted TruePositiveRate: 0.9592476489028213
Weighted MatthewsCorrelation: 0.9356299229482932
Weighted FMeasure: 0.9592286231977556
Iteration time: 15.0
Weighted AreaUnderPRC: 0.9889772023346296
Mean absolute error: 0.04073293142986705
Coverage of cases: 98.80877742946709
Instances selection time: 13.0
Test time: 52.0
Accumulative iteration time: 1181.0
Weighted Recall: 0.9592476489028213
Weighted FalsePositiveRate: 0.02435396599613263
Kappa statistic: 0.9337054905985529
Training time: 2.0
		
Iteration: 45
Labeled set size: 1199
Unlabelled set size: 396
	
Mean region size: 39.28944618599807
Incorrectly Classified Instances: 4.137931034482759
Correctly Classified Instances: 95.86206896551724
Weighted Precision: 0.9588012197024434
Weighted AreaUnderROC: 0.9932642732242842
Root mean squared error: 0.14705329278811724
Relative absolute error: 9.253665948349111
Root relative squared error: 31.194714157886207
Weighted TruePositiveRate: 0.9586206896551724
Weighted MatthewsCorrelation: 0.9341106405307285
Weighted FMeasure: 0.9586098791579055
Iteration time: 14.0
Weighted AreaUnderPRC: 0.9889036788525727
Mean absolute error: 0.041127404214885865
Coverage of cases: 98.87147335423198
Instances selection time: 12.0
Test time: 51.0
Accumulative iteration time: 1195.0
Weighted Recall: 0.9586206896551724
Weighted FalsePositiveRate: 0.025505409583606215
Kappa statistic: 0.9326665012165698
Training time: 2.0
		
Iteration: 46
Labeled set size: 1219
Unlabelled set size: 376
	
Mean region size: 39.080459770115084
Incorrectly Classified Instances: 4.200626959247649
Correctly Classified Instances: 95.79937304075236
Weighted Precision: 0.9581346777985756
Weighted AreaUnderROC: 0.9932589942302232
Root mean squared error: 0.1470112831457955
Relative absolute error: 9.2475565950834
Root relative squared error: 31.18580256699793
Weighted TruePositiveRate: 0.9579937304075236
Weighted MatthewsCorrelation: 0.9335143687625378
Weighted FMeasure: 0.9579748157984689
Iteration time: 14.0
Weighted AreaUnderPRC: 0.9888833511897714
Mean absolute error: 0.04110025153370493
Coverage of cases: 98.80877742946709
Instances selection time: 12.0
Test time: 52.0
Accumulative iteration time: 1209.0
Weighted Recall: 0.9579937304075236
Weighted FalsePositiveRate: 0.025227894665712333
Kappa statistic: 0.931665659540047
Training time: 2.0
		
Time end:Wed Nov 01 12.17.55 EET 2017