Wed Nov 01 13.31.21 EET 2017
Dataset: splice
Test set size: 1595
Initial Labelled set size: 319
Initial Unlabelled set size: 1276
Batch mode: QBestBatchMode
Batch size: 20
Classifiers: SMO-1cores
Scenario: PoolBasedSamplingScenario
Query strategy: RandomSelectionQueryStrategy-1cores
Time begining: Wed Nov 01 13.31.21 EET 2017
		
Iteration: 1
Labeled set size: 319
Unlabelled set size: 1276
	
Mean region size: 67.00104493207827
Incorrectly Classified Instances: 9.905956112852664
Correctly Classified Instances: 90.09404388714734
Weighted Precision: 0.9034734762401625
Weighted AreaUnderROC: 0.942081286452083
Root mean squared error: 0.3139246811661334
Relative absolute error: 55.67398119122254
Root relative squared error: 66.59348125031859
Weighted TruePositiveRate: 0.9009404388714733
Weighted MatthewsCorrelation: 0.8433765694862337
Weighted FMeasure: 0.9015652741845134
Iteration time: 766.0
Weighted AreaUnderPRC: 0.864798895382672
Mean absolute error: 0.2474399164054391
Coverage of cases: 99.05956112852665
Instances selection time: 4.0
Test time: 183.0
Accumulative iteration time: 766.0
Weighted Recall: 0.9009404388714733
Weighted FalsePositiveRate: 0.05001223173145467
Kappa statistic: 0.8407982513771668
Training time: 762.0
		
Iteration: 2
Labeled set size: 339
Unlabelled set size: 1256
	
Mean region size: 67.0010449320783
Incorrectly Classified Instances: 9.090909090909092
Correctly Classified Instances: 90.9090909090909
Weighted Precision: 0.9107143170157944
Weighted AreaUnderROC: 0.9465924835676306
Root mean squared error: 0.3101293161439568
Relative absolute error: 55.14106583072097
Root relative squared error: 65.7883627470408
Weighted TruePositiveRate: 0.9090909090909091
Weighted MatthewsCorrelation: 0.8551785021962861
Weighted FMeasure: 0.9095341226170572
Iteration time: 757.0
Weighted AreaUnderPRC: 0.8754520472302428
Mean absolute error: 0.24507140369209873
Coverage of cases: 99.24764890282131
Instances selection time: 3.0
Test time: 186.0
Accumulative iteration time: 1523.0
Weighted Recall: 0.9090909090909091
Weighted FalsePositiveRate: 0.04791123986041665
Kappa statistic: 0.8534859912905649
Training time: 754.0
		
Iteration: 3
Labeled set size: 359
Unlabelled set size: 1236
	
Mean region size: 66.95924764890168
Incorrectly Classified Instances: 9.843260188087774
Correctly Classified Instances: 90.15673981191223
Weighted Precision: 0.9025018370112271
Weighted AreaUnderROC: 0.9393246708302745
Root mean squared error: 0.313406470043291
Relative absolute error: 55.579937304075195
Root relative squared error: 66.48355207060413
Weighted TruePositiveRate: 0.9015673981191222
Weighted MatthewsCorrelation: 0.8413466895758278
Weighted FMeasure: 0.9018624010922793
Iteration time: 837.0
Weighted AreaUnderPRC: 0.864742735088508
Mean absolute error: 0.24702194357367316
Coverage of cases: 98.99686520376176
Instances selection time: 3.0
Test time: 194.0
Accumulative iteration time: 2360.0
Weighted Recall: 0.9015673981191222
Weighted FalsePositiveRate: 0.05603105649632472
Kappa statistic: 0.840912816042956
Training time: 834.0
		
Iteration: 4
Labeled set size: 379
Unlabelled set size: 1216
	
Mean region size: 66.89655172413677
Incorrectly Classified Instances: 9.0282131661442
Correctly Classified Instances: 90.9717868338558
Weighted Precision: 0.9105062976032208
Weighted AreaUnderROC: 0.9438022814347247
Root mean squared error: 0.3098296742226463
Relative absolute error: 55.04702194357364
Root relative squared error: 65.72479909669488
Weighted TruePositiveRate: 0.909717868338558
Weighted MatthewsCorrelation: 0.8536205321448458
Weighted FMeasure: 0.9099543230718623
Iteration time: 927.0
Weighted AreaUnderPRC: 0.8746094931482121
Mean absolute error: 0.24465343086033284
Coverage of cases: 99.18495297805643
Instances selection time: 3.0
Test time: 189.0
Accumulative iteration time: 3287.0
Weighted Recall: 0.909717868338558
Weighted FalsePositiveRate: 0.052018677415565116
Kappa statistic: 0.8540444704282453
Training time: 924.0
		
Iteration: 5
Labeled set size: 399
Unlabelled set size: 1196
	
Mean region size: 67.04284221525486
Incorrectly Classified Instances: 8.84012539184953
Correctly Classified Instances: 91.15987460815047
Weighted Precision: 0.912332901109142
Weighted AreaUnderROC: 0.945678052477292
Root mean squared error: 0.30930460237223883
Relative absolute error: 55.04702194357364
Root relative squared error: 65.61341453688489
Weighted TruePositiveRate: 0.9115987460815047
Weighted MatthewsCorrelation: 0.8574224549410406
Weighted FMeasure: 0.9118363924369879
Iteration time: 1036.0
Weighted AreaUnderPRC: 0.878015000086389
Mean absolute error: 0.24465343086033284
Coverage of cases: 99.18495297805643
Instances selection time: 3.0
Test time: 190.0
Accumulative iteration time: 4323.0
Weighted Recall: 0.9115987460815047
Weighted FalsePositiveRate: 0.05046554807407847
Kappa statistic: 0.8570045182235866
Training time: 1033.0
		
Iteration: 6
Labeled set size: 419
Unlabelled set size: 1176
	
Mean region size: 66.89655172413677
Incorrectly Classified Instances: 9.090909090909092
Correctly Classified Instances: 90.9090909090909
Weighted Precision: 0.9105398522989185
Weighted AreaUnderROC: 0.9449213288610037
Root mean squared error: 0.3100544328116701
Relative absolute error: 55.07836990595607
Root relative squared error: 65.77247759342347
Weighted TruePositiveRate: 0.9090909090909091
Weighted MatthewsCorrelation: 0.853898747130346
Weighted FMeasure: 0.9094681068702652
Iteration time: 1096.0
Weighted AreaUnderPRC: 0.8755395107824033
Mean absolute error: 0.2447927551375881
Coverage of cases: 99.12225705329153
Instances selection time: 3.0
Test time: 201.0
Accumulative iteration time: 5419.0
Weighted Recall: 0.9090909090909091
Weighted FalsePositiveRate: 0.04934529126017786
Kappa statistic: 0.8534451402275424
Training time: 1093.0
		
Iteration: 7
Labeled set size: 439
Unlabelled set size: 1156
	
Mean region size: 66.93834900731339
Incorrectly Classified Instances: 9.341692789968652
Correctly Classified Instances: 90.65830721003135
Weighted Precision: 0.9084743123238715
Weighted AreaUnderROC: 0.9438648731704599
Root mean squared error: 0.3114741376028677
Relative absolute error: 55.297805642633186
Root relative squared error: 66.07364245896511
Weighted TruePositiveRate: 0.9065830721003135
Weighted MatthewsCorrelation: 0.8507460184365635
Weighted FMeasure: 0.9070614482909098
Iteration time: 1200.0
Weighted AreaUnderPRC: 0.8713132416958627
Mean absolute error: 0.24576802507837528
Coverage of cases: 99.12225705329153
Instances selection time: 3.0
Test time: 192.0
Accumulative iteration time: 6619.0
Weighted Recall: 0.9065830721003135
Weighted FalsePositiveRate: 0.04918175003607808
Kappa statistic: 0.8496140925051621
Training time: 1197.0
		
Iteration: 8
Labeled set size: 459
Unlabelled set size: 1136
	
Mean region size: 66.98014629048997
Incorrectly Classified Instances: 9.467084639498433
Correctly Classified Instances: 90.53291536050156
Weighted Precision: 0.9076910679668218
Weighted AreaUnderROC: 0.9435546878896849
Root mean squared error: 0.31199555826279407
Relative absolute error: 55.39184952978053
Root relative squared error: 66.18425248431053
Weighted TruePositiveRate: 0.9053291536050156
Weighted MatthewsCorrelation: 0.84926896566018
Weighted FMeasure: 0.9059003710902913
Iteration time: 1347.0
Weighted AreaUnderPRC: 0.8709172129984539
Mean absolute error: 0.24618599791014126
Coverage of cases: 99.05956112852665
Instances selection time: 3.0
Test time: 191.0
Accumulative iteration time: 7966.0
Weighted Recall: 0.9053291536050156
Weighted FalsePositiveRate: 0.04861991832089439
Kappa statistic: 0.8478096712532187
Training time: 1344.0
		
Iteration: 9
Labeled set size: 479
Unlabelled set size: 1116
	
Mean region size: 66.95924764890167
Incorrectly Classified Instances: 9.529780564263323
Correctly Classified Instances: 90.47021943573668
Weighted Precision: 0.906993304578285
Weighted AreaUnderROC: 0.9442593474079157
Root mean squared error: 0.31139957766461146
Relative absolute error: 55.2978056426332
Root relative squared error: 66.05782590758137
Weighted TruePositiveRate: 0.9047021943573668
Weighted MatthewsCorrelation: 0.8485271550858338
Weighted FMeasure: 0.9052854307836316
Iteration time: 1445.0
Weighted AreaUnderPRC: 0.8710891418818711
Mean absolute error: 0.24576802507837536
Coverage of cases: 99.18495297805643
Instances selection time: 3.0
Test time: 197.0
Accumulative iteration time: 9411.0
Weighted Recall: 0.9047021943573668
Weighted FalsePositiveRate: 0.04929537739145669
Kappa statistic: 0.8466730247230577
Training time: 1442.0
		
Iteration: 10
Labeled set size: 499
Unlabelled set size: 1096
	
Mean region size: 66.98014629048997
Incorrectly Classified Instances: 9.592476489028213
Correctly Classified Instances: 90.40752351097179
Weighted Precision: 0.9063297748324703
Weighted AreaUnderROC: 0.943711207011472
Root mean squared error: 0.31177219904676756
Relative absolute error: 55.36050156739808
Root relative squared error: 66.13687083942268
Weighted TruePositiveRate: 0.9040752351097179
Weighted MatthewsCorrelation: 0.8476847410266207
Weighted FMeasure: 0.9046599848953465
Iteration time: 1482.0
Weighted AreaUnderPRC: 0.8698563855721858
Mean absolute error: 0.24604667363288596
Coverage of cases: 99.18495297805643
Instances selection time: 3.0
Test time: 196.0
Accumulative iteration time: 10893.0
Weighted Recall: 0.9040752351097179
Weighted FalsePositiveRate: 0.049494863298645324
Kappa statistic: 0.8456640994084218
Training time: 1479.0
		
Iteration: 11
Labeled set size: 519
Unlabelled set size: 1076
	
Mean region size: 66.95924764890168
Incorrectly Classified Instances: 8.714733542319749
Correctly Classified Instances: 91.28526645768025
Weighted Precision: 0.9150392246994589
Weighted AreaUnderROC: 0.9487972780538471
Root mean squared error: 0.3084776837396496
Relative absolute error: 54.8902821316614
Root relative squared error: 65.43799860510688
Weighted TruePositiveRate: 0.9128526645768025
Weighted MatthewsCorrelation: 0.860676375901033
Weighted FMeasure: 0.9133326010443484
Iteration time: 1673.0
Weighted AreaUnderPRC: 0.880107117801098
Mean absolute error: 0.2439568094740562
Coverage of cases: 99.3730407523511
Instances selection time: 2.0
Test time: 195.0
Accumulative iteration time: 12566.0
Weighted Recall: 0.9128526645768025
Weighted FalsePositiveRate: 0.044802937207563294
Kappa statistic: 0.8598652157533986
Training time: 1671.0
		
Iteration: 12
Labeled set size: 539
Unlabelled set size: 1056
	
Mean region size: 66.91745036572506
Incorrectly Classified Instances: 7.962382445141066
Correctly Classified Instances: 92.03761755485894
Weighted Precision: 0.9225741462680478
Weighted AreaUnderROC: 0.9538252216650019
Root mean squared error: 0.30522368855980553
Relative absolute error: 54.42006269592472
Root relative squared error: 64.74772198782208
Weighted TruePositiveRate: 0.9203761755485893
Weighted MatthewsCorrelation: 0.8731697266901691
Weighted FMeasure: 0.9208410022987579
Iteration time: 1740.0
Weighted AreaUnderPRC: 0.8909713163380376
Mean absolute error: 0.24186694531522648
Coverage of cases: 99.43573667711598
Instances selection time: 2.0
Test time: 195.0
Accumulative iteration time: 14306.0
Weighted Recall: 0.9203761755485893
Weighted FalsePositiveRate: 0.039551904694470987
Kappa statistic: 0.8719990243452402
Training time: 1738.0
		
Iteration: 13
Labeled set size: 559
Unlabelled set size: 1036
	
Mean region size: 67.00104493207827
Incorrectly Classified Instances: 8.401253918495298
Correctly Classified Instances: 91.5987460815047
Weighted Precision: 0.9189125654200101
Weighted AreaUnderROC: 0.9528306447774736
Root mean squared error: 0.306514280737184
Relative absolute error: 54.639498432601854
Root relative squared error: 65.02149793193325
Weighted TruePositiveRate: 0.915987460815047
Weighted MatthewsCorrelation: 0.8679424635524334
Weighted FMeasure: 0.9166285474861195
Iteration time: 1788.0
Weighted AreaUnderPRC: 0.8867221252268161
Mean absolute error: 0.24284221525601374
Coverage of cases: 99.49843260188088
Instances selection time: 2.0
Test time: 201.0
Accumulative iteration time: 16094.0
Weighted Recall: 0.915987460815047
Weighted FalsePositiveRate: 0.03950676008880329
Kappa statistic: 0.8651710768524232
Training time: 1786.0
		
Iteration: 14
Labeled set size: 579
Unlabelled set size: 1016
	
Mean region size: 66.89655172413676
Incorrectly Classified Instances: 8.087774294670846
Correctly Classified Instances: 91.91222570532915
Weighted Precision: 0.9220643829854356
Weighted AreaUnderROC: 0.9548234834329774
Root mean squared error: 0.30461445903311773
Relative absolute error: 54.32601880877739
Root relative squared error: 64.61848488893607
Weighted TruePositiveRate: 0.9191222570532915
Weighted MatthewsCorrelation: 0.8723470211008474
Weighted FMeasure: 0.9197115178765312
Iteration time: 1942.0
Weighted AreaUnderPRC: 0.8934454847331126
Mean absolute error: 0.24144897248346056
Coverage of cases: 99.43573667711598
Instances selection time: 3.0
Test time: 203.0
Accumulative iteration time: 18036.0
Weighted Recall: 0.9191222570532915
Weighted FalsePositiveRate: 0.03803472003607318
Kappa statistic: 0.8702385975135607
Training time: 1939.0
		
Iteration: 15
Labeled set size: 599
Unlabelled set size: 996
	
Mean region size: 66.89655172413677
Incorrectly Classified Instances: 7.836990595611285
Correctly Classified Instances: 92.16300940438872
Weighted Precision: 0.9237964079707351
Weighted AreaUnderROC: 0.9545512620567896
Root mean squared error: 0.30392761608691143
Relative absolute error: 54.23197492163007
Root relative squared error: 64.47278349747428
Weighted TruePositiveRate: 0.9216300940438872
Weighted MatthewsCorrelation: 0.8756621866263544
Weighted FMeasure: 0.9221174725474274
Iteration time: 2067.0
Weighted AreaUnderPRC: 0.8946583124144296
Mean absolute error: 0.24103099965169467
Coverage of cases: 99.43573667711598
Instances selection time: 2.0
Test time: 199.0
Accumulative iteration time: 20103.0
Weighted Recall: 0.9216300940438872
Weighted FalsePositiveRate: 0.03867559707013335
Kappa statistic: 0.8739441339369265
Training time: 2065.0
		
Iteration: 16
Labeled set size: 619
Unlabelled set size: 976
	
Mean region size: 66.95924764890167
Incorrectly Classified Instances: 7.586206896551724
Correctly Classified Instances: 92.41379310344827
Weighted Precision: 0.9262936630910604
Weighted AreaUnderROC: 0.9564931717734206
Root mean squared error: 0.3030094036680245
Relative absolute error: 54.13793103448273
Root relative squared error: 64.27800122908488
Weighted TruePositiveRate: 0.9241379310344827
Weighted MatthewsCorrelation: 0.8794911661431267
Weighted FMeasure: 0.9245926128656027
Iteration time: 2151.0
Weighted AreaUnderPRC: 0.8984046309842135
Mean absolute error: 0.24061302681992872
Coverage of cases: 99.49843260188088
Instances selection time: 2.0
Test time: 202.0
Accumulative iteration time: 22254.0
Weighted Recall: 0.9241379310344827
Weighted FalsePositiveRate: 0.03692706976121818
Kappa statistic: 0.8780461604082084
Training time: 2149.0
		
Iteration: 17
Labeled set size: 639
Unlabelled set size: 956
	
Mean region size: 66.93834900731339
Incorrectly Classified Instances: 7.899686520376176
Correctly Classified Instances: 92.10031347962382
Weighted Precision: 0.9229993997369657
Weighted AreaUnderROC: 0.954524390408299
Root mean squared error: 0.30400400860190124
Relative absolute error: 54.26332288401251
Root relative squared error: 64.48898879708864
Weighted TruePositiveRate: 0.9210031347962383
Weighted MatthewsCorrelation: 0.8744922427014341
Weighted FMeasure: 0.9214556840155022
Iteration time: 2325.0
Weighted AreaUnderPRC: 0.8949905564566826
Mean absolute error: 0.24117032392894996
Coverage of cases: 99.43573667711598
Instances selection time: 2.0
Test time: 198.0
Accumulative iteration time: 24579.0
Weighted Recall: 0.9210031347962383
Weighted FalsePositiveRate: 0.039354462757162416
Kappa statistic: 0.8728997661892004
Training time: 2323.0
		
Iteration: 18
Labeled set size: 659
Unlabelled set size: 936
	
Mean region size: 66.89655172413677
Incorrectly Classified Instances: 7.335423197492163
Correctly Classified Instances: 92.66457680250784
Weighted Precision: 0.9284934790947449
Weighted AreaUnderROC: 0.9568504349708534
Root mean squared error: 0.3025492524478307
Relative absolute error: 54.04388714733539
Root relative squared error: 64.1803884146338
Weighted TruePositiveRate: 0.9266457680250784
Weighted MatthewsCorrelation: 0.883245634489497
Weighted FMeasure: 0.9270409841523124
Iteration time: 2590.0
Weighted AreaUnderPRC: 0.9006776846301754
Mean absolute error: 0.24019505398816274
Coverage of cases: 99.3730407523511
Instances selection time: 2.0
Test time: 198.0
Accumulative iteration time: 27169.0
Weighted Recall: 0.9266457680250784
Weighted FalsePositiveRate: 0.0361359393653972
Kappa statistic: 0.8819777571884377
Training time: 2588.0
		
Iteration: 19
Labeled set size: 679
Unlabelled set size: 916
	
Mean region size: 66.91745036572506
Incorrectly Classified Instances: 7.2727272727272725
Correctly Classified Instances: 92.72727272727273
Weighted Precision: 0.9288236170123368
Weighted AreaUnderROC: 0.9573274338987426
Root mean squared error: 0.30201152325114816
Relative absolute error: 53.981191222570494
Root relative squared error: 64.06631882620894
Weighted TruePositiveRate: 0.9272727272727272
Weighted MatthewsCorrelation: 0.8838069025541317
Weighted FMeasure: 0.9276244264988156
Iteration time: 2500.0
Weighted AreaUnderPRC: 0.9009987234107437
Mean absolute error: 0.23991640543365209
Coverage of cases: 99.49843260188088
Instances selection time: 2.0
Test time: 201.0
Accumulative iteration time: 29669.0
Weighted Recall: 0.9272727272727272
Weighted FalsePositiveRate: 0.036892487724716046
Kappa statistic: 0.8828550643246121
Training time: 2498.0
		
Iteration: 20
Labeled set size: 699
Unlabelled set size: 896
	
Mean region size: 66.89655172413681
Incorrectly Classified Instances: 7.962382445141066
Correctly Classified Instances: 92.03761755485894
Weighted Precision: 0.923239907596425
Weighted AreaUnderROC: 0.9527548755873944
Root mean squared error: 0.3057557686100387
Relative absolute error: 54.48275862068961
Root relative squared error: 64.86059321131826
Weighted TruePositiveRate: 0.9203761755485893
Weighted MatthewsCorrelation: 0.873768001320312
Weighted FMeasure: 0.9209141341842775
Iteration time: 2652.0
Weighted AreaUnderPRC: 0.891696796408458
Mean absolute error: 0.24214559386973708
Coverage of cases: 99.24764890282131
Instances selection time: 2.0
Test time: 202.0
Accumulative iteration time: 32321.0
Weighted Recall: 0.9203761755485893
Weighted FalsePositiveRate: 0.03764596807109622
Kappa statistic: 0.8722849558972806
Training time: 2650.0
		
Iteration: 21
Labeled set size: 719
Unlabelled set size: 876
	
Mean region size: 67.02194357366658
Incorrectly Classified Instances: 8.401253918495298
Correctly Classified Instances: 91.5987460815047
Weighted Precision: 0.9188933573398405
Weighted AreaUnderROC: 0.9502169991198208
Root mean squared error: 0.30757305515333755
Relative absolute error: 54.79623824451405
Root relative squared error: 65.24609790275595
Weighted TruePositiveRate: 0.915987460815047
Weighted MatthewsCorrelation: 0.8666295426470654
Weighted FMeasure: 0.9165420608474607
Iteration time: 2695.0
Weighted AreaUnderPRC: 0.8863858089012409
Mean absolute error: 0.2435388366422902
Coverage of cases: 99.24764890282131
Instances selection time: 2.0
Test time: 202.0
Accumulative iteration time: 35016.0
Weighted Recall: 0.915987460815047
Weighted FalsePositiveRate: 0.04047028891153766
Kappa statistic: 0.865245459056321
Training time: 2693.0
		
Iteration: 22
Labeled set size: 739
Unlabelled set size: 856
	
Mean region size: 66.98014629048998
Incorrectly Classified Instances: 8.150470219435737
Correctly Classified Instances: 91.84952978056427
Weighted Precision: 0.9207428821568261
Weighted AreaUnderROC: 0.9528000011584586
Root mean squared error: 0.305907621496783
Relative absolute error: 54.545454545454504
Root relative squared error: 64.89280607310616
Weighted TruePositiveRate: 0.9184952978056427
Weighted MatthewsCorrelation: 0.8707117458055957
Weighted FMeasure: 0.9190052989580244
Iteration time: 2932.0
Weighted AreaUnderPRC: 0.889102391090929
Mean absolute error: 0.24242424242424776
Coverage of cases: 99.43573667711598
Instances selection time: 2.0
Test time: 202.0
Accumulative iteration time: 37948.0
Weighted Recall: 0.9184952978056427
Weighted FalsePositiveRate: 0.04015445035579699
Kappa statistic: 0.8689745513002388
Training time: 2930.0
		
Iteration: 23
Labeled set size: 759
Unlabelled set size: 836
	
Mean region size: 66.98014629048998
Incorrectly Classified Instances: 7.899686520376176
Correctly Classified Instances: 92.10031347962382
Weighted Precision: 0.9225422843089952
Weighted AreaUnderROC: 0.9523256112142855
Root mean squared error: 0.30590762149678313
Relative absolute error: 54.5454545454545
Root relative squared error: 64.89280607310617
Weighted TruePositiveRate: 0.9210031347962383
Weighted MatthewsCorrelation: 0.8740839701626856
Weighted FMeasure: 0.9213921036190722
Iteration time: 3099.0
Weighted AreaUnderPRC: 0.8913337268635813
Mean absolute error: 0.2424242424242477
Coverage of cases: 99.18495297805643
Instances selection time: 2.0
Test time: 212.0
Accumulative iteration time: 41047.0
Weighted Recall: 0.9210031347962383
Weighted FalsePositiveRate: 0.0407946460665638
Kappa statistic: 0.8726842173281741
Training time: 3097.0
		
Iteration: 24
Labeled set size: 779
Unlabelled set size: 816
	
Mean region size: 66.95924764890168
Incorrectly Classified Instances: 7.962382445141066
Correctly Classified Instances: 92.03761755485894
Weighted Precision: 0.9220866457749382
Weighted AreaUnderROC: 0.9508388680810802
Root mean squared error: 0.30689283377849036
Relative absolute error: 54.67084639498428
Root relative squared error: 65.10180115869721
Weighted TruePositiveRate: 0.9203761755485893
Weighted MatthewsCorrelation: 0.87293366269034
Weighted FMeasure: 0.9207986214225554
Iteration time: 3213.0
Weighted AreaUnderPRC: 0.8891840402034779
Mean absolute error: 0.242981539533269
Coverage of cases: 99.05956112852665
Instances selection time: 2.0
Test time: 203.0
Accumulative iteration time: 44260.0
Weighted Recall: 0.9203761755485893
Weighted FalsePositiveRate: 0.04099549462033914
Kappa statistic: 0.8717459244119933
Training time: 3211.0
		
Iteration: 25
Labeled set size: 799
Unlabelled set size: 796
	
Mean region size: 66.9592476489017
Incorrectly Classified Instances: 7.836990595611285
Correctly Classified Instances: 92.16300940438872
Weighted Precision: 0.9228540154151558
Weighted AreaUnderROC: 0.9518102648499783
Root mean squared error: 0.30552784776687747
Relative absolute error: 54.482758620689616
Root relative squared error: 64.81224389918634
Weighted TruePositiveRate: 0.9216300940438872
Weighted MatthewsCorrelation: 0.8739713884226467
Weighted FMeasure: 0.9219361891091766
Iteration time: 3102.0
Weighted AreaUnderPRC: 0.8921630751274797
Mean absolute error: 0.2421455938697371
Coverage of cases: 99.18495297805643
Instances selection time: 1.0
Test time: 208.0
Accumulative iteration time: 47362.0
Weighted Recall: 0.9216300940438872
Weighted FalsePositiveRate: 0.04203057420572309
Kappa statistic: 0.8735880698840021
Training time: 3101.0
		
Iteration: 26
Labeled set size: 819
Unlabelled set size: 776
	
Mean region size: 66.95924764890168
Incorrectly Classified Instances: 7.962382445141066
Correctly Classified Instances: 92.03761755485894
Weighted Precision: 0.9219386956735539
Weighted AreaUnderROC: 0.9513887769321301
Root mean squared error: 0.3062111013546475
Relative absolute error: 54.57680250783695
Root relative squared error: 64.957183872741
Weighted TruePositiveRate: 0.9203761755485893
Weighted MatthewsCorrelation: 0.8726021542594495
Weighted FMeasure: 0.9207562590008532
Iteration time: 3701.0
Weighted AreaUnderPRC: 0.890006620994508
Mean absolute error: 0.24256356670150306
Coverage of cases: 99.18495297805643
Instances selection time: 2.0
Test time: 203.0
Accumulative iteration time: 51063.0
Weighted Recall: 0.9203761755485893
Weighted FalsePositiveRate: 0.041472149107006175
Kappa statistic: 0.8717099409041769
Training time: 3699.0
		
Iteration: 27
Labeled set size: 839
Unlabelled set size: 756
	
Mean region size: 66.91745036572509
Incorrectly Classified Instances: 7.648902821316614
Correctly Classified Instances: 92.35109717868339
Weighted Precision: 0.9250772557673584
Weighted AreaUnderROC: 0.9536112179472731
Root mean squared error: 0.30476688058833185
Relative absolute error: 54.35736677115984
Root relative squared error: 64.65081838352333
Weighted TruePositiveRate: 0.9235109717868338
Weighted MatthewsCorrelation: 0.8778622372580578
Weighted FMeasure: 0.9239004495774144
Iteration time: 3501.0
Weighted AreaUnderPRC: 0.8949103311732756
Mean absolute error: 0.2415882967607159
Coverage of cases: 99.18495297805643
Instances selection time: 1.0
Test time: 207.0
Accumulative iteration time: 54564.0
Weighted Recall: 0.9235109717868338
Weighted FalsePositiveRate: 0.03952481721419573
Kappa statistic: 0.876725832016694
Training time: 3500.0
		
Iteration: 28
Labeled set size: 859
Unlabelled set size: 736
	
Mean region size: 66.93834900731339
Incorrectly Classified Instances: 8.150470219435737
Correctly Classified Instances: 91.84952978056427
Weighted Precision: 0.9199266454379716
Weighted AreaUnderROC: 0.9507116937180815
Root mean squared error: 0.30651428073718406
Relative absolute error: 54.6081504702194
Root relative squared error: 65.02149793193327
Weighted TruePositiveRate: 0.9184952978056427
Weighted MatthewsCorrelation: 0.8695353947372134
Weighted FMeasure: 0.918860358664516
Iteration time: 3657.0
Weighted AreaUnderPRC: 0.8875998957601302
Mean absolute error: 0.24270289097875838
Coverage of cases: 99.24764890282131
Instances selection time: 1.0
Test time: 213.0
Accumulative iteration time: 58221.0
Weighted Recall: 0.9184952978056427
Weighted FalsePositiveRate: 0.04302323447861276
Kappa statistic: 0.8686055714786325
Training time: 3656.0
		
Iteration: 29
Labeled set size: 879
Unlabelled set size: 716
	
Mean region size: 66.87565308254848
Incorrectly Classified Instances: 7.836990595611285
Correctly Classified Instances: 92.16300940438872
Weighted Precision: 0.923140736559382
Weighted AreaUnderROC: 0.9515465439919293
Root mean squared error: 0.30628692433497373
Relative absolute error: 54.545454545454504
Root relative squared error: 64.97326835580854
Weighted TruePositiveRate: 0.9216300940438872
Weighted MatthewsCorrelation: 0.8748958668706375
Weighted FMeasure: 0.9220091991257094
Iteration time: 3796.0
Weighted AreaUnderPRC: 0.890129027044232
Mean absolute error: 0.24242424242424776
Coverage of cases: 99.05956112852665
Instances selection time: 1.0
Test time: 206.0
Accumulative iteration time: 62017.0
Weighted Recall: 0.9216300940438872
Weighted FalsePositiveRate: 0.040596522805961884
Kappa statistic: 0.8736947400629832
Training time: 3795.0
		
Iteration: 30
Labeled set size: 899
Unlabelled set size: 696
	
Mean region size: 66.87565308254848
Incorrectly Classified Instances: 7.7115987460815045
Correctly Classified Instances: 92.2884012539185
Weighted Precision: 0.9242695250804472
Weighted AreaUnderROC: 0.9525511476321691
Root mean squared error: 0.3053758060317757
Relative absolute error: 54.42006269592472
Root relative squared error: 64.7799909766122
Weighted TruePositiveRate: 0.922884012539185
Weighted MatthewsCorrelation: 0.8765664240844119
Weighted FMeasure: 0.9232409066118316
Iteration time: 3973.0
Weighted AreaUnderPRC: 0.8917947204676604
Mean absolute error: 0.24186694531522646
Coverage of cases: 99.18495297805643
Instances selection time: 2.0
Test time: 210.0
Accumulative iteration time: 65990.0
Weighted Recall: 0.922884012539185
Weighted FalsePositiveRate: 0.04115971716773227
Kappa statistic: 0.875539797003972
Training time: 3971.0
		
Iteration: 31
Labeled set size: 919
Unlabelled set size: 676
	
Mean region size: 66.81295715778359
Incorrectly Classified Instances: 7.899686520376176
Correctly Classified Instances: 92.10031347962382
Weighted Precision: 0.9222887406335682
Weighted AreaUnderROC: 0.9505714871335706
Root mean squared error: 0.3067414686231527
Relative absolute error: 54.576802507836945
Root relative squared error: 65.06969176036483
Weighted TruePositiveRate: 0.9210031347962383
Weighted MatthewsCorrelation: 0.8733760398980002
Weighted FMeasure: 0.9213303513100708
Iteration time: 4220.0
Weighted AreaUnderPRC: 0.8882751440498535
Mean absolute error: 0.24256356670150303
Coverage of cases: 98.99686520376176
Instances selection time: 1.0
Test time: 205.0
Accumulative iteration time: 70210.0
Weighted Recall: 0.9210031347962383
Weighted FalsePositiveRate: 0.04223074143620507
Kappa statistic: 0.872540407868158
Training time: 4219.0
		
Iteration: 32
Labeled set size: 939
Unlabelled set size: 656
	
Mean region size: 66.95924764890168
Incorrectly Classified Instances: 8.213166144200628
Correctly Classified Instances: 91.78683385579937
Weighted Precision: 0.9194299341820192
Weighted AreaUnderROC: 0.9494023300012506
Root mean squared error: 0.30734648196962133
Relative absolute error: 54.733542319749176
Root relative squared error: 65.19803447236373
Weighted TruePositiveRate: 0.9178683385579938
Weighted MatthewsCorrelation: 0.8681709758382579
Weighted FMeasure: 0.9182321455817323
Iteration time: 4130.0
Weighted AreaUnderPRC: 0.8863427325122656
Mean absolute error: 0.24326018808777963
Coverage of cases: 99.12225705329153
Instances selection time: 2.0
Test time: 213.0
Accumulative iteration time: 74340.0
Weighted Recall: 0.9178683385579938
Weighted FalsePositiveRate: 0.043220676415921325
Kappa statistic: 0.8677068447754825
Training time: 4128.0
		
Iteration: 33
Labeled set size: 959
Unlabelled set size: 636
	
Mean region size: 66.9592476489017
Incorrectly Classified Instances: 8.150470219435737
Correctly Classified Instances: 91.84952978056427
Weighted Precision: 0.9198096457200855
Weighted AreaUnderROC: 0.950424664800832
Root mean squared error: 0.3064385140123244
Relative absolute error: 54.60815047021941
Root relative squared error: 65.0054253824523
Weighted TruePositiveRate: 0.9184952978056427
Weighted MatthewsCorrelation: 0.8694177952076597
Weighted FMeasure: 0.9188412991765638
Iteration time: 4505.0
Weighted AreaUnderPRC: 0.8892511313701489
Mean absolute error: 0.2427028909787584
Coverage of cases: 99.12225705329153
Instances selection time: 2.0
Test time: 213.0
Accumulative iteration time: 78845.0
Weighted Recall: 0.9184952978056427
Weighted FalsePositiveRate: 0.043501932935159845
Kappa statistic: 0.8685314259664224
Training time: 4503.0
		
Iteration: 34
Labeled set size: 979
Unlabelled set size: 616
	
Mean region size: 66.93834900731339
Incorrectly Classified Instances: 8.150470219435737
Correctly Classified Instances: 91.84952978056427
Weighted Precision: 0.9200677833274025
Weighted AreaUnderROC: 0.9495121119699442
Root mean squared error: 0.3069684883670373
Relative absolute error: 54.670846394984295
Root relative squared error: 65.11784992047403
Weighted TruePositiveRate: 0.9184952978056427
Weighted MatthewsCorrelation: 0.8687323022481737
Weighted FMeasure: 0.9188627720733858
Iteration time: 4588.0
Weighted AreaUnderPRC: 0.8884513124565151
Mean absolute error: 0.24298153953326904
Coverage of cases: 99.05956112852665
Instances selection time: 1.0
Test time: 212.0
Accumulative iteration time: 83433.0
Weighted Recall: 0.9184952978056427
Weighted FalsePositiveRate: 0.043504658228333264
Kappa statistic: 0.8686792175599352
Training time: 4587.0
		
Iteration: 35
Labeled set size: 999
Unlabelled set size: 596
	
Mean region size: 66.9592476489017
Incorrectly Classified Instances: 7.899686520376176
Correctly Classified Instances: 92.10031347962382
Weighted Precision: 0.9226059454668881
Weighted AreaUnderROC: 0.9520463783850379
Root mean squared error: 0.30552784776687747
Relative absolute error: 54.48275862068962
Root relative squared error: 64.81224389918634
Weighted TruePositiveRate: 0.9210031347962383
Weighted MatthewsCorrelation: 0.8730489919896075
Weighted FMeasure: 0.9213535427924857
Iteration time: 4784.0
Weighted AreaUnderPRC: 0.8925249316583415
Mean absolute error: 0.24214559386973716
Coverage of cases: 99.18495297805643
Instances selection time: 1.0
Test time: 215.0
Accumulative iteration time: 88217.0
Weighted Recall: 0.9210031347962383
Weighted FalsePositiveRate: 0.04127266319981754
Kappa statistic: 0.8727917207329813
Training time: 4783.0
		
Iteration: 36
Labeled set size: 1019
Unlabelled set size: 576
	
Mean region size: 66.98014629048998
Incorrectly Classified Instances: 7.460815047021944
Correctly Classified Instances: 92.53918495297806
Weighted Precision: 0.9267395793309715
Weighted AreaUnderROC: 0.9539749945442089
Root mean squared error: 0.3045382196478584
Relative absolute error: 54.35736677115984
Root relative squared error: 64.60231207304295
Weighted TruePositiveRate: 0.9253918495297806
Weighted MatthewsCorrelation: 0.8801776628457206
Weighted FMeasure: 0.9257156898605942
Iteration time: 4739.0
Weighted AreaUnderPRC: 0.896089967246035
Mean absolute error: 0.2415882967607159
Coverage of cases: 99.18495297805643
Instances selection time: 2.0
Test time: 215.0
Accumulative iteration time: 92956.0
Weighted Recall: 0.9253918495297806
Weighted FalsePositiveRate: 0.03940710191905699
Kappa statistic: 0.8796894065446479
Training time: 4737.0
		
Iteration: 37
Labeled set size: 1039
Unlabelled set size: 556
	
Mean region size: 66.89655172413677
Incorrectly Classified Instances: 7.962382445141066
Correctly Classified Instances: 92.03761755485894
Weighted Precision: 0.9219386956735539
Weighted AreaUnderROC: 0.9507223364087924
Root mean squared error: 0.306665758028732
Relative absolute error: 54.60815047021941
Root relative squared error: 65.05363111794807
Weighted TruePositiveRate: 0.9203761755485893
Weighted MatthewsCorrelation: 0.8726021542594495
Weighted FMeasure: 0.9207562590008532
Iteration time: 5048.0
Weighted AreaUnderPRC: 0.8904137843665194
Mean absolute error: 0.2427028909787584
Coverage of cases: 98.93416927899686
Instances selection time: 1.0
Test time: 209.0
Accumulative iteration time: 98004.0
Weighted Recall: 0.9203761755485893
Weighted FalsePositiveRate: 0.041472149107006175
Kappa statistic: 0.8717099409041769
Training time: 5047.0
		
Iteration: 38
Labeled set size: 1059
Unlabelled set size: 536
	
Mean region size: 66.83385579937188
Incorrectly Classified Instances: 7.398119122257054
Correctly Classified Instances: 92.60188087774294
Weighted Precision: 0.9273617969935634
Weighted AreaUnderROC: 0.954731691845484
Root mean squared error: 0.3041567360712703
Relative absolute error: 54.23197492163007
Root relative squared error: 64.52138718586794
Weighted TruePositiveRate: 0.9260188087774295
Weighted MatthewsCorrelation: 0.8820772410021682
Weighted FMeasure: 0.926389562215499
Iteration time: 5294.0
Weighted AreaUnderPRC: 0.896605957719042
Mean absolute error: 0.24103099965169467
Coverage of cases: 99.12225705329153
Instances selection time: 1.0
Test time: 216.0
Accumulative iteration time: 103298.0
Weighted Recall: 0.9260188087774295
Weighted FalsePositiveRate: 0.03873232417178804
Kappa statistic: 0.8805993820933966
Training time: 5293.0
		
Iteration: 39
Labeled set size: 1079
Unlabelled set size: 516
	
Mean region size: 66.81295715778359
Incorrectly Classified Instances: 7.460815047021944
Correctly Classified Instances: 92.53918495297806
Weighted Precision: 0.9268623259605879
Weighted AreaUnderROC: 0.9538480868878704
Root mean squared error: 0.304690679341838
Relative absolute error: 54.29467084639495
Root relative squared error: 64.63465365808415
Weighted TruePositiveRate: 0.9253918495297806
Weighted MatthewsCorrelation: 0.8804966583633632
Weighted FMeasure: 0.9257514587185529
Iteration time: 5161.0
Weighted AreaUnderPRC: 0.8947110025614788
Mean absolute error: 0.24130964820620526
Coverage of cases: 99.12225705329153
Instances selection time: 1.0
Test time: 219.0
Accumulative iteration time: 108459.0
Weighted Recall: 0.9253918495297806
Weighted FalsePositiveRate: 0.038929766109096604
Kappa statistic: 0.8797232567143769
Training time: 5160.0
		
Iteration: 40
Labeled set size: 1099
Unlabelled set size: 496
	
Mean region size: 66.89655172413678
Incorrectly Classified Instances: 7.586206896551724
Correctly Classified Instances: 92.41379310344827
Weighted Precision: 0.9257669476395819
Weighted AreaUnderROC: 0.9544419102780399
Root mean squared error: 0.30438568359038126
Relative absolute error: 54.29467084639495
Root relative squared error: 64.56995428885769
Weighted TruePositiveRate: 0.9241379310344827
Weighted MatthewsCorrelation: 0.8792458131366269
Weighted FMeasure: 0.9245322380319994
Iteration time: 5427.0
Weighted AreaUnderPRC: 0.8951807557424486
Mean absolute error: 0.24130964820620526
Coverage of cases: 99.24764890282131
Instances selection time: 1.0
Test time: 223.0
Accumulative iteration time: 113886.0
Weighted Recall: 0.9241379310344827
Weighted FalsePositiveRate: 0.03836793439391293
Kappa statistic: 0.8778054815475163
Training time: 5426.0
		
Iteration: 41
Labeled set size: 1119
Unlabelled set size: 476
	
Mean region size: 66.87565308254848
Incorrectly Classified Instances: 7.398119122257054
Correctly Classified Instances: 92.60188087774294
Weighted Precision: 0.9281580184361002
Weighted AreaUnderROC: 0.9567134005374077
Root mean squared error: 0.3035453651293562
Relative absolute error: 54.169278996865174
Root relative squared error: 64.39169582421358
Weighted TruePositiveRate: 0.9260188087774295
Weighted MatthewsCorrelation: 0.8830788950633031
Weighted FMeasure: 0.926501179490954
Iteration time: 5266.0
Weighted AreaUnderPRC: 0.8987618880793239
Mean absolute error: 0.24075235109718404
Coverage of cases: 99.24764890282131
Instances selection time: 1.0
Test time: 221.0
Accumulative iteration time: 119152.0
Weighted Recall: 0.9260188087774295
Weighted FalsePositiveRate: 0.03538143497595842
Kappa statistic: 0.8810358308371359
Training time: 5265.0
		
Iteration: 42
Labeled set size: 1139
Unlabelled set size: 456
	
Mean region size: 66.91745036572509
Incorrectly Classified Instances: 7.460815047021944
Correctly Classified Instances: 92.53918495297806
Weighted Precision: 0.9272723198531932
Weighted AreaUnderROC: 0.9552808055493421
Root mean squared error: 0.30430938688944825
Relative absolute error: 54.294670846394936
Root relative squared error: 64.55376931447412
Weighted TruePositiveRate: 0.9253918495297806
Weighted MatthewsCorrelation: 0.8815396644070794
Weighted FMeasure: 0.9258393575454442
Iteration time: 5538.0
Weighted AreaUnderPRC: 0.8968996687910917
Mean absolute error: 0.2413096482062052
Coverage of cases: 99.18495297805643
Instances selection time: 1.0
Test time: 219.0
Accumulative iteration time: 124690.0
Weighted Recall: 0.9253918495297806
Weighted FalsePositiveRate: 0.03701633492949496
Kappa statistic: 0.8798924502560287
Training time: 5537.0
		
Iteration: 43
Labeled set size: 1159
Unlabelled set size: 436
	
Mean region size: 66.91745036572509
Incorrectly Classified Instances: 7.7115987460815045
Correctly Classified Instances: 92.2884012539185
Weighted Precision: 0.9245951569839831
Weighted AreaUnderROC: 0.9534608455334748
Root mean squared error: 0.30522368855980553
Relative absolute error: 54.42006269592473
Root relative squared error: 64.74772198782208
Weighted TruePositiveRate: 0.922884012539185
Weighted MatthewsCorrelation: 0.8771663221089161
Weighted FMeasure: 0.9233056128240484
Iteration time: 5870.0
Weighted AreaUnderPRC: 0.8941115546104532
Mean absolute error: 0.2418669453152265
Coverage of cases: 99.12225705329153
Instances selection time: 1.0
Test time: 215.0
Accumulative iteration time: 130560.0
Weighted Recall: 0.922884012539185
Weighted FalsePositiveRate: 0.03924492334154392
Kappa statistic: 0.8757854228557103
Training time: 5869.0
		
Iteration: 44
Labeled set size: 1179
Unlabelled set size: 416
	
Mean region size: 66.91745036572509
Incorrectly Classified Instances: 7.460815047021944
Correctly Classified Instances: 92.53918495297806
Weighted Precision: 0.9271185944910109
Weighted AreaUnderROC: 0.9549372719506523
Root mean squared error: 0.30430938688944825
Relative absolute error: 54.29467084639495
Root relative squared error: 64.55376931447412
Weighted TruePositiveRate: 0.9253918495297806
Weighted MatthewsCorrelation: 0.8814050116855396
Weighted FMeasure: 0.9258203935275734
Iteration time: 6186.0
Weighted AreaUnderPRC: 0.8974708440749919
Mean absolute error: 0.24130964820620526
Coverage of cases: 99.12225705329153
Instances selection time: 1.0
Test time: 214.0
Accumulative iteration time: 136746.0
Weighted Recall: 0.9253918495297806
Weighted FalsePositiveRate: 0.03749503338604205
Kappa statistic: 0.8798249212994269
Training time: 6185.0
		
Iteration: 45
Labeled set size: 1199
Unlabelled set size: 396
	
Mean region size: 66.93834900731338
Incorrectly Classified Instances: 7.7115987460815045
Correctly Classified Instances: 92.2884012539185
Weighted Precision: 0.9251191310922952
Weighted AreaUnderROC: 0.9540188083466252
Root mean squared error: 0.30491922595180193
Relative absolute error: 54.388714733542294
Root relative squared error: 64.68313571540094
Weighted TruePositiveRate: 0.922884012539185
Weighted MatthewsCorrelation: 0.8774092626076397
Weighted FMeasure: 0.9233670672756907
Iteration time: 6298.0
Weighted AreaUnderPRC: 0.8953355515246559
Mean absolute error: 0.2417276210379712
Coverage of cases: 99.18495297805643
Instances selection time: 1.0
Test time: 214.0
Accumulative iteration time: 143044.0
Weighted Recall: 0.922884012539185
Weighted FalsePositiveRate: 0.03781019061848935
Kappa statistic: 0.8760295327561083
Training time: 6297.0
		
Iteration: 46
Labeled set size: 1219
Unlabelled set size: 376
	
Mean region size: 66.98014629048998
Incorrectly Classified Instances: 7.7115987460815045
Correctly Classified Instances: 92.2884012539185
Weighted Precision: 0.9248219997705361
Weighted AreaUnderROC: 0.9549704970226012
Root mean squared error: 0.30408038192520176
Relative absolute error: 54.294670846394965
Root relative squared error: 64.50519002553091
Weighted TruePositiveRate: 0.922884012539185
Weighted MatthewsCorrelation: 0.8773347607384483
Weighted FMeasure: 0.9233441416468672
Iteration time: 6431.0
Weighted AreaUnderPRC: 0.8962494998642143
Mean absolute error: 0.2413096482062053
Coverage of cases: 99.3730407523511
Instances selection time: 1.0
Test time: 216.0
Accumulative iteration time: 149475.0
Weighted Recall: 0.922884012539185
Weighted FalsePositiveRate: 0.03876758753158353
Kappa statistic: 0.8758550645767548
Training time: 6430.0
		
Time end:Wed Nov 01 13.34.03 EET 2017