Wed Nov 01 14.35.57 EET 2017
Dataset: splice
Test set size: 1595
Initial Labelled set size: 319
Initial Unlabelled set size: 1276
Batch mode: QBestBatchMode
Batch size: 20
Classifiers: J48-1cores
Scenario: PoolBasedSamplingScenario
Query strategy: VoteEntropyQueryStrategy-1cores
Time begining: Wed Nov 01 14.35.57 EET 2017
		
Iteration: 1
Labeled set size: 319
Unlabelled set size: 1276
	
Mean region size: 44.86938349007275
Incorrectly Classified Instances: 15.61128526645768
Correctly Classified Instances: 84.38871473354232
Weighted Precision: 0.8484849794329506
Weighted AreaUnderROC: 0.9117102440240337
Root mean squared error: 0.2919816240001181
Relative absolute error: 27.04864638513098
Root relative squared error: 61.9386558937026
Weighted TruePositiveRate: 0.8438871473354232
Weighted MatthewsCorrelation: 0.7513734521609503
Weighted FMeasure: 0.8451369001988559
Iteration time: 18.0
Weighted AreaUnderPRC: 0.8309751448671249
Mean absolute error: 0.12021620615614041
Coverage of cases: 92.41379310344827
Instances selection time: 4.0
Test time: 10.0
Accumulative iteration time: 18.0
Weighted Recall: 0.8438871473354232
Weighted FalsePositiveRate: 0.08432605317164421
Kappa statistic: 0.7499515208598815
Training time: 14.0
		
Iteration: 2
Labeled set size: 339
Unlabelled set size: 1256
	
Mean region size: 47.565308254963256
Incorrectly Classified Instances: 16.551724137931036
Correctly Classified Instances: 83.44827586206897
Weighted Precision: 0.834531074704073
Weighted AreaUnderROC: 0.8967695139019216
Root mean squared error: 0.30318451574545474
Relative absolute error: 29.50659265102324
Root relative squared error: 64.31514811031046
Weighted TruePositiveRate: 0.8344827586206897
Weighted MatthewsCorrelation: 0.7305679214828878
Weighted FMeasure: 0.8344955869195676
Iteration time: 16.0
Weighted AreaUnderPRC: 0.8086514715293464
Mean absolute error: 0.1311404117823285
Coverage of cases: 91.91222570532915
Instances selection time: 2.0
Test time: 4.0
Accumulative iteration time: 34.0
Weighted Recall: 0.8344827586206897
Weighted FalsePositiveRate: 0.1045242332834347
Kappa statistic: 0.7305891490921747
Training time: 14.0
		
Iteration: 3
Labeled set size: 359
Unlabelled set size: 1236
	
Mean region size: 48.12957157784728
Incorrectly Classified Instances: 17.36677115987461
Correctly Classified Instances: 82.6332288401254
Weighted Precision: 0.8256558187382488
Weighted AreaUnderROC: 0.8864976249812487
Root mean squared error: 0.31022857776092033
Relative absolute error: 30.549937891722116
Root relative squared error: 65.80941931578073
Weighted TruePositiveRate: 0.826332288401254
Weighted MatthewsCorrelation: 0.7159214067834445
Weighted FMeasure: 0.8259289084621982
Iteration time: 16.0
Weighted AreaUnderPRC: 0.7947312002211718
Mean absolute error: 0.13577750174099026
Coverage of cases: 91.53605015673982
Instances selection time: 1.0
Test time: 4.0
Accumulative iteration time: 50.0
Weighted Recall: 0.826332288401254
Weighted FalsePositiveRate: 0.11284421714982479
Kappa statistic: 0.7164346169077019
Training time: 15.0
		
Iteration: 4
Labeled set size: 379
Unlabelled set size: 1216
	
Mean region size: 45.91431556948818
Incorrectly Classified Instances: 15.924764890282132
Correctly Classified Instances: 84.07523510971787
Weighted Precision: 0.8394408320326789
Weighted AreaUnderROC: 0.8823236577164688
Root mean squared error: 0.3087065610909213
Relative absolute error: 28.500509546538463
Root relative squared error: 65.48655082325016
Weighted TruePositiveRate: 0.8407523510971787
Weighted MatthewsCorrelation: 0.7388472061328398
Weighted FMeasure: 0.8391907649068803
Iteration time: 17.0
Weighted AreaUnderPRC: 0.7897392233581367
Mean absolute error: 0.1266689313179516
Coverage of cases: 90.34482758620689
Instances selection time: 2.0
Test time: 10.0
Accumulative iteration time: 67.0
Weighted Recall: 0.8407523510971787
Weighted FalsePositiveRate: 0.11163486473534341
Kappa statistic: 0.7372800020751462
Training time: 15.0
		
Iteration: 5
Labeled set size: 399
Unlabelled set size: 1196
	
Mean region size: 46.33228840125414
Incorrectly Classified Instances: 15.4858934169279
Correctly Classified Instances: 84.5141065830721
Weighted Precision: 0.8443583175763278
Weighted AreaUnderROC: 0.9016189243604286
Root mean squared error: 0.29836555451905816
Relative absolute error: 27.256223789070596
Root relative squared error: 63.29289206187246
Weighted TruePositiveRate: 0.845141065830721
Weighted MatthewsCorrelation: 0.7462085535183653
Weighted FMeasure: 0.8427131582152405
Iteration time: 18.0
Weighted AreaUnderPRC: 0.8200458786190462
Mean absolute error: 0.12113877239587205
Coverage of cases: 92.10031347962382
Instances selection time: 2.0
Test time: 9.0
Accumulative iteration time: 85.0
Weighted Recall: 0.845141065830721
Weighted FalsePositiveRate: 0.1135988911069596
Kappa statistic: 0.7429626512430556
Training time: 16.0
		
Iteration: 6
Labeled set size: 419
Unlabelled set size: 1176
	
Mean region size: 46.687565308255216
Incorrectly Classified Instances: 14.921630094043888
Correctly Classified Instances: 85.07836990595611
Weighted Precision: 0.8505318636711323
Weighted AreaUnderROC: 0.906425500118466
Root mean squared error: 0.29222765277728413
Relative absolute error: 26.368127374240927
Root relative squared error: 61.99084647871293
Weighted TruePositiveRate: 0.8507836990595611
Weighted MatthewsCorrelation: 0.7561052815193642
Weighted FMeasure: 0.8482466303481847
Iteration time: 17.0
Weighted AreaUnderPRC: 0.828555743985119
Mean absolute error: 0.11719167721885124
Coverage of cases: 92.53918495297806
Instances selection time: 1.0
Test time: 4.0
Accumulative iteration time: 102.0
Weighted Recall: 0.8507836990595611
Weighted FalsePositiveRate: 0.1108583848484481
Kappa statistic: 0.751968323870133
Training time: 16.0
		
Iteration: 7
Labeled set size: 439
Unlabelled set size: 1156
	
Mean region size: 47.147335423197646
Incorrectly Classified Instances: 14.921630094043888
Correctly Classified Instances: 85.07836990595611
Weighted Precision: 0.8505318636711323
Weighted AreaUnderROC: 0.907021918732391
Root mean squared error: 0.2928807202396318
Relative absolute error: 26.72323358941655
Root relative squared error: 62.12938300807243
Weighted TruePositiveRate: 0.8507836990595611
Weighted MatthewsCorrelation: 0.7561052815193642
Weighted FMeasure: 0.8482466303481847
Iteration time: 18.0
Weighted AreaUnderPRC: 0.8299567391923522
Mean absolute error: 0.11876992706407626
Coverage of cases: 92.78996865203762
Instances selection time: 1.0
Test time: 4.0
Accumulative iteration time: 120.0
Weighted Recall: 0.8507836990595611
Weighted FalsePositiveRate: 0.1108583848484481
Kappa statistic: 0.751968323870133
Training time: 17.0
		
Iteration: 8
Labeled set size: 459
Unlabelled set size: 1136
	
Mean region size: 51.95402298850594
Incorrectly Classified Instances: 15.987460815047022
Correctly Classified Instances: 84.01253918495298
Weighted Precision: 0.8408150981424428
Weighted AreaUnderROC: 0.8975650048712436
Root mean squared error: 0.30174967411365367
Relative absolute error: 29.45777503743546
Root relative squared error: 64.01077223597787
Weighted TruePositiveRate: 0.8401253918495298
Weighted MatthewsCorrelation: 0.7378513210196875
Weighted FMeasure: 0.83612692461357
Iteration time: 18.0
Weighted AreaUnderPRC: 0.810785448412083
Mean absolute error: 0.13092344461082725
Coverage of cases: 93.60501567398119
Instances selection time: 1.0
Test time: 4.0
Accumulative iteration time: 138.0
Weighted Recall: 0.8401253918495298
Weighted FalsePositiveRate: 0.12380044940962255
Kappa statistic: 0.732462646069245
Training time: 17.0
		
Iteration: 9
Labeled set size: 479
Unlabelled set size: 1116
	
Mean region size: 51.95402298850594
Incorrectly Classified Instances: 15.987460815047022
Correctly Classified Instances: 84.01253918495298
Weighted Precision: 0.8408150981424428
Weighted AreaUnderROC: 0.8967814980262012
Root mean squared error: 0.3019136756516812
Relative absolute error: 29.274706815303148
Root relative squared error: 64.04556221587717
Weighted TruePositiveRate: 0.8401253918495298
Weighted MatthewsCorrelation: 0.7378513210196875
Weighted FMeasure: 0.83612692461357
Iteration time: 19.0
Weighted AreaUnderPRC: 0.8101002725590376
Mean absolute error: 0.13010980806801695
Coverage of cases: 93.60501567398119
Instances selection time: 2.0
Test time: 4.0
Accumulative iteration time: 157.0
Weighted Recall: 0.8401253918495298
Weighted FalsePositiveRate: 0.12380044940962255
Kappa statistic: 0.732462646069245
Training time: 17.0
		
Iteration: 10
Labeled set size: 499
Unlabelled set size: 1096
	
Mean region size: 51.849529780564446
Incorrectly Classified Instances: 15.862068965517242
Correctly Classified Instances: 84.13793103448276
Weighted Precision: 0.8427570101984538
Weighted AreaUnderROC: 0.8944074183074353
Root mean squared error: 0.30072958084551044
Relative absolute error: 28.79416593008565
Root relative squared error: 63.79437777577383
Weighted TruePositiveRate: 0.8413793103448276
Weighted MatthewsCorrelation: 0.7403670869122426
Weighted FMeasure: 0.8370879517253542
Iteration time: 19.0
Weighted AreaUnderPRC: 0.8072460704954635
Mean absolute error: 0.1279740708003836
Coverage of cases: 93.5423197492163
Instances selection time: 2.0
Test time: 4.0
Accumulative iteration time: 176.0
Weighted Recall: 0.8413793103448276
Weighted FalsePositiveRate: 0.12627094304135442
Kappa statistic: 0.7334711985622564
Training time: 17.0
		
Iteration: 11
Labeled set size: 519
Unlabelled set size: 1076
	
Mean region size: 51.34796238244546
Incorrectly Classified Instances: 16.614420062695924
Correctly Classified Instances: 83.38557993730407
Weighted Precision: 0.8352798512179935
Weighted AreaUnderROC: 0.8883024666144321
Root mean squared error: 0.30824685583414346
Relative absolute error: 29.31112565114085
Root relative squared error: 65.38903261192574
Weighted TruePositiveRate: 0.8338557993730408
Weighted MatthewsCorrelation: 0.7272811114777945
Weighted FMeasure: 0.8297095828469785
Iteration time: 19.0
Weighted AreaUnderPRC: 0.7970731454925195
Mean absolute error: 0.13027166956062894
Coverage of cases: 92.91536050156739
Instances selection time: 1.0
Test time: 4.0
Accumulative iteration time: 195.0
Weighted Recall: 0.8338557993730408
Weighted FalsePositiveRate: 0.13104668371436642
Kappa statistic: 0.7209931567659695
Training time: 18.0
		
Iteration: 12
Labeled set size: 539
Unlabelled set size: 1056
	
Mean region size: 51.41065830721034
Incorrectly Classified Instances: 16.614420062695924
Correctly Classified Instances: 83.38557993730407
Weighted Precision: 0.8349031046018203
Weighted AreaUnderROC: 0.8867044817698657
Root mean squared error: 0.30980928376590317
Relative absolute error: 29.38739392411306
Root relative squared error: 65.72047362762451
Weighted TruePositiveRate: 0.8338557993730408
Weighted MatthewsCorrelation: 0.7271394235707415
Weighted FMeasure: 0.8299293852140289
Iteration time: 18.0
Weighted AreaUnderPRC: 0.794632362570872
Mean absolute error: 0.13061063966272768
Coverage of cases: 92.78996865203762
Instances selection time: 1.0
Test time: 4.0
Accumulative iteration time: 213.0
Weighted Recall: 0.8338557993730408
Weighted FalsePositiveRate: 0.1300892868012722
Kappa statistic: 0.7213205978478375
Training time: 17.0
		
Iteration: 13
Labeled set size: 559
Unlabelled set size: 1036
	
Mean region size: 51.41065830721034
Incorrectly Classified Instances: 16.614420062695924
Correctly Classified Instances: 83.38557993730407
Weighted Precision: 0.8349031046018203
Weighted AreaUnderROC: 0.8859209749248235
Root mean squared error: 0.3107786663736112
Relative absolute error: 29.567469209565665
Root relative squared error: 65.92611073226689
Weighted TruePositiveRate: 0.8338557993730408
Weighted MatthewsCorrelation: 0.7271394235707415
Weighted FMeasure: 0.8299293852140289
Iteration time: 19.0
Weighted AreaUnderPRC: 0.7939723148273992
Mean absolute error: 0.13141097426473927
Coverage of cases: 92.78996865203762
Instances selection time: 1.0
Test time: 4.0
Accumulative iteration time: 232.0
Weighted Recall: 0.8338557993730408
Weighted FalsePositiveRate: 0.1300892868012722
Kappa statistic: 0.7213205978478375
Training time: 18.0
		
Iteration: 14
Labeled set size: 579
Unlabelled set size: 1016
	
Mean region size: 51.431556948798644
Incorrectly Classified Instances: 16.551724137931036
Correctly Classified Instances: 83.44827586206897
Weighted Precision: 0.8356701614881021
Weighted AreaUnderROC: 0.8913162557532341
Root mean squared error: 0.30730634882097646
Relative absolute error: 28.981447789938795
Root relative squared error: 65.18952094589658
Weighted TruePositiveRate: 0.8344827586206897
Weighted MatthewsCorrelation: 0.7282847512120908
Weighted FMeasure: 0.8305202432410499
Iteration time: 20.0
Weighted AreaUnderPRC: 0.8041367064537644
Mean absolute error: 0.12880643462195313
Coverage of cases: 93.29153605015674
Instances selection time: 1.0
Test time: 4.0
Accumulative iteration time: 252.0
Weighted Recall: 0.8344827586206897
Weighted FalsePositiveRate: 0.1298911635406703
Kappa statistic: 0.7222907386718127
Training time: 19.0
		
Iteration: 15
Labeled set size: 599
Unlabelled set size: 996
	
Mean region size: 52.560083594566386
Incorrectly Classified Instances: 17.24137931034483
Correctly Classified Instances: 82.75862068965517
Weighted Precision: 0.8317689149504912
Weighted AreaUnderROC: 0.884706344885596
Root mean squared error: 0.31016882320698613
Relative absolute error: 30.069948098998765
Root relative squared error: 65.79674346069264
Weighted TruePositiveRate: 0.8275862068965517
Weighted MatthewsCorrelation: 0.7177965512773384
Weighted FMeasure: 0.8225831888350399
Iteration time: 21.0
Weighted AreaUnderPRC: 0.7947033157129125
Mean absolute error: 0.13364421377333088
Coverage of cases: 93.22884012539186
Instances selection time: 1.0
Test time: 4.0
Accumulative iteration time: 273.0
Weighted Recall: 0.8275862068965517
Weighted FalsePositiveRate: 0.143550425161608
Kappa statistic: 0.7075509689738998
Training time: 20.0
		
Iteration: 16
Labeled set size: 619
Unlabelled set size: 976
	
Mean region size: 48.25496342737728
Incorrectly Classified Instances: 17.24137931034483
Correctly Classified Instances: 82.75862068965517
Weighted Precision: 0.8317689149504912
Weighted AreaUnderROC: 0.8851640987039575
Root mean squared error: 0.3101149846015352
Relative absolute error: 29.907922293464036
Root relative squared error: 65.78532256779144
Weighted TruePositiveRate: 0.8275862068965517
Weighted MatthewsCorrelation: 0.7177965512773384
Weighted FMeasure: 0.8225831888350399
Iteration time: 22.0
Weighted AreaUnderPRC: 0.7950232050370784
Mean absolute error: 0.1329240990820654
Coverage of cases: 91.53605015673982
Instances selection time: 1.0
Test time: 4.0
Accumulative iteration time: 295.0
Weighted Recall: 0.8275862068965517
Weighted FalsePositiveRate: 0.143550425161608
Kappa statistic: 0.7075509689738998
Training time: 21.0
		
Iteration: 17
Labeled set size: 639
Unlabelled set size: 956
	
Mean region size: 48.25496342737728
Incorrectly Classified Instances: 17.24137931034483
Correctly Classified Instances: 82.75862068965517
Weighted Precision: 0.8317689149504912
Weighted AreaUnderROC: 0.8850768521966337
Root mean squared error: 0.3108573276991505
Relative absolute error: 30.09257634751192
Root relative squared error: 65.94279731927868
Weighted TruePositiveRate: 0.8275862068965517
Weighted MatthewsCorrelation: 0.7177965512773384
Weighted FMeasure: 0.8225831888350399
Iteration time: 22.0
Weighted AreaUnderPRC: 0.7949812156676993
Mean absolute error: 0.13374478376672266
Coverage of cases: 91.53605015673982
Instances selection time: 1.0
Test time: 4.0
Accumulative iteration time: 317.0
Weighted Recall: 0.8275862068965517
Weighted FalsePositiveRate: 0.143550425161608
Kappa statistic: 0.7075509689738998
Training time: 21.0
		
Iteration: 18
Labeled set size: 659
Unlabelled set size: 936
	
Mean region size: 48.819226750261144
Incorrectly Classified Instances: 16.927899686520377
Correctly Classified Instances: 83.07210031347962
Weighted Precision: 0.8326281563791377
Weighted AreaUnderROC: 0.8826914010452681
Root mean squared error: 0.3113927021926403
Relative absolute error: 29.739187036094176
Root relative squared error: 66.05636739972498
Weighted TruePositiveRate: 0.8307210031347962
Weighted MatthewsCorrelation: 0.7220828460299008
Weighted FMeasure: 0.8263546962205094
Iteration time: 21.0
Weighted AreaUnderPRC: 0.7906478515717081
Mean absolute error: 0.132174164604866
Coverage of cases: 91.72413793103448
Instances selection time: 1.0
Test time: 4.0
Accumulative iteration time: 338.0
Weighted Recall: 0.8307210031347962
Weighted FalsePositiveRate: 0.13586279972999257
Kappa statistic: 0.714810012410218
Training time: 20.0
		
Iteration: 19
Labeled set size: 679
Unlabelled set size: 916
	
Mean region size: 49.15360501567386
Incorrectly Classified Instances: 16.739811912225704
Correctly Classified Instances: 83.2601880877743
Weighted Precision: 0.8361072753216234
Weighted AreaUnderROC: 0.8778708370767411
Root mean squared error: 0.31373830875598824
Relative absolute error: 30.635305309608537
Root relative squared error: 66.55394569180666
Weighted TruePositiveRate: 0.8326018808777429
Weighted MatthewsCorrelation: 0.7260984369586538
Weighted FMeasure: 0.8275440462656413
Iteration time: 21.0
Weighted AreaUnderPRC: 0.7856774280399706
Mean absolute error: 0.13615691248715214
Coverage of cases: 91.53605015673982
Instances selection time: 1.0
Test time: 4.0
Accumulative iteration time: 359.0
Weighted Recall: 0.8326018808777429
Weighted FalsePositiveRate: 0.1376619222309223
Kappa statistic: 0.7168942091831136
Training time: 20.0
		
Iteration: 20
Labeled set size: 699
Unlabelled set size: 896
	
Mean region size: 49.57157784743981
Incorrectly Classified Instances: 16.990595611285265
Correctly Classified Instances: 83.00940438871473
Weighted Precision: 0.8333616023495566
Weighted AreaUnderROC: 0.8735543850867825
Root mean squared error: 0.3154115204286228
Relative absolute error: 30.49195482301088
Root relative squared error: 66.90888748783078
Weighted TruePositiveRate: 0.8300940438871474
Weighted MatthewsCorrelation: 0.7216022950764059
Weighted FMeasure: 0.8249531963003477
Iteration time: 22.0
Weighted AreaUnderPRC: 0.7809947740118022
Mean absolute error: 0.13551979921338475
Coverage of cases: 91.41065830721003
Instances selection time: 1.0
Test time: 4.0
Accumulative iteration time: 381.0
Weighted Recall: 0.8300940438871474
Weighted FalsePositiveRate: 0.13941181218642415
Kappa statistic: 0.7126529239274301
Training time: 21.0
		
Iteration: 21
Labeled set size: 719
Unlabelled set size: 876
	
Mean region size: 49.57157784743981
Incorrectly Classified Instances: 16.990595611285265
Correctly Classified Instances: 83.00940438871473
Weighted Precision: 0.8333616023495566
Weighted AreaUnderROC: 0.8738491474690915
Root mean squared error: 0.3155068512146914
Relative absolute error: 30.39024433659169
Root relative squared error: 66.92911020141626
Weighted TruePositiveRate: 0.8300940438871474
Weighted MatthewsCorrelation: 0.7216022950764059
Weighted FMeasure: 0.8249531963003477
Iteration time: 22.0
Weighted AreaUnderPRC: 0.7810436088141013
Mean absolute error: 0.13506775260707723
Coverage of cases: 91.41065830721003
Instances selection time: 1.0
Test time: 4.0
Accumulative iteration time: 403.0
Weighted Recall: 0.8300940438871474
Weighted FalsePositiveRate: 0.13941181218642415
Kappa statistic: 0.7126529239274301
Training time: 21.0
		
Iteration: 22
Labeled set size: 739
Unlabelled set size: 856
	
Mean region size: 43.8244514106583
Incorrectly Classified Instances: 17.115987460815045
Correctly Classified Instances: 82.88401253918495
Weighted Precision: 0.8322851419558419
Weighted AreaUnderROC: 0.8725901179204837
Root mean squared error: 0.3168199208123834
Relative absolute error: 30.135860385509975
Root relative squared error: 67.20765432642564
Weighted TruePositiveRate: 0.8288401253918495
Weighted MatthewsCorrelation: 0.7195056775864619
Weighted FMeasure: 0.8236572890981848
Iteration time: 22.0
Weighted AreaUnderPRC: 0.7813357562662969
Mean absolute error: 0.13393715726893626
Coverage of cases: 89.27899686520377
Instances selection time: 1.0
Test time: 4.0
Accumulative iteration time: 425.0
Weighted Recall: 0.8288401253918495
Weighted FalsePositiveRate: 0.14076545562072215
Kappa statistic: 0.7103613008880697
Training time: 21.0
		
Iteration: 23
Labeled set size: 759
Unlabelled set size: 836
	
Mean region size: 43.8244514106583
Incorrectly Classified Instances: 17.115987460815045
Correctly Classified Instances: 82.88401253918495
Weighted Precision: 0.8322851419558419
Weighted AreaUnderROC: 0.8725901179204837
Root mean squared error: 0.3169037092563047
Relative absolute error: 30.086020514288986
Root relative squared error: 67.22542853949017
Weighted TruePositiveRate: 0.8288401253918495
Weighted MatthewsCorrelation: 0.7195056775864619
Weighted FMeasure: 0.8236572890981848
Iteration time: 22.0
Weighted AreaUnderPRC: 0.7813357562662969
Mean absolute error: 0.1337156467301763
Coverage of cases: 89.27899686520377
Instances selection time: 1.0
Test time: 4.0
Accumulative iteration time: 447.0
Weighted Recall: 0.8288401253918495
Weighted FalsePositiveRate: 0.14076545562072215
Kappa statistic: 0.7103613008880697
Training time: 21.0
		
Iteration: 24
Labeled set size: 779
Unlabelled set size: 816
	
Mean region size: 43.866248693834834
Incorrectly Classified Instances: 17.55485893416928
Correctly Classified Instances: 82.44514106583073
Weighted Precision: 0.8299814708909461
Weighted AreaUnderROC: 0.8720257859507268
Root mean squared error: 0.31735481135740373
Relative absolute error: 30.3930055773801
Root relative squared error: 67.32112174589857
Weighted TruePositiveRate: 0.8244514106583072
Weighted MatthewsCorrelation: 0.7130248630022987
Weighted FMeasure: 0.8186348511216691
Iteration time: 24.0
Weighted AreaUnderPRC: 0.7792569700533633
Mean absolute error: 0.13508002478835907
Coverage of cases: 88.96551724137932
Instances selection time: 1.0
Test time: 4.0
Accumulative iteration time: 471.0
Weighted Recall: 0.8244514106583072
Weighted FalsePositiveRate: 0.14884932757354138
Kappa statistic: 0.7010807543795418
Training time: 23.0
		
Iteration: 25
Labeled set size: 799
Unlabelled set size: 796
	
Mean region size: 44.45141065830704
Incorrectly Classified Instances: 17.55485893416928
Correctly Classified Instances: 82.44514106583073
Weighted Precision: 0.8299814708909461
Weighted AreaUnderROC: 0.871945145112391
Root mean squared error: 0.3178005193769967
Relative absolute error: 30.531605670524996
Root relative squared error: 67.41567069482359
Weighted TruePositiveRate: 0.8244514106583072
Weighted MatthewsCorrelation: 0.7130248630022987
Weighted FMeasure: 0.8186348511216691
Iteration time: 24.0
Weighted AreaUnderPRC: 0.7786543559742859
Mean absolute error: 0.1356960252023364
Coverage of cases: 89.15360501567397
Instances selection time: 1.0
Test time: 4.0
Accumulative iteration time: 495.0
Weighted Recall: 0.8244514106583072
Weighted FalsePositiveRate: 0.14884932757354138
Kappa statistic: 0.7010807543795418
Training time: 23.0
		
Iteration: 26
Labeled set size: 819
Unlabelled set size: 776
	
Mean region size: 44.09613375130599
Incorrectly Classified Instances: 17.304075235109718
Correctly Classified Instances: 82.69592476489028
Weighted Precision: 0.8327019946569689
Weighted AreaUnderROC: 0.8759141379514324
Root mean squared error: 0.3166359974378973
Relative absolute error: 30.560036828699005
Root relative squared error: 67.16863828683027
Weighted TruePositiveRate: 0.8269592476489028
Weighted MatthewsCorrelation: 0.7175390026232759
Weighted FMeasure: 0.82121100084077
Iteration time: 25.0
Weighted AreaUnderPRC: 0.782884771402961
Mean absolute error: 0.135822385905332
Coverage of cases: 89.27899686520377
Instances selection time: 1.0
Test time: 3.0
Accumulative iteration time: 520.0
Weighted Recall: 0.8269592476489028
Weighted FalsePositiveRate: 0.14709943761803954
Kappa statistic: 0.7053510293169769
Training time: 24.0
		
Iteration: 27
Labeled set size: 839
Unlabelled set size: 756
	
Mean region size: 44.555903866248514
Incorrectly Classified Instances: 17.68025078369906
Correctly Classified Instances: 82.31974921630093
Weighted Precision: 0.8294377811966799
Weighted AreaUnderROC: 0.8737292304270486
Root mean squared error: 0.3184107152600776
Relative absolute error: 30.344905113814722
Root relative squared error: 67.54511278885717
Weighted TruePositiveRate: 0.8231974921630094
Weighted MatthewsCorrelation: 0.7112422758503659
Weighted FMeasure: 0.8171635198538161
Iteration time: 24.0
Weighted AreaUnderPRC: 0.7831192913804174
Mean absolute error: 0.1348662449502907
Coverage of cases: 89.52978056426332
Instances selection time: 1.0
Test time: 3.0
Accumulative iteration time: 544.0
Weighted Recall: 0.8231974921630094
Weighted FalsePositiveRate: 0.1511590052743469
Kappa statistic: 0.6984078557850588
Training time: 23.0
		
Iteration: 28
Labeled set size: 859
Unlabelled set size: 736
	
Mean region size: 44.2633228840124
Incorrectly Classified Instances: 17.86833855799373
Correctly Classified Instances: 82.13166144200628
Weighted Precision: 0.8281608310313125
Weighted AreaUnderROC: 0.8700252496883756
Root mean squared error: 0.32077581602103206
Relative absolute error: 30.4089255478788
Root relative squared error: 68.04682642473529
Weighted TruePositiveRate: 0.8213166144200627
Weighted MatthewsCorrelation: 0.7082889163082969
Weighted FMeasure: 0.8150825783931273
Iteration time: 25.0
Weighted AreaUnderPRC: 0.7783202467039424
Mean absolute error: 0.13515078021279772
Coverage of cases: 89.21630094043887
Instances selection time: 1.0
Test time: 4.0
Accumulative iteration time: 569.0
Weighted Recall: 0.8213166144200627
Weighted FalsePositiveRate: 0.15366748755904766
Kappa statistic: 0.6947450416844339
Training time: 24.0
		
Iteration: 29
Labeled set size: 879
Unlabelled set size: 716
	
Mean region size: 43.970741901776265
Incorrectly Classified Instances: 17.86833855799373
Correctly Classified Instances: 82.13166144200628
Weighted Precision: 0.8281608310313125
Weighted AreaUnderROC: 0.8706847190650305
Root mean squared error: 0.3207495241304818
Relative absolute error: 30.29268447771152
Root relative squared error: 68.04124907250578
Weighted TruePositiveRate: 0.8213166144200627
Weighted MatthewsCorrelation: 0.7082889163082969
Weighted FMeasure: 0.8150825783931273
Iteration time: 26.0
Weighted AreaUnderPRC: 0.7782906954744856
Mean absolute error: 0.1346341532342765
Coverage of cases: 89.21630094043887
Instances selection time: 1.0
Test time: 4.0
Accumulative iteration time: 595.0
Weighted Recall: 0.8213166144200627
Weighted FalsePositiveRate: 0.15366748755904766
Kappa statistic: 0.6947450416844339
Training time: 25.0
		
Iteration: 30
Labeled set size: 899
Unlabelled set size: 696
	
Mean region size: 44.72309299895511
Incorrectly Classified Instances: 20.564263322884013
Correctly Classified Instances: 79.43573667711598
Weighted Precision: 0.8056662974664143
Weighted AreaUnderROC: 0.8538807680256172
Root mean squared error: 0.3430621744692395
Relative absolute error: 34.33677280424825
Root relative squared error: 72.77447698073969
Weighted TruePositiveRate: 0.7943573667711599
Weighted MatthewsCorrelation: 0.6632047696393094
Weighted FMeasure: 0.784924130473462
Iteration time: 26.0
Weighted AreaUnderPRC: 0.7503517496016235
Mean absolute error: 0.15260787912999565
Coverage of cases: 88.65203761755485
Instances selection time: 1.0
Test time: 4.0
Accumulative iteration time: 621.0
Weighted Recall: 0.7943573667711599
Weighted FalsePositiveRate: 0.18277082139645515
Kappa statistic: 0.6441197378311547
Training time: 25.0
		
Iteration: 31
Labeled set size: 919
Unlabelled set size: 676
	
Mean region size: 44.68129571577857
Incorrectly Classified Instances: 20.12539184952978
Correctly Classified Instances: 79.87460815047022
Weighted Precision: 0.8070499865163501
Weighted AreaUnderROC: 0.8549450571282033
Root mean squared error: 0.3428563930713686
Relative absolute error: 34.231085420904165
Root relative squared error: 72.73082415417673
Weighted TruePositiveRate: 0.7987460815047022
Weighted MatthewsCorrelation: 0.6691653905219166
Weighted FMeasure: 0.7901907668630368
Iteration time: 26.0
Weighted AreaUnderPRC: 0.7541900444421648
Mean absolute error: 0.15213815742624417
Coverage of cases: 88.96551724137932
Instances selection time: 1.0
Test time: 4.0
Accumulative iteration time: 647.0
Weighted Recall: 0.7987460815047022
Weighted FalsePositiveRate: 0.17468694944363594
Kappa statistic: 0.6539098764405634
Training time: 25.0
		
Iteration: 32
Labeled set size: 939
Unlabelled set size: 656
	
Mean region size: 44.68129571577857
Incorrectly Classified Instances: 20.12539184952978
Correctly Classified Instances: 79.87460815047022
Weighted Precision: 0.8070499865163501
Weighted AreaUnderROC: 0.8549450571282033
Root mean squared error: 0.3431720620825905
Relative absolute error: 34.20271984013754
Root relative squared error: 72.79778766371037
Weighted TruePositiveRate: 0.7987460815047022
Weighted MatthewsCorrelation: 0.6691653905219166
Weighted FMeasure: 0.7901907668630368
Iteration time: 26.0
Weighted AreaUnderPRC: 0.7541900444421648
Mean absolute error: 0.1520120881783925
Coverage of cases: 88.96551724137932
Instances selection time: 1.0
Test time: 4.0
Accumulative iteration time: 673.0
Weighted Recall: 0.7987460815047022
Weighted FalsePositiveRate: 0.17468694944363594
Kappa statistic: 0.6539098764405634
Training time: 25.0
		
Iteration: 33
Labeled set size: 959
Unlabelled set size: 636
	
Mean region size: 44.68129571577857
Incorrectly Classified Instances: 20.12539184952978
Correctly Classified Instances: 79.87460815047022
Weighted Precision: 0.8070499865163501
Weighted AreaUnderROC: 0.8549330408879732
Root mean squared error: 0.3433400775187002
Relative absolute error: 34.36161219901105
Root relative squared error: 72.83342911997552
Weighted TruePositiveRate: 0.7987460815047022
Weighted MatthewsCorrelation: 0.6691653905219166
Weighted FMeasure: 0.7901907668630368
Iteration time: 26.0
Weighted AreaUnderPRC: 0.7538604036853451
Mean absolute error: 0.15271827644005256
Coverage of cases: 88.96551724137932
Instances selection time: 1.0
Test time: 4.0
Accumulative iteration time: 699.0
Weighted Recall: 0.7987460815047022
Weighted FalsePositiveRate: 0.17468694944363594
Kappa statistic: 0.6539098764405634
Training time: 25.0
		
Iteration: 34
Labeled set size: 979
Unlabelled set size: 616
	
Mean region size: 44.15882967607123
Incorrectly Classified Instances: 20.564263322884013
Correctly Classified Instances: 79.43573667711598
Weighted Precision: 0.8060082079893499
Weighted AreaUnderROC: 0.8537404162202485
Root mean squared error: 0.3439646525061866
Relative absolute error: 34.04315629852774
Root relative squared error: 72.96592148267887
Weighted TruePositiveRate: 0.7943573667711599
Weighted MatthewsCorrelation: 0.663416707521893
Weighted FMeasure: 0.7848324249846709
Iteration time: 27.0
Weighted AreaUnderPRC: 0.7515719788813693
Mean absolute error: 0.15130291688234895
Coverage of cases: 88.52664576802508
Instances selection time: 0.0
Test time: 4.0
Accumulative iteration time: 726.0
Weighted Recall: 0.7943573667711599
Weighted FalsePositiveRate: 0.18324883852970889
Kappa statistic: 0.6439046337457468
Training time: 27.0
		
Iteration: 35
Labeled set size: 999
Unlabelled set size: 596
	
Mean region size: 41.73458725182877
Incorrectly Classified Instances: 18.934169278996865
Correctly Classified Instances: 81.06583072100314
Weighted Precision: 0.8197211281058833
Weighted AreaUnderROC: 0.8441551971943039
Root mean squared error: 0.34032393761133845
Relative absolute error: 31.9867697314415
Root relative squared error: 72.19360922552467
Weighted TruePositiveRate: 0.8106583072100313
Weighted MatthewsCorrelation: 0.690159789000155
Weighted FMeasure: 0.8036465898052153
Iteration time: 27.0
Weighted AreaUnderPRC: 0.7375926837194099
Mean absolute error: 0.1421634210286321
Coverage of cases: 86.58307210031347
Instances selection time: 1.0
Test time: 4.0
Accumulative iteration time: 753.0
Weighted Recall: 0.8106583072100313
Weighted FalsePositiveRate: 0.1656514738838346
Kappa statistic: 0.6748883312387706
Training time: 26.0
		
Iteration: 36
Labeled set size: 1019
Unlabelled set size: 576
	
Mean region size: 42.13166144200631
Incorrectly Classified Instances: 16.802507836990596
Correctly Classified Instances: 83.1974921630094
Weighted Precision: 0.8381046367011524
Weighted AreaUnderROC: 0.8615549968490431
Root mean squared error: 0.31574414393563116
Relative absolute error: 29.18415632601446
Root relative squared error: 66.97944758904708
Weighted TruePositiveRate: 0.831974921630094
Weighted MatthewsCorrelation: 0.7256628113878659
Weighted FMeasure: 0.8263250841839626
Iteration time: 28.0
Weighted AreaUnderPRC: 0.7728015962773779
Mean absolute error: 0.1297073614489561
Coverage of cases: 87.21003134796238
Instances selection time: 1.0
Test time: 4.0
Accumulative iteration time: 781.0
Weighted Recall: 0.831974921630094
Weighted FalsePositiveRate: 0.14407631219370284
Kappa statistic: 0.7139836604149798
Training time: 27.0
		
Iteration: 37
Labeled set size: 1039
Unlabelled set size: 556
	
Mean region size: 39.937304075234906
Incorrectly Classified Instances: 14.733542319749215
Correctly Classified Instances: 85.26645768025078
Weighted Precision: 0.8569638544791077
Weighted AreaUnderROC: 0.8941226826199175
Root mean squared error: 0.2931726415251757
Relative absolute error: 24.397910020329423
Root relative squared error: 62.191308864246665
Weighted TruePositiveRate: 0.8526645768025078
Weighted MatthewsCorrelation: 0.7597489237605405
Weighted FMeasure: 0.8463379556791626
Iteration time: 29.0
Weighted AreaUnderPRC: 0.8219173008016385
Mean absolute error: 0.10843515564591101
Coverage of cases: 90.47021943573668
Instances selection time: 1.0
Test time: 4.0
Accumulative iteration time: 810.0
Weighted Recall: 0.8526645768025078
Weighted FalsePositiveRate: 0.11886082890898268
Kappa statistic: 0.7525946783681314
Training time: 28.0
		
Iteration: 38
Labeled set size: 1059
Unlabelled set size: 536
	
Mean region size: 39.89550679205831
Incorrectly Classified Instances: 14.482758620689655
Correctly Classified Instances: 85.51724137931035
Weighted Precision: 0.8589509357000209
Weighted AreaUnderROC: 0.9007390587068677
Root mean squared error: 0.2897056597162214
Relative absolute error: 23.681569307957517
Root relative squared error: 61.455850960038084
Weighted TruePositiveRate: 0.8551724137931035
Weighted MatthewsCorrelation: 0.7659034659128178
Weighted FMeasure: 0.8484393106094206
Iteration time: 29.0
Weighted AreaUnderPRC: 0.8313983006840149
Mean absolute error: 0.10525141914648024
Coverage of cases: 91.09717868338558
Instances selection time: 1.0
Test time: 4.0
Accumulative iteration time: 839.0
Weighted Recall: 0.8551724137931035
Weighted FalsePositiveRate: 0.11376004975765121
Kappa statistic: 0.7572339915239943
Training time: 28.0
		
Iteration: 39
Labeled set size: 1079
Unlabelled set size: 516
	
Mean region size: 48.422152560083106
Incorrectly Classified Instances: 19.62382445141066
Correctly Classified Instances: 80.37617554858934
Weighted Precision: 0.8151920667670027
Weighted AreaUnderROC: 0.8903956034059588
Root mean squared error: 0.3394729678697375
Relative absolute error: 32.21185544967273
Root relative squared error: 72.0130912830635
Weighted TruePositiveRate: 0.8037617554858935
Weighted MatthewsCorrelation: 0.6766653053628797
Weighted FMeasure: 0.7747393082079
Iteration time: 30.0
Weighted AreaUnderPRC: 0.8064733851214105
Mean absolute error: 0.14316380199854872
Coverage of cases: 93.5423197492163
Instances selection time: 1.0
Test time: 4.0
Accumulative iteration time: 869.0
Weighted Recall: 0.8037617554858935
Weighted FalsePositiveRate: 0.17308424895319338
Kappa statistic: 0.6612494351160371
Training time: 29.0
		
Iteration: 40
Labeled set size: 1099
Unlabelled set size: 496
	
Mean region size: 55.318704284220836
Incorrectly Classified Instances: 19.059561128526646
Correctly Classified Instances: 80.94043887147335
Weighted Precision: 0.8181071728056649
Weighted AreaUnderROC: 0.8952372827340387
Root mean squared error: 0.3347992230976373
Relative absolute error: 33.012976883664244
Root relative squared error: 71.02164029649734
Weighted TruePositiveRate: 0.8094043887147335
Weighted MatthewsCorrelation: 0.6850183330842115
Weighted FMeasure: 0.7798500638610807
Iteration time: 30.0
Weighted AreaUnderPRC: 0.8187096380752542
Mean absolute error: 0.14672434170517776
Coverage of cases: 94.1692789968652
Instances selection time: 0.0
Test time: 4.0
Accumulative iteration time: 899.0
Weighted Recall: 0.8094043887147335
Weighted FalsePositiveRate: 0.16507874099595726
Kappa statistic: 0.672669879121161
Training time: 30.0
		
Iteration: 41
Labeled set size: 1119
Unlabelled set size: 476
	
Mean region size: 53.87669801462894
Incorrectly Classified Instances: 21.567398119122256
Correctly Classified Instances: 78.43260188087774
Weighted Precision: 0.788436757928828
Weighted AreaUnderROC: 0.8596539386324957
Root mean squared error: 0.3534889775984644
Relative absolute error: 35.40156253857651
Root relative squared error: 74.98633594037129
Weighted TruePositiveRate: 0.7843260188087774
Weighted MatthewsCorrelation: 0.63741070315101
Weighted FMeasure: 0.7462022929687854
Iteration time: 32.0
Weighted AreaUnderPRC: 0.7628302769116873
Mean absolute error: 0.1573402779492325
Coverage of cases: 95.4858934169279
Instances selection time: 1.0
Test time: 4.0
Accumulative iteration time: 931.0
Weighted Recall: 0.7843260188087774
Weighted FalsePositiveRate: 0.19023954114890274
Kappa statistic: 0.6261244103255296
Training time: 31.0
		
Iteration: 42
Labeled set size: 1139
Unlabelled set size: 456
	
Mean region size: 53.87669801462894
Incorrectly Classified Instances: 21.567398119122256
Correctly Classified Instances: 78.43260188087774
Weighted Precision: 0.788436757928828
Weighted AreaUnderROC: 0.8596585434404301
Root mean squared error: 0.35374969526798666
Relative absolute error: 35.357742284426294
Root relative squared error: 75.04164250999959
Weighted TruePositiveRate: 0.7843260188087774
Weighted MatthewsCorrelation: 0.63741070315101
Weighted FMeasure: 0.7462022929687854
Iteration time: 33.0
Weighted AreaUnderPRC: 0.7628376646000767
Mean absolute error: 0.15714552126412043
Coverage of cases: 95.4858934169279
Instances selection time: 1.0
Test time: 4.0
Accumulative iteration time: 964.0
Weighted Recall: 0.7843260188087774
Weighted FalsePositiveRate: 0.19023954114890274
Kappa statistic: 0.6261244103255296
Training time: 32.0
		
Iteration: 43
Labeled set size: 1159
Unlabelled set size: 436
	
Mean region size: 53.52142110762789
Incorrectly Classified Instances: 21.567398119122256
Correctly Classified Instances: 78.43260188087774
Weighted Precision: 0.788436757928828
Weighted AreaUnderROC: 0.8606149438081108
Root mean squared error: 0.353256002791267
Relative absolute error: 35.37002214496561
Root relative squared error: 74.93691452056682
Weighted TruePositiveRate: 0.7843260188087774
Weighted MatthewsCorrelation: 0.63741070315101
Weighted FMeasure: 0.7462022929687854
Iteration time: 33.0
Weighted AreaUnderPRC: 0.7646071160163969
Mean absolute error: 0.15720009842207294
Coverage of cases: 95.67398119122257
Instances selection time: 1.0
Test time: 4.0
Accumulative iteration time: 997.0
Weighted Recall: 0.7843260188087774
Weighted FalsePositiveRate: 0.19023954114890274
Kappa statistic: 0.6261244103255296
Training time: 32.0
		
Iteration: 44
Labeled set size: 1179
Unlabelled set size: 416
	
Mean region size: 54.00208986415864
Incorrectly Classified Instances: 21.818181818181817
Correctly Classified Instances: 78.18181818181819
Weighted Precision: 0.7865649667330311
Weighted AreaUnderROC: 0.8657621471431795
Root mean squared error: 0.35278199662269744
Relative absolute error: 35.58560067830675
Root relative squared error: 74.83636262773086
Weighted TruePositiveRate: 0.7818181818181819
Weighted MatthewsCorrelation: 0.6335435778657316
Weighted FMeasure: 0.7409761928652718
Iteration time: 33.0
Weighted AreaUnderPRC: 0.7763308817631999
Mean absolute error: 0.15815822523692247
Coverage of cases: 96.30094043887148
Instances selection time: 1.0
Test time: 4.0
Accumulative iteration time: 1030.0
Weighted Recall: 0.7818181818181819
Weighted FalsePositiveRate: 0.19103067154472372
Kappa statistic: 0.6217790815335712
Training time: 32.0
		
Iteration: 45
Labeled set size: 1199
Unlabelled set size: 396
	
Mean region size: 61.922675026122135
Incorrectly Classified Instances: 21.316614420062695
Correctly Classified Instances: 78.68338557993731
Weighted Precision: 0.7902915295727968
Weighted AreaUnderROC: 0.870153041557955
Root mean squared error: 0.34859253194605216
Relative absolute error: 35.98582028659988
Root relative squared error: 73.94764296301167
Weighted TruePositiveRate: 0.786833855799373
Weighted MatthewsCorrelation: 0.6416886631234311
Weighted FMeasure: 0.745437154490673
Iteration time: 33.0
Weighted AreaUnderPRC: 0.7828621478270199
Mean absolute error: 0.15993697905155865
Coverage of cases: 96.92789968652038
Instances selection time: 0.0
Test time: 4.0
Accumulative iteration time: 1063.0
Weighted Recall: 0.786833855799373
Weighted FalsePositiveRate: 0.18561609780753163
Kappa statistic: 0.6313680439666512
Training time: 33.0
		
Iteration: 46
Labeled set size: 1219
Unlabelled set size: 376
	
Mean region size: 54.58725182863103
Incorrectly Classified Instances: 21.316614420062695
Correctly Classified Instances: 78.68338557993731
Weighted Precision: 0.7902915295727968
Weighted AreaUnderROC: 0.870153041557955
Root mean squared error: 0.34874119437737544
Relative absolute error: 35.872461825697954
Root relative squared error: 73.97917902700057
Weighted TruePositiveRate: 0.786833855799373
Weighted MatthewsCorrelation: 0.6416886631234311
Weighted FMeasure: 0.745437154490673
Iteration time: 34.0
Weighted AreaUnderPRC: 0.7828621478270199
Mean absolute error: 0.15943316366977228
Coverage of cases: 96.67711598746081
Instances selection time: 0.0
Test time: 4.0
Accumulative iteration time: 1097.0
Weighted Recall: 0.786833855799373
Weighted FalsePositiveRate: 0.18561609780753163
Kappa statistic: 0.6313680439666512
Training time: 34.0
		
Time end:Wed Nov 01 14.36.00 EET 2017