Wed Nov 01 12.10.00 EET 2017
Dataset: splice
Test set size: 1595
Initial Labelled set size: 319
Initial Unlabelled set size: 1276
Batch mode: QBestBatchMode
Batch size: 20
Classifiers: IBk-1cores
Scenario: PoolBasedSamplingScenario
Query strategy: LeastConfidentSamplingQueryStrategy-1cores
Time begining: Wed Nov 01 12.10.00 EET 2017
		
Iteration: 1
Labeled set size: 319
Unlabelled set size: 1276
	
Mean region size: 39.91640543364687
Incorrectly Classified Instances: 35.42319749216301
Correctly Classified Instances: 64.57680250783699
Weighted Precision: 0.7176869626409693
Weighted AreaUnderROC: 0.8009098607744777
Root mean squared error: 0.4431707806316254
Relative absolute error: 51.49240485147724
Root relative squared error: 94.0107192625064
Weighted TruePositiveRate: 0.64576802507837
Weighted MatthewsCorrelation: 0.4945422060564399
Weighted FMeasure: 0.643214538737511
Iteration time: 623.0
Weighted AreaUnderPRC: 0.6714089453150496
Mean absolute error: 0.22885513267323737
Coverage of cases: 73.60501567398119
Instances selection time: 623.0
Test time: 780.0
Accumulative iteration time: 623.0
Weighted Recall: 0.64576802507837
Weighted FalsePositiveRate: 0.1417647497307832
Kappa statistic: 0.47697998052259355
Training time: 0.0
		
Iteration: 2
Labeled set size: 339
Unlabelled set size: 1256
	
Mean region size: 39.89550679205859
Incorrectly Classified Instances: 34.67084639498432
Correctly Classified Instances: 65.32915360501568
Weighted Precision: 0.7172250401055171
Weighted AreaUnderROC: 0.8057453325303968
Root mean squared error: 0.4360430992050818
Relative absolute error: 50.003509714926835
Root relative squared error: 92.4987097012525
Weighted TruePositiveRate: 0.6532915360501568
Weighted MatthewsCorrelation: 0.499448357214077
Weighted FMeasure: 0.6518554143128923
Iteration time: 635.0
Weighted AreaUnderPRC: 0.6781050729380957
Mean absolute error: 0.22223782095523542
Coverage of cases: 74.60815047021944
Instances selection time: 635.0
Test time: 810.0
Accumulative iteration time: 1258.0
Weighted Recall: 0.6532915360501568
Weighted FalsePositiveRate: 0.14273339053633627
Kappa statistic: 0.48503237686661055
Training time: 0.0
		
Iteration: 3
Labeled set size: 359
Unlabelled set size: 1236
	
Mean region size: 39.8955067920586
Incorrectly Classified Instances: 33.85579937304075
Correctly Classified Instances: 66.14420062695925
Weighted Precision: 0.7140029758242653
Weighted AreaUnderROC: 0.8106307443188454
Root mean squared error: 0.4311279511850607
Relative absolute error: 48.98396633606476
Root relative squared error: 91.45604935260475
Weighted TruePositiveRate: 0.6614420062695925
Weighted MatthewsCorrelation: 0.5022179387776874
Weighted FMeasure: 0.6617279965419979
Iteration time: 661.0
Weighted AreaUnderPRC: 0.6826100187855819
Mean absolute error: 0.21770651704918165
Coverage of cases: 75.54858934169279
Instances selection time: 661.0
Test time: 854.0
Accumulative iteration time: 1919.0
Weighted Recall: 0.6614420062695925
Weighted FalsePositiveRate: 0.14637269220410318
Kappa statistic: 0.49226279954018926
Training time: 0.0
		
Iteration: 4
Labeled set size: 379
Unlabelled set size: 1216
	
Mean region size: 39.79101358411711
Incorrectly Classified Instances: 32.66457680250784
Correctly Classified Instances: 67.33542319749216
Weighted Precision: 0.7192189540597094
Weighted AreaUnderROC: 0.8163719934651336
Root mean squared error: 0.42374029836647165
Relative absolute error: 47.39565546620605
Root relative squared error: 89.8888915310819
Weighted TruePositiveRate: 0.6733542319749216
Weighted MatthewsCorrelation: 0.5151203330690389
Weighted FMeasure: 0.6748145321187554
Iteration time: 681.0
Weighted AreaUnderPRC: 0.6902282942637114
Mean absolute error: 0.2106473576275872
Coverage of cases: 76.55172413793103
Instances selection time: 681.0
Test time: 897.0
Accumulative iteration time: 2600.0
Weighted Recall: 0.6733542319749216
Weighted FalsePositiveRate: 0.14451837481580154
Kappa statistic: 0.5066358178614344
Training time: 0.0
		
Iteration: 5
Labeled set size: 399
Unlabelled set size: 1196
	
Mean region size: 39.6238244514107
Incorrectly Classified Instances: 31.786833855799372
Correctly Classified Instances: 68.21316614420063
Weighted Precision: 0.7221261757419298
Weighted AreaUnderROC: 0.8209217505541119
Root mean squared error: 0.4165098811399977
Relative absolute error: 45.869338622554764
Root relative squared error: 88.35508841558759
Weighted TruePositiveRate: 0.6821316614420063
Weighted MatthewsCorrelation: 0.523622080727253
Weighted FMeasure: 0.6840861599145717
Iteration time: 701.0
Weighted AreaUnderPRC: 0.6958704090482801
Mean absolute error: 0.20386372721135915
Coverage of cases: 77.4294670846395
Instances selection time: 700.0
Test time: 941.0
Accumulative iteration time: 3301.0
Weighted Recall: 0.6821316614420063
Weighted FalsePositiveRate: 0.14413541615693667
Kappa statistic: 0.5170874941327802
Training time: 1.0
		
Iteration: 6
Labeled set size: 419
Unlabelled set size: 1176
	
Mean region size: 39.477533960292554
Incorrectly Classified Instances: 31.786833855799372
Correctly Classified Instances: 68.21316614420063
Weighted Precision: 0.7321784370947927
Weighted AreaUnderROC: 0.8286938690311374
Root mean squared error: 0.41265971876275875
Relative absolute error: 44.9815428194321
Root relative squared error: 87.5383456379031
Weighted TruePositiveRate: 0.6821316614420063
Weighted MatthewsCorrelation: 0.5328562193536921
Weighted FMeasure: 0.6842086781500291
Iteration time: 721.0
Weighted AreaUnderPRC: 0.7064447554075822
Mean absolute error: 0.1999179680863694
Coverage of cases: 77.68025078369907
Instances selection time: 721.0
Test time: 988.0
Accumulative iteration time: 4022.0
Weighted Recall: 0.6821316614420063
Weighted FalsePositiveRate: 0.13646874629595637
Kappa statistic: 0.5204060149038191
Training time: 0.0
		
Iteration: 7
Labeled set size: 439
Unlabelled set size: 1156
	
Mean region size: 39.540229885057485
Incorrectly Classified Instances: 30.65830721003135
Correctly Classified Instances: 69.34169278996865
Weighted Precision: 0.7438464535314647
Weighted AreaUnderROC: 0.83780962436438
Root mean squared error: 0.4043606512844958
Relative absolute error: 43.46233968595055
Root relative squared error: 85.77784757048177
Weighted TruePositiveRate: 0.6934169278996866
Weighted MatthewsCorrelation: 0.5501353100353825
Weighted FMeasure: 0.6943988654147885
Iteration time: 740.0
Weighted AreaUnderPRC: 0.7208450670988696
Mean absolute error: 0.19316595415978463
Coverage of cases: 78.74608150470219
Instances selection time: 740.0
Test time: 1030.0
Accumulative iteration time: 4762.0
Weighted Recall: 0.6934169278996866
Weighted FalsePositiveRate: 0.12955163840929215
Kappa statistic: 0.5382816218379346
Training time: 0.0
		
Iteration: 8
Labeled set size: 459
Unlabelled set size: 1136
	
Mean region size: 39.519331243469175
Incorrectly Classified Instances: 30.031347962382444
Correctly Classified Instances: 69.96865203761756
Weighted Precision: 0.7485494008111607
Weighted AreaUnderROC: 0.8402058338601337
Root mean squared error: 0.40252871886845254
Relative absolute error: 43.105125047609455
Root relative squared error: 85.3892360202639
Weighted TruePositiveRate: 0.6996865203761755
Weighted MatthewsCorrelation: 0.5577568125573138
Weighted FMeasure: 0.6991776927061124
Iteration time: 759.0
Weighted AreaUnderPRC: 0.7246363744614905
Mean absolute error: 0.19157833354493525
Coverage of cases: 78.99686520376176
Instances selection time: 759.0
Test time: 1074.0
Accumulative iteration time: 5521.0
Weighted Recall: 0.6996865203761755
Weighted FalsePositiveRate: 0.12709443263989925
Kappa statistic: 0.5481960485153842
Training time: 0.0
		
Iteration: 9
Labeled set size: 479
Unlabelled set size: 1116
	
Mean region size: 39.72831765935218
Incorrectly Classified Instances: 30.282131661442005
Correctly Classified Instances: 69.71786833855799
Weighted Precision: 0.7463857218704322
Weighted AreaUnderROC: 0.8383220160063906
Root mean squared error: 0.4050562879499326
Relative absolute error: 43.722348806679044
Root relative squared error: 85.92541439149348
Weighted TruePositiveRate: 0.69717868338558
Weighted MatthewsCorrelation: 0.5542711609533306
Weighted FMeasure: 0.6963104312616734
Iteration time: 779.0
Weighted AreaUnderPRC: 0.7210771794244536
Mean absolute error: 0.19432155025191125
Coverage of cases: 78.87147335423198
Instances selection time: 779.0
Test time: 1122.0
Accumulative iteration time: 6300.0
Weighted Recall: 0.69717868338558
Weighted FalsePositiveRate: 0.12789442023853384
Kappa statistic: 0.5448968259125576
Training time: 0.0
		
Iteration: 10
Labeled set size: 499
Unlabelled set size: 1096
	
Mean region size: 39.85370950888197
Incorrectly Classified Instances: 30.219435736677116
Correctly Classified Instances: 69.78056426332289
Weighted Precision: 0.749357914518123
Weighted AreaUnderROC: 0.8401121368040321
Root mean squared error: 0.4046391898367929
Relative absolute error: 43.72526274347454
Root relative squared error: 85.83693452022713
Weighted TruePositiveRate: 0.6978056426332289
Weighted MatthewsCorrelation: 0.5571310181813796
Weighted FMeasure: 0.6963164686005976
Iteration time: 790.0
Weighted AreaUnderPRC: 0.7249988259647765
Mean absolute error: 0.19433450108211345
Coverage of cases: 78.93416927899686
Instances selection time: 789.0
Test time: 1158.0
Accumulative iteration time: 7090.0
Weighted Recall: 0.6978056426332289
Weighted FalsePositiveRate: 0.12578354712162362
Kappa statistic: 0.5469089156024369
Training time: 1.0
		
Iteration: 11
Labeled set size: 519
Unlabelled set size: 1076
	
Mean region size: 39.83281086729368
Incorrectly Classified Instances: 29.968652037617556
Correctly Classified Instances: 70.03134796238244
Weighted Precision: 0.7493726619160238
Weighted AreaUnderROC: 0.8419904362000188
Root mean squared error: 0.402665140307984
Relative absolute error: 43.355715364161746
Root relative squared error: 85.41817537776146
Weighted TruePositiveRate: 0.7003134796238244
Weighted MatthewsCorrelation: 0.5590618201650766
Weighted FMeasure: 0.6990658520830146
Iteration time: 880.0
Weighted AreaUnderPRC: 0.7270828712609996
Mean absolute error: 0.1926920682851677
Coverage of cases: 79.24764890282131
Instances selection time: 879.0
Test time: 1203.0
Accumulative iteration time: 7970.0
Weighted Recall: 0.7003134796238244
Weighted FalsePositiveRate: 0.12595185760877686
Kappa statistic: 0.549722419088117
Training time: 1.0
		
Iteration: 12
Labeled set size: 539
Unlabelled set size: 1056
	
Mean region size: 39.81191222570539
Incorrectly Classified Instances: 29.0282131661442
Correctly Classified Instances: 70.9717868338558
Weighted Precision: 0.7572415445832322
Weighted AreaUnderROC: 0.8481596954274395
Root mean squared error: 0.3969871714867334
Relative absolute error: 42.29325012050653
Root relative squared error: 84.21369630069985
Weighted TruePositiveRate: 0.709717868338558
Weighted MatthewsCorrelation: 0.5727500212873414
Weighted FMeasure: 0.7094621653311355
Iteration time: 816.0
Weighted AreaUnderPRC: 0.7346208201209448
Mean absolute error: 0.18797000053558882
Coverage of cases: 79.9373040752351
Instances selection time: 816.0
Test time: 1250.0
Accumulative iteration time: 8786.0
Weighted Recall: 0.709717868338558
Weighted FalsePositiveRate: 0.12153641877387987
Kappa statistic: 0.5625923253976434
Training time: 0.0
		
Iteration: 13
Labeled set size: 559
Unlabelled set size: 1036
	
Mean region size: 39.68652037617562
Incorrectly Classified Instances: 28.77742946708464
Correctly Classified Instances: 71.22257053291536
Weighted Precision: 0.7618586360750934
Weighted AreaUnderROC: 0.8505437419684309
Root mean squared error: 0.39413383923407774
Relative absolute error: 41.65660825556785
Root relative squared error: 83.60841312525052
Weighted TruePositiveRate: 0.7122257053291536
Weighted MatthewsCorrelation: 0.5785726287696588
Weighted FMeasure: 0.7117793641900891
Iteration time: 831.0
Weighted AreaUnderPRC: 0.7393164517023092
Mean absolute error: 0.18514048113586132
Coverage of cases: 80.12539184952978
Instances selection time: 831.0
Test time: 1292.0
Accumulative iteration time: 9617.0
Weighted Recall: 0.7122257053291536
Weighted FalsePositiveRate: 0.11835247741861679
Kappa statistic: 0.5670538573990056
Training time: 0.0
		
Iteration: 14
Labeled set size: 579
Unlabelled set size: 1016
	
Mean region size: 39.56112852664585
Incorrectly Classified Instances: 28.087774294670847
Correctly Classified Instances: 71.91222570532915
Weighted Precision: 0.7694693312125053
Weighted AreaUnderROC: 0.8514034118864019
Root mean squared error: 0.39298742923710667
Relative absolute error: 41.3349191563902
Root relative squared error: 83.36522284038705
Weighted TruePositiveRate: 0.7191222570532916
Weighted MatthewsCorrelation: 0.5899154984442959
Weighted FMeasure: 0.7185929474969208
Iteration time: 841.0
Weighted AreaUnderPRC: 0.7388958820183383
Mean absolute error: 0.18371075180618285
Coverage of cases: 80.18808777429467
Instances selection time: 841.0
Test time: 1329.0
Accumulative iteration time: 10458.0
Weighted Recall: 0.7191222570532916
Weighted FalsePositiveRate: 0.11377758529938016
Kappa statistic: 0.5775406475826063
Training time: 0.0
		
Iteration: 15
Labeled set size: 599
Unlabelled set size: 996
	
Mean region size: 39.51933124346925
Incorrectly Classified Instances: 27.523510971786834
Correctly Classified Instances: 72.47648902821317
Weighted Precision: 0.7704394011624268
Weighted AreaUnderROC: 0.8521539134585395
Root mean squared error: 0.390041244550139
Relative absolute error: 40.75531471546154
Root relative squared error: 82.74024268915221
Weighted TruePositiveRate: 0.7247648902821316
Weighted MatthewsCorrelation: 0.5948321796246757
Weighted FMeasure: 0.7247861248993642
Iteration time: 850.0
Weighted AreaUnderPRC: 0.7394871223995599
Mean absolute error: 0.18113473206872205
Coverage of cases: 80.50156739811912
Instances selection time: 850.0
Test time: 1384.0
Accumulative iteration time: 11308.0
Weighted Recall: 0.7247648902821316
Weighted FalsePositiveRate: 0.11390450051709772
Kappa statistic: 0.5842798093946631
Training time: 0.0
		
Iteration: 16
Labeled set size: 619
Unlabelled set size: 976
	
Mean region size: 39.33124346917458
Incorrectly Classified Instances: 26.83385579937304
Correctly Classified Instances: 73.16614420062696
Weighted Precision: 0.7745653249976753
Weighted AreaUnderROC: 0.8548218694177402
Root mean squared error: 0.3858807544831524
Relative absolute error: 39.85054004106173
Root relative squared error: 81.85766946732457
Weighted TruePositiveRate: 0.7316614420062696
Weighted MatthewsCorrelation: 0.6035285413115327
Weighted FMeasure: 0.7320677522967428
Iteration time: 859.0
Weighted AreaUnderPRC: 0.7430608881794706
Mean absolute error: 0.1771135112936117
Coverage of cases: 80.87774294670847
Instances selection time: 858.0
Test time: 1412.0
Accumulative iteration time: 12167.0
Weighted Recall: 0.7316614420062696
Weighted FalsePositiveRate: 0.1117251446504766
Kappa statistic: 0.5935149116779465
Training time: 1.0
		
Iteration: 17
Labeled set size: 639
Unlabelled set size: 956
	
Mean region size: 39.226750261233086
Incorrectly Classified Instances: 25.956112852664578
Correctly Classified Instances: 74.04388714733543
Weighted Precision: 0.779974424035323
Weighted AreaUnderROC: 0.8579355804010455
Root mean squared error: 0.3815747490818441
Relative absolute error: 38.95313335871885
Root relative squared error: 80.94422778159726
Weighted TruePositiveRate: 0.7404388714733542
Weighted MatthewsCorrelation: 0.6148080531290795
Weighted FMeasure: 0.7414800716274441
Iteration time: 885.0
Weighted AreaUnderPRC: 0.7472082646921947
Mean absolute error: 0.1731250371498655
Coverage of cases: 81.31661442006269
Instances selection time: 885.0
Test time: 1467.0
Accumulative iteration time: 13052.0
Weighted Recall: 0.7404388714733542
Weighted FalsePositiveRate: 0.10894596841570285
Kappa statistic: 0.6052442795004173
Training time: 0.0
		
Iteration: 18
Labeled set size: 659
Unlabelled set size: 936
	
Mean region size: 39.26854754440969
Incorrectly Classified Instances: 26.018808777429467
Correctly Classified Instances: 73.98119122257053
Weighted Precision: 0.7763629190803738
Weighted AreaUnderROC: 0.8576918779824337
Root mean squared error: 0.37966649342061126
Relative absolute error: 38.675693676854266
Root relative squared error: 80.53942562610867
Weighted TruePositiveRate: 0.7398119122257053
Weighted MatthewsCorrelation: 0.6109526157143376
Weighted FMeasure: 0.7408442796756264
Iteration time: 871.0
Weighted AreaUnderPRC: 0.7467748011501603
Mean absolute error: 0.17189197189713395
Coverage of cases: 81.56739811912226
Instances selection time: 871.0
Test time: 1501.0
Accumulative iteration time: 13923.0
Weighted Recall: 0.7398119122257053
Weighted FalsePositiveRate: 0.1120135571224139
Kappa statistic: 0.6033422501552055
Training time: 0.0
		
Iteration: 19
Labeled set size: 679
Unlabelled set size: 916
	
Mean region size: 39.310344827586285
Incorrectly Classified Instances: 25.454545454545453
Correctly Classified Instances: 74.54545454545455
Weighted Precision: 0.7789216076368278
Weighted AreaUnderROC: 0.858264953615695
Root mean squared error: 0.3767357167936881
Relative absolute error: 38.1936560668168
Root relative squared error: 79.91771401799657
Weighted TruePositiveRate: 0.7454545454545455
Weighted MatthewsCorrelation: 0.617323560318401
Weighted FMeasure: 0.7467996259962698
Iteration time: 878.0
Weighted AreaUnderPRC: 0.7484467658206809
Mean absolute error: 0.16974958251918965
Coverage of cases: 81.88087774294671
Instances selection time: 878.0
Test time: 1541.0
Accumulative iteration time: 14801.0
Weighted Recall: 0.7454545454545455
Weighted FalsePositiveRate: 0.11118511939691736
Kappa statistic: 0.6105959372859637
Training time: 0.0
		
Iteration: 20
Labeled set size: 699
Unlabelled set size: 896
	
Mean region size: 39.24764890282139
Incorrectly Classified Instances: 25.517241379310345
Correctly Classified Instances: 74.48275862068965
Weighted Precision: 0.7780445673417621
Weighted AreaUnderROC: 0.8574914942830443
Root mean squared error: 0.37724148334649854
Relative absolute error: 38.191029521504724
Root relative squared error: 80.02500330575344
Weighted TruePositiveRate: 0.7448275862068966
Weighted MatthewsCorrelation: 0.6159712798362095
Weighted FMeasure: 0.7460638350412561
Iteration time: 880.0
Weighted AreaUnderPRC: 0.7463643504285878
Mean absolute error: 0.16973790898446928
Coverage of cases: 81.81818181818181
Instances selection time: 879.0
Test time: 1587.0
Accumulative iteration time: 15681.0
Weighted Recall: 0.7448275862068966
Weighted FalsePositiveRate: 0.11186330376065308
Kappa statistic: 0.6096365792410715
Training time: 1.0
		
Iteration: 21
Labeled set size: 719
Unlabelled set size: 876
	
Mean region size: 39.038662486938385
Incorrectly Classified Instances: 25.078369905956112
Correctly Classified Instances: 74.92163009404389
Weighted Precision: 0.7799176705506617
Weighted AreaUnderROC: 0.8587973076879699
Root mean squared error: 0.3759362085770397
Relative absolute error: 37.806540265566184
Root relative squared error: 79.74811271351463
Weighted TruePositiveRate: 0.7492163009404389
Weighted MatthewsCorrelation: 0.6208053220135283
Weighted FMeasure: 0.750684685446718
Iteration time: 882.0
Weighted AreaUnderPRC: 0.7486737037180211
Mean absolute error: 0.16802906784696464
Coverage of cases: 81.88087774294671
Instances selection time: 882.0
Test time: 1628.0
Accumulative iteration time: 16563.0
Weighted Recall: 0.7492163009404389
Weighted FalsePositiveRate: 0.11143043123306702
Kappa statistic: 0.6152192255291791
Training time: 0.0
		
Iteration: 22
Labeled set size: 739
Unlabelled set size: 856
	
Mean region size: 39.038662486938364
Incorrectly Classified Instances: 25.203761755485893
Correctly Classified Instances: 74.7962382445141
Weighted Precision: 0.7789156980667277
Weighted AreaUnderROC: 0.8576851004342299
Root mean squared error: 0.3773747861779372
Relative absolute error: 38.006108786052046
Root relative squared error: 80.05328110657193
Weighted TruePositiveRate: 0.747962382445141
Weighted MatthewsCorrelation: 0.6193618873671962
Weighted FMeasure: 0.7497070707865374
Iteration time: 899.0
Weighted AreaUnderPRC: 0.7459921879336023
Mean absolute error: 0.16891603904912406
Coverage of cases: 81.69278996865204
Instances selection time: 899.0
Test time: 1687.0
Accumulative iteration time: 17462.0
Weighted Recall: 0.747962382445141
Weighted FalsePositiveRate: 0.11182599643097751
Kappa statistic: 0.6131924427772877
Training time: 0.0
		
Iteration: 23
Labeled set size: 759
Unlabelled set size: 836
	
Mean region size: 39.10135841170328
Incorrectly Classified Instances: 25.203761755485893
Correctly Classified Instances: 74.7962382445141
Weighted Precision: 0.777807648042118
Weighted AreaUnderROC: 0.856941754535493
Root mean squared error: 0.3768430312528233
Relative absolute error: 37.97537200869414
Root relative squared error: 79.94047885252873
Weighted TruePositiveRate: 0.747962382445141
Weighted MatthewsCorrelation: 0.61850501912149
Weighted FMeasure: 0.749832184523708
Iteration time: 885.0
Weighted AreaUnderPRC: 0.7455407859380384
Mean absolute error: 0.16877943114975555
Coverage of cases: 81.75548589341693
Instances selection time: 884.0
Test time: 1714.0
Accumulative iteration time: 18347.0
Weighted Recall: 0.747962382445141
Weighted FalsePositiveRate: 0.11278407466736505
Kappa statistic: 0.612672780716941
Training time: 1.0
		
Iteration: 24
Labeled set size: 779
Unlabelled set size: 816
	
Mean region size: 39.14315569487987
Incorrectly Classified Instances: 24.890282131661444
Correctly Classified Instances: 75.10971786833856
Weighted Precision: 0.7793958177258262
Weighted AreaUnderROC: 0.8576829561200005
Root mean squared error: 0.37422925503910165
Relative absolute error: 37.5747188340915
Root relative squared error: 79.38601318696072
Weighted TruePositiveRate: 0.7510971786833855
Weighted MatthewsCorrelation: 0.6221994069465967
Weighted FMeasure: 0.753064217345049
Iteration time: 885.0
Weighted AreaUnderPRC: 0.7486647579055882
Mean absolute error: 0.1669987503737438
Coverage of cases: 82.00626959247649
Instances selection time: 884.0
Test time: 1758.0
Accumulative iteration time: 19232.0
Weighted Recall: 0.7510971786833855
Weighted FalsePositiveRate: 0.11227079417431582
Kappa statistic: 0.6167696235994599
Training time: 1.0
		
Iteration: 25
Labeled set size: 799
Unlabelled set size: 796
	
Mean region size: 39.20585161964478
Incorrectly Classified Instances: 24.26332288401254
Correctly Classified Instances: 75.73667711598746
Weighted Precision: 0.7836266738487071
Weighted AreaUnderROC: 0.860955426008345
Root mean squared error: 0.3704837001150446
Relative absolute error: 36.99411006762965
Root relative squared error: 78.59146100112851
Weighted TruePositiveRate: 0.7573667711598746
Weighted MatthewsCorrelation: 0.630542123268004
Weighted FMeasure: 0.7594777257060022
Iteration time: 887.0
Weighted AreaUnderPRC: 0.7536697818282244
Mean absolute error: 0.1644182669672466
Coverage of cases: 82.44514106583073
Instances selection time: 886.0
Test time: 1796.0
Accumulative iteration time: 20119.0
Weighted Recall: 0.7573667711598746
Weighted FalsePositiveRate: 0.11028615495182985
Kappa statistic: 0.6254150827980951
Training time: 1.0
		
Iteration: 26
Labeled set size: 819
Unlabelled set size: 776
	
Mean region size: 39.20585161964478
Incorrectly Classified Instances: 24.012539184952978
Correctly Classified Instances: 75.98746081504702
Weighted Precision: 0.7840931384657739
Weighted AreaUnderROC: 0.8588397222340163
Root mean squared error: 0.371691965133986
Relative absolute error: 37.14869149193203
Root relative squared error: 78.84777271763771
Weighted TruePositiveRate: 0.7598746081504703
Weighted MatthewsCorrelation: 0.632491054060996
Weighted FMeasure: 0.7618904006084432
Iteration time: 882.0
Weighted AreaUnderPRC: 0.7516361684711476
Mean absolute error: 0.16510529551970166
Coverage of cases: 82.19435736677116
Instances selection time: 882.0
Test time: 1842.0
Accumulative iteration time: 21001.0
Weighted Recall: 0.7598746081504703
Weighted FalsePositiveRate: 0.1109283946324767
Kappa statistic: 0.6284843748574627
Training time: 0.0
		
Iteration: 27
Labeled set size: 839
Unlabelled set size: 756
	
Mean region size: 39.12225705329161
Incorrectly Classified Instances: 23.82445141065831
Correctly Classified Instances: 76.17554858934169
Weighted Precision: 0.7858182831961316
Weighted AreaUnderROC: 0.8599576609219398
Root mean squared error: 0.37095189338078444
Relative absolute error: 36.93364429675537
Root relative squared error: 78.69077979106166
Weighted TruePositiveRate: 0.7617554858934169
Weighted MatthewsCorrelation: 0.6354259719236667
Weighted FMeasure: 0.7637813992846917
Iteration time: 885.0
Weighted AreaUnderPRC: 0.7527476836333994
Mean absolute error: 0.16414953020780537
Coverage of cases: 82.25705329153605
Instances selection time: 884.0
Test time: 1881.0
Accumulative iteration time: 21886.0
Weighted Recall: 0.7617554858934169
Weighted FalsePositiveRate: 0.10985532639412385
Kappa statistic: 0.631294411503663
Training time: 1.0
		
Iteration: 28
Labeled set size: 859
Unlabelled set size: 736
	
Mean region size: 39.059561128526695
Incorrectly Classified Instances: 23.385579937304076
Correctly Classified Instances: 76.61442006269593
Weighted Precision: 0.7891564787890321
Weighted AreaUnderROC: 0.8621442152346834
Root mean squared error: 0.36743845395682734
Relative absolute error: 36.299925651264246
Root relative squared error: 77.94546673847121
Weighted TruePositiveRate: 0.7661442006269592
Weighted MatthewsCorrelation: 0.6419052337625346
Weighted FMeasure: 0.7683897825249602
Iteration time: 872.0
Weighted AreaUnderPRC: 0.7567785152129324
Mean absolute error: 0.16133300289451144
Coverage of cases: 82.5705329153605
Instances selection time: 872.0
Test time: 1931.0
Accumulative iteration time: 22758.0
Weighted Recall: 0.7661442006269592
Weighted FalsePositiveRate: 0.1079870398201899
Kappa statistic: 0.6374005790035044
Training time: 0.0
		
Iteration: 29
Labeled set size: 879
Unlabelled set size: 716
	
Mean region size: 38.9550679205852
Incorrectly Classified Instances: 23.260188087774296
Correctly Classified Instances: 76.7398119122257
Weighted Precision: 0.7888432337951523
Weighted AreaUnderROC: 0.8611023703749006
Root mean squared error: 0.36788743162446963
Relative absolute error: 36.25625734697223
Root relative squared error: 78.04070928448856
Weighted TruePositiveRate: 0.7673981191222571
Weighted MatthewsCorrelation: 0.6423466315368934
Weighted FMeasure: 0.7696146132254988
Iteration time: 864.0
Weighted AreaUnderPRC: 0.7543570668551498
Mean absolute error: 0.16113892154210244
Coverage of cases: 82.5078369905956
Instances selection time: 864.0
Test time: 1987.0
Accumulative iteration time: 23622.0
Weighted Recall: 0.7673981191222571
Weighted FalsePositiveRate: 0.10902348205216054
Kappa statistic: 0.6386599008329059
Training time: 0.0
		
Iteration: 30
Labeled set size: 899
Unlabelled set size: 696
	
Mean region size: 38.913270637408594
Incorrectly Classified Instances: 23.009404388714735
Correctly Classified Instances: 76.99059561128527
Weighted Precision: 0.7899196509059763
Weighted AreaUnderROC: 0.8627548518830813
Root mean squared error: 0.36481327920932877
Relative absolute error: 35.71045290608211
Root relative squared error: 77.38858307874443
Weighted TruePositiveRate: 0.7699059561128526
Weighted MatthewsCorrelation: 0.6449396688384055
Weighted FMeasure: 0.7721126457469017
Iteration time: 859.0
Weighted AreaUnderPRC: 0.7570394833858571
Mean absolute error: 0.15871312402703522
Coverage of cases: 82.82131661442006
Instances selection time: 859.0
Test time: 2014.0
Accumulative iteration time: 24481.0
Weighted Recall: 0.7699059561128526
Weighted FalsePositiveRate: 0.1091842979830869
Kappa statistic: 0.641875865309376
Training time: 0.0
		
Iteration: 31
Labeled set size: 919
Unlabelled set size: 676
	
Mean region size: 38.975966562173504
Incorrectly Classified Instances: 23.072100313479623
Correctly Classified Instances: 76.92789968652038
Weighted Precision: 0.7878678091085913
Weighted AreaUnderROC: 0.8618388735125084
Root mean squared error: 0.3652593400963319
Relative absolute error: 35.815578634739765
Root relative squared error: 77.48320688215104
Weighted TruePositiveRate: 0.7692789968652037
Weighted MatthewsCorrelation: 0.642445848576698
Weighted FMeasure: 0.771378353182591
Iteration time: 850.0
Weighted AreaUnderPRC: 0.7565761906186717
Mean absolute error: 0.1591803494877359
Coverage of cases: 82.82131661442006
Instances selection time: 849.0
Test time: 2056.0
Accumulative iteration time: 25331.0
Weighted Recall: 0.7692789968652037
Weighted FalsePositiveRate: 0.11129789639317053
Kappa statistic: 0.6403122816908312
Training time: 1.0
		
Iteration: 32
Labeled set size: 939
Unlabelled set size: 656
	
Mean region size: 38.91327063740861
Incorrectly Classified Instances: 22.821316614420063
Correctly Classified Instances: 77.17868338557994
Weighted Precision: 0.7885603408177012
Weighted AreaUnderROC: 0.8619206990106906
Root mean squared error: 0.36420389397689373
Relative absolute error: 35.5605260886927
Root relative squared error: 77.25931294968152
Weighted TruePositiveRate: 0.7717868338557994
Weighted MatthewsCorrelation: 0.6448139366998484
Weighted FMeasure: 0.7738996772103626
Iteration time: 841.0
Weighted AreaUnderPRC: 0.7572086386950612
Mean absolute error: 0.15804678261641555
Coverage of cases: 82.88401253918495
Instances selection time: 841.0
Test time: 2098.0
Accumulative iteration time: 26172.0
Weighted Recall: 0.7717868338557994
Weighted FalsePositiveRate: 0.11193809210393735
Kappa statistic: 0.6432504043219436
Training time: 0.0
		
Iteration: 33
Labeled set size: 959
Unlabelled set size: 636
	
Mean region size: 38.808777429467106
Incorrectly Classified Instances: 22.63322884012539
Correctly Classified Instances: 77.3667711598746
Weighted Precision: 0.789176713694815
Weighted AreaUnderROC: 0.8640126060868109
Root mean squared error: 0.361658127605171
Relative absolute error: 35.0810539430021
Root relative squared error: 76.71927435025297
Weighted TruePositiveRate: 0.773667711598746
Weighted MatthewsCorrelation: 0.6467005509895207
Weighted FMeasure: 0.7757503002692104
Iteration time: 829.0
Weighted AreaUnderPRC: 0.760303677181528
Mean absolute error: 0.1559157953022351
Coverage of cases: 83.13479623824452
Instances selection time: 828.0
Test time: 2139.0
Accumulative iteration time: 27001.0
Weighted Recall: 0.773667711598746
Weighted FalsePositiveRate: 0.11230043791193241
Kappa statistic: 0.6455125675443558
Training time: 1.0
		
Iteration: 34
Labeled set size: 979
Unlabelled set size: 616
	
Mean region size: 38.683385579937315
Incorrectly Classified Instances: 22.31974921630094
Correctly Classified Instances: 77.68025078369907
Weighted Precision: 0.7908105781968231
Weighted AreaUnderROC: 0.866113516014043
Root mean squared error: 0.3585804904389169
Relative absolute error: 34.45246595022729
Root relative squared error: 76.06640891716597
Weighted TruePositiveRate: 0.7768025078369906
Weighted MatthewsCorrelation: 0.6504000432766606
Weighted FMeasure: 0.7788620461782326
Iteration time: 824.0
Weighted AreaUnderPRC: 0.7637197913616843
Mean absolute error: 0.15312207088990257
Coverage of cases: 83.38557993730407
Instances selection time: 824.0
Test time: 2194.0
Accumulative iteration time: 27825.0
Weighted Recall: 0.7768025078369906
Weighted FalsePositiveRate: 0.11226381190555022
Kappa statistic: 0.6495593725371118
Training time: 0.0
		
Iteration: 35
Labeled set size: 999
Unlabelled set size: 596
	
Mean region size: 38.766980146290514
Incorrectly Classified Instances: 22.25705329153605
Correctly Classified Instances: 77.74294670846395
Weighted Precision: 0.7902421239519737
Weighted AreaUnderROC: 0.8670759812508869
Root mean squared error: 0.357693741798512
Relative absolute error: 34.357688619153706
Root relative squared error: 75.8783011241145
Weighted TruePositiveRate: 0.7774294670846394
Weighted MatthewsCorrelation: 0.650267443511232
Weighted FMeasure: 0.7794286206521333
Iteration time: 806.0
Weighted AreaUnderPRC: 0.7643563257826487
Mean absolute error: 0.15270083830735326
Coverage of cases: 83.57366771159874
Instances selection time: 806.0
Test time: 2228.0
Accumulative iteration time: 28631.0
Weighted Recall: 0.7774294670846394
Weighted FalsePositiveRate: 0.11350110269129622
Kappa statistic: 0.649871072663076
Training time: 0.0
		
Iteration: 36
Labeled set size: 1019
Unlabelled set size: 576
	
Mean region size: 38.704284221525626
Incorrectly Classified Instances: 22.19435736677116
Correctly Classified Instances: 77.80564263322884
Weighted Precision: 0.7898424041114498
Weighted AreaUnderROC: 0.8678332601175485
Root mean squared error: 0.3566857003036208
Relative absolute error: 34.122486318467075
Root relative squared error: 75.66446323108799
Weighted TruePositiveRate: 0.7780564263322884
Weighted MatthewsCorrelation: 0.6500935083826735
Weighted FMeasure: 0.7799822181980752
Iteration time: 792.0
Weighted AreaUnderPRC: 0.7660201290479055
Mean absolute error: 0.151655494748746
Coverage of cases: 83.63636363636364
Instances selection time: 791.0
Test time: 2295.0
Accumulative iteration time: 29423.0
Weighted Recall: 0.7780564263322884
Weighted FalsePositiveRate: 0.11473634950716215
Kappa statistic: 0.6502808258037663
Training time: 1.0
		
Iteration: 37
Labeled set size: 1039
Unlabelled set size: 556
	
Mean region size: 38.78787878787881
Incorrectly Classified Instances: 22.19435736677116
Correctly Classified Instances: 77.80564263322884
Weighted Precision: 0.790535088627747
Weighted AreaUnderROC: 0.8690023625425096
Root mean squared error: 0.355697882407779
Relative absolute error: 34.034612998703814
Root relative squared error: 75.45491541126985
Weighted TruePositiveRate: 0.7780564263322884
Weighted MatthewsCorrelation: 0.6507631322217678
Weighted FMeasure: 0.7800404724459657
Iteration time: 774.0
Weighted AreaUnderPRC: 0.7674536910191657
Mean absolute error: 0.15126494666090928
Coverage of cases: 83.76175548589342
Instances selection time: 774.0
Test time: 2313.0
Accumulative iteration time: 30197.0
Weighted Recall: 0.7780564263322884
Weighted FalsePositiveRate: 0.11377895259406796
Kappa statistic: 0.6506659638285868
Training time: 0.0
		
Iteration: 38
Labeled set size: 1059
Unlabelled set size: 536
	
Mean region size: 38.82967607105542
Incorrectly Classified Instances: 22.06896551724138
Correctly Classified Instances: 77.93103448275862
Weighted Precision: 0.7906817518128577
Weighted AreaUnderROC: 0.8687337158356467
Root mean squared error: 0.35459143789723874
Relative absolute error: 33.90125974210813
Root relative squared error: 75.22020308634697
Weighted TruePositiveRate: 0.7793103448275862
Weighted MatthewsCorrelation: 0.651511906259479
Weighted FMeasure: 0.7812352283375978
Iteration time: 768.0
Weighted AreaUnderPRC: 0.7672753738274892
Mean absolute error: 0.150672265520484
Coverage of cases: 83.8871473354232
Instances selection time: 767.0
Test time: 2353.0
Accumulative iteration time: 30965.0
Weighted Recall: 0.7793103448275862
Weighted FalsePositiveRate: 0.11481675747262532
Kappa statistic: 0.6519701585983095
Training time: 1.0
		
Iteration: 39
Labeled set size: 1079
Unlabelled set size: 516
	
Mean region size: 38.87147335423201
Incorrectly Classified Instances: 22.00626959247649
Correctly Classified Instances: 77.99373040752351
Weighted Precision: 0.7912728773438745
Weighted AreaUnderROC: 0.8699379890852647
Root mean squared error: 0.3543134670065688
Relative absolute error: 33.86150268090183
Root relative squared error: 75.16123655581741
Weighted TruePositiveRate: 0.7799373040752351
Weighted MatthewsCorrelation: 0.6523222060697969
Weighted FMeasure: 0.7818402904833565
Iteration time: 740.0
Weighted AreaUnderPRC: 0.7691955002400112
Mean absolute error: 0.15049556747067822
Coverage of cases: 83.94984326018809
Instances selection time: 740.0
Test time: 2628.0
Accumulative iteration time: 31705.0
Weighted Recall: 0.7799373040752351
Weighted FalsePositiveRate: 0.11461727156543669
Kappa statistic: 0.6529590948651001
Training time: 0.0
		
Iteration: 40
Labeled set size: 1099
Unlabelled set size: 496
	
Mean region size: 39.01776384535007
Incorrectly Classified Instances: 22.31974921630094
Correctly Classified Instances: 77.68025078369907
Weighted Precision: 0.790864828262065
Weighted AreaUnderROC: 0.8702979079000221
Root mean squared error: 0.3560106059094651
Relative absolute error: 34.23470918208071
Root relative squared error: 75.52125408387344
Weighted TruePositiveRate: 0.7768025078369906
Weighted MatthewsCorrelation: 0.6508951456853281
Weighted FMeasure: 0.7793291715742587
Iteration time: 727.0
Weighted AreaUnderPRC: 0.7688297741063467
Mean absolute error: 0.15215426303147325
Coverage of cases: 83.76175548589342
Instances selection time: 727.0
Test time: 2455.0
Accumulative iteration time: 32432.0
Weighted Recall: 0.7768025078369906
Weighted FalsePositiveRate: 0.11273365315928371
Kappa statistic: 0.6488891362284428
Training time: 0.0
		
Iteration: 41
Labeled set size: 1119
Unlabelled set size: 476
	
Mean region size: 38.89237199582025
Incorrectly Classified Instances: 22.13166144200627
Correctly Classified Instances: 77.86833855799372
Weighted Precision: 0.7948188626428028
Weighted AreaUnderROC: 0.8718419916535968
Root mean squared error: 0.35541142671655157
Relative absolute error: 34.04046695121173
Root relative squared error: 75.39414898273694
Weighted TruePositiveRate: 0.7786833855799373
Weighted MatthewsCorrelation: 0.6559224708845124
Weighted FMeasure: 0.7814449451147357
Iteration time: 710.0
Weighted AreaUnderPRC: 0.7711432543248317
Mean absolute error: 0.15129096422761112
Coverage of cases: 83.76175548589342
Instances selection time: 710.0
Test time: 2500.0
Accumulative iteration time: 33142.0
Weighted Recall: 0.7786833855799373
Weighted FalsePositiveRate: 0.10926436734502201
Kappa statistic: 0.6526139330789696
Training time: 0.0
		
Iteration: 42
Labeled set size: 1139
Unlabelled set size: 456
	
Mean region size: 38.93416927899684
Incorrectly Classified Instances: 22.44514106583072
Correctly Classified Instances: 77.55485893416927
Weighted Precision: 0.7947860096823477
Weighted AreaUnderROC: 0.8707201050523259
Root mean squared error: 0.3567916418569301
Relative absolute error: 34.316285979537895
Root relative squared error: 75.68693682831433
Weighted TruePositiveRate: 0.7755485893416928
Weighted MatthewsCorrelation: 0.6534747525692219
Weighted FMeasure: 0.7785870252657746
Iteration time: 692.0
Weighted AreaUnderPRC: 0.7693276399688167
Mean absolute error: 0.15251682657572743
Coverage of cases: 83.69905956112852
Instances selection time: 692.0
Test time: 2555.0
Accumulative iteration time: 33834.0
Weighted Recall: 0.7755485893416928
Weighted FalsePositiveRate: 0.1083381458519632
Kappa statistic: 0.6488516851749131
Training time: 0.0
		
Iteration: 43
Labeled set size: 1159
Unlabelled set size: 436
	
Mean region size: 38.955067920585115
Incorrectly Classified Instances: 22.570532915360502
Correctly Classified Instances: 77.4294670846395
Weighted Precision: 0.79765213995384
Weighted AreaUnderROC: 0.8721453061041923
Root mean squared error: 0.3572215031755873
Relative absolute error: 34.41531542431533
Root relative squared error: 75.77812418433201
Weighted TruePositiveRate: 0.774294670846395
Weighted MatthewsCorrelation: 0.6540128242254006
Weighted FMeasure: 0.7773993956029539
Iteration time: 675.0
Weighted AreaUnderPRC: 0.7703727748728333
Mean absolute error: 0.15295695744140494
Coverage of cases: 83.69905956112852
Instances selection time: 675.0
Test time: 2585.0
Accumulative iteration time: 34509.0
Weighted Recall: 0.774294670846395
Weighted FalsePositiveRate: 0.10633613082737814
Kappa statistic: 0.6484310424001225
Training time: 0.0
		
Iteration: 44
Labeled set size: 1179
Unlabelled set size: 416
	
Mean region size: 38.97596656217341
Incorrectly Classified Instances: 22.75862068965517
Correctly Classified Instances: 77.24137931034483
Weighted Precision: 0.7993926046705728
Weighted AreaUnderROC: 0.8705644897088544
Root mean squared error: 0.35871579278681465
Relative absolute error: 34.70344855309846
Root relative squared error: 76.09511087947867
Weighted TruePositiveRate: 0.7724137931034483
Weighted MatthewsCorrelation: 0.6537051445194845
Weighted FMeasure: 0.7757802261772909
Iteration time: 651.0
Weighted AreaUnderPRC: 0.7691375317392526
Mean absolute error: 0.15423754912488555
Coverage of cases: 83.57366771159874
Instances selection time: 651.0
Test time: 2626.0
Accumulative iteration time: 35160.0
Weighted Recall: 0.7724137931034483
Weighted FalsePositiveRate: 0.10501230016652877
Kappa statistic: 0.6465618859311504
Training time: 0.0
		
Iteration: 45
Labeled set size: 1199
Unlabelled set size: 396
	
Mean region size: 39.05956112852661
Incorrectly Classified Instances: 23.260188087774296
Correctly Classified Instances: 76.7398119122257
Weighted Precision: 0.7976700392300298
Weighted AreaUnderROC: 0.8684977271354615
Root mean squared error: 0.36211086824460076
Relative absolute error: 35.31381964664235
Root relative squared error: 76.81531514313083
Weighted TruePositiveRate: 0.7673981191222571
Weighted MatthewsCorrelation: 0.647987068942396
Weighted FMeasure: 0.7710158004138541
Iteration time: 630.0
Weighted AreaUnderPRC: 0.7664693944834527
Mean absolute error: 0.15695030954063624
Coverage of cases: 83.2601880877743
Instances selection time: 630.0
Test time: 2670.0
Accumulative iteration time: 35790.0
Weighted Recall: 0.7673981191222571
Weighted FalsePositiveRate: 0.10611654382491699
Kappa statistic: 0.6397521010833402
Training time: 0.0
		
Iteration: 46
Labeled set size: 1219
Unlabelled set size: 376
	
Mean region size: 39.080459770114906
Incorrectly Classified Instances: 23.573667711598745
Correctly Classified Instances: 76.42633228840126
Weighted Precision: 0.7982162714976667
Weighted AreaUnderROC: 0.8693455155866929
Root mean squared error: 0.36384364389715224
Relative absolute error: 35.586743117245994
Root relative squared error: 77.18289236738904
Weighted TruePositiveRate: 0.7642633228840126
Weighted MatthewsCorrelation: 0.6458129166545465
Weighted FMeasure: 0.7678269503886113
Iteration time: 674.0
Weighted AreaUnderPRC: 0.7671000633896415
Mean absolute error: 0.1581633027433191
Coverage of cases: 83.07210031347962
Instances selection time: 674.0
Test time: 2907.0
Accumulative iteration time: 36464.0
Weighted Recall: 0.7642633228840126
Weighted FalsePositiveRate: 0.10519236630173824
Kappa statistic: 0.6362765225143813
Training time: 0.0
		
Time end:Wed Nov 01 12.12.00 EET 2017