Wed Nov 01 13.06.02 EET 2017
Dataset: splice
Test set size: 1595
Initial Labelled set size: 319
Initial Unlabelled set size: 1276
Batch mode: QBestBatchMode
Batch size: 20
Classifiers: RandomForest-1cores
Scenario: PoolBasedSamplingScenario
Query strategy: MarginSamplingQueryStrategy-1cores
Time begining: Wed Nov 01 13.06.02 EET 2017
		
Iteration: 1
Labeled set size: 319
Unlabelled set size: 1276
	
Mean region size: 99.56112852664579
Incorrectly Classified Instances: 29.09090909090909
Correctly Classified Instances: 70.9090909090909
Weighted Precision: 0.7244745956245142
Weighted AreaUnderROC: 0.85965383013392
Root mean squared error: 0.3837286216925218
Relative absolute error: 75.34064270797
Root relative squared error: 81.40113316024393
Weighted TruePositiveRate: 0.7090909090909091
Weighted MatthewsCorrelation: 0.5093169346310397
Weighted FMeasure: 0.6925447220256843
Iteration time: 70.0
Weighted AreaUnderPRC: 0.7958514577514746
Mean absolute error: 0.33484730092431875
Coverage of cases: 100.0
Instances selection time: 6.0
Test time: 10.0
Accumulative iteration time: 70.0
Weighted Recall: 0.7090909090909091
Weighted FalsePositiveRate: 0.26046647843512155
Kappa statistic: 0.48568303291898224
Training time: 64.0
		
Iteration: 2
Labeled set size: 339
Unlabelled set size: 1256
	
Mean region size: 93.85579937304097
Incorrectly Classified Instances: 25.705329153605014
Correctly Classified Instances: 74.29467084639498
Weighted Precision: 0.7400014659959693
Weighted AreaUnderROC: 0.8899089218318681
Root mean squared error: 0.3652334603361955
Relative absolute error: 70.24944926453618
Root relative squared error: 77.47771695598466
Weighted TruePositiveRate: 0.7429467084639498
Weighted MatthewsCorrelation: 0.5738704226746277
Weighted FMeasure: 0.7373017931829704
Iteration time: 60.0
Weighted AreaUnderPRC: 0.8283376029047214
Mean absolute error: 0.31221977450905675
Coverage of cases: 99.81191222570533
Instances selection time: 5.0
Test time: 10.0
Accumulative iteration time: 130.0
Weighted Recall: 0.7429467084639498
Weighted FalsePositiveRate: 0.1899618561657259
Kappa statistic: 0.5674461829498589
Training time: 55.0
		
Iteration: 3
Labeled set size: 359
Unlabelled set size: 1236
	
Mean region size: 99.97910135841171
Incorrectly Classified Instances: 21.065830721003135
Correctly Classified Instances: 78.93416927899686
Weighted Precision: 0.7867954089856625
Weighted AreaUnderROC: 0.9036860302887602
Root mean squared error: 0.3607789834348492
Relative absolute error: 70.67026231419996
Root relative squared error: 76.53277970891043
Weighted TruePositiveRate: 0.7893416927899687
Weighted MatthewsCorrelation: 0.6524475374093198
Weighted FMeasure: 0.7755258029518471
Iteration time: 63.0
Weighted AreaUnderPRC: 0.8462157739516792
Mean absolute error: 0.31409005472978474
Coverage of cases: 100.0
Instances selection time: 5.0
Test time: 11.0
Accumulative iteration time: 193.0
Weighted Recall: 0.7893416927899687
Weighted FalsePositiveRate: 0.15997625236203664
Kappa statistic: 0.6449744124807473
Training time: 58.0
		
Iteration: 4
Labeled set size: 379
Unlabelled set size: 1216
	
Mean region size: 99.97910135841171
Incorrectly Classified Instances: 22.25705329153605
Correctly Classified Instances: 77.74294670846395
Weighted Precision: 0.7761890694389534
Weighted AreaUnderROC: 0.9181271482422189
Root mean squared error: 0.3556576350151171
Relative absolute error: 69.64250208109452
Root relative squared error: 75.44637764998697
Weighted TruePositiveRate: 0.7774294670846394
Weighted MatthewsCorrelation: 0.6308554255814135
Weighted FMeasure: 0.7727618802098393
Iteration time: 64.0
Weighted AreaUnderPRC: 0.8773426451807509
Mean absolute error: 0.30952223147153823
Coverage of cases: 100.0
Instances selection time: 5.0
Test time: 10.0
Accumulative iteration time: 257.0
Weighted Recall: 0.7774294670846394
Weighted FalsePositiveRate: 0.1680400232195834
Kappa statistic: 0.6261376481649727
Training time: 59.0
		
Iteration: 5
Labeled set size: 399
Unlabelled set size: 1196
	
Mean region size: 91.13897596656237
Incorrectly Classified Instances: 15.172413793103448
Correctly Classified Instances: 84.82758620689656
Weighted Precision: 0.8479436491811999
Weighted AreaUnderROC: 0.9438808803841329
Root mean squared error: 0.33028651428241984
Relative absolute error: 62.74199139853351
Root relative squared error: 70.06435019506918
Weighted TruePositiveRate: 0.8482758620689655
Weighted MatthewsCorrelation: 0.7483390433975876
Weighted FMeasure: 0.8474007350584722
Iteration time: 74.0
Weighted AreaUnderPRC: 0.9155395386438947
Mean absolute error: 0.27885329510459966
Coverage of cases: 100.0
Instances selection time: 6.0
Test time: 10.0
Accumulative iteration time: 331.0
Weighted Recall: 0.8482758620689655
Weighted FalsePositiveRate: 0.10877800582827989
Kappa statistic: 0.7501273671352008
Training time: 68.0
		
Iteration: 6
Labeled set size: 419
Unlabelled set size: 1176
	
Mean region size: 89.46708463949858
Incorrectly Classified Instances: 13.10344827586207
Correctly Classified Instances: 86.89655172413794
Weighted Precision: 0.8679634468284998
Weighted AreaUnderROC: 0.9565703575034988
Root mean squared error: 0.31415813605285536
Relative absolute error: 58.38819651866284
Root relative squared error: 66.64300451036925
Weighted TruePositiveRate: 0.8689655172413793
Weighted MatthewsCorrelation: 0.7876213191064922
Weighted FMeasure: 0.8674169350433698
Iteration time: 68.0
Weighted AreaUnderPRC: 0.9291899109727472
Mean absolute error: 0.2595030956385074
Coverage of cases: 100.0
Instances selection time: 6.0
Test time: 10.0
Accumulative iteration time: 399.0
Weighted Recall: 0.8689655172413793
Weighted FalsePositiveRate: 0.0917058468912071
Kappa statistic: 0.7838241826653394
Training time: 62.0
		
Iteration: 7
Labeled set size: 439
Unlabelled set size: 1156
	
Mean region size: 94.27377220480686
Incorrectly Classified Instances: 19.059561128526646
Correctly Classified Instances: 80.94043887147335
Weighted Precision: 0.8100616161948032
Weighted AreaUnderROC: 0.928870192399331
Root mean squared error: 0.3441607421681863
Relative absolute error: 66.11727082959186
Root relative squared error: 73.00751838159502
Weighted TruePositiveRate: 0.8094043887147335
Weighted MatthewsCorrelation: 0.6842677911778584
Weighted FMeasure: 0.8060431040765916
Iteration time: 71.0
Weighted AreaUnderPRC: 0.8909138215655608
Mean absolute error: 0.2938545370204149
Coverage of cases: 100.0
Instances selection time: 5.0
Test time: 11.0
Accumulative iteration time: 470.0
Weighted Recall: 0.8094043887147335
Weighted FalsePositiveRate: 0.1473941510354491
Kappa statistic: 0.6803130937923196
Training time: 66.0
		
Iteration: 8
Labeled set size: 459
Unlabelled set size: 1136
	
Mean region size: 99.9791013584117
Incorrectly Classified Instances: 21.253918495297807
Correctly Classified Instances: 78.74608150470219
Weighted Precision: 0.7853678571475511
Weighted AreaUnderROC: 0.9201733008635394
Root mean squared error: 0.35718088933832537
Relative absolute error: 70.18008552376592
Root relative squared error: 75.76950868841065
Weighted TruePositiveRate: 0.7874608150470219
Weighted MatthewsCorrelation: 0.6511581345295595
Weighted FMeasure: 0.7825397015515961
Iteration time: 95.0
Weighted AreaUnderPRC: 0.8716379970021588
Mean absolute error: 0.3119114912167445
Coverage of cases: 100.0
Instances selection time: 6.0
Test time: 10.0
Accumulative iteration time: 565.0
Weighted Recall: 0.7874608150470219
Weighted FalsePositiveRate: 0.15337651882976902
Kappa statistic: 0.6451806169482271
Training time: 89.0
		
Iteration: 9
Labeled set size: 479
Unlabelled set size: 1116
	
Mean region size: 92.68547544409638
Incorrectly Classified Instances: 18.557993730407524
Correctly Classified Instances: 81.44200626959248
Weighted Precision: 0.8133969362646497
Weighted AreaUnderROC: 0.9337825225456206
Root mean squared error: 0.3390848921881424
Relative absolute error: 64.864468383407
Root relative squared error: 71.93076799924265
Weighted TruePositiveRate: 0.8144200626959248
Weighted MatthewsCorrelation: 0.6939386686242792
Weighted FMeasure: 0.8131184449898162
Iteration time: 64.0
Weighted AreaUnderPRC: 0.9009992134590132
Mean absolute error: 0.2882865261484821
Coverage of cases: 100.0
Instances selection time: 5.0
Test time: 11.0
Accumulative iteration time: 629.0
Weighted Recall: 0.8144200626959248
Weighted FalsePositiveRate: 0.1261907041117233
Kappa statistic: 0.6954257085681035
Training time: 59.0
		
Iteration: 10
Labeled set size: 499
Unlabelled set size: 1096
	
Mean region size: 96.17554858934184
Incorrectly Classified Instances: 21.379310344827587
Correctly Classified Instances: 78.62068965517241
Weighted Precision: 0.785287549222904
Weighted AreaUnderROC: 0.9071868133436324
Root mean squared error: 0.35641337312390786
Relative absolute error: 69.18847688993509
Root relative squared error: 75.60669391244508
Weighted TruePositiveRate: 0.7862068965517242
Weighted MatthewsCorrelation: 0.6450496230098981
Weighted FMeasure: 0.7836580533955708
Iteration time: 108.0
Weighted AreaUnderPRC: 0.8669539165541277
Mean absolute error: 0.3075043417330518
Coverage of cases: 100.0
Instances selection time: 5.0
Test time: 11.0
Accumulative iteration time: 737.0
Weighted Recall: 0.7862068965517242
Weighted FalsePositiveRate: 0.15616693895700165
Kappa statistic: 0.6442217057498723
Training time: 103.0
		
Iteration: 11
Labeled set size: 519
Unlabelled set size: 1076
	
Mean region size: 97.07419017763843
Incorrectly Classified Instances: 21.442006269592476
Correctly Classified Instances: 78.55799373040752
Weighted Precision: 0.7842829705505762
Weighted AreaUnderROC: 0.9064885357718044
Root mean squared error: 0.3593391001495076
Relative absolute error: 70.47173489903744
Root relative squared error: 76.22733433835577
Weighted TruePositiveRate: 0.7855799373040753
Weighted MatthewsCorrelation: 0.639030916429334
Weighted FMeasure: 0.7799675946056345
Iteration time: 112.0
Weighted AreaUnderPRC: 0.8632642694370674
Mean absolute error: 0.3132077106623957
Coverage of cases: 99.9373040752351
Instances selection time: 5.0
Test time: 11.0
Accumulative iteration time: 849.0
Weighted Recall: 0.7855799373040753
Weighted FalsePositiveRate: 0.16498027178886446
Kappa statistic: 0.64110044371457
Training time: 107.0
		
Iteration: 12
Labeled set size: 539
Unlabelled set size: 1056
	
Mean region size: 92.95715778474417
Incorrectly Classified Instances: 18.11912225705329
Correctly Classified Instances: 81.88087774294671
Weighted Precision: 0.8172378827928153
Weighted AreaUnderROC: 0.9303425646320092
Root mean squared error: 0.3393707237542483
Relative absolute error: 64.7750837510242
Root relative squared error: 71.99140203084384
Weighted TruePositiveRate: 0.8188087774294671
Weighted MatthewsCorrelation: 0.7036705478071504
Weighted FMeasure: 0.8169965378782607
Iteration time: 82.0
Weighted AreaUnderPRC: 0.8944119787931533
Mean absolute error: 0.28788926111566965
Coverage of cases: 100.0
Instances selection time: 5.0
Test time: 28.0
Accumulative iteration time: 931.0
Weighted Recall: 0.8188087774294671
Weighted FalsePositiveRate: 0.12576055687731066
Kappa statistic: 0.7005617127203538
Training time: 77.0
		
Iteration: 13
Labeled set size: 559
Unlabelled set size: 1036
	
Mean region size: 95.56948798328105
Incorrectly Classified Instances: 16.802507836990596
Correctly Classified Instances: 83.1974921630094
Weighted Precision: 0.8320195358943461
Weighted AreaUnderROC: 0.9410975480182356
Root mean squared error: 0.337835826121074
Relative absolute error: 65.4060517274798
Root relative squared error: 71.66580107339043
Weighted TruePositiveRate: 0.831974921630094
Weighted MatthewsCorrelation: 0.7233132017995582
Weighted FMeasure: 0.8306883896884405
Iteration time: 99.0
Weighted AreaUnderPRC: 0.9097346252282771
Mean absolute error: 0.2906935632332502
Coverage of cases: 100.0
Instances selection time: 5.0
Test time: 10.0
Accumulative iteration time: 1030.0
Weighted Recall: 0.831974921630094
Weighted FalsePositiveRate: 0.11919216833277445
Kappa statistic: 0.7226455922476244
Training time: 94.0
		
Iteration: 14
Labeled set size: 579
Unlabelled set size: 1016
	
Mean region size: 96.00835945663555
Incorrectly Classified Instances: 19.87460815047022
Correctly Classified Instances: 80.12539184952978
Weighted Precision: 0.8001019170996594
Weighted AreaUnderROC: 0.9034020737657832
Root mean squared error: 0.36030247116136976
Relative absolute error: 70.58728257199975
Root relative squared error: 76.43169619094165
Weighted TruePositiveRate: 0.8012539184952978
Weighted MatthewsCorrelation: 0.6696510965196527
Weighted FMeasure: 0.7993129478968504
Iteration time: 137.0
Weighted AreaUnderPRC: 0.8621191909329887
Mean absolute error: 0.3137212558755616
Coverage of cases: 100.0
Instances selection time: 19.0
Test time: 12.0
Accumulative iteration time: 1167.0
Weighted Recall: 0.8012539184952978
Weighted FalsePositiveRate: 0.14040396017185255
Kappa statistic: 0.6722202593765498
Training time: 118.0
		
Iteration: 15
Labeled set size: 599
Unlabelled set size: 996
	
Mean region size: 93.8557993730411
Incorrectly Classified Instances: 20.689655172413794
Correctly Classified Instances: 79.3103448275862
Weighted Precision: 0.7934946928497865
Weighted AreaUnderROC: 0.9120139444769818
Root mean squared error: 0.3516715363666924
Relative absolute error: 67.84040342758526
Root relative squared error: 74.60079843455308
Weighted TruePositiveRate: 0.7931034482758621
Weighted MatthewsCorrelation: 0.6549630595329786
Weighted FMeasure: 0.788666038504443
Iteration time: 142.0
Weighted AreaUnderPRC: 0.8694006141069817
Mean absolute error: 0.30151290412260795
Coverage of cases: 99.87460815047022
Instances selection time: 19.0
Test time: 12.0
Accumulative iteration time: 1309.0
Weighted Recall: 0.7931034482758621
Weighted FalsePositiveRate: 0.15828837464307743
Kappa statistic: 0.6534886813544192
Training time: 123.0
		
Iteration: 16
Labeled set size: 619
Unlabelled set size: 976
	
Mean region size: 97.91013584117029
Incorrectly Classified Instances: 15.047021943573668
Correctly Classified Instances: 84.95297805642633
Weighted Precision: 0.8499235899511983
Weighted AreaUnderROC: 0.9484339096335352
Root mean squared error: 0.3377702166120463
Relative absolute error: 66.14850289161215
Root relative squared error: 71.65188319476728
Weighted TruePositiveRate: 0.8495297805642633
Weighted MatthewsCorrelation: 0.7566275442901081
Weighted FMeasure: 0.848207954162115
Iteration time: 108.0
Weighted AreaUnderPRC: 0.9199977178327843
Mean absolute error: 0.29399334618494954
Coverage of cases: 99.87460815047022
Instances selection time: 4.0
Test time: 24.0
Accumulative iteration time: 1417.0
Weighted Recall: 0.8495297805642633
Weighted FalsePositiveRate: 0.09691275472545319
Kappa statistic: 0.7539538991365247
Training time: 104.0
		
Iteration: 17
Labeled set size: 639
Unlabelled set size: 956
	
Mean region size: 91.55694879832853
Incorrectly Classified Instances: 16.551724137931036
Correctly Classified Instances: 83.44827586206897
Weighted Precision: 0.8339668048705761
Weighted AreaUnderROC: 0.9324914998032909
Root mean squared error: 0.3332033506815541
Relative absolute error: 63.19321366923997
Root relative squared error: 70.68310463430105
Weighted TruePositiveRate: 0.8344827586206897
Weighted MatthewsCorrelation: 0.7278178970267198
Weighted FMeasure: 0.833666441629395
Iteration time: 142.0
Weighted AreaUnderPRC: 0.8976989488589477
Mean absolute error: 0.28085872741885065
Coverage of cases: 99.9373040752351
Instances selection time: 20.0
Test time: 11.0
Accumulative iteration time: 1559.0
Weighted Recall: 0.8344827586206897
Weighted FalsePositiveRate: 0.10835995284545162
Kappa statistic: 0.7300559851116657
Training time: 122.0
		
Iteration: 18
Labeled set size: 659
Unlabelled set size: 936
	
Mean region size: 95.19331243469179
Incorrectly Classified Instances: 15.736677115987462
Correctly Classified Instances: 84.26332288401254
Weighted Precision: 0.8423852398012889
Weighted AreaUnderROC: 0.9428084410306291
Root mean squared error: 0.3346931034083732
Relative absolute error: 64.63998321521427
Root relative squared error: 70.99912891092853
Weighted TruePositiveRate: 0.8426332288401254
Weighted MatthewsCorrelation: 0.7406758775052079
Weighted FMeasure: 0.8408220552756401
Iteration time: 139.0
Weighted AreaUnderPRC: 0.9094356300914455
Mean absolute error: 0.2872888142898477
Coverage of cases: 100.0
Instances selection time: 5.0
Test time: 11.0
Accumulative iteration time: 1698.0
Weighted Recall: 0.8426332288401254
Weighted FalsePositiveRate: 0.11583020481218194
Kappa statistic: 0.7391037726319796
Training time: 134.0
		
Iteration: 19
Labeled set size: 679
Unlabelled set size: 916
	
Mean region size: 96.99059561128519
Incorrectly Classified Instances: 16.677115987460816
Correctly Classified Instances: 83.32288401253919
Weighted Precision: 0.8321077973952431
Weighted AreaUnderROC: 0.9448645069132475
Root mean squared error: 0.33678487672295404
Relative absolute error: 65.17414744524777
Root relative squared error: 71.44286103956206
Weighted TruePositiveRate: 0.8332288401253919
Weighted MatthewsCorrelation: 0.7282832055762066
Weighted FMeasure: 0.8320543144479976
Iteration time: 116.0
Weighted AreaUnderPRC: 0.9120655597563012
Mean absolute error: 0.2896628775344411
Coverage of cases: 100.0
Instances selection time: 5.0
Test time: 10.0
Accumulative iteration time: 1814.0
Weighted Recall: 0.8332288401253919
Weighted FalsePositiveRate: 0.11258987495879229
Kappa statistic: 0.725658824252104
Training time: 111.0
		
Iteration: 20
Labeled set size: 699
Unlabelled set size: 896
	
Mean region size: 98.11912225705329
Incorrectly Classified Instances: 18.369905956112852
Correctly Classified Instances: 81.63009404388714
Weighted Precision: 0.8155464032961208
Weighted AreaUnderROC: 0.9228878597350427
Root mean squared error: 0.3557619493554047
Relative absolute error: 70.07095929131188
Root relative squared error: 75.46850606320467
Weighted TruePositiveRate: 0.8163009404388715
Weighted MatthewsCorrelation: 0.6958004035375326
Weighted FMeasure: 0.8147081982667935
Iteration time: 133.0
Weighted AreaUnderPRC: 0.8843159698248457
Mean absolute error: 0.311426485739171
Coverage of cases: 100.0
Instances selection time: 5.0
Test time: 11.0
Accumulative iteration time: 1947.0
Weighted Recall: 0.8163009404388715
Weighted FalsePositiveRate: 0.13229811272157677
Kappa statistic: 0.6959784071710675
Training time: 128.0
		
Iteration: 21
Labeled set size: 719
Unlabelled set size: 876
	
Mean region size: 96.0292580982238
Incorrectly Classified Instances: 20.50156739811912
Correctly Classified Instances: 79.49843260188088
Weighted Precision: 0.7933693987603442
Weighted AreaUnderROC: 0.9091467567750094
Root mean squared error: 0.35608757607094005
Relative absolute error: 69.24921268641461
Root relative squared error: 75.53758192081185
Weighted TruePositiveRate: 0.7949843260188088
Weighted MatthewsCorrelation: 0.6617382158398432
Weighted FMeasure: 0.7925568366962477
Iteration time: 139.0
Weighted AreaUnderPRC: 0.8678494196431316
Mean absolute error: 0.30777427860629414
Coverage of cases: 99.9373040752351
Instances selection time: 4.0
Test time: 11.0
Accumulative iteration time: 2086.0
Weighted Recall: 0.7949843260188088
Weighted FalsePositiveRate: 0.14621750572342188
Kappa statistic: 0.6598175570965671
Training time: 135.0
		
Iteration: 22
Labeled set size: 739
Unlabelled set size: 856
	
Mean region size: 92.07941483803569
Incorrectly Classified Instances: 14.921630094043888
Correctly Classified Instances: 85.07836990595611
Weighted Precision: 0.8500261354292666
Weighted AreaUnderROC: 0.9526306842861302
Root mean squared error: 0.3230692026838789
Relative absolute error: 61.30884201662577
Root relative squared error: 68.53332720308981
Weighted TruePositiveRate: 0.8507836990595611
Weighted MatthewsCorrelation: 0.7545794696585019
Weighted FMeasure: 0.8498178231189609
Iteration time: 152.0
Weighted AreaUnderPRC: 0.9280000885589483
Mean absolute error: 0.2724837422961207
Coverage of cases: 99.9373040752351
Instances selection time: 5.0
Test time: 11.0
Accumulative iteration time: 2238.0
Weighted Recall: 0.8507836990595611
Weighted FalsePositiveRate: 0.10368063329341518
Kappa statistic: 0.7546815111892914
Training time: 147.0
		
Iteration: 23
Labeled set size: 759
Unlabelled set size: 836
	
Mean region size: 98.2236154649948
Incorrectly Classified Instances: 20.564263322884013
Correctly Classified Instances: 79.43573667711598
Weighted Precision: 0.7918906550804787
Weighted AreaUnderROC: 0.9174977413950851
Root mean squared error: 0.35779494029181313
Relative absolute error: 70.26588756853145
Root relative squared error: 75.89976856637223
Weighted TruePositiveRate: 0.7943573667711599
Weighted MatthewsCorrelation: 0.6644729758627773
Weighted FMeasure: 0.792036065651597
Iteration time: 147.0
Weighted AreaUnderPRC: 0.8688375618466979
Mean absolute error: 0.31229283363792465
Coverage of cases: 100.0
Instances selection time: 4.0
Test time: 12.0
Accumulative iteration time: 2385.0
Weighted Recall: 0.7943573667711599
Weighted FalsePositiveRate: 0.1401966369886718
Kappa statistic: 0.6599560482987727
Training time: 143.0
		
Iteration: 24
Labeled set size: 779
Unlabelled set size: 816
	
Mean region size: 92.16300940438883
Incorrectly Classified Instances: 17.115987460815045
Correctly Classified Instances: 82.88401253918495
Weighted Precision: 0.8277858622648634
Weighted AreaUnderROC: 0.9402053278316808
Root mean squared error: 0.3332146176243152
Relative absolute error: 63.44258998340709
Root relative squared error: 70.68549471378992
Weighted TruePositiveRate: 0.8288401253918495
Weighted MatthewsCorrelation: 0.7174468192487364
Weighted FMeasure: 0.827372020794221
Iteration time: 154.0
Weighted AreaUnderPRC: 0.9084442055977818
Mean absolute error: 0.2819670665929268
Coverage of cases: 99.9373040752351
Instances selection time: 4.0
Test time: 11.0
Accumulative iteration time: 2539.0
Weighted Recall: 0.8288401253918495
Weighted FalsePositiveRate: 0.1216236492684788
Kappa statistic: 0.7173841507699915
Training time: 150.0
		
Iteration: 25
Labeled set size: 799
Unlabelled set size: 796
	
Mean region size: 99.95820271682341
Incorrectly Classified Instances: 15.54858934169279
Correctly Classified Instances: 84.45141065830721
Weighted Precision: 0.843707349190547
Weighted AreaUnderROC: 0.9402837451604092
Root mean squared error: 0.3391024027527547
Relative absolute error: 66.22797771627909
Root relative squared error: 71.93448255093658
Weighted TruePositiveRate: 0.8445141065830721
Weighted MatthewsCorrelation: 0.7438952897890143
Weighted FMeasure: 0.8433345831518878
Iteration time: 126.0
Weighted AreaUnderPRC: 0.9099091800729411
Mean absolute error: 0.2943465676279137
Coverage of cases: 100.0
Instances selection time: 4.0
Test time: 10.0
Accumulative iteration time: 2665.0
Weighted Recall: 0.8445141065830721
Weighted FalsePositiveRate: 0.1056632285460211
Kappa statistic: 0.7451817342020535
Training time: 122.0
		
Iteration: 26
Labeled set size: 819
Unlabelled set size: 776
	
Mean region size: 98.55799373040757
Incorrectly Classified Instances: 19.3730407523511
Correctly Classified Instances: 80.6269592476489
Weighted Precision: 0.8053431900572453
Weighted AreaUnderROC: 0.915060151525428
Root mean squared error: 0.35910076565468474
Relative absolute error: 70.90867673131706
Root relative squared error: 76.17677595711179
Weighted TruePositiveRate: 0.806269592476489
Weighted MatthewsCorrelation: 0.6797604825707874
Weighted FMeasure: 0.8032696176988686
Iteration time: 151.0
Weighted AreaUnderPRC: 0.8728623016326799
Mean absolute error: 0.31514967436141633
Coverage of cases: 99.9373040752351
Instances selection time: 4.0
Test time: 12.0
Accumulative iteration time: 2816.0
Weighted Recall: 0.806269592476489
Weighted FalsePositiveRate: 0.14407443725965483
Kappa statistic: 0.676759163917546
Training time: 147.0
		
Iteration: 27
Labeled set size: 839
Unlabelled set size: 756
	
Mean region size: 96.65621734587243
Incorrectly Classified Instances: 18.683385579937305
Correctly Classified Instances: 81.31661442006269
Weighted Precision: 0.8118101056604735
Weighted AreaUnderROC: 0.9290746576575053
Root mean squared error: 0.34645366210102924
Relative absolute error: 67.4479799951998
Root relative squared error: 73.49392015156432
Weighted TruePositiveRate: 0.8131661442006269
Weighted MatthewsCorrelation: 0.692717708212554
Weighted FMeasure: 0.8116177906342272
Iteration time: 144.0
Weighted AreaUnderPRC: 0.8938500681746143
Mean absolute error: 0.29976879997867256
Coverage of cases: 100.0
Instances selection time: 4.0
Test time: 12.0
Accumulative iteration time: 2960.0
Weighted Recall: 0.8131661442006269
Weighted FalsePositiveRate: 0.1299392024753435
Kappa statistic: 0.6916842778506441
Training time: 140.0
		
Iteration: 28
Labeled set size: 859
Unlabelled set size: 736
	
Mean region size: 99.91640543364683
Incorrectly Classified Instances: 21.504702194357368
Correctly Classified Instances: 78.49529780564264
Weighted Precision: 0.7840927897482332
Weighted AreaUnderROC: 0.9119634765084956
Root mean squared error: 0.3683974369909858
Relative absolute error: 73.90645584296098
Root relative squared error: 78.1488977604201
Weighted TruePositiveRate: 0.7849529780564264
Weighted MatthewsCorrelation: 0.643045028559797
Weighted FMeasure: 0.7839413586444868
Iteration time: 143.0
Weighted AreaUnderPRC: 0.8678988339508518
Mean absolute error: 0.328473137079834
Coverage of cases: 100.0
Instances selection time: 16.0
Test time: 10.0
Accumulative iteration time: 3103.0
Weighted Recall: 0.7849529780564264
Weighted FalsePositiveRate: 0.1489094607597989
Kappa statistic: 0.6462493057023901
Training time: 127.0
		
Iteration: 29
Labeled set size: 879
Unlabelled set size: 716
	
Mean region size: 91.97492163009424
Incorrectly Classified Instances: 13.22884012539185
Correctly Classified Instances: 86.77115987460814
Weighted Precision: 0.8672117320141083
Weighted AreaUnderROC: 0.956622508318493
Root mean squared error: 0.31819799880771127
Relative absolute error: 60.48216614256905
Root relative squared error: 67.49998881507572
Weighted TruePositiveRate: 0.8677115987460815
Weighted MatthewsCorrelation: 0.7844458527513866
Weighted FMeasure: 0.8673570025470065
Iteration time: 196.0
Weighted AreaUnderPRC: 0.9319000462516267
Mean absolute error: 0.268809627300313
Coverage of cases: 100.0
Instances selection time: 4.0
Test time: 12.0
Accumulative iteration time: 3299.0
Weighted Recall: 0.8677115987460815
Weighted FalsePositiveRate: 0.08636384384348605
Kappa statistic: 0.7838765878772583
Training time: 192.0
		
Iteration: 30
Labeled set size: 899
Unlabelled set size: 696
	
Mean region size: 95.86206896551744
Incorrectly Classified Instances: 14.670846394984325
Correctly Classified Instances: 85.32915360501568
Weighted Precision: 0.8535821376569841
Weighted AreaUnderROC: 0.9500653424934966
Root mean squared error: 0.3269527000216406
Relative absolute error: 62.959152147097406
Root relative squared error: 69.35714139376516
Weighted TruePositiveRate: 0.8532915360501567
Weighted MatthewsCorrelation: 0.7555386826487587
Weighted FMeasure: 0.8520858488637421
Iteration time: 171.0
Weighted AreaUnderPRC: 0.9262830085473366
Mean absolute error: 0.2798184539871059
Coverage of cases: 99.9373040752351
Instances selection time: 13.0
Test time: 12.0
Accumulative iteration time: 3470.0
Weighted Recall: 0.8532915360501567
Weighted FalsePositiveRate: 0.11102397004242795
Kappa statistic: 0.7570586937291423
Training time: 158.0
		
Iteration: 31
Labeled set size: 919
Unlabelled set size: 676
	
Mean region size: 93.93939393939422
Incorrectly Classified Instances: 17.55485893416928
Correctly Classified Instances: 82.44514106583073
Weighted Precision: 0.8241438770374404
Weighted AreaUnderROC: 0.9380602075178149
Root mean squared error: 0.3379948222188049
Relative absolute error: 65.00361348214678
Root relative squared error: 71.69952923905674
Weighted TruePositiveRate: 0.8244514106583072
Weighted MatthewsCorrelation: 0.711284293721913
Weighted FMeasure: 0.8235465112549449
Iteration time: 189.0
Weighted AreaUnderPRC: 0.9047041648020503
Mean absolute error: 0.2889049488095478
Coverage of cases: 99.9373040752351
Instances selection time: 4.0
Test time: 12.0
Accumulative iteration time: 3659.0
Weighted Recall: 0.8244514106583072
Weighted FalsePositiveRate: 0.12159485642185158
Kappa statistic: 0.7109701268922687
Training time: 185.0
		
Iteration: 32
Labeled set size: 939
Unlabelled set size: 656
	
Mean region size: 99.87460815047022
Incorrectly Classified Instances: 18.871473354231973
Correctly Classified Instances: 81.12852664576802
Weighted Precision: 0.8109049008122658
Weighted AreaUnderROC: 0.9185311078990266
Root mean squared error: 0.35732980596070907
Relative absolute error: 70.7346873166526
Root relative squared error: 75.80109867446633
Weighted TruePositiveRate: 0.8112852664576803
Weighted MatthewsCorrelation: 0.6840588322905062
Weighted FMeasure: 0.8078544453613385
Iteration time: 165.0
Weighted AreaUnderPRC: 0.8821563700598952
Mean absolute error: 0.3143763880740187
Coverage of cases: 100.0
Instances selection time: 3.0
Test time: 11.0
Accumulative iteration time: 3824.0
Weighted Recall: 0.8112852664576803
Weighted FalsePositiveRate: 0.1463285773533231
Kappa statistic: 0.6844894834209031
Training time: 162.0
		
Iteration: 33
Labeled set size: 959
Unlabelled set size: 636
	
Mean region size: 93.62591431556972
Incorrectly Classified Instances: 14.294670846394984
Correctly Classified Instances: 85.70532915360502
Weighted Precision: 0.8567050448158706
Weighted AreaUnderROC: 0.9553724860070648
Root mean squared error: 0.3228683327552847
Relative absolute error: 61.71802981349257
Root relative squared error: 68.49071625649619
Weighted TruePositiveRate: 0.8570532915360501
Weighted MatthewsCorrelation: 0.7662412759092078
Weighted FMeasure: 0.8560322572884775
Iteration time: 189.0
Weighted AreaUnderPRC: 0.9275186841566515
Mean absolute error: 0.2743023547266399
Coverage of cases: 100.0
Instances selection time: 3.0
Test time: 12.0
Accumulative iteration time: 4013.0
Weighted Recall: 0.8570532915360501
Weighted FalsePositiveRate: 0.0983532807546198
Kappa statistic: 0.7650512621888621
Training time: 186.0
		
Iteration: 34
Labeled set size: 979
Unlabelled set size: 616
	
Mean region size: 93.87669801462914
Incorrectly Classified Instances: 13.5423197492163
Correctly Classified Instances: 86.4576802507837
Weighted Precision: 0.864741220695736
Weighted AreaUnderROC: 0.9608097918769425
Root mean squared error: 0.31659510821889114
Relative absolute error: 60.227641710900855
Root relative squared error: 67.15996437361927
Weighted TruePositiveRate: 0.864576802507837
Weighted MatthewsCorrelation: 0.776563267251869
Weighted FMeasure: 0.8636188239106123
Iteration time: 320.0
Weighted AreaUnderPRC: 0.9368349754610644
Mean absolute error: 0.26767840760400985
Coverage of cases: 99.9373040752351
Instances selection time: 4.0
Test time: 12.0
Accumulative iteration time: 4333.0
Weighted Recall: 0.864576802507837
Weighted FalsePositiveRate: 0.09932055891358618
Kappa statistic: 0.7763914201598204
Training time: 316.0
		
Iteration: 35
Labeled set size: 999
Unlabelled set size: 596
	
Mean region size: 95.29780564263352
Incorrectly Classified Instances: 18.683385579937305
Correctly Classified Instances: 81.31661442006269
Weighted Precision: 0.8137247101853098
Weighted AreaUnderROC: 0.9173399445066287
Root mean squared error: 0.35044568218196614
Relative absolute error: 67.87166461952935
Root relative squared error: 74.34075549252334
Weighted TruePositiveRate: 0.8131661442006269
Weighted MatthewsCorrelation: 0.6888887958641856
Weighted FMeasure: 0.8106188783175722
Iteration time: 207.0
Weighted AreaUnderPRC: 0.8748561416534306
Mean absolute error: 0.3016518427534706
Coverage of cases: 100.0
Instances selection time: 3.0
Test time: 12.0
Accumulative iteration time: 4540.0
Weighted Recall: 0.8131661442006269
Weighted FalsePositiveRate: 0.143333220732555
Kappa statistic: 0.6879046385863355
Training time: 204.0
		
Iteration: 36
Labeled set size: 1019
Unlabelled set size: 576
	
Mean region size: 99.87460815047024
Incorrectly Classified Instances: 16.300940438871475
Correctly Classified Instances: 83.69905956112852
Weighted Precision: 0.8384426578174765
Weighted AreaUnderROC: 0.9433289801653834
Root mean squared error: 0.34595406076687707
Relative absolute error: 68.66852921614195
Root relative squared error: 73.38793870418368
Weighted TruePositiveRate: 0.8369905956112853
Weighted MatthewsCorrelation: 0.7285982136313075
Weighted FMeasure: 0.8351472548560669
Iteration time: 170.0
Weighted AreaUnderPRC: 0.9152243621356158
Mean absolute error: 0.30519346318286
Coverage of cases: 100.0
Instances selection time: 3.0
Test time: 10.0
Accumulative iteration time: 4710.0
Weighted Recall: 0.8369905956112853
Weighted FalsePositiveRate: 0.1262305676987402
Kappa statistic: 0.7284901972979964
Training time: 167.0
		
Iteration: 37
Labeled set size: 1039
Unlabelled set size: 556
	
Mean region size: 91.38975966562201
Incorrectly Classified Instances: 16.865203761755485
Correctly Classified Instances: 83.13479623824452
Weighted Precision: 0.8313268404552381
Weighted AreaUnderROC: 0.9440632737031577
Root mean squared error: 0.3240985009717485
Relative absolute error: 60.86498154937944
Root relative squared error: 68.7516743428547
Weighted TruePositiveRate: 0.8313479623824451
Weighted MatthewsCorrelation: 0.7244648876469761
Weighted FMeasure: 0.8311459515566679
Iteration time: 185.0
Weighted AreaUnderPRC: 0.9184036174763802
Mean absolute error: 0.2705110291083592
Coverage of cases: 100.0
Instances selection time: 3.0
Test time: 12.0
Accumulative iteration time: 4895.0
Weighted Recall: 0.8313479623824451
Weighted FalsePositiveRate: 0.10552575075913798
Kappa statistic: 0.72626166668049
Training time: 182.0
		
Iteration: 38
Labeled set size: 1059
Unlabelled set size: 536
	
Mean region size: 96.00835945663553
Incorrectly Classified Instances: 18.369905956112852
Correctly Classified Instances: 81.63009404388714
Weighted Precision: 0.8175418579251563
Weighted AreaUnderROC: 0.9331608749762125
Root mean squared error: 0.34324063695943546
Relative absolute error: 66.74848352977276
Root relative squared error: 72.81233459184119
Weighted TruePositiveRate: 0.8163009404388715
Weighted MatthewsCorrelation: 0.6948582381941604
Weighted FMeasure: 0.8135796379532033
Iteration time: 231.0
Weighted AreaUnderPRC: 0.8980779734901991
Mean absolute error: 0.2966599267989968
Coverage of cases: 100.0
Instances selection time: 12.0
Test time: 12.0
Accumulative iteration time: 5126.0
Weighted Recall: 0.8163009404388715
Weighted FalsePositiveRate: 0.1404196347238368
Kappa statistic: 0.693324382462067
Training time: 219.0
		
Iteration: 39
Labeled set size: 1079
Unlabelled set size: 516
	
Mean region size: 91.59874608150484
Incorrectly Classified Instances: 13.60501567398119
Correctly Classified Instances: 86.39498432601881
Weighted Precision: 0.8633236889833582
Weighted AreaUnderROC: 0.9556420963428103
Root mean squared error: 0.31319094853490176
Relative absolute error: 58.64299263400866
Root relative squared error: 66.43783305458206
Weighted TruePositiveRate: 0.8639498432601881
Weighted MatthewsCorrelation: 0.7777274300953271
Weighted FMeasure: 0.8628144107566766
Iteration time: 189.0
Weighted AreaUnderPRC: 0.9328635287808126
Mean absolute error: 0.26063552281782215
Coverage of cases: 99.9373040752351
Instances selection time: 3.0
Test time: 28.0
Accumulative iteration time: 5315.0
Weighted Recall: 0.8639498432601881
Weighted FalsePositiveRate: 0.09616506768518507
Kappa statistic: 0.7756801406134859
Training time: 186.0
		
Iteration: 40
Labeled set size: 1099
Unlabelled set size: 496
	
Mean region size: 97.82654127481709
Incorrectly Classified Instances: 14.733542319749215
Correctly Classified Instances: 85.26645768025078
Weighted Precision: 0.852230617951733
Weighted AreaUnderROC: 0.9515104132035171
Root mean squared error: 0.3341274360858692
Relative absolute error: 65.24813228948366
Root relative squared error: 70.87913275103706
Weighted TruePositiveRate: 0.8526645768025078
Weighted MatthewsCorrelation: 0.7581335245635599
Weighted FMeasure: 0.8513052527384337
Iteration time: 218.0
Weighted AreaUnderPRC: 0.9285441920680125
Mean absolute error: 0.28999169906437844
Coverage of cases: 100.0
Instances selection time: 3.0
Test time: 12.0
Accumulative iteration time: 5533.0
Weighted Recall: 0.8526645768025078
Weighted FalsePositiveRate: 0.10500241998438448
Kappa statistic: 0.7568610178463008
Training time: 215.0
		
Iteration: 41
Labeled set size: 1119
Unlabelled set size: 476
	
Mean region size: 99.9582027168234
Incorrectly Classified Instances: 15.423197492163009
Correctly Classified Instances: 84.57680250783699
Weighted Precision: 0.845807237239292
Weighted AreaUnderROC: 0.9530428427867287
Root mean squared error: 0.34071603349030766
Relative absolute error: 67.78520320753877
Root relative squared error: 72.276785321993
Weighted TruePositiveRate: 0.8457680250783699
Weighted MatthewsCorrelation: 0.7432443223439165
Weighted FMeasure: 0.8436263231730462
Iteration time: 206.0
Weighted AreaUnderPRC: 0.9293681888309474
Mean absolute error: 0.30126756981129027
Coverage of cases: 100.0
Instances selection time: 2.0
Test time: 14.0
Accumulative iteration time: 5739.0
Weighted Recall: 0.8457680250783699
Weighted FalsePositiveRate: 0.11818775241182855
Kappa statistic: 0.7437128423791851
Training time: 204.0
		
Iteration: 42
Labeled set size: 1139
Unlabelled set size: 456
	
Mean region size: 91.43155694879864
Incorrectly Classified Instances: 13.981191222570533
Correctly Classified Instances: 86.01880877742947
Weighted Precision: 0.8597449621884129
Weighted AreaUnderROC: 0.9524112570040849
Root mean squared error: 0.31857627701503904
Relative absolute error: 60.214305172499856
Root relative squared error: 67.58023374074868
Weighted TruePositiveRate: 0.8601880877742947
Weighted MatthewsCorrelation: 0.7701070074290827
Weighted FMeasure: 0.8595656486246784
Iteration time: 224.0
Weighted AreaUnderPRC: 0.9304879809474933
Mean absolute error: 0.26761913410000543
Coverage of cases: 99.9373040752351
Instances selection time: 2.0
Test time: 12.0
Accumulative iteration time: 5963.0
Weighted Recall: 0.8601880877742947
Weighted FalsePositiveRate: 0.09543901342260824
Kappa statistic: 0.7708671404984446
Training time: 222.0
		
Iteration: 43
Labeled set size: 1159
Unlabelled set size: 436
	
Mean region size: 90.15673981191244
Incorrectly Classified Instances: 12.539184952978056
Correctly Classified Instances: 87.46081504702194
Weighted Precision: 0.8759325007126393
Weighted AreaUnderROC: 0.954908262044498
Root mean squared error: 0.3107024305997192
Relative absolute error: 57.8119874619799
Root relative squared error: 65.90993868246049
Weighted TruePositiveRate: 0.8746081504702194
Weighted MatthewsCorrelation: 0.79615227295181
Weighted FMeasure: 0.8733077359062299
Iteration time: 229.0
Weighted AreaUnderPRC: 0.9321117068715773
Mean absolute error: 0.2569421664976943
Coverage of cases: 99.81191222570533
Instances selection time: 2.0
Test time: 13.0
Accumulative iteration time: 6192.0
Weighted Recall: 0.8746081504702194
Weighted FalsePositiveRate: 0.08754082775904136
Kappa statistic: 0.793724304449994
Training time: 227.0
		
Iteration: 44
Labeled set size: 1179
Unlabelled set size: 416
	
Mean region size: 99.91640543364683
Incorrectly Classified Instances: 15.109717868338558
Correctly Classified Instances: 84.89028213166144
Weighted Precision: 0.8487429940870759
Weighted AreaUnderROC: 0.9567502760439551
Root mean squared error: 0.33568807249765453
Relative absolute error: 66.16072543199562
Root relative squared error: 71.21019372795908
Weighted TruePositiveRate: 0.8489028213166144
Weighted MatthewsCorrelation: 0.7512501228268851
Weighted FMeasure: 0.8469776339691294
Iteration time: 229.0
Weighted AreaUnderPRC: 0.9299105696537124
Mean absolute error: 0.2940476685866538
Coverage of cases: 100.0
Instances selection time: 2.0
Test time: 11.0
Accumulative iteration time: 6421.0
Weighted Recall: 0.8489028213166144
Weighted FalsePositiveRate: 0.11144866669049375
Kappa statistic: 0.7495767048582361
Training time: 227.0
		
Iteration: 45
Labeled set size: 1199
Unlabelled set size: 396
	
Mean region size: 93.93939393939418
Incorrectly Classified Instances: 13.730407523510971
Correctly Classified Instances: 86.26959247648902
Weighted Precision: 0.8621199173507089
Weighted AreaUnderROC: 0.960449190950285
Root mean squared error: 0.31865799036404985
Relative absolute error: 60.83843886421021
Root relative squared error: 67.59756775970838
Weighted TruePositiveRate: 0.8626959247648903
Weighted MatthewsCorrelation: 0.7750245283610493
Weighted FMeasure: 0.8618201152287513
Iteration time: 230.0
Weighted AreaUnderPRC: 0.9400412233313483
Mean absolute error: 0.2703930616187182
Coverage of cases: 100.0
Instances selection time: 2.0
Test time: 13.0
Accumulative iteration time: 6651.0
Weighted Recall: 0.8626959247648903
Weighted FalsePositiveRate: 0.09321042501055929
Kappa statistic: 0.7749136365071583
Training time: 228.0
		
Iteration: 46
Labeled set size: 1219
Unlabelled set size: 376
	
Mean region size: 93.10344827586223
Incorrectly Classified Instances: 12.163009404388715
Correctly Classified Instances: 87.83699059561128
Weighted Precision: 0.8782210737286424
Weighted AreaUnderROC: 0.9659602942017695
Root mean squared error: 0.3099253994879341
Relative absolute error: 58.76533962915849
Root relative squared error: 65.74510549195963
Weighted TruePositiveRate: 0.8783699059561129
Weighted MatthewsCorrelation: 0.8016931320673601
Weighted FMeasure: 0.8773727656400976
Iteration time: 229.0
Weighted AreaUnderPRC: 0.9463347392390784
Mean absolute error: 0.2611792872407103
Coverage of cases: 100.0
Instances selection time: 2.0
Test time: 13.0
Accumulative iteration time: 6880.0
Weighted Recall: 0.8783699059561129
Weighted FalsePositiveRate: 0.08634254966932288
Kappa statistic: 0.799627916494256
Training time: 227.0
		
Time end:Wed Nov 01 13.06.15 EET 2017