Wed Nov 01 10.06.43 EET 2017
Dataset: splice
Test set size: 1595
Initial Labelled set size: 319
Initial Unlabelled set size: 1276
Batch mode: QBestBatchMode
Batch size: 20
Classifiers: SMO-1cores
Scenario: PoolBasedSamplingScenario
Query strategy: EntropySamplingQueryStrategy-1cores
Time begining: Wed Nov 01 10.06.43 EET 2017
		
Iteration: 1
Labeled set size: 319
Unlabelled set size: 1276
	
Mean region size: 67.08463949843151
Incorrectly Classified Instances: 8.652037617554859
Correctly Classified Instances: 91.34796238244515
Weighted Precision: 0.9148906820110267
Weighted AreaUnderROC: 0.9481557698414137
Root mean squared error: 0.3091544180456511
Relative absolute error: 55.04702194357364
Root relative squared error: 65.58155563015745
Weighted TruePositiveRate: 0.9134796238244514
Weighted MatthewsCorrelation: 0.8653178065799269
Weighted FMeasure: 0.9135858570968897
Iteration time: 1169.0
Weighted AreaUnderPRC: 0.8798691755836148
Mean absolute error: 0.2446534308603328
Coverage of cases: 98.99686520376176
Instances selection time: 157.0
Test time: 178.0
Accumulative iteration time: 1169.0
Weighted Recall: 0.9134796238244514
Weighted FalsePositiveRate: 0.045535173645535915
Kappa statistic: 0.8599656832899761
Training time: 1012.0
		
Iteration: 2
Labeled set size: 339
Unlabelled set size: 1256
	
Mean region size: 67.06374085684318
Incorrectly Classified Instances: 8.338557993730408
Correctly Classified Instances: 91.6614420062696
Weighted Precision: 0.9178031763292206
Weighted AreaUnderROC: 0.9524681686972087
Root mean squared error: 0.3062869243349737
Relative absolute error: 54.63949843260184
Root relative squared error: 64.97326835580853
Weighted TruePositiveRate: 0.9166144200626959
Weighted MatthewsCorrelation: 0.8703409657672607
Weighted FMeasure: 0.9168962629241537
Iteration time: 981.0
Weighted AreaUnderPRC: 0.8878695583130491
Mean absolute error: 0.24284221525601368
Coverage of cases: 99.24764890282131
Instances selection time: 143.0
Test time: 185.0
Accumulative iteration time: 2150.0
Weighted Recall: 0.9166144200626959
Weighted FalsePositiveRate: 0.04311219222069207
Kappa statistic: 0.8651154214209187
Training time: 838.0
		
Iteration: 3
Labeled set size: 359
Unlabelled set size: 1236
	
Mean region size: 67.12643678160808
Incorrectly Classified Instances: 8.150470219435737
Correctly Classified Instances: 91.84952978056427
Weighted Precision: 0.9202103762712053
Weighted AreaUnderROC: 0.9517758297384132
Root mean squared error: 0.3069684883670372
Relative absolute error: 54.76489028213162
Root relative squared error: 65.11784992047401
Weighted TruePositiveRate: 0.9184952978056427
Weighted MatthewsCorrelation: 0.8729129306631662
Weighted FMeasure: 0.918977111446534
Iteration time: 1161.0
Weighted AreaUnderPRC: 0.8892367199866593
Mean absolute error: 0.24339951236503493
Coverage of cases: 99.05956112852665
Instances selection time: 146.0
Test time: 186.0
Accumulative iteration time: 3311.0
Weighted Recall: 0.9184952978056427
Weighted FalsePositiveRate: 0.040134180960060474
Kappa statistic: 0.8686020743572211
Training time: 1015.0
		
Iteration: 4
Labeled set size: 379
Unlabelled set size: 1216
	
Mean region size: 67.14733542319637
Incorrectly Classified Instances: 8.463949843260188
Correctly Classified Instances: 91.53605015673982
Weighted Precision: 0.9168555078668372
Weighted AreaUnderROC: 0.952661772821433
Root mean squared error: 0.3062111013546474
Relative absolute error: 54.67084639498428
Root relative squared error: 64.95718387274098
Weighted TruePositiveRate: 0.9153605015673981
Weighted MatthewsCorrelation: 0.8683091088450534
Weighted FMeasure: 0.9158357193630504
Iteration time: 1230.0
Weighted AreaUnderPRC: 0.8897442198958877
Mean absolute error: 0.24298153953326898
Coverage of cases: 99.24764890282131
Instances selection time: 148.0
Test time: 186.0
Accumulative iteration time: 4541.0
Weighted Recall: 0.9153605015673981
Weighted FalsePositiveRate: 0.04255716238490432
Kappa statistic: 0.8633565086279109
Training time: 1082.0
		
Iteration: 5
Labeled set size: 399
Unlabelled set size: 1196
	
Mean region size: 66.98014629048997
Incorrectly Classified Instances: 8.087774294670846
Correctly Classified Instances: 91.91222570532915
Weighted Precision: 0.9197434048378682
Weighted AreaUnderROC: 0.9529218675982181
Root mean squared error: 0.3061352595946347
Relative absolute error: 54.57680250783695
Root relative squared error: 64.94109540590036
Weighted TruePositiveRate: 0.9191222570532915
Weighted MatthewsCorrelation: 0.8737674864336985
Weighted FMeasure: 0.9193086449161338
Iteration time: 1165.0
Weighted AreaUnderPRC: 0.8891886294207862
Mean absolute error: 0.24256356670150309
Coverage of cases: 99.12225705329153
Instances selection time: 140.0
Test time: 187.0
Accumulative iteration time: 5706.0
Weighted Recall: 0.9191222570532915
Weighted FalsePositiveRate: 0.04279329338690012
Kappa statistic: 0.869024528579331
Training time: 1025.0
		
Iteration: 6
Labeled set size: 419
Unlabelled set size: 1176
	
Mean region size: 67.00104493207827
Incorrectly Classified Instances: 7.774294670846395
Correctly Classified Instances: 92.2257053291536
Weighted Precision: 0.9232247905055285
Weighted AreaUnderROC: 0.9535942466878846
Root mean squared error: 0.3053758060317757
Relative absolute error: 54.482758620689616
Root relative squared error: 64.7799909766122
Weighted TruePositiveRate: 0.9222570532915361
Weighted MatthewsCorrelation: 0.8784032640451709
Weighted FMeasure: 0.9225071112036541
Iteration time: 1255.0
Weighted AreaUnderPRC: 0.8946420070878952
Mean absolute error: 0.2421455938697371
Coverage of cases: 98.93416927899686
Instances selection time: 140.0
Test time: 197.0
Accumulative iteration time: 6961.0
Weighted Recall: 0.9222570532915361
Weighted FalsePositiveRate: 0.04037031196205629
Kappa statistic: 0.8742783623768241
Training time: 1115.0
		
Iteration: 7
Labeled set size: 439
Unlabelled set size: 1156
	
Mean region size: 66.91745036572509
Incorrectly Classified Instances: 6.64576802507837
Correctly Classified Instances: 93.35423197492163
Weighted Precision: 0.9343542501858573
Weighted AreaUnderROC: 0.9615268308260572
Root mean squared error: 0.30039256022027505
Relative absolute error: 53.7617554858934
Root relative squared error: 63.72288490492273
Weighted TruePositiveRate: 0.9335423197492163
Weighted MatthewsCorrelation: 0.8964830605921198
Weighted FMeasure: 0.9338042992551481
Iteration time: 1400.0
Weighted AreaUnderPRC: 0.9085319862693888
Mean absolute error: 0.23894113549286497
Coverage of cases: 99.24764890282131
Instances selection time: 137.0
Test time: 191.0
Accumulative iteration time: 8361.0
Weighted Recall: 0.9335423197492163
Weighted FalsePositiveRate: 0.03345759293941724
Kappa statistic: 0.8925282775156723
Training time: 1263.0
		
Iteration: 8
Labeled set size: 459
Unlabelled set size: 1136
	
Mean region size: 66.83385579937188
Incorrectly Classified Instances: 6.269592476489028
Correctly Classified Instances: 93.73040752351098
Weighted Precision: 0.9381203878961621
Weighted AreaUnderROC: 0.9630920158258458
Root mean squared error: 0.2988425366654756
Relative absolute error: 53.51097178683384
Root relative squared error: 63.394075254943466
Weighted TruePositiveRate: 0.9373040752351097
Weighted MatthewsCorrelation: 0.9012719988696591
Weighted FMeasure: 0.9375351254168061
Iteration time: 1516.0
Weighted AreaUnderPRC: 0.9131360424642943
Mean absolute error: 0.23782654127482244
Coverage of cases: 99.3103448275862
Instances selection time: 138.0
Test time: 193.0
Accumulative iteration time: 9877.0
Weighted Recall: 0.9373040752351097
Weighted FalsePositiveRate: 0.03178844593425643
Kappa statistic: 0.8986971629489476
Training time: 1378.0
		
Iteration: 9
Labeled set size: 479
Unlabelled set size: 1116
	
Mean region size: 66.93834900731339
Incorrectly Classified Instances: 6.959247648902822
Correctly Classified Instances: 93.04075235109718
Weighted Precision: 0.9310678864074894
Weighted AreaUnderROC: 0.9594962995674016
Root mean squared error: 0.3010103347755783
Relative absolute error: 53.85579937304074
Root relative squared error: 63.85393467811256
Weighted TruePositiveRate: 0.9304075235109718
Weighted MatthewsCorrelation: 0.8901510314164519
Weighted FMeasure: 0.9305919906243519
Iteration time: 1581.0
Weighted AreaUnderPRC: 0.9042915044476161
Mean absolute error: 0.23935910832463092
Coverage of cases: 99.43573667711598
Instances selection time: 135.0
Test time: 197.0
Accumulative iteration time: 11458.0
Weighted Recall: 0.9304075235109718
Weighted FalsePositiveRate: 0.036833213367839394
Kappa statistic: 0.8874271562234736
Training time: 1446.0
		
Iteration: 10
Labeled set size: 499
Unlabelled set size: 1096
	
Mean region size: 66.85475444096018
Incorrectly Classified Instances: 6.144200626959248
Correctly Classified Instances: 93.85579937304075
Weighted Precision: 0.9389402559699577
Weighted AreaUnderROC: 0.9642088668683403
Root mean squared error: 0.29783069550649593
Relative absolute error: 53.38557993730406
Root relative squared error: 63.17943133144401
Weighted TruePositiveRate: 0.9385579937304075
Weighted MatthewsCorrelation: 0.9032084525483622
Weighted FMeasure: 0.9386534553452693
Iteration time: 1701.0
Weighted AreaUnderPRC: 0.9139219417915787
Mean absolute error: 0.23726924416580117
Coverage of cases: 99.49843260188088
Instances selection time: 133.0
Test time: 198.0
Accumulative iteration time: 13159.0
Weighted Recall: 0.9385579937304075
Weighted FalsePositiveRate: 0.0332961147736225
Kappa statistic: 0.9004150064920418
Training time: 1568.0
		
Iteration: 11
Labeled set size: 519
Unlabelled set size: 1076
	
Mean region size: 66.85475444096019
Incorrectly Classified Instances: 6.206896551724138
Correctly Classified Instances: 93.79310344827586
Weighted Precision: 0.9382853345640979
Weighted AreaUnderROC: 0.9630687588605668
Root mean squared error: 0.2982981256065712
Relative absolute error: 53.44827586206894
Root relative squared error: 63.27858822949219
Weighted TruePositiveRate: 0.9379310344827586
Weighted MatthewsCorrelation: 0.9016813751469114
Weighted FMeasure: 0.9380619393994623
Iteration time: 1723.0
Weighted AreaUnderPRC: 0.9122015360829501
Mean absolute error: 0.2375478927203118
Coverage of cases: 99.49843260188088
Instances selection time: 135.0
Test time: 195.0
Accumulative iteration time: 14882.0
Weighted Recall: 0.9379310344827586
Weighted FalsePositiveRate: 0.03397123885930693
Kappa statistic: 0.8994272182474905
Training time: 1588.0
		
Iteration: 12
Labeled set size: 539
Unlabelled set size: 1056
	
Mean region size: 66.83385579937188
Incorrectly Classified Instances: 6.081504702194358
Correctly Classified Instances: 93.91849529780565
Weighted Precision: 0.9396189819744778
Weighted AreaUnderROC: 0.9635979876213083
Root mean squared error: 0.2981423969999741
Relative absolute error: 53.4169278996865
Root relative squared error: 63.24555320336732
Weighted TruePositiveRate: 0.9391849529780564
Weighted MatthewsCorrelation: 0.9038783916182981
Weighted FMeasure: 0.9393350309339843
Iteration time: 1708.0
Weighted AreaUnderPRC: 0.9134113500973337
Mean absolute error: 0.2374085684430565
Coverage of cases: 99.43573667711598
Instances selection time: 129.0
Test time: 197.0
Accumulative iteration time: 16590.0
Weighted Recall: 0.9391849529780564
Weighted FalsePositiveRate: 0.03262099068793806
Kappa statistic: 0.9015145680015124
Training time: 1579.0
		
Iteration: 13
Labeled set size: 559
Unlabelled set size: 1036
	
Mean region size: 66.83385579937188
Incorrectly Classified Instances: 6.64576802507837
Correctly Classified Instances: 93.35423197492163
Weighted Precision: 0.9336034027513193
Weighted AreaUnderROC: 0.9583852290604801
Root mean squared error: 0.3011645804094652
Relative absolute error: 53.824451410658284
Root relative squared error: 63.88665511821951
Weighted TruePositiveRate: 0.9335423197492163
Weighted MatthewsCorrelation: 0.8942055657130055
Weighted FMeasure: 0.9335382948282305
Iteration time: 1887.0
Weighted AreaUnderPRC: 0.9047579384993286
Mean absolute error: 0.23921978404737557
Coverage of cases: 99.18495297805643
Instances selection time: 125.0
Test time: 201.0
Accumulative iteration time: 18477.0
Weighted Recall: 0.9335423197492163
Weighted FalsePositiveRate: 0.03869710745909795
Kappa statistic: 0.892072392632554
Training time: 1762.0
		
Iteration: 14
Labeled set size: 579
Unlabelled set size: 1016
	
Mean region size: 66.81295715778359
Incorrectly Classified Instances: 6.896551724137931
Correctly Classified Instances: 93.10344827586206
Weighted Precision: 0.9308947042539955
Weighted AreaUnderROC: 0.9562921594851316
Root mean squared error: 0.3019346266176288
Relative absolute error: 53.91849529780561
Root relative squared error: 64.05000658690535
Weighted TruePositiveRate: 0.9310344827586207
Weighted MatthewsCorrelation: 0.8892872349710348
Weighted FMeasure: 0.9309462727479305
Iteration time: 1867.0
Weighted AreaUnderPRC: 0.9016912517829215
Mean absolute error: 0.23963775687914152
Coverage of cases: 99.18495297805643
Instances selection time: 129.0
Test time: 194.0
Accumulative iteration time: 20344.0
Weighted Recall: 0.9310344827586207
Weighted FalsePositiveRate: 0.04235024280541398
Kappa statistic: 0.8878092917821665
Training time: 1738.0
		
Iteration: 15
Labeled set size: 599
Unlabelled set size: 996
	
Mean region size: 66.91745036572506
Incorrectly Classified Instances: 6.4576802507836994
Correctly Classified Instances: 93.5423197492163
Weighted Precision: 0.9354180031914103
Weighted AreaUnderROC: 0.9583422468180696
Root mean squared error: 0.3010874674699322
Relative absolute error: 53.855799373040725
Root relative squared error: 63.870296993481205
Weighted TruePositiveRate: 0.935423197492163
Weighted MatthewsCorrelation: 0.8968748426328309
Weighted FMeasure: 0.9354071629189872
Iteration time: 2009.0
Weighted AreaUnderPRC: 0.9077459401873017
Mean absolute error: 0.23935910832463086
Coverage of cases: 99.05956112852665
Instances selection time: 123.0
Test time: 199.0
Accumulative iteration time: 22353.0
Weighted Recall: 0.935423197492163
Weighted FalsePositiveRate: 0.03810069370741212
Kappa statistic: 0.8950972817307016
Training time: 1886.0
		
Iteration: 16
Labeled set size: 619
Unlabelled set size: 976
	
Mean region size: 66.91745036572509
Incorrectly Classified Instances: 7.021943573667712
Correctly Classified Instances: 92.97805642633229
Weighted Precision: 0.9295823755989362
Weighted AreaUnderROC: 0.9550494380389144
Root mean squared error: 0.30224209576717465
Relative absolute error: 54.01253918495296
Root relative squared error: 64.1152306431002
Weighted TruePositiveRate: 0.9297805642633229
Weighted MatthewsCorrelation: 0.887019227344175
Weighted FMeasure: 0.9296371055527307
Iteration time: 2244.0
Weighted AreaUnderPRC: 0.9003170883840762
Mean absolute error: 0.2400557297109075
Coverage of cases: 99.24764890282131
Instances selection time: 120.0
Test time: 199.0
Accumulative iteration time: 24597.0
Weighted Recall: 0.9297805642633229
Weighted FalsePositiveRate: 0.0451294494821503
Kappa statistic: 0.8855100040953376
Training time: 2124.0
		
Iteration: 17
Labeled set size: 639
Unlabelled set size: 956
	
Mean region size: 66.89655172413677
Incorrectly Classified Instances: 7.2727272727272725
Correctly Classified Instances: 92.72727272727273
Weighted Precision: 0.9270025533099664
Weighted AreaUnderROC: 0.9521287767693737
Root mean squared error: 0.30369832324696433
Relative absolute error: 54.20062695924762
Root relative squared error: 64.42414314087304
Weighted TruePositiveRate: 0.9272727272727272
Weighted MatthewsCorrelation: 0.8823966364928744
Weighted FMeasure: 0.9270006949770466
Iteration time: 2151.0
Weighted AreaUnderPRC: 0.8965347900580196
Mean absolute error: 0.24089167537443934
Coverage of cases: 99.05956112852665
Instances selection time: 117.0
Test time: 200.0
Accumulative iteration time: 26748.0
Weighted Recall: 0.9272727272727272
Weighted FalsePositiveRate: 0.048782584828466334
Kappa statistic: 0.8811849397319564
Training time: 2034.0
		
Iteration: 18
Labeled set size: 659
Unlabelled set size: 936
	
Mean region size: 66.95924764890168
Incorrectly Classified Instances: 7.210031347962382
Correctly Classified Instances: 92.78996865203762
Weighted Precision: 0.9276325926963794
Weighted AreaUnderROC: 0.9520304058732776
Root mean squared error: 0.30369832324696433
Relative absolute error: 54.23197492163007
Root relative squared error: 64.42414314087304
Weighted TruePositiveRate: 0.9278996865203761
Weighted MatthewsCorrelation: 0.8834190053140691
Weighted FMeasure: 0.9275501915168287
Iteration time: 2153.0
Weighted AreaUnderPRC: 0.8968514856160605
Mean absolute error: 0.24103099965169467
Coverage of cases: 99.05956112852665
Instances selection time: 117.0
Test time: 199.0
Accumulative iteration time: 28901.0
Weighted Recall: 0.9278996865203761
Weighted FalsePositiveRate: 0.049536419248149374
Kappa statistic: 0.8820414213550525
Training time: 2036.0
		
Iteration: 19
Labeled set size: 679
Unlabelled set size: 916
	
Mean region size: 66.93834900731338
Incorrectly Classified Instances: 7.2727272727272725
Correctly Classified Instances: 92.72727272727273
Weighted Precision: 0.9271032606167949
Weighted AreaUnderROC: 0.951488935185305
Root mean squared error: 0.30354536512935604
Relative absolute error: 54.20062695924763
Root relative squared error: 64.39169582421354
Weighted TruePositiveRate: 0.9272727272727272
Weighted MatthewsCorrelation: 0.8818690868260879
Weighted FMeasure: 0.9268741286590101
Iteration time: 2476.0
Weighted AreaUnderPRC: 0.8955360401146383
Mean absolute error: 0.24089167537443937
Coverage of cases: 99.18495297805643
Instances selection time: 113.0
Test time: 201.0
Accumulative iteration time: 31377.0
Weighted Recall: 0.9272727272727272
Weighted FalsePositiveRate: 0.051640501839201255
Kappa statistic: 0.8808459665889565
Training time: 2363.0
		
Iteration: 20
Labeled set size: 699
Unlabelled set size: 896
	
Mean region size: 66.87565308254848
Incorrectly Classified Instances: 6.394984326018808
Correctly Classified Instances: 93.60501567398119
Weighted Precision: 0.9359033311082758
Weighted AreaUnderROC: 0.9579817955396458
Root mean squared error: 0.3000831960185115
Relative absolute error: 53.6990595611285
Root relative squared error: 63.657258847445725
Weighted TruePositiveRate: 0.936050156739812
Weighted MatthewsCorrelation: 0.8967193302272365
Weighted FMeasure: 0.9358816408779113
Iteration time: 2303.0
Weighted AreaUnderPRC: 0.9082789368851134
Mean absolute error: 0.23866248693835432
Coverage of cases: 99.18495297805643
Instances selection time: 110.0
Test time: 201.0
Accumulative iteration time: 33680.0
Weighted Recall: 0.936050156739812
Weighted FalsePositiveRate: 0.04218876463961924
Kappa statistic: 0.895673084630553
Training time: 2193.0
		
Iteration: 21
Labeled set size: 719
Unlabelled set size: 876
	
Mean region size: 66.89655172413678
Incorrectly Classified Instances: 6.52037617554859
Correctly Classified Instances: 93.47962382445141
Weighted Precision: 0.9346502114647249
Weighted AreaUnderROC: 0.9571191357123875
Root mean squared error: 0.30046985150168265
Relative absolute error: 53.7617554858934
Root relative squared error: 63.7392808616857
Weighted TruePositiveRate: 0.9347962382445141
Weighted MatthewsCorrelation: 0.8945265693859658
Weighted FMeasure: 0.9345035398526697
Iteration time: 2529.0
Weighted AreaUnderPRC: 0.9061929893608562
Mean absolute error: 0.23894113549286497
Coverage of cases: 99.24764890282131
Instances selection time: 111.0
Test time: 207.0
Accumulative iteration time: 36209.0
Weighted Recall: 0.9347962382445141
Weighted FalsePositiveRate: 0.044491651814566414
Kappa statistic: 0.8934458400004625
Training time: 2418.0
		
Iteration: 22
Labeled set size: 739
Unlabelled set size: 856
	
Mean region size: 66.89655172413678
Incorrectly Classified Instances: 6.52037617554859
Correctly Classified Instances: 93.47962382445141
Weighted Precision: 0.9346502114647249
Weighted AreaUnderROC: 0.9571191357123875
Root mean squared error: 0.30046985150168265
Relative absolute error: 53.7617554858934
Root relative squared error: 63.7392808616857
Weighted TruePositiveRate: 0.9347962382445141
Weighted MatthewsCorrelation: 0.8945265693859658
Weighted FMeasure: 0.9345035398526697
Iteration time: 2604.0
Weighted AreaUnderPRC: 0.9061929893608562
Mean absolute error: 0.23894113549286497
Coverage of cases: 99.24764890282131
Instances selection time: 105.0
Test time: 202.0
Accumulative iteration time: 38813.0
Weighted Recall: 0.9347962382445141
Weighted FalsePositiveRate: 0.044491651814566414
Kappa statistic: 0.8934458400004625
Training time: 2499.0
		
Iteration: 23
Labeled set size: 759
Unlabelled set size: 836
	
Mean region size: 66.83385579937188
Incorrectly Classified Instances: 6.52037617554859
Correctly Classified Instances: 93.47962382445141
Weighted Precision: 0.9346397669487059
Weighted AreaUnderROC: 0.9562962527110207
Root mean squared error: 0.3009331823112132
Relative absolute error: 53.793103448275836
Root relative squared error: 63.83756816889121
Weighted TruePositiveRate: 0.9347962382445141
Weighted MatthewsCorrelation: 0.8940789898525121
Weighted FMeasure: 0.9346118062986388
Iteration time: 2771.0
Weighted AreaUnderPRC: 0.9045260270717995
Mean absolute error: 0.23908045977012027
Coverage of cases: 99.18495297805643
Instances selection time: 104.0
Test time: 207.0
Accumulative iteration time: 41584.0
Weighted Recall: 0.9347962382445141
Weighted FalsePositiveRate: 0.04401533231277725
Kappa statistic: 0.893566988057405
Training time: 2667.0
		
Iteration: 24
Labeled set size: 779
Unlabelled set size: 816
	
Mean region size: 66.85475444096019
Incorrectly Classified Instances: 6.269592476489028
Correctly Classified Instances: 93.73040752351098
Weighted Precision: 0.9371385552825011
Weighted AreaUnderROC: 0.9579192282360106
Root mean squared error: 0.2999283942563306
Relative absolute error: 53.66771159874606
Root relative squared error: 63.6244204347124
Weighted TruePositiveRate: 0.9373040752351097
Weighted MatthewsCorrelation: 0.8981114583439435
Weighted FMeasure: 0.93712128229791
Iteration time: 2686.0
Weighted AreaUnderPRC: 0.9086648912862934
Mean absolute error: 0.23852316266109902
Coverage of cases: 99.18495297805643
Instances selection time: 102.0
Test time: 244.0
Accumulative iteration time: 44270.0
Weighted Recall: 0.9373040752351097
Weighted FalsePositiveRate: 0.04226747497361783
Kappa statistic: 0.8976896461921948
Training time: 2584.0
		
Iteration: 25
Labeled set size: 799
Unlabelled set size: 796
	
Mean region size: 66.85475444096019
Incorrectly Classified Instances: 6.52037617554859
Correctly Classified Instances: 93.47962382445141
Weighted Precision: 0.9346511423736616
Weighted AreaUnderROC: 0.9560710123728673
Root mean squared error: 0.3008560100616275
Relative absolute error: 53.793103448275836
Root relative squared error: 63.82119746259077
Weighted TruePositiveRate: 0.9347962382445141
Weighted MatthewsCorrelation: 0.8940299682347165
Weighted FMeasure: 0.934545786061144
Iteration time: 2677.0
Weighted AreaUnderPRC: 0.9048743407072254
Mean absolute error: 0.23908045977012027
Coverage of cases: 99.18495297805643
Instances selection time: 98.0
Test time: 205.0
Accumulative iteration time: 46947.0
Weighted Recall: 0.9347962382445141
Weighted FalsePositiveRate: 0.04544429081814472
Kappa statistic: 0.8933851624899333
Training time: 2579.0
		
Iteration: 26
Labeled set size: 819
Unlabelled set size: 776
	
Mean region size: 66.91745036572509
Incorrectly Classified Instances: 6.394984326018808
Correctly Classified Instances: 93.60501567398119
Weighted Precision: 0.9359404987513277
Weighted AreaUnderROC: 0.9563080227577967
Root mean squared error: 0.3006243744491567
Relative absolute error: 53.793103448275836
Root relative squared error: 63.77206012888805
Weighted TruePositiveRate: 0.936050156739812
Weighted MatthewsCorrelation: 0.895697417125124
Weighted FMeasure: 0.9358171304714721
Iteration time: 2650.0
Weighted AreaUnderPRC: 0.9065165136401082
Mean absolute error: 0.23908045977012027
Coverage of cases: 99.18495297805643
Instances selection time: 97.0
Test time: 201.0
Accumulative iteration time: 49597.0
Weighted Recall: 0.936050156739812
Weighted FalsePositiveRate: 0.045046681650354164
Kappa statistic: 0.8954354478266655
Training time: 2553.0
		
Iteration: 27
Labeled set size: 839
Unlabelled set size: 756
	
Mean region size: 66.9383490073134
Incorrectly Classified Instances: 6.394984326018808
Correctly Classified Instances: 93.60501567398119
Weighted Precision: 0.9359777404548195
Weighted AreaUnderROC: 0.9562617710579485
Root mean squared error: 0.3005471229062009
Relative absolute error: 53.793103448275836
Root relative squared error: 63.7556726019237
Weighted TruePositiveRate: 0.936050156739812
Weighted MatthewsCorrelation: 0.8957000409025675
Weighted FMeasure: 0.9358141957085759
Iteration time: 2918.0
Weighted AreaUnderPRC: 0.9069811043115121
Mean absolute error: 0.23908045977012027
Coverage of cases: 99.18495297805643
Instances selection time: 93.0
Test time: 206.0
Accumulative iteration time: 52515.0
Weighted Recall: 0.936050156739812
Weighted FalsePositiveRate: 0.045523001152143326
Kappa statistic: 0.8953758693757858
Training time: 2825.0
		
Iteration: 28
Labeled set size: 859
Unlabelled set size: 736
	
Mean region size: 66.9383490073134
Incorrectly Classified Instances: 6.4576802507836994
Correctly Classified Instances: 93.5423197492163
Weighted Precision: 0.9353588421585936
Weighted AreaUnderROC: 0.9557958157362371
Root mean squared error: 0.3007788180115919
Relative absolute error: 53.824451410658284
Root relative squared error: 63.804822555980614
Weighted TruePositiveRate: 0.935423197492163
Weighted MatthewsCorrelation: 0.8946279321651192
Weighted FMeasure: 0.9351719341015926
Iteration time: 2932.0
Weighted AreaUnderPRC: 0.9059759217272968
Mean absolute error: 0.2392197840473756
Coverage of cases: 99.18495297805643
Instances selection time: 92.0
Test time: 203.0
Accumulative iteration time: 55447.0
Weighted Recall: 0.935423197492163
Weighted FalsePositiveRate: 0.04619812523782775
Kappa statistic: 0.8943200356115459
Training time: 2840.0
		
Iteration: 29
Labeled set size: 879
Unlabelled set size: 716
	
Mean region size: 66.91745036572509
Incorrectly Classified Instances: 6.52037617554859
Correctly Classified Instances: 93.47962382445141
Weighted Precision: 0.9347176655847595
Weighted AreaUnderROC: 0.9546873247301167
Root mean squared error: 0.3015498493151141
Relative absolute error: 53.91849529780563
Root relative squared error: 63.968382994948904
Weighted TruePositiveRate: 0.9347962382445141
Weighted MatthewsCorrelation: 0.8933242883357297
Weighted FMeasure: 0.9345664137504187
Iteration time: 3343.0
Weighted AreaUnderPRC: 0.9035790830731174
Mean absolute error: 0.23963775687914154
Coverage of cases: 99.12225705329153
Instances selection time: 94.0
Test time: 213.0
Accumulative iteration time: 58790.0
Weighted Recall: 0.9347962382445141
Weighted FalsePositiveRate: 0.04639692982172302
Kappa statistic: 0.8933547978125775
Training time: 3249.0
		
Iteration: 30
Labeled set size: 899
Unlabelled set size: 696
	
Mean region size: 66.8338557993719
Incorrectly Classified Instances: 6.77115987460815
Correctly Classified Instances: 93.22884012539186
Weighted Precision: 0.9323388381011454
Weighted AreaUnderROC: 0.9528978003467863
Root mean squared error: 0.30254925244783043
Relative absolute error: 54.01253918495297
Root relative squared error: 64.18038841463374
Weighted TruePositiveRate: 0.9322884012539185
Weighted MatthewsCorrelation: 0.8897809392581354
Weighted FMeasure: 0.9319599399025505
Iteration time: 3488.0
Weighted AreaUnderPRC: 0.8993272521965737
Mean absolute error: 0.24005572971090752
Coverage of cases: 99.05956112852665
Instances selection time: 90.0
Test time: 210.0
Accumulative iteration time: 62278.0
Weighted Recall: 0.9322884012539185
Weighted FalsePositiveRate: 0.049573745666249905
Kappa statistic: 0.888968455980885
Training time: 3398.0
		
Iteration: 31
Labeled set size: 919
Unlabelled set size: 676
	
Mean region size: 66.91745036572509
Incorrectly Classified Instances: 6.52037617554859
Correctly Classified Instances: 93.47962382445141
Weighted Precision: 0.9350613022772307
Weighted AreaUnderROC: 0.953259678052414
Root mean squared error: 0.3020115232511479
Relative absolute error: 53.981191222570516
Root relative squared error: 64.06631882620887
Weighted TruePositiveRate: 0.9347962382445141
Weighted MatthewsCorrelation: 0.8934101377175817
Weighted FMeasure: 0.9344472351608171
Iteration time: 3244.0
Weighted AreaUnderPRC: 0.9028332584762514
Mean absolute error: 0.2399164054336522
Coverage of cases: 98.99686520376176
Instances selection time: 93.0
Test time: 214.0
Accumulative iteration time: 65522.0
Weighted Recall: 0.9347962382445141
Weighted FalsePositiveRate: 0.0497311663342471
Kappa statistic: 0.8929278689625079
Training time: 3151.0
		
Iteration: 32
Labeled set size: 939
Unlabelled set size: 656
	
Mean region size: 66.89655172413681
Incorrectly Classified Instances: 6.58307210031348
Correctly Classified Instances: 93.41692789968653
Weighted Precision: 0.9344635246655828
Weighted AreaUnderROC: 0.9524211316534605
Root mean squared error: 0.30254925244783043
Relative absolute error: 54.04388714733542
Root relative squared error: 64.18038841463374
Weighted TruePositiveRate: 0.9341692789968652
Weighted MatthewsCorrelation: 0.8923497223816098
Weighted FMeasure: 0.9338063496999371
Iteration time: 3769.0
Weighted AreaUnderPRC: 0.9013604172164252
Mean absolute error: 0.24019505398816285
Coverage of cases: 98.93416927899686
Instances selection time: 85.0
Test time: 209.0
Accumulative iteration time: 69291.0
Weighted Recall: 0.9341692789968652
Weighted FalsePositiveRate: 0.05040629041993155
Kappa statistic: 0.8918674090081761
Training time: 3684.0
		
Iteration: 33
Labeled set size: 959
Unlabelled set size: 636
	
Mean region size: 66.8756530825485
Incorrectly Classified Instances: 7.2727272727272725
Correctly Classified Instances: 92.72727272727273
Weighted Precision: 0.9276304035241234
Weighted AreaUnderROC: 0.9476092358761595
Root mean squared error: 0.30514760138710123
Relative absolute error: 54.3887147335423
Root relative squared error: 64.73158146108791
Weighted TruePositiveRate: 0.9272727272727272
Weighted MatthewsCorrelation: 0.8805785117627529
Weighted FMeasure: 0.926862615660423
Iteration time: 3493.0
Weighted AreaUnderPRC: 0.8921210573899961
Mean absolute error: 0.24172762103797127
Coverage of cases: 98.87147335423198
Instances selection time: 86.0
Test time: 212.0
Accumulative iteration time: 72784.0
Weighted Recall: 0.9272727272727272
Weighted FalsePositiveRate: 0.055927377355303655
Kappa statistic: 0.8804366369750766
Training time: 3407.0
		
Iteration: 34
Labeled set size: 979
Unlabelled set size: 616
	
Mean region size: 66.91745036572509
Incorrectly Classified Instances: 7.147335423197492
Correctly Classified Instances: 92.85266457680251
Weighted Precision: 0.9287280991855381
Weighted AreaUnderROC: 0.9489160525075134
Root mean squared error: 0.3047668805883316
Relative absolute error: 54.35736677115986
Root relative squared error: 64.65081838352329
Weighted TruePositiveRate: 0.9285266457680251
Weighted MatthewsCorrelation: 0.8831577582016781
Weighted FMeasure: 0.9281512560981326
Iteration time: 3611.0
Weighted AreaUnderPRC: 0.8940785653268138
Mean absolute error: 0.24158829676071597
Coverage of cases: 98.87147335423198
Instances selection time: 84.0
Test time: 214.0
Accumulative iteration time: 76395.0
Weighted Recall: 0.9285266457680251
Weighted FalsePositiveRate: 0.05362449018035649
Kappa statistic: 0.8826324717473648
Training time: 3527.0
		
Iteration: 35
Labeled set size: 999
Unlabelled set size: 596
	
Mean region size: 66.89655172413681
Incorrectly Classified Instances: 7.7115987460815045
Correctly Classified Instances: 92.2884012539185
Weighted Precision: 0.9234148723410543
Weighted AreaUnderROC: 0.9440040934685704
Root mean squared error: 0.3071197416348342
Relative absolute error: 54.670846394984316
Root relative squared error: 65.14993558387478
Weighted TruePositiveRate: 0.922884012539185
Weighted MatthewsCorrelation: 0.8731329705136855
Weighted FMeasure: 0.9224092611523704
Iteration time: 3759.0
Weighted AreaUnderPRC: 0.8855869385847901
Mean absolute error: 0.24298153953326912
Coverage of cases: 98.80877742946709
Instances selection time: 78.0
Test time: 207.0
Accumulative iteration time: 80154.0
Weighted Recall: 0.922884012539185
Weighted FalsePositiveRate: 0.06017692645330552
Kappa statistic: 0.8730398790097906
Training time: 3681.0
		
Iteration: 36
Labeled set size: 1019
Unlabelled set size: 576
	
Mean region size: 66.9383490073134
Incorrectly Classified Instances: 7.7115987460815045
Correctly Classified Instances: 92.2884012539185
Weighted Precision: 0.9232473726933417
Weighted AreaUnderROC: 0.9451128160331711
Root mean squared error: 0.3065142807371838
Relative absolute error: 54.60815047021943
Root relative squared error: 65.02149793193321
Weighted TruePositiveRate: 0.922884012539185
Weighted MatthewsCorrelation: 0.873312938990207
Weighted FMeasure: 0.9224159330836434
Iteration time: 3816.0
Weighted AreaUnderPRC: 0.8867630825604479
Mean absolute error: 0.24270289097875852
Coverage of cases: 98.93416927899686
Instances selection time: 80.0
Test time: 210.0
Accumulative iteration time: 83970.0
Weighted Recall: 0.922884012539185
Weighted FalsePositiveRate: 0.05922428744972719
Kappa statistic: 0.8731489779370972
Training time: 3736.0
		
Iteration: 37
Labeled set size: 1039
Unlabelled set size: 556
	
Mean region size: 66.89655172413681
Incorrectly Classified Instances: 7.899686520376176
Correctly Classified Instances: 92.10031347962382
Weighted Precision: 0.921480741126772
Weighted AreaUnderROC: 0.9426950303491938
Root mean squared error: 0.3077994615551061
Relative absolute error: 54.764890282131645
Root relative squared error: 65.29412595335434
Weighted TruePositiveRate: 0.9210031347962383
Weighted MatthewsCorrelation: 0.8698909127045762
Weighted FMeasure: 0.9205302754714821
Iteration time: 4094.0
Weighted AreaUnderPRC: 0.8836278045345678
Mean absolute error: 0.24339951236503507
Coverage of cases: 98.74608150470219
Instances selection time: 76.0
Test time: 216.0
Accumulative iteration time: 88064.0
Weighted Recall: 0.9210031347962383
Weighted FalsePositiveRate: 0.061249659706780486
Kappa statistic: 0.8699805653390199
Training time: 4018.0
		
Iteration: 38
Labeled set size: 1059
Unlabelled set size: 536
	
Mean region size: 67.06374085684321
Incorrectly Classified Instances: 8.463949843260188
Correctly Classified Instances: 91.53605015673982
Weighted Precision: 0.9154203179072069
Weighted AreaUnderROC: 0.9427396972048282
Root mean squared error: 0.3087786376490224
Relative absolute error: 54.98432601880876
Root relative squared error: 65.50184057014953
Weighted TruePositiveRate: 0.9153605015673981
Weighted MatthewsCorrelation: 0.8622999301480861
Weighted FMeasure: 0.914739309980823
Iteration time: 4548.0
Weighted AreaUnderPRC: 0.879003943164486
Mean absolute error: 0.24437478230582227
Coverage of cases: 98.99686520376176
Instances selection time: 69.0
Test time: 213.0
Accumulative iteration time: 92612.0
Weighted Recall: 0.9153605015673981
Weighted FalsePositiveRate: 0.06113362295468135
Kappa statistic: 0.8610121375955634
Training time: 4479.0
		
Iteration: 39
Labeled set size: 1079
Unlabelled set size: 516
	
Mean region size: 66.9592476489017
Incorrectly Classified Instances: 8.275862068965518
Correctly Classified Instances: 91.72413793103448
Weighted Precision: 0.9173517071328107
Weighted AreaUnderROC: 0.9449952901611792
Root mean squared error: 0.30734648196962105
Relative absolute error: 54.73354231974922
Root relative squared error: 65.19803447236366
Weighted TruePositiveRate: 0.9172413793103448
Weighted MatthewsCorrelation: 0.8659982610360056
Weighted FMeasure: 0.9164070818476012
Iteration time: 4463.0
Weighted AreaUnderPRC: 0.8841860258713993
Mean absolute error: 0.24326018808777983
Coverage of cases: 98.93416927899686
Instances selection time: 74.0
Test time: 213.0
Accumulative iteration time: 97075.0
Weighted Recall: 0.9172413793103448
Weighted FalsePositiveRate: 0.06053720920299553
Kappa statistic: 0.863906178390597
Training time: 4389.0
		
Iteration: 40
Labeled set size: 1099
Unlabelled set size: 496
	
Mean region size: 66.9383490073134
Incorrectly Classified Instances: 8.338557993730408
Correctly Classified Instances: 91.6614420062696
Weighted Precision: 0.9167921924110328
Weighted AreaUnderROC: 0.944965972228514
Root mean squared error: 0.3076485424670653
Relative absolute error: 54.76489028213166
Root relative squared error: 65.26211118018509
Weighted TruePositiveRate: 0.9166144200626959
Weighted MatthewsCorrelation: 0.8652016949367877
Weighted FMeasure: 0.9157376730799253
Iteration time: 4708.0
Weighted AreaUnderPRC: 0.8830088847697709
Mean absolute error: 0.24339951236503513
Coverage of cases: 98.93416927899686
Instances selection time: 71.0
Test time: 213.0
Accumulative iteration time: 101783.0
Weighted Recall: 0.9166144200626959
Weighted FalsePositiveRate: 0.06025969428510166
Kappa statistic: 0.8629536529003357
Training time: 4637.0
		
Iteration: 41
Labeled set size: 1119
Unlabelled set size: 476
	
Mean region size: 67.0428422152549
Incorrectly Classified Instances: 7.774294670846395
Correctly Classified Instances: 92.2257053291536
Weighted Precision: 0.92257996358189
Weighted AreaUnderROC: 0.9479671989963562
Root mean squared error: 0.30613525959463456
Relative absolute error: 54.60815047021943
Root relative squared error: 64.94109540590033
Weighted TruePositiveRate: 0.9222570532915361
Weighted MatthewsCorrelation: 0.8741808000216463
Weighted FMeasure: 0.921353408444695
Iteration time: 4795.0
Weighted AreaUnderPRC: 0.891083614332127
Mean absolute error: 0.24270289097875852
Coverage of cases: 98.87147335423198
Instances selection time: 65.0
Test time: 214.0
Accumulative iteration time: 106578.0
Weighted Recall: 0.9222570532915361
Weighted FalsePositiveRate: 0.0560888555210984
Kappa statistic: 0.8723735689778335
Training time: 4730.0
		
Iteration: 42
Labeled set size: 1139
Unlabelled set size: 456
	
Mean region size: 66.93834900731342
Incorrectly Classified Instances: 7.774294670846395
Correctly Classified Instances: 92.2257053291536
Weighted Precision: 0.9223769128608569
Weighted AreaUnderROC: 0.9473555684482283
Root mean squared error: 0.30651428073718384
Relative absolute error: 54.60815047021943
Root relative squared error: 65.02149793193323
Weighted TruePositiveRate: 0.9222570532915361
Weighted MatthewsCorrelation: 0.8741146580818774
Weighted FMeasure: 0.9215099543508564
Iteration time: 5165.0
Weighted AreaUnderPRC: 0.8881183855141448
Mean absolute error: 0.24270289097875852
Coverage of cases: 98.87147335423198
Instances selection time: 59.0
Test time: 221.0
Accumulative iteration time: 111743.0
Weighted Recall: 0.9222570532915361
Weighted FalsePositiveRate: 0.055612536019309246
Kappa statistic: 0.8724464953097744
Training time: 5106.0
		
Iteration: 43
Labeled set size: 1159
Unlabelled set size: 436
	
Mean region size: 67.0219435736666
Incorrectly Classified Instances: 7.648902821316614
Correctly Classified Instances: 92.35109717868339
Weighted Precision: 0.9236077370333375
Weighted AreaUnderROC: 0.9483369540720641
Root mean squared error: 0.30552784776687725
Relative absolute error: 54.51410658307209
Root relative squared error: 64.81224389918629
Weighted TruePositiveRate: 0.9235109717868338
Weighted MatthewsCorrelation: 0.8757709960337279
Weighted FMeasure: 0.9228357771913673
Iteration time: 5403.0
Weighted AreaUnderPRC: 0.8927994621042453
Mean absolute error: 0.24228491814699257
Coverage of cases: 98.87147335423198
Instances selection time: 60.0
Test time: 220.0
Accumulative iteration time: 117146.0
Weighted Recall: 0.9235109717868338
Weighted FalsePositiveRate: 0.05473860734972953
Kappa statistic: 0.8745754780524811
Training time: 5343.0
		
Iteration: 44
Labeled set size: 1179
Unlabelled set size: 416
	
Mean region size: 66.9592476489017
Incorrectly Classified Instances: 7.586206896551724
Correctly Classified Instances: 92.41379310344827
Weighted Precision: 0.9242185823127691
Weighted AreaUnderROC: 0.9484177986539488
Root mean squared error: 0.30575576861003856
Relative absolute error: 54.514106583072085
Root relative squared error: 64.86059321131823
Weighted TruePositiveRate: 0.9241379310344827
Weighted MatthewsCorrelation: 0.877090502963572
Weighted FMeasure: 0.9234645635557722
Iteration time: 5219.0
Weighted AreaUnderPRC: 0.8928537401060483
Mean absolute error: 0.24228491814699255
Coverage of cases: 98.74608150470219
Instances selection time: 56.0
Test time: 231.0
Accumulative iteration time: 122365.0
Weighted Recall: 0.9241379310344827
Weighted FalsePositiveRate: 0.05358716376225596
Kappa statistic: 0.8756745474726169
Training time: 5163.0
		
Iteration: 45
Labeled set size: 1199
Unlabelled set size: 396
	
Mean region size: 66.89655172413677
Incorrectly Classified Instances: 7.523510971786834
Correctly Classified Instances: 92.47648902821317
Weighted Precision: 0.9248623594915452
Weighted AreaUnderROC: 0.9493484604994534
Root mean squared error: 0.30529975676997323
Relative absolute error: 54.42006269592475
Root relative squared error: 64.76385849199477
Weighted TruePositiveRate: 0.9247648902821317
Weighted MatthewsCorrelation: 0.8779524221047151
Weighted FMeasure: 0.9241076123450029
Iteration time: 5394.0
Weighted AreaUnderPRC: 0.8934607834412176
Mean absolute error: 0.2418669453152266
Coverage of cases: 98.80877742946709
Instances selection time: 62.0
Test time: 222.0
Accumulative iteration time: 127759.0
Weighted Recall: 0.9247648902821317
Weighted FalsePositiveRate: 0.05243572017478236
Kappa statistic: 0.8768426152863152
Training time: 5332.0
		
Iteration: 46
Labeled set size: 1219
Unlabelled set size: 376
	
Mean region size: 66.89655172413678
Incorrectly Classified Instances: 7.586206896551724
Correctly Classified Instances: 92.41379310344827
Weighted Precision: 0.9243246847869618
Weighted AreaUnderROC: 0.9495392835625109
Root mean squared error: 0.30529975676997323
Relative absolute error: 54.420062695924756
Root relative squared error: 64.76385849199477
Weighted TruePositiveRate: 0.9241379310344827
Weighted MatthewsCorrelation: 0.8773815306664668
Weighted FMeasure: 0.9234021052955819
Iteration time: 6099.0
Weighted AreaUnderPRC: 0.8917449408814855
Mean absolute error: 0.24186694531522662
Coverage of cases: 98.93416927899686
Instances selection time: 76.0
Test time: 230.0
Accumulative iteration time: 133858.0
Weighted Recall: 0.9241379310344827
Weighted FalsePositiveRate: 0.053110844260466784
Kappa statistic: 0.8757100168729632
Training time: 6023.0
		
Time end:Wed Nov 01 10.09.09 EET 2017