Wed Nov 01 13.05.37 EET 2017
Dataset: splice
Test set size: 1595
Initial Labelled set size: 319
Initial Unlabelled set size: 1276
Batch mode: QBestBatchMode
Batch size: 20
Classifiers: RandomForest-1cores
Scenario: PoolBasedSamplingScenario
Query strategy: MarginSamplingQueryStrategy-1cores
Time begining: Wed Nov 01 13.05.37 EET 2017
		
Iteration: 1
Labeled set size: 319
Unlabelled set size: 1276
	
Mean region size: 95.31870428422157
Incorrectly Classified Instances: 26.018808777429467
Correctly Classified Instances: 73.98119122257053
Weighted Precision: 0.7579830201529852
Weighted AreaUnderROC: 0.8959391881398667
Root mean squared error: 0.3657743784392549
Relative absolute error: 69.95908017295284
Root relative squared error: 77.59246301360663
Weighted TruePositiveRate: 0.7398119122257053
Weighted MatthewsCorrelation: 0.5706143098023732
Weighted FMeasure: 0.7248304438008585
Iteration time: 69.0
Weighted AreaUnderPRC: 0.8451445106120465
Mean absolute error: 0.31092924521313076
Coverage of cases: 99.62382445141066
Instances selection time: 5.0
Test time: 11.0
Accumulative iteration time: 69.0
Weighted Recall: 0.7398119122257053
Weighted FalsePositiveRate: 0.2321055506193314
Kappa statistic: 0.5422463864832586
Training time: 64.0
		
Iteration: 2
Labeled set size: 339
Unlabelled set size: 1256
	
Mean region size: 93.66771159874617
Incorrectly Classified Instances: 27.0846394984326
Correctly Classified Instances: 72.91536050156739
Weighted Precision: 0.7351039446788733
Weighted AreaUnderROC: 0.8823600855932253
Root mean squared error: 0.3670934381789844
Relative absolute error: 69.98856713863795
Root relative squared error: 77.87227783963247
Weighted TruePositiveRate: 0.729153605015674
Weighted MatthewsCorrelation: 0.5452606745099081
Weighted FMeasure: 0.7181858331993901
Iteration time: 69.0
Weighted AreaUnderPRC: 0.8250525904206313
Mean absolute error: 0.3110602983939535
Coverage of cases: 100.0
Instances selection time: 5.0
Test time: 11.0
Accumulative iteration time: 138.0
Weighted Recall: 0.729153605015674
Weighted FalsePositiveRate: 0.2249504558850484
Kappa statistic: 0.5325449246416611
Training time: 64.0
		
Iteration: 3
Labeled set size: 359
Unlabelled set size: 1236
	
Mean region size: 93.22884012539193
Incorrectly Classified Instances: 18.11912225705329
Correctly Classified Instances: 81.88087774294671
Weighted Precision: 0.8203534179719313
Weighted AreaUnderROC: 0.9344325430085616
Root mean squared error: 0.33925806671528075
Relative absolute error: 64.78262174759365
Root relative squared error: 71.96750386398313
Weighted TruePositiveRate: 0.8188087774294671
Weighted MatthewsCorrelation: 0.6978072906799191
Weighted FMeasure: 0.8151621750982875
Iteration time: 69.0
Weighted AreaUnderPRC: 0.8996392006373821
Mean absolute error: 0.287922763322645
Coverage of cases: 99.9373040752351
Instances selection time: 6.0
Test time: 11.0
Accumulative iteration time: 207.0
Weighted Recall: 0.8188087774294671
Weighted FalsePositiveRate: 0.14203017249027153
Kappa statistic: 0.6967020197932767
Training time: 63.0
		
Iteration: 4
Labeled set size: 379
Unlabelled set size: 1216
	
Mean region size: 97.11598746081508
Incorrectly Classified Instances: 23.197492163009404
Correctly Classified Instances: 76.8025078369906
Weighted Precision: 0.7769848514880429
Weighted AreaUnderROC: 0.9098976503904715
Root mean squared error: 0.3604958018683567
Relative absolute error: 69.88952762839688
Root relative squared error: 76.47270782711826
Weighted TruePositiveRate: 0.768025078369906
Weighted MatthewsCorrelation: 0.6140452488512079
Weighted FMeasure: 0.7591783950057329
Iteration time: 69.0
Weighted AreaUnderPRC: 0.8602376578898063
Mean absolute error: 0.3106201227928821
Coverage of cases: 100.0
Instances selection time: 5.0
Test time: 11.0
Accumulative iteration time: 276.0
Weighted Recall: 0.768025078369906
Weighted FalsePositiveRate: 0.20019680754223754
Kappa statistic: 0.5994018349520627
Training time: 64.0
		
Iteration: 5
Labeled set size: 399
Unlabelled set size: 1196
	
Mean region size: 100.0
Incorrectly Classified Instances: 29.780564263322884
Correctly Classified Instances: 70.21943573667711
Weighted Precision: 0.701071836661459
Weighted AreaUnderROC: 0.8423630379918612
Root mean squared error: 0.39229886412805604
Relative absolute error: 78.1640842522804
Root relative squared error: 83.2191561230176
Weighted TruePositiveRate: 0.7021943573667712
Weighted MatthewsCorrelation: 0.4963192652804038
Weighted FMeasure: 0.693629862344909
Iteration time: 89.0
Weighted AreaUnderPRC: 0.760047729516301
Mean absolute error: 0.347395930010143
Coverage of cases: 100.0
Instances selection time: 5.0
Test time: 11.0
Accumulative iteration time: 365.0
Weighted Recall: 0.7021943573667712
Weighted FalsePositiveRate: 0.23492288454290614
Kappa statistic: 0.4912461774213694
Training time: 84.0
		
Iteration: 6
Labeled set size: 419
Unlabelled set size: 1176
	
Mean region size: 96.99059561128524
Incorrectly Classified Instances: 24.890282131661444
Correctly Classified Instances: 75.10971786833856
Weighted Precision: 0.751694890408857
Weighted AreaUnderROC: 0.8820536618411762
Root mean squared error: 0.3726439085410218
Relative absolute error: 72.802651586926
Root relative squared error: 79.04971040916395
Weighted TruePositiveRate: 0.7510971786833855
Weighted MatthewsCorrelation: 0.5844610622480004
Weighted FMeasure: 0.7413667017146658
Iteration time: 72.0
Weighted AreaUnderPRC: 0.8190374578837685
Mean absolute error: 0.32356734038634516
Coverage of cases: 99.9373040752351
Instances selection time: 5.0
Test time: 11.0
Accumulative iteration time: 437.0
Weighted Recall: 0.7510971786833855
Weighted FalsePositiveRate: 0.1921759636365452
Kappa statistic: 0.5789152736686636
Training time: 67.0
		
Iteration: 7
Labeled set size: 439
Unlabelled set size: 1156
	
Mean region size: 93.56321839080466
Incorrectly Classified Instances: 20.0
Correctly Classified Instances: 80.0
Weighted Precision: 0.7980995071316963
Weighted AreaUnderROC: 0.9244858532052729
Root mean squared error: 0.34441148058869037
Relative absolute error: 65.59304184417358
Root relative squared error: 73.06070803282776
Weighted TruePositiveRate: 0.8
Weighted MatthewsCorrelation: 0.675146673290884
Weighted FMeasure: 0.797276862308644
Iteration time: 108.0
Weighted AreaUnderPRC: 0.8756398683690142
Mean absolute error: 0.2915246304185559
Coverage of cases: 100.0
Instances selection time: 5.0
Test time: 11.0
Accumulative iteration time: 545.0
Weighted Recall: 0.8
Weighted FalsePositiveRate: 0.13746430660968054
Kappa statistic: 0.6684214264907041
Training time: 103.0
		
Iteration: 8
Labeled set size: 459
Unlabelled set size: 1136
	
Mean region size: 96.80250783699067
Incorrectly Classified Instances: 20.940438871473354
Correctly Classified Instances: 79.05956112852665
Weighted Precision: 0.7890857725918796
Weighted AreaUnderROC: 0.907099294783441
Root mean squared error: 0.3595012874611908
Relative absolute error: 70.20102905203487
Root relative squared error: 76.26173946272986
Weighted TruePositiveRate: 0.7905956112852665
Weighted MatthewsCorrelation: 0.6507178685133208
Weighted FMeasure: 0.7869868724450982
Iteration time: 104.0
Weighted AreaUnderPRC: 0.8624522050641386
Mean absolute error: 0.3120045735646065
Coverage of cases: 99.9373040752351
Instances selection time: 5.0
Test time: 11.0
Accumulative iteration time: 649.0
Weighted Recall: 0.7905956112852665
Weighted FalsePositiveRate: 0.1547841640725483
Kappa statistic: 0.651413570221782
Training time: 99.0
		
Iteration: 9
Labeled set size: 479
Unlabelled set size: 1116
	
Mean region size: 93.83490073145236
Incorrectly Classified Instances: 15.736677115987462
Correctly Classified Instances: 84.26332288401254
Weighted Precision: 0.8441540877078763
Weighted AreaUnderROC: 0.949442946952951
Root mean squared error: 0.33142356154659663
Relative absolute error: 63.520855701808564
Root relative squared error: 70.30555434437788
Weighted TruePositiveRate: 0.8426332288401254
Weighted MatthewsCorrelation: 0.7425607767842244
Weighted FMeasure: 0.8407031186806048
Iteration time: 82.0
Weighted AreaUnderPRC: 0.9199652796885592
Mean absolute error: 0.28231491423026667
Coverage of cases: 99.9373040752351
Instances selection time: 5.0
Test time: 24.0
Accumulative iteration time: 731.0
Weighted Recall: 0.8426332288401254
Weighted FalsePositiveRate: 0.11631980444142268
Kappa statistic: 0.7385710330344292
Training time: 77.0
		
Iteration: 10
Labeled set size: 499
Unlabelled set size: 1096
	
Mean region size: 95.54858934169283
Incorrectly Classified Instances: 21.316614420062695
Correctly Classified Instances: 78.68338557993731
Weighted Precision: 0.7806874952775233
Weighted AreaUnderROC: 0.9044794483397662
Root mean squared error: 0.3575126128624888
Relative absolute error: 69.183158241603
Root relative squared error: 75.83987787443517
Weighted TruePositiveRate: 0.786833855799373
Weighted MatthewsCorrelation: 0.6478252298218329
Weighted FMeasure: 0.779414930393707
Iteration time: 113.0
Weighted AreaUnderPRC: 0.849243587631938
Mean absolute error: 0.3074807032960203
Coverage of cases: 99.81191222570533
Instances selection time: 5.0
Test time: 11.0
Accumulative iteration time: 844.0
Weighted Recall: 0.786833855799373
Weighted FalsePositiveRate: 0.15071198987719533
Kappa statistic: 0.6457630041492042
Training time: 108.0
		
Iteration: 11
Labeled set size: 519
Unlabelled set size: 1076
	
Mean region size: 98.68338557993737
Incorrectly Classified Instances: 29.09090909090909
Correctly Classified Instances: 70.9090909090909
Weighted Precision: 0.7060325085667675
Weighted AreaUnderROC: 0.8561149371118099
Root mean squared error: 0.38421878149204985
Relative absolute error: 76.08901211106905
Root relative squared error: 81.50511175567732
Weighted TruePositiveRate: 0.7090909090909091
Weighted MatthewsCorrelation: 0.5124154040885882
Weighted FMeasure: 0.7041916600455718
Iteration time: 128.0
Weighted AreaUnderPRC: 0.7914860418533102
Mean absolute error: 0.3381733871603146
Coverage of cases: 100.0
Instances selection time: 5.0
Test time: 11.0
Accumulative iteration time: 972.0
Weighted Recall: 0.7090909090909091
Weighted FalsePositiveRate: 0.2135942277678147
Kappa statistic: 0.5120520017221384
Training time: 123.0
		
Iteration: 12
Labeled set size: 539
Unlabelled set size: 1056
	
Mean region size: 93.87669801462904
Incorrectly Classified Instances: 18.683385579937305
Correctly Classified Instances: 81.31661442006269
Weighted Precision: 0.8116130410886025
Weighted AreaUnderROC: 0.9330201303483802
Root mean squared error: 0.3447350240941669
Relative absolute error: 66.81108506698946
Root relative squared error: 73.12934197484715
Weighted TruePositiveRate: 0.8131661442006269
Weighted MatthewsCorrelation: 0.6925401258070895
Weighted FMeasure: 0.8116968460720656
Iteration time: 125.0
Weighted AreaUnderPRC: 0.8965558224362543
Mean absolute error: 0.29693815585329325
Coverage of cases: 100.0
Instances selection time: 5.0
Test time: 11.0
Accumulative iteration time: 1097.0
Weighted Recall: 0.8131661442006269
Weighted FalsePositiveRate: 0.1289906627650629
Kappa statistic: 0.6921278228849213
Training time: 120.0
		
Iteration: 13
Labeled set size: 559
Unlabelled set size: 1036
	
Mean region size: 92.6018808777431
Incorrectly Classified Instances: 17.115987460815045
Correctly Classified Instances: 82.88401253918495
Weighted Precision: 0.8281761226152317
Weighted AreaUnderROC: 0.9376321754843456
Root mean squared error: 0.3365728451619997
Relative absolute error: 64.06314407399258
Root relative squared error: 71.39788235318916
Weighted TruePositiveRate: 0.8288401253918495
Weighted MatthewsCorrelation: 0.7232696496396644
Weighted FMeasure: 0.8280751565797685
Iteration time: 124.0
Weighted AreaUnderPRC: 0.9010420826765614
Mean absolute error: 0.2847250847733068
Coverage of cases: 100.0
Instances selection time: 5.0
Test time: 11.0
Accumulative iteration time: 1221.0
Weighted Recall: 0.8288401253918495
Weighted FalsePositiveRate: 0.10967662755360218
Kappa statistic: 0.7198868830238977
Training time: 119.0
		
Iteration: 14
Labeled set size: 579
Unlabelled set size: 1016
	
Mean region size: 96.02925809822365
Incorrectly Classified Instances: 18.244514106583072
Correctly Classified Instances: 81.75548589341693
Weighted Precision: 0.8175998729187901
Weighted AreaUnderROC: 0.9369543460178321
Root mean squared error: 0.34134039569395386
Relative absolute error: 65.87087447732142
Root relative squared error: 72.40923254642743
Weighted TruePositiveRate: 0.8175548589341692
Weighted MatthewsCorrelation: 0.6999907285643802
Weighted FMeasure: 0.8133568926395855
Iteration time: 122.0
Weighted AreaUnderPRC: 0.9001791520338539
Mean absolute error: 0.2927594421214352
Coverage of cases: 100.0
Instances selection time: 5.0
Test time: 28.0
Accumulative iteration time: 1343.0
Weighted Recall: 0.8175548589341692
Weighted FalsePositiveRate: 0.1376448850323513
Kappa statistic: 0.6948706958324731
Training time: 117.0
		
Iteration: 15
Labeled set size: 599
Unlabelled set size: 996
	
Mean region size: 99.95820271682341
Incorrectly Classified Instances: 16.802507836990596
Correctly Classified Instances: 83.1974921630094
Weighted Precision: 0.8319378767329759
Weighted AreaUnderROC: 0.9421928100427069
Root mean squared error: 0.35510024394618755
Relative absolute error: 71.30952052006776
Root relative squared error: 75.32813714860309
Weighted TruePositiveRate: 0.831974921630094
Weighted MatthewsCorrelation: 0.7200758394342394
Weighted FMeasure: 0.8285159200707429
Iteration time: 90.0
Weighted AreaUnderPRC: 0.9133015644786749
Mean absolute error: 0.31693120231141947
Coverage of cases: 100.0
Instances selection time: 5.0
Test time: 10.0
Accumulative iteration time: 1433.0
Weighted Recall: 0.831974921630094
Weighted FalsePositiveRate: 0.1316451414359323
Kappa statistic: 0.7191632054262088
Training time: 85.0
		
Iteration: 16
Labeled set size: 619
Unlabelled set size: 976
	
Mean region size: 95.44409613375151
Incorrectly Classified Instances: 24.890282131661444
Correctly Classified Instances: 75.10971786833856
Weighted Precision: 0.7478576006034785
Weighted AreaUnderROC: 0.8917178886146822
Root mean squared error: 0.3624636622946554
Relative absolute error: 69.98349868915754
Root relative squared error: 76.8901540626776
Weighted TruePositiveRate: 0.7510971786833855
Weighted MatthewsCorrelation: 0.5884470615864655
Weighted FMeasure: 0.7482112056704857
Iteration time: 126.0
Weighted AreaUnderPRC: 0.8406439422717782
Mean absolute error: 0.31103777195181836
Coverage of cases: 99.9373040752351
Instances selection time: 5.0
Test time: 12.0
Accumulative iteration time: 1559.0
Weighted Recall: 0.7510971786833855
Weighted FalsePositiveRate: 0.17301576155538131
Kappa statistic: 0.5875882101999811
Training time: 121.0
		
Iteration: 17
Labeled set size: 639
Unlabelled set size: 956
	
Mean region size: 96.32183908046008
Incorrectly Classified Instances: 18.934169278996865
Correctly Classified Instances: 81.06583072100314
Weighted Precision: 0.8115613328691098
Weighted AreaUnderROC: 0.9221563923532894
Root mean squared error: 0.3482848650263806
Relative absolute error: 67.65186357142646
Root relative squared error: 73.88237695343771
Weighted TruePositiveRate: 0.8106583072100313
Weighted MatthewsCorrelation: 0.6870926670220546
Weighted FMeasure: 0.8092485426919976
Iteration time: 133.0
Weighted AreaUnderPRC: 0.8834117856777672
Mean absolute error: 0.30067494920634663
Coverage of cases: 99.9373040752351
Instances selection time: 5.0
Test time: 12.0
Accumulative iteration time: 1692.0
Weighted Recall: 0.8106583072100313
Weighted FalsePositiveRate: 0.13744778169857083
Kappa statistic: 0.6860011081776995
Training time: 128.0
		
Iteration: 18
Labeled set size: 659
Unlabelled set size: 936
	
Mean region size: 96.11285266457689
Incorrectly Classified Instances: 18.307210031347964
Correctly Classified Instances: 81.69278996865204
Weighted Precision: 0.8162319861027911
Weighted AreaUnderROC: 0.9295977625936349
Root mean squared error: 0.34753993566163555
Relative absolute error: 67.60779230606435
Root relative squared error: 73.72435357184285
Weighted TruePositiveRate: 0.8169278996865204
Weighted MatthewsCorrelation: 0.6969318215075212
Weighted FMeasure: 0.8153784991829559
Iteration time: 124.0
Weighted AreaUnderPRC: 0.8932692164475227
Mean absolute error: 0.30047907691584835
Coverage of cases: 99.9373040752351
Instances selection time: 4.0
Test time: 11.0
Accumulative iteration time: 1816.0
Weighted Recall: 0.8169278996865204
Weighted FalsePositiveRate: 0.13162265365101447
Kappa statistic: 0.697103118522859
Training time: 120.0
		
Iteration: 19
Labeled set size: 679
Unlabelled set size: 916
	
Mean region size: 93.89759665621757
Incorrectly Classified Instances: 17.74294670846395
Correctly Classified Instances: 82.25705329153605
Weighted Precision: 0.8236469932684656
Weighted AreaUnderROC: 0.9265038531085865
Root mean squared error: 0.34366069404867133
Relative absolute error: 66.18980860000595
Root relative squared error: 72.90144215672645
Weighted TruePositiveRate: 0.8225705329153605
Weighted MatthewsCorrelation: 0.7087134790506515
Weighted FMeasure: 0.8229974781428515
Iteration time: 159.0
Weighted AreaUnderPRC: 0.89270522017649
Mean absolute error: 0.29417692711114424
Coverage of cases: 99.74921630094043
Instances selection time: 5.0
Test time: 11.0
Accumulative iteration time: 1975.0
Weighted Recall: 0.8225705329153605
Weighted FalsePositiveRate: 0.11358491780509011
Kappa statistic: 0.7117704865902413
Training time: 154.0
		
Iteration: 20
Labeled set size: 699
Unlabelled set size: 896
	
Mean region size: 95.17241379310354
Incorrectly Classified Instances: 18.432601880877744
Correctly Classified Instances: 81.56739811912226
Weighted Precision: 0.8147653717698865
Weighted AreaUnderROC: 0.9325870258668488
Root mean squared error: 0.34360597761432105
Relative absolute error: 66.54259385575827
Root relative squared error: 72.88983504819501
Weighted TruePositiveRate: 0.8156739811912226
Weighted MatthewsCorrelation: 0.6950185243886744
Weighted FMeasure: 0.8149954323702765
Iteration time: 121.0
Weighted AreaUnderPRC: 0.8983908890165053
Mean absolute error: 0.2957448615811546
Coverage of cases: 100.0
Instances selection time: 5.0
Test time: 11.0
Accumulative iteration time: 2096.0
Weighted Recall: 0.8156739811912226
Weighted FalsePositiveRate: 0.12484455523365216
Kappa statistic: 0.6981725449204319
Training time: 116.0
		
Iteration: 21
Labeled set size: 719
Unlabelled set size: 876
	
Mean region size: 90.40752351097203
Incorrectly Classified Instances: 18.0564263322884
Correctly Classified Instances: 81.9435736677116
Weighted Precision: 0.8185481655292204
Weighted AreaUnderROC: 0.9368549348557303
Root mean squared error: 0.33167397226415934
Relative absolute error: 62.20203906622145
Root relative squared error: 70.35867447931899
Weighted TruePositiveRate: 0.819435736677116
Weighted MatthewsCorrelation: 0.7036264976603059
Weighted FMeasure: 0.8171017359427071
Iteration time: 128.0
Weighted AreaUnderPRC: 0.9000427060439447
Mean absolute error: 0.2764535069609905
Coverage of cases: 99.9373040752351
Instances selection time: 5.0
Test time: 11.0
Accumulative iteration time: 2224.0
Weighted Recall: 0.819435736677116
Weighted FalsePositiveRate: 0.12748267802924396
Kappa statistic: 0.7012477277826736
Training time: 123.0
		
Iteration: 22
Labeled set size: 739
Unlabelled set size: 856
	
Mean region size: 91.9958202716821
Incorrectly Classified Instances: 16.990595611285265
Correctly Classified Instances: 83.00940438871473
Weighted Precision: 0.8297084563377254
Weighted AreaUnderROC: 0.9424605380203076
Root mean squared error: 0.3289443443692782
Relative absolute error: 61.90167073158718
Root relative squared error: 69.77963296094308
Weighted TruePositiveRate: 0.8300940438871474
Weighted MatthewsCorrelation: 0.7216575019207162
Weighted FMeasure: 0.8287281768545973
Iteration time: 151.0
Weighted AreaUnderPRC: 0.9083816926326922
Mean absolute error: 0.27511853658483815
Coverage of cases: 100.0
Instances selection time: 4.0
Test time: 10.0
Accumulative iteration time: 2375.0
Weighted Recall: 0.8300940438871474
Weighted FalsePositiveRate: 0.11358594184814871
Kappa statistic: 0.721537914444635
Training time: 147.0
		
Iteration: 23
Labeled set size: 759
Unlabelled set size: 836
	
Mean region size: 96.0919540229885
Incorrectly Classified Instances: 15.61128526645768
Correctly Classified Instances: 84.38871473354232
Weighted Precision: 0.8434143301859983
Weighted AreaUnderROC: 0.9462033782177629
Root mean squared error: 0.3341734465435908
Relative absolute error: 64.40494595485309
Root relative squared error: 70.8888930430352
Weighted TruePositiveRate: 0.8438871473354232
Weighted MatthewsCorrelation: 0.7424389833922698
Weighted FMeasure: 0.8425638635139483
Iteration time: 146.0
Weighted AreaUnderPRC: 0.9133914050587844
Mean absolute error: 0.28624420424379804
Coverage of cases: 100.0
Instances selection time: 4.0
Test time: 11.0
Accumulative iteration time: 2521.0
Weighted Recall: 0.8438871473354232
Weighted FalsePositiveRate: 0.11303910336165596
Kappa statistic: 0.7419323606832421
Training time: 142.0
		
Iteration: 24
Labeled set size: 779
Unlabelled set size: 816
	
Mean region size: 90.15673981191259
Incorrectly Classified Instances: 12.789968652037617
Correctly Classified Instances: 87.21003134796238
Weighted Precision: 0.8719525435301811
Weighted AreaUnderROC: 0.9519553132262427
Root mean squared error: 0.3151856105788668
Relative absolute error: 58.62778194928774
Root relative squared error: 66.86096477182099
Weighted TruePositiveRate: 0.8721003134796238
Weighted MatthewsCorrelation: 0.7934148576701696
Weighted FMeasure: 0.8716420164640891
Iteration time: 170.0
Weighted AreaUnderPRC: 0.9217474990737355
Mean absolute error: 0.2605679197746181
Coverage of cases: 100.0
Instances selection time: 4.0
Test time: 11.0
Accumulative iteration time: 2691.0
Weighted Recall: 0.8721003134796238
Weighted FalsePositiveRate: 0.0792360061571743
Kappa statistic: 0.7918152915756789
Training time: 166.0
		
Iteration: 25
Labeled set size: 799
Unlabelled set size: 796
	
Mean region size: 92.33019853709543
Incorrectly Classified Instances: 15.297805642633229
Correctly Classified Instances: 84.70219435736676
Weighted Precision: 0.8462674339521851
Weighted AreaUnderROC: 0.9478965972648469
Root mean squared error: 0.32569989899882046
Relative absolute error: 61.81171768998252
Root relative squared error: 69.09138216415109
Weighted TruePositiveRate: 0.8470219435736677
Weighted MatthewsCorrelation: 0.7498773927477698
Weighted FMeasure: 0.8462338399329258
Iteration time: 120.0
Weighted AreaUnderPRC: 0.9196806671947932
Mean absolute error: 0.27471874528881746
Coverage of cases: 99.9373040752351
Instances selection time: 3.0
Test time: 12.0
Accumulative iteration time: 2811.0
Weighted Recall: 0.8470219435736677
Weighted FalsePositiveRate: 0.10104319182111678
Kappa statistic: 0.7497204145902746
Training time: 117.0
		
Iteration: 26
Labeled set size: 819
Unlabelled set size: 776
	
Mean region size: 96.19644723093016
Incorrectly Classified Instances: 15.799373040752352
Correctly Classified Instances: 84.20062695924764
Weighted Precision: 0.8422001059217652
Weighted AreaUnderROC: 0.9388392563552215
Root mean squared error: 0.3393989897653758
Relative absolute error: 65.9296139911595
Root relative squared error: 71.99739815728744
Weighted TruePositiveRate: 0.8420062695924765
Weighted MatthewsCorrelation: 0.7366872010438199
Weighted FMeasure: 0.8409074092896945
Iteration time: 151.0
Weighted AreaUnderPRC: 0.9099615205143033
Mean absolute error: 0.2930205066273822
Coverage of cases: 99.87460815047022
Instances selection time: 4.0
Test time: 11.0
Accumulative iteration time: 2962.0
Weighted Recall: 0.8420062695924765
Weighted FalsePositiveRate: 0.1174576102094916
Kappa statistic: 0.7386736814866876
Training time: 147.0
		
Iteration: 27
Labeled set size: 839
Unlabelled set size: 756
	
Mean region size: 93.47962382445158
Incorrectly Classified Instances: 16.927899686520377
Correctly Classified Instances: 83.07210031347962
Weighted Precision: 0.82991802659715
Weighted AreaUnderROC: 0.9356464857665058
Root mean squared error: 0.3346211890651719
Relative absolute error: 64.06015991059343
Root relative squared error: 70.98387357500586
Weighted TruePositiveRate: 0.8307210031347962
Weighted MatthewsCorrelation: 0.7217370334463536
Weighted FMeasure: 0.8290611328083358
Iteration time: 161.0
Weighted AreaUnderPRC: 0.9074180844833479
Mean absolute error: 0.28471182182486615
Coverage of cases: 99.9373040752351
Instances selection time: 4.0
Test time: 13.0
Accumulative iteration time: 3123.0
Weighted Recall: 0.8307210031347962
Weighted FalsePositiveRate: 0.11960272264313872
Kappa statistic: 0.7204067071226984
Training time: 157.0
		
Iteration: 28
Labeled set size: 859
Unlabelled set size: 736
	
Mean region size: 99.91640543364683
Incorrectly Classified Instances: 14.858934169278998
Correctly Classified Instances: 85.141065830721
Weighted Precision: 0.85052912628967
Weighted AreaUnderROC: 0.9494952512067972
Root mean squared error: 0.3348636788254707
Relative absolute error: 65.59845504325105
Root relative squared error: 71.03531342116854
Weighted TruePositiveRate: 0.8514106583072101
Weighted MatthewsCorrelation: 0.7548476842111616
Weighted FMeasure: 0.8492088316690102
Iteration time: 156.0
Weighted AreaUnderPRC: 0.9253416693929064
Mean absolute error: 0.2915486890811224
Coverage of cases: 100.0
Instances selection time: 4.0
Test time: 11.0
Accumulative iteration time: 3279.0
Weighted Recall: 0.8514106583072101
Weighted FalsePositiveRate: 0.10826608798181737
Kappa statistic: 0.7543034193367236
Training time: 152.0
		
Iteration: 29
Labeled set size: 879
Unlabelled set size: 716
	
Mean region size: 97.05329153605025
Incorrectly Classified Instances: 16.677115987460816
Correctly Classified Instances: 83.32288401253919
Weighted Precision: 0.8329602749347447
Weighted AreaUnderROC: 0.9380619153254501
Root mean squared error: 0.33913515663096466
Relative absolute error: 65.72910998316155
Root relative squared error: 71.94143069775431
Weighted TruePositiveRate: 0.8332288401253919
Weighted MatthewsCorrelation: 0.7285699413836845
Weighted FMeasure: 0.8330145821060283
Iteration time: 158.0
Weighted AreaUnderPRC: 0.9041285662834373
Mean absolute error: 0.29212937770294684
Coverage of cases: 100.0
Instances selection time: 4.0
Test time: 12.0
Accumulative iteration time: 3437.0
Weighted Recall: 0.8332288401253919
Weighted FalsePositiveRate: 0.10493069965403885
Kappa statistic: 0.7286228185309417
Training time: 154.0
		
Iteration: 30
Labeled set size: 899
Unlabelled set size: 696
	
Mean region size: 99.95820271682341
Incorrectly Classified Instances: 19.686520376175547
Correctly Classified Instances: 80.31347962382445
Weighted Precision: 0.8004080515204178
Weighted AreaUnderROC: 0.9202085346232961
Root mean squared error: 0.3566684065291633
Relative absolute error: 70.50724577689904
Root relative squared error: 75.66079466753065
Weighted TruePositiveRate: 0.8031347962382445
Weighted MatthewsCorrelation: 0.6729216878361649
Weighted FMeasure: 0.800264107422423
Iteration time: 172.0
Weighted AreaUnderPRC: 0.8816085402576511
Mean absolute error: 0.3133655367862251
Coverage of cases: 100.0
Instances selection time: 3.0
Test time: 22.0
Accumulative iteration time: 3609.0
Weighted Recall: 0.8031347962382445
Weighted FalsePositiveRate: 0.1369442128836978
Kappa statistic: 0.6759776536312848
Training time: 169.0
		
Iteration: 31
Labeled set size: 919
Unlabelled set size: 676
	
Mean region size: 94.64994775339608
Incorrectly Classified Instances: 17.61755485893417
Correctly Classified Instances: 82.38244514106583
Weighted Precision: 0.8229783361200311
Weighted AreaUnderROC: 0.9345098741173861
Root mean squared error: 0.3409203085528756
Relative absolute error: 65.79954017765539
Root relative squared error: 72.32011860658373
Weighted TruePositiveRate: 0.8238244514106583
Weighted MatthewsCorrelation: 0.7083001761669158
Weighted FMeasure: 0.8223917525418544
Iteration time: 160.0
Weighted AreaUnderPRC: 0.9003015898836461
Mean absolute error: 0.29244240078958617
Coverage of cases: 100.0
Instances selection time: 4.0
Test time: 12.0
Accumulative iteration time: 3769.0
Weighted Recall: 0.8238244514106583
Weighted FalsePositiveRate: 0.1203432578469452
Kappa statistic: 0.7112755809339263
Training time: 156.0
		
Iteration: 32
Labeled set size: 939
Unlabelled set size: 656
	
Mean region size: 99.95820271682341
Incorrectly Classified Instances: 15.423197492163009
Correctly Classified Instances: 84.57680250783699
Weighted Precision: 0.8464006189627273
Weighted AreaUnderROC: 0.9469104347321047
Root mean squared error: 0.3454497658634177
Relative absolute error: 68.68171477552939
Root relative squared error: 73.2809616003975
Weighted TruePositiveRate: 0.8457680250783699
Weighted MatthewsCorrelation: 0.7433769606655616
Weighted FMeasure: 0.8431853052422541
Iteration time: 192.0
Weighted AreaUnderPRC: 0.9179070074831838
Mean absolute error: 0.3052520656690264
Coverage of cases: 100.0
Instances selection time: 3.0
Test time: 12.0
Accumulative iteration time: 3961.0
Weighted Recall: 0.8457680250783699
Weighted FalsePositiveRate: 0.11961839719512299
Kappa statistic: 0.7432672848177837
Training time: 189.0
		
Iteration: 33
Labeled set size: 959
Unlabelled set size: 636
	
Mean region size: 94.211076280042
Incorrectly Classified Instances: 16.363636363636363
Correctly Classified Instances: 83.63636363636364
Weighted Precision: 0.8359830071466977
Weighted AreaUnderROC: 0.9384623859483201
Root mean squared error: 0.33477287277989204
Relative absolute error: 64.04473664698376
Root relative squared error: 71.01605054998811
Weighted TruePositiveRate: 0.8363636363636363
Weighted MatthewsCorrelation: 0.734590395209027
Weighted FMeasure: 0.8359988073725831
Iteration time: 164.0
Weighted AreaUnderPRC: 0.9034051866676228
Mean absolute error: 0.284643273986601
Coverage of cases: 99.9373040752351
Instances selection time: 3.0
Test time: 12.0
Accumulative iteration time: 4125.0
Weighted Recall: 0.8363636363636363
Weighted FalsePositiveRate: 0.10298200511464171
Kappa statistic: 0.733349346656418
Training time: 161.0
		
Iteration: 34
Labeled set size: 979
Unlabelled set size: 616
	
Mean region size: 99.95820271682341
Incorrectly Classified Instances: 14.921630094043888
Correctly Classified Instances: 85.07836990595611
Weighted Precision: 0.8504312733753093
Weighted AreaUnderROC: 0.9532389864728089
Root mean squared error: 0.33281837914721113
Relative absolute error: 65.11172200956597
Root relative squared error: 70.60143983955174
Weighted TruePositiveRate: 0.8507836990595611
Weighted MatthewsCorrelation: 0.7531621284505237
Weighted FMeasure: 0.8496509445002068
Iteration time: 183.0
Weighted AreaUnderPRC: 0.9286162025656834
Mean absolute error: 0.2893854311536331
Coverage of cases: 100.0
Instances selection time: 3.0
Test time: 12.0
Accumulative iteration time: 4308.0
Weighted Recall: 0.8507836990595611
Weighted FalsePositiveRate: 0.10846625521229937
Kappa statistic: 0.7536187109847072
Training time: 180.0
		
Iteration: 35
Labeled set size: 999
Unlabelled set size: 596
	
Mean region size: 93.93939393939436
Incorrectly Classified Instances: 16.300940438871475
Correctly Classified Instances: 83.69905956112852
Weighted Precision: 0.837917471921868
Weighted AreaUnderROC: 0.9382477427237786
Root mean squared error: 0.3354646829956973
Relative absolute error: 64.34954432310934
Root relative squared error: 71.16280565845511
Weighted TruePositiveRate: 0.8369905956112853
Weighted MatthewsCorrelation: 0.7376205448242281
Weighted FMeasure: 0.8373680274399355
Iteration time: 205.0
Weighted AreaUnderPRC: 0.906908985439261
Mean absolute error: 0.2859979747693813
Coverage of cases: 99.9373040752351
Instances selection time: 3.0
Test time: 11.0
Accumulative iteration time: 4513.0
Weighted Recall: 0.8369905956112853
Weighted FalsePositiveRate: 0.09704903890158167
Kappa statistic: 0.7359461526265623
Training time: 202.0
		
Iteration: 36
Labeled set size: 1019
Unlabelled set size: 576
	
Mean region size: 93.3960292580985
Incorrectly Classified Instances: 16.739811912225704
Correctly Classified Instances: 83.2601880877743
Weighted Precision: 0.8325359904578024
Weighted AreaUnderROC: 0.9421659449531291
Root mean squared error: 0.3329734661906875
Relative absolute error: 63.64706011429818
Root relative squared error: 70.63433876958663
Weighted TruePositiveRate: 0.8326018808777429
Weighted MatthewsCorrelation: 0.726802562691537
Weighted FMeasure: 0.8321734029618941
Iteration time: 215.0
Weighted AreaUnderPRC: 0.9106298350435652
Mean absolute error: 0.28287582273022055
Coverage of cases: 99.9373040752351
Instances selection time: 3.0
Test time: 13.0
Accumulative iteration time: 4728.0
Weighted Recall: 0.8326018808777429
Weighted FalsePositiveRate: 0.10751686461102938
Kappa statistic: 0.7270654270056315
Training time: 212.0
		
Iteration: 37
Labeled set size: 1039
Unlabelled set size: 556
	
Mean region size: 99.95820271682341
Incorrectly Classified Instances: 17.80564263322884
Correctly Classified Instances: 82.19435736677116
Weighted Precision: 0.8213662594672942
Weighted AreaUnderROC: 0.9353267403581501
Root mean squared error: 0.3497497598334108
Relative absolute error: 69.25380304424668
Root relative squared error: 74.1931280689705
Weighted TruePositiveRate: 0.8219435736677116
Weighted MatthewsCorrelation: 0.704990869560325
Weighted FMeasure: 0.8196081600680099
Iteration time: 183.0
Weighted AreaUnderPRC: 0.9010098300487592
Mean absolute error: 0.3077946801966589
Coverage of cases: 100.0
Instances selection time: 3.0
Test time: 11.0
Accumulative iteration time: 4911.0
Weighted Recall: 0.8219435736677116
Weighted FalsePositiveRate: 0.1314649057330268
Kappa statistic: 0.7042956703841324
Training time: 180.0
		
Iteration: 38
Labeled set size: 1059
Unlabelled set size: 536
	
Mean region size: 99.93730407523513
Incorrectly Classified Instances: 11.974921630094045
Correctly Classified Instances: 88.02507836990596
Weighted Precision: 0.8796769404704533
Weighted AreaUnderROC: 0.963908442315959
Root mean squared error: 0.3167833769168589
Relative absolute error: 61.30820704375638
Root relative squared error: 67.19990219552473
Weighted TruePositiveRate: 0.8802507836990595
Weighted MatthewsCorrelation: 0.8035539872227351
Weighted FMeasure: 0.8797526180703338
Iteration time: 176.0
Weighted AreaUnderPRC: 0.9414238481238556
Mean absolute error: 0.272480920194479
Coverage of cases: 100.0
Instances selection time: 3.0
Test time: 11.0
Accumulative iteration time: 5087.0
Weighted Recall: 0.8802507836990595
Weighted FalsePositiveRate: 0.08000447973224539
Kappa statistic: 0.804307301355643
Training time: 173.0
		
Iteration: 39
Labeled set size: 1079
Unlabelled set size: 516
	
Mean region size: 99.93730407523513
Incorrectly Classified Instances: 16.614420062695924
Correctly Classified Instances: 83.38557993730407
Weighted Precision: 0.8337415736792431
Weighted AreaUnderROC: 0.9454345906023677
Root mean squared error: 0.3505940276232212
Relative absolute error: 70.01575982538499
Root relative squared error: 74.3722243127642
Weighted TruePositiveRate: 0.8338557993730408
Weighted MatthewsCorrelation: 0.7269083920996203
Weighted FMeasure: 0.8296922107663738
Iteration time: 179.0
Weighted AreaUnderPRC: 0.9097720267604787
Mean absolute error: 0.31118115477949587
Coverage of cases: 100.0
Instances selection time: 3.0
Test time: 11.0
Accumulative iteration time: 5266.0
Weighted Recall: 0.8338557993730408
Weighted FalsePositiveRate: 0.12865046613845754
Kappa statistic: 0.7217280871772723
Training time: 176.0
		
Iteration: 40
Labeled set size: 1099
Unlabelled set size: 496
	
Mean region size: 95.52769070010473
Incorrectly Classified Instances: 14.043887147335424
Correctly Classified Instances: 85.95611285266457
Weighted Precision: 0.8597783647333765
Weighted AreaUnderROC: 0.9542095101948247
Root mean squared error: 0.32335988193759846
Relative absolute error: 62.13978023688874
Root relative squared error: 68.5949895845264
Weighted TruePositiveRate: 0.8595611285266458
Weighted MatthewsCorrelation: 0.7714431704762913
Weighted FMeasure: 0.8590782574249732
Iteration time: 198.0
Weighted AreaUnderPRC: 0.9294274230180082
Mean absolute error: 0.2761768010528451
Coverage of cases: 100.0
Instances selection time: 3.0
Test time: 12.0
Accumulative iteration time: 5464.0
Weighted Recall: 0.8595611285266458
Weighted FalsePositiveRate: 0.09084878947115259
Kappa statistic: 0.7707605491018868
Training time: 195.0
		
Iteration: 41
Labeled set size: 1119
Unlabelled set size: 476
	
Mean region size: 96.46812957157793
Incorrectly Classified Instances: 15.360501567398119
Correctly Classified Instances: 84.63949843260188
Weighted Precision: 0.8464626997348793
Weighted AreaUnderROC: 0.9484334973395602
Root mean squared error: 0.33099723706546524
Relative absolute error: 64.069732845431
Root relative squared error: 70.21511726489973
Weighted TruePositiveRate: 0.8463949843260188
Weighted MatthewsCorrelation: 0.7512153510687684
Weighted FMeasure: 0.8441499511888394
Iteration time: 177.0
Weighted AreaUnderPRC: 0.9152974702911971
Mean absolute error: 0.284754368201922
Coverage of cases: 99.9373040752351
Instances selection time: 3.0
Test time: 11.0
Accumulative iteration time: 5641.0
Weighted Recall: 0.8463949843260188
Weighted FalsePositiveRate: 0.09981816485465114
Kappa statistic: 0.7485389487123056
Training time: 174.0
		
Iteration: 42
Labeled set size: 1139
Unlabelled set size: 456
	
Mean region size: 94.52455590386643
Incorrectly Classified Instances: 11.661442006269592
Correctly Classified Instances: 88.3385579937304
Weighted Precision: 0.8832297566216533
Weighted AreaUnderROC: 0.965509435369957
Root mean squared error: 0.31074966846708807
Relative absolute error: 59.45055493436986
Root relative squared error: 65.91995934736408
Weighted TruePositiveRate: 0.883385579937304
Weighted MatthewsCorrelation: 0.8099691047451569
Weighted FMeasure: 0.8832241223878278
Iteration time: 209.0
Weighted AreaUnderPRC: 0.9447861758939471
Mean absolute error: 0.2642246885972054
Coverage of cases: 99.9373040752351
Instances selection time: 3.0
Test time: 12.0
Accumulative iteration time: 5850.0
Weighted Recall: 0.883385579937304
Weighted FalsePositiveRate: 0.07566569952657959
Kappa statistic: 0.8097536294431379
Training time: 206.0
		
Iteration: 43
Labeled set size: 1159
Unlabelled set size: 436
	
Mean region size: 91.55694879832815
Incorrectly Classified Instances: 15.61128526645768
Correctly Classified Instances: 84.38871473354232
Weighted Precision: 0.8435807998786493
Weighted AreaUnderROC: 0.9519133190885775
Root mean squared error: 0.3183972216551165
Relative absolute error: 59.55925761580685
Root relative squared error: 67.54225036298598
Weighted TruePositiveRate: 0.8438871473354232
Weighted MatthewsCorrelation: 0.7422007274918083
Weighted FMeasure: 0.843379671822549
Iteration time: 219.0
Weighted AreaUnderPRC: 0.9267138956583371
Mean absolute error: 0.2647078116258142
Coverage of cases: 100.0
Instances selection time: 2.0
Test time: 12.0
Accumulative iteration time: 6069.0
Weighted Recall: 0.8438871473354232
Weighted FalsePositiveRate: 0.10634686349610366
Kappa statistic: 0.7443668403907538
Training time: 217.0
		
Iteration: 44
Labeled set size: 1179
Unlabelled set size: 416
	
Mean region size: 92.87356321839077
Incorrectly Classified Instances: 12.789968652037617
Correctly Classified Instances: 87.21003134796238
Weighted Precision: 0.8709651863534632
Weighted AreaUnderROC: 0.9599430786717655
Root mean squared error: 0.31369938306211936
Relative absolute error: 59.58014267563616
Root relative squared error: 66.54568830517755
Weighted TruePositiveRate: 0.8721003134796238
Weighted MatthewsCorrelation: 0.7921837595792858
Weighted FMeasure: 0.8706267307151742
Iteration time: 225.0
Weighted AreaUnderPRC: 0.9361198923300056
Mean absolute error: 0.2648006341139445
Coverage of cases: 99.9373040752351
Instances selection time: 2.0
Test time: 13.0
Accumulative iteration time: 6294.0
Weighted Recall: 0.8721003134796238
Weighted FalsePositiveRate: 0.09024470801117064
Kappa statistic: 0.7889992737082382
Training time: 223.0
		
Iteration: 45
Labeled set size: 1199
Unlabelled set size: 396
	
Mean region size: 97.22048066875666
Incorrectly Classified Instances: 14.106583072100314
Correctly Classified Instances: 85.8934169278997
Weighted Precision: 0.8590175193944569
Weighted AreaUnderROC: 0.9538897023392364
Root mean squared error: 0.3309592614135458
Relative absolute error: 64.53981771015572
Root relative squared error: 70.20706141260206
Weighted TruePositiveRate: 0.8589341692789969
Weighted MatthewsCorrelation: 0.7675672365496043
Weighted FMeasure: 0.8583022964677544
Iteration time: 209.0
Weighted AreaUnderPRC: 0.9260774689241947
Mean absolute error: 0.28684363426736526
Coverage of cases: 99.9373040752351
Instances selection time: 2.0
Test time: 13.0
Accumulative iteration time: 6503.0
Weighted Recall: 0.8589341692789969
Weighted FalsePositiveRate: 0.10015580987201626
Kappa statistic: 0.7678113220731125
Training time: 207.0
		
Iteration: 46
Labeled set size: 1219
Unlabelled set size: 376
	
Mean region size: 96.112852664577
Incorrectly Classified Instances: 15.736677115987462
Correctly Classified Instances: 84.26332288401254
Weighted Precision: 0.8425059651991358
Weighted AreaUnderROC: 0.9401749243225085
Root mean squared error: 0.34095717813791604
Relative absolute error: 66.6713077575547
Root relative squared error: 72.3279398266642
Weighted TruePositiveRate: 0.8426332288401254
Weighted MatthewsCorrelation: 0.7368000923138661
Weighted FMeasure: 0.8412435719495862
Iteration time: 258.0
Weighted AreaUnderPRC: 0.9082826229831276
Mean absolute error: 0.2963169233669165
Coverage of cases: 100.0
Instances selection time: 3.0
Test time: 12.0
Accumulative iteration time: 6761.0
Weighted Recall: 0.8426332288401254
Weighted FalsePositiveRate: 0.1182250597415041
Kappa statistic: 0.7395610050266948
Training time: 255.0
		
Time end:Wed Nov 01 13.05.50 EET 2017