Wed Nov 01 12.15.21 EET 2017
Dataset: splice
Test set size: 1595
Initial Labelled set size: 319
Initial Unlabelled set size: 1276
Batch mode: QBestBatchMode
Batch size: 20
Classifiers: RandomForest-1cores
Scenario: PoolBasedSamplingScenario
Query strategy: LeastConfidentSamplingQueryStrategy-1cores
Time begining: Wed Nov 01 12.15.21 EET 2017
		
Iteration: 1
Labeled set size: 319
Unlabelled set size: 1276
	
Mean region size: 96.5308254963429
Incorrectly Classified Instances: 28.087774294670847
Correctly Classified Instances: 71.91222570532915
Weighted Precision: 0.7336041092421501
Weighted AreaUnderROC: 0.8734115654501967
Root mean squared error: 0.378098886453948
Relative absolute error: 73.72602015543517
Root relative squared error: 80.20688597119982
Weighted TruePositiveRate: 0.7191222570532916
Weighted MatthewsCorrelation: 0.5274418309185018
Weighted FMeasure: 0.7026728535054485
Iteration time: 60.0
Weighted AreaUnderPRC: 0.8109442178015939
Mean absolute error: 0.3276712006908304
Coverage of cases: 100.0
Instances selection time: 5.0
Test time: 11.0
Accumulative iteration time: 60.0
Weighted Recall: 0.7191222570532916
Weighted FalsePositiveRate: 0.250536764691607
Kappa statistic: 0.5053880145747732
Training time: 55.0
		
Iteration: 2
Labeled set size: 339
Unlabelled set size: 1256
	
Mean region size: 96.42633228840128
Incorrectly Classified Instances: 20.188087774294672
Correctly Classified Instances: 79.81191222570533
Weighted Precision: 0.802479967619673
Weighted AreaUnderROC: 0.9240148410178122
Root mean squared error: 0.35200694585072306
Relative absolute error: 68.45317919387011
Root relative squared error: 74.6719495307428
Weighted TruePositiveRate: 0.7981191222570533
Weighted MatthewsCorrelation: 0.6643751931009952
Weighted FMeasure: 0.7933298607123819
Iteration time: 59.0
Weighted AreaUnderPRC: 0.8849741146913152
Mean absolute error: 0.30423635197276294
Coverage of cases: 100.0
Instances selection time: 5.0
Test time: 11.0
Accumulative iteration time: 119.0
Weighted Recall: 0.7981191222570533
Weighted FalsePositiveRate: 0.16547112989536875
Kappa statistic: 0.6578231505534164
Training time: 54.0
		
Iteration: 3
Labeled set size: 359
Unlabelled set size: 1236
	
Mean region size: 99.14315569487984
Incorrectly Classified Instances: 17.49216300940439
Correctly Classified Instances: 82.5078369905956
Weighted Precision: 0.8258785793985919
Weighted AreaUnderROC: 0.9420490563415557
Root mean squared error: 0.3385264515698046
Relative absolute error: 65.37840472775869
Root relative squared error: 71.81230485480765
Weighted TruePositiveRate: 0.8250783699059561
Weighted MatthewsCorrelation: 0.7175378370032679
Weighted FMeasure: 0.817277604426551
Iteration time: 65.0
Weighted AreaUnderPRC: 0.8962568911395268
Mean absolute error: 0.2905706876789341
Coverage of cases: 100.0
Instances selection time: 5.0
Test time: 10.0
Accumulative iteration time: 184.0
Weighted Recall: 0.8250783699059561
Weighted FalsePositiveRate: 0.1250091261679985
Kappa statistic: 0.7087610244166777
Training time: 60.0
		
Iteration: 4
Labeled set size: 379
Unlabelled set size: 1216
	
Mean region size: 95.48589341692802
Incorrectly Classified Instances: 24.890282131661444
Correctly Classified Instances: 75.10971786833856
Weighted Precision: 0.745050062694984
Weighted AreaUnderROC: 0.8816549219666121
Root mean squared error: 0.3690264208502274
Relative absolute error: 71.67504851790096
Root relative squared error: 78.28232538605808
Weighted TruePositiveRate: 0.7510971786833855
Weighted MatthewsCorrelation: 0.5865780687425598
Weighted FMeasure: 0.7410474722268678
Iteration time: 62.0
Weighted AreaUnderPRC: 0.8136358315439713
Mean absolute error: 0.3185557711906782
Coverage of cases: 100.0
Instances selection time: 5.0
Test time: 10.0
Accumulative iteration time: 246.0
Weighted Recall: 0.7510971786833855
Weighted FalsePositiveRate: 0.18371571020003846
Kappa statistic: 0.5815814287875994
Training time: 57.0
		
Iteration: 5
Labeled set size: 399
Unlabelled set size: 1196
	
Mean region size: 100.0
Incorrectly Classified Instances: 21.191222570532915
Correctly Classified Instances: 78.80877742946709
Weighted Precision: 0.7878036817021828
Weighted AreaUnderROC: 0.910074566482078
Root mean squared error: 0.3632385903793733
Relative absolute error: 71.82170686630313
Root relative squared error: 77.05454113376837
Weighted TruePositiveRate: 0.7880877742946708
Weighted MatthewsCorrelation: 0.6487383947291004
Weighted FMeasure: 0.7842621430373463
Iteration time: 65.0
Weighted AreaUnderPRC: 0.862863798354544
Mean absolute error: 0.31920758607246563
Coverage of cases: 100.0
Instances selection time: 5.0
Test time: 10.0
Accumulative iteration time: 311.0
Weighted Recall: 0.7880877742946708
Weighted FalsePositiveRate: 0.15198082067507274
Kappa statistic: 0.6488020012247078
Training time: 60.0
		
Iteration: 6
Labeled set size: 419
Unlabelled set size: 1176
	
Mean region size: 92.53918495297829
Incorrectly Classified Instances: 14.921630094043888
Correctly Classified Instances: 85.07836990595611
Weighted Precision: 0.8501711433218945
Weighted AreaUnderROC: 0.9548617705078706
Root mean squared error: 0.3161845175571391
Relative absolute error: 59.17943176642732
Root relative squared error: 67.07286494125425
Weighted TruePositiveRate: 0.8507836990595611
Weighted MatthewsCorrelation: 0.7563141908150252
Weighted FMeasure: 0.8490041405079477
Iteration time: 70.0
Weighted AreaUnderPRC: 0.9233405044377004
Mean absolute error: 0.26301969673968295
Coverage of cases: 99.87460815047022
Instances selection time: 5.0
Test time: 11.0
Accumulative iteration time: 381.0
Weighted Recall: 0.8507836990595611
Weighted FalsePositiveRate: 0.1063791091889308
Kappa statistic: 0.7534183398398171
Training time: 65.0
		
Iteration: 7
Labeled set size: 439
Unlabelled set size: 1156
	
Mean region size: 98.09822361546505
Incorrectly Classified Instances: 19.247648902821318
Correctly Classified Instances: 80.75235109717869
Weighted Precision: 0.8072073204742803
Weighted AreaUnderROC: 0.9239324496792075
Root mean squared error: 0.35496737095654096
Relative absolute error: 69.65399917323727
Root relative squared error: 75.29995053099842
Weighted TruePositiveRate: 0.8075235109717869
Weighted MatthewsCorrelation: 0.6830073345251212
Weighted FMeasure: 0.8049499515785074
Iteration time: 67.0
Weighted AreaUnderPRC: 0.8786480851641489
Mean absolute error: 0.3095733296588393
Coverage of cases: 100.0
Instances selection time: 5.0
Test time: 11.0
Accumulative iteration time: 448.0
Weighted Recall: 0.8075235109717869
Weighted FalsePositiveRate: 0.1381967665456927
Kappa statistic: 0.6808282502506235
Training time: 62.0
		
Iteration: 8
Labeled set size: 459
Unlabelled set size: 1136
	
Mean region size: 96.44723092998974
Incorrectly Classified Instances: 21.755485893416928
Correctly Classified Instances: 78.24451410658307
Weighted Precision: 0.7850459520570551
Weighted AreaUnderROC: 0.9037370987209505
Root mean squared error: 0.3634977929406296
Relative absolute error: 71.30136167236462
Root relative squared error: 77.10952630039796
Weighted TruePositiveRate: 0.7824451410658307
Weighted MatthewsCorrelation: 0.6362108434396996
Weighted FMeasure: 0.777739080456161
Iteration time: 86.0
Weighted AreaUnderPRC: 0.8583468358447066
Mean absolute error: 0.31689494076607216
Coverage of cases: 99.87460815047022
Instances selection time: 5.0
Test time: 29.0
Accumulative iteration time: 534.0
Weighted Recall: 0.7824451410658307
Weighted FalsePositiveRate: 0.17472812000885302
Kappa statistic: 0.632016887736445
Training time: 81.0
		
Iteration: 9
Labeled set size: 479
Unlabelled set size: 1116
	
Mean region size: 94.77533960292591
Incorrectly Classified Instances: 21.567398119122256
Correctly Classified Instances: 78.43260188087774
Weighted Precision: 0.784157323153488
Weighted AreaUnderROC: 0.9098542653840578
Root mean squared error: 0.3553896393339624
Relative absolute error: 68.6202603533909
Root relative squared error: 75.38952718094501
Weighted TruePositiveRate: 0.7843260188087774
Weighted MatthewsCorrelation: 0.6394943620056982
Weighted FMeasure: 0.7812717150494733
Iteration time: 114.0
Weighted AreaUnderPRC: 0.8654781256003338
Mean absolute error: 0.3049789349039665
Coverage of cases: 99.87460815047022
Instances selection time: 5.0
Test time: 11.0
Accumulative iteration time: 648.0
Weighted Recall: 0.7843260188087774
Weighted FalsePositiveRate: 0.1631763577160166
Kappa statistic: 0.6396559695689636
Training time: 109.0
		
Iteration: 10
Labeled set size: 499
Unlabelled set size: 1096
	
Mean region size: 96.4472309299897
Incorrectly Classified Instances: 16.990595611285265
Correctly Classified Instances: 83.00940438871473
Weighted Precision: 0.8294508949782998
Weighted AreaUnderROC: 0.934275392102997
Root mean squared error: 0.34445345079639306
Relative absolute error: 67.02532702720033
Root relative squared error: 73.06961125837006
Weighted TruePositiveRate: 0.8300940438871474
Weighted MatthewsCorrelation: 0.7192035346727337
Weighted FMeasure: 0.8288387930741583
Iteration time: 78.0
Weighted AreaUnderPRC: 0.8957965056943298
Mean absolute error: 0.29789034234311934
Coverage of cases: 100.0
Instances selection time: 5.0
Test time: 11.0
Accumulative iteration time: 726.0
Weighted Recall: 0.8300940438871474
Weighted FalsePositiveRate: 0.12103709198789052
Kappa statistic: 0.7197123752065302
Training time: 73.0
		
Iteration: 11
Labeled set size: 519
Unlabelled set size: 1076
	
Mean region size: 94.44096133751317
Incorrectly Classified Instances: 16.363636363636363
Correctly Classified Instances: 83.63636363636364
Weighted Precision: 0.8355148028999377
Weighted AreaUnderROC: 0.9417976512433484
Root mean squared error: 0.3354885283332639
Relative absolute error: 64.35324964053567
Root relative squared error: 71.16786401842303
Weighted TruePositiveRate: 0.8363636363636363
Weighted MatthewsCorrelation: 0.7324171481449948
Weighted FMeasure: 0.8340251799601073
Iteration time: 115.0
Weighted AreaUnderPRC: 0.9060175586522592
Mean absolute error: 0.28601444284683164
Coverage of cases: 100.0
Instances selection time: 4.0
Test time: 11.0
Accumulative iteration time: 841.0
Weighted Recall: 0.8363636363636363
Weighted FalsePositiveRate: 0.11952536565072694
Kappa statistic: 0.7281810963777067
Training time: 111.0
		
Iteration: 12
Labeled set size: 539
Unlabelled set size: 1056
	
Mean region size: 99.97910135841171
Incorrectly Classified Instances: 15.987460815047022
Correctly Classified Instances: 84.01253918495298
Weighted Precision: 0.8391205687833146
Weighted AreaUnderROC: 0.9477025381020548
Root mean squared error: 0.33837821548890784
Relative absolute error: 66.00613624500767
Root relative squared error: 71.78085923340207
Weighted TruePositiveRate: 0.8401253918495298
Weighted MatthewsCorrelation: 0.7397808337582519
Weighted FMeasure: 0.8382804281468984
Iteration time: 88.0
Weighted AreaUnderPRC: 0.911361375747194
Mean absolute error: 0.29336060553337406
Coverage of cases: 100.0
Instances selection time: 4.0
Test time: 10.0
Accumulative iteration time: 929.0
Weighted Recall: 0.8401253918495298
Weighted FalsePositiveRate: 0.11309302362767455
Kappa statistic: 0.7354246962970191
Training time: 84.0
		
Iteration: 13
Labeled set size: 559
Unlabelled set size: 1036
	
Mean region size: 100.0
Incorrectly Classified Instances: 23.94984326018809
Correctly Classified Instances: 76.05015673981191
Weighted Precision: 0.7598042948466502
Weighted AreaUnderROC: 0.8931176019930505
Root mean squared error: 0.37403052625155236
Relative absolute error: 74.64013361602697
Root relative squared error: 79.3438564449728
Weighted TruePositiveRate: 0.7605015673981191
Weighted MatthewsCorrelation: 0.5995699293386402
Weighted FMeasure: 0.7565042013765704
Iteration time: 109.0
Weighted AreaUnderPRC: 0.8397803079164867
Mean absolute error: 0.3317339271823496
Coverage of cases: 100.0
Instances selection time: 5.0
Test time: 10.0
Accumulative iteration time: 1038.0
Weighted Recall: 0.7605015673981191
Weighted FalsePositiveRate: 0.18120996094339853
Kappa statistic: 0.5982139913244978
Training time: 104.0
		
Iteration: 14
Labeled set size: 579
Unlabelled set size: 1016
	
Mean region size: 99.9373040752351
Incorrectly Classified Instances: 16.677115987460816
Correctly Classified Instances: 83.32288401253919
Weighted Precision: 0.8321177444474512
Weighted AreaUnderROC: 0.9362120511715794
Root mean squared error: 0.3599574669851382
Relative absolute error: 72.40150202404413
Root relative squared error: 76.35850975317635
Weighted TruePositiveRate: 0.8332288401253919
Weighted MatthewsCorrelation: 0.7257914292871902
Weighted FMeasure: 0.8323989402787689
Iteration time: 103.0
Weighted AreaUnderPRC: 0.9030528627623371
Mean absolute error: 0.32178445344020346
Coverage of cases: 100.0
Instances selection time: 5.0
Test time: 11.0
Accumulative iteration time: 1141.0
Weighted Recall: 0.8332288401253919
Weighted FalsePositiveRate: 0.11146931803620935
Kappa statistic: 0.7271566789603826
Training time: 98.0
		
Iteration: 15
Labeled set size: 599
Unlabelled set size: 996
	
Mean region size: 99.37304075235106
Incorrectly Classified Instances: 22.821316614420063
Correctly Classified Instances: 77.17868338557994
Weighted Precision: 0.7732481676585903
Weighted AreaUnderROC: 0.9034728972359778
Root mean squared error: 0.3751293680435174
Relative absolute error: 75.2058126305697
Root relative squared error: 79.5769559897377
Weighted TruePositiveRate: 0.7717868338557994
Weighted MatthewsCorrelation: 0.6205697089544344
Weighted FMeasure: 0.7647492363717437
Iteration time: 100.0
Weighted AreaUnderPRC: 0.8526232133544056
Mean absolute error: 0.3342480561358729
Coverage of cases: 100.0
Instances selection time: 4.0
Test time: 11.0
Accumulative iteration time: 1241.0
Weighted Recall: 0.7717868338557994
Weighted FalsePositiveRate: 0.18287099295296425
Kappa statistic: 0.6120463555758398
Training time: 96.0
		
Iteration: 16
Labeled set size: 619
Unlabelled set size: 976
	
Mean region size: 98.62068965517247
Incorrectly Classified Instances: 23.699059561128525
Correctly Classified Instances: 76.30094043887148
Weighted Precision: 0.7616035098499949
Weighted AreaUnderROC: 0.8877927482301518
Root mean squared error: 0.37410450130099043
Relative absolute error: 74.27098343138104
Root relative squared error: 79.35954892270168
Weighted TruePositiveRate: 0.7630094043887148
Weighted MatthewsCorrelation: 0.604096007814812
Weighted FMeasure: 0.759733282739531
Iteration time: 134.0
Weighted AreaUnderPRC: 0.8335894889872721
Mean absolute error: 0.33009325969503434
Coverage of cases: 100.0
Instances selection time: 5.0
Test time: 12.0
Accumulative iteration time: 1375.0
Weighted Recall: 0.7630094043887148
Weighted FalsePositiveRate: 0.17469890858634754
Kappa statistic: 0.604845332513631
Training time: 129.0
		
Iteration: 17
Labeled set size: 639
Unlabelled set size: 956
	
Mean region size: 96.32183908045985
Incorrectly Classified Instances: 18.369905956112852
Correctly Classified Instances: 81.63009404388714
Weighted Precision: 0.8146602704323964
Weighted AreaUnderROC: 0.9314183878438849
Root mean squared error: 0.34256345755098405
Relative absolute error: 66.33264349512838
Root relative squared error: 72.66868314630244
Weighted TruePositiveRate: 0.8163009404388715
Weighted MatthewsCorrelation: 0.6981964740111558
Weighted FMeasure: 0.8143762147094693
Iteration time: 132.0
Weighted AreaUnderPRC: 0.8934992036614231
Mean absolute error: 0.29481174886724393
Coverage of cases: 99.9373040752351
Instances selection time: 5.0
Test time: 11.0
Accumulative iteration time: 1507.0
Weighted Recall: 0.8163009404388715
Weighted FalsePositiveRate: 0.12683975133895403
Kappa statistic: 0.697306207575522
Training time: 127.0
		
Iteration: 18
Labeled set size: 659
Unlabelled set size: 936
	
Mean region size: 90.09404388714752
Incorrectly Classified Instances: 17.178683385579937
Correctly Classified Instances: 82.82131661442006
Weighted Precision: 0.8260458733047513
Weighted AreaUnderROC: 0.9405639902389235
Root mean squared error: 0.3241501274556806
Relative absolute error: 60.09237260318105
Root relative squared error: 68.76262597391786
Weighted TruePositiveRate: 0.8282131661442006
Weighted MatthewsCorrelation: 0.7206688564248724
Weighted FMeasure: 0.8254921252200785
Iteration time: 156.0
Weighted AreaUnderPRC: 0.9035476636722847
Mean absolute error: 0.2670772115696996
Coverage of cases: 99.9373040752351
Instances selection time: 4.0
Test time: 11.0
Accumulative iteration time: 1663.0
Weighted Recall: 0.8282131661442006
Weighted FalsePositiveRate: 0.11544135221631732
Kappa statistic: 0.7172593246261222
Training time: 152.0
		
Iteration: 19
Labeled set size: 679
Unlabelled set size: 916
	
Mean region size: 98.34900731452458
Incorrectly Classified Instances: 17.74294670846395
Correctly Classified Instances: 82.25705329153605
Weighted Precision: 0.8217444804534516
Weighted AreaUnderROC: 0.9279585512477273
Root mean squared error: 0.35460667221828635
Relative absolute error: 69.98641577379149
Root relative squared error: 75.22343477386283
Weighted TruePositiveRate: 0.8225705329153605
Weighted MatthewsCorrelation: 0.7071114783838478
Weighted FMeasure: 0.8207845707272282
Iteration time: 110.0
Weighted AreaUnderPRC: 0.8872517340239754
Mean absolute error: 0.3110507367724137
Coverage of cases: 100.0
Instances selection time: 5.0
Test time: 11.0
Accumulative iteration time: 1773.0
Weighted Recall: 0.8225705329153605
Weighted FalsePositiveRate: 0.1281859420125254
Kappa statistic: 0.7062039626683086
Training time: 105.0
		
Iteration: 20
Labeled set size: 699
Unlabelled set size: 896
	
Mean region size: 94.50365726227807
Incorrectly Classified Instances: 14.984326018808778
Correctly Classified Instances: 85.01567398119123
Weighted Precision: 0.8489935505202926
Weighted AreaUnderROC: 0.952331972875017
Root mean squared error: 0.323916368096447
Relative absolute error: 61.55554091419551
Root relative squared error: 68.71303812549388
Weighted TruePositiveRate: 0.8501567398119122
Weighted MatthewsCorrelation: 0.7563726317649272
Weighted FMeasure: 0.8486468553624963
Iteration time: 121.0
Weighted AreaUnderPRC: 0.9151174581023145
Mean absolute error: 0.2735801818408751
Coverage of cases: 99.9373040752351
Instances selection time: 4.0
Test time: 11.0
Accumulative iteration time: 1894.0
Weighted Recall: 0.8501567398119122
Weighted FalsePositiveRate: 0.10419631626388028
Kappa statistic: 0.7528090689090801
Training time: 117.0
		
Iteration: 21
Labeled set size: 719
Unlabelled set size: 876
	
Mean region size: 99.9791013584117
Incorrectly Classified Instances: 16.17554858934169
Correctly Classified Instances: 83.82445141065831
Weighted Precision: 0.8377805572553749
Weighted AreaUnderROC: 0.9477310568714639
Root mean squared error: 0.33968020743432065
Relative absolute error: 66.78182063066788
Root relative squared error: 72.05705343349756
Weighted TruePositiveRate: 0.8382445141065831
Weighted MatthewsCorrelation: 0.7326124637395829
Weighted FMeasure: 0.8363253765917834
Iteration time: 110.0
Weighted AreaUnderPRC: 0.9208893904907476
Mean absolute error: 0.296808091691864
Coverage of cases: 100.0
Instances selection time: 4.0
Test time: 11.0
Accumulative iteration time: 2004.0
Weighted Recall: 0.8382445141065831
Weighted FalsePositiveRate: 0.1198815909026194
Kappa statistic: 0.7317709725233252
Training time: 106.0
		
Iteration: 22
Labeled set size: 739
Unlabelled set size: 856
	
Mean region size: 99.9582027168234
Incorrectly Classified Instances: 18.11912225705329
Correctly Classified Instances: 81.88087774294671
Weighted Precision: 0.8189036809808135
Weighted AreaUnderROC: 0.9268577121202414
Root mean squared error: 0.3591477666879497
Relative absolute error: 71.73824198604149
Root relative squared error: 76.18674638191513
Weighted TruePositiveRate: 0.8188087774294671
Weighted MatthewsCorrelation: 0.701104216706119
Weighted FMeasure: 0.8164336579602237
Iteration time: 108.0
Weighted AreaUnderPRC: 0.8853571095662105
Mean absolute error: 0.3188366310490805
Coverage of cases: 100.0
Instances selection time: 4.0
Test time: 10.0
Accumulative iteration time: 2112.0
Weighted Recall: 0.8188087774294671
Weighted FalsePositiveRate: 0.1350946035373669
Kappa statistic: 0.698234861662201
Training time: 104.0
		
Iteration: 23
Labeled set size: 759
Unlabelled set size: 836
	
Mean region size: 95.1724137931037
Incorrectly Classified Instances: 16.300940438871475
Correctly Classified Instances: 83.69905956112852
Weighted Precision: 0.8362940385624377
Weighted AreaUnderROC: 0.9409429550728821
Root mean squared error: 0.33602439142203894
Relative absolute error: 64.97067115802285
Root relative squared error: 71.28153774558113
Weighted TruePositiveRate: 0.8369905956112853
Weighted MatthewsCorrelation: 0.7301733148831708
Weighted FMeasure: 0.8361333961439168
Iteration time: 153.0
Weighted AreaUnderPRC: 0.9128196383924467
Mean absolute error: 0.28875853848010813
Coverage of cases: 100.0
Instances selection time: 19.0
Test time: 11.0
Accumulative iteration time: 2265.0
Weighted Recall: 0.8369905956112853
Weighted FalsePositiveRate: 0.11408704654715092
Kappa statistic: 0.7321664998223917
Training time: 134.0
		
Iteration: 24
Labeled set size: 779
Unlabelled set size: 816
	
Mean region size: 96.88610240334376
Incorrectly Classified Instances: 19.87460815047022
Correctly Classified Instances: 80.12539184952978
Weighted Precision: 0.7997758426799633
Weighted AreaUnderROC: 0.9200016615584934
Root mean squared error: 0.35368414988349056
Relative absolute error: 69.18651205068147
Root relative squared error: 75.02773823424378
Weighted TruePositiveRate: 0.8012539184952978
Weighted MatthewsCorrelation: 0.6712760729499513
Weighted FMeasure: 0.7985320722484549
Iteration time: 144.0
Weighted AreaUnderPRC: 0.8767822196151697
Mean absolute error: 0.30749560911414686
Coverage of cases: 100.0
Instances selection time: 21.0
Test time: 12.0
Accumulative iteration time: 2409.0
Weighted Recall: 0.8012539184952978
Weighted FalsePositiveRate: 0.14256640989359123
Kappa statistic: 0.6706219952314567
Training time: 123.0
		
Iteration: 25
Labeled set size: 799
Unlabelled set size: 796
	
Mean region size: 89.65517241379334
Incorrectly Classified Instances: 16.17554858934169
Correctly Classified Instances: 83.82445141065831
Weighted Precision: 0.8371630340782673
Weighted AreaUnderROC: 0.9452995714867071
Root mean squared error: 0.320957966498584
Relative absolute error: 59.57335740229814
Root relative squared error: 68.08546637609727
Weighted TruePositiveRate: 0.8382445141065831
Weighted MatthewsCorrelation: 0.7339263917717248
Weighted FMeasure: 0.8371417690182321
Iteration time: 146.0
Weighted AreaUnderPRC: 0.9126995512510033
Mean absolute error: 0.2647704773435533
Coverage of cases: 99.74921630094043
Instances selection time: 4.0
Test time: 11.0
Accumulative iteration time: 2555.0
Weighted Recall: 0.8382445141065831
Weighted FalsePositiveRate: 0.10940256186325799
Kappa statistic: 0.7349849946547482
Training time: 142.0
		
Iteration: 26
Labeled set size: 819
Unlabelled set size: 776
	
Mean region size: 99.9373040752351
Incorrectly Classified Instances: 18.746081504702193
Correctly Classified Instances: 81.25391849529781
Weighted Precision: 0.8138795322305671
Weighted AreaUnderROC: 0.9270681236150983
Root mean squared error: 0.36067454660105974
Relative absolute error: 71.98621306457875
Root relative squared error: 76.51062531089697
Weighted TruePositiveRate: 0.812539184952978
Weighted MatthewsCorrelation: 0.6914835741014507
Weighted FMeasure: 0.8091507539044288
Iteration time: 143.0
Weighted AreaUnderPRC: 0.8837053992391685
Mean absolute error: 0.31993872473146834
Coverage of cases: 100.0
Instances selection time: 4.0
Test time: 11.0
Accumulative iteration time: 2698.0
Weighted Recall: 0.812539184952978
Weighted FalsePositiveRate: 0.14327480289957867
Kappa statistic: 0.6859717291918122
Training time: 139.0
		
Iteration: 27
Labeled set size: 839
Unlabelled set size: 756
	
Mean region size: 99.9791013584117
Incorrectly Classified Instances: 17.304075235109718
Correctly Classified Instances: 82.69592476489028
Weighted Precision: 0.8264627345650846
Weighted AreaUnderROC: 0.9327831389239788
Root mean squared error: 0.3511860012802995
Relative absolute error: 69.41906920229519
Root relative squared error: 74.49780088892535
Weighted TruePositiveRate: 0.8269592476489028
Weighted MatthewsCorrelation: 0.7169252574390332
Weighted FMeasure: 0.8240048891174413
Iteration time: 145.0
Weighted AreaUnderPRC: 0.8959597575062486
Mean absolute error: 0.3085291964546523
Coverage of cases: 100.0
Instances selection time: 4.0
Test time: 11.0
Accumulative iteration time: 2843.0
Weighted Recall: 0.8269592476489028
Weighted FalsePositiveRate: 0.12869958793241507
Kappa statistic: 0.7113905726951958
Training time: 141.0
		
Iteration: 28
Labeled set size: 859
Unlabelled set size: 736
	
Mean region size: 97.13688610240354
Incorrectly Classified Instances: 19.561128526645767
Correctly Classified Instances: 80.43887147335423
Weighted Precision: 0.8030701462119053
Weighted AreaUnderROC: 0.9237339990056536
Root mean squared error: 0.3502424246390524
Relative absolute error: 68.19087973843845
Root relative squared error: 74.29763805644684
Weighted TruePositiveRate: 0.8043887147335423
Weighted MatthewsCorrelation: 0.6754811987137866
Weighted FMeasure: 0.8015256973506617
Iteration time: 176.0
Weighted AreaUnderPRC: 0.8829644766749811
Mean absolute error: 0.30307057661528886
Coverage of cases: 100.0
Instances selection time: 4.0
Test time: 12.0
Accumulative iteration time: 3019.0
Weighted Recall: 0.8043887147335423
Weighted FalsePositiveRate: 0.14347766498127146
Kappa statistic: 0.6749730417818093
Training time: 172.0
		
Iteration: 29
Labeled set size: 879
Unlabelled set size: 716
	
Mean region size: 92.22570532915378
Incorrectly Classified Instances: 13.16614420062696
Correctly Classified Instances: 86.83385579937304
Weighted Precision: 0.867947201850733
Weighted AreaUnderROC: 0.9591719653448837
Root mean squared error: 0.31696309638484355
Relative absolute error: 59.978180624771575
Root relative squared error: 67.23802645188168
Weighted TruePositiveRate: 0.8683385579937304
Weighted MatthewsCorrelation: 0.7856020739933468
Weighted FMeasure: 0.8680749242485135
Iteration time: 168.0
Weighted AreaUnderPRC: 0.9347169180341156
Mean absolute error: 0.26656969166565747
Coverage of cases: 99.87460815047022
Instances selection time: 4.0
Test time: 11.0
Accumulative iteration time: 3187.0
Weighted Recall: 0.8683385579937304
Weighted FalsePositiveRate: 0.0846177177790318
Kappa statistic: 0.785392188647282
Training time: 164.0
		
Iteration: 30
Labeled set size: 899
Unlabelled set size: 696
	
Mean region size: 98.82967607105535
Incorrectly Classified Instances: 17.55485893416928
Correctly Classified Instances: 82.44514106583073
Weighted Precision: 0.8269383461459194
Weighted AreaUnderROC: 0.9339879262374808
Root mean squared error: 0.3504487016693129
Relative absolute error: 69.06066431256716
Root relative squared error: 74.34139602251692
Weighted TruePositiveRate: 0.8244514106583072
Weighted MatthewsCorrelation: 0.7097170590667844
Weighted FMeasure: 0.8207127504605185
Iteration time: 153.0
Weighted AreaUnderPRC: 0.8968235565937356
Mean absolute error: 0.3069362858336388
Coverage of cases: 100.0
Instances selection time: 4.0
Test time: 23.0
Accumulative iteration time: 3340.0
Weighted Recall: 0.8244514106583072
Weighted FalsePositiveRate: 0.14140279381272505
Kappa statistic: 0.7045477549664887
Training time: 149.0
		
Iteration: 31
Labeled set size: 919
Unlabelled set size: 676
	
Mean region size: 99.91640543364683
Incorrectly Classified Instances: 16.927899686520377
Correctly Classified Instances: 83.07210031347962
Weighted Precision: 0.8308099574242942
Weighted AreaUnderROC: 0.9367920438204909
Root mean squared error: 0.3441636972735484
Relative absolute error: 67.40550632104551
Root relative squared error: 73.00814525410723
Weighted TruePositiveRate: 0.8307210031347962
Weighted MatthewsCorrelation: 0.7203109869074198
Weighted FMeasure: 0.8293009502160521
Iteration time: 169.0
Weighted AreaUnderPRC: 0.9051358422410609
Mean absolute error: 0.2995800280935424
Coverage of cases: 100.0
Instances selection time: 4.0
Test time: 11.0
Accumulative iteration time: 3509.0
Weighted Recall: 0.8307210031347962
Weighted FalsePositiveRate: 0.12321988491294102
Kappa statistic: 0.7198614431380203
Training time: 165.0
		
Iteration: 32
Labeled set size: 939
Unlabelled set size: 656
	
Mean region size: 92.22570532915388
Incorrectly Classified Instances: 13.5423197492163
Correctly Classified Instances: 86.4576802507837
Weighted Precision: 0.8644094728435858
Weighted AreaUnderROC: 0.9592748184311867
Root mean squared error: 0.3140616482058086
Relative absolute error: 59.391501173040275
Root relative squared error: 66.6225363470846
Weighted TruePositiveRate: 0.864576802507837
Weighted MatthewsCorrelation: 0.7790025524514307
Weighted FMeasure: 0.8637178998878424
Iteration time: 166.0
Weighted AreaUnderPRC: 0.9377967992361783
Mean absolute error: 0.26396222743574055
Coverage of cases: 99.9373040752351
Instances selection time: 3.0
Test time: 12.0
Accumulative iteration time: 3675.0
Weighted Recall: 0.864576802507837
Weighted FalsePositiveRate: 0.09390797681281911
Kappa statistic: 0.7773647722984185
Training time: 163.0
		
Iteration: 33
Labeled set size: 959
Unlabelled set size: 636
	
Mean region size: 95.06792058516217
Incorrectly Classified Instances: 15.924764890282132
Correctly Classified Instances: 84.07523510971787
Weighted Precision: 0.8408673318948345
Weighted AreaUnderROC: 0.9427027722221719
Root mean squared error: 0.3344657130404349
Relative absolute error: 64.5143870035515
Root relative squared error: 70.95089212958482
Weighted TruePositiveRate: 0.8407523510971787
Weighted MatthewsCorrelation: 0.7351500990327132
Weighted FMeasure: 0.839604852486608
Iteration time: 163.0
Weighted AreaUnderPRC: 0.9154927815608945
Mean absolute error: 0.2867306089046799
Coverage of cases: 100.0
Instances selection time: 3.0
Test time: 11.0
Accumulative iteration time: 3838.0
Weighted Recall: 0.8407523510971787
Weighted FalsePositiveRate: 0.11765741406167084
Kappa statistic: 0.7367656738228266
Training time: 160.0
		
Iteration: 34
Labeled set size: 979
Unlabelled set size: 616
	
Mean region size: 99.9582027168234
Incorrectly Classified Instances: 17.115987460815045
Correctly Classified Instances: 82.88401253918495
Weighted Precision: 0.8332568205200543
Weighted AreaUnderROC: 0.9401174295409677
Root mean squared error: 0.3414620341605072
Relative absolute error: 66.71466088989021
Root relative squared error: 72.43503596179333
Weighted TruePositiveRate: 0.8288401253918495
Weighted MatthewsCorrelation: 0.7168660814300316
Weighted FMeasure: 0.8239160610328732
Iteration time: 156.0
Weighted AreaUnderPRC: 0.9042965998073174
Mean absolute error: 0.2965096039550743
Coverage of cases: 100.0
Instances selection time: 3.0
Test time: 22.0
Accumulative iteration time: 3994.0
Weighted Recall: 0.8288401253918495
Weighted FalsePositiveRate: 0.1442980372415605
Kappa statistic: 0.7102356325625315
Training time: 153.0
		
Iteration: 35
Labeled set size: 999
Unlabelled set size: 596
	
Mean region size: 94.62904911180782
Incorrectly Classified Instances: 14.733542319749215
Correctly Classified Instances: 85.26645768025078
Weighted Precision: 0.851656648669526
Weighted AreaUnderROC: 0.9503516234062843
Root mean squared error: 0.32923168226986593
Relative absolute error: 63.480348066079706
Root relative squared error: 69.84058653434231
Weighted TruePositiveRate: 0.8526645768025078
Weighted MatthewsCorrelation: 0.7579470081570808
Weighted FMeasure: 0.8517066569846232
Iteration time: 185.0
Weighted AreaUnderPRC: 0.9227581430864922
Mean absolute error: 0.282134880293694
Coverage of cases: 100.0
Instances selection time: 3.0
Test time: 12.0
Accumulative iteration time: 4179.0
Weighted Recall: 0.8526645768025078
Weighted FalsePositiveRate: 0.10101950041935341
Kappa statistic: 0.7582655354661044
Training time: 182.0
		
Iteration: 36
Labeled set size: 1019
Unlabelled set size: 576
	
Mean region size: 99.91640543364683
Incorrectly Classified Instances: 17.93103448275862
Correctly Classified Instances: 82.06896551724138
Weighted Precision: 0.8225713223027197
Weighted AreaUnderROC: 0.9318393001538277
Root mean squared error: 0.3457087081505909
Relative absolute error: 67.6375733257101
Root relative squared error: 73.33589155455634
Weighted TruePositiveRate: 0.8206896551724138
Weighted MatthewsCorrelation: 0.7028917227198097
Weighted FMeasure: 0.8166273722234597
Iteration time: 162.0
Weighted AreaUnderPRC: 0.8929259202868909
Mean absolute error: 0.3006114370031628
Coverage of cases: 100.0
Instances selection time: 3.0
Test time: 21.0
Accumulative iteration time: 4341.0
Weighted Recall: 0.8206896551724138
Weighted FalsePositiveRate: 0.14450089932325333
Kappa statistic: 0.6980396440049116
Training time: 159.0
		
Iteration: 37
Labeled set size: 1039
Unlabelled set size: 556
	
Mean region size: 98.45350052246603
Incorrectly Classified Instances: 18.996865203761754
Correctly Classified Instances: 81.00313479623824
Weighted Precision: 0.8093934730904931
Weighted AreaUnderROC: 0.9332005397692218
Root mean squared error: 0.35526195445298125
Relative absolute error: 70.42629721409045
Root relative squared error: 75.36244112738598
Weighted TruePositiveRate: 0.8100313479623824
Weighted MatthewsCorrelation: 0.6853237689459968
Weighted FMeasure: 0.80656035808407
Iteration time: 189.0
Weighted AreaUnderPRC: 0.8954865288817905
Mean absolute error: 0.3130057653959647
Coverage of cases: 100.0
Instances selection time: 3.0
Test time: 11.0
Accumulative iteration time: 4530.0
Weighted Recall: 0.8100313479623824
Weighted FalsePositiveRate: 0.1407357847226357
Kappa statistic: 0.6838915059475765
Training time: 186.0
		
Iteration: 38
Labeled set size: 1059
Unlabelled set size: 536
	
Mean region size: 90.99268547544432
Incorrectly Classified Instances: 13.793103448275861
Correctly Classified Instances: 86.20689655172414
Weighted Precision: 0.8619372187948424
Weighted AreaUnderROC: 0.96044270503017
Root mean squared error: 0.310826210434776
Relative absolute error: 58.017462093775315
Root relative squared error: 65.93619635068333
Weighted TruePositiveRate: 0.8620689655172413
Weighted MatthewsCorrelation: 0.77356259910012
Weighted FMeasure: 0.8604230854074855
Iteration time: 217.0
Weighted AreaUnderPRC: 0.9367934510038594
Mean absolute error: 0.2578553870834517
Coverage of cases: 100.0
Instances selection time: 2.0
Test time: 12.0
Accumulative iteration time: 4747.0
Weighted Recall: 0.8620689655172413
Weighted FalsePositiveRate: 0.10280062667881586
Kappa statistic: 0.7714755360295615
Training time: 215.0
		
Iteration: 39
Labeled set size: 1079
Unlabelled set size: 516
	
Mean region size: 99.9791013584117
Incorrectly Classified Instances: 22.570532915360502
Correctly Classified Instances: 77.4294670846395
Weighted Precision: 0.7767654181854402
Weighted AreaUnderROC: 0.8974177376869942
Root mean squared error: 0.36637136413885807
Relative absolute error: 72.29445900251721
Root relative squared error: 77.71910280454485
Weighted TruePositiveRate: 0.774294670846395
Weighted MatthewsCorrelation: 0.6206832024242711
Weighted FMeasure: 0.7690696527404126
Iteration time: 181.0
Weighted AreaUnderPRC: 0.8498399725758919
Mean absolute error: 0.32130870667786154
Coverage of cases: 100.0
Instances selection time: 3.0
Test time: 11.0
Accumulative iteration time: 4928.0
Weighted Recall: 0.774294670846395
Weighted FalsePositiveRate: 0.18207577461738314
Kappa statistic: 0.6178931418407011
Training time: 178.0
		
Iteration: 40
Labeled set size: 1099
Unlabelled set size: 496
	
Mean region size: 91.49425287356367
Incorrectly Classified Instances: 14.670846394984325
Correctly Classified Instances: 85.32915360501568
Weighted Precision: 0.8525646574105057
Weighted AreaUnderROC: 0.9505022129305815
Root mean squared error: 0.32025135634529595
Relative absolute error: 60.42586283672394
Root relative squared error: 67.9355717267837
Weighted TruePositiveRate: 0.8532915360501567
Weighted MatthewsCorrelation: 0.7603587371564339
Weighted FMeasure: 0.8522563939084571
Iteration time: 227.0
Weighted AreaUnderPRC: 0.9254672673269744
Mean absolute error: 0.2685593903854458
Coverage of cases: 100.0
Instances selection time: 3.0
Test time: 12.0
Accumulative iteration time: 5155.0
Weighted Recall: 0.8532915360501567
Weighted FalsePositiveRate: 0.10177333483903644
Kappa statistic: 0.7585353356296081
Training time: 224.0
		
Iteration: 41
Labeled set size: 1119
Unlabelled set size: 476
	
Mean region size: 91.32706374085694
Incorrectly Classified Instances: 13.29153605015674
Correctly Classified Instances: 86.70846394984326
Weighted Precision: 0.8662889585579348
Weighted AreaUnderROC: 0.9630386208670823
Root mean squared error: 0.30973201021825525
Relative absolute error: 57.97301443756825
Root relative squared error: 65.70408143276005
Weighted TruePositiveRate: 0.8670846394984326
Weighted MatthewsCorrelation: 0.7833489924683809
Weighted FMeasure: 0.8657762411139756
Iteration time: 213.0
Weighted AreaUnderPRC: 0.9383001359444233
Mean absolute error: 0.2576578419447536
Coverage of cases: 99.9373040752351
Instances selection time: 3.0
Test time: 12.0
Accumulative iteration time: 5368.0
Weighted Recall: 0.8670846394984326
Weighted FalsePositiveRate: 0.09406539748081631
Kappa statistic: 0.7808603050872502
Training time: 210.0
		
Iteration: 42
Labeled set size: 1139
Unlabelled set size: 456
	
Mean region size: 99.91640543364683
Incorrectly Classified Instances: 18.808777429467085
Correctly Classified Instances: 81.19122257053291
Weighted Precision: 0.8170210108471601
Weighted AreaUnderROC: 0.9324343744391365
Root mean squared error: 0.35628481549443897
Relative absolute error: 70.95051055279689
Root relative squared error: 75.57942272097387
Weighted TruePositiveRate: 0.8119122257053292
Weighted MatthewsCorrelation: 0.6879680447241807
Weighted FMeasure: 0.8056466054785968
Iteration time: 191.0
Weighted AreaUnderPRC: 0.8951700146646348
Mean absolute error: 0.3153356024568822
Coverage of cases: 100.0
Instances selection time: 3.0
Test time: 11.0
Accumulative iteration time: 5559.0
Weighted Recall: 0.8119122257053292
Weighted FalsePositiveRate: 0.15871583154072688
Kappa statistic: 0.6803526074810182
Training time: 188.0
		
Iteration: 43
Labeled set size: 1159
Unlabelled set size: 436
	
Mean region size: 97.03239289446192
Incorrectly Classified Instances: 16.614420062695924
Correctly Classified Instances: 83.38557993730407
Weighted Precision: 0.8368198034566413
Weighted AreaUnderROC: 0.9462014112110815
Root mean squared error: 0.3375263745537749
Relative absolute error: 65.67714802644124
Root relative squared error: 71.60015648288463
Weighted TruePositiveRate: 0.8338557993730408
Weighted MatthewsCorrelation: 0.7247528515122724
Weighted FMeasure: 0.8311776510222613
Iteration time: 213.0
Weighted AreaUnderPRC: 0.9183323935933277
Mean absolute error: 0.29189843567307877
Coverage of cases: 100.0
Instances selection time: 2.0
Test time: 12.0
Accumulative iteration time: 5772.0
Weighted Recall: 0.8338557993730408
Weighted FalsePositiveRate: 0.1322285715310369
Kappa statistic: 0.7217617924155691
Training time: 211.0
		
Iteration: 44
Labeled set size: 1179
Unlabelled set size: 416
	
Mean region size: 91.57784743991658
Incorrectly Classified Instances: 12.539184952978056
Correctly Classified Instances: 87.46081504702194
Weighted Precision: 0.8743591951839375
Weighted AreaUnderROC: 0.9631883920158475
Root mean squared error: 0.3093037526582667
Relative absolute error: 58.06511127835433
Root relative squared error: 65.61323428533136
Weighted TruePositiveRate: 0.8746081504702194
Weighted MatthewsCorrelation: 0.7945569704419073
Weighted FMeasure: 0.8736885296553697
Iteration time: 207.0
Weighted AreaUnderPRC: 0.9400591868131833
Mean absolute error: 0.2580671612371362
Coverage of cases: 99.9373040752351
Instances selection time: 3.0
Test time: 12.0
Accumulative iteration time: 5979.0
Weighted Recall: 0.8746081504702194
Weighted FalsePositiveRate: 0.08977446446691636
Kappa statistic: 0.7935015788390257
Training time: 204.0
		
Iteration: 45
Labeled set size: 1199
Unlabelled set size: 396
	
Mean region size: 91.61964472309302
Incorrectly Classified Instances: 15.54858934169279
Correctly Classified Instances: 84.45141065830721
Weighted Precision: 0.8448861798345124
Weighted AreaUnderROC: 0.9539372687246479
Root mean squared error: 0.3200813033431879
Relative absolute error: 59.85941982896356
Root relative squared error: 67.89949803749819
Weighted TruePositiveRate: 0.8445141065830721
Weighted MatthewsCorrelation: 0.7451391057399268
Weighted FMeasure: 0.8422607542197351
Iteration time: 206.0
Weighted AreaUnderPRC: 0.9269190969357703
Mean absolute error: 0.26604186590651074
Coverage of cases: 99.9373040752351
Instances selection time: 3.0
Test time: 11.0
Accumulative iteration time: 6185.0
Weighted Recall: 0.8445141065830721
Weighted FalsePositiveRate: 0.11741722556187748
Kappa statistic: 0.7411209105926024
Training time: 203.0
		
Iteration: 46
Labeled set size: 1219
Unlabelled set size: 376
	
Mean region size: 99.9582027168234
Incorrectly Classified Instances: 17.429467084639498
Correctly Classified Instances: 82.5705329153605
Weighted Precision: 0.830300191362005
Weighted AreaUnderROC: 0.9423167601906763
Root mean squared error: 0.34534678680883896
Relative absolute error: 67.86459766277763
Root relative squared error: 73.25911644405366
Weighted TruePositiveRate: 0.8257053291536051
Weighted MatthewsCorrelation: 0.7093388733107624
Weighted FMeasure: 0.8223461911382018
Iteration time: 197.0
Weighted AreaUnderPRC: 0.9097634819417663
Mean absolute error: 0.3016204340567963
Coverage of cases: 100.0
Instances selection time: 2.0
Test time: 27.0
Accumulative iteration time: 6382.0
Weighted Recall: 0.8257053291536051
Weighted FalsePositiveRate: 0.14576837966282605
Kappa statistic: 0.7058823529411766
Training time: 195.0
		
Time end:Wed Nov 01 12.15.33 EET 2017