Wed Nov 01 11.25.31 EET 2017
Dataset: splice
Test set size: 1595
Initial Labelled set size: 319
Initial Unlabelled set size: 1276
Batch mode: QBestBatchMode
Batch size: 20
Classifiers: J48-1cores
Scenario: PoolBasedSamplingScenario
Query strategy: KullbackLeiblerDivergenceQueryStrategy-1cores
Time begining: Wed Nov 01 11.25.31 EET 2017
		
Iteration: 1
Labeled set size: 319
Unlabelled set size: 1276
	
Mean region size: 52.97805642633208
Incorrectly Classified Instances: 16.112852664576803
Correctly Classified Instances: 83.8871473354232
Weighted Precision: 0.8431675019818493
Weighted AreaUnderROC: 0.9075944875221866
Root mean squared error: 0.30757651581963613
Relative absolute error: 28.70345410490904
Root relative squared error: 65.2468320209381
Weighted TruePositiveRate: 0.838871473354232
Weighted MatthewsCorrelation: 0.742639638192508
Weighted FMeasure: 0.840357675519613
Iteration time: 13.0
Weighted AreaUnderPRC: 0.8237493716049451
Mean absolute error: 0.12757090713293195
Coverage of cases: 94.60815047021944
Instances selection time: 1.0
Test time: 4.0
Accumulative iteration time: 13.0
Weighted Recall: 0.838871473354232
Weighted FalsePositiveRate: 0.09110361621137483
Kappa statistic: 0.7408184878997202
Training time: 12.0
		
Iteration: 2
Labeled set size: 339
Unlabelled set size: 1256
	
Mean region size: 46.833855799372934
Incorrectly Classified Instances: 15.799373040752352
Correctly Classified Instances: 84.20062695924764
Weighted Precision: 0.8452229388904223
Weighted AreaUnderROC: 0.9096258964784882
Root mean squared error: 0.3044253332541623
Relative absolute error: 27.67703126479783
Root relative squared error: 64.5783652526971
Weighted TruePositiveRate: 0.8420062695924765
Weighted MatthewsCorrelation: 0.7471793645246257
Weighted FMeasure: 0.8431619772564456
Iteration time: 14.0
Weighted AreaUnderPRC: 0.8276754512017287
Mean absolute error: 0.1230090278435487
Coverage of cases: 93.35423197492163
Instances selection time: 2.0
Test time: 4.0
Accumulative iteration time: 27.0
Weighted Recall: 0.8420062695924765
Weighted FalsePositiveRate: 0.09010959329189845
Kappa statistic: 0.7455045081552021
Training time: 12.0
		
Iteration: 3
Labeled set size: 359
Unlabelled set size: 1236
	
Mean region size: 48.46394984326034
Incorrectly Classified Instances: 13.22884012539185
Correctly Classified Instances: 86.77115987460814
Weighted Precision: 0.8667806202386561
Weighted AreaUnderROC: 0.9087646152162733
Root mean squared error: 0.2802173096047098
Relative absolute error: 24.83113530045994
Root relative squared error: 59.44306794820151
Weighted TruePositiveRate: 0.8677115987460815
Weighted MatthewsCorrelation: 0.7853673916957168
Weighted FMeasure: 0.8665874290776181
Iteration time: 15.0
Weighted AreaUnderPRC: 0.8268434146395296
Mean absolute error: 0.11036060133538002
Coverage of cases: 92.10031347962382
Instances selection time: 2.0
Test time: 4.0
Accumulative iteration time: 42.0
Weighted Recall: 0.8677115987460815
Weighted FalsePositiveRate: 0.08910339787902948
Kappa statistic: 0.7828912821055375
Training time: 13.0
		
Iteration: 4
Labeled set size: 379
Unlabelled set size: 1216
	
Mean region size: 48.129571577847635
Incorrectly Classified Instances: 12.915360501567399
Correctly Classified Instances: 87.08463949843261
Weighted Precision: 0.8700796802281667
Weighted AreaUnderROC: 0.9027189495649856
Root mean squared error: 0.2821585222841481
Relative absolute error: 24.87928391746583
Root relative squared error: 59.85486134300834
Weighted TruePositiveRate: 0.870846394984326
Weighted MatthewsCorrelation: 0.7907000551243676
Weighted FMeasure: 0.8695930348050761
Iteration time: 15.0
Weighted AreaUnderPRC: 0.8182391643282168
Mean absolute error: 0.11057459518873954
Coverage of cases: 91.5987460815047
Instances selection time: 2.0
Test time: 4.0
Accumulative iteration time: 57.0
Weighted Recall: 0.870846394984326
Weighted FalsePositiveRate: 0.08810937495955311
Kappa statistic: 0.7877327255448809
Training time: 13.0
		
Iteration: 5
Labeled set size: 399
Unlabelled set size: 1196
	
Mean region size: 48.17136886102422
Incorrectly Classified Instances: 12.789968652037617
Correctly Classified Instances: 87.21003134796238
Weighted Precision: 0.8712850099663112
Weighted AreaUnderROC: 0.9053180212709688
Root mean squared error: 0.27992520750412214
Relative absolute error: 24.43662256628297
Root relative squared error: 59.38110373536419
Weighted TruePositiveRate: 0.8721003134796238
Weighted MatthewsCorrelation: 0.7927920388887418
Weighted FMeasure: 0.8707980511509842
Iteration time: 15.0
Weighted AreaUnderPRC: 0.8219578348168264
Mean absolute error: 0.10860721140570455
Coverage of cases: 91.84952978056427
Instances selection time: 1.0
Test time: 4.0
Accumulative iteration time: 72.0
Weighted Recall: 0.8721003134796238
Weighted FalsePositiveRate: 0.08771176579176254
Kappa statistic: 0.7896731847854683
Training time: 14.0
		
Iteration: 6
Labeled set size: 419
Unlabelled set size: 1176
	
Mean region size: 48.17136886102422
Incorrectly Classified Instances: 12.789968652037617
Correctly Classified Instances: 87.21003134796238
Weighted Precision: 0.8712850099663112
Weighted AreaUnderROC: 0.9053180212709688
Root mean squared error: 0.280068984330979
Relative absolute error: 24.244347030578695
Root relative squared error: 59.41160340613858
Weighted TruePositiveRate: 0.8721003134796238
Weighted MatthewsCorrelation: 0.7927920388887418
Weighted FMeasure: 0.8707980511509842
Iteration time: 16.0
Weighted AreaUnderPRC: 0.8219578348168264
Mean absolute error: 0.10775265346924108
Coverage of cases: 91.84952978056427
Instances selection time: 1.0
Test time: 4.0
Accumulative iteration time: 88.0
Weighted Recall: 0.8721003134796238
Weighted FalsePositiveRate: 0.08771176579176254
Kappa statistic: 0.7896731847854683
Training time: 15.0
		
Iteration: 7
Labeled set size: 439
Unlabelled set size: 1156
	
Mean region size: 48.17136886102422
Incorrectly Classified Instances: 12.789968652037617
Correctly Classified Instances: 87.21003134796238
Weighted Precision: 0.8712850099663112
Weighted AreaUnderROC: 0.9053180212709688
Root mean squared error: 0.2800519220438939
Relative absolute error: 24.12254979399539
Root relative squared error: 59.40798394846845
Weighted TruePositiveRate: 0.8721003134796238
Weighted MatthewsCorrelation: 0.7927920388887418
Weighted FMeasure: 0.8707980511509842
Iteration time: 17.0
Weighted AreaUnderPRC: 0.8219578348168264
Mean absolute error: 0.10721133241775972
Coverage of cases: 91.84952978056427
Instances selection time: 2.0
Test time: 4.0
Accumulative iteration time: 105.0
Weighted Recall: 0.8721003134796238
Weighted FalsePositiveRate: 0.08771176579176254
Kappa statistic: 0.7896731847854683
Training time: 15.0
		
Iteration: 8
Labeled set size: 459
Unlabelled set size: 1136
	
Mean region size: 48.92371995820276
Incorrectly Classified Instances: 13.918495297805643
Correctly Classified Instances: 86.08150470219435
Weighted Precision: 0.8595917895638674
Weighted AreaUnderROC: 0.8867522167730365
Root mean squared error: 0.2946796253607559
Relative absolute error: 26.14056197463473
Root relative squared error: 62.51098841102985
Weighted TruePositiveRate: 0.8608150470219436
Weighted MatthewsCorrelation: 0.7733015895153397
Weighted FMeasure: 0.8593310503848668
Iteration time: 17.0
Weighted AreaUnderPRC: 0.7932774483578491
Mean absolute error: 0.11618027544282365
Coverage of cases: 90.65830721003135
Instances selection time: 2.0
Test time: 4.0
Accumulative iteration time: 122.0
Weighted Recall: 0.8608150470219436
Weighted FalsePositiveRate: 0.0955771238179799
Kappa statistic: 0.7711149363841862
Training time: 15.0
		
Iteration: 9
Labeled set size: 479
Unlabelled set size: 1116
	
Mean region size: 49.1118077324974
Incorrectly Classified Instances: 13.5423197492163
Correctly Classified Instances: 86.4576802507837
Weighted Precision: 0.863657938884916
Weighted AreaUnderROC: 0.8973989706642438
Root mean squared error: 0.28743847557198837
Relative absolute error: 25.328032995018123
Root relative squared error: 60.97490857526234
Weighted TruePositiveRate: 0.864576802507837
Weighted MatthewsCorrelation: 0.7803377567605878
Weighted FMeasure: 0.8638926649375774
Iteration time: 17.0
Weighted AreaUnderPRC: 0.8084213858733789
Mean absolute error: 0.11256903553341645
Coverage of cases: 91.41065830721003
Instances selection time: 1.0
Test time: 4.0
Accumulative iteration time: 139.0
Weighted Recall: 0.864576802507837
Weighted FalsePositiveRate: 0.08819214279134924
Kappa statistic: 0.7785691836329385
Training time: 16.0
		
Iteration: 10
Labeled set size: 499
Unlabelled set size: 1096
	
Mean region size: 49.8850574712642
Incorrectly Classified Instances: 12.476489028213166
Correctly Classified Instances: 87.52351097178683
Weighted Precision: 0.8746659777368847
Weighted AreaUnderROC: 0.9063988155908439
Root mean squared error: 0.27949139108527554
Relative absolute error: 24.53930779297553
Root relative squared error: 59.28907737589724
Weighted TruePositiveRate: 0.8752351097178683
Weighted MatthewsCorrelation: 0.7981898171495899
Weighted FMeasure: 0.8738081884739411
Iteration time: 18.0
Weighted AreaUnderPRC: 0.8203014634292881
Mean absolute error: 0.10906359019100482
Coverage of cases: 92.2884012539185
Instances selection time: 2.0
Test time: 4.0
Accumulative iteration time: 157.0
Weighted Recall: 0.8752351097178683
Weighted FalsePositiveRate: 0.08671774287228617
Kappa statistic: 0.7945340709448306
Training time: 16.0
		
Iteration: 11
Labeled set size: 519
Unlabelled set size: 1076
	
Mean region size: 50.031347962382256
Incorrectly Classified Instances: 12.351097178683386
Correctly Classified Instances: 87.64890282131661
Weighted Precision: 0.8757729175349268
Weighted AreaUnderROC: 0.9099841346375785
Root mean squared error: 0.28040646180356904
Relative absolute error: 25.24166448332828
Root relative squared error: 59.48319318894842
Weighted TruePositiveRate: 0.8764890282131661
Weighted MatthewsCorrelation: 0.8003932391762466
Weighted FMeasure: 0.8753584488590871
Iteration time: 18.0
Weighted AreaUnderPRC: 0.8253334726633222
Mean absolute error: 0.11218517548146156
Coverage of cases: 92.60188087774294
Instances selection time: 1.0
Test time: 4.0
Accumulative iteration time: 175.0
Weighted Recall: 0.8764890282131661
Weighted FalsePositiveRate: 0.08393853619554985
Kappa statistic: 0.7970646171731197
Training time: 17.0
		
Iteration: 12
Labeled set size: 539
Unlabelled set size: 1056
	
Mean region size: 49.968652037617375
Incorrectly Classified Instances: 12.225705329153605
Correctly Classified Instances: 87.7742946708464
Weighted Precision: 0.8771084365715633
Weighted AreaUnderROC: 0.9108891167487253
Root mean squared error: 0.27926736413403286
Relative absolute error: 24.936789192382037
Root relative squared error: 59.24155408297957
Weighted TruePositiveRate: 0.877742946708464
Weighted MatthewsCorrelation: 0.8025421586965655
Weighted FMeasure: 0.8765648714352048
Iteration time: 19.0
Weighted AreaUnderPRC: 0.8270264288656051
Mean absolute error: 0.11083017418836713
Coverage of cases: 92.66457680250784
Instances selection time: 2.0
Test time: 4.0
Accumulative iteration time: 194.0
Weighted Recall: 0.877742946708464
Weighted FalsePositiveRate: 0.08354092702775928
Kappa statistic: 0.7990098638805168
Training time: 17.0
		
Iteration: 13
Labeled set size: 559
Unlabelled set size: 1036
	
Mean region size: 49.3416927899686
Incorrectly Classified Instances: 13.35423197492163
Correctly Classified Instances: 86.64576802507837
Weighted Precision: 0.8658402804734744
Weighted AreaUnderROC: 0.8950851924883967
Root mean squared error: 0.29261607143984214
Relative absolute error: 26.214403655246112
Root relative squared error: 62.073242519783186
Weighted TruePositiveRate: 0.8664576802507837
Weighted MatthewsCorrelation: 0.7829771465690497
Weighted FMeasure: 0.8644634810347814
Iteration time: 19.0
Weighted AreaUnderPRC: 0.804627595892919
Mean absolute error: 0.11650846068998537
Coverage of cases: 91.41065830721003
Instances selection time: 1.0
Test time: 4.0
Accumulative iteration time: 213.0
Weighted Recall: 0.8664576802507837
Weighted FalsePositiveRate: 0.0952168410682899
Kappa statistic: 0.7794467065184085
Training time: 18.0
		
Iteration: 14
Labeled set size: 579
Unlabelled set size: 1016
	
Mean region size: 49.09090909090907
Incorrectly Classified Instances: 13.41692789968652
Correctly Classified Instances: 86.58307210031347
Weighted Precision: 0.8653313961676478
Weighted AreaUnderROC: 0.8905414276120281
Root mean squared error: 0.29484888980746277
Relative absolute error: 26.134765761829648
Root relative squared error: 62.54689482245391
Weighted TruePositiveRate: 0.8658307210031349
Weighted MatthewsCorrelation: 0.7818349549410063
Weighted FMeasure: 0.8633527946683495
Iteration time: 19.0
Weighted AreaUnderPRC: 0.7984938160432118
Mean absolute error: 0.11615451449702328
Coverage of cases: 91.03448275862068
Instances selection time: 2.0
Test time: 4.0
Accumulative iteration time: 232.0
Weighted Recall: 0.8658307210031349
Weighted FalsePositiveRate: 0.0982735626629201
Kappa statistic: 0.7777080214105737
Training time: 17.0
		
Iteration: 15
Labeled set size: 599
Unlabelled set size: 996
	
Mean region size: 43.71995820271712
Incorrectly Classified Instances: 14.106583072100314
Correctly Classified Instances: 85.8934169278997
Weighted Precision: 0.8589493690127924
Weighted AreaUnderROC: 0.8798751166353661
Root mean squared error: 0.30134598712466126
Relative absolute error: 26.43553794323797
Root relative squared error: 63.92513729375988
Weighted TruePositiveRate: 0.8589341692789969
Weighted MatthewsCorrelation: 0.7697925264642218
Weighted FMeasure: 0.8556161134750883
Iteration time: 19.0
Weighted AreaUnderPRC: 0.7845065246008573
Mean absolute error: 0.11749127974772698
Coverage of cases: 88.27586206896552
Instances selection time: 1.0
Test time: 4.0
Accumulative iteration time: 251.0
Weighted Recall: 0.8589341692789969
Weighted FalsePositiveRate: 0.10665256660902715
Kappa statistic: 0.7653339663022519
Training time: 18.0
		
Iteration: 16
Labeled set size: 619
Unlabelled set size: 976
	
Mean region size: 43.615464994775664
Incorrectly Classified Instances: 14.106583072100314
Correctly Classified Instances: 85.8934169278997
Weighted Precision: 0.8589493690127924
Weighted AreaUnderROC: 0.8804098185352701
Root mean squared error: 0.30131003840417864
Relative absolute error: 26.239509724025936
Root relative squared error: 63.91751141855141
Weighted TruePositiveRate: 0.8589341692789969
Weighted MatthewsCorrelation: 0.7697925264642218
Weighted FMeasure: 0.8556161134750883
Iteration time: 19.0
Weighted AreaUnderPRC: 0.7851576360167597
Mean absolute error: 0.11662004321789568
Coverage of cases: 88.27586206896552
Instances selection time: 1.0
Test time: 4.0
Accumulative iteration time: 270.0
Weighted Recall: 0.8589341692789969
Weighted FalsePositiveRate: 0.10665256660902715
Kappa statistic: 0.7653339663022519
Training time: 18.0
		
Iteration: 17
Labeled set size: 639
Unlabelled set size: 956
	
Mean region size: 43.615464994775664
Incorrectly Classified Instances: 13.918495297805643
Correctly Classified Instances: 86.08150470219435
Weighted Precision: 0.8614054988843342
Weighted AreaUnderROC: 0.8804847952836978
Root mean squared error: 0.30113278012108824
Relative absolute error: 26.163923951805888
Root relative squared error: 63.879909258353
Weighted TruePositiveRate: 0.8608150470219436
Weighted MatthewsCorrelation: 0.7732587632641263
Weighted FMeasure: 0.8572976317447782
Iteration time: 20.0
Weighted AreaUnderPRC: 0.7854268712966953
Mean absolute error: 0.11628410645247324
Coverage of cases: 88.27586206896552
Instances selection time: 2.0
Test time: 4.0
Accumulative iteration time: 290.0
Weighted Recall: 0.8608150470219436
Weighted FalsePositiveRate: 0.10653247235913046
Kappa statistic: 0.7681270079091812
Training time: 18.0
		
Iteration: 18
Labeled set size: 659
Unlabelled set size: 936
	
Mean region size: 42.13166144200687
Incorrectly Classified Instances: 13.730407523510971
Correctly Classified Instances: 86.26959247648902
Weighted Precision: 0.8624342832001635
Weighted AreaUnderROC: 0.8849715917180287
Root mean squared error: 0.2982488283683901
Relative absolute error: 25.17154850934053
Root relative squared error: 63.26813070606871
Weighted TruePositiveRate: 0.8626959247648903
Weighted MatthewsCorrelation: 0.776229946096211
Weighted FMeasure: 0.8598941781058549
Iteration time: 50.0
Weighted AreaUnderPRC: 0.7941305461897621
Mean absolute error: 0.11187354893040488
Coverage of cases: 88.21316614420063
Instances selection time: 9.0
Test time: 11.0
Accumulative iteration time: 340.0
Weighted Recall: 0.8626959247648903
Weighted FalsePositiveRate: 0.10212550259313141
Kappa statistic: 0.7721198164197945
Training time: 41.0
		
Iteration: 19
Labeled set size: 679
Unlabelled set size: 916
	
Mean region size: 42.13166144200687
Incorrectly Classified Instances: 15.047021943573668
Correctly Classified Instances: 84.95297805642633
Weighted Precision: 0.8505584605375586
Weighted AreaUnderROC: 0.8847304399079926
Root mean squared error: 0.3011569920362295
Relative absolute error: 25.43185767722876
Root relative squared error: 63.885045381167565
Weighted TruePositiveRate: 0.8495297805642633
Weighted MatthewsCorrelation: 0.753615499944605
Weighted FMeasure: 0.8449201801054538
Iteration time: 20.0
Weighted AreaUnderPRC: 0.7937052716125516
Mean absolute error: 0.11303047856546371
Coverage of cases: 88.21316614420063
Instances selection time: 2.0
Test time: 4.0
Accumulative iteration time: 360.0
Weighted Recall: 0.8495297805642633
Weighted FalsePositiveRate: 0.11916102540323936
Kappa statistic: 0.7479371739332271
Training time: 18.0
		
Iteration: 20
Labeled set size: 699
Unlabelled set size: 896
	
Mean region size: 43.3019853709513
Incorrectly Classified Instances: 14.608150470219435
Correctly Classified Instances: 85.39184952978056
Weighted Precision: 0.8559645363955121
Weighted AreaUnderROC: 0.8912529623306731
Root mean squared error: 0.29740834361872076
Relative absolute error: 25.690108774329495
Root relative squared error: 63.08983696627618
Weighted TruePositiveRate: 0.8539184952978056
Weighted MatthewsCorrelation: 0.7619416203266295
Weighted FMeasure: 0.8490523208149895
Iteration time: 21.0
Weighted AreaUnderPRC: 0.8011384094042533
Mean absolute error: 0.11417826121924479
Coverage of cases: 88.90282131661442
Instances selection time: 1.0
Test time: 4.0
Accumulative iteration time: 381.0
Weighted Recall: 0.8539184952978056
Weighted FalsePositiveRate: 0.11729307381418329
Kappa statistic: 0.7548599581401454
Training time: 20.0
		
Iteration: 21
Labeled set size: 719
Unlabelled set size: 876
	
Mean region size: 44.158829676071306
Incorrectly Classified Instances: 15.736677115987462
Correctly Classified Instances: 84.26332288401254
Weighted Precision: 0.8476679665486485
Weighted AreaUnderROC: 0.8865490971794384
Root mean squared error: 0.30618290611543475
Relative absolute error: 27.250144548816884
Root relative squared error: 64.95120275928765
Weighted TruePositiveRate: 0.8426332288401254
Weighted MatthewsCorrelation: 0.7433345363139174
Weighted FMeasure: 0.8352329995508406
Iteration time: 20.0
Weighted AreaUnderPRC: 0.794500101634226
Mean absolute error: 0.12111175355030002
Coverage of cases: 88.96551724137932
Instances selection time: 1.0
Test time: 4.0
Accumulative iteration time: 401.0
Weighted Recall: 0.8426332288401254
Weighted FalsePositiveRate: 0.13230322436723796
Kappa statistic: 0.7336651223685505
Training time: 19.0
		
Iteration: 22
Labeled set size: 739
Unlabelled set size: 856
	
Mean region size: 45.809822361546374
Incorrectly Classified Instances: 14.921630094043888
Correctly Classified Instances: 85.07836990595611
Weighted Precision: 0.8542464768999515
Weighted AreaUnderROC: 0.8985312410747183
Root mean squared error: 0.2973113457722813
Relative absolute error: 27.02090463709923
Root relative squared error: 63.06926061578283
Weighted TruePositiveRate: 0.8507836990595611
Weighted MatthewsCorrelation: 0.7568518213968674
Weighted FMeasure: 0.8450697124780415
Iteration time: 21.0
Weighted AreaUnderPRC: 0.8074302316038852
Mean absolute error: 0.12009290949822152
Coverage of cases: 90.09404388714734
Instances selection time: 1.0
Test time: 4.0
Accumulative iteration time: 422.0
Weighted Recall: 0.8507836990595611
Weighted FalsePositiveRate: 0.12257397224976206
Kappa statistic: 0.7487183051509403
Training time: 20.0
		
Iteration: 23
Labeled set size: 759
Unlabelled set size: 836
	
Mean region size: 45.809822361546374
Incorrectly Classified Instances: 14.921630094043888
Correctly Classified Instances: 85.07836990595611
Weighted Precision: 0.8542464768999515
Weighted AreaUnderROC: 0.8984605351814653
Root mean squared error: 0.29743316226529676
Relative absolute error: 27.21150722126346
Root relative squared error: 63.09510179626431
Weighted TruePositiveRate: 0.8507836990595611
Weighted MatthewsCorrelation: 0.7568518213968674
Weighted FMeasure: 0.8450697124780415
Iteration time: 22.0
Weighted AreaUnderPRC: 0.8070922103358315
Mean absolute error: 0.12094003209450702
Coverage of cases: 90.09404388714734
Instances selection time: 2.0
Test time: 4.0
Accumulative iteration time: 444.0
Weighted Recall: 0.8507836990595611
Weighted FalsePositiveRate: 0.12257397224976206
Kappa statistic: 0.7487183051509403
Training time: 20.0
		
Iteration: 24
Labeled set size: 779
Unlabelled set size: 816
	
Mean region size: 45.809822361546374
Incorrectly Classified Instances: 14.921630094043888
Correctly Classified Instances: 85.07836990595611
Weighted Precision: 0.8542464768999515
Weighted AreaUnderROC: 0.8984605351814653
Root mean squared error: 0.2974626960858127
Relative absolute error: 27.188212248556496
Root relative squared error: 63.10136686569267
Weighted TruePositiveRate: 0.8507836990595611
Weighted MatthewsCorrelation: 0.7568518213968674
Weighted FMeasure: 0.8450697124780415
Iteration time: 22.0
Weighted AreaUnderPRC: 0.8070922103358315
Mean absolute error: 0.12083649888247606
Coverage of cases: 90.09404388714734
Instances selection time: 2.0
Test time: 4.0
Accumulative iteration time: 466.0
Weighted Recall: 0.8507836990595611
Weighted FalsePositiveRate: 0.12257397224976206
Kappa statistic: 0.7487183051509403
Training time: 20.0
		
Iteration: 25
Labeled set size: 799
Unlabelled set size: 796
	
Mean region size: 45.7471264367815
Incorrectly Classified Instances: 15.987460815047022
Correctly Classified Instances: 84.01253918495298
Weighted Precision: 0.8433872770384695
Weighted AreaUnderROC: 0.8840574352396656
Root mean squared error: 0.3088557785556494
Relative absolute error: 28.63274755894693
Root relative squared error: 65.51820462760436
Weighted TruePositiveRate: 0.8401253918495298
Weighted MatthewsCorrelation: 0.7381624956557278
Weighted FMeasure: 0.8332013326259764
Iteration time: 22.0
Weighted AreaUnderPRC: 0.7842847137243918
Mean absolute error: 0.1272566558175448
Coverage of cases: 89.0282131661442
Instances selection time: 2.0
Test time: 4.0
Accumulative iteration time: 488.0
Weighted Recall: 0.8401253918495298
Weighted FalsePositiveRate: 0.13214580369924078
Kappa statistic: 0.730057184271936
Training time: 20.0
		
Iteration: 26
Labeled set size: 819
Unlabelled set size: 776
	
Mean region size: 45.7471264367815
Incorrectly Classified Instances: 15.987460815047022
Correctly Classified Instances: 84.01253918495298
Weighted Precision: 0.8433872770384695
Weighted AreaUnderROC: 0.8840574352396656
Root mean squared error: 0.30889004147064236
Relative absolute error: 28.605384212257476
Root relative squared error: 65.52547288946478
Weighted TruePositiveRate: 0.8401253918495298
Weighted MatthewsCorrelation: 0.7381624956557278
Weighted FMeasure: 0.8332013326259764
Iteration time: 22.0
Weighted AreaUnderPRC: 0.7842847137243918
Mean absolute error: 0.12713504094336944
Coverage of cases: 89.0282131661442
Instances selection time: 2.0
Test time: 4.0
Accumulative iteration time: 510.0
Weighted Recall: 0.8401253918495298
Weighted FalsePositiveRate: 0.13214580369924078
Kappa statistic: 0.730057184271936
Training time: 20.0
		
Iteration: 27
Labeled set size: 839
Unlabelled set size: 756
	
Mean region size: 44.409613375130796
Incorrectly Classified Instances: 16.551724137931036
Correctly Classified Instances: 83.44827586206897
Weighted Precision: 0.8393224293875794
Weighted AreaUnderROC: 0.8742280032386639
Root mean squared error: 0.3163606997554458
Relative absolute error: 28.97574859550545
Root relative squared error: 67.11023882939837
Weighted TruePositiveRate: 0.8344827586206897
Weighted MatthewsCorrelation: 0.7286972529526253
Weighted FMeasure: 0.8261654854083875
Iteration time: 24.0
Weighted AreaUnderPRC: 0.7754158088745523
Mean absolute error: 0.12878110486891603
Coverage of cases: 88.08777429467085
Instances selection time: 2.0
Test time: 4.0
Accumulative iteration time: 534.0
Weighted Recall: 0.8344827586206897
Weighted FalsePositiveRate: 0.1396508789757681
Kappa statistic: 0.7193746642799163
Training time: 22.0
		
Iteration: 28
Labeled set size: 859
Unlabelled set size: 736
	
Mean region size: 43.51097178683422
Incorrectly Classified Instances: 17.053291536050157
Correctly Classified Instances: 82.94670846394985
Weighted Precision: 0.8364855527529255
Weighted AreaUnderROC: 0.8640379982814923
Root mean squared error: 0.3226233199138352
Relative absolute error: 29.25924334658614
Root relative squared error: 68.43874118399616
Weighted TruePositiveRate: 0.8294670846394985
Weighted MatthewsCorrelation: 0.7208351229660098
Weighted FMeasure: 0.8193372393666177
Iteration time: 24.0
Weighted AreaUnderPRC: 0.7640922352857982
Mean absolute error: 0.1300410815403858
Coverage of cases: 87.14733542319749
Instances selection time: 2.0
Test time: 4.0
Accumulative iteration time: 558.0
Weighted Recall: 0.8294670846394985
Weighted FalsePositiveRate: 0.14695714966840015
Kappa statistic: 0.7094986132482668
Training time: 22.0
		
Iteration: 29
Labeled set size: 879
Unlabelled set size: 716
	
Mean region size: 42.61233019853765
Incorrectly Classified Instances: 17.55485893416928
Correctly Classified Instances: 82.44514106583073
Weighted Precision: 0.8325346134022441
Weighted AreaUnderROC: 0.8594167371521244
Root mean squared error: 0.32580855733413966
Relative absolute error: 29.068194619407578
Root relative squared error: 69.1144320778721
Weighted TruePositiveRate: 0.8244514106583072
Weighted MatthewsCorrelation: 0.7124529746338641
Weighted FMeasure: 0.8129087931717025
Iteration time: 24.0
Weighted AreaUnderPRC: 0.759824817337656
Mean absolute error: 0.12919197608625882
Coverage of cases: 86.70846394984326
Instances selection time: 2.0
Test time: 4.0
Accumulative iteration time: 582.0
Weighted Recall: 0.8244514106583072
Weighted FalsePositiveRate: 0.15283446185566477
Kappa statistic: 0.7000647419589681
Training time: 22.0
		
Iteration: 30
Labeled set size: 899
Unlabelled set size: 696
	
Mean region size: 42.61233019853765
Incorrectly Classified Instances: 17.55485893416928
Correctly Classified Instances: 82.44514106583073
Weighted Precision: 0.8325346134022441
Weighted AreaUnderROC: 0.8594167371521244
Root mean squared error: 0.3258248696338086
Relative absolute error: 29.053042378312927
Root relative squared error: 69.11789243918588
Weighted TruePositiveRate: 0.8244514106583072
Weighted MatthewsCorrelation: 0.7124529746338641
Weighted FMeasure: 0.8129087931717025
Iteration time: 25.0
Weighted AreaUnderPRC: 0.759824817337656
Mean absolute error: 0.12912463279250483
Coverage of cases: 86.70846394984326
Instances selection time: 2.0
Test time: 4.0
Accumulative iteration time: 607.0
Weighted Recall: 0.8244514106583072
Weighted FalsePositiveRate: 0.15283446185566477
Kappa statistic: 0.7000647419589681
Training time: 23.0
		
Iteration: 31
Labeled set size: 919
Unlabelled set size: 676
	
Mean region size: 42.61233019853765
Incorrectly Classified Instances: 17.55485893416928
Correctly Classified Instances: 82.44514106583073
Weighted Precision: 0.8325346134022441
Weighted AreaUnderROC: 0.8594167371521244
Root mean squared error: 0.3258548740360795
Relative absolute error: 29.03259577165573
Root relative squared error: 69.12425733407925
Weighted TruePositiveRate: 0.8244514106583072
Weighted MatthewsCorrelation: 0.7124529746338641
Weighted FMeasure: 0.8129087931717025
Iteration time: 24.0
Weighted AreaUnderPRC: 0.759824817337656
Mean absolute error: 0.1290337589851395
Coverage of cases: 86.70846394984326
Instances selection time: 1.0
Test time: 4.0
Accumulative iteration time: 631.0
Weighted Recall: 0.8244514106583072
Weighted FalsePositiveRate: 0.15283446185566477
Kappa statistic: 0.7000647419589681
Training time: 23.0
		
Iteration: 32
Labeled set size: 939
Unlabelled set size: 656
	
Mean region size: 42.61233019853765
Incorrectly Classified Instances: 17.55485893416928
Correctly Classified Instances: 82.44514106583073
Weighted Precision: 0.8325346134022441
Weighted AreaUnderROC: 0.8594167371521244
Root mean squared error: 0.32589603867842504
Relative absolute error: 29.00892641187039
Root relative squared error: 69.13298967340354
Weighted TruePositiveRate: 0.8244514106583072
Weighted MatthewsCorrelation: 0.7124529746338641
Weighted FMeasure: 0.8129087931717025
Iteration time: 24.0
Weighted AreaUnderPRC: 0.759824817337656
Mean absolute error: 0.128928561830538
Coverage of cases: 86.70846394984326
Instances selection time: 1.0
Test time: 4.0
Accumulative iteration time: 655.0
Weighted Recall: 0.8244514106583072
Weighted FalsePositiveRate: 0.15283446185566477
Kappa statistic: 0.7000647419589681
Training time: 23.0
		
Iteration: 33
Labeled set size: 959
Unlabelled set size: 636
	
Mean region size: 42.61233019853765
Incorrectly Classified Instances: 17.55485893416928
Correctly Classified Instances: 82.44514106583073
Weighted Precision: 0.8325346134022441
Weighted AreaUnderROC: 0.8594167371521244
Root mean squared error: 0.32616066416455514
Relative absolute error: 28.996965773069107
Root relative squared error: 69.18912521611874
Weighted TruePositiveRate: 0.8244514106583072
Weighted MatthewsCorrelation: 0.7124529746338641
Weighted FMeasure: 0.8129087931717025
Iteration time: 25.0
Weighted AreaUnderPRC: 0.759824817337656
Mean absolute error: 0.12887540343586562
Coverage of cases: 86.70846394984326
Instances selection time: 2.0
Test time: 4.0
Accumulative iteration time: 680.0
Weighted Recall: 0.8244514106583072
Weighted FalsePositiveRate: 0.15283446185566477
Kappa statistic: 0.7000647419589681
Training time: 23.0
		
Iteration: 34
Labeled set size: 979
Unlabelled set size: 616
	
Mean region size: 46.83385579937333
Incorrectly Classified Instances: 16.739811912225704
Correctly Classified Instances: 83.2601880877743
Weighted Precision: 0.8394626110619935
Weighted AreaUnderROC: 0.8887409879596602
Root mean squared error: 0.32094560923094406
Relative absolute error: 29.015972533213237
Root relative squared error: 68.08284500377374
Weighted TruePositiveRate: 0.8326018808777429
Weighted MatthewsCorrelation: 0.725393190193031
Weighted FMeasure: 0.8170717919178002
Iteration time: 26.0
Weighted AreaUnderPRC: 0.8122157998508732
Mean absolute error: 0.1289598779253951
Coverage of cases: 90.03134796238244
Instances selection time: 1.0
Test time: 4.0
Accumulative iteration time: 706.0
Weighted Recall: 0.8326018808777429
Weighted FalsePositiveRate: 0.14310520973818885
Kappa statistic: 0.7153453434183823
Training time: 25.0
		
Iteration: 35
Labeled set size: 999
Unlabelled set size: 596
	
Mean region size: 47.2936259143157
Incorrectly Classified Instances: 17.55485893416928
Correctly Classified Instances: 82.44514106583073
Weighted Precision: 0.8296887054767632
Weighted AreaUnderROC: 0.8750892063035463
Root mean squared error: 0.32808383055683965
Relative absolute error: 31.260724518279662
Root relative squared error: 69.59709041531907
Weighted TruePositiveRate: 0.8244514106583072
Weighted MatthewsCorrelation: 0.7120446291338072
Weighted FMeasure: 0.8000684025616959
Iteration time: 27.0
Weighted AreaUnderPRC: 0.7842509845621441
Mean absolute error: 0.13893655341457944
Coverage of cases: 88.52664576802508
Instances selection time: 1.0
Test time: 4.0
Accumulative iteration time: 733.0
Weighted Recall: 0.8244514106583072
Weighted FalsePositiveRate: 0.14568966932882746
Kappa statistic: 0.7015741196737229
Training time: 26.0
		
Iteration: 36
Labeled set size: 1019
Unlabelled set size: 576
	
Mean region size: 52.769070010449596
Incorrectly Classified Instances: 14.169278996865204
Correctly Classified Instances: 85.8307210031348
Weighted Precision: 0.8613609300941738
Weighted AreaUnderROC: 0.8919222883537963
Root mean squared error: 0.2963203602536103
Relative absolute error: 27.418157663280127
Root relative squared error: 62.85904084168986
Weighted TruePositiveRate: 0.8583072100313479
Weighted MatthewsCorrelation: 0.7716188270239294
Weighted FMeasure: 0.8498883085807935
Iteration time: 29.0
Weighted AreaUnderPRC: 0.8063858719617544
Mean absolute error: 0.12185847850346998
Coverage of cases: 92.16300940438872
Instances selection time: 1.0
Test time: 4.0
Accumulative iteration time: 762.0
Weighted Recall: 0.8583072100313479
Weighted FalsePositiveRate: 0.10542241268755496
Kappa statistic: 0.7641543690686102
Training time: 28.0
		
Iteration: 37
Labeled set size: 1039
Unlabelled set size: 556
	
Mean region size: 52.76907001044962
Incorrectly Classified Instances: 12.476489028213166
Correctly Classified Instances: 87.52351097178683
Weighted Precision: 0.8774333037828992
Weighted AreaUnderROC: 0.9008690453809861
Root mean squared error: 0.28124503311192867
Relative absolute error: 24.954620329567565
Root relative squared error: 59.661081026543286
Weighted TruePositiveRate: 0.8752351097178683
Weighted MatthewsCorrelation: 0.8009297654769706
Weighted FMeasure: 0.8692852117751699
Iteration time: 34.0
Weighted AreaUnderPRC: 0.8217943922864315
Mean absolute error: 0.11090942368696946
Coverage of cases: 92.72727272727273
Instances selection time: 1.0
Test time: 4.0
Accumulative iteration time: 796.0
Weighted Recall: 0.8752351097178683
Weighted FalsePositiveRate: 0.08481246486512956
Kappa statistic: 0.7945340709448306
Training time: 33.0
		
Iteration: 38
Labeled set size: 1059
Unlabelled set size: 536
	
Mean region size: 49.278996865203624
Incorrectly Classified Instances: 12.476489028213166
Correctly Classified Instances: 87.52351097178683
Weighted Precision: 0.8749770721212092
Weighted AreaUnderROC: 0.959470885771386
Root mean squared error: 0.2652900310610318
Relative absolute error: 23.85773259186006
Root relative squared error: 56.276513983332975
Weighted TruePositiveRate: 0.8752351097178683
Weighted MatthewsCorrelation: 0.7999576657959491
Weighted FMeasure: 0.8734375007083054
Iteration time: 32.0
Weighted AreaUnderPRC: 0.9013573674326631
Mean absolute error: 0.10603436707493599
Coverage of cases: 97.86833855799372
Instances selection time: 2.0
Test time: 4.0
Accumulative iteration time: 828.0
Weighted Recall: 0.8752351097178683
Weighted FalsePositiveRate: 0.09052829888659943
Kappa statistic: 0.793169891901367
Training time: 30.0
		
Iteration: 39
Labeled set size: 1079
Unlabelled set size: 516
	
Mean region size: 55.19331243469171
Incorrectly Classified Instances: 9.216300940438872
Correctly Classified Instances: 90.78369905956113
Weighted Precision: 0.9106493506493506
Weighted AreaUnderROC: 0.9408187365878092
Root mean squared error: 0.24149337193897166
Relative absolute error: 21.654545974116562
Root relative squared error: 51.22848027289501
Weighted TruePositiveRate: 0.9078369905956113
Weighted MatthewsCorrelation: 0.8578616121737357
Weighted FMeasure: 0.9062893219633031
Iteration time: 32.0
Weighted AreaUnderPRC: 0.876210453154424
Mean absolute error: 0.09624242655163134
Coverage of cases: 96.42633228840126
Instances selection time: 1.0
Test time: 4.0
Accumulative iteration time: 860.0
Weighted Recall: 0.9078369905956113
Weighted FalsePositiveRate: 0.05113497091490663
Kappa statistic: 0.8501997209273799
Training time: 31.0
		
Iteration: 40
Labeled set size: 1099
Unlabelled set size: 496
	
Mean region size: 48.06687565308227
Incorrectly Classified Instances: 9.905956112852664
Correctly Classified Instances: 90.09404388714734
Weighted Precision: 0.9014526630243515
Weighted AreaUnderROC: 0.9590739109457498
Root mean squared error: 0.24191532543621294
Relative absolute error: 20.630966561104366
Root relative squared error: 51.31799012666841
Weighted TruePositiveRate: 0.9009404388714733
Weighted MatthewsCorrelation: 0.84463885892041
Weighted FMeasure: 0.9007417351633702
Iteration time: 33.0
Weighted AreaUnderPRC: 0.9095602717752281
Mean absolute error: 0.09169318471602148
Coverage of cases: 97.4921630094044
Instances selection time: 1.0
Test time: 4.0
Accumulative iteration time: 893.0
Weighted Recall: 0.9009404388714733
Weighted FalsePositiveRate: 0.060942933366381145
Kappa statistic: 0.8380735630884057
Training time: 32.0
		
Iteration: 41
Labeled set size: 1119
Unlabelled set size: 476
	
Mean region size: 41.71368861023973
Incorrectly Classified Instances: 7.7115987460815045
Correctly Classified Instances: 92.2884012539185
Weighted Precision: 0.9236122017950158
Weighted AreaUnderROC: 0.9486468652684767
Root mean squared error: 0.22017183984670868
Relative absolute error: 16.392715280987506
Root relative squared error: 46.70550029457734
Weighted TruePositiveRate: 0.922884012539185
Weighted MatthewsCorrelation: 0.8785656566559614
Weighted FMeasure: 0.9222825835688812
Iteration time: 34.0
Weighted AreaUnderPRC: 0.900020227641699
Mean absolute error: 0.07285651235994613
Coverage of cases: 95.04702194357367
Instances selection time: 1.0
Test time: 4.0
Accumulative iteration time: 927.0
Weighted Recall: 0.922884012539185
Weighted FalsePositiveRate: 0.04683998040320917
Kappa statistic: 0.8743011390648366
Training time: 33.0
		
Iteration: 42
Labeled set size: 1139
Unlabelled set size: 456
	
Mean region size: 44.68129571577814
Incorrectly Classified Instances: 8.025078369905955
Correctly Classified Instances: 91.97492163009404
Weighted Precision: 0.9193836778354145
Weighted AreaUnderROC: 0.9450724554237454
Root mean squared error: 0.22284843276576197
Relative absolute error: 16.644792640325797
Root relative squared error: 47.27329139563888
Weighted TruePositiveRate: 0.9197492163009404
Weighted MatthewsCorrelation: 0.8702984028838551
Weighted FMeasure: 0.919278853873647
Iteration time: 35.0
Weighted AreaUnderPRC: 0.8927032389391593
Mean absolute error: 0.07397685617922743
Coverage of cases: 94.54545454545455
Instances selection time: 1.0
Test time: 4.0
Accumulative iteration time: 962.0
Weighted Recall: 0.9197492163009404
Weighted FalsePositiveRate: 0.0525971983405771
Kappa statistic: 0.86900552376296
Training time: 34.0
		
Iteration: 43
Labeled set size: 1159
Unlabelled set size: 436
	
Mean region size: 44.84848484848451
Incorrectly Classified Instances: 7.586206896551724
Correctly Classified Instances: 92.41379310344827
Weighted Precision: 0.9238332270608143
Weighted AreaUnderROC: 0.9500727619438066
Root mean squared error: 0.21699487532054335
Relative absolute error: 16.098097754512054
Root relative squared error: 46.03156434656516
Weighted TruePositiveRate: 0.9241379310344827
Weighted MatthewsCorrelation: 0.8781500528827526
Weighted FMeasure: 0.9238319160259414
Iteration time: 36.0
Weighted AreaUnderPRC: 0.900837494934247
Mean absolute error: 0.0715471011311663
Coverage of cases: 94.92163009404389
Instances selection time: 1.0
Test time: 6.0
Accumulative iteration time: 998.0
Weighted Recall: 0.9241379310344827
Weighted FalsePositiveRate: 0.047395010238996935
Kappa statistic: 0.8764502270365913
Training time: 35.0
		
Iteration: 44
Labeled set size: 1179
Unlabelled set size: 416
	
Mean region size: 42.21525600835888
Incorrectly Classified Instances: 7.648902821316614
Correctly Classified Instances: 92.35109717868339
Weighted Precision: 0.9239709958576713
Weighted AreaUnderROC: 0.9486657701477316
Root mean squared error: 0.21794286836079968
Relative absolute error: 15.940657265364
Root relative squared error: 46.23266403875003
Weighted TruePositiveRate: 0.9235109717868338
Weighted MatthewsCorrelation: 0.8770970801346081
Weighted FMeasure: 0.922839076621013
Iteration time: 35.0
Weighted AreaUnderPRC: 0.9089812748026531
Mean absolute error: 0.07084736562384161
Coverage of cases: 94.98432601880877
Instances selection time: 1.0
Test time: 4.0
Accumulative iteration time: 1033.0
Weighted Recall: 0.9235109717868338
Weighted FalsePositiveRate: 0.04902277332825967
Kappa statistic: 0.8752876830324212
Training time: 34.0
		
Iteration: 45
Labeled set size: 1199
Unlabelled set size: 396
	
Mean region size: 42.695924764889654
Incorrectly Classified Instances: 7.460815047021944
Correctly Classified Instances: 92.53918495297806
Weighted Precision: 0.9262059913963363
Weighted AreaUnderROC: 0.9567774878589204
Root mean squared error: 0.20787851281577935
Relative absolute error: 15.15996870490468
Root relative squared error: 44.097691822503165
Weighted TruePositiveRate: 0.9253918495297806
Weighted MatthewsCorrelation: 0.8818434817300179
Weighted FMeasure: 0.9251476118421295
Iteration time: 36.0
Weighted AreaUnderPRC: 0.9196541364159847
Mean absolute error: 0.06737763868846677
Coverage of cases: 95.98746081504702
Instances selection time: 1.0
Test time: 4.0
Accumulative iteration time: 1069.0
Weighted Recall: 0.9253918495297806
Weighted FalsePositiveRate: 0.041281567049736526
Kappa statistic: 0.8791435848455906
Training time: 35.0
		
Iteration: 46
Labeled set size: 1219
Unlabelled set size: 376
	
Mean region size: 43.26018808777353
Incorrectly Classified Instances: 7.084639498432602
Correctly Classified Instances: 92.91536050156739
Weighted Precision: 0.9303581287168773
Weighted AreaUnderROC: 0.9606605122399857
Root mean squared error: 0.20577597575593062
Relative absolute error: 15.494619618743592
Root relative squared error: 43.651676358688654
Weighted TruePositiveRate: 0.929153605015674
Weighted MatthewsCorrelation: 0.8891987371811215
Weighted FMeasure: 0.929352692007857
Iteration time: 36.0
Weighted AreaUnderPRC: 0.9243924660917072
Mean absolute error: 0.06886497608330641
Coverage of cases: 96.48902821316615
Instances selection time: 1.0
Test time: 10.0
Accumulative iteration time: 1105.0
Weighted Recall: 0.929153605015674
Weighted FalsePositiveRate: 0.03484922502668416
Kappa statistic: 0.8856886082468343
Training time: 35.0
		
Time end:Wed Nov 01 11.25.36 EET 2017