Wed Nov 01 14.36.40 EET 2017
Dataset: splice
Test set size: 1595
Initial Labelled set size: 319
Initial Unlabelled set size: 1276
Batch mode: QBestBatchMode
Batch size: 20
Classifiers: RandomForest-1cores
Scenario: PoolBasedSamplingScenario
Query strategy: VoteEntropyQueryStrategy-1cores
Time begining: Wed Nov 01 14.36.40 EET 2017
		
Iteration: 1
Labeled set size: 319
Unlabelled set size: 1276
	
Mean region size: 89.02821316614447
Incorrectly Classified Instances: 15.862068965517242
Correctly Classified Instances: 84.13793103448276
Weighted Precision: 0.840996545629792
Weighted AreaUnderROC: 0.9438368326879993
Root mean squared error: 0.3184165053076267
Relative absolute error: 58.62254567696308
Root relative squared error: 67.54634104342279
Weighted TruePositiveRate: 0.8413793103448276
Weighted MatthewsCorrelation: 0.7354355367776068
Weighted FMeasure: 0.8375919657386587
Iteration time: 69.0
Weighted AreaUnderPRC: 0.9151021631764482
Mean absolute error: 0.2605446474531751
Coverage of cases: 99.9373040752351
Instances selection time: 5.0
Test time: 10.0
Accumulative iteration time: 69.0
Weighted Recall: 0.8413793103448276
Weighted FalsePositiveRate: 0.12484097958135335
Kappa statistic: 0.7351924036013335
Training time: 64.0
		
Iteration: 2
Labeled set size: 339
Unlabelled set size: 1256
	
Mean region size: 95.17241379310357
Incorrectly Classified Instances: 26.08150470219436
Correctly Classified Instances: 73.91849529780565
Weighted Precision: 0.750154414723932
Weighted AreaUnderROC: 0.8877334901440959
Root mean squared error: 0.36751491590045277
Relative absolute error: 70.99661420132507
Root relative squared error: 77.96168676612328
Weighted TruePositiveRate: 0.7391849529780564
Weighted MatthewsCorrelation: 0.5592764104621316
Weighted FMeasure: 0.7297758714754136
Iteration time: 85.0
Weighted AreaUnderPRC: 0.8300807490000159
Mean absolute error: 0.3155405075614519
Coverage of cases: 100.0
Instances selection time: 5.0
Test time: 22.0
Accumulative iteration time: 154.0
Weighted Recall: 0.7391849529780564
Weighted FalsePositiveRate: 0.22702232042216822
Kappa statistic: 0.5475501276845288
Training time: 80.0
		
Iteration: 3
Labeled set size: 359
Unlabelled set size: 1236
	
Mean region size: 90.67920585161993
Incorrectly Classified Instances: 26.08150470219436
Correctly Classified Instances: 73.91849529780565
Weighted Precision: 0.7516794319023833
Weighted AreaUnderROC: 0.8931868322167384
Root mean squared error: 0.35898109820101964
Relative absolute error: 66.81293770977936
Root relative squared error: 76.15139065671961
Weighted TruePositiveRate: 0.7391849529780564
Weighted MatthewsCorrelation: 0.5648086915523921
Weighted FMeasure: 0.724900869079311
Iteration time: 78.0
Weighted AreaUnderPRC: 0.8398832634293721
Mean absolute error: 0.2969463898212483
Coverage of cases: 99.9373040752351
Instances selection time: 4.0
Test time: 10.0
Accumulative iteration time: 232.0
Weighted Recall: 0.7391849529780564
Weighted FalsePositiveRate: 0.22942398858442392
Kappa statistic: 0.5438057076539325
Training time: 74.0
		
Iteration: 4
Labeled set size: 379
Unlabelled set size: 1216
	
Mean region size: 94.02298850574745
Incorrectly Classified Instances: 29.843260188087775
Correctly Classified Instances: 70.15673981191223
Weighted Precision: 0.7282639138769317
Weighted AreaUnderROC: 0.8644907686447572
Root mean squared error: 0.3783522038342608
Relative absolute error: 72.34831948646219
Root relative squared error: 80.2606227024233
Weighted TruePositiveRate: 0.7015673981191223
Weighted MatthewsCorrelation: 0.4979211313055707
Weighted FMeasure: 0.6805023606683478
Iteration time: 73.0
Weighted AreaUnderPRC: 0.7943402802043694
Mean absolute error: 0.32154808660650586
Coverage of cases: 99.87460815047022
Instances selection time: 5.0
Test time: 9.0
Accumulative iteration time: 305.0
Weighted Recall: 0.7015673981191223
Weighted FalsePositiveRate: 0.27959908486478613
Kappa statistic: 0.4641016881199161
Training time: 68.0
		
Iteration: 5
Labeled set size: 399
Unlabelled set size: 1196
	
Mean region size: 90.76280041797307
Incorrectly Classified Instances: 21.253918495297807
Correctly Classified Instances: 78.74608150470219
Weighted Precision: 0.8065064732675631
Weighted AreaUnderROC: 0.9319494422042813
Root mean squared error: 0.3419116900071562
Relative absolute error: 63.53227936327929
Root relative squared error: 72.53042237130303
Weighted TruePositiveRate: 0.7874608150470219
Weighted MatthewsCorrelation: 0.649982229227647
Weighted FMeasure: 0.7784493984023396
Iteration time: 82.0
Weighted AreaUnderPRC: 0.8934449890409594
Mean absolute error: 0.28236568605902546
Coverage of cases: 99.81191222570533
Instances selection time: 5.0
Test time: 11.0
Accumulative iteration time: 387.0
Weighted Recall: 0.7874608150470219
Weighted FalsePositiveRate: 0.19692036396992693
Kappa statistic: 0.6296117432610443
Training time: 77.0
		
Iteration: 6
Labeled set size: 419
Unlabelled set size: 1176
	
Mean region size: 85.85161964472334
Incorrectly Classified Instances: 22.50783699059561
Correctly Classified Instances: 77.4921630094044
Weighted Precision: 0.7968783761578294
Weighted AreaUnderROC: 0.9403718375057364
Root mean squared error: 0.32975562029353295
Relative absolute error: 58.15781422761896
Root relative squared error: 69.95173057317923
Weighted TruePositiveRate: 0.7749216300940439
Weighted MatthewsCorrelation: 0.632725274648754
Weighted FMeasure: 0.7614471410790931
Iteration time: 74.0
Weighted AreaUnderPRC: 0.906275266038222
Mean absolute error: 0.258479174344979
Coverage of cases: 99.9373040752351
Instances selection time: 5.0
Test time: 10.0
Accumulative iteration time: 461.0
Weighted Recall: 0.7749216300940439
Weighted FalsePositiveRate: 0.20663606786334401
Kappa statistic: 0.6055871678499178
Training time: 69.0
		
Iteration: 7
Labeled set size: 439
Unlabelled set size: 1156
	
Mean region size: 87.6489028213169
Incorrectly Classified Instances: 25.579937304075234
Correctly Classified Instances: 74.42006269592477
Weighted Precision: 0.7644117998508834
Weighted AreaUnderROC: 0.9152653862206018
Root mean squared error: 0.35021250766831835
Relative absolute error: 63.05099828257962
Root relative squared error: 74.29129170858326
Weighted TruePositiveRate: 0.7442006269592476
Weighted MatthewsCorrelation: 0.5781491068659151
Weighted FMeasure: 0.7258424448971977
Iteration time: 80.0
Weighted AreaUnderPRC: 0.8583305925577617
Mean absolute error: 0.28022665903369354
Coverage of cases: 99.81191222570533
Instances selection time: 5.0
Test time: 11.0
Accumulative iteration time: 541.0
Weighted Recall: 0.7442006269592476
Weighted FalsePositiveRate: 0.23691792141496273
Kappa statistic: 0.5463414736164062
Training time: 75.0
		
Iteration: 8
Labeled set size: 459
Unlabelled set size: 1136
	
Mean region size: 96.36363636363647
Incorrectly Classified Instances: 37.30407523510972
Correctly Classified Instances: 62.69592476489028
Weighted Precision: 0.7227501726143988
Weighted AreaUnderROC: 0.8452895846972499
Root mean squared error: 0.3950912647957568
Relative absolute error: 72.71680592271468
Root relative squared error: 83.8115137573939
Weighted TruePositiveRate: 0.6269592476489029
Weighted MatthewsCorrelation: 0.3754496093082094
Weighted FMeasure: 0.5600108403835552
Iteration time: 88.0
Weighted AreaUnderPRC: 0.7722106760959543
Mean absolute error: 0.3231858041009614
Coverage of cases: 99.87460815047022
Instances selection time: 5.0
Test time: 11.0
Accumulative iteration time: 629.0
Weighted Recall: 0.6269592476489029
Weighted FalsePositiveRate: 0.38979496454958384
Kappa statistic: 0.27898458784684194
Training time: 83.0
		
Iteration: 9
Labeled set size: 479
Unlabelled set size: 1116
	
Mean region size: 87.85788923719963
Incorrectly Classified Instances: 27.0846394984326
Correctly Classified Instances: 72.91536050156739
Weighted Precision: 0.7862527529861914
Weighted AreaUnderROC: 0.9258465526458438
Root mean squared error: 0.35273074289490847
Relative absolute error: 63.36054600729733
Root relative squared error: 74.82549007018667
Weighted TruePositiveRate: 0.729153605015674
Weighted MatthewsCorrelation: 0.5585984879751662
Weighted FMeasure: 0.7073194132367728
Iteration time: 81.0
Weighted AreaUnderPRC: 0.8845991189250304
Mean absolute error: 0.2816024266991056
Coverage of cases: 99.9373040752351
Instances selection time: 4.0
Test time: 11.0
Accumulative iteration time: 710.0
Weighted Recall: 0.729153605015674
Weighted FalsePositiveRate: 0.2751715517783048
Kappa statistic: 0.506667478100243
Training time: 77.0
		
Iteration: 10
Labeled set size: 499
Unlabelled set size: 1096
	
Mean region size: 87.94148380355291
Incorrectly Classified Instances: 29.404388714733543
Correctly Classified Instances: 70.59561128526646
Weighted Precision: 0.7538472859770589
Weighted AreaUnderROC: 0.9083598693798465
Root mean squared error: 0.36083860859019085
Relative absolute error: 64.88591294342858
Root relative squared error: 76.54542811441183
Weighted TruePositiveRate: 0.7059561128526646
Weighted MatthewsCorrelation: 0.5150776793254086
Weighted FMeasure: 0.6776459629190118
Iteration time: 108.0
Weighted AreaUnderPRC: 0.8561331607797649
Mean absolute error: 0.2883818353041335
Coverage of cases: 99.68652037617555
Instances selection time: 5.0
Test time: 10.0
Accumulative iteration time: 818.0
Weighted Recall: 0.7059561128526646
Weighted FalsePositiveRate: 0.2925520547148914
Kappa statistic: 0.4616709856957499
Training time: 103.0
		
Iteration: 11
Labeled set size: 519
Unlabelled set size: 1076
	
Mean region size: 89.67607105538158
Incorrectly Classified Instances: 31.912225705329153
Correctly Classified Instances: 68.08777429467085
Weighted Precision: 0.7689290503015371
Weighted AreaUnderROC: 0.9044070321428502
Root mean squared error: 0.3680419002166451
Relative absolute error: 66.2375530705122
Root relative squared error: 78.07347702119084
Weighted TruePositiveRate: 0.6808777429467084
Weighted MatthewsCorrelation: 0.48124541433649126
Weighted FMeasure: 0.640077305472679
Iteration time: 94.0
Weighted AreaUnderPRC: 0.8602957513226118
Mean absolute error: 0.2943891247578387
Coverage of cases: 99.68652037617555
Instances selection time: 13.0
Test time: 11.0
Accumulative iteration time: 912.0
Weighted Recall: 0.6808777429467084
Weighted FalsePositiveRate: 0.3334983214379038
Kappa statistic: 0.39944801486557663
Training time: 81.0
		
Iteration: 12
Labeled set size: 539
Unlabelled set size: 1056
	
Mean region size: 84.7648902821317
Incorrectly Classified Instances: 30.219435736677116
Correctly Classified Instances: 69.78056426332289
Weighted Precision: 0.7708308339505975
Weighted AreaUnderROC: 0.9393029235213893
Root mean squared error: 0.35100061272378075
Relative absolute error: 60.221499599250144
Root relative squared error: 74.45847403728473
Weighted TruePositiveRate: 0.6978056426332289
Weighted MatthewsCorrelation: 0.5101712527046752
Weighted FMeasure: 0.6629015298144939
Iteration time: 84.0
Weighted AreaUnderPRC: 0.8964326491296641
Mean absolute error: 0.2676511093300067
Coverage of cases: 99.87460815047022
Instances selection time: 4.0
Test time: 10.0
Accumulative iteration time: 996.0
Weighted Recall: 0.6978056426332289
Weighted FalsePositiveRate: 0.31187869646539773
Kappa statistic: 0.4375733402784078
Training time: 80.0
		
Iteration: 13
Labeled set size: 559
Unlabelled set size: 1036
	
Mean region size: 86.60397074190189
Incorrectly Classified Instances: 31.22257053291536
Correctly Classified Instances: 68.77742946708464
Weighted Precision: 0.759626709233225
Weighted AreaUnderROC: 0.9230733264597166
Root mean squared error: 0.3577095480048288
Relative absolute error: 61.90839510145547
Root relative squared error: 75.88165412681592
Weighted TruePositiveRate: 0.6877742946708464
Weighted MatthewsCorrelation: 0.4905129121575986
Weighted FMeasure: 0.6515568162240252
Iteration time: 77.0
Weighted AreaUnderPRC: 0.8801824119546711
Mean absolute error: 0.27514842267314166
Coverage of cases: 99.9373040752351
Instances selection time: 4.0
Test time: 10.0
Accumulative iteration time: 1073.0
Weighted Recall: 0.6877742946708464
Weighted FalsePositiveRate: 0.3207944127601803
Kappa statistic: 0.4173998890998013
Training time: 73.0
		
Iteration: 14
Labeled set size: 579
Unlabelled set size: 1016
	
Mean region size: 89.52978056426323
Incorrectly Classified Instances: 32.225705329153605
Correctly Classified Instances: 67.7742946708464
Weighted Precision: 0.7781823998372608
Weighted AreaUnderROC: 0.9320588413932723
Root mean squared error: 0.3633261282445457
Relative absolute error: 63.57639527488832
Root relative squared error: 77.07311071919058
Weighted TruePositiveRate: 0.6777429467084639
Weighted MatthewsCorrelation: 0.4764212412138428
Weighted FMeasure: 0.6281067681167419
Iteration time: 117.0
Weighted AreaUnderPRC: 0.8917591208611114
Mean absolute error: 0.28256175677728784
Coverage of cases: 99.9373040752351
Instances selection time: 5.0
Test time: 12.0
Accumulative iteration time: 1190.0
Weighted Recall: 0.6777429467084639
Weighted FalsePositiveRate: 0.34262544885562723
Kappa statistic: 0.38893944848548534
Training time: 112.0
		
Iteration: 15
Labeled set size: 599
Unlabelled set size: 996
	
Mean region size: 81.73458725182873
Incorrectly Classified Instances: 27.021943573667713
Correctly Classified Instances: 72.97805642633229
Weighted Precision: 0.782494872645705
Weighted AreaUnderROC: 0.9350512870908797
Root mean squared error: 0.34190865313802793
Relative absolute error: 57.54954222973534
Root relative squared error: 72.5297781540768
Weighted TruePositiveRate: 0.7297805642633229
Weighted MatthewsCorrelation: 0.5629806619327257
Weighted FMeasure: 0.7057504524834151
Iteration time: 98.0
Weighted AreaUnderPRC: 0.8913531139190055
Mean absolute error: 0.25577574324327396
Coverage of cases: 99.87460815047022
Instances selection time: 5.0
Test time: 11.0
Accumulative iteration time: 1288.0
Weighted Recall: 0.7297805642633229
Weighted FalsePositiveRate: 0.27257789226508733
Kappa statistic: 0.5073413798984936
Training time: 93.0
		
Iteration: 16
Labeled set size: 619
Unlabelled set size: 976
	
Mean region size: 83.13479623824455
Incorrectly Classified Instances: 34.357366771159874
Correctly Classified Instances: 65.64263322884013
Weighted Precision: 0.7457743320326954
Weighted AreaUnderROC: 0.9299235712059465
Root mean squared error: 0.3652057366128673
Relative absolute error: 61.548322401035534
Root relative squared error: 77.47183586615513
Weighted TruePositiveRate: 0.6564263322884013
Weighted MatthewsCorrelation: 0.4390145530811222
Weighted FMeasure: 0.6044218814247392
Iteration time: 117.0
Weighted AreaUnderPRC: 0.8832364940943975
Mean absolute error: 0.2735480995601641
Coverage of cases: 99.68652037617555
Instances selection time: 4.0
Test time: 11.0
Accumulative iteration time: 1405.0
Weighted Recall: 0.6564263322884013
Weighted FalsePositiveRate: 0.3575056453870332
Kappa statistic: 0.34523711426700815
Training time: 113.0
		
Iteration: 17
Labeled set size: 639
Unlabelled set size: 956
	
Mean region size: 92.81086729362606
Incorrectly Classified Instances: 42.5705329153605
Correctly Classified Instances: 57.4294670846395
Weighted Precision: 0.7003599853941149
Weighted AreaUnderROC: 0.8242579450289196
Root mean squared error: 0.41276659968037677
Relative absolute error: 71.30431788712102
Root relative squared error: 87.56101850439124
Weighted TruePositiveRate: 0.574294670846395
Weighted MatthewsCorrelation: 0.2606771669431387
Weighted FMeasure: 0.46909922289782013
Iteration time: 89.0
Weighted AreaUnderPRC: 0.7443315717055995
Mean absolute error: 0.31690807949832284
Coverage of cases: 99.18495297805643
Instances selection time: 3.0
Test time: 10.0
Accumulative iteration time: 1494.0
Weighted Recall: 0.574294670846395
Weighted FalsePositiveRate: 0.4542976255687473
Kappa statistic: 0.14665760010968107
Training time: 86.0
		
Iteration: 18
Labeled set size: 659
Unlabelled set size: 936
	
Mean region size: 81.83908045977009
Incorrectly Classified Instances: 29.404388714733543
Correctly Classified Instances: 70.59561128526646
Weighted Precision: 0.768837901995067
Weighted AreaUnderROC: 0.9451786775887417
Root mean squared error: 0.3439988753648223
Relative absolute error: 58.08856740165561
Root relative squared error: 72.97318124730273
Weighted TruePositiveRate: 0.7059561128526646
Weighted MatthewsCorrelation: 0.5199816018671892
Weighted FMeasure: 0.6747784923311626
Iteration time: 99.0
Weighted AreaUnderPRC: 0.9079036145185954
Mean absolute error: 0.25817141067403077
Coverage of cases: 99.56112852664577
Instances selection time: 4.0
Test time: 10.0
Accumulative iteration time: 1593.0
Weighted Recall: 0.7059561128526646
Weighted FalsePositiveRate: 0.3006885658296052
Kappa statistic: 0.45699940187219806
Training time: 95.0
		
Iteration: 19
Labeled set size: 679
Unlabelled set size: 916
	
Mean region size: 81.27481713688633
Incorrectly Classified Instances: 37.30407523510972
Correctly Classified Instances: 62.69592476489028
Weighted Precision: 0.7333269346132355
Weighted AreaUnderROC: 0.9052436568841515
Root mean squared error: 0.37719311012037576
Relative absolute error: 63.24161101781152
Root relative squared error: 80.01474179488767
Weighted TruePositiveRate: 0.6269592476489029
Weighted MatthewsCorrelation: 0.38003274566518386
Weighted FMeasure: 0.5606058209872108
Iteration time: 102.0
Weighted AreaUnderPRC: 0.8537711300486722
Mean absolute error: 0.28107382674583536
Coverage of cases: 99.68652037617555
Instances selection time: 4.0
Test time: 10.0
Accumulative iteration time: 1695.0
Weighted Recall: 0.6269592476489029
Weighted FalsePositiveRate: 0.39218436889255914
Kappa statistic: 0.2770578170920665
Training time: 98.0
		
Iteration: 20
Labeled set size: 699
Unlabelled set size: 896
	
Mean region size: 85.93521421107621
Incorrectly Classified Instances: 42.69592476489028
Correctly Classified Instances: 57.30407523510972
Weighted Precision: 0.7089144750578932
Weighted AreaUnderROC: 0.8659857058327498
Root mean squared error: 0.4066764957392633
Relative absolute error: 68.51197220872274
Root relative squared error: 86.26911236592358
Weighted TruePositiveRate: 0.5730407523510972
Weighted MatthewsCorrelation: 0.2610111045764884
Weighted FMeasure: 0.46801208512485243
Iteration time: 102.0
Weighted AreaUnderPRC: 0.7849058073134763
Mean absolute error: 0.30449765426099684
Coverage of cases: 99.3103448275862
Instances selection time: 4.0
Test time: 22.0
Accumulative iteration time: 1797.0
Weighted Recall: 0.5730407523510972
Weighted FalsePositiveRate: 0.45517461451637825
Kappa statistic: 0.14385062481378547
Training time: 98.0
		
Iteration: 21
Labeled set size: 719
Unlabelled set size: 876
	
Mean region size: 82.38244514106603
Incorrectly Classified Instances: 36.426332288401255
Correctly Classified Instances: 63.573667711598745
Weighted Precision: 0.7582851523116895
Weighted AreaUnderROC: 0.9144573923560894
Root mean squared error: 0.37761870439898854
Relative absolute error: 62.64083153238001
Root relative squared error: 80.10502397502005
Weighted TruePositiveRate: 0.6357366771159875
Weighted MatthewsCorrelation: 0.4019692857038599
Weighted FMeasure: 0.5683518213683644
Iteration time: 100.0
Weighted AreaUnderPRC: 0.8626586088190051
Mean absolute error: 0.27840369569947304
Coverage of cases: 99.43573667711598
Instances selection time: 4.0
Test time: 11.0
Accumulative iteration time: 1897.0
Weighted Recall: 0.6357366771159875
Weighted FalsePositiveRate: 0.38653368324179627
Kappa statistic: 0.29407897643565484
Training time: 96.0
		
Iteration: 22
Labeled set size: 739
Unlabelled set size: 856
	
Mean region size: 78.55799373040767
Incorrectly Classified Instances: 35.172413793103445
Correctly Classified Instances: 64.82758620689656
Weighted Precision: 0.7424502240516194
Weighted AreaUnderROC: 0.8913612320829947
Root mean squared error: 0.3802878960888959
Relative absolute error: 61.85409019858898
Root relative squared error: 80.67124503828612
Weighted TruePositiveRate: 0.6482758620689655
Weighted MatthewsCorrelation: 0.41193571862315187
Weighted FMeasure: 0.5821866779662518
Iteration time: 109.0
Weighted AreaUnderPRC: 0.8344258034800991
Mean absolute error: 0.27490706754929056
Coverage of cases: 99.12225705329153
Instances selection time: 4.0
Test time: 10.0
Accumulative iteration time: 2006.0
Weighted Recall: 0.6482758620689655
Weighted FalsePositiveRate: 0.372043939925482
Kappa statistic: 0.3247935998406298
Training time: 105.0
		
Iteration: 23
Labeled set size: 759
Unlabelled set size: 836
	
Mean region size: 81.73458725182856
Incorrectly Classified Instances: 38.36990595611285
Correctly Classified Instances: 61.63009404388715
Weighted Precision: 0.7377560647686716
Weighted AreaUnderROC: 0.9265175879880982
Root mean squared error: 0.3767360091316841
Relative absolute error: 62.46187256714608
Root relative squared error: 79.91777603225037
Weighted TruePositiveRate: 0.6163009404388715
Weighted MatthewsCorrelation: 0.3615618729029646
Weighted FMeasure: 0.5410789868612154
Iteration time: 107.0
Weighted AreaUnderPRC: 0.8745428154729216
Mean absolute error: 0.27760832252065554
Coverage of cases: 99.87460815047022
Instances selection time: 4.0
Test time: 20.0
Accumulative iteration time: 2113.0
Weighted Recall: 0.6163009404388715
Weighted FalsePositiveRate: 0.4070391833100419
Kappa statistic: 0.2492645616787606
Training time: 103.0
		
Iteration: 24
Labeled set size: 779
Unlabelled set size: 816
	
Mean region size: 79.62382445141074
Incorrectly Classified Instances: 37.11598746081505
Correctly Classified Instances: 62.88401253918495
Weighted Precision: 0.7593943717942404
Weighted AreaUnderROC: 0.9287487852270887
Root mean squared error: 0.37287902204400714
Relative absolute error: 61.10316233296663
Root relative squared error: 79.09958551485678
Weighted TruePositiveRate: 0.6288401253918495
Weighted MatthewsCorrelation: 0.3901303954832947
Weighted FMeasure: 0.5596956120909763
Iteration time: 112.0
Weighted AreaUnderPRC: 0.8893788327439259
Mean absolute error: 0.27156961036874677
Coverage of cases: 99.56112852664577
Instances selection time: 4.0
Test time: 11.0
Accumulative iteration time: 2225.0
Weighted Recall: 0.6288401253918495
Weighted FalsePositiveRate: 0.39589419727991715
Kappa statistic: 0.27703445081217243
Training time: 108.0
		
Iteration: 25
Labeled set size: 799
Unlabelled set size: 796
	
Mean region size: 79.66562173458738
Incorrectly Classified Instances: 38.18181818181818
Correctly Classified Instances: 61.81818181818182
Weighted Precision: 0.7542563878163974
Weighted AreaUnderROC: 0.9068162110634125
Root mean squared error: 0.3831435669046369
Relative absolute error: 62.58704866996374
Root relative squared error: 81.2770242978802
Weighted TruePositiveRate: 0.6181818181818182
Weighted MatthewsCorrelation: 0.3692103125985961
Weighted FMeasure: 0.5447495340993819
Iteration time: 99.0
Weighted AreaUnderPRC: 0.8562375025246122
Mean absolute error: 0.2781646607554007
Coverage of cases: 98.68338557993731
Instances selection time: 4.0
Test time: 10.0
Accumulative iteration time: 2324.0
Weighted Recall: 0.6181818181818182
Weighted FalsePositiveRate: 0.40739948514815694
Kappa statistic: 0.25219236960684005
Training time: 95.0
		
Iteration: 26
Labeled set size: 819
Unlabelled set size: 776
	
Mean region size: 78.91327063740854
Incorrectly Classified Instances: 38.557993730407524
Correctly Classified Instances: 61.442006269592476
Weighted Precision: 0.7370029220387234
Weighted AreaUnderROC: 0.9215602709034506
Root mean squared error: 0.3795428369670894
Relative absolute error: 61.92496342093796
Root relative squared error: 80.51319413106184
Weighted TruePositiveRate: 0.6144200626959248
Weighted MatthewsCorrelation: 0.35729233855675385
Weighted FMeasure: 0.5402236723495433
Iteration time: 113.0
Weighted AreaUnderPRC: 0.8664991056491907
Mean absolute error: 0.2752220596486194
Coverage of cases: 99.56112852664577
Instances selection time: 3.0
Test time: 20.0
Accumulative iteration time: 2437.0
Weighted Recall: 0.6144200626959248
Weighted FalsePositiveRate: 0.40859095000494194
Kappa statistic: 0.24559957116631842
Training time: 110.0
		
Iteration: 27
Labeled set size: 839
Unlabelled set size: 756
	
Mean region size: 80.87774294670848
Incorrectly Classified Instances: 42.758620689655174
Correctly Classified Instances: 57.241379310344826
Weighted Precision: 0.7350661992399445
Weighted AreaUnderROC: 0.8680771907478441
Root mean squared error: 0.40750139977916405
Relative absolute error: 66.203029071819
Root relative squared error: 86.44410093805618
Weighted TruePositiveRate: 0.5724137931034483
Weighted MatthewsCorrelation: 0.2620551846589661
Weighted FMeasure: 0.46417805131712553
Iteration time: 98.0
Weighted AreaUnderPRC: 0.7909140367382645
Mean absolute error: 0.2942356847636467
Coverage of cases: 97.99373040752351
Instances selection time: 4.0
Test time: 10.0
Accumulative iteration time: 2535.0
Weighted Recall: 0.5724137931034483
Weighted FalsePositiveRate: 0.45872294564951654
Kappa statistic: 0.13987413486499042
Training time: 94.0
		
Iteration: 28
Labeled set size: 859
Unlabelled set size: 736
	
Mean region size: 79.83281086729367
Incorrectly Classified Instances: 44.20062695924765
Correctly Classified Instances: 55.79937304075235
Weighted Precision: 0.7402794048602668
Weighted AreaUnderROC: 0.9075194103472106
Root mean squared error: 0.40646722849909744
Relative absolute error: 65.08899840370411
Root relative squared error: 86.22472008054314
Weighted TruePositiveRate: 0.5579937304075235
Weighted MatthewsCorrelation: 0.22555276983261088
Weighted FMeasure: 0.4369897548488745
Iteration time: 126.0
Weighted AreaUnderPRC: 0.8515705328286366
Mean absolute error: 0.28928443734980264
Coverage of cases: 99.3103448275862
Instances selection time: 3.0
Test time: 10.0
Accumulative iteration time: 2661.0
Weighted Recall: 0.5579937304075235
Weighted FalsePositiveRate: 0.4757245778669983
Kappa statistic: 0.1023581882000386
Training time: 123.0
		
Iteration: 29
Labeled set size: 879
Unlabelled set size: 716
	
Mean region size: 81.63009404388738
Incorrectly Classified Instances: 45.642633228840126
Correctly Classified Instances: 54.357366771159874
Weighted Precision: 0.7343907419267679
Weighted AreaUnderROC: 0.8681947848988545
Root mean squared error: 0.41915245245191096
Relative absolute error: 67.43416341814319
Root relative squared error: 88.91566244391444
Weighted TruePositiveRate: 0.5435736677115988
Weighted MatthewsCorrelation: 0.1771612406469582
Weighted FMeasure: 0.40816927751854
Iteration time: 127.0
Weighted AreaUnderPRC: 0.7975269261507381
Mean absolute error: 0.2997073929695321
Coverage of cases: 98.36990595611286
Instances selection time: 3.0
Test time: 11.0
Accumulative iteration time: 2788.0
Weighted Recall: 0.5435736677115988
Weighted FalsePositiveRate: 0.4917701758179726
Kappa statistic: 0.06511415951576213
Training time: 124.0
		
Iteration: 30
Labeled set size: 899
Unlabelled set size: 696
	
Mean region size: 80.43887147335421
Incorrectly Classified Instances: 44.075235109717866
Correctly Classified Instances: 55.924764890282134
Weighted Precision: 0.7569994468006638
Weighted AreaUnderROC: 0.8739774563313178
Root mean squared error: 0.415099893730636
Relative absolute error: 66.56046604407554
Root relative squared error: 88.05598491802338
Weighted TruePositiveRate: 0.5592476489028213
Weighted MatthewsCorrelation: 0.22767979116976572
Weighted FMeasure: 0.4370377475605831
Iteration time: 125.0
Weighted AreaUnderPRC: 0.8014644038406123
Mean absolute error: 0.29582429352923134
Coverage of cases: 98.11912225705329
Instances selection time: 3.0
Test time: 11.0
Accumulative iteration time: 2913.0
Weighted Recall: 0.5592476489028213
Weighted FalsePositiveRate: 0.4753276500225011
Kappa statistic: 0.10457659873506682
Training time: 122.0
		
Iteration: 31
Labeled set size: 919
Unlabelled set size: 676
	
Mean region size: 78.09822361546513
Incorrectly Classified Instances: 42.5705329153605
Correctly Classified Instances: 57.4294670846395
Weighted Precision: 0.7098185561145206
Weighted AreaUnderROC: 0.926040445745429
Root mean squared error: 0.3920505922550014
Relative absolute error: 62.37480795982578
Root relative squared error: 83.16648970551314
Weighted TruePositiveRate: 0.574294670846395
Weighted MatthewsCorrelation: 0.26527178059624434
Weighted FMeasure: 0.4695794068192958
Iteration time: 126.0
Weighted AreaUnderPRC: 0.8745200329414093
Mean absolute error: 0.2772213687103431
Coverage of cases: 99.62382445141066
Instances selection time: 3.0
Test time: 10.0
Accumulative iteration time: 3039.0
Weighted Recall: 0.574294670846395
Weighted FalsePositiveRate: 0.45382097108208025
Kappa statistic: 0.1466636515062932
Training time: 123.0
		
Iteration: 32
Labeled set size: 939
Unlabelled set size: 656
	
Mean region size: 76.82340647857876
Incorrectly Classified Instances: 42.69592476489028
Correctly Classified Instances: 57.30407523510972
Weighted Precision: 0.746332288401254
Weighted AreaUnderROC: 0.9166695910092284
Root mean squared error: 0.3960158210556225
Relative absolute error: 62.90796618976579
Root relative squared error: 84.00764175767576
Weighted TruePositiveRate: 0.5730407523510972
Weighted MatthewsCorrelation: 0.2619065046005182
Weighted FMeasure: 0.4648323846456964
Iteration time: 138.0
Weighted AreaUnderPRC: 0.8691810897368891
Mean absolute error: 0.27959096084340984
Coverage of cases: 99.49843260188088
Instances selection time: 3.0
Test time: 10.0
Accumulative iteration time: 3177.0
Weighted Recall: 0.5730407523510972
Weighted FalsePositiveRate: 0.45804748657895417
Kappa statistic: 0.14173319805810516
Training time: 135.0
		
Iteration: 33
Labeled set size: 959
Unlabelled set size: 636
	
Mean region size: 75.17241379310327
Incorrectly Classified Instances: 39.373040752351095
Correctly Classified Instances: 60.626959247648905
Weighted Precision: 0.7519243124135142
Weighted AreaUnderROC: 0.9246457001073657
Root mean squared error: 0.38493668844640166
Relative absolute error: 60.19070674113694
Root relative squared error: 81.65740281838227
Weighted TruePositiveRate: 0.606269592476489
Weighted MatthewsCorrelation: 0.3435990842515142
Weighted FMeasure: 0.5256974310744094
Iteration time: 118.0
Weighted AreaUnderPRC: 0.8799948156530785
Mean absolute error: 0.2675142521828369
Coverage of cases: 98.55799373040752
Instances selection time: 3.0
Test time: 10.0
Accumulative iteration time: 3295.0
Weighted Recall: 0.606269592476489
Weighted FalsePositiveRate: 0.421217857333669
Kappa statistic: 0.2235404465770309
Training time: 115.0
		
Iteration: 34
Labeled set size: 979
Unlabelled set size: 616
	
Mean region size: 76.3636363636363
Incorrectly Classified Instances: 43.19749216300941
Correctly Classified Instances: 56.80250783699059
Weighted Precision: 0.7125815509395528
Weighted AreaUnderROC: 0.9202256045749404
Root mean squared error: 0.39857139671822234
Relative absolute error: 62.89383529158389
Root relative squared error: 84.54976122193364
Weighted TruePositiveRate: 0.568025078369906
Weighted MatthewsCorrelation: 0.24947951504131216
Weighted FMeasure: 0.4580930422559035
Iteration time: 117.0
Weighted AreaUnderPRC: 0.8591709071999708
Mean absolute error: 0.2795281568514903
Coverage of cases: 99.3103448275862
Instances selection time: 2.0
Test time: 10.0
Accumulative iteration time: 3412.0
Weighted Recall: 0.568025078369906
Weighted FalsePositiveRate: 0.46154522252007785
Kappa statistic: 0.13044561937120502
Training time: 115.0
		
Iteration: 35
Labeled set size: 999
Unlabelled set size: 596
	
Mean region size: 79.20585161964453
Incorrectly Classified Instances: 38.808777429467085
Correctly Classified Instances: 61.191222570532915
Weighted Precision: 0.7339066983726042
Weighted AreaUnderROC: 0.8848490398546462
Root mean squared error: 0.39890968917169584
Relative absolute error: 63.18954737303541
Root relative squared error: 84.62152388829624
Weighted TruePositiveRate: 0.6119122257053291
Weighted MatthewsCorrelation: 0.34567948324066966
Weighted FMeasure: 0.5258166672238591
Iteration time: 124.0
Weighted AreaUnderPRC: 0.8128188605494286
Mean absolute error: 0.28084243276905263
Coverage of cases: 99.18495297805643
Instances selection time: 2.0
Test time: 11.0
Accumulative iteration time: 3536.0
Weighted Recall: 0.6119122257053291
Weighted FalsePositiveRate: 0.4141690649662338
Kappa statistic: 0.2370095997353928
Training time: 122.0
		
Iteration: 36
Labeled set size: 1019
Unlabelled set size: 576
	
Mean region size: 77.40856844305115
Incorrectly Classified Instances: 38.244514106583075
Correctly Classified Instances: 61.755485893416925
Weighted Precision: 0.7371387673789618
Weighted AreaUnderROC: 0.9203603452050207
Root mean squared error: 0.38238588126461515
Relative absolute error: 60.764496467406225
Root relative squared error: 81.1162949016601
Weighted TruePositiveRate: 0.6175548589341693
Weighted MatthewsCorrelation: 0.36307393294048523
Weighted FMeasure: 0.5409442496911314
Iteration time: 129.0
Weighted AreaUnderPRC: 0.8664552290728771
Mean absolute error: 0.2700644287440338
Coverage of cases: 98.74608150470219
Instances selection time: 14.0
Test time: 11.0
Accumulative iteration time: 3665.0
Weighted Recall: 0.6175548589341693
Weighted FalsePositiveRate: 0.4061649196555843
Kappa statistic: 0.2517444172112243
Training time: 115.0
		
Iteration: 37
Labeled set size: 1039
Unlabelled set size: 556
	
Mean region size: 78.07732497387644
Incorrectly Classified Instances: 37.99373040752351
Correctly Classified Instances: 62.00626959247649
Weighted Precision: 0.7757616496201768
Weighted AreaUnderROC: 0.9181917501402221
Root mean squared error: 0.3844076926733315
Relative absolute error: 61.92239274265111
Root relative squared error: 81.5451858688752
Weighted TruePositiveRate: 0.6200626959247649
Weighted MatthewsCorrelation: 0.36390399633260195
Weighted FMeasure: 0.5367234768003126
Iteration time: 148.0
Weighted AreaUnderPRC: 0.8754728217616947
Mean absolute error: 0.27521063441178895
Coverage of cases: 98.30721003134796
Instances selection time: 3.0
Test time: 10.0
Accumulative iteration time: 3813.0
Weighted Recall: 0.6200626959247649
Weighted FalsePositiveRate: 0.4087178652226595
Kappa statistic: 0.2548843362051422
Training time: 145.0
		
Iteration: 38
Labeled set size: 1059
Unlabelled set size: 536
	
Mean region size: 82.90491118077298
Incorrectly Classified Instances: 38.11912225705329
Correctly Classified Instances: 61.88087774294671
Weighted Precision: 0.766279177126979
Weighted AreaUnderROC: 0.9282691582758678
Root mean squared error: 0.38062604905506225
Relative absolute error: 62.30113970797758
Root relative squared error: 80.7429781149225
Weighted TruePositiveRate: 0.618808777429467
Weighted MatthewsCorrelation: 0.3639369562508337
Weighted FMeasure: 0.5358136047230704
Iteration time: 141.0
Weighted AreaUnderPRC: 0.8826342088719095
Mean absolute error: 0.2768939542576844
Coverage of cases: 99.05956112852665
Instances selection time: 2.0
Test time: 11.0
Accumulative iteration time: 3954.0
Weighted Recall: 0.618808777429467
Weighted FalsePositiveRate: 0.407199317917675
Kappa statistic: 0.25319147133817305
Training time: 139.0
		
Iteration: 39
Labeled set size: 1079
Unlabelled set size: 516
	
Mean region size: 78.53709508881903
Incorrectly Classified Instances: 34.608150470219435
Correctly Classified Instances: 65.39184952978056
Weighted Precision: 0.7601051858377629
Weighted AreaUnderROC: 0.9115544891954813
Root mean squared error: 0.37875904189865833
Relative absolute error: 60.730161056973415
Root relative squared error: 80.34692608867739
Weighted TruePositiveRate: 0.6539184952978057
Weighted MatthewsCorrelation: 0.41818411082917323
Weighted FMeasure: 0.5777213962949007
Iteration time: 154.0
Weighted AreaUnderPRC: 0.8589634642617167
Mean absolute error: 0.26991182691988796
Coverage of cases: 98.68338557993731
Instances selection time: 3.0
Test time: 11.0
Accumulative iteration time: 4108.0
Weighted Recall: 0.6539184952978057
Weighted FalsePositiveRate: 0.36929934572721035
Kappa statistic: 0.3349688951196005
Training time: 151.0
		
Iteration: 40
Labeled set size: 1099
Unlabelled set size: 496
	
Mean region size: 78.78787878787857
Incorrectly Classified Instances: 31.598746081504704
Correctly Classified Instances: 68.4012539184953
Weighted Precision: 0.7853424460024654
Weighted AreaUnderROC: 0.9287120225932108
Root mean squared error: 0.3615845844029486
Relative absolute error: 58.80243754937817
Root relative squared error: 76.70367348115248
Weighted TruePositiveRate: 0.684012539184953
Weighted MatthewsCorrelation: 0.4819894651294378
Weighted FMeasure: 0.625124516492295
Iteration time: 162.0
Weighted AreaUnderPRC: 0.8866781677973848
Mean absolute error: 0.2613441668861311
Coverage of cases: 98.68338557993731
Instances selection time: 3.0
Test time: 11.0
Accumulative iteration time: 4270.0
Weighted Recall: 0.684012539184953
Weighted FalsePositiveRate: 0.3325022545485473
Kappa statistic: 0.40439744771399694
Training time: 159.0
		
Iteration: 41
Labeled set size: 1119
Unlabelled set size: 476
	
Mean region size: 82.65412748171329
Incorrectly Classified Instances: 36.86520376175549
Correctly Classified Instances: 63.13479623824451
Weighted Precision: 0.7631463351653859
Weighted AreaUnderROC: 0.904047575216293
Root mean squared error: 0.384461857303079
Relative absolute error: 64.94303313949858
Root relative squared error: 81.55667592197366
Weighted TruePositiveRate: 0.6313479623824452
Weighted MatthewsCorrelation: 0.384703417555069
Weighted FMeasure: 0.5560013137566903
Iteration time: 283.0
Weighted AreaUnderPRC: 0.849448429703598
Mean absolute error: 0.28863570284222245
Coverage of cases: 98.62068965517241
Instances selection time: 2.0
Test time: 11.0
Accumulative iteration time: 4553.0
Weighted Recall: 0.6313479623824452
Weighted FalsePositiveRate: 0.3922274695283468
Kappa statistic: 0.28437569627361997
Training time: 281.0
		
Iteration: 42
Labeled set size: 1139
Unlabelled set size: 456
	
Mean region size: 81.8808777429463
Incorrectly Classified Instances: 32.789968652037615
Correctly Classified Instances: 67.21003134796238
Weighted Precision: 0.7860003718755624
Weighted AreaUnderROC: 0.9320549485225533
Root mean squared error: 0.36578522886066733
Relative absolute error: 61.457381826007655
Root relative squared error: 77.59476473557446
Weighted TruePositiveRate: 0.6721003134796238
Weighted MatthewsCorrelation: 0.4562099555599891
Weighted FMeasure: 0.6049979602897465
Iteration time: 182.0
Weighted AreaUnderPRC: 0.8954286841402915
Mean absolute error: 0.2731439192267069
Coverage of cases: 98.87147335423198
Instances selection time: 2.0
Test time: 11.0
Accumulative iteration time: 4735.0
Weighted Recall: 0.6721003134796238
Weighted FalsePositiveRate: 0.34679728122072645
Kappa statistic: 0.37784902834708634
Training time: 180.0
		
Iteration: 43
Labeled set size: 1159
Unlabelled set size: 436
	
Mean region size: 83.61546499477475
Incorrectly Classified Instances: 32.9153605015674
Correctly Classified Instances: 67.08463949843261
Weighted Precision: 0.7752661396363629
Weighted AreaUnderROC: 0.9323928620961284
Root mean squared error: 0.36907517059408884
Relative absolute error: 63.033182066098
Root relative squared error: 78.29266676839774
Weighted TruePositiveRate: 0.670846394984326
Weighted MatthewsCorrelation: 0.4538928528878734
Weighted FMeasure: 0.6012933477392169
Iteration time: 164.0
Weighted AreaUnderPRC: 0.892874558041801
Mean absolute error: 0.2801474758493308
Coverage of cases: 98.87147335423198
Instances selection time: 2.0
Test time: 16.0
Accumulative iteration time: 4899.0
Weighted Recall: 0.670846394984326
Weighted FalsePositiveRate: 0.3409704478068182
Kappa statistic: 0.3781537878872266
Training time: 162.0
		
Iteration: 44
Labeled set size: 1179
Unlabelled set size: 416
	
Mean region size: 82.5287356321836
Incorrectly Classified Instances: 31.598746081504704
Correctly Classified Instances: 68.4012539184953
Weighted Precision: 0.7758940329612726
Weighted AreaUnderROC: 0.9110071603866733
Root mean squared error: 0.3686350010454955
Relative absolute error: 62.31595179236347
Root relative squared error: 78.19929270659308
Weighted TruePositiveRate: 0.684012539184953
Weighted MatthewsCorrelation: 0.47317440567739644
Weighted FMeasure: 0.6190359026151229
Iteration time: 162.0
Weighted AreaUnderPRC: 0.8572296243732724
Mean absolute error: 0.27695978574384394
Coverage of cases: 98.49529780564264
Instances selection time: 2.0
Test time: 11.0
Accumulative iteration time: 5061.0
Weighted Recall: 0.684012539184953
Weighted FalsePositiveRate: 0.3210128102681239
Kappa statistic: 0.4111977030352748
Training time: 160.0
		
Iteration: 45
Labeled set size: 1199
Unlabelled set size: 396
	
Mean region size: 80.08359456635277
Incorrectly Classified Instances: 28.84012539184953
Correctly Classified Instances: 71.15987460815047
Weighted Precision: 0.7823210292994794
Weighted AreaUnderROC: 0.926220183978436
Root mean squared error: 0.3588926194964641
Relative absolute error: 59.46128815833318
Root relative squared error: 76.13262148912507
Weighted TruePositiveRate: 0.7115987460815048
Weighted MatthewsCorrelation: 0.5190072706765211
Weighted FMeasure: 0.6467344580309712
Iteration time: 170.0
Weighted AreaUnderPRC: 0.8842229454264977
Mean absolute error: 0.26427239181482015
Coverage of cases: 98.30721003134796
Instances selection time: 2.0
Test time: 12.0
Accumulative iteration time: 5231.0
Weighted Recall: 0.7115987460815048
Weighted FalsePositiveRate: 0.2840528591886544
Kappa statistic: 0.47290833619496875
Training time: 168.0
		
Iteration: 46
Labeled set size: 1219
Unlabelled set size: 376
	
Mean region size: 82.11076280041749
Incorrectly Classified Instances: 30.094043887147336
Correctly Classified Instances: 69.90595611285266
Weighted Precision: 0.7753609927828439
Weighted AreaUnderROC: 0.9363034154997455
Root mean squared error: 0.36046623780312337
Relative absolute error: 61.16733325769589
Root relative squared error: 76.46643634181649
Weighted TruePositiveRate: 0.6990595611285266
Weighted MatthewsCorrelation: 0.4919767657673493
Weighted FMeasure: 0.6264291487679148
Iteration time: 167.0
Weighted AreaUnderPRC: 0.8917243154773087
Mean absolute error: 0.27185481447865456
Coverage of cases: 98.18181818181819
Instances selection time: 2.0
Test time: 10.0
Accumulative iteration time: 5398.0
Weighted Recall: 0.6990595611285266
Weighted FalsePositiveRate: 0.3004614842709171
Kappa statistic: 0.44520774274335195
Training time: 165.0
		
Time end:Wed Nov 01 14.36.50 EET 2017