Sat Oct 07 11.48.11 EEST 2017
Dataset: hypothyroid
Test set size: 1886
Initial Labelled set size: 377
Initial Unlabelled set size: 1509
Batch mode: QBestBatchMode
Batch size: 20
Classifiers: SMO-1cores
Scenario: PoolBasedSamplingScenario
Query strategy: EntropySamplingQueryStrategy-1cores
Time begining: Sat Oct 07 11.48.11 EEST 2017
		
Iteration: 1
Labeled set size: 377
Unlabelled set size: 1509
	
Mean region size: 75.0
Incorrectly Classified Instances: 7.163308589607635
Correctly Classified Instances: 92.83669141039238
Weighted Precision: 0.8812555983618694
Weighted AreaUnderROC: 0.5455497191748782
Root mean squared error: 0.32397375935539796
Relative absolute error: 68.73335689878623
Root relative squared error: 74.81853486968562
Weighted TruePositiveRate: 0.9283669141039235
Weighted MatthewsCorrelation: 0.24095337588116222
Weighted FMeasure: 0.8972219384201898
Iteration time: 162.3
Weighted AreaUnderPRC: 0.8668813302161062
Mean absolute error: 0.2577500883704483
Coverage of cases: 99.94697773064686
Instances selection time: 21.8
Test time: 26.9
Accumulative iteration time: 162.3
Weighted Recall: 0.9283669141039235
Weighted FalsePositiveRate: 0.8506127108380201
Kappa statistic: 0.13137693081697951
Training time: 140.5
		
Iteration: 2
Labeled set size: 397
Unlabelled set size: 1489
	
Mean region size: 75.0
Incorrectly Classified Instances: 7.014846235418877
Correctly Classified Instances: 92.98515376458113
Weighted Precision: 0.882309831897843
Weighted AreaUnderROC: 0.5556717064715645
Root mean squared error: 0.32339459717997937
Relative absolute error: 68.63320372334141
Root relative squared error: 74.68478309453266
Weighted TruePositiveRate: 0.9298515376458113
Weighted MatthewsCorrelation: 0.27309923006168874
Weighted FMeasure: 0.8998555816383839
Iteration time: 96.4
Weighted AreaUnderPRC: 0.8703260627382988
Mean absolute error: 0.2573745139625302
Coverage of cases: 99.94697773064686
Instances selection time: 14.7
Test time: 21.0
Accumulative iteration time: 258.7
Weighted Recall: 0.9298515376458113
Weighted FalsePositiveRate: 0.8322337869538519
Kappa statistic: 0.16444790777883384
Training time: 81.7
		
Iteration: 3
Labeled set size: 417
Unlabelled set size: 1469
	
Mean region size: 75.0
Incorrectly Classified Instances: 7.041357370095442
Correctly Classified Instances: 92.95864262990456
Weighted Precision: 0.8821331769190394
Weighted AreaUnderROC: 0.5549932123724268
Root mean squared error: 0.323406221181697
Relative absolute error: 68.635560268646
Root relative squared error: 74.68746754274096
Weighted TruePositiveRate: 0.9295864262990456
Weighted MatthewsCorrelation: 0.2698683989316108
Weighted FMeasure: 0.899501009671987
Iteration time: 103.1
Weighted AreaUnderPRC: 0.870012258116031
Mean absolute error: 0.2573833510074224
Coverage of cases: 99.94697773064686
Instances selection time: 13.7
Test time: 20.4
Accumulative iteration time: 361.8
Weighted Recall: 0.9295864262990456
Weighted FalsePositiveRate: 0.8347784697804222
Kappa statistic: 0.15971153589221823
Training time: 89.4
		
Iteration: 4
Labeled set size: 437
Unlabelled set size: 1449
	
Mean region size: 75.0
Incorrectly Classified Instances: 6.961823966065748
Correctly Classified Instances: 93.03817603393425
Weighted Precision: 0.88291738054982
Weighted AreaUnderROC: 0.5585419595467064
Root mean squared error: 0.3232067187786912
Relative absolute error: 68.60021208907722
Root relative squared error: 74.64139443630923
Weighted TruePositiveRate: 0.9303817603393426
Weighted MatthewsCorrelation: 0.2863539202901621
Weighted FMeasure: 0.900810892785542
Iteration time: 113.8
Weighted AreaUnderPRC: 0.8713141099248336
Mean absolute error: 0.2572507953340396
Coverage of cases: 99.94697773064686
Instances selection time: 14.1
Test time: 18.6
Accumulative iteration time: 475.6
Weighted Recall: 0.9303817603393426
Weighted FalsePositiveRate: 0.8252667655590281
Kappa statistic: 0.17612734397384433
Training time: 99.7
		
Iteration: 5
Labeled set size: 457
Unlabelled set size: 1429
	
Mean region size: 75.0
Incorrectly Classified Instances: 6.94591728525981
Correctly Classified Instances: 93.05408271474019
Weighted Precision: 0.883055675587588
Weighted AreaUnderROC: 0.5607374009483744
Root mean squared error: 0.32317483869987973
Relative absolute error: 68.59549899846806
Root relative squared error: 74.63403204747578
Weighted TruePositiveRate: 0.930540827147402
Weighted MatthewsCorrelation: 0.2890088815646411
Weighted FMeasure: 0.9010454920474456
Iteration time: 123.6
Weighted AreaUnderPRC: 0.871736312711235
Mean absolute error: 0.25723312124425524
Coverage of cases: 99.94697773064686
Instances selection time: 15.4
Test time: 16.2
Accumulative iteration time: 599.2
Weighted Recall: 0.930540827147402
Weighted FalsePositiveRate: 0.823356866849846
Kappa statistic: 0.17927325060562696
Training time: 108.2
		
Iteration: 6
Labeled set size: 477
Unlabelled set size: 1409
	
Mean region size: 75.0
Incorrectly Classified Instances: 6.961823966065748
Correctly Classified Instances: 93.03817603393423
Weighted Precision: 0.8829105829460786
Weighted AreaUnderROC: 0.5578965448979932
Root mean squared error: 0.32321578975459325
Relative absolute error: 68.60139036172953
Root relative squared error: 74.64348928846078
Weighted TruePositiveRate: 0.9303817603393425
Weighted MatthewsCorrelation: 0.28544033102475214
Weighted FMeasure: 0.9007648871877654
Iteration time: 117.9
Weighted AreaUnderPRC: 0.8711602267850953
Mean absolute error: 0.2572552138564857
Coverage of cases: 99.94697773064686
Instances selection time: 12.4
Test time: 18.9
Accumulative iteration time: 717.1
Weighted Recall: 0.9303817603393425
Weighted FalsePositiveRate: 0.8252620418934636
Kappa statistic: 0.17586906197269744
Training time: 105.5
		
Iteration: 7
Labeled set size: 497
Unlabelled set size: 1389
	
Mean region size: 75.0
Incorrectly Classified Instances: 6.951219512195122
Correctly Classified Instances: 93.04878048780488
Weighted Precision: 0.883009936763479
Weighted AreaUnderROC: 0.5591200544576032
Root mean squared error: 0.3232067000962643
Relative absolute error: 68.60021208907725
Root relative squared error: 74.64139012178755
Weighted TruePositiveRate: 0.9304878048780489
Weighted MatthewsCorrelation: 0.28785921056558256
Weighted FMeasure: 0.9009524477621735
Iteration time: 120.6
Weighted AreaUnderPRC: 0.8714164647105473
Mean absolute error: 0.2572507953340396
Coverage of cases: 99.94697773064686
Instances selection time: 12.4
Test time: 17.7
Accumulative iteration time: 837.7
Weighted Recall: 0.9304878048780489
Weighted FalsePositiveRate: 0.8239934997529067
Kappa statistic: 0.17813245883903647
Training time: 108.2
		
Iteration: 8
Labeled set size: 517
Unlabelled set size: 1369
	
Mean region size: 75.0
Incorrectly Classified Instances: 7.009544008483563
Correctly Classified Instances: 92.99045599151643
Weighted Precision: 0.8825312079229113
Weighted AreaUnderROC: 0.5542118498788408
Root mean squared error: 0.3233618056848634
Relative absolute error: 68.62731236007994
Root relative squared error: 74.67721022311974
Weighted TruePositiveRate: 0.9299045599151643
Weighted MatthewsCorrelation: 0.27485342632688486
Weighted FMeasure: 0.8998854175112732
Iteration time: 125.8
Weighted AreaUnderPRC: 0.8702127223868754
Mean absolute error: 0.25735242135029973
Coverage of cases: 99.94697773064686
Instances selection time: 11.5
Test time: 14.5
Accumulative iteration time: 963.5
Weighted Recall: 0.9299045599151643
Weighted FalsePositiveRate: 0.8341366566989267
Kappa statistic: 0.16294916801594636
Training time: 114.3
		
Iteration: 9
Labeled set size: 537
Unlabelled set size: 1349
	
Mean region size: 75.0
Incorrectly Classified Instances: 7.009544008483564
Correctly Classified Instances: 92.99045599151643
Weighted Precision: 0.8825228237858586
Weighted AreaUnderROC: 0.5534357385966161
Root mean squared error: 0.3233982320762695
Relative absolute error: 68.6332037233414
Root relative squared error: 74.68562253787331
Weighted TruePositiveRate: 0.9299045599151643
Weighted MatthewsCorrelation: 0.2744310393254673
Weighted FMeasure: 0.8998742237888709
Iteration time: 117.3
Weighted AreaUnderPRC: 0.8700704868416173
Mean absolute error: 0.25737451396253025
Coverage of cases: 99.94697773064686
Instances selection time: 9.1
Test time: 13.3
Accumulative iteration time: 1080.8
Weighted Recall: 0.9299045599151643
Weighted FalsePositiveRate: 0.8341319330333622
Kappa statistic: 0.1629227419678745
Training time: 108.2
		
Iteration: 10
Labeled set size: 557
Unlabelled set size: 1329
	
Mean region size: 75.0
Incorrectly Classified Instances: 7.009544008483563
Correctly Classified Instances: 92.99045599151643
Weighted Precision: 0.882485276922979
Weighted AreaUnderROC: 0.5524583745474508
Root mean squared error: 0.32340846206294727
Relative absolute error: 68.63438199599369
Root relative squared error: 74.68798505209817
Weighted TruePositiveRate: 0.9299045599151643
Weighted MatthewsCorrelation: 0.2739661888647351
Weighted FMeasure: 0.8998607745599113
Iteration time: 121.5
Weighted AreaUnderPRC: 0.8698931543647644
Mean absolute error: 0.25737893248497634
Coverage of cases: 99.94697773064686
Instances selection time: 10.4
Test time: 13.9
Accumulative iteration time: 1202.3
Weighted Recall: 0.9299045599151643
Weighted FalsePositiveRate: 0.8347656910565305
Kappa statistic: 0.16251111607967356
Training time: 111.1
		
Iteration: 11
Labeled set size: 577
Unlabelled set size: 1309
	
Mean region size: 75.0
Incorrectly Classified Instances: 7.0201484623541885
Correctly Classified Instances: 92.9798515376458
Weighted Precision: 0.8823876762602539
Weighted AreaUnderROC: 0.5524414688748477
Root mean squared error: 0.3234197471901418
Relative absolute error: 68.63673854129827
Root relative squared error: 74.69059124058762
Weighted TruePositiveRate: 0.9297985153764581
Weighted MatthewsCorrelation: 0.2703191764499434
Weighted FMeasure: 0.8996300775989308
Iteration time: 126.1
Weighted AreaUnderPRC: 0.8698096935861651
Mean absolute error: 0.2573877695298686
Coverage of cases: 99.94697773064686
Instances selection time: 9.0
Test time: 13.8
Accumulative iteration time: 1328.4
Weighted Recall: 0.9297985153764581
Weighted FalsePositiveRate: 0.836038956862652
Kappa statistic: 0.15999961082096684
Training time: 117.1
		
Iteration: 12
Labeled set size: 597
Unlabelled set size: 1289
	
Mean region size: 75.0
Incorrectly Classified Instances: 7.051961823966067
Correctly Classified Instances: 92.94803817603393
Weighted Precision: 0.8820053542063206
Weighted AreaUnderROC: 0.5503459599017007
Root mean squared error: 0.323496064470031
Relative absolute error: 68.64969954047349
Root relative squared error: 74.70821596142277
Weighted TruePositiveRate: 0.9294803817603393
Weighted MatthewsCorrelation: 0.2635990443318178
Weighted FMeasure: 0.8991278286680897
Iteration time: 116.3
Weighted AreaUnderPRC: 0.8691176655461081
Mean absolute error: 0.2574363732767756
Coverage of cases: 99.94697773064686
Instances selection time: 9.5
Test time: 13.1
Accumulative iteration time: 1444.7
Weighted Recall: 0.9294803817603393
Weighted FalsePositiveRate: 0.8392235060726934
Kappa statistic: 0.15419727282170265
Training time: 106.8
		
Iteration: 13
Labeled set size: 617
Unlabelled set size: 1269
	
Mean region size: 75.0
Incorrectly Classified Instances: 7.051961823966067
Correctly Classified Instances: 92.94803817603393
Weighted Precision: 0.8821045183126064
Weighted AreaUnderROC: 0.5500564267926756
Root mean squared error: 0.3235028443051502
Relative absolute error: 68.65087781312579
Root relative squared error: 74.70978169727522
Weighted TruePositiveRate: 0.9294803817603393
Weighted MatthewsCorrelation: 0.26264525674014483
Weighted FMeasure: 0.8990742494194555
Iteration time: 124.4
Weighted AreaUnderPRC: 0.8691308684154494
Mean absolute error: 0.2574407917992217
Coverage of cases: 99.94697773064686
Instances selection time: 9.7
Test time: 14.3
Accumulative iteration time: 1569.1
Weighted Recall: 0.9294803817603393
Weighted FalsePositiveRate: 0.8398493069498869
Kappa statistic: 0.15323523275722495
Training time: 114.7
		
Iteration: 14
Labeled set size: 637
Unlabelled set size: 1249
	
Mean region size: 75.0
Incorrectly Classified Instances: 7.0519618239660655
Correctly Classified Instances: 92.94803817603392
Weighted Precision: 0.8821041295163725
Weighted AreaUnderROC: 0.5500648107343787
Root mean squared error: 0.3234823211813932
Relative absolute error: 68.6473429951689
Root relative squared error: 74.70504208486494
Weighted TruePositiveRate: 0.9294803817603393
Weighted MatthewsCorrelation: 0.262540071014736
Weighted FMeasure: 0.8990634036191159
Iteration time: 132.1
Weighted AreaUnderPRC: 0.8691742966571139
Mean absolute error: 0.25742753623188336
Coverage of cases: 99.94697773064686
Instances selection time: 11.6
Test time: 13.8
Accumulative iteration time: 1701.2
Weighted Recall: 0.9294803817603393
Weighted FalsePositiveRate: 0.8398540306154514
Kappa statistic: 0.1531484676816282
Training time: 120.5
		
Iteration: 15
Labeled set size: 657
Unlabelled set size: 1229
	
Mean region size: 75.0
Incorrectly Classified Instances: 7.067868504772005
Correctly Classified Instances: 92.932131495228
Weighted Precision: 0.8818853274266034
Weighted AreaUnderROC: 0.5488265541516382
Root mean squared error: 0.32351308010139607
Relative absolute error: 68.65205608577807
Root relative squared error: 74.7121455531624
Weighted TruePositiveRate: 0.9293213149522799
Weighted MatthewsCorrelation: 0.2593420404527991
Weighted FMeasure: 0.8988397368056521
Iteration time: 162.1
Weighted AreaUnderPRC: 0.8687811497442042
Mean absolute error: 0.2574452103216678
Coverage of cases: 99.94697773064686
Instances selection time: 8.8
Test time: 13.9
Accumulative iteration time: 1863.3
Weighted Recall: 0.9293213149522799
Weighted FalsePositiveRate: 0.8411239574507464
Kappa statistic: 0.15077695999910878
Training time: 153.3
		
Iteration: 16
Labeled set size: 677
Unlabelled set size: 1209
	
Mean region size: 75.0
Incorrectly Classified Instances: 7.0519618239660655
Correctly Classified Instances: 92.94803817603392
Weighted Precision: 0.8821041295163725
Weighted AreaUnderROC: 0.5496544109573023
Root mean squared error: 0.3235244522481687
Relative absolute error: 68.65441263108265
Root relative squared error: 74.71477183796259
Weighted TruePositiveRate: 0.9294803817603393
Weighted MatthewsCorrelation: 0.262540071014736
Weighted FMeasure: 0.8990634036191159
Iteration time: 151.3
Weighted AreaUnderPRC: 0.8689794967132614
Mean absolute error: 0.25745404736655997
Coverage of cases: 99.94697773064686
Instances selection time: 9.1
Test time: 14.2
Accumulative iteration time: 2014.6
Weighted Recall: 0.9294803817603393
Weighted FalsePositiveRate: 0.8398540306154514
Kappa statistic: 0.1531484676816282
Training time: 142.2
		
Iteration: 17
Labeled set size: 697
Unlabelled set size: 1189
	
Mean region size: 75.0
Incorrectly Classified Instances: 7.07847295864263
Correctly Classified Instances: 92.92152704135736
Weighted Precision: 0.8819851548839953
Weighted AreaUnderROC: 0.5480553423286267
Root mean squared error: 0.32355062022950876
Relative absolute error: 68.65912572169182
Root relative squared error: 74.7208150743909
Weighted TruePositiveRate: 0.9292152704135737
Weighted MatthewsCorrelation: 0.2558774245694629
Weighted FMeasure: 0.8985954822752363
Iteration time: 155.0
Weighted AreaUnderPRC: 0.868565190004638
Mean absolute error: 0.25747172145634434
Coverage of cases: 99.94697773064686
Instances selection time: 9.2
Test time: 13.7
Accumulative iteration time: 2169.6
Weighted Recall: 0.9292152704135737
Weighted FalsePositiveRate: 0.8436724729241583
Kappa statistic: 0.1470051076087592
Training time: 145.8
		
Iteration: 18
Labeled set size: 717
Unlabelled set size: 1169
	
Mean region size: 75.0
Incorrectly Classified Instances: 7.089077412513255
Correctly Classified Instances: 92.91092258748674
Weighted Precision: 0.8818751959929806
Weighted AreaUnderROC: 0.5468808744609197
Root mean squared error: 0.3236064718209101
Relative absolute error: 68.66855190291015
Root relative squared error: 74.73371344692302
Weighted TruePositiveRate: 0.9291092258748673
Weighted MatthewsCorrelation: 0.25376058435124854
Weighted FMeasure: 0.8984345129630968
Iteration time: 151.7
Weighted AreaUnderPRC: 0.8682213607507077
Mean absolute error: 0.2575070696359131
Coverage of cases: 99.94697773064686
Instances selection time: 8.8
Test time: 13.8
Accumulative iteration time: 2321.3
Weighted Recall: 0.9291092258748673
Weighted FalsePositiveRate: 0.8449362913991505
Kappa statistic: 0.1449367973308996
Training time: 142.9
		
Iteration: 19
Labeled set size: 737
Unlabelled set size: 1149
	
Mean region size: 75.0
Incorrectly Classified Instances: 7.078472958642631
Correctly Classified Instances: 92.92152704135736
Weighted Precision: 0.8818588821280583
Weighted AreaUnderROC: 0.5482911611374688
Root mean squared error: 0.323564341168569
Relative absolute error: 68.6614822669964
Root relative squared error: 74.72398378953491
Weighted TruePositiveRate: 0.9292152704135734
Weighted MatthewsCorrelation: 0.2567402127314741
Weighted FMeasure: 0.8986890062789905
Iteration time: 158.5
Weighted AreaUnderPRC: 0.8685848838460648
Mean absolute error: 0.25748055850123647
Coverage of cases: 99.94697773064686
Instances selection time: 8.1
Test time: 13.7
Accumulative iteration time: 2479.8
Weighted Recall: 0.9292152704135734
Weighted FalsePositiveRate: 0.8430277773847068
Kappa statistic: 0.14830059191387762
Training time: 150.4
		
Iteration: 20
Labeled set size: 757
Unlabelled set size: 1129
	
Mean region size: 75.0
Incorrectly Classified Instances: 7.073170731707317
Correctly Classified Instances: 92.92682926829268
Weighted Precision: 0.8819138225778638
Weighted AreaUnderROC: 0.5486612577991877
Root mean squared error: 0.3235506788589211
Relative absolute error: 68.65912572169182
Root relative squared error: 74.72082861427371
Weighted TruePositiveRate: 0.9292682926829267
Weighted MatthewsCorrelation: 0.25746095689246956
Weighted FMeasure: 0.8987520643482588
Iteration time: 151.5
Weighted AreaUnderPRC: 0.8687111764286215
Mean absolute error: 0.25747172145634434
Coverage of cases: 99.94697773064686
Instances selection time: 7.5
Test time: 13.3
Accumulative iteration time: 2631.3
Weighted Recall: 0.9292682926829267
Weighted FalsePositiveRate: 0.8423958681472106
Kappa statistic: 0.14922182698192438
Training time: 144.0
		
Iteration: 21
Labeled set size: 777
Unlabelled set size: 1109
	
Mean region size: 75.0
Incorrectly Classified Instances: 7.062566277836692
Correctly Classified Instances: 92.9374337221633
Weighted Precision: 0.882003490664878
Weighted AreaUnderROC: 0.5491024015371752
Root mean squared error: 0.32351767228741646
Relative absolute error: 68.65323435843035
Root relative squared error: 74.71320607309643
Weighted TruePositiveRate: 0.929374337221633
Weighted MatthewsCorrelation: 0.26068922154919827
Weighted FMeasure: 0.8989050311731646
Iteration time: 172.9
Weighted AreaUnderPRC: 0.8688386486896855
Mean absolute error: 0.2574496288441138
Coverage of cases: 99.94697773064686
Instances selection time: 7.1
Test time: 14.0
Accumulative iteration time: 2804.2
Weighted Recall: 0.929374337221633
Weighted FalsePositiveRate: 0.8411178490904438
Kappa statistic: 0.15107089029072898
Training time: 165.8
		
Iteration: 22
Labeled set size: 797
Unlabelled set size: 1089
	
Mean region size: 75.0
Incorrectly Classified Instances: 7.067868504772005
Correctly Classified Instances: 92.93213149522799
Weighted Precision: 0.8819487337155074
Weighted AreaUnderROC: 0.5489390613491578
Root mean squared error: 0.32357113855121405
Relative absolute error: 68.66266053964871
Root relative squared error: 74.72555357781485
Weighted TruePositiveRate: 0.9293213149522798
Weighted MatthewsCorrelation: 0.25982813554712847
Weighted FMeasure: 0.8988318849090122
Iteration time: 170.1
Weighted AreaUnderPRC: 0.8687227655313524
Mean absolute error: 0.2574849770236826
Coverage of cases: 99.94697773064686
Instances selection time: 6.6
Test time: 13.6
Accumulative iteration time: 2974.3
Weighted Recall: 0.9293213149522798
Weighted FalsePositiveRate: 0.8417497583279399
Kappa statistic: 0.1500765598226072
Training time: 163.5
		
Iteration: 23
Labeled set size: 817
Unlabelled set size: 1069
	
Mean region size: 75.0
Incorrectly Classified Instances: 7.07847295864263
Correctly Classified Instances: 92.92152704135736
Weighted Precision: 0.8819599165621224
Weighted AreaUnderROC: 0.5473394930531084
Root mean squared error: 0.32358033234185346
Relative absolute error: 68.663838812301
Root relative squared error: 74.72767679281507
Weighted TruePositiveRate: 0.9292152704135737
Weighted MatthewsCorrelation: 0.25696767107359875
Weighted FMeasure: 0.898660397542959
Iteration time: 172.1
Weighted AreaUnderPRC: 0.868450840570768
Mean absolute error: 0.2574893955461287
Coverage of cases: 99.94697773064686
Instances selection time: 6.6
Test time: 13.4
Accumulative iteration time: 3146.4
Weighted Recall: 0.9292152704135737
Weighted FalsePositiveRate: 0.8436535782619003
Kappa statistic: 0.14746908536623066
Training time: 165.5
		
Iteration: 24
Labeled set size: 837
Unlabelled set size: 1049
	
Mean region size: 75.0
Incorrectly Classified Instances: 7.067868504772005
Correctly Classified Instances: 92.93213149522799
Weighted Precision: 0.8819487337155074
Weighted AreaUnderROC: 0.5486640934486926
Root mean squared error: 0.32354495184337784
Relative absolute error: 68.65794744903954
Root relative squared error: 74.71950601668748
Weighted TruePositiveRate: 0.9293213149522798
Weighted MatthewsCorrelation: 0.25982813554712847
Weighted FMeasure: 0.8988318849090122
Iteration time: 184.9
Weighted AreaUnderPRC: 0.8688005645522857
Mean absolute error: 0.2574673029338982
Coverage of cases: 99.94697773064686
Instances selection time: 5.9
Test time: 14.9
Accumulative iteration time: 3331.3
Weighted Recall: 0.9293213149522798
Weighted FalsePositiveRate: 0.8417497583279399
Kappa statistic: 0.1500765598226072
Training time: 179.0
		
Iteration: 25
Labeled set size: 857
Unlabelled set size: 1029
	
Mean region size: 75.0
Incorrectly Classified Instances: 7.067868504772005
Correctly Classified Instances: 92.93213149522799
Weighted Precision: 0.8819487337155074
Weighted AreaUnderROC: 0.5479621550158413
Root mean squared error: 0.32356772042512405
Relative absolute error: 68.6614822669964
Root relative squared error: 74.72476419540757
Weighted TruePositiveRate: 0.9293213149522798
Weighted MatthewsCorrelation: 0.25982813554712847
Weighted FMeasure: 0.8988318849090122
Iteration time: 193.1
Weighted AreaUnderPRC: 0.868612151635746
Mean absolute error: 0.25748055850123647
Coverage of cases: 99.94697773064686
Instances selection time: 5.5
Test time: 13.8
Accumulative iteration time: 3524.4
Weighted Recall: 0.9293213149522798
Weighted FalsePositiveRate: 0.8417497583279399
Kappa statistic: 0.1500765598226072
Training time: 187.6
		
Iteration: 26
Labeled set size: 877
Unlabelled set size: 1009
	
Mean region size: 75.0
Incorrectly Classified Instances: 7.073170731707319
Correctly Classified Instances: 92.92682926829268
Weighted Precision: 0.8818932887412044
Weighted AreaUnderROC: 0.5485070273950094
Root mean squared error: 0.3235517263980436
Relative absolute error: 68.65912572169184
Root relative squared error: 74.72107053307143
Weighted TruePositiveRate: 0.9292682926829267
Weighted MatthewsCorrelation: 0.25894658331392095
Weighted FMeasure: 0.8987573883644204
Iteration time: 195.8
Weighted AreaUnderPRC: 0.8688249383235028
Mean absolute error: 0.2574717214563443
Coverage of cases: 99.94697773064686
Instances selection time: 5.9
Test time: 14.3
Accumulative iteration time: 3720.2
Weighted Recall: 0.9292682926829267
Weighted FalsePositiveRate: 0.8423816675654361
Kappa statistic: 0.14907152265995305
Training time: 189.9
		
Iteration: 27
Labeled set size: 897
Unlabelled set size: 989
	
Mean region size: 75.0
Incorrectly Classified Instances: 7.094379639448569
Correctly Classified Instances: 92.90562036055141
Weighted Precision: 0.8817379482468706
Weighted AreaUnderROC: 0.5468420855493117
Root mean squared error: 0.32360642110593335
Relative absolute error: 68.66855190291015
Root relative squared error: 74.7337017348008
Weighted TruePositiveRate: 0.9290562036055141
Weighted MatthewsCorrelation: 0.2551499882587994
Weighted FMeasure: 0.8984079639974348
Iteration time: 212.4
Weighted AreaUnderPRC: 0.8681996593673134
Mean absolute error: 0.2575070696359131
Coverage of cases: 99.94697773064686
Instances selection time: 5.9
Test time: 13.4
Accumulative iteration time: 3932.6
Weighted Recall: 0.9290562036055141
Weighted FalsePositiveRate: 0.8455398290581788
Kappa statistic: 0.14404675160785071
Training time: 206.5
		
Iteration: 28
Labeled set size: 917
Unlabelled set size: 969
	
Mean region size: 75.0
Incorrectly Classified Instances: 7.110286320254508
Correctly Classified Instances: 92.88971367974548
Weighted Precision: 0.8816013154411146
Weighted AreaUnderROC: 0.5455614477578018
Root mean squared error: 0.32370178612052897
Relative absolute error: 68.68504772004225
Root relative squared error: 74.75572534154006
Weighted TruePositiveRate: 0.9288971367974547
Weighted MatthewsCorrelation: 0.250872286734735
Weighted FMeasure: 0.8980975805216636
Iteration time: 213.2
Weighted AreaUnderPRC: 0.8677753370637789
Mean absolute error: 0.25756892895015837
Coverage of cases: 99.94697773064686
Instances selection time: 6.5
Test time: 14.2
Accumulative iteration time: 4145.8
Weighted Recall: 0.9288971367974547
Weighted FalsePositiveRate: 0.8474497277673608
Kappa statistic: 0.14046013603284133
Training time: 206.7
		
Iteration: 29
Labeled set size: 937
Unlabelled set size: 949
	
Mean region size: 75.0
Incorrectly Classified Instances: 7.11558854718982
Correctly Classified Instances: 92.88441145281018
Weighted Precision: 0.8814408014204096
Weighted AreaUnderROC: 0.5445521692324957
Root mean squared error: 0.3237337058648795
Relative absolute error: 68.6897608106514
Root relative squared error: 74.76309689073733
Weighted TruePositiveRate: 0.9288441145281018
Weighted MatthewsCorrelation: 0.2497006003843197
Weighted FMeasure: 0.89804589222519
Iteration time: 202.2
Weighted AreaUnderPRC: 0.867457463160495
Mean absolute error: 0.2575866030399428
Coverage of cases: 99.94697773064686
Instances selection time: 6.5
Test time: 13.2
Accumulative iteration time: 4348.0
Weighted Recall: 0.9288441145281018
Weighted FalsePositiveRate: 0.8474511124620993
Kappa statistic: 0.14024754598222863
Training time: 195.7
		
Iteration: 30
Labeled set size: 957
Unlabelled set size: 929
	
Mean region size: 75.0
Incorrectly Classified Instances: 7.110286320254508
Correctly Classified Instances: 92.88971367974548
Weighted Precision: 0.8817200050720027
Weighted AreaUnderROC: 0.5452232217144644
Root mean squared error: 0.32370861631351056
Relative absolute error: 68.68622599269453
Root relative squared error: 74.75730270704264
Weighted TruePositiveRate: 0.9288971367974549
Weighted MatthewsCorrelation: 0.2498062164647375
Weighted FMeasure: 0.8980786538780059
Iteration time: 218.9
Weighted AreaUnderPRC: 0.8676934685088247
Mean absolute error: 0.25757334747260446
Coverage of cases: 99.94697773064686
Instances selection time: 5.9
Test time: 12.6
Accumulative iteration time: 4566.9
Weighted Recall: 0.9288971367974549
Weighted FalsePositiveRate: 0.8480897292263287
Kappa statistic: 0.13988992047383772
Training time: 213.0
		
Iteration: 31
Labeled set size: 977
Unlabelled set size: 909
	
Mean region size: 75.0
Incorrectly Classified Instances: 7.11558854718982
Correctly Classified Instances: 92.88441145281017
Weighted Precision: 0.8815458704668115
Weighted AreaUnderROC: 0.5452698794106914
Root mean squared error: 0.3237087771555101
Relative absolute error: 68.68622599269455
Root relative squared error: 74.75733985191133
Weighted TruePositiveRate: 0.9288441145281017
Weighted MatthewsCorrelation: 0.24999073450152748
Weighted FMeasure: 0.8980230839770718
Iteration time: 215.3
Weighted AreaUnderPRC: 0.8676402766692203
Mean absolute error: 0.2575733474726045
Coverage of cases: 99.94697773064686
Instances selection time: 6.5
Test time: 13.0
Accumulative iteration time: 4782.2
Weighted Recall: 0.9288441145281017
Weighted FalsePositiveRate: 0.8480816370048571
Kappa statistic: 0.13945509887018717
Training time: 208.8
		
Iteration: 32
Labeled set size: 997
Unlabelled set size: 889
	
Mean region size: 75.0
Incorrectly Classified Instances: 7.104984093319194
Correctly Classified Instances: 92.8950159066808
Weighted Precision: 0.8816560723904854
Weighted AreaUnderROC: 0.5458526059190412
Root mean squared error: 0.32370868573005523
Relative absolute error: 68.68622599269453
Root relative squared error: 74.75731873810693
Weighted TruePositiveRate: 0.9289501590668079
Weighted MatthewsCorrelation: 0.25173337273680474
Weighted FMeasure: 0.8981707267858161
Iteration time: 204.9
Weighted AreaUnderPRC: 0.867787831497895
Mean absolute error: 0.2575733474726045
Coverage of cases: 99.94697773064686
Instances selection time: 5.9
Test time: 13.2
Accumulative iteration time: 4987.1
Weighted Recall: 0.9289501590668079
Weighted FalsePositiveRate: 0.8468178185298647
Kappa statistic: 0.1414544665009631
Training time: 199.0
		
Iteration: 33
Labeled set size: 1017
Unlabelled set size: 869
	
Mean region size: 75.0
Incorrectly Classified Instances: 7.120890774125134
Correctly Classified Instances: 92.87910922587486
Weighted Precision: 0.881619411539903
Weighted AreaUnderROC: 0.5444908845736733
Root mean squared error: 0.3237496142596942
Relative absolute error: 68.6932956286083
Root relative squared error: 74.76677077714879
Weighted TruePositiveRate: 0.9287910922587486
Weighted MatthewsCorrelation: 0.24788240022695907
Weighted FMeasure: 0.8979168875349883
Iteration time: 205.4
Weighted AreaUnderPRC: 0.8675107457182628
Mean absolute error: 0.2575998586072811
Coverage of cases: 99.94697773064686
Instances selection time: 4.1
Test time: 10.7
Accumulative iteration time: 5192.5
Weighted Recall: 0.9287910922587486
Weighted FalsePositiveRate: 0.8493582713668856
Kappa statistic: 0.13778073434539823
Training time: 201.3
		
Iteration: 34
Labeled set size: 1037
Unlabelled set size: 849
	
Mean region size: 75.0
Incorrectly Classified Instances: 7.110286320254508
Correctly Classified Instances: 92.88971367974548
Weighted Precision: 0.8816013154411146
Weighted AreaUnderROC: 0.5454381891367137
Root mean squared error: 0.3237427978010934
Relative absolute error: 68.692117355956
Root relative squared error: 74.76519658346555
Weighted TruePositiveRate: 0.9288971367974547
Weighted MatthewsCorrelation: 0.250872286734735
Weighted FMeasure: 0.8980975805216636
Iteration time: 264.7
Weighted AreaUnderPRC: 0.8676489372456139
Mean absolute error: 0.2575954400848349
Coverage of cases: 99.94697773064686
Instances selection time: 4.3
Test time: 10.7
Accumulative iteration time: 5457.2
Weighted Recall: 0.9288971367974547
Weighted FalsePositiveRate: 0.8474497277673608
Kappa statistic: 0.14046013603284133
Training time: 260.4
		
Iteration: 35
Labeled set size: 1057
Unlabelled set size: 829
	
Mean region size: 75.0
Incorrectly Classified Instances: 7.110286320254508
Correctly Classified Instances: 92.88971367974548
Weighted Precision: 0.8816013154411146
Weighted AreaUnderROC: 0.5453982339113641
Root mean squared error: 0.32374276886340886
Relative absolute error: 68.692117355956
Root relative squared error: 74.76518990059358
Weighted TruePositiveRate: 0.9288971367974547
Weighted MatthewsCorrelation: 0.250872286734735
Weighted FMeasure: 0.8980975805216636
Iteration time: 211.4
Weighted AreaUnderPRC: 0.8676467591066919
Mean absolute error: 0.2575954400848349
Coverage of cases: 99.94697773064686
Instances selection time: 4.4
Test time: 12.2
Accumulative iteration time: 5668.6
Weighted Recall: 0.9288971367974547
Weighted FalsePositiveRate: 0.8474497277673608
Kappa statistic: 0.14046013603284133
Training time: 207.0
		
Iteration: 36
Labeled set size: 1077
Unlabelled set size: 809
	
Mean region size: 75.0
Incorrectly Classified Instances: 7.110286320254508
Correctly Classified Instances: 92.88971367974548
Weighted Precision: 0.8816013154411146
Weighted AreaUnderROC: 0.5454880887742932
Root mean squared error: 0.32372234358004215
Relative absolute error: 68.68858253799911
Root relative squared error: 74.76047288345356
Weighted TruePositiveRate: 0.9288971367974547
Weighted MatthewsCorrelation: 0.250872286734735
Weighted FMeasure: 0.8980975805216636
Iteration time: 226.5
Weighted AreaUnderPRC: 0.8676647148159035
Mean absolute error: 0.2575821845174967
Coverage of cases: 99.94697773064686
Instances selection time: 4.0
Test time: 11.2
Accumulative iteration time: 5895.1
Weighted Recall: 0.9288971367974547
Weighted FalsePositiveRate: 0.8474497277673608
Kappa statistic: 0.14046013603284133
Training time: 222.5
		
Iteration: 37
Labeled set size: 1097
Unlabelled set size: 789
	
Mean region size: 75.0
Incorrectly Classified Instances: 7.110286320254508
Correctly Classified Instances: 92.88971367974548
Weighted Precision: 0.8816013154411146
Weighted AreaUnderROC: 0.5455933532034707
Root mean squared error: 0.32368821694354144
Relative absolute error: 68.68269117473766
Root relative squared error: 74.75259167434545
Weighted TruePositiveRate: 0.9288971367974547
Weighted MatthewsCorrelation: 0.250872286734735
Weighted FMeasure: 0.8980975805216636
Iteration time: 212.8
Weighted AreaUnderPRC: 0.8677150005943371
Mean absolute error: 0.2575600919052662
Coverage of cases: 99.94697773064686
Instances selection time: 4.2
Test time: 11.3
Accumulative iteration time: 6107.9
Weighted Recall: 0.9288971367974547
Weighted FalsePositiveRate: 0.8474497277673608
Kappa statistic: 0.14046013603284133
Training time: 208.6
		
Iteration: 38
Labeled set size: 1117
Unlabelled set size: 769
	
Mean region size: 75.0
Incorrectly Classified Instances: 7.11558854718982
Correctly Classified Instances: 92.88441145281017
Weighted Precision: 0.8816741684892737
Weighted AreaUnderROC: 0.5448318597811503
Root mean squared error: 0.32373594395674693
Relative absolute error: 68.6909390833037
Root relative squared error: 74.76361375591419
Weighted TruePositiveRate: 0.9288441145281017
Weighted MatthewsCorrelation: 0.24874348622902884
Weighted FMeasure: 0.8979900337991407
Iteration time: 227.2
Weighted AreaUnderPRC: 0.8676026183317525
Mean absolute error: 0.25759102156238883
Coverage of cases: 99.94697773064686
Instances selection time: 3.8
Test time: 10.4
Accumulative iteration time: 6335.1
Weighted Recall: 0.9288441145281017
Weighted FalsePositiveRate: 0.8487263621293895
Kappa statistic: 0.13877506481351998
Training time: 223.4
		
Iteration: 39
Labeled set size: 1137
Unlabelled set size: 749
	
Mean region size: 75.0
Incorrectly Classified Instances: 7.104984093319194
Correctly Classified Instances: 92.8950159066808
Weighted Precision: 0.8816560723904854
Weighted AreaUnderROC: 0.5457989083264368
Root mean squared error: 0.3237222773841256
Relative absolute error: 68.68858253799911
Root relative squared error: 74.76045759616144
Weighted TruePositiveRate: 0.9289501590668079
Weighted MatthewsCorrelation: 0.25173337273680474
Weighted FMeasure: 0.8981707267858161
Iteration time: 227.0
Weighted AreaUnderPRC: 0.8677347363318114
Mean absolute error: 0.2575821845174967
Coverage of cases: 99.94697773064686
Instances selection time: 4.0
Test time: 11.0
Accumulative iteration time: 6562.1
Weighted Recall: 0.9289501590668079
Weighted FalsePositiveRate: 0.8468178185298647
Kappa statistic: 0.1414544665009631
Training time: 223.0
		
Iteration: 40
Labeled set size: 1157
Unlabelled set size: 729
	
Mean region size: 75.0
Incorrectly Classified Instances: 7.104984093319194
Correctly Classified Instances: 92.8950159066808
Weighted Precision: 0.8816560723904854
Weighted AreaUnderROC: 0.5457896752656527
Root mean squared error: 0.3237222408683183
Relative absolute error: 68.68858253799911
Root relative squared error: 74.76044916319698
Weighted TruePositiveRate: 0.9289501590668079
Weighted MatthewsCorrelation: 0.25173337273680474
Weighted FMeasure: 0.8981707267858161
Iteration time: 233.0
Weighted AreaUnderPRC: 0.8678219151587383
Mean absolute error: 0.2575821845174967
Coverage of cases: 99.94697773064686
Instances selection time: 3.6
Test time: 10.5
Accumulative iteration time: 6795.1
Weighted Recall: 0.9289501590668079
Weighted FalsePositiveRate: 0.8468178185298647
Kappa statistic: 0.1414544665009631
Training time: 229.4
		
Iteration: 41
Labeled set size: 1177
Unlabelled set size: 709
	
Mean region size: 75.0
Incorrectly Classified Instances: 7.104984093319194
Correctly Classified Instances: 92.8950159066808
Weighted Precision: 0.8816560723904854
Weighted AreaUnderROC: 0.545713754507281
Root mean squared error: 0.3237564479383191
Relative absolute error: 68.69447390126058
Root relative squared error: 74.76834894762625
Weighted TruePositiveRate: 0.9289501590668079
Weighted MatthewsCorrelation: 0.25173337273680474
Weighted FMeasure: 0.8981707267858161
Iteration time: 243.1
Weighted AreaUnderPRC: 0.8675530491418332
Mean absolute error: 0.25760427712972717
Coverage of cases: 99.94697773064686
Instances selection time: 3.0
Test time: 11.2
Accumulative iteration time: 7038.2
Weighted Recall: 0.9289501590668079
Weighted FalsePositiveRate: 0.8468178185298647
Kappa statistic: 0.1414544665009631
Training time: 240.1
		
Iteration: 42
Labeled set size: 1197
Unlabelled set size: 689
	
Mean region size: 75.0
Incorrectly Classified Instances: 7.104984093319194
Correctly Classified Instances: 92.8950159066808
Weighted Precision: 0.8816560723904854
Weighted AreaUnderROC: 0.5457222499315676
Root mean squared error: 0.3237428667101606
Relative absolute error: 68.69211735595599
Root relative squared error: 74.76521249733295
Weighted TruePositiveRate: 0.9289501590668079
Weighted MatthewsCorrelation: 0.25173337273680474
Weighted FMeasure: 0.8981707267858161
Iteration time: 243.3
Weighted AreaUnderPRC: 0.8675586546193557
Mean absolute error: 0.2575954400848349
Coverage of cases: 99.94697773064686
Instances selection time: 3.1
Test time: 10.7
Accumulative iteration time: 7281.5
Weighted Recall: 0.9289501590668079
Weighted FalsePositiveRate: 0.8468178185298647
Kappa statistic: 0.1414544665009631
Training time: 240.2
		
Iteration: 43
Labeled set size: 1217
Unlabelled set size: 669
	
Mean region size: 75.0
Incorrectly Classified Instances: 7.110286320254508
Correctly Classified Instances: 92.88971367974548
Weighted Precision: 0.8816105281477131
Weighted AreaUnderROC: 0.5454199203480378
Root mean squared error: 0.3237429105166654
Relative absolute error: 68.692117355956
Root relative squared error: 74.76522261401189
Weighted TruePositiveRate: 0.9288971367974549
Weighted MatthewsCorrelation: 0.2503138526344144
Weighted FMeasure: 0.8980673187797968
Iteration time: 257.7
Weighted AreaUnderPRC: 0.8675174181039855
Mean absolute error: 0.257595440084835
Coverage of cases: 99.94697773064686
Instances selection time: 3.7
Test time: 10.1
Accumulative iteration time: 7539.2
Weighted Recall: 0.9288971367974549
Weighted FalsePositiveRate: 0.8474544514329253
Kappa statistic: 0.14025901175990485
Training time: 254.0
		
Iteration: 44
Labeled set size: 1237
Unlabelled set size: 649
	
Mean region size: 75.0
Incorrectly Classified Instances: 7.120890774125134
Correctly Classified Instances: 92.87910922587486
Weighted Precision: 0.8815102754068924
Weighted AreaUnderROC: 0.5448016890765246
Root mean squared error: 0.32376333568990334
Relative absolute error: 68.69565217391288
Root relative squared error: 74.76993960571876
Weighted TruePositiveRate: 0.9287910922587486
Weighted MatthewsCorrelation: 0.24792889365034904
Weighted FMeasure: 0.8978878017269769
Iteration time: 282.0
Weighted AreaUnderPRC: 0.8673087263732666
Mean absolute error: 0.2576086956521732
Coverage of cases: 99.94697773064686
Instances selection time: 4.4
Test time: 11.7
Accumulative iteration time: 7821.2
Weighted Recall: 0.9287910922587486
Weighted FalsePositiveRate: 0.8487229935734822
Kappa statistic: 0.13805494687810896
Training time: 277.6
		
Iteration: 45
Labeled set size: 1257
Unlabelled set size: 629
	
Mean region size: 75.0
Incorrectly Classified Instances: 7.126193001060446
Correctly Classified Instances: 92.87380699893954
Weighted Precision: 0.8814548304325893
Weighted AreaUnderROC: 0.5443372106347559
Root mean squared error: 0.3238042613985742
Relative absolute error: 68.70272180982661
Root relative squared error: 74.77939099328592
Weighted TruePositiveRate: 0.9287380699893955
Weighted MatthewsCorrelation: 0.24704734141714152
Weighted FMeasure: 0.8978133051823851
Iteration time: 276.7
Weighted AreaUnderPRC: 0.8671976034118076
Mean absolute error: 0.2576352067868498
Coverage of cases: 99.94697773064686
Instances selection time: 3.8
Test time: 11.9
Accumulative iteration time: 8097.9
Weighted Recall: 0.9287380699893955
Weighted FalsePositiveRate: 0.8493549028109785
Kappa statistic: 0.13704990971545478
Training time: 272.9
		
Iteration: 46
Labeled set size: 1277
Unlabelled set size: 609
	
Mean region size: 75.0
Incorrectly Classified Instances: 7.11558854718982
Correctly Classified Instances: 92.88441145281017
Weighted Precision: 0.8815557711983425
Weighted AreaUnderROC: 0.5448779929399068
Root mean squared error: 0.32383142517437963
Relative absolute error: 68.7074349004358
Root relative squared error: 74.7856641985953
Weighted TruePositiveRate: 0.9288441145281017
Weighted MatthewsCorrelation: 0.24945276663234467
Weighted FMeasure: 0.8979941725156444
Iteration time: 264.7
Weighted AreaUnderPRC: 0.8673766127516809
Mean absolute error: 0.25765288087663424
Coverage of cases: 99.94697773064686
Instances selection time: 4.0
Test time: 11.6
Accumulative iteration time: 8362.6
Weighted Recall: 0.9288441145281017
Weighted FalsePositiveRate: 0.8480863606704215
Kappa statistic: 0.1392646812917831
Training time: 260.7
		
Time end:Sat Oct 07 11.50.13 EEST 2017