Sat Oct 07 12.08.03 EEST 2017
Dataset: hypothyroid
Test set size: 1886
Initial Labelled set size: 377
Initial Unlabelled set size: 1509
Batch mode: QBestBatchMode
Batch size: 20
Classifiers: SMO-1cores
Scenario: PoolBasedSamplingScenario
Query strategy: LeastConfidentSamplingQueryStrategy-1cores
Time begining: Sat Oct 07 12.08.03 EEST 2017
		
Iteration: 1
Labeled set size: 377
Unlabelled set size: 1509
	
Mean region size: 75.0
Incorrectly Classified Instances: 7.4761399787910925
Correctly Classified Instances: 92.5238600212089
Weighted Precision: 0.8788779225638212
Weighted AreaUnderROC: 0.5145158539551488
Root mean squared error: 0.3245801958269141
Relative absolute error: 68.83468834688331
Root relative squared error: 74.95858537371613
Weighted TruePositiveRate: 0.925238600212089
Weighted MatthewsCorrelation: 0.15465276995777924
Weighted FMeasure: 0.8911008853091638
Iteration time: 90.0
Weighted AreaUnderPRC: 0.8596273838998879
Mean absolute error: 0.2581300813008124
Coverage of cases: 99.94697773064688
Instances selection time: 6.0
Test time: 14.0
Accumulative iteration time: 90.0
Weighted Recall: 0.925238600212089
Weighted FalsePositiveRate: 0.8976523933155374
Kappa statistic: 0.05109796393168771
Training time: 84.0
		
Iteration: 2
Labeled set size: 397
Unlabelled set size: 1489
	
Mean region size: 75.0
Incorrectly Classified Instances: 7.4761399787910925
Correctly Classified Instances: 92.5238600212089
Weighted Precision: 0.8788779225638212
Weighted AreaUnderROC: 0.5173107114174182
Root mean squared error: 0.3238988287697695
Relative absolute error: 68.71686108165409
Root relative squared error: 74.80123039217237
Weighted TruePositiveRate: 0.925238600212089
Weighted MatthewsCorrelation: 0.15465276995777924
Weighted FMeasure: 0.8911008853091638
Iteration time: 83.0
Weighted AreaUnderPRC: 0.8626852018372041
Mean absolute error: 0.2576882290562028
Coverage of cases: 99.94697773064688
Instances selection time: 6.0
Test time: 12.0
Accumulative iteration time: 173.0
Weighted Recall: 0.925238600212089
Weighted FalsePositiveRate: 0.8976523933155374
Kappa statistic: 0.05109796393168771
Training time: 77.0
		
Iteration: 3
Labeled set size: 417
Unlabelled set size: 1469
	
Mean region size: 75.0
Incorrectly Classified Instances: 7.4761399787910925
Correctly Classified Instances: 92.5238600212089
Weighted Precision: 0.8788779225638212
Weighted AreaUnderROC: 0.5164722541787374
Root mean squared error: 0.3241033892939278
Relative absolute error: 68.75220926122286
Root relative squared error: 74.84847162164772
Weighted TruePositiveRate: 0.925238600212089
Weighted MatthewsCorrelation: 0.15465276995777924
Weighted FMeasure: 0.8911008853091638
Iteration time: 91.0
Weighted AreaUnderPRC: 0.8615960711521001
Mean absolute error: 0.2578207847295857
Coverage of cases: 99.94697773064688
Instances selection time: 6.0
Test time: 12.0
Accumulative iteration time: 264.0
Weighted Recall: 0.925238600212089
Weighted FalsePositiveRate: 0.8976523933155374
Kappa statistic: 0.05109796393168771
Training time: 85.0
		
Iteration: 4
Labeled set size: 437
Unlabelled set size: 1449
	
Mean region size: 75.0
Incorrectly Classified Instances: 7.4761399787910925
Correctly Classified Instances: 92.5238600212089
Weighted Precision: 0.8788779225638212
Weighted AreaUnderROC: 0.5159132826862836
Root mean squared error: 0.3242396912790493
Relative absolute error: 68.77577471426869
Root relative squared error: 74.8799492167681
Weighted TruePositiveRate: 0.925238600212089
Weighted MatthewsCorrelation: 0.15465276995777924
Weighted FMeasure: 0.8911008853091638
Iteration time: 105.0
Weighted AreaUnderPRC: 0.8609347459940212
Mean absolute error: 0.2579091551785076
Coverage of cases: 99.94697773064688
Instances selection time: 6.0
Test time: 11.0
Accumulative iteration time: 369.0
Weighted Recall: 0.925238600212089
Weighted FalsePositiveRate: 0.8976523933155374
Kappa statistic: 0.05109796393168771
Training time: 99.0
		
Iteration: 5
Labeled set size: 457
Unlabelled set size: 1429
	
Mean region size: 75.0
Incorrectly Classified Instances: 7.4761399787910925
Correctly Classified Instances: 92.5238600212089
Weighted Precision: 0.8788779225638212
Weighted AreaUnderROC: 0.5159132826862836
Root mean squared error: 0.3242396912790493
Relative absolute error: 68.77577471426869
Root relative squared error: 74.8799492167681
Weighted TruePositiveRate: 0.925238600212089
Weighted MatthewsCorrelation: 0.15465276995777924
Weighted FMeasure: 0.8911008853091638
Iteration time: 106.0
Weighted AreaUnderPRC: 0.8609347459940212
Mean absolute error: 0.2579091551785076
Coverage of cases: 99.94697773064688
Instances selection time: 8.0
Test time: 10.0
Accumulative iteration time: 475.0
Weighted Recall: 0.925238600212089
Weighted FalsePositiveRate: 0.8976523933155374
Kappa statistic: 0.05109796393168771
Training time: 98.0
		
Iteration: 6
Labeled set size: 477
Unlabelled set size: 1409
	
Mean region size: 75.0
Incorrectly Classified Instances: 7.4761399787910925
Correctly Classified Instances: 92.5238600212089
Weighted Precision: 0.8788779225638212
Weighted AreaUnderROC: 0.5159132826862836
Root mean squared error: 0.3242396912790493
Relative absolute error: 68.77577471426869
Root relative squared error: 74.8799492167681
Weighted TruePositiveRate: 0.925238600212089
Weighted MatthewsCorrelation: 0.15465276995777924
Weighted FMeasure: 0.8911008853091638
Iteration time: 107.0
Weighted AreaUnderPRC: 0.8609347459940212
Mean absolute error: 0.2579091551785076
Coverage of cases: 99.94697773064688
Instances selection time: 7.0
Test time: 10.0
Accumulative iteration time: 582.0
Weighted Recall: 0.925238600212089
Weighted FalsePositiveRate: 0.8976523933155374
Kappa statistic: 0.05109796393168771
Training time: 100.0
		
Iteration: 7
Labeled set size: 497
Unlabelled set size: 1389
	
Mean region size: 75.0
Incorrectly Classified Instances: 7.4761399787910925
Correctly Classified Instances: 92.5238600212089
Weighted Precision: 0.8788779225638212
Weighted AreaUnderROC: 0.5153543111938297
Root mean squared error: 0.32437593599041076
Relative absolute error: 68.79934016731453
Root relative squared error: 74.91141358508018
Weighted TruePositiveRate: 0.925238600212089
Weighted MatthewsCorrelation: 0.15465276995777924
Weighted FMeasure: 0.8911008853091638
Iteration time: 111.0
Weighted AreaUnderPRC: 0.8603417132742722
Mean absolute error: 0.2579975256274295
Coverage of cases: 99.94697773064688
Instances selection time: 7.0
Test time: 10.0
Accumulative iteration time: 693.0
Weighted Recall: 0.925238600212089
Weighted FalsePositiveRate: 0.8976523933155374
Kappa statistic: 0.05109796393168771
Training time: 104.0
		
Iteration: 8
Labeled set size: 517
Unlabelled set size: 1369
	
Mean region size: 75.0
Incorrectly Classified Instances: 7.4761399787910925
Correctly Classified Instances: 92.5238600212089
Weighted Precision: 0.8788779225638212
Weighted AreaUnderROC: 0.5153543111938297
Root mean squared error: 0.32437593599041076
Relative absolute error: 68.79934016731453
Root relative squared error: 74.91141358508018
Weighted TruePositiveRate: 0.925238600212089
Weighted MatthewsCorrelation: 0.15465276995777924
Weighted FMeasure: 0.8911008853091638
Iteration time: 132.0
Weighted AreaUnderPRC: 0.8603417132742722
Mean absolute error: 0.2579975256274295
Coverage of cases: 99.94697773064688
Instances selection time: 7.0
Test time: 10.0
Accumulative iteration time: 825.0
Weighted Recall: 0.925238600212089
Weighted FalsePositiveRate: 0.8976523933155374
Kappa statistic: 0.05109796393168771
Training time: 125.0
		
Iteration: 9
Labeled set size: 537
Unlabelled set size: 1349
	
Mean region size: 75.0
Incorrectly Classified Instances: 7.4761399787910925
Correctly Classified Instances: 92.5238600212089
Weighted Precision: 0.8788779225638212
Weighted AreaUnderROC: 0.5153543111938297
Root mean squared error: 0.32437593599041076
Relative absolute error: 68.79934016731453
Root relative squared error: 74.91141358508018
Weighted TruePositiveRate: 0.925238600212089
Weighted MatthewsCorrelation: 0.15465276995777924
Weighted FMeasure: 0.8911008853091638
Iteration time: 118.0
Weighted AreaUnderPRC: 0.8603417132742722
Mean absolute error: 0.2579975256274295
Coverage of cases: 99.94697773064688
Instances selection time: 8.0
Test time: 10.0
Accumulative iteration time: 943.0
Weighted Recall: 0.925238600212089
Weighted FalsePositiveRate: 0.8976523933155374
Kappa statistic: 0.05109796393168771
Training time: 110.0
		
Iteration: 10
Labeled set size: 557
Unlabelled set size: 1329
	
Mean region size: 75.0
Incorrectly Classified Instances: 7.4761399787910925
Correctly Classified Instances: 92.5238600212089
Weighted Precision: 0.8788779225638212
Weighted AreaUnderROC: 0.5153543111938297
Root mean squared error: 0.32437593599041076
Relative absolute error: 68.79934016731453
Root relative squared error: 74.91141358508018
Weighted TruePositiveRate: 0.925238600212089
Weighted MatthewsCorrelation: 0.15465276995777924
Weighted FMeasure: 0.8911008853091638
Iteration time: 136.0
Weighted AreaUnderPRC: 0.8603417132742722
Mean absolute error: 0.2579975256274295
Coverage of cases: 99.94697773064688
Instances selection time: 7.0
Test time: 10.0
Accumulative iteration time: 1079.0
Weighted Recall: 0.925238600212089
Weighted FalsePositiveRate: 0.8976523933155374
Kappa statistic: 0.05109796393168771
Training time: 129.0
		
Iteration: 11
Labeled set size: 577
Unlabelled set size: 1309
	
Mean region size: 75.0
Incorrectly Classified Instances: 7.4761399787910925
Correctly Classified Instances: 92.5238600212089
Weighted Precision: 0.8788779225638212
Weighted AreaUnderROC: 0.5153543111938297
Root mean squared error: 0.32437593599041076
Relative absolute error: 68.79934016731453
Root relative squared error: 74.91141358508018
Weighted TruePositiveRate: 0.925238600212089
Weighted MatthewsCorrelation: 0.15465276995777924
Weighted FMeasure: 0.8911008853091638
Iteration time: 145.0
Weighted AreaUnderPRC: 0.8603417132742722
Mean absolute error: 0.2579975256274295
Coverage of cases: 99.94697773064688
Instances selection time: 7.0
Test time: 10.0
Accumulative iteration time: 1224.0
Weighted Recall: 0.925238600212089
Weighted FalsePositiveRate: 0.8976523933155374
Kappa statistic: 0.05109796393168771
Training time: 138.0
		
Iteration: 12
Labeled set size: 597
Unlabelled set size: 1289
	
Mean region size: 75.0
Incorrectly Classified Instances: 7.4761399787910925
Correctly Classified Instances: 92.5238600212089
Weighted Precision: 0.8788779225638212
Weighted AreaUnderROC: 0.5153543111938297
Root mean squared error: 0.32437593599041076
Relative absolute error: 68.79934016731453
Root relative squared error: 74.91141358508018
Weighted TruePositiveRate: 0.925238600212089
Weighted MatthewsCorrelation: 0.15465276995777924
Weighted FMeasure: 0.8911008853091638
Iteration time: 136.0
Weighted AreaUnderPRC: 0.8603417132742722
Mean absolute error: 0.2579975256274295
Coverage of cases: 99.94697773064688
Instances selection time: 7.0
Test time: 10.0
Accumulative iteration time: 1360.0
Weighted Recall: 0.925238600212089
Weighted FalsePositiveRate: 0.8976523933155374
Kappa statistic: 0.05109796393168771
Training time: 129.0
		
Iteration: 13
Labeled set size: 617
Unlabelled set size: 1269
	
Mean region size: 75.0
Incorrectly Classified Instances: 7.4761399787910925
Correctly Classified Instances: 92.5238600212089
Weighted Precision: 0.8788779225638212
Weighted AreaUnderROC: 0.5153543111938297
Root mean squared error: 0.32437593599041076
Relative absolute error: 68.79934016731453
Root relative squared error: 74.91141358508018
Weighted TruePositiveRate: 0.925238600212089
Weighted MatthewsCorrelation: 0.15465276995777924
Weighted FMeasure: 0.8911008853091638
Iteration time: 135.0
Weighted AreaUnderPRC: 0.8603417132742722
Mean absolute error: 0.2579975256274295
Coverage of cases: 99.94697773064688
Instances selection time: 7.0
Test time: 10.0
Accumulative iteration time: 1495.0
Weighted Recall: 0.925238600212089
Weighted FalsePositiveRate: 0.8976523933155374
Kappa statistic: 0.05109796393168771
Training time: 128.0
		
Iteration: 14
Labeled set size: 637
Unlabelled set size: 1249
	
Mean region size: 75.0
Incorrectly Classified Instances: 7.4761399787910925
Correctly Classified Instances: 92.5238600212089
Weighted Precision: 0.8788779225638212
Weighted AreaUnderROC: 0.5153543111938297
Root mean squared error: 0.32437593599041076
Relative absolute error: 68.79934016731453
Root relative squared error: 74.91141358508018
Weighted TruePositiveRate: 0.925238600212089
Weighted MatthewsCorrelation: 0.15465276995777924
Weighted FMeasure: 0.8911008853091638
Iteration time: 168.0
Weighted AreaUnderPRC: 0.8603417132742722
Mean absolute error: 0.2579975256274295
Coverage of cases: 99.94697773064688
Instances selection time: 7.0
Test time: 10.0
Accumulative iteration time: 1663.0
Weighted Recall: 0.925238600212089
Weighted FalsePositiveRate: 0.8976523933155374
Kappa statistic: 0.05109796393168771
Training time: 161.0
		
Iteration: 15
Labeled set size: 657
Unlabelled set size: 1229
	
Mean region size: 75.0
Incorrectly Classified Instances: 7.4761399787910925
Correctly Classified Instances: 92.5238600212089
Weighted Precision: 0.8788779225638212
Weighted AreaUnderROC: 0.5147544622334628
Root mean squared error: 0.3245121235001506
Relative absolute error: 68.82290562036039
Root relative squared error: 74.9428647432436
Weighted TruePositiveRate: 0.925238600212089
Weighted MatthewsCorrelation: 0.15465276995777924
Weighted FMeasure: 0.8911008853091638
Iteration time: 148.0
Weighted AreaUnderPRC: 0.8600158920536857
Mean absolute error: 0.25808589607635146
Coverage of cases: 99.94697773064688
Instances selection time: 7.0
Test time: 11.0
Accumulative iteration time: 1811.0
Weighted Recall: 0.925238600212089
Weighted FalsePositiveRate: 0.8976523933155374
Kappa statistic: 0.05109796393168771
Training time: 141.0
		
Iteration: 16
Labeled set size: 677
Unlabelled set size: 1209
	
Mean region size: 75.0
Incorrectly Classified Instances: 7.4761399787910925
Correctly Classified Instances: 92.5238600212089
Weighted Precision: 0.8788779225638212
Weighted AreaUnderROC: 0.5179477788300526
Root mean squared error: 0.3245007767240321
Relative absolute error: 68.82290562036039
Root relative squared error: 74.94024431754504
Weighted TruePositiveRate: 0.925238600212089
Weighted MatthewsCorrelation: 0.15465276995777924
Weighted FMeasure: 0.8911008853091638
Iteration time: 142.0
Weighted AreaUnderPRC: 0.8603490179380722
Mean absolute error: 0.25808589607635146
Coverage of cases: 99.94697773064688
Instances selection time: 7.0
Test time: 9.0
Accumulative iteration time: 1953.0
Weighted Recall: 0.925238600212089
Weighted FalsePositiveRate: 0.8976523933155374
Kappa statistic: 0.05109796393168771
Training time: 135.0
		
Iteration: 17
Labeled set size: 697
Unlabelled set size: 1189
	
Mean region size: 75.0
Incorrectly Classified Instances: 7.4761399787910925
Correctly Classified Instances: 92.5238600212089
Weighted Precision: 0.8788779225638212
Weighted AreaUnderROC: 0.5179477788300526
Root mean squared error: 0.3245007767240321
Relative absolute error: 68.82290562036039
Root relative squared error: 74.94024431754504
Weighted TruePositiveRate: 0.925238600212089
Weighted MatthewsCorrelation: 0.15465276995777924
Weighted FMeasure: 0.8911008853091638
Iteration time: 163.0
Weighted AreaUnderPRC: 0.8603490179380722
Mean absolute error: 0.25808589607635146
Coverage of cases: 99.94697773064688
Instances selection time: 6.0
Test time: 10.0
Accumulative iteration time: 2116.0
Weighted Recall: 0.925238600212089
Weighted FalsePositiveRate: 0.8976523933155374
Kappa statistic: 0.05109796393168771
Training time: 157.0
		
Iteration: 18
Labeled set size: 717
Unlabelled set size: 1169
	
Mean region size: 75.0
Incorrectly Classified Instances: 7.4761399787910925
Correctly Classified Instances: 92.5238600212089
Weighted Precision: 0.8788779225638212
Weighted AreaUnderROC: 0.5179477788300526
Root mean squared error: 0.3245007767240321
Relative absolute error: 68.82290562036039
Root relative squared error: 74.94024431754504
Weighted TruePositiveRate: 0.925238600212089
Weighted MatthewsCorrelation: 0.15465276995777924
Weighted FMeasure: 0.8911008853091638
Iteration time: 151.0
Weighted AreaUnderPRC: 0.8603490179380722
Mean absolute error: 0.25808589607635146
Coverage of cases: 99.94697773064688
Instances selection time: 6.0
Test time: 10.0
Accumulative iteration time: 2267.0
Weighted Recall: 0.925238600212089
Weighted FalsePositiveRate: 0.8976523933155374
Kappa statistic: 0.05109796393168771
Training time: 145.0
		
Iteration: 19
Labeled set size: 737
Unlabelled set size: 1149
	
Mean region size: 75.0
Incorrectly Classified Instances: 7.4761399787910925
Correctly Classified Instances: 92.5238600212089
Weighted Precision: 0.8788779225638212
Weighted AreaUnderROC: 0.5179477788300526
Root mean squared error: 0.3245007767240321
Relative absolute error: 68.82290562036039
Root relative squared error: 74.94024431754504
Weighted TruePositiveRate: 0.925238600212089
Weighted MatthewsCorrelation: 0.15465276995777924
Weighted FMeasure: 0.8911008853091638
Iteration time: 225.0
Weighted AreaUnderPRC: 0.8603490179380722
Mean absolute error: 0.25808589607635146
Coverage of cases: 99.94697773064688
Instances selection time: 6.0
Test time: 10.0
Accumulative iteration time: 2492.0
Weighted Recall: 0.925238600212089
Weighted FalsePositiveRate: 0.8976523933155374
Kappa statistic: 0.05109796393168771
Training time: 219.0
		
Iteration: 20
Labeled set size: 757
Unlabelled set size: 1129
	
Mean region size: 75.0
Incorrectly Classified Instances: 7.4761399787910925
Correctly Classified Instances: 92.5238600212089
Weighted Precision: 0.8788779225638212
Weighted AreaUnderROC: 0.5179477788300526
Root mean squared error: 0.3245007767240321
Relative absolute error: 68.82290562036039
Root relative squared error: 74.94024431754504
Weighted TruePositiveRate: 0.925238600212089
Weighted MatthewsCorrelation: 0.15465276995777924
Weighted FMeasure: 0.8911008853091638
Iteration time: 155.0
Weighted AreaUnderPRC: 0.8603490179380722
Mean absolute error: 0.25808589607635146
Coverage of cases: 99.94697773064688
Instances selection time: 6.0
Test time: 10.0
Accumulative iteration time: 2647.0
Weighted Recall: 0.925238600212089
Weighted FalsePositiveRate: 0.8976523933155374
Kappa statistic: 0.05109796393168771
Training time: 149.0
		
Iteration: 21
Labeled set size: 777
Unlabelled set size: 1109
	
Mean region size: 75.0
Incorrectly Classified Instances: 7.4761399787910925
Correctly Classified Instances: 92.5238600212089
Weighted Precision: 0.8788779225638212
Weighted AreaUnderROC: 0.5179477788300526
Root mean squared error: 0.3245007767240321
Relative absolute error: 68.82290562036039
Root relative squared error: 74.94024431754504
Weighted TruePositiveRate: 0.925238600212089
Weighted MatthewsCorrelation: 0.15465276995777924
Weighted FMeasure: 0.8911008853091638
Iteration time: 217.0
Weighted AreaUnderPRC: 0.8603490179380722
Mean absolute error: 0.25808589607635146
Coverage of cases: 99.94697773064688
Instances selection time: 4.0
Test time: 11.0
Accumulative iteration time: 2864.0
Weighted Recall: 0.925238600212089
Weighted FalsePositiveRate: 0.8976523933155374
Kappa statistic: 0.05109796393168771
Training time: 213.0
		
Iteration: 22
Labeled set size: 797
Unlabelled set size: 1089
	
Mean region size: 75.0
Incorrectly Classified Instances: 7.4761399787910925
Correctly Classified Instances: 92.5238600212089
Weighted Precision: 0.8788779225638212
Weighted AreaUnderROC: 0.5176682930838257
Root mean squared error: 0.32456885143057257
Relative absolute error: 68.83468834688331
Root relative squared error: 74.95596549760349
Weighted TruePositiveRate: 0.925238600212089
Weighted MatthewsCorrelation: 0.15465276995777924
Weighted FMeasure: 0.8911008853091638
Iteration time: 181.0
Weighted AreaUnderPRC: 0.8601164856180097
Mean absolute error: 0.2581300813008124
Coverage of cases: 99.94697773064688
Instances selection time: 6.0
Test time: 10.0
Accumulative iteration time: 3045.0
Weighted Recall: 0.925238600212089
Weighted FalsePositiveRate: 0.8976523933155374
Kappa statistic: 0.05109796393168771
Training time: 175.0
		
Iteration: 23
Labeled set size: 817
Unlabelled set size: 1069
	
Mean region size: 75.0
Incorrectly Classified Instances: 7.4761399787910925
Correctly Classified Instances: 92.5238600212089
Weighted Precision: 0.8788779225638212
Weighted AreaUnderROC: 0.5179477788300526
Root mean squared error: 0.3245007767240321
Relative absolute error: 68.82290562036039
Root relative squared error: 74.94024431754504
Weighted TruePositiveRate: 0.925238600212089
Weighted MatthewsCorrelation: 0.15465276995777924
Weighted FMeasure: 0.8911008853091638
Iteration time: 177.0
Weighted AreaUnderPRC: 0.8603490179380722
Mean absolute error: 0.25808589607635146
Coverage of cases: 99.94697773064688
Instances selection time: 5.0
Test time: 9.0
Accumulative iteration time: 3222.0
Weighted Recall: 0.925238600212089
Weighted FalsePositiveRate: 0.8976523933155374
Kappa statistic: 0.05109796393168771
Training time: 172.0
		
Iteration: 24
Labeled set size: 837
Unlabelled set size: 1049
	
Mean region size: 75.0
Incorrectly Classified Instances: 7.4761399787910925
Correctly Classified Instances: 92.5238600212089
Weighted Precision: 0.8788779225638212
Weighted AreaUnderROC: 0.5144995029679836
Root mean squared error: 0.3245801958269141
Relative absolute error: 68.83468834688331
Root relative squared error: 74.95858537371613
Weighted TruePositiveRate: 0.925238600212089
Weighted MatthewsCorrelation: 0.15465276995777924
Weighted FMeasure: 0.8911008853091638
Iteration time: 168.0
Weighted AreaUnderPRC: 0.8596639218303731
Mean absolute error: 0.2581300813008124
Coverage of cases: 99.94697773064688
Instances selection time: 5.0
Test time: 11.0
Accumulative iteration time: 3390.0
Weighted Recall: 0.925238600212089
Weighted FalsePositiveRate: 0.8976523933155374
Kappa statistic: 0.05109796393168771
Training time: 163.0
		
Iteration: 25
Labeled set size: 857
Unlabelled set size: 1029
	
Mean region size: 75.0
Incorrectly Classified Instances: 7.4761399787910925
Correctly Classified Instances: 92.5238600212089
Weighted Precision: 0.8788779225638212
Weighted AreaUnderROC: 0.5142200172217567
Root mean squared error: 0.32464825388025553
Relative absolute error: 68.84647107340624
Root relative squared error: 74.974302707883
Weighted TruePositiveRate: 0.925238600212089
Weighted MatthewsCorrelation: 0.15465276995777924
Weighted FMeasure: 0.8911008853091638
Iteration time: 196.0
Weighted AreaUnderPRC: 0.8594671275595069
Mean absolute error: 0.25817426652527337
Coverage of cases: 99.94697773064688
Instances selection time: 4.0
Test time: 10.0
Accumulative iteration time: 3586.0
Weighted Recall: 0.925238600212089
Weighted FalsePositiveRate: 0.8976523933155374
Kappa statistic: 0.05109796393168771
Training time: 192.0
		
Iteration: 26
Labeled set size: 877
Unlabelled set size: 1009
	
Mean region size: 75.0
Incorrectly Classified Instances: 7.4761399787910925
Correctly Classified Instances: 92.5238600212089
Weighted Precision: 0.8788779225638212
Weighted AreaUnderROC: 0.5179477788300526
Root mean squared error: 0.3245007767240321
Relative absolute error: 68.82290562036039
Root relative squared error: 74.94024431754504
Weighted TruePositiveRate: 0.925238600212089
Weighted MatthewsCorrelation: 0.15465276995777924
Weighted FMeasure: 0.8911008853091638
Iteration time: 242.0
Weighted AreaUnderPRC: 0.8603490179380722
Mean absolute error: 0.25808589607635146
Coverage of cases: 99.94697773064688
Instances selection time: 4.0
Test time: 10.0
Accumulative iteration time: 3828.0
Weighted Recall: 0.925238600212089
Weighted FalsePositiveRate: 0.8976523933155374
Kappa statistic: 0.05109796393168771
Training time: 238.0
		
Iteration: 27
Labeled set size: 897
Unlabelled set size: 989
	
Mean region size: 75.0
Incorrectly Classified Instances: 7.4761399787910925
Correctly Classified Instances: 92.5238600212089
Weighted Precision: 0.8788779225638212
Weighted AreaUnderROC: 0.5179477788300526
Root mean squared error: 0.3245007767240321
Relative absolute error: 68.82290562036039
Root relative squared error: 74.94024431754504
Weighted TruePositiveRate: 0.925238600212089
Weighted MatthewsCorrelation: 0.15465276995777924
Weighted FMeasure: 0.8911008853091638
Iteration time: 168.0
Weighted AreaUnderPRC: 0.8603490179380722
Mean absolute error: 0.25808589607635146
Coverage of cases: 99.94697773064688
Instances selection time: 4.0
Test time: 10.0
Accumulative iteration time: 3996.0
Weighted Recall: 0.925238600212089
Weighted FalsePositiveRate: 0.8976523933155374
Kappa statistic: 0.05109796393168771
Training time: 164.0
		
Iteration: 28
Labeled set size: 917
Unlabelled set size: 969
	
Mean region size: 75.0
Incorrectly Classified Instances: 7.4761399787910925
Correctly Classified Instances: 92.5238600212089
Weighted Precision: 0.8788779225638212
Weighted AreaUnderROC: 0.5176682930838257
Root mean squared error: 0.32456885143057257
Relative absolute error: 68.83468834688331
Root relative squared error: 74.95596549760349
Weighted TruePositiveRate: 0.925238600212089
Weighted MatthewsCorrelation: 0.15465276995777924
Weighted FMeasure: 0.8911008853091638
Iteration time: 233.0
Weighted AreaUnderPRC: 0.8601164856180097
Mean absolute error: 0.2581300813008124
Coverage of cases: 99.94697773064688
Instances selection time: 4.0
Test time: 9.0
Accumulative iteration time: 4229.0
Weighted Recall: 0.925238600212089
Weighted FalsePositiveRate: 0.8976523933155374
Kappa statistic: 0.05109796393168771
Training time: 229.0
		
Iteration: 29
Labeled set size: 937
Unlabelled set size: 949
	
Mean region size: 75.0
Incorrectly Classified Instances: 7.4761399787910925
Correctly Classified Instances: 92.5238600212089
Weighted Precision: 0.8788779225638212
Weighted AreaUnderROC: 0.5176682930838257
Root mean squared error: 0.32456885143057257
Relative absolute error: 68.83468834688331
Root relative squared error: 74.95596549760349
Weighted TruePositiveRate: 0.925238600212089
Weighted MatthewsCorrelation: 0.15465276995777924
Weighted FMeasure: 0.8911008853091638
Iteration time: 212.0
Weighted AreaUnderPRC: 0.8601164856180097
Mean absolute error: 0.2581300813008124
Coverage of cases: 99.94697773064688
Instances selection time: 4.0
Test time: 9.0
Accumulative iteration time: 4441.0
Weighted Recall: 0.925238600212089
Weighted FalsePositiveRate: 0.8976523933155374
Kappa statistic: 0.05109796393168771
Training time: 208.0
		
Iteration: 30
Labeled set size: 957
Unlabelled set size: 929
	
Mean region size: 75.0
Incorrectly Classified Instances: 7.4761399787910925
Correctly Classified Instances: 92.5238600212089
Weighted Precision: 0.8788779225638212
Weighted AreaUnderROC: 0.5176682930838257
Root mean squared error: 0.32456885143057257
Relative absolute error: 68.83468834688331
Root relative squared error: 74.95596549760349
Weighted TruePositiveRate: 0.925238600212089
Weighted MatthewsCorrelation: 0.15465276995777924
Weighted FMeasure: 0.8911008853091638
Iteration time: 224.0
Weighted AreaUnderPRC: 0.8601164856180097
Mean absolute error: 0.2581300813008124
Coverage of cases: 99.94697773064688
Instances selection time: 4.0
Test time: 10.0
Accumulative iteration time: 4665.0
Weighted Recall: 0.925238600212089
Weighted FalsePositiveRate: 0.8976523933155374
Kappa statistic: 0.05109796393168771
Training time: 220.0
		
Iteration: 31
Labeled set size: 977
Unlabelled set size: 909
	
Mean region size: 75.0
Incorrectly Classified Instances: 7.4761399787910925
Correctly Classified Instances: 92.5238600212089
Weighted Precision: 0.8788779225638212
Weighted AreaUnderROC: 0.5144995029679836
Root mean squared error: 0.3245801958269141
Relative absolute error: 68.83468834688331
Root relative squared error: 74.95858537371613
Weighted TruePositiveRate: 0.925238600212089
Weighted MatthewsCorrelation: 0.15465276995777924
Weighted FMeasure: 0.8911008853091638
Iteration time: 226.0
Weighted AreaUnderPRC: 0.8596639218303731
Mean absolute error: 0.2581300813008124
Coverage of cases: 99.94697773064688
Instances selection time: 4.0
Test time: 10.0
Accumulative iteration time: 4891.0
Weighted Recall: 0.925238600212089
Weighted FalsePositiveRate: 0.8976523933155374
Kappa statistic: 0.05109796393168771
Training time: 222.0
		
Iteration: 32
Labeled set size: 997
Unlabelled set size: 889
	
Mean region size: 75.0
Incorrectly Classified Instances: 7.4761399787910925
Correctly Classified Instances: 92.5238600212089
Weighted Precision: 0.8788779225638212
Weighted AreaUnderROC: 0.5176682930838257
Root mean squared error: 0.32456885143057257
Relative absolute error: 68.83468834688331
Root relative squared error: 74.95596549760349
Weighted TruePositiveRate: 0.925238600212089
Weighted MatthewsCorrelation: 0.15465276995777924
Weighted FMeasure: 0.8911008853091638
Iteration time: 257.0
Weighted AreaUnderPRC: 0.8601164856180097
Mean absolute error: 0.2581300813008124
Coverage of cases: 99.94697773064688
Instances selection time: 4.0
Test time: 10.0
Accumulative iteration time: 5148.0
Weighted Recall: 0.925238600212089
Weighted FalsePositiveRate: 0.8976523933155374
Kappa statistic: 0.05109796393168771
Training time: 253.0
		
Iteration: 33
Labeled set size: 1017
Unlabelled set size: 869
	
Mean region size: 75.0
Incorrectly Classified Instances: 7.4761399787910925
Correctly Classified Instances: 92.5238600212089
Weighted Precision: 0.8788779225638212
Weighted AreaUnderROC: 0.5142200172217567
Root mean squared error: 0.32464825388025553
Relative absolute error: 68.84647107340624
Root relative squared error: 74.974302707883
Weighted TruePositiveRate: 0.925238600212089
Weighted MatthewsCorrelation: 0.15465276995777924
Weighted FMeasure: 0.8911008853091638
Iteration time: 269.0
Weighted AreaUnderPRC: 0.8594671275595069
Mean absolute error: 0.25817426652527337
Coverage of cases: 99.94697773064688
Instances selection time: 3.0
Test time: 10.0
Accumulative iteration time: 5417.0
Weighted Recall: 0.925238600212089
Weighted FalsePositiveRate: 0.8976523933155374
Kappa statistic: 0.05109796393168771
Training time: 266.0
		
Iteration: 34
Labeled set size: 1037
Unlabelled set size: 849
	
Mean region size: 75.0
Incorrectly Classified Instances: 7.4761399787910925
Correctly Classified Instances: 92.5238600212089
Weighted Precision: 0.8788779225638212
Weighted AreaUnderROC: 0.5179477788300526
Root mean squared error: 0.3245007767240321
Relative absolute error: 68.82290562036039
Root relative squared error: 74.94024431754504
Weighted TruePositiveRate: 0.925238600212089
Weighted MatthewsCorrelation: 0.15465276995777924
Weighted FMeasure: 0.8911008853091638
Iteration time: 228.0
Weighted AreaUnderPRC: 0.8603490179380722
Mean absolute error: 0.25808589607635146
Coverage of cases: 99.94697773064688
Instances selection time: 3.0
Test time: 10.0
Accumulative iteration time: 5645.0
Weighted Recall: 0.925238600212089
Weighted FalsePositiveRate: 0.8976523933155374
Kappa statistic: 0.05109796393168771
Training time: 225.0
		
Iteration: 35
Labeled set size: 1057
Unlabelled set size: 829
	
Mean region size: 75.0
Incorrectly Classified Instances: 7.4761399787910925
Correctly Classified Instances: 92.5238600212089
Weighted Precision: 0.8788779225638212
Weighted AreaUnderROC: 0.5176682930838257
Root mean squared error: 0.32456885143057257
Relative absolute error: 68.83468834688331
Root relative squared error: 74.95596549760349
Weighted TruePositiveRate: 0.925238600212089
Weighted MatthewsCorrelation: 0.15465276995777924
Weighted FMeasure: 0.8911008853091638
Iteration time: 252.0
Weighted AreaUnderPRC: 0.8601164856180097
Mean absolute error: 0.2581300813008124
Coverage of cases: 99.94697773064688
Instances selection time: 3.0
Test time: 10.0
Accumulative iteration time: 5897.0
Weighted Recall: 0.925238600212089
Weighted FalsePositiveRate: 0.8976523933155374
Kappa statistic: 0.05109796393168771
Training time: 249.0
		
Iteration: 36
Labeled set size: 1077
Unlabelled set size: 809
	
Mean region size: 75.0
Incorrectly Classified Instances: 7.4761399787910925
Correctly Classified Instances: 92.5238600212089
Weighted Precision: 0.8788779225638212
Weighted AreaUnderROC: 0.5142200172217567
Root mean squared error: 0.32464825388025553
Relative absolute error: 68.84647107340624
Root relative squared error: 74.974302707883
Weighted TruePositiveRate: 0.925238600212089
Weighted MatthewsCorrelation: 0.15465276995777924
Weighted FMeasure: 0.8911008853091638
Iteration time: 219.0
Weighted AreaUnderPRC: 0.8594671275595069
Mean absolute error: 0.25817426652527337
Coverage of cases: 99.94697773064688
Instances selection time: 4.0
Test time: 9.0
Accumulative iteration time: 6116.0
Weighted Recall: 0.925238600212089
Weighted FalsePositiveRate: 0.8976523933155374
Kappa statistic: 0.05109796393168771
Training time: 215.0
		
Iteration: 37
Labeled set size: 1097
Unlabelled set size: 789
	
Mean region size: 75.0
Incorrectly Classified Instances: 7.4761399787910925
Correctly Classified Instances: 92.5238600212089
Weighted Precision: 0.8788779225638212
Weighted AreaUnderROC: 0.5179477788300526
Root mean squared error: 0.3245007767240321
Relative absolute error: 68.82290562036039
Root relative squared error: 74.94024431754504
Weighted TruePositiveRate: 0.925238600212089
Weighted MatthewsCorrelation: 0.15465276995777924
Weighted FMeasure: 0.8911008853091638
Iteration time: 229.0
Weighted AreaUnderPRC: 0.8603490179380722
Mean absolute error: 0.25808589607635146
Coverage of cases: 99.94697773064688
Instances selection time: 4.0
Test time: 10.0
Accumulative iteration time: 6345.0
Weighted Recall: 0.925238600212089
Weighted FalsePositiveRate: 0.8976523933155374
Kappa statistic: 0.05109796393168771
Training time: 225.0
		
Iteration: 38
Labeled set size: 1117
Unlabelled set size: 769
	
Mean region size: 75.0
Incorrectly Classified Instances: 7.4761399787910925
Correctly Classified Instances: 92.5238600212089
Weighted Precision: 0.8788779225638212
Weighted AreaUnderROC: 0.5176682930838257
Root mean squared error: 0.32456885143057257
Relative absolute error: 68.83468834688331
Root relative squared error: 74.95596549760349
Weighted TruePositiveRate: 0.925238600212089
Weighted MatthewsCorrelation: 0.15465276995777924
Weighted FMeasure: 0.8911008853091638
Iteration time: 264.0
Weighted AreaUnderPRC: 0.8601164856180097
Mean absolute error: 0.2581300813008124
Coverage of cases: 99.94697773064688
Instances selection time: 3.0
Test time: 10.0
Accumulative iteration time: 6609.0
Weighted Recall: 0.925238600212089
Weighted FalsePositiveRate: 0.8976523933155374
Kappa statistic: 0.05109796393168771
Training time: 261.0
		
Iteration: 39
Labeled set size: 1137
Unlabelled set size: 749
	
Mean region size: 75.0
Incorrectly Classified Instances: 7.4761399787910925
Correctly Classified Instances: 92.5238600212089
Weighted Precision: 0.8788779225638212
Weighted AreaUnderROC: 0.5176682930838257
Root mean squared error: 0.32456885143057257
Relative absolute error: 68.83468834688331
Root relative squared error: 74.95596549760349
Weighted TruePositiveRate: 0.925238600212089
Weighted MatthewsCorrelation: 0.15465276995777924
Weighted FMeasure: 0.8911008853091638
Iteration time: 273.0
Weighted AreaUnderPRC: 0.8601164856180097
Mean absolute error: 0.2581300813008124
Coverage of cases: 99.94697773064688
Instances selection time: 4.0
Test time: 10.0
Accumulative iteration time: 6882.0
Weighted Recall: 0.925238600212089
Weighted FalsePositiveRate: 0.8976523933155374
Kappa statistic: 0.05109796393168771
Training time: 269.0
		
Iteration: 40
Labeled set size: 1157
Unlabelled set size: 729
	
Mean region size: 75.0
Incorrectly Classified Instances: 7.4761399787910925
Correctly Classified Instances: 92.5238600212089
Weighted Precision: 0.8788779225638212
Weighted AreaUnderROC: 0.5179477788300526
Root mean squared error: 0.3245007767240321
Relative absolute error: 68.82290562036039
Root relative squared error: 74.94024431754504
Weighted TruePositiveRate: 0.925238600212089
Weighted MatthewsCorrelation: 0.15465276995777924
Weighted FMeasure: 0.8911008853091638
Iteration time: 375.0
Weighted AreaUnderPRC: 0.8603490179380722
Mean absolute error: 0.25808589607635146
Coverage of cases: 99.94697773064688
Instances selection time: 3.0
Test time: 10.0
Accumulative iteration time: 7257.0
Weighted Recall: 0.925238600212089
Weighted FalsePositiveRate: 0.8976523933155374
Kappa statistic: 0.05109796393168771
Training time: 372.0
		
Iteration: 41
Labeled set size: 1177
Unlabelled set size: 709
	
Mean region size: 75.0
Incorrectly Classified Instances: 7.4761399787910925
Correctly Classified Instances: 92.5238600212089
Weighted Precision: 0.8788779225638212
Weighted AreaUnderROC: 0.5176682930838257
Root mean squared error: 0.32456885143057257
Relative absolute error: 68.83468834688331
Root relative squared error: 74.95596549760349
Weighted TruePositiveRate: 0.925238600212089
Weighted MatthewsCorrelation: 0.15465276995777924
Weighted FMeasure: 0.8911008853091638
Iteration time: 366.0
Weighted AreaUnderPRC: 0.8601164856180097
Mean absolute error: 0.2581300813008124
Coverage of cases: 99.94697773064688
Instances selection time: 3.0
Test time: 10.0
Accumulative iteration time: 7623.0
Weighted Recall: 0.925238600212089
Weighted FalsePositiveRate: 0.8976523933155374
Kappa statistic: 0.05109796393168771
Training time: 363.0
		
Iteration: 42
Labeled set size: 1197
Unlabelled set size: 689
	
Mean region size: 75.0
Incorrectly Classified Instances: 7.4761399787910925
Correctly Classified Instances: 92.5238600212089
Weighted Precision: 0.8788779225638212
Weighted AreaUnderROC: 0.5176682930838257
Root mean squared error: 0.32456885143057257
Relative absolute error: 68.83468834688331
Root relative squared error: 74.95596549760349
Weighted TruePositiveRate: 0.925238600212089
Weighted MatthewsCorrelation: 0.15465276995777924
Weighted FMeasure: 0.8911008853091638
Iteration time: 277.0
Weighted AreaUnderPRC: 0.8601164856180097
Mean absolute error: 0.2581300813008124
Coverage of cases: 99.94697773064688
Instances selection time: 3.0
Test time: 11.0
Accumulative iteration time: 7900.0
Weighted Recall: 0.925238600212089
Weighted FalsePositiveRate: 0.8976523933155374
Kappa statistic: 0.05109796393168771
Training time: 274.0
		
Iteration: 43
Labeled set size: 1217
Unlabelled set size: 669
	
Mean region size: 75.0
Incorrectly Classified Instances: 7.4761399787910925
Correctly Classified Instances: 92.5238600212089
Weighted Precision: 0.8788779225638212
Weighted AreaUnderROC: 0.5176682930838257
Root mean squared error: 0.32456885143057257
Relative absolute error: 68.83468834688331
Root relative squared error: 74.95596549760349
Weighted TruePositiveRate: 0.925238600212089
Weighted MatthewsCorrelation: 0.15465276995777924
Weighted FMeasure: 0.8911008853091638
Iteration time: 346.0
Weighted AreaUnderPRC: 0.8601164856180097
Mean absolute error: 0.2581300813008124
Coverage of cases: 99.94697773064688
Instances selection time: 3.0
Test time: 10.0
Accumulative iteration time: 8246.0
Weighted Recall: 0.925238600212089
Weighted FalsePositiveRate: 0.8976523933155374
Kappa statistic: 0.05109796393168771
Training time: 343.0
		
Iteration: 44
Labeled set size: 1237
Unlabelled set size: 649
	
Mean region size: 75.0
Incorrectly Classified Instances: 7.4761399787910925
Correctly Classified Instances: 92.5238600212089
Weighted Precision: 0.8788779225638212
Weighted AreaUnderROC: 0.5176682930838257
Root mean squared error: 0.32456885143057257
Relative absolute error: 68.83468834688331
Root relative squared error: 74.95596549760349
Weighted TruePositiveRate: 0.925238600212089
Weighted MatthewsCorrelation: 0.15465276995777924
Weighted FMeasure: 0.8911008853091638
Iteration time: 205.0
Weighted AreaUnderPRC: 0.8601164856180097
Mean absolute error: 0.2581300813008124
Coverage of cases: 99.94697773064688
Instances selection time: 3.0
Test time: 13.0
Accumulative iteration time: 8451.0
Weighted Recall: 0.925238600212089
Weighted FalsePositiveRate: 0.8976523933155374
Kappa statistic: 0.05109796393168771
Training time: 202.0
		
Iteration: 45
Labeled set size: 1257
Unlabelled set size: 629
	
Mean region size: 75.0
Incorrectly Classified Instances: 7.4761399787910925
Correctly Classified Instances: 92.5238600212089
Weighted Precision: 0.8788779225638212
Weighted AreaUnderROC: 0.5176682930838257
Root mean squared error: 0.32456885143057257
Relative absolute error: 68.83468834688331
Root relative squared error: 74.95596549760349
Weighted TruePositiveRate: 0.925238600212089
Weighted MatthewsCorrelation: 0.15465276995777924
Weighted FMeasure: 0.8911008853091638
Iteration time: 243.0
Weighted AreaUnderPRC: 0.8601164856180097
Mean absolute error: 0.2581300813008124
Coverage of cases: 99.94697773064688
Instances selection time: 3.0
Test time: 12.0
Accumulative iteration time: 8694.0
Weighted Recall: 0.925238600212089
Weighted FalsePositiveRate: 0.8976523933155374
Kappa statistic: 0.05109796393168771
Training time: 240.0
		
Iteration: 46
Labeled set size: 1277
Unlabelled set size: 609
	
Mean region size: 75.0
Incorrectly Classified Instances: 7.4761399787910925
Correctly Classified Instances: 92.5238600212089
Weighted Precision: 0.8788779225638212
Weighted AreaUnderROC: 0.5176682930838257
Root mean squared error: 0.32456885143057257
Relative absolute error: 68.83468834688331
Root relative squared error: 74.95596549760349
Weighted TruePositiveRate: 0.925238600212089
Weighted MatthewsCorrelation: 0.15465276995777924
Weighted FMeasure: 0.8911008853091638
Iteration time: 265.0
Weighted AreaUnderPRC: 0.8601164856180097
Mean absolute error: 0.2581300813008124
Coverage of cases: 99.94697773064688
Instances selection time: 3.0
Test time: 12.0
Accumulative iteration time: 8959.0
Weighted Recall: 0.925238600212089
Weighted FalsePositiveRate: 0.8976523933155374
Kappa statistic: 0.05109796393168771
Training time: 262.0
		
Time end:Sat Oct 07 12.08.15 EEST 2017