Sat Oct 07 12.15.30 EEST 2017
Dataset: hypothyroid
Test set size: 1886
Initial Labelled set size: 377
Initial Unlabelled set size: 1509
Batch mode: QBestBatchMode
Batch size: 20
Classifiers: IBk-1cores
Scenario: PoolBasedSamplingScenario
Query strategy: LeastConfidentSamplingQueryStrategy-1cores
Time begining: Sat Oct 07 12.15.30 EEST 2017
		
Iteration: 1
Labeled set size: 377
Unlabelled set size: 1509
	
Mean region size: 25.0
Incorrectly Classified Instances: 11.187698833510074
Correctly Classified Instances: 88.81230116648993
Weighted Precision: 0.892571405186613
Weighted AreaUnderROC: 0.6293875857328923
Root mean squared error: 0.23531212931359638
Relative absolute error: 15.807423703259381
Root relative squared error: 54.34300848111556
Weighted TruePositiveRate: 0.8881230116648993
Weighted MatthewsCorrelation: 0.2540697646303361
Weighted FMeasure: 0.8900138826586996
Iteration time: 370.0
Weighted AreaUnderPRC: 0.8806195097146741
Mean absolute error: 0.059277838887222684
Coverage of cases: 88.81230116648993
Instances selection time: 370.0
Test time: 470.0
Accumulative iteration time: 370.0
Weighted Recall: 0.8881230116648993
Weighted FalsePositiveRate: 0.6332888693788322
Kappa statistic: 0.23255266791634874
Training time: 0.0
		
Iteration: 2
Labeled set size: 397
Unlabelled set size: 1489
	
Mean region size: 25.0
Incorrectly Classified Instances: 11.240721102863203
Correctly Classified Instances: 88.7592788971368
Weighted Precision: 0.8906562227497319
Weighted AreaUnderROC: 0.6196594634746445
Root mean squared error: 0.23592700927010873
Relative absolute error: 15.833000599944066
Root relative squared error: 54.48500892448025
Weighted TruePositiveRate: 0.887592788971368
Weighted MatthewsCorrelation: 0.2376470960436171
Weighted FMeasure: 0.888699275637507
Iteration time: 378.0
Weighted AreaUnderPRC: 0.8783925747512835
Mean absolute error: 0.059373752249790246
Coverage of cases: 88.7592788971368
Instances selection time: 378.0
Test time: 486.0
Accumulative iteration time: 748.0
Weighted Recall: 0.887592788971368
Weighted FalsePositiveRate: 0.652330358872807
Kappa statistic: 0.21885842893313703
Training time: 0.0
		
Iteration: 3
Labeled set size: 417
Unlabelled set size: 1469
	
Mean region size: 25.0
Incorrectly Classified Instances: 10.922587486744433
Correctly Classified Instances: 89.07741251325557
Weighted Precision: 0.8912124329996839
Weighted AreaUnderROC: 0.6213363779520062
Root mean squared error: 0.23261751584640603
Relative absolute error: 15.372691826685896
Root relative squared error: 53.720714156857824
Weighted TruePositiveRate: 0.8907741251325557
Weighted MatthewsCorrelation: 0.24554621646312705
Weighted FMeasure: 0.8905849234619964
Iteration time: 389.0
Weighted AreaUnderPRC: 0.878678727676907
Mean absolute error: 0.057647594350072114
Coverage of cases: 89.07741251325557
Instances selection time: 389.0
Test time: 510.0
Accumulative iteration time: 1137.0
Weighted Recall: 0.8907741251325557
Weighted FalsePositiveRate: 0.6521578660792713
Kappa statistic: 0.22605141117786776
Training time: 0.0
		
Iteration: 4
Labeled set size: 437
Unlabelled set size: 1449
	
Mean region size: 25.0
Incorrectly Classified Instances: 10.922587486744433
Correctly Classified Instances: 89.07741251325557
Weighted Precision: 0.8912124329996839
Weighted AreaUnderROC: 0.6211335531094699
Root mean squared error: 0.23266489340483448
Relative absolute error: 15.336230361668136
Root relative squared error: 53.731655535302714
Weighted TruePositiveRate: 0.8907741251325557
Weighted MatthewsCorrelation: 0.24554621646312705
Weighted FMeasure: 0.8905849234619964
Iteration time: 402.0
Weighted AreaUnderPRC: 0.8786463843722438
Mean absolute error: 0.05751086385625551
Coverage of cases: 89.07741251325557
Instances selection time: 402.0
Test time: 531.0
Accumulative iteration time: 1539.0
Weighted Recall: 0.8907741251325557
Weighted FalsePositiveRate: 0.6521578660792713
Kappa statistic: 0.22605141117786776
Training time: 0.0
		
Iteration: 5
Labeled set size: 457
Unlabelled set size: 1429
	
Mean region size: 25.0
Incorrectly Classified Instances: 10.445387062566278
Correctly Classified Instances: 89.55461293743372
Weighted Precision: 0.8944569613629042
Weighted AreaUnderROC: 0.6236109305696358
Root mean squared error: 0.22756941591811544
Relative absolute error: 14.67195721160815
Root relative squared error: 52.55490541585994
Weighted TruePositiveRate: 0.8955461293743372
Weighted MatthewsCorrelation: 0.2591425264721278
Weighted FMeasure: 0.8940688220365686
Iteration time: 413.0
Weighted AreaUnderPRC: 0.8801825413176744
Mean absolute error: 0.05501983954353056
Coverage of cases: 89.55461293743372
Instances selection time: 413.0
Test time: 554.0
Accumulative iteration time: 1952.0
Weighted Recall: 0.8955461293743372
Weighted FalsePositiveRate: 0.6519751154007206
Kappa statistic: 0.23699547793800507
Training time: 0.0
		
Iteration: 6
Labeled set size: 477
Unlabelled set size: 1409
	
Mean region size: 25.0
Incorrectly Classified Instances: 9.809119830328738
Correctly Classified Instances: 90.19088016967126
Weighted Precision: 0.8949154074269142
Weighted AreaUnderROC: 0.6238137583027243
Root mean squared error: 0.22056893709582653
Relative absolute error: 13.79968772601439
Root relative squared error: 50.93821408285803
Weighted TruePositiveRate: 0.9019088016967126
Weighted MatthewsCorrelation: 0.27314340906657797
Weighted FMeasure: 0.8974151096681033
Iteration time: 423.0
Weighted AreaUnderPRC: 0.8802477471098
Mean absolute error: 0.051748828972553965
Coverage of cases: 90.19088016967126
Instances selection time: 423.0
Test time: 580.0
Accumulative iteration time: 2375.0
Weighted Recall: 0.9019088016967126
Weighted FalsePositiveRate: 0.6579677100453335
Kappa statistic: 0.2479253335632528
Training time: 0.0
		
Iteration: 7
Labeled set size: 497
Unlabelled set size: 1389
	
Mean region size: 25.0
Incorrectly Classified Instances: 9.75609756097561
Correctly Classified Instances: 90.2439024390244
Weighted Precision: 0.8950350678711531
Weighted AreaUnderROC: 0.6245028468216256
Root mean squared error: 0.2200066427026095
Relative absolute error: 13.700356957667076
Root relative squared error: 50.808357755142964
Weighted TruePositiveRate: 0.9024390243902439
Weighted MatthewsCorrelation: 0.2748363159792906
Weighted FMeasure: 0.8977307632622145
Iteration time: 436.0
Weighted AreaUnderPRC: 0.8803630168679031
Mean absolute error: 0.051376338591251534
Coverage of cases: 90.2439024390244
Instances selection time: 435.0
Test time: 599.0
Accumulative iteration time: 2811.0
Weighted Recall: 0.9024390243902439
Weighted FalsePositiveRate: 0.6579389612464108
Kappa statistic: 0.24933050103182902
Training time: 1.0
		
Iteration: 8
Labeled set size: 517
Unlabelled set size: 1369
	
Mean region size: 25.0
Incorrectly Classified Instances: 9.490986214209968
Correctly Classified Instances: 90.50901378579003
Weighted Precision: 0.895665955843596
Weighted AreaUnderROC: 0.6259002755527604
Root mean squared error: 0.21702902500029897
Relative absolute error: 13.323015679233274
Root relative squared error: 50.12070640235385
Weighted TruePositiveRate: 0.9050901378579003
Weighted MatthewsCorrelation: 0.2836086447421761
Weighted FMeasure: 0.8993133713605063
Iteration time: 443.0
Weighted AreaUnderPRC: 0.8806212724295109
Mean absolute error: 0.04996130879712478
Coverage of cases: 90.50901378579003
Instances selection time: 443.0
Test time: 630.0
Accumulative iteration time: 3254.0
Weighted Recall: 0.9050901378579003
Weighted FalsePositiveRate: 0.6577952172517979
Kappa statistic: 0.25650896565697473
Training time: 0.0
		
Iteration: 9
Labeled set size: 537
Unlabelled set size: 1349
	
Mean region size: 25.0
Incorrectly Classified Instances: 9.384941675503711
Correctly Classified Instances: 90.61505832449629
Weighted Precision: 0.8950286734420305
Weighted AreaUnderROC: 0.623312198911181
Root mean squared error: 0.21584245593167925
Relative absolute error: 13.157959478897203
Root relative squared error: 49.84668001388198
Weighted TruePositiveRate: 0.9061505832449629
Weighted MatthewsCorrelation: 0.2823880209192576
Weighted FMeasure: 0.8994697669239922
Iteration time: 455.0
Weighted AreaUnderPRC: 0.8801831244399223
Mean absolute error: 0.04934234804586451
Coverage of cases: 90.61505832449629
Instances selection time: 455.0
Test time: 644.0
Accumulative iteration time: 3709.0
Weighted Recall: 0.9061505832449629
Weighted FalsePositiveRate: 0.6640752998856366
Kappa statistic: 0.2540123801649199
Training time: 0.0
		
Iteration: 10
Labeled set size: 557
Unlabelled set size: 1329
	
Mean region size: 25.0
Incorrectly Classified Instances: 9.384941675503711
Correctly Classified Instances: 90.61505832449629
Weighted Precision: 0.8950286734420305
Weighted AreaUnderROC: 0.6239325327015948
Root mean squared error: 0.21586942175828144
Relative absolute error: 13.134283884689895
Root relative squared error: 49.852907504781065
Weighted TruePositiveRate: 0.9061505832449629
Weighted MatthewsCorrelation: 0.2823880209192576
Weighted FMeasure: 0.8994697669239922
Iteration time: 461.0
Weighted AreaUnderPRC: 0.880280322191982
Mean absolute error: 0.04925356456758711
Coverage of cases: 90.61505832449629
Instances selection time: 461.0
Test time: 668.0
Accumulative iteration time: 4170.0
Weighted Recall: 0.9061505832449629
Weighted FalsePositiveRate: 0.6640752998856366
Kappa statistic: 0.2540123801649199
Training time: 0.0
		
Iteration: 11
Labeled set size: 577
Unlabelled set size: 1309
	
Mean region size: 25.0
Incorrectly Classified Instances: 9.384941675503711
Correctly Classified Instances: 90.61505832449629
Weighted Precision: 0.8950286734420305
Weighted AreaUnderROC: 0.6239325327015948
Root mean squared error: 0.21589461156912415
Relative absolute error: 13.112905662713674
Root relative squared error: 49.85872484240941
Weighted TruePositiveRate: 0.9061505832449629
Weighted MatthewsCorrelation: 0.2823880209192576
Weighted FMeasure: 0.8994697669239922
Iteration time: 471.0
Weighted AreaUnderPRC: 0.880280322191982
Mean absolute error: 0.04917339623517628
Coverage of cases: 90.61505832449629
Instances selection time: 471.0
Test time: 688.0
Accumulative iteration time: 4641.0
Weighted Recall: 0.9061505832449629
Weighted FalsePositiveRate: 0.6640752998856366
Kappa statistic: 0.2540123801649199
Training time: 0.0
		
Iteration: 12
Labeled set size: 597
Unlabelled set size: 1289
	
Mean region size: 25.0
Incorrectly Classified Instances: 9.384941675503711
Correctly Classified Instances: 90.61505832449629
Weighted Precision: 0.8942674145719521
Weighted AreaUnderROC: 0.6176461463851483
Root mean squared error: 0.2159181691403093
Relative absolute error: 13.092950304202098
Root relative squared error: 49.864165230435496
Weighted TruePositiveRate: 0.9061505832449629
Weighted MatthewsCorrelation: 0.2699882382307825
Weighted FMeasure: 0.8990533423839155
Iteration time: 478.0
Weighted AreaUnderPRC: 0.8793754456954073
Mean absolute error: 0.04909856364075787
Coverage of cases: 90.61505832449629
Instances selection time: 478.0
Test time: 712.0
Accumulative iteration time: 5119.0
Weighted Recall: 0.9061505832449629
Weighted FalsePositiveRate: 0.6767504603490049
Kappa statistic: 0.24849055159589545
Training time: 0.0
		
Iteration: 13
Labeled set size: 617
Unlabelled set size: 1269
	
Mean region size: 25.0
Incorrectly Classified Instances: 8.960763520678684
Correctly Classified Instances: 91.03923647932132
Weighted Precision: 0.8987250649691098
Weighted AreaUnderROC: 0.6198440380990875
Root mean squared error: 0.2110046470436128
Relative absolute error: 12.512352428027745
Root relative squared error: 48.72943590835673
Weighted TruePositiveRate: 0.9103923647932132
Weighted MatthewsCorrelation: 0.2866133818960794
Weighted FMeasure: 0.9023218186122931
Iteration time: 484.0
Weighted AreaUnderPRC: 0.8813737395419353
Mean absolute error: 0.04692132160510404
Coverage of cases: 91.03923647932132
Instances selection time: 484.0
Test time: 732.0
Accumulative iteration time: 5603.0
Weighted Recall: 0.9103923647932132
Weighted FalsePositiveRate: 0.676596458469377
Kappa statistic: 0.2601346332404829
Training time: 0.0
		
Iteration: 14
Labeled set size: 637
Unlabelled set size: 1249
	
Mean region size: 25.0
Incorrectly Classified Instances: 8.8016967126193
Correctly Classified Instances: 91.1983032873807
Weighted Precision: 0.899189119853973
Weighted AreaUnderROC: 0.6206824953377683
Root mean squared error: 0.20914377681434837
Relative absolute error: 12.283968270803575
Root relative squared error: 48.29968633723961
Weighted TruePositiveRate: 0.911983032873807
Weighted MatthewsCorrelation: 0.29287267330067324
Weighted FMeasure: 0.903273158540769
Iteration time: 493.0
Weighted AreaUnderPRC: 0.8815358428517608
Mean absolute error: 0.046064881015513405
Coverage of cases: 91.1983032873807
Instances selection time: 493.0
Test time: 757.0
Accumulative iteration time: 6096.0
Weighted Recall: 0.911983032873807
Weighted FalsePositiveRate: 0.6765102120726091
Kappa statistic: 0.2648520198747031
Training time: 0.0
		
Iteration: 15
Labeled set size: 657
Unlabelled set size: 1229
	
Mean region size: 25.0
Incorrectly Classified Instances: 8.695652173913043
Correctly Classified Instances: 91.30434782608695
Weighted Precision: 0.8995168621397869
Weighted AreaUnderROC: 0.6212414668302222
Root mean squared error: 0.2078989705806893
Relative absolute error: 12.12683875823518
Root relative squared error: 48.01221065160283
Weighted TruePositiveRate: 0.9130434782608695
Weighted MatthewsCorrelation: 0.29720149078721175
Weighted FMeasure: 0.9039092958857264
Iteration time: 499.0
Weighted AreaUnderPRC: 0.8816462172592876
Mean absolute error: 0.04547564534338193
Coverage of cases: 91.30434782608695
Instances selection time: 499.0
Test time: 776.0
Accumulative iteration time: 6595.0
Weighted Recall: 0.9130434782608695
Weighted FalsePositiveRate: 0.676452714474764
Kappa statistic: 0.26805811917270056
Training time: 0.0
		
Iteration: 16
Labeled set size: 677
Unlabelled set size: 1209
	
Mean region size: 25.0
Incorrectly Classified Instances: 8.377518557794273
Correctly Classified Instances: 91.62248144220572
Weighted Precision: 0.9006043307129499
Weighted AreaUnderROC: 0.6229183813075838
Root mean squared error: 0.20407838922973165
Relative absolute error: 11.689509156689317
Root relative squared error: 47.12988518302832
Weighted TruePositiveRate: 0.9162248144220573
Weighted MatthewsCorrelation: 0.3110170310293599
Weighted FMeasure: 0.9058277874727779
Iteration time: 502.0
Weighted AreaUnderPRC: 0.8819903921977468
Mean absolute error: 0.04383565933758493
Coverage of cases: 91.62248144220572
Instances selection time: 502.0
Test time: 802.0
Accumulative iteration time: 7097.0
Weighted Recall: 0.9162248144220573
Weighted FalsePositiveRate: 0.6762802216812283
Kappa statistic: 0.27798292288159393
Training time: 0.0
		
Iteration: 17
Labeled set size: 697
Unlabelled set size: 1189
	
Mean region size: 25.0
Incorrectly Classified Instances: 8.377518557794273
Correctly Classified Instances: 91.62248144220572
Weighted Precision: 0.9006043307129499
Weighted AreaUnderROC: 0.6229183813075838
Root mean squared error: 0.20409470040826314
Relative absolute error: 11.674687742388592
Root relative squared error: 47.1336520883547
Weighted TruePositiveRate: 0.9162248144220573
Weighted MatthewsCorrelation: 0.3110170310293599
Weighted FMeasure: 0.9058277874727779
Iteration time: 510.0
Weighted AreaUnderPRC: 0.8819903921977468
Mean absolute error: 0.04378007903395722
Coverage of cases: 91.62248144220572
Instances selection time: 510.0
Test time: 819.0
Accumulative iteration time: 7607.0
Weighted Recall: 0.9162248144220573
Weighted FalsePositiveRate: 0.6762802216812283
Kappa statistic: 0.27798292288159393
Training time: 0.0
		
Iteration: 18
Labeled set size: 717
Unlabelled set size: 1169
	
Mean region size: 25.0
Incorrectly Classified Instances: 8.21845174973489
Correctly Classified Instances: 91.78154825026512
Weighted Precision: 0.9012179106511641
Weighted AreaUnderROC: 0.6237568385462648
Root mean squared error: 0.20216335752288983
Relative absolute error: 11.449776168476617
Root relative squared error: 46.6876275544476
Weighted TruePositiveRate: 0.9178154825026511
Weighted MatthewsCorrelation: 0.31844329929451587
Weighted FMeasure: 0.906793259327866
Iteration time: 531.0
Weighted AreaUnderPRC: 0.8821712074883096
Mean absolute error: 0.04293666063178731
Coverage of cases: 91.78154825026512
Instances selection time: 531.0
Test time: 847.0
Accumulative iteration time: 8138.0
Weighted Recall: 0.9178154825026511
Weighted FalsePositiveRate: 0.6761939752844605
Kappa statistic: 0.28312538010319166
Training time: 0.0
		
Iteration: 19
Labeled set size: 737
Unlabelled set size: 1149
	
Mean region size: 25.0
Incorrectly Classified Instances: 8.21845174973489
Correctly Classified Instances: 91.78154825026512
Weighted Precision: 0.9012179106511641
Weighted AreaUnderROC: 0.6237568385462648
Root mean squared error: 0.20217781948648958
Relative absolute error: 11.436500972714603
Root relative squared error: 46.69096740187854
Weighted TruePositiveRate: 0.9178154825026511
Weighted MatthewsCorrelation: 0.31844329929451587
Weighted FMeasure: 0.906793259327866
Iteration time: 520.0
Weighted AreaUnderPRC: 0.8821712074883096
Mean absolute error: 0.04288687864767976
Coverage of cases: 91.78154825026512
Instances selection time: 520.0
Test time: 869.0
Accumulative iteration time: 8658.0
Weighted Recall: 0.9178154825026511
Weighted FalsePositiveRate: 0.6761939752844605
Kappa statistic: 0.28312538010319166
Training time: 0.0
		
Iteration: 20
Labeled set size: 757
Unlabelled set size: 1129
	
Mean region size: 25.0
Incorrectly Classified Instances: 8.059384941675503
Correctly Classified Instances: 91.9406150583245
Weighted Precision: 0.9018882815090988
Weighted AreaUnderROC: 0.6245952957849455
Root mean squared error: 0.20022553542925978
Relative absolute error: 11.212949275018373
Root relative squared error: 46.24010671148803
Weighted TruePositiveRate: 0.9194061505832449
Weighted MatthewsCorrelation: 0.32625913006896606
Weighted FMeasure: 0.9077633232969162
Iteration time: 523.0
Weighted AreaUnderPRC: 0.8823591061556076
Mean absolute error: 0.04204855978131889
Coverage of cases: 91.9406150583245
Instances selection time: 523.0
Test time: 883.0
Accumulative iteration time: 9181.0
Weighted Recall: 0.9194061505832449
Weighted FalsePositiveRate: 0.6761077288876928
Kappa statistic: 0.2883937525443585
Training time: 0.0
		
Iteration: 21
Labeled set size: 777
Unlabelled set size: 1109
	
Mean region size: 25.0
Incorrectly Classified Instances: 8.059384941675503
Correctly Classified Instances: 91.9406150583245
Weighted Precision: 0.9018882815090988
Weighted AreaUnderROC: 0.6245952957849455
Root mean squared error: 0.20023842961628993
Relative absolute error: 11.200987491934988
Root relative squared error: 46.24308449642918
Weighted TruePositiveRate: 0.9194061505832449
Weighted MatthewsCorrelation: 0.32625913006896606
Weighted FMeasure: 0.9077633232969162
Iteration time: 527.0
Weighted AreaUnderPRC: 0.8823591061556076
Mean absolute error: 0.042003703094756206
Coverage of cases: 91.9406150583245
Instances selection time: 527.0
Test time: 905.0
Accumulative iteration time: 9708.0
Weighted Recall: 0.9194061505832449
Weighted FalsePositiveRate: 0.6761077288876928
Kappa statistic: 0.2883937525443585
Training time: 0.0
		
Iteration: 22
Labeled set size: 797
Unlabelled set size: 1089
	
Mean region size: 25.0
Incorrectly Classified Instances: 8.006362672322375
Correctly Classified Instances: 91.99363732767762
Weighted Precision: 0.9021260035038257
Weighted AreaUnderROC: 0.6250852161695416
Root mean squared error: 0.1995909603380833
Relative absolute error: 11.119147680069238
Root relative squared error: 46.09355787160332
Weighted TruePositiveRate: 0.9199363732767762
Weighted MatthewsCorrelation: 0.3289575153410853
Weighted FMeasure: 0.9080877605141923
Iteration time: 529.0
Weighted AreaUnderPRC: 0.8824560258592304
Mean absolute error: 0.04169680380025964
Coverage of cases: 91.99363732767762
Instances selection time: 529.0
Test time: 925.0
Accumulative iteration time: 10237.0
Weighted Recall: 0.9199363732767762
Weighted FalsePositiveRate: 0.6760789800887701
Kappa statistic: 0.2901786604454544
Training time: 0.0
		
Iteration: 23
Labeled set size: 817
Unlabelled set size: 1069
	
Mean region size: 25.0
Incorrectly Classified Instances: 7.953340402969247
Correctly Classified Instances: 92.04665959703075
Weighted Precision: 0.9023715341178341
Weighted AreaUnderROC: 0.6253647019157687
Root mean squared error: 0.19894063934892955
Relative absolute error: 11.037979628629545
Root relative squared error: 45.943372672344296
Weighted TruePositiveRate: 0.9204665959703076
Weighted MatthewsCorrelation: 0.33170500829486743
Weighted FMeasure: 0.9084127623580581
Iteration time: 532.0
Weighted AreaUnderPRC: 0.8825213914853551
Mean absolute error: 0.04139242360736079
Coverage of cases: 92.04665959703075
Instances selection time: 532.0
Test time: 946.0
Accumulative iteration time: 10769.0
Weighted Recall: 0.9204665959703076
Weighted FalsePositiveRate: 0.6760502312898474
Kappa statistic: 0.2919782562993665
Training time: 0.0
		
Iteration: 24
Labeled set size: 837
Unlabelled set size: 1049
	
Mean region size: 25.0
Incorrectly Classified Instances: 8.006362672322375
Correctly Classified Instances: 91.99363732767762
Weighted Precision: 0.9000840874522729
Weighted AreaUnderROC: 0.6188069322518814
Root mean squared error: 0.19961369706174314
Relative absolute error: 11.098029861918397
Root relative squared error: 46.098808693013524
Weighted TruePositiveRate: 0.9199363732767762
Weighted MatthewsCorrelation: 0.31967232691599096
Weighted FMeasure: 0.906952841952757
Iteration time: 531.0
Weighted AreaUnderPRC: 0.8813042564720244
Mean absolute error: 0.041617611982193985
Coverage of cases: 91.99363732767762
Instances selection time: 531.0
Test time: 966.0
Accumulative iteration time: 11300.0
Weighted Recall: 0.9199363732767762
Weighted FalsePositiveRate: 0.6887541405521382
Kappa statistic: 0.2783504632163637
Training time: 0.0
		
Iteration: 25
Labeled set size: 857
Unlabelled set size: 1029
	
Mean region size: 25.0
Incorrectly Classified Instances: 8.006362672322375
Correctly Classified Instances: 91.99363732767762
Weighted Precision: 0.9000840874522729
Weighted AreaUnderROC: 0.6188069322518814
Root mean squared error: 0.19962429026701936
Relative absolute error: 11.088206772910047
Root relative squared error: 46.10125508898065
Weighted TruePositiveRate: 0.9199363732767762
Weighted MatthewsCorrelation: 0.31967232691599096
Weighted FMeasure: 0.906952841952757
Iteration time: 534.0
Weighted AreaUnderPRC: 0.8813042564720244
Mean absolute error: 0.04158077539841267
Coverage of cases: 91.99363732767762
Instances selection time: 534.0
Test time: 987.0
Accumulative iteration time: 11834.0
Weighted Recall: 0.9199363732767762
Weighted FalsePositiveRate: 0.6887541405521382
Kappa statistic: 0.2783504632163637
Training time: 0.0
		
Iteration: 26
Labeled set size: 877
Unlabelled set size: 1009
	
Mean region size: 25.0
Incorrectly Classified Instances: 8.006362672322375
Correctly Classified Instances: 91.99363732767762
Weighted Precision: 0.9000840874522729
Weighted AreaUnderROC: 0.6188069322518814
Root mean squared error: 0.19963441261536372
Relative absolute error: 11.07882968562646
Root relative squared error: 46.103592745197226
Weighted TruePositiveRate: 0.9199363732767762
Weighted MatthewsCorrelation: 0.31967232691599096
Weighted FMeasure: 0.906952841952757
Iteration time: 535.0
Weighted AreaUnderPRC: 0.8813042564720244
Mean absolute error: 0.04154561132109922
Coverage of cases: 91.99363732767762
Instances selection time: 535.0
Test time: 1010.0
Accumulative iteration time: 12369.0
Weighted Recall: 0.9199363732767762
Weighted FalsePositiveRate: 0.6887541405521382
Kappa statistic: 0.2783504632163637
Training time: 0.0
		
Iteration: 27
Labeled set size: 897
Unlabelled set size: 989
	
Mean region size: 25.0
Incorrectly Classified Instances: 7.953340402969247
Correctly Classified Instances: 92.04665959703075
Weighted Precision: 0.9003243265302844
Weighted AreaUnderROC: 0.6190864179981083
Root mean squared error: 0.1989819846313698
Relative absolute error: 10.9994863974991
Root relative squared error: 45.952920956322934
Weighted TruePositiveRate: 0.9204665959703076
Weighted MatthewsCorrelation: 0.3224917526526514
Weighted FMeasure: 0.907270958575516
Iteration time: 536.0
Weighted AreaUnderPRC: 0.8813645212820801
Mean absolute error: 0.04124807399062163
Coverage of cases: 92.04665959703075
Instances selection time: 536.0
Test time: 1031.0
Accumulative iteration time: 12905.0
Weighted Recall: 0.9204665959703076
Weighted FalsePositiveRate: 0.6887253917532158
Kappa statistic: 0.28013069101346605
Training time: 0.0
		
Iteration: 28
Labeled set size: 917
Unlabelled set size: 969
	
Mean region size: 25.0
Incorrectly Classified Instances: 7.953340402969247
Correctly Classified Instances: 92.04665959703075
Weighted Precision: 0.9003243265302844
Weighted AreaUnderROC: 0.6193008057240793
Root mean squared error: 0.19899121784021193
Relative absolute error: 10.990793085686683
Root relative squared error: 45.955053274567135
Weighted TruePositiveRate: 0.9204665959703076
Weighted MatthewsCorrelation: 0.3224917526526514
Weighted FMeasure: 0.907270958575516
Iteration time: 537.0
Weighted AreaUnderPRC: 0.8813975604709219
Mean absolute error: 0.04121547407132506
Coverage of cases: 92.04665959703075
Instances selection time: 537.0
Test time: 1053.0
Accumulative iteration time: 13442.0
Weighted Recall: 0.9204665959703076
Weighted FalsePositiveRate: 0.6887253917532158
Kappa statistic: 0.28013069101346605
Training time: 0.0
		
Iteration: 29
Labeled set size: 937
Unlabelled set size: 949
	
Mean region size: 25.0
Incorrectly Classified Instances: 7.900318133616119
Correctly Classified Instances: 92.09968186638388
Weighted Precision: 0.9005732790752113
Weighted AreaUnderROC: 0.6204378423741895
Root mean squared error: 0.19833566939603695
Relative absolute error: 10.911698507364136
Root relative squared error: 45.803660846282625
Weighted TruePositiveRate: 0.9209968186638389
Weighted MatthewsCorrelation: 0.3253661536582693
Weighted FMeasure: 0.9075895843128945
Iteration time: 536.0
Weighted AreaUnderPRC: 0.8815908149420029
Mean absolute error: 0.04091886940261551
Coverage of cases: 92.09968186638388
Instances selection time: 535.0
Test time: 1073.0
Accumulative iteration time: 13978.0
Weighted Recall: 0.9209968186638389
Weighted FalsePositiveRate: 0.6886966429542931
Kappa statistic: 0.28192587595568147
Training time: 1.0
		
Iteration: 30
Labeled set size: 957
Unlabelled set size: 929
	
Mean region size: 25.0
Incorrectly Classified Instances: 7.900318133616119
Correctly Classified Instances: 92.09968186638388
Weighted Precision: 0.9005732790752113
Weighted AreaUnderROC: 0.6204378423741895
Root mean squared error: 0.198344129970709
Relative absolute error: 10.903832833509567
Root relative squared error: 45.805614732308385
Weighted TruePositiveRate: 0.9209968186638389
Weighted MatthewsCorrelation: 0.3253661536582693
Weighted FMeasure: 0.9075895843128945
Iteration time: 540.0
Weighted AreaUnderPRC: 0.8815908149420029
Mean absolute error: 0.04088937312566087
Coverage of cases: 92.09968186638388
Instances selection time: 540.0
Test time: 1097.0
Accumulative iteration time: 14518.0
Weighted Recall: 0.9209968186638389
Weighted FalsePositiveRate: 0.6886966429542931
Kappa statistic: 0.28192587595568147
Training time: 0.0
		
Iteration: 31
Labeled set size: 977
Unlabelled set size: 909
	
Mean region size: 25.0
Incorrectly Classified Instances: 7.900318133616119
Correctly Classified Instances: 92.09968186638388
Weighted Precision: 0.9005732790752113
Weighted AreaUnderROC: 0.6215097810040435
Root mean squared error: 0.19835223652065403
Relative absolute error: 10.89574849629009
Root relative squared error: 45.807486859825566
Weighted TruePositiveRate: 0.9209968186638389
Weighted MatthewsCorrelation: 0.3253661536582693
Weighted FMeasure: 0.9075895843128945
Iteration time: 546.0
Weighted AreaUnderPRC: 0.8817559793086669
Mean absolute error: 0.04085905686108784
Coverage of cases: 92.09968186638388
Instances selection time: 546.0
Test time: 1126.0
Accumulative iteration time: 15064.0
Weighted Recall: 0.9209968186638389
Weighted FalsePositiveRate: 0.6886966429542931
Kappa statistic: 0.28192587595568147
Training time: 0.0
		
Iteration: 32
Labeled set size: 997
Unlabelled set size: 889
	
Mean region size: 25.0
Incorrectly Classified Instances: 7.847295864262991
Correctly Classified Instances: 92.15270413573701
Weighted Precision: 0.900831503453149
Weighted AreaUnderROC: 0.6220036544762414
Root mean squared error: 0.19769332974084508
Relative absolute error: 10.817996219575727
Root relative squared error: 45.655318857148146
Weighted TruePositiveRate: 0.9215270413573701
Weighted MatthewsCorrelation: 0.32829749986958195
Weighted FMeasure: 0.9079087330654894
Iteration time: 549.0
Weighted AreaUnderPRC: 0.8818509564169988
Mean absolute error: 0.04056748582340898
Coverage of cases: 92.15270413573701
Instances selection time: 549.0
Test time: 1146.0
Accumulative iteration time: 15613.0
Weighted Recall: 0.9215270413573701
Weighted FalsePositiveRate: 0.6886678941553704
Kappa statistic: 0.2837362073389788
Training time: 0.0
		
Iteration: 33
Labeled set size: 1017
Unlabelled set size: 869
	
Mean region size: 25.0
Incorrectly Classified Instances: 7.741251325556734
Correctly Classified Instances: 92.25874867444327
Weighted Precision: 0.9013782493100155
Weighted AreaUnderROC: 0.6229914014206368
Root mean squared error: 0.19636053845364618
Relative absolute error: 10.669962677178928
Root relative squared error: 45.347523893772994
Weighted TruePositiveRate: 0.9225874867444327
Weighted MatthewsCorrelation: 0.3343394252112169
Weighted FMeasure: 0.9085486571577756
Iteration time: 537.0
Weighted AreaUnderPRC: 0.8820439526966559
Mean absolute error: 0.04001236003942098
Coverage of cases: 92.25874867444327
Instances selection time: 537.0
Test time: 1164.0
Accumulative iteration time: 16150.0
Weighted Recall: 0.9225874867444327
Weighted FalsePositiveRate: 0.6886103965575253
Kappa statistic: 0.28740308271999887
Training time: 0.0
		
Iteration: 34
Labeled set size: 1037
Unlabelled set size: 849
	
Mean region size: 25.0
Incorrectly Classified Instances: 7.688229056203605
Correctly Classified Instances: 92.31177094379639
Weighted Precision: 0.9016681525772252
Weighted AreaUnderROC: 0.6232708871668639
Root mean squared error: 0.19569408138534697
Relative absolute error: 10.592846327797853
Root relative squared error: 45.193612226658644
Weighted TruePositiveRate: 0.9231177094379639
Weighted MatthewsCorrelation: 0.33745448348293194
Weighted FMeasure: 0.9088694622789921
Iteration time: 528.0
Weighted AreaUnderPRC: 0.8821091413368549
Mean absolute error: 0.039723173729241945
Coverage of cases: 92.31177094379639
Instances selection time: 528.0
Test time: 1182.0
Accumulative iteration time: 16678.0
Weighted Recall: 0.9231177094379639
Weighted FalsePositiveRate: 0.6885816477586028
Kappa statistic: 0.2892600216234192
Training time: 0.0
		
Iteration: 35
Labeled set size: 1057
Unlabelled set size: 829
	
Mean region size: 25.0
Incorrectly Classified Instances: 7.688229056203605
Correctly Classified Instances: 92.31177094379639
Weighted Precision: 0.9016681525772252
Weighted AreaUnderROC: 0.6232708871668639
Root mean squared error: 0.19570093411084694
Relative absolute error: 10.586401849659888
Root relative squared error: 45.19519479582348
Weighted TruePositiveRate: 0.9231177094379639
Weighted MatthewsCorrelation: 0.33745448348293194
Weighted FMeasure: 0.9088694622789921
Iteration time: 525.0
Weighted AreaUnderPRC: 0.8821091413368549
Mean absolute error: 0.03969900693622458
Coverage of cases: 92.31177094379639
Instances selection time: 525.0
Test time: 1207.0
Accumulative iteration time: 17203.0
Weighted Recall: 0.9231177094379639
Weighted FalsePositiveRate: 0.6885816477586028
Kappa statistic: 0.2892600216234192
Training time: 0.0
		
Iteration: 36
Labeled set size: 1077
Unlabelled set size: 809
	
Mean region size: 25.0
Incorrectly Classified Instances: 7.688229056203605
Correctly Classified Instances: 92.31177094379639
Weighted Precision: 0.9016681525772252
Weighted AreaUnderROC: 0.6234852748928346
Root mean squared error: 0.19570753513122663
Relative absolute error: 10.580097922018473
Root relative squared error: 45.19671923618074
Weighted TruePositiveRate: 0.9231177094379639
Weighted MatthewsCorrelation: 0.33745448348293194
Weighted FMeasure: 0.9088694622789921
Iteration time: 727.0
Weighted AreaUnderPRC: 0.8821421144202782
Mean absolute error: 0.03967536720756927
Coverage of cases: 92.31177094379639
Instances selection time: 727.0
Test time: 1233.0
Accumulative iteration time: 17930.0
Weighted Recall: 0.9231177094379639
Weighted FalsePositiveRate: 0.6885816477586028
Kappa statistic: 0.2892600216234192
Training time: 0.0
		
Iteration: 37
Labeled set size: 1097
Unlabelled set size: 789
	
Mean region size: 25.0
Incorrectly Classified Instances: 7.688229056203605
Correctly Classified Instances: 92.31177094379639
Weighted Precision: 0.9016681525772252
Weighted AreaUnderROC: 0.6234852748928346
Root mean squared error: 0.19571390308572975
Relative absolute error: 10.57411915807389
Root relative squared error: 45.19818985227936
Weighted TruePositiveRate: 0.9231177094379639
Weighted MatthewsCorrelation: 0.33745448348293194
Weighted FMeasure: 0.9088694622789921
Iteration time: 517.0
Weighted AreaUnderPRC: 0.8821421144202782
Mean absolute error: 0.039652946842777086
Coverage of cases: 92.31177094379639
Instances selection time: 517.0
Test time: 1504.0
Accumulative iteration time: 18447.0
Weighted Recall: 0.9231177094379639
Weighted FalsePositiveRate: 0.6885816477586028
Kappa statistic: 0.2892600216234192
Training time: 0.0
		
Iteration: 38
Labeled set size: 1117
Unlabelled set size: 769
	
Mean region size: 25.0
Incorrectly Classified Instances: 7.688229056203605
Correctly Classified Instances: 92.31177094379639
Weighted Precision: 0.9016681525772252
Weighted AreaUnderROC: 0.6234852748928346
Root mean squared error: 0.19572004767102597
Relative absolute error: 10.568353734191833
Root relative squared error: 45.199608883469296
Weighted TruePositiveRate: 0.9231177094379639
Weighted MatthewsCorrelation: 0.33745448348293194
Weighted FMeasure: 0.9088694622789921
Iteration time: 513.0
Weighted AreaUnderPRC: 0.8821421144202782
Mean absolute error: 0.03963132650321937
Coverage of cases: 92.31177094379639
Instances selection time: 513.0
Test time: 1277.0
Accumulative iteration time: 18960.0
Weighted Recall: 0.9231177094379639
Weighted FalsePositiveRate: 0.6885816477586028
Kappa statistic: 0.2892600216234192
Training time: 0.0
		
Iteration: 39
Labeled set size: 1137
Unlabelled set size: 749
	
Mean region size: 25.0
Incorrectly Classified Instances: 7.52916224814422
Correctly Classified Instances: 92.47083775185578
Weighted Precision: 0.9026136898391125
Weighted AreaUnderROC: 0.624752507583457
Root mean squared error: 0.19369076319167033
Relative absolute error: 10.351259320592323
Root relative squared error: 44.73096570730197
Weighted TruePositiveRate: 0.9247083775185578
Weighted MatthewsCorrelation: 0.34720554832022843
Weighted FMeasure: 0.9098354376152207
Iteration time: 504.0
Weighted AreaUnderPRC: 0.8824113290733552
Mean absolute error: 0.03881722245222121
Coverage of cases: 92.47083775185578
Instances selection time: 504.0
Test time: 1291.0
Accumulative iteration time: 19464.0
Weighted Recall: 0.9247083775185578
Weighted FalsePositiveRate: 0.688495401361835
Kappa statistic: 0.294927284406955
Training time: 0.0
		
Iteration: 40
Labeled set size: 1157
Unlabelled set size: 729
	
Mean region size: 25.0
Incorrectly Classified Instances: 7.4761399787910925
Correctly Classified Instances: 92.5238600212089
Weighted Precision: 0.9029573126787804
Weighted AreaUnderROC: 0.625031993329684
Root mean squared error: 0.1930132366959555
Relative absolute error: 10.275425287708108
Root relative squared error: 44.574497665428346
Weighted TruePositiveRate: 0.925238600212089
Weighted MatthewsCorrelation: 0.3506002154848183
Weighted FMeasure: 0.9101586708237586
Iteration time: 499.0
Weighted AreaUnderPRC: 0.8824820280467083
Mean absolute error: 0.038532844828905406
Coverage of cases: 92.5238600212089
Instances selection time: 499.0
Test time: 1529.0
Accumulative iteration time: 19963.0
Weighted Recall: 0.925238600212089
Weighted FalsePositiveRate: 0.6884666525629123
Kappa statistic: 0.2968492194440918
Training time: 0.0
		
Iteration: 41
Labeled set size: 1177
Unlabelled set size: 709
	
Mean region size: 25.0
Incorrectly Classified Instances: 7.4761399787910925
Correctly Classified Instances: 92.5238600212089
Weighted Precision: 0.9029573126787804
Weighted AreaUnderROC: 0.625031993329684
Root mean squared error: 0.1930186953027029
Relative absolute error: 10.270222181992699
Root relative squared error: 44.575758276658355
Weighted TruePositiveRate: 0.925238600212089
Weighted MatthewsCorrelation: 0.3506002154848183
Weighted FMeasure: 0.9101586708237586
Iteration time: 669.0
Weighted AreaUnderPRC: 0.8824820280467083
Mean absolute error: 0.03851333318247262
Coverage of cases: 92.5238600212089
Instances selection time: 669.0
Test time: 1346.0
Accumulative iteration time: 20632.0
Weighted Recall: 0.925238600212089
Weighted FalsePositiveRate: 0.6884666525629123
Kappa statistic: 0.2968492194440918
Training time: 0.0
		
Iteration: 42
Labeled set size: 1197
Unlabelled set size: 689
	
Mean region size: 25.0
Incorrectly Classified Instances: 7.423117709437964
Correctly Classified Instances: 92.57688229056204
Weighted Precision: 0.9033169850336144
Weighted AreaUnderROC: 0.625311479075911
Root mean squared error: 0.19233831280227012
Relative absolute error: 10.194731470537137
Root relative squared error: 44.41863066874764
Weighted TruePositiveRate: 0.9257688229056203
Weighted MatthewsCorrelation: 0.35407194050071833
Weighted FMeasure: 0.9104825533318215
Iteration time: 492.0
Weighted AreaUnderPRC: 0.882554387629864
Mean absolute error: 0.03823024301451426
Coverage of cases: 92.57688229056204
Instances selection time: 492.0
Test time: 1366.0
Accumulative iteration time: 21124.0
Weighted Recall: 0.9257688229056203
Weighted FalsePositiveRate: 0.6884379037639897
Kappa statistic: 0.2987879367305096
Training time: 0.0
		
Iteration: 43
Labeled set size: 1217
Unlabelled set size: 669
	
Mean region size: 25.0
Incorrectly Classified Instances: 7.317073170731708
Correctly Classified Instances: 92.6829268292683
Weighted Precision: 0.9040896944273094
Weighted AreaUnderROC: 0.6258704505683649
Root mean squared error: 0.19096465376723887
Relative absolute error: 10.048933067051722
Root relative squared error: 44.101397703287624
Weighted TruePositiveRate: 0.926829268292683
Weighted MatthewsCorrelation: 0.3612595717763408
Weighted FMeasure: 0.9111323384058228
Iteration time: 485.0
Weighted AreaUnderPRC: 0.8827046263322588
Mean absolute error: 0.03768349900144396
Coverage of cases: 92.6829268292683
Instances selection time: 485.0
Test time: 1378.0
Accumulative iteration time: 21609.0
Weighted Recall: 0.926829268292683
Weighted FalsePositiveRate: 0.6883804061661445
Kappa statistic: 0.30271660504742026
Training time: 0.0
		
Iteration: 44
Labeled set size: 1237
Unlabelled set size: 649
	
Mean region size: 25.0
Incorrectly Classified Instances: 7.264050901378579
Correctly Classified Instances: 92.73594909862142
Weighted Precision: 0.9045057017519618
Weighted AreaUnderROC: 0.6261499363145918
Root mean squared error: 0.19027640471565524
Relative absolute error: 9.973745160363096
Root relative squared error: 43.94245339320709
Weighted TruePositiveRate: 0.9273594909862142
Weighted MatthewsCorrelation: 0.36498248385731397
Weighted FMeasure: 0.9114582783978956
Iteration time: 479.0
Weighted AreaUnderPRC: 0.882782811646799
Mean absolute error: 0.037401544351361615
Coverage of cases: 92.73594909862142
Instances selection time: 479.0
Test time: 1399.0
Accumulative iteration time: 22088.0
Weighted Recall: 0.9273594909862142
Weighted FalsePositiveRate: 0.6883516573672219
Kappa statistic: 0.3047070093860327
Training time: 0.0
		
Iteration: 45
Labeled set size: 1257
Unlabelled set size: 629
	
Mean region size: 25.0
Incorrectly Classified Instances: 7.158006362672323
Correctly Classified Instances: 92.84199363732768
Weighted Precision: 0.9054057577430938
Weighted AreaUnderROC: 0.6269232955330164
Root mean squared error: 0.18888717314812425
Relative absolute error: 9.828003432123149
Root relative squared error: 43.621624105414796
Weighted TruePositiveRate: 0.9284199363732768
Weighted MatthewsCorrelation: 0.3727057005102826
Weighted FMeasure: 0.9121123511128848
Iteration time: 468.0
Weighted AreaUnderPRC: 0.8829790205737119
Mean absolute error: 0.036855012870461806
Coverage of cases: 92.84199363732768
Instances selection time: 468.0
Test time: 1423.0
Accumulative iteration time: 22556.0
Weighted Recall: 0.9284199363732768
Weighted FalsePositiveRate: 0.6882941597693767
Kappa statistic: 0.3087411220433963
Training time: 0.0
		
Iteration: 46
Labeled set size: 1277
Unlabelled set size: 609
	
Mean region size: 25.0
Incorrectly Classified Instances: 7.0519618239660655
Correctly Classified Instances: 92.94803817603393
Weighted Precision: 0.9064107315836786
Weighted AreaUnderROC: 0.6274822670254704
Root mean squared error: 0.1874873648410214
Relative absolute error: 9.682618200357865
Root relative squared error: 43.29835222424692
Weighted TruePositiveRate: 0.9294803817603393
Weighted MatthewsCorrelation: 0.38082736694415015
Weighted FMeasure: 0.9127694849266709
Iteration time: 460.0
Weighted AreaUnderPRC: 0.8831532296284037
Mean absolute error: 0.036309818251341996
Coverage of cases: 92.94803817603393
Instances selection time: 460.0
Test time: 1445.0
Accumulative iteration time: 23016.0
Weighted Recall: 0.9294803817603393
Weighted FalsePositiveRate: 0.6882366621715315
Kappa statistic: 0.31284790707867594
Training time: 0.0
		
Time end:Sat Oct 07 12.16.41 EEST 2017