Sat Oct 07 12.45.45 EEST 2017
Dataset: hypothyroid
Test set size: 1886
Initial Labelled set size: 377
Initial Unlabelled set size: 1509
Batch mode: QBestBatchMode
Batch size: 20
Classifiers: IBk-1cores
Scenario: PoolBasedSamplingScenario
Query strategy: RandomSelectionQueryStrategy-1cores
Time begining: Sat Oct 07 12.45.45 EEST 2017
		
Iteration: 1
Labeled set size: 377
Unlabelled set size: 1509
	
Mean region size: 25.0
Incorrectly Classified Instances: 11.346765641569458
Correctly Classified Instances: 88.65323435843054
Weighted Precision: 0.878472974411188
Weighted AreaUnderROC: 0.5439356596458103
Root mean squared error: 0.23697861543503965
Relative absolute error: 16.020054757206164
Root relative squared error: 54.72786696544198
Weighted TruePositiveRate: 0.8865323435843054
Weighted MatthewsCorrelation: 0.10465325485936942
Weighted FMeasure: 0.8791120019643484
Iteration time: 7.0
Weighted AreaUnderPRC: 0.863071621330266
Mean absolute error: 0.060075205339523124
Coverage of cases: 88.65323435843054
Instances selection time: 7.0
Test time: 428.0
Accumulative iteration time: 7.0
Weighted Recall: 0.8865323435843054
Weighted FalsePositiveRate: 0.798661024292685
Kappa statistic: 0.1034030802997215
Training time: 0.0
		
Iteration: 2
Labeled set size: 397
Unlabelled set size: 1489
	
Mean region size: 25.0
Incorrectly Classified Instances: 10.869565217391305
Correctly Classified Instances: 89.1304347826087
Weighted Precision: 0.882099284555113
Weighted AreaUnderROC: 0.546436129510313
Root mean squared error: 0.23200077528720617
Relative absolute error: 15.345693736672862
Root relative squared error: 53.57828402570814
Weighted TruePositiveRate: 0.8913043478260869
Weighted MatthewsCorrelation: 0.11550271127468129
Weighted FMeasure: 0.8820399601288644
Iteration time: 4.0
Weighted AreaUnderPRC: 0.8639382542493953
Mean absolute error: 0.057546351512523235
Coverage of cases: 89.1304347826087
Instances selection time: 4.0
Test time: 491.0
Accumulative iteration time: 11.0
Weighted Recall: 0.8913043478260869
Weighted FalsePositiveRate: 0.7984320888054613
Kappa statistic: 0.11173856905892017
Training time: 0.0
		
Iteration: 3
Labeled set size: 417
Unlabelled set size: 1469
	
Mean region size: 25.0
Incorrectly Classified Instances: 11.081654294803817
Correctly Classified Instances: 88.91834570519619
Weighted Precision: 0.8810921828685925
Weighted AreaUnderROC: 0.5484708092391947
Root mean squared error: 0.2343048296466164
Relative absolute error: 15.585272655370522
Root relative squared error: 54.110382587561354
Weighted TruePositiveRate: 0.8891834570519618
Weighted MatthewsCorrelation: 0.11687083716535893
Weighted FMeasure: 0.8811846944698724
Iteration time: 4.0
Weighted AreaUnderPRC: 0.8640085754647581
Mean absolute error: 0.05844477245763946
Coverage of cases: 88.91834570519619
Instances selection time: 4.0
Test time: 511.0
Accumulative iteration time: 15.0
Weighted Recall: 0.8891834570519618
Weighted FalsePositiveRate: 0.7922418385735726
Kappa statistic: 0.11455995758952127
Training time: 0.0
		
Iteration: 4
Labeled set size: 437
Unlabelled set size: 1449
	
Mean region size: 25.0
Incorrectly Classified Instances: 11.028632025450689
Correctly Classified Instances: 88.97136797454931
Weighted Precision: 0.8800527356054487
Weighted AreaUnderROC: 0.545605123197402
Root mean squared error: 0.23379140506217966
Relative absolute error: 15.478494921003497
Root relative squared error: 53.991812258748105
Weighted TruePositiveRate: 0.8897136797454931
Weighted MatthewsCorrelation: 0.11144041338947723
Weighted FMeasure: 0.8808094809451625
Iteration time: 4.0
Weighted AreaUnderPRC: 0.8631905402369356
Mean absolute error: 0.058044355953763116
Coverage of cases: 88.97136797454931
Instances selection time: 4.0
Test time: 531.0
Accumulative iteration time: 19.0
Weighted Recall: 0.8897136797454931
Weighted FalsePositiveRate: 0.7985034333506892
Kappa statistic: 0.10883131339519983
Training time: 0.0
		
Iteration: 5
Labeled set size: 457
Unlabelled set size: 1429
	
Mean region size: 25.0
Incorrectly Classified Instances: 10.922587486744433
Correctly Classified Instances: 89.07741251325557
Weighted Precision: 0.8810065226848542
Weighted AreaUnderROC: 0.5461640946898557
Root mean squared error: 0.23270837698474736
Relative absolute error: 15.304764949941287
Root relative squared error: 53.741697637929924
Weighted TruePositiveRate: 0.8907741251325557
Weighted MatthewsCorrelation: 0.1133835009980116
Weighted FMeasure: 0.8819001684939625
Iteration time: 4.0
Weighted AreaUnderPRC: 0.8636979789448073
Mean absolute error: 0.057392868562279827
Coverage of cases: 89.07741251325557
Instances selection time: 4.0
Test time: 555.0
Accumulative iteration time: 23.0
Weighted Recall: 0.8907741251325557
Weighted FalsePositiveRate: 0.7984459357528441
Kappa statistic: 0.11419262609980389
Training time: 0.0
		
Iteration: 6
Labeled set size: 477
Unlabelled set size: 1409
	
Mean region size: 25.0
Incorrectly Classified Instances: 10.710498409331919
Correctly Classified Instances: 89.28950159066808
Weighted Precision: 0.8805563903205116
Weighted AreaUnderROC: 0.5441368658867439
Root mean squared error: 0.2304780159286129
Relative absolute error: 14.993507252255876
Root relative squared error: 53.226617815470206
Weighted TruePositiveRate: 0.8928950159066809
Weighted MatthewsCorrelation: 0.1116083360638626
Weighted FMeasure: 0.8826651742496784
Iteration time: 4.0
Weighted AreaUnderPRC: 0.8633764690152531
Mean absolute error: 0.056225652195959534
Coverage of cases: 89.28950159066808
Instances selection time: 4.0
Test time: 577.0
Accumulative iteration time: 27.0
Weighted Recall: 0.8928950159066809
Weighted FalsePositiveRate: 0.804621284133193
Kappa statistic: 0.11142106110187265
Training time: 0.0
		
Iteration: 7
Labeled set size: 497
Unlabelled set size: 1389
	
Mean region size: 25.0
Incorrectly Classified Instances: 10.445387062566278
Correctly Classified Instances: 89.55461293743372
Weighted Precision: 0.8852949260404294
Weighted AreaUnderROC: 0.5486645645543585
Root mean squared error: 0.22764425302867672
Relative absolute error: 14.614390871844437
Root relative squared error: 52.57218830623112
Weighted TruePositiveRate: 0.8955461293743372
Weighted MatthewsCorrelation: 0.12526538600136988
Weighted FMeasure: 0.8848620958030654
Iteration time: 4.0
Weighted AreaUnderPRC: 0.8646738829418786
Mean absolute error: 0.054803965769416645
Coverage of cases: 89.55461293743372
Instances selection time: 4.0
Test time: 599.0
Accumulative iteration time: 31.0
Weighted Recall: 0.8955461293743372
Weighted FalsePositiveRate: 0.7982170002656203
Kappa statistic: 0.12313436358315415
Training time: 0.0
		
Iteration: 8
Labeled set size: 517
Unlabelled set size: 1369
	
Mean region size: 25.0
Incorrectly Classified Instances: 10.445387062566278
Correctly Classified Instances: 89.55461293743372
Weighted Precision: 0.8887365272853981
Weighted AreaUnderROC: 0.5614848488146564
Root mean squared error: 0.22767742203222638
Relative absolute error: 14.58780776565539
Root relative squared error: 52.57984835948238
Weighted TruePositiveRate: 0.8955461293743372
Weighted MatthewsCorrelation: 0.15078318695813803
Weighted FMeasure: 0.8869237914608489
Iteration time: 4.0
Weighted AreaUnderPRC: 0.8672032464904658
Mean absolute error: 0.05470427912120771
Coverage of cases: 89.55461293743372
Instances selection time: 4.0
Test time: 617.0
Accumulative iteration time: 35.0
Weighted Recall: 0.8955461293743372
Weighted FalsePositiveRate: 0.7730556259614632
Kappa statistic: 0.14961239068089663
Training time: 0.0
		
Iteration: 9
Labeled set size: 537
Unlabelled set size: 1349
	
Mean region size: 25.0
Incorrectly Classified Instances: 10.02120890774125
Correctly Classified Instances: 89.97879109225875
Weighted Precision: 0.8978121375303008
Weighted AreaUnderROC: 0.6171636463971203
Root mean squared error: 0.223037711407608
Relative absolute error: 14.001996168004224
Root relative squared error: 51.50835308824822
Weighted TruePositiveRate: 0.8997879109225875
Weighted MatthewsCorrelation: 0.2612110794732396
Weighted FMeasure: 0.8965329813675248
Iteration time: 3.0
Weighted AreaUnderPRC: 0.8796638106823148
Mean absolute error: 0.05250748563001584
Coverage of cases: 89.97879109225875
Instances selection time: 3.0
Test time: 643.0
Accumulative iteration time: 38.0
Weighted Recall: 0.8997879109225875
Weighted FalsePositiveRate: 0.6658748929258752
Kappa statistic: 0.24208391096898182
Training time: 0.0
		
Iteration: 10
Labeled set size: 557
Unlabelled set size: 1329
	
Mean region size: 25.0
Incorrectly Classified Instances: 10.233297985153765
Correctly Classified Instances: 89.76670201484623
Weighted Precision: 0.8981806766347517
Weighted AreaUnderROC: 0.6193940845573415
Root mean squared error: 0.22541337839035885
Relative absolute error: 14.259746833118385
Root relative squared error: 52.05698987704667
Weighted TruePositiveRate: 0.8976670201484623
Weighted MatthewsCorrelation: 0.2598846857273175
Weighted FMeasure: 0.8956730489848452
Iteration time: 4.0
Weighted AreaUnderPRC: 0.880030414566431
Mean absolute error: 0.05347405062419394
Coverage of cases: 89.76670201484623
Instances selection time: 4.0
Test time: 662.0
Accumulative iteration time: 42.0
Weighted Recall: 0.8976670201484623
Weighted FalsePositiveRate: 0.6596995445455263
Kappa statistic: 0.24193299817146532
Training time: 0.0
		
Iteration: 11
Labeled set size: 577
Unlabelled set size: 1309
	
Mean region size: 25.0
Incorrectly Classified Instances: 10.180275715800637
Correctly Classified Instances: 89.81972428419937
Weighted Precision: 0.8980094955746168
Weighted AreaUnderROC: 0.6198787555334548
Root mean squared error: 0.22485509889669367
Relative absolute error: 14.16817283301252
Root relative squared error: 51.928060750666404
Weighted TruePositiveRate: 0.8981972428419936
Weighted MatthewsCorrelation: 0.261363221834004
Weighted FMeasure: 0.8960345512692699
Iteration time: 4.0
Weighted AreaUnderPRC: 0.8804990748602338
Mean absolute error: 0.05313064812379695
Coverage of cases: 89.81972428419937
Instances selection time: 4.0
Test time: 685.0
Accumulative iteration time: 46.0
Weighted Recall: 0.8981972428419936
Weighted FalsePositiveRate: 0.6596707957466037
Kappa statistic: 0.24334896316541738
Training time: 0.0
		
Iteration: 12
Labeled set size: 597
Unlabelled set size: 1289
	
Mean region size: 25.0
Incorrectly Classified Instances: 10.286320254506894
Correctly Classified Instances: 89.71367974549311
Weighted Precision: 0.8977964160903695
Weighted AreaUnderROC: 0.6193197840410011
Root mean squared error: 0.22604776083921008
Relative absolute error: 14.288841682507595
Root relative squared error: 52.20349422809203
Weighted TruePositiveRate: 0.897136797454931
Weighted MatthewsCorrelation: 0.25831898431880757
Weighted FMeasure: 0.895400959098136
Iteration time: 3.0
Weighted AreaUnderPRC: 0.8803973919039924
Mean absolute error: 0.05358315630940348
Coverage of cases: 89.71367974549311
Instances selection time: 3.0
Test time: 708.0
Accumulative iteration time: 49.0
Weighted Recall: 0.897136797454931
Weighted FalsePositiveRate: 0.6597282933444488
Kappa statistic: 0.24068086448704742
Training time: 0.0
		
Iteration: 13
Labeled set size: 617
Unlabelled set size: 1269
	
Mean region size: 25.0
Incorrectly Classified Instances: 9.915164369034995
Correctly Classified Instances: 90.084835630965
Weighted Precision: 0.8981649869111599
Weighted AreaUnderROC: 0.6181364599699968
Root mean squared error: 0.22195554256469335
Relative absolute error: 13.778676514018299
Root relative squared error: 51.25843689914206
Weighted TruePositiveRate: 0.9008483563096501
Weighted MatthewsCorrelation: 0.2633133940247847
Weighted FMeasure: 0.8974155829796739
Iteration time: 3.0
Weighted AreaUnderPRC: 0.8803024220014277
Mean absolute error: 0.05167003692756862
Coverage of cases: 90.084835630965
Instances selection time: 3.0
Test time: 727.0
Accumulative iteration time: 52.0
Weighted Recall: 0.9008483563096501
Weighted FalsePositiveRate: 0.66581739532803
Kappa statistic: 0.24755394547634596
Training time: 0.0
		
Iteration: 14
Labeled set size: 637
Unlabelled set size: 1249
	
Mean region size: 25.0
Incorrectly Classified Instances: 9.809119830328738
Correctly Classified Instances: 90.19088016967126
Weighted Precision: 0.8992336621237761
Weighted AreaUnderROC: 0.6218347111879879
Root mean squared error: 0.2207868543695707
Relative absolute error: 13.620741504939879
Root relative squared error: 50.98853992152094
Weighted TruePositiveRate: 0.9019088016967126
Weighted MatthewsCorrelation: 0.27146898480322984
Weighted FMeasure: 0.8984799744661387
Iteration time: 3.0
Weighted AreaUnderPRC: 0.880957694793895
Mean absolute error: 0.05107778064352455
Coverage of cases: 90.19088016967126
Instances selection time: 3.0
Test time: 747.0
Accumulative iteration time: 55.0
Weighted Recall: 0.9019088016967126
Weighted FalsePositiveRate: 0.6594695541541454
Kappa statistic: 0.2556014968616253
Training time: 0.0
		
Iteration: 15
Labeled set size: 657
Unlabelled set size: 1229
	
Mean region size: 25.0
Incorrectly Classified Instances: 9.809119830328738
Correctly Classified Instances: 90.19088016967126
Weighted Precision: 0.8971121771165436
Weighted AreaUnderROC: 0.6249968001118404
Root mean squared error: 0.22080684057030664
Relative absolute error: 13.604344634275478
Root relative squared error: 50.99315553687093
Weighted TruePositiveRate: 0.9019088016967126
Weighted MatthewsCorrelation: 0.2765571188703776
Weighted FMeasure: 0.8982338810641769
Iteration time: 3.0
Weighted AreaUnderPRC: 0.8807466418966788
Mean absolute error: 0.05101629237853304
Coverage of cases: 90.19088016967126
Instances selection time: 3.0
Test time: 773.0
Accumulative iteration time: 58.0
Weighted Recall: 0.9019088016967126
Weighted FalsePositiveRate: 0.6531345050234868
Kappa statistic: 0.25851073099098315
Training time: 0.0
		
Iteration: 16
Labeled set size: 677
Unlabelled set size: 1209
	
Mean region size: 25.0
Incorrectly Classified Instances: 9.75609756097561
Correctly Classified Instances: 90.2439024390244
Weighted Precision: 0.8972367574709247
Weighted AreaUnderROC: 0.6252762858580674
Root mean squared error: 0.2202281232335053
Relative absolute error: 13.518629762833541
Root relative squared error: 50.85950649279614
Weighted TruePositiveRate: 0.9024390243902439
Weighted MatthewsCorrelation: 0.27822445905546755
Weighted FMeasure: 0.8985540309039665
Iteration time: 3.0
Weighted AreaUnderPRC: 0.8808004033898872
Mean absolute error: 0.05069486161062578
Coverage of cases: 90.2439024390244
Instances selection time: 3.0
Test time: 800.0
Accumulative iteration time: 61.0
Weighted Recall: 0.9024390243902439
Weighted FalsePositiveRate: 0.6531057562245641
Kappa statistic: 0.2599347422746369
Training time: 0.0
		
Iteration: 17
Labeled set size: 697
Unlabelled set size: 1189
	
Mean region size: 25.0
Incorrectly Classified Instances: 9.75609756097561
Correctly Classified Instances: 90.2439024390244
Weighted Precision: 0.8972367574709247
Weighted AreaUnderROC: 0.6252762858580674
Root mean squared error: 0.22024585699761742
Relative absolute error: 13.504064826396645
Root relative squared error: 50.8636019301897
Weighted TruePositiveRate: 0.9024390243902439
Weighted MatthewsCorrelation: 0.27822445905546755
Weighted FMeasure: 0.8985540309039665
Iteration time: 3.0
Weighted AreaUnderPRC: 0.8808004033898872
Mean absolute error: 0.050640243098987424
Coverage of cases: 90.2439024390244
Instances selection time: 3.0
Test time: 816.0
Accumulative iteration time: 64.0
Weighted Recall: 0.9024390243902439
Weighted FalsePositiveRate: 0.6531057562245641
Kappa statistic: 0.2599347422746369
Training time: 0.0
		
Iteration: 18
Labeled set size: 717
Unlabelled set size: 1169
	
Mean region size: 25.0
Incorrectly Classified Instances: 10.02120890774125
Correctly Classified Instances: 89.97879109225875
Weighted Precision: 0.8964725255078093
Weighted AreaUnderROC: 0.6223735767095181
Root mean squared error: 0.22323487424757
Relative absolute error: 13.840606227350497
Root relative squared error: 51.553885895738716
Weighted TruePositiveRate: 0.8997879109225875
Weighted MatthewsCorrelation: 0.26544679831069584
Weighted FMeasure: 0.8966797357673759
Iteration time: 3.0
Weighted AreaUnderPRC: 0.8805760528852068
Mean absolute error: 0.051902273352564365
Coverage of cases: 89.97879109225875
Instances selection time: 3.0
Test time: 845.0
Accumulative iteration time: 67.0
Weighted Recall: 0.8997879109225875
Weighted FalsePositiveRate: 0.6595547456467562
Kappa statistic: 0.24765402393465472
Training time: 0.0
		
Iteration: 19
Labeled set size: 737
Unlabelled set size: 1149
	
Mean region size: 25.0
Incorrectly Classified Instances: 10.498409331919406
Correctly Classified Instances: 89.5015906680806
Weighted Precision: 0.895360186869459
Weighted AreaUnderROC: 0.6198597916228633
Root mean squared error: 0.22850410980313285
Relative absolute error: 14.460510378782288
Root relative squared error: 52.77076372230982
Weighted TruePositiveRate: 0.8950159066808059
Weighted MatthewsCorrelation: 0.25278067612757693
Weighted FMeasure: 0.8936215379824407
Iteration time: 3.0
Weighted AreaUnderPRC: 0.8796711675076236
Mean absolute error: 0.05422691392043358
Coverage of cases: 89.5015906680806
Instances selection time: 3.0
Test time: 859.0
Accumulative iteration time: 70.0
Weighted Recall: 0.8950159066808059
Weighted FalsePositiveRate: 0.6598134848370596
Kappa statistic: 0.23302627930620132
Training time: 0.0
		
Iteration: 20
Labeled set size: 757
Unlabelled set size: 1129
	
Mean region size: 25.0
Incorrectly Classified Instances: 10.498409331919406
Correctly Classified Instances: 89.5015906680806
Weighted Precision: 0.895360186869459
Weighted AreaUnderROC: 0.6198597916228633
Root mean squared error: 0.22851978695881747
Relative absolute error: 14.448351761502748
Root relative squared error: 52.77438420633168
Weighted TruePositiveRate: 0.8950159066808059
Weighted MatthewsCorrelation: 0.25278067612757693
Weighted FMeasure: 0.8936215379824407
Iteration time: 3.0
Weighted AreaUnderPRC: 0.8796711675076236
Mean absolute error: 0.0541813191056353
Coverage of cases: 89.5015906680806
Instances selection time: 3.0
Test time: 881.0
Accumulative iteration time: 73.0
Weighted Recall: 0.8950159066808059
Weighted FalsePositiveRate: 0.6598134848370596
Kappa statistic: 0.23302627930620132
Training time: 0.0
		
Iteration: 21
Labeled set size: 777
Unlabelled set size: 1109
	
Mean region size: 25.0
Incorrectly Classified Instances: 10.392364793213149
Correctly Classified Instances: 89.60763520678685
Weighted Precision: 0.8951389869946399
Weighted AreaUnderROC: 0.617293565469862
Root mean squared error: 0.22737763912024264
Relative absolute error: 14.296147314288264
Root relative squared error: 52.51061646150947
Weighted TruePositiveRate: 0.8960763520678685
Weighted MatthewsCorrelation: 0.24986734687496556
Weighted FMeasure: 0.8940376510815179
Iteration time: 3.0
Weighted AreaUnderPRC: 0.8793134006301199
Mean absolute error: 0.053610552428580996
Coverage of cases: 89.60763520678685
Instances selection time: 3.0
Test time: 896.0
Accumulative iteration time: 76.0
Weighted Recall: 0.8960763520678685
Weighted FalsePositiveRate: 0.6660463308152537
Kappa statistic: 0.2330088223821263
Training time: 0.0
		
Iteration: 22
Labeled set size: 797
Unlabelled set size: 1089
	
Mean region size: 25.0
Incorrectly Classified Instances: 10.233297985153765
Correctly Classified Instances: 89.76670201484623
Weighted Precision: 0.8954552340554461
Weighted AreaUnderROC: 0.6195820121544413
Root mean squared error: 0.22564489533412707
Relative absolute error: 14.073192942308877
Root relative squared error: 52.110456424969286
Weighted TruePositiveRate: 0.8976670201484623
Weighted MatthewsCorrelation: 0.2543706485009143
Weighted FMeasure: 0.8949832217202457
Iteration time: 3.0
Weighted AreaUnderPRC: 0.8796933256315761
Mean absolute error: 0.052774473533658287
Coverage of cases: 89.76670201484623
Instances selection time: 3.0
Test time: 917.0
Accumulative iteration time: 79.0
Weighted Recall: 0.8976670201484623
Weighted FalsePositiveRate: 0.6659600844184859
Kappa statistic: 0.2369446593169779
Training time: 0.0
		
Iteration: 23
Labeled set size: 817
Unlabelled set size: 1069
	
Mean region size: 25.0
Incorrectly Classified Instances: 10.180275715800637
Correctly Classified Instances: 89.81972428419937
Weighted Precision: 0.8961431648929882
Weighted AreaUnderROC: 0.6229713884254935
Root mean squared error: 0.22507287736083997
Relative absolute error: 13.992395191930363
Root relative squared error: 51.97835453262584
Weighted TruePositiveRate: 0.8981972428419936
Weighted MatthewsCorrelation: 0.2607582372116401
Weighted FMeasure: 0.8957320147464999
Iteration time: 3.0
Weighted AreaUnderPRC: 0.8806536848864941
Mean absolute error: 0.052471481969738866
Coverage of cases: 89.81972428419937
Instances selection time: 3.0
Test time: 942.0
Accumulative iteration time: 82.0
Weighted Recall: 0.8981972428419936
Weighted FalsePositiveRate: 0.659640992043524
Kappa statistic: 0.24358130761469693
Training time: 0.0
		
Iteration: 24
Labeled set size: 837
Unlabelled set size: 1049
	
Mean region size: 25.0
Incorrectly Classified Instances: 10.180275715800637
Correctly Classified Instances: 89.81972428419937
Weighted Precision: 0.8951986999701788
Weighted AreaUnderROC: 0.621747799083643
Root mean squared error: 0.22508554076693163
Relative absolute error: 13.98325588326289
Root relative squared error: 51.98127902099218
Weighted TruePositiveRate: 0.8981972428419936
Weighted MatthewsCorrelation: 0.26043822576158887
Weighted FMeasure: 0.8955632168184161
Iteration time: 3.0
Weighted AreaUnderPRC: 0.8805151310798531
Mean absolute error: 0.05243720956223584
Coverage of cases: 89.81972428419937
Instances selection time: 3.0
Test time: 964.0
Accumulative iteration time: 85.0
Weighted Recall: 0.8981972428419936
Weighted FalsePositiveRate: 0.6596260901919841
Kappa statistic: 0.2437361246572281
Training time: 0.0
		
Iteration: 25
Labeled set size: 857
Unlabelled set size: 1029
	
Mean region size: 25.0
Incorrectly Classified Instances: 10.02120890774125
Correctly Classified Instances: 89.97879109225875
Weighted Precision: 0.8955206528532745
Weighted AreaUnderROC: 0.6219707006326642
Root mean squared error: 0.22333225520016337
Relative absolute error: 13.763007200756471
Root relative squared error: 51.576375063416215
Weighted TruePositiveRate: 0.8997879109225875
Weighted MatthewsCorrelation: 0.265122411242589
Weighted FMeasure: 0.8965048950976647
Iteration time: 3.0
Weighted AreaUnderPRC: 0.8805649388073133
Mean absolute error: 0.05161127700283677
Coverage of cases: 89.97879109225875
Instances selection time: 3.0
Test time: 985.0
Accumulative iteration time: 88.0
Weighted Recall: 0.8997879109225875
Weighted FalsePositiveRate: 0.6595398437952164
Kappa statistic: 0.2478096090215408
Training time: 0.0
		
Iteration: 26
Labeled set size: 877
Unlabelled set size: 1009
	
Mean region size: 25.0
Incorrectly Classified Instances: 9.968186638388122
Correctly Classified Instances: 90.03181336161188
Weighted Precision: 0.896897587129886
Weighted AreaUnderROC: 0.6285065112872037
Root mean squared error: 0.2227520864351566
Relative absolute error: 13.683519500417
Root relative squared error: 51.44239082635538
Weighted TruePositiveRate: 0.9003181336161188
Weighted MatthewsCorrelation: 0.2774333684618373
Weighted FMeasure: 0.8974686147021915
Iteration time: 2.0
Weighted AreaUnderPRC: 0.8816043090945893
Mean absolute error: 0.05131319812656376
Coverage of cases: 90.03181336161188
Instances selection time: 2.0
Test time: 1007.0
Accumulative iteration time: 90.0
Weighted Recall: 0.9003181336161188
Weighted FalsePositiveRate: 0.6469304078442153
Kappa statistic: 0.25694191217459483
Training time: 0.0
		
Iteration: 27
Labeled set size: 897
Unlabelled set size: 989
	
Mean region size: 25.0
Incorrectly Classified Instances: 9.968186638388122
Correctly Classified Instances: 90.03181336161188
Weighted Precision: 0.8952714250449889
Weighted AreaUnderROC: 0.6164085314612171
Root mean squared error: 0.2227629752311792
Relative absolute error: 13.674569727713338
Root relative squared error: 51.444905486081296
Weighted TruePositiveRate: 0.9003181336161188
Weighted MatthewsCorrelation: 0.25379486026931614
Weighted FMeasure: 0.8966319509045996
Iteration time: 3.0
Weighted AreaUnderPRC: 0.8798515492640036
Mean absolute error: 0.05127963647892502
Coverage of cases: 90.03181336161188
Instances selection time: 3.0
Test time: 1306.0
Accumulative iteration time: 93.0
Weighted Recall: 0.9003181336161188
Weighted FalsePositiveRate: 0.6720917821483724
Kappa statistic: 0.24656503797263923
Training time: 0.0
		
Iteration: 28
Labeled set size: 917
Unlabelled set size: 969
	
Mean region size: 25.0
Incorrectly Classified Instances: 9.968186638388122
Correctly Classified Instances: 90.03181336161188
Weighted Precision: 0.8952714250449889
Weighted AreaUnderROC: 0.6170345375686747
Root mean squared error: 0.2227733957162847
Relative absolute error: 13.665893742976996
Root relative squared error: 51.447311994033605
Weighted TruePositiveRate: 0.9003181336161188
Weighted MatthewsCorrelation: 0.25379486026931614
Weighted FMeasure: 0.8966319509045996
Iteration time: 3.0
Weighted AreaUnderPRC: 0.8799511319635489
Mean absolute error: 0.051247101536163735
Coverage of cases: 90.03181336161188
Instances selection time: 3.0
Test time: 1044.0
Accumulative iteration time: 96.0
Weighted Recall: 0.9003181336161188
Weighted FalsePositiveRate: 0.6720917821483724
Kappa statistic: 0.24656503797263923
Training time: 0.0
		
Iteration: 29
Labeled set size: 937
Unlabelled set size: 949
	
Mean region size: 25.0
Incorrectly Classified Instances: 9.915164369034995
Correctly Classified Instances: 90.084835630965
Weighted Precision: 0.8971947693734693
Weighted AreaUnderROC: 0.6172970468077695
Root mean squared error: 0.22219013084079212
Relative absolute error: 13.587528044962582
Root relative squared error: 51.3126127408838
Weighted TruePositiveRate: 0.9008483563096501
Weighted MatthewsCorrelation: 0.2548510671259954
Weighted FMeasure: 0.8974929414040865
Iteration time: 3.0
Weighted AreaUnderPRC: 0.8807707122851233
Mean absolute error: 0.050953230168609684
Coverage of cases: 90.084835630965
Instances selection time: 3.0
Test time: 1066.0
Accumulative iteration time: 99.0
Weighted Recall: 0.9008483563096501
Weighted FalsePositiveRate: 0.6720928370525294
Kappa statistic: 0.25041657456684785
Training time: 0.0
		
Iteration: 30
Labeled set size: 957
Unlabelled set size: 929
	
Mean region size: 25.0
Incorrectly Classified Instances: 9.490986214209968
Correctly Classified Instances: 90.50901378579003
Weighted Precision: 0.8992256445554039
Weighted AreaUnderROC: 0.6257683943886551
Root mean squared error: 0.21739512028124366
Relative absolute error: 13.016666890719259
Root relative squared error: 50.205252485954844
Weighted TruePositiveRate: 0.9050901378579003
Weighted MatthewsCorrelation: 0.2775737439096436
Weighted FMeasure: 0.9008585637017015
Iteration time: 3.0
Weighted AreaUnderPRC: 0.8830351882369156
Mean absolute error: 0.048812500840197226
Coverage of cases: 90.50901378579003
Instances selection time: 2.0
Test time: 1087.0
Accumulative iteration time: 102.0
Weighted Recall: 0.9050901378579003
Weighted FalsePositiveRate: 0.65928215950907
Kappa statistic: 0.27247376247225363
Training time: 1.0
		
Iteration: 31
Labeled set size: 977
Unlabelled set size: 909
	
Mean region size: 25.0
Incorrectly Classified Instances: 9.544008483563097
Correctly Classified Instances: 90.45599151643691
Weighted Precision: 0.8990919594395693
Weighted AreaUnderROC: 0.6254889086424281
Root mean squared error: 0.21801047058408518
Relative absolute error: 13.07969431938664
Root relative squared error: 50.34736155115143
Weighted TruePositiveRate: 0.9045599151643691
Weighted MatthewsCorrelation: 0.2758782544008372
Weighted FMeasure: 0.9005368017895846
Iteration time: 2.0
Weighted AreaUnderPRC: 0.882980270856497
Mean absolute error: 0.0490488536976999
Coverage of cases: 90.45599151643691
Instances selection time: 2.0
Test time: 1110.0
Accumulative iteration time: 104.0
Weighted Recall: 0.9045599151643691
Weighted FalsePositiveRate: 0.6593109083079927
Kappa statistic: 0.27099058781591384
Training time: 0.0
		
Iteration: 32
Labeled set size: 997
Unlabelled set size: 889
	
Mean region size: 25.0
Incorrectly Classified Instances: 9.490986214209968
Correctly Classified Instances: 90.50901378579003
Weighted Precision: 0.8992256445554039
Weighted AreaUnderROC: 0.6257683943886551
Root mean squared error: 0.2174126913026378
Relative absolute error: 13.002200488945098
Root relative squared error: 50.20931033952758
Weighted TruePositiveRate: 0.9050901378579003
Weighted MatthewsCorrelation: 0.2775737439096436
Weighted FMeasure: 0.9008585637017015
Iteration time: 2.0
Weighted AreaUnderPRC: 0.8830351882369156
Mean absolute error: 0.04875825183354411
Coverage of cases: 90.50901378579003
Instances selection time: 2.0
Test time: 1128.0
Accumulative iteration time: 106.0
Weighted Recall: 0.9050901378579003
Weighted FalsePositiveRate: 0.65928215950907
Kappa statistic: 0.27247376247225363
Training time: 0.0
		
Iteration: 33
Labeled set size: 1017
Unlabelled set size: 869
	
Mean region size: 25.0
Incorrectly Classified Instances: 9.862142099681867
Correctly Classified Instances: 90.13785790031814
Weighted Precision: 0.8978306047410675
Weighted AreaUnderROC: 0.6204877029169082
Root mean squared error: 0.22163119718059737
Relative absolute error: 13.488431747222277
Root relative squared error: 51.18353254121477
Weighted TruePositiveRate: 0.9013785790031813
Weighted MatthewsCorrelation: 0.26129417710805586
Weighted FMeasure: 0.8982191270642575
Iteration time: 2.0
Weighted AreaUnderPRC: 0.8817072288909981
Mean absolute error: 0.05058161905208353
Coverage of cases: 90.13785790031814
Instances selection time: 2.0
Test time: 1151.0
Accumulative iteration time: 108.0
Weighted Recall: 0.9013785790031813
Weighted FalsePositiveRate: 0.6657737446775676
Kappa statistic: 0.2570966293657716
Training time: 0.0
		
Iteration: 34
Labeled set size: 1037
Unlabelled set size: 849
	
Mean region size: 25.0
Incorrectly Classified Instances: 9.862142099681867
Correctly Classified Instances: 90.13785790031814
Weighted Precision: 0.8978306047410675
Weighted AreaUnderROC: 0.6204877029169082
Root mean squared error: 0.22163932447964252
Relative absolute error: 13.48192047821511
Root relative squared error: 51.185409460531375
Weighted TruePositiveRate: 0.9013785790031813
Weighted MatthewsCorrelation: 0.26129417710805586
Weighted FMeasure: 0.8982191270642575
Iteration time: 2.0
Weighted AreaUnderPRC: 0.8817072288909981
Mean absolute error: 0.050557201793306666
Coverage of cases: 90.13785790031814
Instances selection time: 2.0
Test time: 1172.0
Accumulative iteration time: 110.0
Weighted Recall: 0.9013785790031813
Weighted FalsePositiveRate: 0.6657737446775676
Kappa statistic: 0.2570966293657716
Training time: 0.0
		
Iteration: 35
Labeled set size: 1057
Unlabelled set size: 829
	
Mean region size: 25.0
Incorrectly Classified Instances: 9.862142099681867
Correctly Classified Instances: 90.13785790031814
Weighted Precision: 0.8978306047410675
Weighted AreaUnderROC: 0.6209008238021546
Root mean squared error: 0.22164714482217882
Relative absolute error: 13.475455169807402
Root relative squared error: 51.187215491278764
Weighted TruePositiveRate: 0.9013785790031813
Weighted MatthewsCorrelation: 0.26129417710805586
Weighted FMeasure: 0.8982191270642575
Iteration time: 2.0
Weighted AreaUnderPRC: 0.8817730138254473
Mean absolute error: 0.05053295688677776
Coverage of cases: 90.13785790031814
Instances selection time: 2.0
Test time: 1201.0
Accumulative iteration time: 112.0
Weighted Recall: 0.9013785790031813
Weighted FalsePositiveRate: 0.6657737446775676
Kappa statistic: 0.2570966293657716
Training time: 0.0
		
Iteration: 36
Labeled set size: 1077
Unlabelled set size: 809
	
Mean region size: 25.0
Incorrectly Classified Instances: 9.809119830328738
Correctly Classified Instances: 90.19088016967126
Weighted Precision: 0.8979537623571059
Weighted AreaUnderROC: 0.6209737491057584
Root mean squared error: 0.22105806886100235
Relative absolute error: 13.399088070916749
Root relative squared error: 51.05117422537542
Weighted TruePositiveRate: 0.9019088016967126
Weighted MatthewsCorrelation: 0.2628834339344049
Weighted FMeasure: 0.8985392699888708
Iteration time: 2.0
Weighted AreaUnderPRC: 0.8817932956997564
Mean absolute error: 0.05024658026593781
Coverage of cases: 90.19088016967126
Instances selection time: 2.0
Test time: 1342.0
Accumulative iteration time: 114.0
Weighted Recall: 0.9019088016967126
Weighted FalsePositiveRate: 0.6657449958786449
Kappa statistic: 0.25851073099098315
Training time: 0.0
		
Iteration: 37
Labeled set size: 1097
Unlabelled set size: 789
	
Mean region size: 25.0
Incorrectly Classified Instances: 9.384941675503711
Correctly Classified Instances: 90.61505832449629
Weighted Precision: 0.9018436222503021
Weighted AreaUnderROC: 0.6419160199087844
Root mean squared error: 0.21623295107824683
Relative absolute error: 12.82975425576747
Root relative squared error: 49.936861005077205
Weighted TruePositiveRate: 0.9061505832449629
Weighted MatthewsCorrelation: 0.30394756281638563
Weighted FMeasure: 0.9032934369414911
Iteration time: 2.0
Weighted AreaUnderPRC: 0.8877441579597881
Mean absolute error: 0.048111578459128015
Coverage of cases: 90.61505832449629
Instances selection time: 2.0
Test time: 1252.0
Accumulative iteration time: 116.0
Weighted Recall: 0.9061505832449629
Weighted FalsePositiveRate: 0.6277729440310286
Kappa statistic: 0.3007777235510106
Training time: 0.0
		
Iteration: 38
Labeled set size: 1117
Unlabelled set size: 769
	
Mean region size: 25.0
Incorrectly Classified Instances: 9.278897136797456
Correctly Classified Instances: 90.72110286320255
Weighted Precision: 0.9012417811120326
Weighted AreaUnderROC: 0.6393573159048023
Root mean squared error: 0.2150146807625017
Relative absolute error: 12.683219297363527
Root relative squared error: 49.65551352718072
Weighted TruePositiveRate: 0.9072110286320254
Weighted MatthewsCorrelation: 0.30276709755944403
Weighted FMeasure: 0.9034888007997193
Iteration time: 2.0
Weighted AreaUnderPRC: 0.8873029985274419
Mean absolute error: 0.04756207236511322
Coverage of cases: 90.72110286320255
Instances selection time: 2.0
Test time: 1262.0
Accumulative iteration time: 118.0
Weighted Recall: 0.9072110286320254
Weighted FalsePositiveRate: 0.6340057900092225
Kappa statistic: 0.29902919632067293
Training time: 0.0
		
Iteration: 39
Labeled set size: 1137
Unlabelled set size: 749
	
Mean region size: 25.0
Incorrectly Classified Instances: 9.278897136797456
Correctly Classified Instances: 90.72110286320255
Weighted Precision: 0.9012417811120326
Weighted AreaUnderROC: 0.6393573159048023
Root mean squared error: 0.21502123590397265
Relative absolute error: 12.677699653977347
Root relative squared error: 49.65702737225786
Weighted TruePositiveRate: 0.9072110286320254
Weighted MatthewsCorrelation: 0.30276709755944403
Weighted FMeasure: 0.9034888007997193
Iteration time: 2.0
Weighted AreaUnderPRC: 0.8873029985274419
Mean absolute error: 0.04754137370241505
Coverage of cases: 90.72110286320255
Instances selection time: 2.0
Test time: 1282.0
Accumulative iteration time: 120.0
Weighted Recall: 0.9072110286320254
Weighted FalsePositiveRate: 0.6340057900092225
Kappa statistic: 0.29902919632067293
Training time: 0.0
		
Iteration: 40
Labeled set size: 1157
Unlabelled set size: 729
	
Mean region size: 25.0
Incorrectly Classified Instances: 9.43796394485684
Correctly Classified Instances: 90.56203605514315
Weighted Precision: 0.9013846562519886
Weighted AreaUnderROC: 0.641864188128596
Root mean squared error: 0.21686274098246047
Relative absolute error: 12.883698293636707
Root relative squared error: 50.08230475336946
Weighted TruePositiveRate: 0.9056203605514316
Weighted MatthewsCorrelation: 0.30477004916582623
Weighted FMeasure: 0.9026923888198025
Iteration time: 1.0
Weighted AreaUnderPRC: 0.8871873581306923
Mean absolute error: 0.04831386860113765
Coverage of cases: 90.56203605514315
Instances selection time: 1.0
Test time: 1311.0
Accumulative iteration time: 121.0
Weighted Recall: 0.9056203605514316
Weighted FalsePositiveRate: 0.627744757802603
Kappa statistic: 0.29461105776403124
Training time: 0.0
		
Iteration: 41
Labeled set size: 1177
Unlabelled set size: 709
	
Mean region size: 25.0
Incorrectly Classified Instances: 9.43796394485684
Correctly Classified Instances: 90.56203605514315
Weighted Precision: 0.9022411543792199
Weighted AreaUnderROC: 0.6449798996042047
Root mean squared error: 0.2168689176802328
Relative absolute error: 12.87862210970536
Root relative squared error: 50.08373120061808
Weighted TruePositiveRate: 0.9056203605514316
Weighted MatthewsCorrelation: 0.3093609490927192
Weighted FMeasure: 0.9031352614286982
Iteration time: 1.0
Weighted AreaUnderPRC: 0.8877350592055387
Mean absolute error: 0.048294832911395094
Coverage of cases: 90.56203605514315
Instances selection time: 1.0
Test time: 1325.0
Accumulative iteration time: 122.0
Weighted Recall: 0.9056203605514316
Weighted FalsePositiveRate: 0.6214544142265638
Kappa statistic: 0.2994480441564676
Training time: 0.0
		
Iteration: 42
Labeled set size: 1197
Unlabelled set size: 689
	
Mean region size: 25.0
Incorrectly Classified Instances: 9.172852598091199
Correctly Classified Instances: 90.8271474019088
Weighted Precision: 0.9020354940145551
Weighted AreaUnderROC: 0.6432616168597307
Root mean squared error: 0.21380733456334422
Relative absolute error: 12.521351566436076
Root relative squared error: 49.37668886594527
Weighted TruePositiveRate: 0.908271474019088
Weighted MatthewsCorrelation: 0.31362408715073115
Weighted FMeasure: 0.9042901023730067
Iteration time: 1.0
Weighted AreaUnderPRC: 0.8874558468975634
Mean absolute error: 0.04695506837413529
Coverage of cases: 90.8271474019088
Instances selection time: 1.0
Test time: 1349.0
Accumulative iteration time: 123.0
Weighted Recall: 0.908271474019088
Weighted FalsePositiveRate: 0.62760101380799
Kappa statistic: 0.302383558832082
Training time: 0.0
		
Iteration: 43
Labeled set size: 1217
Unlabelled set size: 669
	
Mean region size: 25.0
Incorrectly Classified Instances: 9.11983032873807
Correctly Classified Instances: 90.88016967126192
Weighted Precision: 0.9021730388936499
Weighted AreaUnderROC: 0.6435411026059575
Root mean squared error: 0.21319420353432358
Relative absolute error: 12.446122131913002
Root relative squared error: 49.235092320083844
Weighted TruePositiveRate: 0.9088016967126193
Weighted MatthewsCorrelation: 0.3154569217364037
Weighted FMeasure: 0.9046106475661633
Iteration time: 1.0
Weighted AreaUnderPRC: 0.8875106302052247
Mean absolute error: 0.04667295799467376
Coverage of cases: 90.88016967126192
Instances selection time: 1.0
Test time: 1369.0
Accumulative iteration time: 124.0
Weighted Recall: 0.9088016967126193
Weighted FalsePositiveRate: 0.6275722650090675
Kappa statistic: 0.3039709394263847
Training time: 0.0
		
Iteration: 44
Labeled set size: 1237
Unlabelled set size: 649
	
Mean region size: 25.0
Incorrectly Classified Instances: 9.278897136797456
Correctly Classified Instances: 90.72110286320255
Weighted Precision: 0.9017680487644931
Weighted AreaUnderROC: 0.6427026453672768
Root mean squared error: 0.215050883418486
Relative absolute error: 12.652912769409733
Root relative squared error: 49.663874172451884
Weighted TruePositiveRate: 0.9072110286320254
Weighted MatthewsCorrelation: 0.31002176280222477
Weighted FMeasure: 0.9036500393004854
Iteration time: 2.0
Weighted AreaUnderPRC: 0.8873474043635436
Mean absolute error: 0.0474484228852865
Coverage of cases: 90.72110286320255
Instances selection time: 2.0
Test time: 1394.0
Accumulative iteration time: 126.0
Weighted Recall: 0.9072110286320254
Weighted FalsePositiveRate: 0.6276585114058353
Kappa statistic: 0.29924202212361184
Training time: 0.0
		
Iteration: 45
Labeled set size: 1257
Unlabelled set size: 629
	
Mean region size: 25.0
Incorrectly Classified Instances: 9.225874867444327
Correctly Classified Instances: 90.77412513255567
Weighted Precision: 0.9019005284214235
Weighted AreaUnderROC: 0.6429821311135037
Root mean squared error: 0.21444095435006225
Relative absolute error: 12.57798306205141
Root relative squared error: 49.52301708771548
Weighted TruePositiveRate: 0.9077412513255567
Weighted MatthewsCorrelation: 0.3118125183828209
Weighted FMeasure: 0.9039699024370769
Iteration time: 2.0
Weighted AreaUnderPRC: 0.8874014427708138
Mean absolute error: 0.04716743648269279
Coverage of cases: 90.77412513255567
Instances selection time: 1.0
Test time: 1409.0
Accumulative iteration time: 128.0
Weighted Recall: 0.9077412513255567
Weighted FalsePositiveRate: 0.6276297626069126
Kappa statistic: 0.30080729183312105
Training time: 1.0
		
Iteration: 46
Labeled set size: 1277
Unlabelled set size: 609
	
Mean region size: 25.0
Incorrectly Classified Instances: 9.172852598091199
Correctly Classified Instances: 90.8271474019088
Weighted Precision: 0.9020354940145551
Weighted AreaUnderROC: 0.6432616168597307
Root mean squared error: 0.21382905756302145
Relative absolute error: 12.503185544507533
Root relative squared error: 49.38170557782977
Weighted TruePositiveRate: 0.908271474019088
Weighted MatthewsCorrelation: 0.31362408715073115
Weighted FMeasure: 0.9042901023730067
Iteration time: 1.0
Weighted AreaUnderPRC: 0.8874558468975634
Mean absolute error: 0.04688694579190325
Coverage of cases: 90.8271474019088
Instances selection time: 1.0
Test time: 1432.0
Accumulative iteration time: 129.0
Weighted Recall: 0.908271474019088
Weighted FalsePositiveRate: 0.62760101380799
Kappa statistic: 0.302383558832082
Training time: 0.0
		
Time end:Sat Oct 07 12.46.33 EEST 2017