Sun Oct 08 02.48.48 EEST 2017
Dataset: mushroom
Test set size: 4062
Initial Labelled set size: 812
Initial Unlabelled set size: 3250
Batch mode: QBestBatchMode
Batch size: 20
Classifiers: NaiveBayes-1cores
Scenario: PoolBasedSamplingScenario
Query strategy: EntropySamplingQueryStrategy-1cores
Time begining: Sun Oct 08 02.48.48 EEST 2017
		
Iteration: 1
Labeled set size: 812
Unlabelled set size: 3250
	
Mean region size: 53.0834564254062
Incorrectly Classified Instances: 6.021664204825209
Correctly Classified Instances: 93.97833579517479
Weighted Precision: 0.944251108236927
Weighted AreaUnderROC: 0.9953073235667651
Root mean squared error: 0.22191541550333013
Relative absolute error: 12.070024873973962
Root relative squared error: 44.383083100666035
Weighted TruePositiveRate: 0.9397833579517479
Weighted MatthewsCorrelation: 0.8836451359408077
Weighted FMeasure: 0.9395036968367926
Iteration time: 59.3
Weighted AreaUnderPRC: 0.9954440854383794
Mean absolute error: 0.060350124369869806
Coverage of cases: 97.07779419005416
Instances selection time: 49.6
Test time: 69.7
Accumulative iteration time: 59.3
Weighted Recall: 0.9397833579517479
Weighted FalsePositiveRate: 0.06400149199867249
Kappa statistic: 0.8789597247971447
Training time: 9.7
		
Iteration: 2
Labeled set size: 832
Unlabelled set size: 3230
	
Mean region size: 53.16469719350074
Incorrectly Classified Instances: 5.056622353520433
Correctly Classified Instances: 94.94337764647956
Weighted Precision: 0.953710876885651
Weighted AreaUnderROC: 0.9960693091033374
Root mean squared error: 0.20235160946510033
Relative absolute error: 10.440236876122395
Root relative squared error: 40.470321893020056
Weighted TruePositiveRate: 0.9494337764647958
Weighted MatthewsCorrelation: 0.902820964877922
Weighted FMeasure: 0.9492041238902429
Iteration time: 37.2
Weighted AreaUnderPRC: 0.9961827387675759
Mean absolute error: 0.05220118438061196
Coverage of cases: 97.67848350566223
Instances selection time: 35.9
Test time: 56.3
Accumulative iteration time: 96.5
Weighted Recall: 0.9494337764647958
Weighted FalsePositiveRate: 0.05410992229529703
Kappa statistic: 0.8983661474528221
Training time: 1.3
		
Iteration: 3
Labeled set size: 852
Unlabelled set size: 3210
	
Mean region size: 53.27424913835549
Incorrectly Classified Instances: 4.005416051206302
Correctly Classified Instances: 95.9945839487937
Weighted Precision: 0.9629512415325928
Weighted AreaUnderROC: 0.9966004487779492
Root mean squared error: 0.17889086210283595
Relative absolute error: 8.726343248353004
Root relative squared error: 35.778172420567195
Weighted TruePositiveRate: 0.9599458394879372
Weighted MatthewsCorrelation: 0.9226661375651993
Weighted FMeasure: 0.9598047426557306
Iteration time: 38.6
Weighted AreaUnderPRC: 0.9967014748992501
Mean absolute error: 0.043631716241765026
Coverage of cases: 98.30871491875925
Instances selection time: 37.3
Test time: 60.7
Accumulative iteration time: 135.1
Weighted Recall: 0.9599458394879372
Weighted FalsePositiveRate: 0.042966410257364925
Kappa statistic: 0.9195392384875716
Training time: 1.3
		
Iteration: 4
Labeled set size: 872
Unlabelled set size: 3190
	
Mean region size: 53.19793205317578
Incorrectly Classified Instances: 2.828655834564254
Correctly Classified Instances: 97.17134416543573
Weighted Precision: 0.9733136788564487
Weighted AreaUnderROC: 0.9968265854814217
Root mean squared error: 0.15219318865927975
Relative absolute error: 6.897236341099505
Root relative squared error: 30.438637731855955
Weighted TruePositiveRate: 0.9717134416543575
Weighted MatthewsCorrelation: 0.944888065625415
Weighted FMeasure: 0.9716475164240828
Iteration time: 32.2
Weighted AreaUnderPRC: 0.9969247149094045
Mean absolute error: 0.03448618170549753
Coverage of cases: 98.65829640571147
Instances selection time: 30.2
Test time: 49.7
Accumulative iteration time: 167.3
Weighted Recall: 0.9717134416543575
Weighted FalsePositiveRate: 0.030331978455702825
Kappa statistic: 0.9432226460775561
Training time: 2.0
		
Iteration: 5
Labeled set size: 892
Unlabelled set size: 3170
	
Mean region size: 52.89389463318562
Incorrectly Classified Instances: 1.9153126538650909
Correctly Classified Instances: 98.08468734613491
Weighted Precision: 0.9816418098802261
Weighted AreaUnderROC: 0.9969110104980252
Root mean squared error: 0.13076719828523659
Relative absolute error: 5.367352137661247
Root relative squared error: 26.15343965704732
Weighted TruePositiveRate: 0.9808468734613494
Weighted MatthewsCorrelation: 0.9624066403836604
Weighted FMeasure: 0.9808170265019512
Iteration time: 40.0
Weighted AreaUnderPRC: 0.9970085043059113
Mean absolute error: 0.026836760688306233
Coverage of cases: 98.8601674052191
Instances selection time: 38.6
Test time: 53.7
Accumulative iteration time: 207.3
Weighted Recall: 0.9808468734613494
Weighted FalsePositiveRate: 0.02051396023026437
Kappa statistic: 0.961578849537647
Training time: 1.4
		
Iteration: 6
Labeled set size: 912
Unlabelled set size: 3150
	
Mean region size: 52.43722304283604
Incorrectly Classified Instances: 1.4229443623830622
Correctly Classified Instances: 98.57705563761694
Weighted Precision: 0.9861834589995698
Weighted AreaUnderROC: 0.9969671077416624
Root mean squared error: 0.11670158395840018
Relative absolute error: 4.286638202760559
Root relative squared error: 23.34031679168004
Weighted TruePositiveRate: 0.9857705563761693
Weighted MatthewsCorrelation: 0.9719006207679938
Weighted FMeasure: 0.9857572068478925
Iteration time: 34.8
Weighted AreaUnderPRC: 0.9970640980493638
Mean absolute error: 0.021433191013802796
Coverage of cases: 98.9586410635155
Instances selection time: 33.6
Test time: 55.5
Accumulative iteration time: 242.1
Weighted Recall: 0.9857705563761693
Weighted FalsePositiveRate: 0.015240858577919434
Kappa statistic: 0.9714705308122626
Training time: 1.2
		
Iteration: 7
Labeled set size: 932
Unlabelled set size: 3130
	
Mean region size: 52.22673559822747
Incorrectly Classified Instances: 1.1398325947808963
Correctly Classified Instances: 98.8601674052191
Weighted Precision: 0.9888324020466902
Weighted AreaUnderROC: 0.9970585236739591
Root mean squared error: 0.1085861561289669
Relative absolute error: 3.6836841530604003
Root relative squared error: 21.717231225793377
Weighted TruePositiveRate: 0.9886016740521912
Weighted MatthewsCorrelation: 0.9773957052742472
Weighted FMeasure: 0.988595660052888
Iteration time: 29.4
Weighted AreaUnderPRC: 0.9971535013357664
Mean absolute error: 0.018418420765302
Coverage of cases: 98.97341211225996
Instances selection time: 28.2
Test time: 50.3
Accumulative iteration time: 271.5
Weighted Recall: 0.9886016740521912
Weighted FalsePositiveRate: 0.012216356140299879
Kappa statistic: 0.9771555622802823
Training time: 1.2
		
Iteration: 8
Labeled set size: 952
Unlabelled set size: 3110
	
Mean region size: 51.91654357459381
Incorrectly Classified Instances: 1.0659773510585917
Correctly Classified Instances: 98.93402264894141
Weighted Precision: 0.9895409743831622
Weighted AreaUnderROC: 0.9970984301510427
Root mean squared error: 0.10528060799530489
Relative absolute error: 3.335452374040721
Root relative squared error: 21.05612159906098
Weighted TruePositiveRate: 0.989340226489414
Weighted MatthewsCorrelation: 0.9788459328314062
Weighted FMeasure: 0.9893351222697181
Iteration time: 29.4
Weighted AreaUnderPRC: 0.9971928498703031
Mean absolute error: 0.016677261870203606
Coverage of cases: 98.99803052683406
Instances selection time: 28.4
Test time: 49.1
Accumulative iteration time: 300.9
Weighted Recall: 0.989340226489414
Weighted FalsePositiveRate: 0.011426276893916232
Kappa statistic: 0.9786370218403786
Training time: 1.0
		
Iteration: 9
Labeled set size: 972
Unlabelled set size: 3090
	
Mean region size: 51.80452978828163
Incorrectly Classified Instances: 1.051206302314131
Correctly Classified Instances: 98.94879369768587
Weighted Precision: 0.9896846170482585
Weighted AreaUnderROC: 0.9972623525596461
Root mean squared error: 0.10393501814753059
Relative absolute error: 3.2350223312907005
Root relative squared error: 20.78700362950612
Weighted TruePositiveRate: 0.9894879369768586
Weighted MatthewsCorrelation: 0.9791378476091998
Weighted FMeasure: 0.9894829636885184
Iteration time: 30.6
Weighted AreaUnderPRC: 0.997350626941827
Mean absolute error: 0.0161751116564535
Coverage of cases: 99.03988183161005
Instances selection time: 29.4
Test time: 54.7
Accumulative iteration time: 331.5
Weighted Recall: 0.9894879369768586
Weighted FalsePositiveRate: 0.011271096249337396
Kappa statistic: 0.9789331922815544
Training time: 1.2
		
Iteration: 10
Labeled set size: 992
Unlabelled set size: 3070
	
Mean region size: 51.5768094534712
Incorrectly Classified Instances: 1.0413589364844902
Correctly Classified Instances: 98.9586410635155
Weighted Precision: 0.9897869799440112
Weighted AreaUnderROC: 0.9974232649906594
Root mean squared error: 0.10188669449386507
Relative absolute error: 3.078953967634498
Root relative squared error: 20.37733889877301
Weighted TruePositiveRate: 0.9895864106351551
Weighted MatthewsCorrelation: 0.9793389360986262
Weighted FMeasure: 0.9895814218781445
Iteration time: 29.7
Weighted AreaUnderPRC: 0.9975065464799611
Mean absolute error: 0.015394769838172489
Coverage of cases: 99.10388970950271
Instances selection time: 28.2
Test time: 52.2
Accumulative iteration time: 361.2
Weighted Recall: 0.9895864106351551
Weighted FalsePositiveRate: 0.011179455839192737
Kappa statistic: 0.9791303802603564
Training time: 1.5
		
Iteration: 11
Labeled set size: 1012
Unlabelled set size: 3050
	
Mean region size: 51.51526341703594
Incorrectly Classified Instances: 0.9995076317085181
Correctly Classified Instances: 99.00049236829149
Weighted Precision: 0.9901912482649127
Weighted AreaUnderROC: 0.9978005802460027
Root mean squared error: 0.09894628100335104
Relative absolute error: 2.980797358892138
Root relative squared error: 19.78925620067021
Weighted TruePositiveRate: 0.9900049236829147
Weighted MatthewsCorrelation: 0.9801633497310884
Weighted FMeasure: 0.990000326717127
Iteration time: 29.3
Weighted AreaUnderPRC: 0.9978704747309404
Mean absolute error: 0.014903986794460691
Coverage of cases: 99.17774495322503
Instances selection time: 28.1
Test time: 50.6
Accumulative iteration time: 390.5
Weighted Recall: 0.9900049236829147
Weighted FalsePositiveRate: 0.010729735996247661
Kappa statistic: 0.9799696198082947
Training time: 1.2
		
Iteration: 12
Labeled set size: 1032
Unlabelled set size: 3030
	
Mean region size: 51.454948301329395
Incorrectly Classified Instances: 0.9576563269325457
Correctly Classified Instances: 99.04234367306745
Weighted Precision: 0.990597024016677
Weighted AreaUnderROC: 0.9983808990705965
Root mean squared error: 0.09510736722515789
Relative absolute error: 2.868309631109562
Root relative squared error: 19.02147344503158
Weighted TruePositiveRate: 0.9904234367306746
Weighted MatthewsCorrelation: 0.9809891823170845
Weighted FMeasure: 0.9904191519840951
Iteration time: 28.3
Weighted AreaUnderPRC: 0.9984290922642609
Mean absolute error: 0.01434154815554781
Coverage of cases: 99.30329886755291
Instances selection time: 27.1
Test time: 44.3
Accumulative iteration time: 418.8
Weighted Recall: 0.9904234367306746
Weighted FalsePositiveRate: 0.010276472147430214
Kappa statistic: 0.9808086807782928
Training time: 1.2
		
Iteration: 13
Labeled set size: 1052
Unlabelled set size: 3010
	
Mean region size: 51.579271294928596
Incorrectly Classified Instances: 0.9084194977843427
Correctly Classified Instances: 99.09158050221565
Weighted Precision: 0.991074317886576
Weighted AreaUnderROC: 0.9990782186370044
Root mean squared error: 0.08898006525840277
Relative absolute error: 2.7553250707337664
Root relative squared error: 17.796013051680553
Weighted TruePositiveRate: 0.9909158050221565
Weighted MatthewsCorrelation: 0.98196070244502
Weighted FMeasure: 0.9909119358549295
Iteration time: 29.4
Weighted AreaUnderPRC: 0.9991016045601727
Mean absolute error: 0.013776625353668831
Coverage of cases: 99.53471196454947
Instances selection time: 28.4
Test time: 46.0
Accumulative iteration time: 448.2
Weighted Recall: 0.9909158050221565
Weighted FalsePositiveRate: 0.009750933985131906
Kappa statistic: 0.9817958927117054
Training time: 1.0
		
Iteration: 14
Labeled set size: 1072
Unlabelled set size: 2990
	
Mean region size: 51.75529295913343
Incorrectly Classified Instances: 0.741014278680453
Correctly Classified Instances: 99.25898572131955
Weighted Precision: 0.9926914961032436
Weighted AreaUnderROC: 0.999504300384112
Root mean squared error: 0.07848347409117042
Relative absolute error: 2.531322654605367
Root relative squared error: 15.696694818234088
Weighted TruePositiveRate: 0.9925898572131955
Weighted MatthewsCorrelation: 0.9852583296115048
Weighted FMeasure: 0.9925874425812177
Iteration time: 29.5
Weighted AreaUnderPRC: 0.9995153296483824
Mean absolute error: 0.012656613273026834
Coverage of cases: 99.76120137863123
Instances selection time: 28.1
Test time: 46.3
Accumulative iteration time: 477.7
Weighted Recall: 0.9925898572131955
Weighted FalsePositiveRate: 0.007944966601606863
Kappa statistic: 0.9851525883341422
Training time: 1.4
		
Iteration: 15
Labeled set size: 1092
Unlabelled set size: 2970
	
Mean region size: 51.79345150172329
Incorrectly Classified Instances: 0.6400787789266371
Correctly Classified Instances: 99.35992122107338
Weighted Precision: 0.9936741982665123
Weighted AreaUnderROC: 0.99967118422228
Root mean squared error: 0.07152344354206822
Relative absolute error: 2.3573564311182835
Root relative squared error: 14.304688708413641
Weighted TruePositiveRate: 0.9935992122107337
Weighted MatthewsCorrelation: 0.9872539909281354
Weighted FMeasure: 0.9935974646266914
Iteration time: 29.1
Weighted AreaUnderPRC: 0.9996781184951224
Mean absolute error: 0.011786782155591419
Coverage of cases: 99.85721319547021
Instances selection time: 27.9
Test time: 46.8
Accumulative iteration time: 506.8
Weighted Recall: 0.9935992122107337
Weighted FalsePositiveRate: 0.0068603481568569715
Kappa statistic: 0.9871759581279363
Training time: 1.2
		
Iteration: 16
Labeled set size: 1112
Unlabelled set size: 2950
	
Mean region size: 51.76390940423437
Incorrectly Classified Instances: 0.5933037912358444
Correctly Classified Instances: 99.40669620876416
Weighted Precision: 0.9941291710321011
Weighted AreaUnderROC: 0.9997244656804296
Root mean squared error: 0.06872609739395047
Relative absolute error: 2.2689598622286695
Root relative squared error: 13.745219478790094
Weighted TruePositiveRate: 0.9940669620876414
Weighted MatthewsCorrelation: 0.988178381623275
Weighted FMeasure: 0.9940655149102774
Iteration time: 30.6
Weighted AreaUnderPRC: 0.9997300348662709
Mean absolute error: 0.011344799311143348
Coverage of cases: 99.88675529295914
Instances selection time: 29.0
Test time: 46.4
Accumulative iteration time: 537.4
Weighted Recall: 0.9940669620876414
Weighted FalsePositiveRate: 0.006350632085350088
Kappa statistic: 0.9881136147879198
Training time: 1.6
		
Iteration: 17
Labeled set size: 1132
Unlabelled set size: 2930
	
Mean region size: 51.73806006893157
Incorrectly Classified Instances: 0.5736090595765633
Correctly Classified Instances: 99.42639094042345
Weighted Precision: 0.994322397741134
Weighted AreaUnderROC: 0.9997641779654105
Root mean squared error: 0.06767634841495238
Relative absolute error: 2.2221485893546356
Root relative squared error: 13.535269682990474
Weighted TruePositiveRate: 0.9942639094042344
Weighted MatthewsCorrelation: 0.9885692109508571
Weighted FMeasure: 0.9942625540563922
Iteration time: 30.3
Weighted AreaUnderPRC: 0.9997684306052081
Mean absolute error: 0.011110742946773177
Coverage of cases: 99.90645002461841
Instances selection time: 29.0
Test time: 46.2
Accumulative iteration time: 567.7
Weighted Recall: 0.9942639094042344
Weighted FalsePositiveRate: 0.006138999218081817
Kappa statistic: 0.9885083196425197
Training time: 1.3
		
Iteration: 18
Labeled set size: 1152
Unlabelled set size: 2910
	
Mean region size: 51.704825209256526
Incorrectly Classified Instances: 0.5539143279172821
Correctly Classified Instances: 99.44608567208273
Weighted Precision: 0.9945138933061874
Weighted AreaUnderROC: 0.999797166348839
Root mean squared error: 0.06635351539697383
Relative absolute error: 2.1729047964004664
Root relative squared error: 13.270703079394767
Weighted TruePositiveRate: 0.9944608567208271
Weighted MatthewsCorrelation: 0.9889583438184744
Weighted FMeasure: 0.9944596195629483
Iteration time: 27.6
Weighted AreaUnderPRC: 0.9998004910700601
Mean absolute error: 0.010864523982002331
Coverage of cases: 99.92122107336289
Instances selection time: 26.2
Test time: 42.6
Accumulative iteration time: 595.3
Weighted Recall: 0.9944608567208271
Weighted FalsePositiveRate: 0.005923822344941177
Kappa statistic: 0.9889030979631175
Training time: 1.4
		
Iteration: 19
Labeled set size: 1172
Unlabelled set size: 2890
	
Mean region size: 51.66789758739537
Incorrectly Classified Instances: 0.534219596258001
Correctly Classified Instances: 99.465780403742
Weighted Precision: 0.994709276926892
Weighted AreaUnderROC: 0.999822047211984
Root mean squared error: 0.06566359925503966
Relative absolute error: 2.126971477734964
Root relative squared error: 13.132719851007934
Weighted TruePositiveRate: 0.9946578040374199
Weighted MatthewsCorrelation: 0.9893512828656297
Weighted FMeasure: 0.994656626370934
Iteration time: 25.8
Weighted AreaUnderPRC: 0.9998245009492139
Mean absolute error: 0.01063485738867482
Coverage of cases: 99.92122107336287
Instances selection time: 24.5
Test time: 46.0
Accumulative iteration time: 621.1
Weighted Recall: 0.9946578040374199
Weighted FalsePositiveRate: 0.005719277489417644
Kappa statistic: 0.9892977031493568
Training time: 1.3
		
Iteration: 20
Labeled set size: 1192
Unlabelled set size: 2870
	
Mean region size: 51.6752831117676
Incorrectly Classified Instances: 0.534219596258001
Correctly Classified Instances: 99.465780403742
Weighted Precision: 0.9947090069076312
Weighted AreaUnderROC: 0.9998260038760745
Root mean squared error: 0.06543502012023797
Relative absolute error: 2.1110006093460174
Root relative squared error: 13.087004024047591
Weighted TruePositiveRate: 0.9946578040374199
Weighted MatthewsCorrelation: 0.9893510256492473
Weighted FMeasure: 0.9946566351365963
Iteration time: 25.9
Weighted AreaUnderPRC: 0.9998282942620598
Mean absolute error: 0.010555003046730089
Coverage of cases: 99.92614475627771
Instances selection time: 24.7
Test time: 43.7
Accumulative iteration time: 647.0
Weighted Recall: 0.9946578040374199
Weighted FalsePositiveRate: 0.005719277489417645
Kappa statistic: 0.9892977293805133
Training time: 1.2
		
Iteration: 21
Labeled set size: 1212
Unlabelled set size: 2850
	
Mean region size: 51.6752831117676
Incorrectly Classified Instances: 0.5292959133431806
Correctly Classified Instances: 99.47070408665682
Weighted Precision: 0.9947581481053878
Weighted AreaUnderROC: 0.9998324607634859
Root mean squared error: 0.06502368709499984
Relative absolute error: 2.090477733334403
Root relative squared error: 13.00473741899997
Weighted TruePositiveRate: 0.9947070408665681
Weighted MatthewsCorrelation: 0.9894495501753925
Weighted FMeasure: 0.9947058832658028
Iteration time: 26.6
Weighted AreaUnderPRC: 0.9998345547238543
Mean absolute error: 0.010452388666672014
Coverage of cases: 99.92860659773511
Instances selection time: 25.4
Test time: 43.0
Accumulative iteration time: 673.6
Weighted Recall: 0.9947070408665681
Weighted FalsePositiveRate: 0.005669913278472946
Kappa statistic: 0.9893963688768931
Training time: 1.2
		
Iteration: 22
Labeled set size: 1232
Unlabelled set size: 2830
	
Mean region size: 51.64204825209256
Incorrectly Classified Instances: 0.5292959133431807
Correctly Classified Instances: 99.47070408665681
Weighted Precision: 0.9947560586679698
Weighted AreaUnderROC: 0.9998383108005763
Root mean squared error: 0.06467236431854748
Relative absolute error: 2.067753799409543
Root relative squared error: 12.934472863709498
Weighted TruePositiveRate: 0.9947070408665681
Weighted MatthewsCorrelation: 0.9894475036465558
Weighted FMeasure: 0.9947059131562247
Iteration time: 25.1
Weighted AreaUnderPRC: 0.9998402802092545
Mean absolute error: 0.010338768997047717
Coverage of cases: 99.9310684391925
Instances selection time: 24.0
Test time: 43.2
Accumulative iteration time: 698.7
Weighted Recall: 0.9947070408665681
Weighted FalsePositiveRate: 0.005662825266728208
Kappa statistic: 0.989396459806432
Training time: 1.1
		
Iteration: 23
Labeled set size: 1252
Unlabelled set size: 2810
	
Mean region size: 51.628508124076816
Incorrectly Classified Instances: 0.5194485475135401
Correctly Classified Instances: 99.48055145248645
Weighted Precision: 0.994854645087047
Weighted AreaUnderROC: 0.9998472679113087
Root mean squared error: 0.06398838883569749
Relative absolute error: 2.033338541255582
Root relative squared error: 12.797677767139499
Weighted TruePositiveRate: 0.9948055145248643
Weighted MatthewsCorrelation: 0.989644850956765
Weighted FMeasure: 0.9948044048224081
Iteration time: 24.8
Weighted AreaUnderPRC: 0.9998490600773577
Mean absolute error: 0.010166692706277911
Coverage of cases: 99.93599212210735
Instances selection time: 23.4
Test time: 42.3
Accumulative iteration time: 723.5
Weighted Recall: 0.9948055145248643
Weighted FalsePositiveRate: 0.005564096844838811
Kappa statistic: 0.9895937265528044
Training time: 1.4
		
Iteration: 24
Labeled set size: 1272
Unlabelled set size: 2790
	
Mean region size: 51.65189561792221
Incorrectly Classified Instances: 0.51698670605613
Correctly Classified Instances: 99.48301329394386
Weighted Precision: 0.9948768083897322
Weighted AreaUnderROC: 0.9998490399142448
Root mean squared error: 0.0637398827412418
Relative absolute error: 2.031941244978433
Root relative squared error: 12.747976548248362
Weighted TruePositiveRate: 0.9948301329394387
Weighted MatthewsCorrelation: 0.9896917479803966
Weighted FMeasure: 0.9948290581316824
Iteration time: 27.2
Weighted AreaUnderPRC: 0.9998507747627248
Mean absolute error: 0.010159706224892168
Coverage of cases: 99.94337764647958
Instances selection time: 25.9
Test time: 46.8
Accumulative iteration time: 750.7
Weighted Recall: 0.9948301329394387
Weighted FalsePositiveRate: 0.005530554724685538
Kappa statistic: 0.98964313635251
Training time: 1.3
		
Iteration: 25
Labeled set size: 1292
Unlabelled set size: 2770
	
Mean region size: 51.6494337764648
Incorrectly Classified Instances: 0.5071393402264894
Correctly Classified Instances: 99.49286065977351
Weighted Precision: 0.9949742031156603
Weighted AreaUnderROC: 0.9998565648582204
Root mean squared error: 0.06317907443571738
Relative absolute error: 2.006873115599055
Root relative squared error: 12.635814887143473
Weighted TruePositiveRate: 0.9949286065977349
Weighted MatthewsCorrelation: 0.9898879309906897
Weighted FMeasure: 0.9949275690335335
Iteration time: 30.4
Weighted AreaUnderPRC: 0.9998581697042359
Mean absolute error: 0.010034365577995277
Coverage of cases: 99.94337764647958
Instances selection time: 28.9
Test time: 47.3
Accumulative iteration time: 781.1
Weighted Recall: 0.9949286065977349
Weighted FalsePositiveRate: 0.005428282296923771
Kappa statistic: 0.9898404608069233
Training time: 1.5
		
Iteration: 26
Labeled set size: 1312
Unlabelled set size: 2750
	
Mean region size: 51.67159034958148
Incorrectly Classified Instances: 0.5071393402264894
Correctly Classified Instances: 99.49286065977351
Weighted Precision: 0.9949732365744927
Weighted AreaUnderROC: 0.999859526287785
Root mean squared error: 0.06286816909736369
Relative absolute error: 1.9946183654081935
Root relative squared error: 12.57363381947274
Weighted TruePositiveRate: 0.9949286065977349
Weighted MatthewsCorrelation: 0.9898869824844493
Weighted FMeasure: 0.9949275813292561
Iteration time: 27.4
Weighted AreaUnderPRC: 0.9998610774590715
Mean absolute error: 0.009973091827040965
Coverage of cases: 99.94337764647958
Instances selection time: 25.9
Test time: 50.1
Accumulative iteration time: 808.5
Weighted Recall: 0.9949286065977349
Weighted FalsePositiveRate: 0.005424738291051402
Kappa statistic: 0.9898404992734966
Training time: 1.5
		
Iteration: 27
Labeled set size: 1332
Unlabelled set size: 2730
	
Mean region size: 51.66051206302315
Incorrectly Classified Instances: 0.5046774987690792
Correctly Classified Instances: 99.49532250123092
Weighted Precision: 0.9949974031223363
Weighted AreaUnderROC: 0.9998635557739138
Root mean squared error: 0.06238891590579203
Relative absolute error: 1.9796738915811247
Root relative squared error: 12.477783181158406
Weighted TruePositiveRate: 0.994953225012309
Weighted MatthewsCorrelation: 0.9899358458881931
Weighted FMeasure: 0.9949522091188191
Iteration time: 25.4
Weighted AreaUnderPRC: 0.9998650423268673
Mean absolute error: 0.009898369457905624
Coverage of cases: 99.94830132939441
Instances selection time: 24.1
Test time: 41.3
Accumulative iteration time: 833.9
Weighted Recall: 0.994953225012309
Weighted FalsePositiveRate: 0.0053982841826428676
Kappa statistic: 0.9898898303877603
Training time: 1.3
		
Iteration: 28
Labeled set size: 1352
Unlabelled set size: 2710
	
Mean region size: 51.669128508124075
Incorrectly Classified Instances: 0.48744460856720817
Correctly Classified Instances: 99.5125553914328
Weighted Precision: 0.9951650301385202
Weighted AreaUnderROC: 0.9998700369353379
Root mean squared error: 0.061639053174334046
Relative absolute error: 1.9599082012513018
Root relative squared error: 12.327810634866808
Weighted TruePositiveRate: 0.9951255539143278
Weighted MatthewsCorrelation: 0.9902763951982008
Weighted FMeasure: 0.9951246311944203
Iteration time: 27.9
Weighted AreaUnderPRC: 0.9998714277991396
Mean absolute error: 0.00979954100625651
Coverage of cases: 99.94830132939441
Instances selection time: 26.7
Test time: 54.7
Accumulative iteration time: 861.8
Weighted Recall: 0.9951255539143278
Weighted FalsePositiveRate: 0.005206017412038392
Kappa statistic: 0.9902352408356782
Training time: 1.2
		
Iteration: 29
Labeled set size: 1372
Unlabelled set size: 2690
	
Mean region size: 51.67774495322501
Incorrectly Classified Instances: 0.4849827671097982
Correctly Classified Instances: 99.5150172328902
Weighted Precision: 0.9951876690783278
Weighted AreaUnderROC: 0.9998699155652737
Root mean squared error: 0.061674641212140766
Relative absolute error: 1.9598996633593633
Root relative squared error: 12.334928242428154
Weighted TruePositiveRate: 0.9951501723289018
Weighted MatthewsCorrelation: 0.9903237648939497
Weighted FMeasure: 0.9951492808323985
Iteration time: 24.5
Weighted AreaUnderPRC: 0.9998712966077186
Mean absolute error: 0.009799498316796818
Coverage of cases: 99.95076317085181
Instances selection time: 23.0
Test time: 41.7
Accumulative iteration time: 886.3
Weighted Recall: 0.9951501723289018
Weighted FalsePositiveRate: 0.00517247529188512
Kappa statistic: 0.990284643626634
Training time: 1.5
		
Iteration: 30
Labeled set size: 1392
Unlabelled set size: 2670
	
Mean region size: 51.672821270310195
Incorrectly Classified Instances: 0.4948301329394386
Correctly Classified Instances: 99.50516986706056
Weighted Precision: 0.9950888332504328
Weighted AreaUnderROC: 0.9998687746866711
Root mean squared error: 0.06187970490132686
Relative absolute error: 1.966718514751395
Root relative squared error: 12.37594098026537
Weighted TruePositiveRate: 0.9950516986706054
Weighted MatthewsCorrelation: 0.9901261835502133
Weighted FMeasure: 0.995050797404164
Iteration time: 23.8
Weighted AreaUnderPRC: 0.9998701559701922
Mean absolute error: 0.009833592573756978
Coverage of cases: 99.95076317085181
Instances selection time: 22.2
Test time: 42.5
Accumulative iteration time: 910.1
Weighted Recall: 0.9950516986706054
Weighted FalsePositiveRate: 0.005267659707902148
Kappa statistic: 0.9900874083340906
Training time: 1.6
		
Iteration: 31
Labeled set size: 1412
Unlabelled set size: 2650
	
Mean region size: 51.68759231905466
Incorrectly Classified Instances: 0.4899064500246184
Correctly Classified Instances: 99.51009354997538
Weighted Precision: 0.9951353770688396
Weighted AreaUnderROC: 0.9998718574862997
Root mean squared error: 0.06144347588554709
Relative absolute error: 1.958807161674749
Root relative squared error: 12.28869517710942
Weighted TruePositiveRate: 0.9951009354997536
Weighted MatthewsCorrelation: 0.9902221572891309
Weighted FMeasure: 0.9951000769560215
Iteration time: 25.8
Weighted AreaUnderPRC: 0.9998731917673755
Mean absolute error: 0.009794035808373746
Coverage of cases: 99.95076317085181
Instances selection time: 24.3
Test time: 41.9
Accumulative iteration time: 935.9
Weighted Recall: 0.9951009354997536
Weighted FalsePositiveRate: 0.005207663479340341
Kappa statistic: 0.9901861474893767
Training time: 1.5
		
Iteration: 32
Labeled set size: 1432
Unlabelled set size: 2630
	
Mean region size: 51.669128508124075
Incorrectly Classified Instances: 0.46774987690792713
Correctly Classified Instances: 99.53225012309208
Weighted Precision: 0.995353095445363
Weighted AreaUnderROC: 0.9998749888339542
Root mean squared error: 0.06123185166635705
Relative absolute error: 1.949036152881893
Root relative squared error: 12.24637033327141
Weighted TruePositiveRate: 0.9953225012309206
Weighted MatthewsCorrelation: 0.9906621745249906
Weighted FMeasure: 0.9953217394490865
Iteration time: 24.3
Weighted AreaUnderPRC: 0.9998762692671616
Mean absolute error: 0.009745180764409464
Coverage of cases: 99.95076317085181
Instances selection time: 22.8
Test time: 41.5
Accumulative iteration time: 960.2
Weighted Recall: 0.9953225012309206
Weighted FalsePositiveRate: 0.004966032497791167
Kappa statistic: 0.9906301816696498
Training time: 1.5
		
Iteration: 33
Labeled set size: 1452
Unlabelled set size: 2610
	
Mean region size: 51.6752831117676
Incorrectly Classified Instances: 0.4628261939931068
Correctly Classified Instances: 99.5371738060069
Weighted Precision: 0.9954011177599181
Weighted AreaUnderROC: 0.9998746732717875
Root mean squared error: 0.06110699094467899
Relative absolute error: 1.9543045939516486
Root relative squared error: 12.221398188935797
Weighted TruePositiveRate: 0.9953717380600688
Weighted MatthewsCorrelation: 0.9907595919030788
Weighted FMeasure: 0.9953709967428008
Iteration time: 24.0
Weighted AreaUnderPRC: 0.9998759426514745
Mean absolute error: 0.009771522969758244
Coverage of cases: 99.95322501230922
Instances selection time: 22.4
Test time: 42.4
Accumulative iteration time: 984.2
Weighted Recall: 0.9953717380600688
Weighted FalsePositiveRate: 0.0049131242809740995
Kappa statistic: 0.9907288474013066
Training time: 1.6
		
Iteration: 34
Labeled set size: 1472
Unlabelled set size: 2590
	
Mean region size: 51.69251600196948
Incorrectly Classified Instances: 0.47759724273756754
Correctly Classified Instances: 99.52240275726244
Weighted Precision: 0.9952537432548902
Weighted AreaUnderROC: 0.9998748189158644
Root mean squared error: 0.06132120578650272
Relative absolute error: 1.9610033677123173
Root relative squared error: 12.264241157300543
Weighted TruePositiveRate: 0.9952240275726243
Weighted MatthewsCorrelation: 0.9904640849680671
Weighted FMeasure: 0.9952232629477862
Iteration time: 24.3
Weighted AreaUnderPRC: 0.9998760845422552
Mean absolute error: 0.009805016838561584
Coverage of cases: 99.95322501230922
Instances selection time: 22.6
Test time: 41.8
Accumulative iteration time: 1008.5
Weighted Recall: 0.9952240275726243
Weighted FalsePositiveRate: 0.005061216913808195
Kappa statistic: 0.9904329638757318
Training time: 1.7
		
Iteration: 35
Labeled set size: 1492
Unlabelled set size: 2570
	
Mean region size: 51.68636139832595
Incorrectly Classified Instances: 0.4628261939931068
Correctly Classified Instances: 99.5371738060069
Weighted Precision: 0.995398822764774
Weighted AreaUnderROC: 0.9998752315740823
Root mean squared error: 0.06117800592047683
Relative absolute error: 1.9666549463694014
Root relative squared error: 12.235601184095366
Weighted TruePositiveRate: 0.9953717380600688
Weighted MatthewsCorrelation: 0.9907573577939857
Weighted FMeasure: 0.9953710340973867
Iteration time: 28.2
Weighted AreaUnderPRC: 0.9998764890846623
Mean absolute error: 0.009833274731847006
Coverage of cases: 99.95568685376664
Instances selection time: 26.3
Test time: 44.2
Accumulative iteration time: 1036.7
Weighted Recall: 0.9953717380600688
Weighted FalsePositiveRate: 0.004898948257484622
Kappa statistic: 0.9907289750048056
Training time: 1.9
		
Iteration: 36
Labeled set size: 1512
Unlabelled set size: 2550
	
Mean region size: 51.68759231905466
Incorrectly Classified Instances: 0.4628261939931068
Correctly Classified Instances: 99.5371738060069
Weighted Precision: 0.9953979861619594
Weighted AreaUnderROC: 0.9998776589753648
Root mean squared error: 0.06111355412934054
Relative absolute error: 1.9631748759520327
Root relative squared error: 12.222710825868107
Weighted TruePositiveRate: 0.9953717380600688
Weighted MatthewsCorrelation: 0.9907565463631368
Weighted FMeasure: 0.9953710501852836
Iteration time: 26.3
Weighted AreaUnderPRC: 0.9998788766547456
Mean absolute error: 0.009815874379760165
Coverage of cases: 99.95568685376664
Instances selection time: 24.6
Test time: 44.3
Accumulative iteration time: 1063.0
Weighted Recall: 0.9953717380600688
Weighted FalsePositiveRate: 0.0048954042516122535
Kappa statistic: 0.9907290274522106
Training time: 1.7
		
Iteration: 37
Labeled set size: 1532
Unlabelled set size: 2530
	
Mean region size: 51.696208764155585
Incorrectly Classified Instances: 0.4579025110782865
Correctly Classified Instances: 99.54209748892171
Weighted Precision: 0.9954432336497666
Weighted AreaUnderROC: 0.9998780716335828
Root mean squared error: 0.06091965398574876
Relative absolute error: 1.9695586399465097
Root relative squared error: 12.183930797149749
Weighted TruePositiveRate: 0.9954209748892172
Weighted MatthewsCorrelation: 0.9908512719179242
Weighted FMeasure: 0.9954203580912202
Iteration time: 25.7
Weighted AreaUnderPRC: 0.9998792760841345
Mean absolute error: 0.009847793199732549
Coverage of cases: 99.95568685376664
Instances selection time: 24.3
Test time: 43.7
Accumulative iteration time: 1088.7
Weighted Recall: 0.9954209748892172
Weighted FalsePositiveRate: 0.00482477600543334
Kappa statistic: 0.9908278662347045
Training time: 1.4
		
Iteration: 38
Labeled set size: 1552
Unlabelled set size: 2510
	
Mean region size: 51.697439684884294
Incorrectly Classified Instances: 0.48744460856720817
Correctly Classified Instances: 99.5125553914328
Weighted Precision: 0.9951498092040726
Weighted AreaUnderROC: 0.9998713234580177
Root mean squared error: 0.061873184080384704
Relative absolute error: 1.996861427249836
Root relative squared error: 12.37463681607694
Weighted TruePositiveRate: 0.9951255539143281
Weighted MatthewsCorrelation: 0.9902615379851261
Weighted FMeasure: 0.9951248639635984
Iteration time: 24.6
Weighted AreaUnderPRC: 0.9998725792959956
Mean absolute error: 0.009984307136249182
Coverage of cases: 99.95568685376664
Instances selection time: 22.7
Test time: 41.3
Accumulative iteration time: 1113.3
Weighted Recall: 0.9951255539143281
Weighted FalsePositiveRate: 0.0051315932887186395
Kappa statistic: 0.990236006545941
Training time: 1.9
		
Iteration: 39
Labeled set size: 1572
Unlabelled set size: 2490
	
Mean region size: 51.701132447070414
Incorrectly Classified Instances: 0.4923682914820285
Correctly Classified Instances: 99.50763170851796
Weighted Precision: 0.9950989706535729
Weighted AreaUnderROC: 0.9998694300850174
Root mean squared error: 0.062232559577915014
Relative absolute error: 2.012221042407554
Root relative squared error: 12.446511915583002
Weighted TruePositiveRate: 0.9950763170851799
Weighted MatthewsCorrelation: 0.9901613874009568
Weighted FMeasure: 0.9950756593615229
Iteration time: 24.4
Weighted AreaUnderPRC: 0.9998706999528467
Mean absolute error: 0.010061105212037772
Coverage of cases: 99.95568685376664
Instances selection time: 22.9
Test time: 45.3
Accumulative iteration time: 1137.7
Weighted Recall: 0.9950763170851799
Weighted FalsePositiveRate: 0.005170325482046231
Kappa statistic: 0.9901375138865987
Training time: 1.5
		
Iteration: 40
Labeled set size: 1592
Unlabelled set size: 2470
	
Mean region size: 51.702363367799116
Incorrectly Classified Instances: 0.4800590841949778
Correctly Classified Instances: 99.51994091580502
Weighted Precision: 0.9952192577957142
Weighted AreaUnderROC: 0.9998737023112744
Root mean squared error: 0.061772114036232964
Relative absolute error: 2.0023098382693756
Root relative squared error: 12.354422807246594
Weighted TruePositiveRate: 0.9951994091580504
Weighted MatthewsCorrelation: 0.9904051912127327
Weighted FMeasure: 0.9951988155600633
Iteration time: 24.0
Weighted AreaUnderPRC: 0.9998749331678773
Mean absolute error: 0.010011549191346876
Coverage of cases: 99.95568685376664
Instances selection time: 21.9
Test time: 45.7
Accumulative iteration time: 1161.7
Weighted Recall: 0.9951994091580504
Weighted FalsePositiveRate: 0.005030966928258822
Kappa statistic: 0.9903842358590014
Training time: 2.1
		
Iteration: 41
Labeled set size: 1612
Unlabelled set size: 2450
	
Mean region size: 51.71097981290005
Incorrectly Classified Instances: 0.4751354012801576
Correctly Classified Instances: 99.52486459871984
Weighted Precision: 0.9952664932798754
Weighted AreaUnderROC: 0.9998749888339541
Root mean squared error: 0.061736715976456316
Relative absolute error: 2.007140093237605
Root relative squared error: 12.347343195291263
Weighted TruePositiveRate: 0.9952486459871986
Weighted MatthewsCorrelation: 0.9905018792386668
Weighted FMeasure: 0.9952481030539264
Iteration time: 24.9
Weighted AreaUnderPRC: 0.9998762030457439
Mean absolute error: 0.010035700466188024
Coverage of cases: 99.95568685376664
Instances selection time: 22.9
Test time: 46.5
Accumulative iteration time: 1186.6
Weighted Recall: 0.9952486459871986
Weighted FalsePositiveRate: 0.004963882687952279
Kappa statistic: 0.9904830186640042
Training time: 2.0
		
Iteration: 42
Labeled set size: 1632
Unlabelled set size: 2430
	
Mean region size: 51.703594288527825
Incorrectly Classified Instances: 0.4874446085672083
Correctly Classified Instances: 99.51255539143278
Weighted Precision: 0.995143554266777
Weighted AreaUnderROC: 0.9998708622517739
Root mean squared error: 0.062126881307076484
Relative absolute error: 2.0191943371104704
Root relative squared error: 12.425376261415298
Weighted TruePositiveRate: 0.9951255539143281
Weighted MatthewsCorrelation: 0.9902554875207865
Weighted FMeasure: 0.9951249870977517
Iteration time: 22.0
Weighted AreaUnderPRC: 0.9998721060700596
Mean absolute error: 0.010095971685552351
Coverage of cases: 99.95568685376664
Instances selection time: 20.7
Test time: 42.0
Accumulative iteration time: 1208.6
Weighted Recall: 0.9951255539143281
Weighted FalsePositiveRate: 0.005089065218250209
Kappa statistic: 0.9902364312957592
Training time: 1.3
		
Iteration: 43
Labeled set size: 1652
Unlabelled set size: 2410
	
Mean region size: 51.70728705071393
Incorrectly Classified Instances: 0.4899064500246184
Correctly Classified Instances: 99.51009354997538
Weighted Precision: 0.9951162633652852
Weighted AreaUnderROC: 0.9998690902488377
Root mean squared error: 0.06259437140507738
Relative absolute error: 2.037949176213496
Root relative squared error: 12.518874281015478
Weighted TruePositiveRate: 0.995100935499754
Weighted MatthewsCorrelation: 0.9902035867427672
Weighted FMeasure: 0.9951004148934238
Iteration time: 22.4
Weighted AreaUnderPRC: 0.999870340909189
Mean absolute error: 0.01018974588106748
Coverage of cases: 99.95568685376664
Instances selection time: 20.5
Test time: 42.9
Accumulative iteration time: 1231.0
Weighted Recall: 0.995100935499754
Weighted FalsePositiveRate: 0.005101343303169267
Kappa statistic: 0.9901872819972419
Training time: 1.9
		
Iteration: 44
Labeled set size: 1672
Unlabelled set size: 2390
	
Mean region size: 51.702363367799116
Incorrectly Classified Instances: 0.4899064500246184
Correctly Classified Instances: 99.51009354997538
Weighted Precision: 0.9951147123459837
Weighted AreaUnderROC: 0.9998702068534279
Root mean squared error: 0.0626033997500111
Relative absolute error: 2.042634413803951
Root relative squared error: 12.520679950002219
Weighted TruePositiveRate: 0.995100935499754
Weighted MatthewsCorrelation: 0.9902020957836839
Weighted FMeasure: 0.9951004494537029
Iteration time: 24.0
Weighted AreaUnderPRC: 0.9998714479305859
Mean absolute error: 0.010213172069019753
Coverage of cases: 99.95568685376664
Instances selection time: 22.3
Test time: 42.8
Accumulative iteration time: 1255.0
Weighted Recall: 0.995100935499754
Weighted FalsePositiveRate: 0.00508716727967979
Kappa statistic: 0.9901874060864577
Training time: 1.7
		
Iteration: 45
Labeled set size: 1692
Unlabelled set size: 2370
	
Mean region size: 51.723289020187096
Incorrectly Classified Instances: 0.5071393402264894
Correctly Classified Instances: 99.49286065977351
Weighted Precision: 0.9949412036469184
Weighted AreaUnderROC: 0.9998678522741837
Root mean squared error: 0.06314799029293658
Relative absolute error: 2.0634871016095175
Root relative squared error: 12.629598058587318
Weighted TruePositiveRate: 0.9949286065977352
Weighted MatthewsCorrelation: 0.9898558436249767
Weighted FMeasure: 0.9949281404731851
Iteration time: 21.9
Weighted AreaUnderPRC: 0.9998690959235634
Mean absolute error: 0.010317435508047588
Coverage of cases: 99.95814869522404
Instances selection time: 20.0
Test time: 43.2
Accumulative iteration time: 1276.9
Weighted Recall: 0.9949286065977352
Weighted FalsePositiveRate: 0.0052510820033053116
Kappa statistic: 0.9898423680034437
Training time: 1.9
		
Iteration: 46
Labeled set size: 1712
Unlabelled set size: 2350
	
Mean region size: 51.719596258000976
Incorrectly Classified Instances: 0.5046774987690792
Correctly Classified Instances: 99.49532250123093
Weighted Precision: 0.9949645907483268
Weighted AreaUnderROC: 0.9998654248729013
Root mean squared error: 0.06356239535264142
Relative absolute error: 2.0759560716673686
Root relative squared error: 12.712479070528286
Weighted TruePositiveRate: 0.9949532250123093
Weighted MatthewsCorrelation: 0.9899039457830808
Weighted FMeasure: 0.9949527784883972
Iteration time: 25.5
Weighted AreaUnderPRC: 0.9998666972489868
Mean absolute error: 0.010379780358336843
Coverage of cases: 99.95814869522404
Instances selection time: 23.8
Test time: 42.6
Accumulative iteration time: 1302.4
Weighted Recall: 0.9949532250123093
Weighted FalsePositiveRate: 0.00521753988315204
Kappa statistic: 0.9898917375628982
Training time: 1.7
		
Time end:Sun Oct 08 02.50.05 EEST 2017