Correctly Classified Instances: 90.66815144766147
Correctly Classified Instances: 95.85746102449889
Correctly Classified Instances: 96.16926503340757
Correctly Classified Instances: 97.30512249443208
Correctly Classified Instances: 97.75055679287304
Correctly Classified Instances: 98.01781737193764
Correctly Classified Instances: 98.3296213808463
Correctly Classified Instances: 98.37416481069044
Correctly Classified Instances: 98.64142538975503
Correctly Classified Instances: 98.64142538975501
Correctly Classified Instances: 98.73051224944321
Correctly Classified Instances: 98.6859688195991
Correctly Classified Instances: 98.86414253897549
Correctly Classified Instances: 98.68596881959911
Correctly Classified Instances: 98.73051224944321
Correctly Classified Instances: 98.9086859688196
Correctly Classified Instances: 98.70824053452115
Correctly Classified Instances: 98.68596881959911
