Correctly Classified Instances: 90.66815144766147
Correctly Classified Instances: 93.94209354120267
Correctly Classified Instances: 92.91759465478842
Correctly Classified Instances: 92.85077951002225
Correctly Classified Instances: 92.51670378619154
Correctly Classified Instances: 93.40757238307347
Correctly Classified Instances: 92.89532293986636
Correctly Classified Instances: 92.71714922048997
Correctly Classified Instances: 93.3184855233853
Correctly Classified Instances: 92.09354120267261
Correctly Classified Instances: 92.69487750556792
Correctly Classified Instances: 92.16035634743875
Correctly Classified Instances: 91.98218262806236
Correctly Classified Instances: 92.49443207126949
Correctly Classified Instances: 92.62806236080179
Correctly Classified Instances: 93.65256124721604
Correctly Classified Instances: 95.70155902004456
Correctly Classified Instances: 96.7260579064588
