Correctly Classified Instances: 91.40311804008908
Correctly Classified Instances: 93.58574610244989
Correctly Classified Instances: 94.29844097995544
Correctly Classified Instances: 94.67706013363029
Correctly Classified Instances: 96.12472160356347
Correctly Classified Instances: 96.03563474387529
Correctly Classified Instances: 96.81514476614697
Correctly Classified Instances: 96.52561247216036
Correctly Classified Instances: 97.28285077951003
Correctly Classified Instances: 97.32739420935411
Correctly Classified Instances: 97.83964365256125
Correctly Classified Instances: 98.06236080178175
Correctly Classified Instances: 97.9064587973274
Correctly Classified Instances: 97.95100222717149
Correctly Classified Instances: 98.21826280623608
Correctly Classified Instances: 98.53006681514475
Correctly Classified Instances: 98.26280623608018
Correctly Classified Instances: 98.44097995545658
