Mon Nov 27 16.45.20 EET 2017
Dataset: kr-vs-kp
Test set size: 1598
Initial Labelled set size: 319
Initial Unlabelled set size: 1279
Batch mode: QBestBatchMode
Batch size: 20
Classifiers: SMOsync-1cores
Scenario: PoolBasedSamplingScenario
Query strategy: RandomSelectionQueryStrategy-1cores
Time begining: Mon Nov 27 16.45.20 EET 2017
		
Iteration: 1
Labeled set size: 319
Unlabelled set size: 1279
	
Mean region size: 61.858573216520654
Incorrectly Classified Instances: 6.257822277847309
Correctly Classified Instances: 93.74217772215269
Weighted Precision: 0.9380147772629202
Weighted AreaUnderROC: 0.9837036281303709
Root mean squared error: 0.2244834911250463
Relative absolute error: 17.715285492609066
Root relative squared error: 44.89669822500926
Weighted TruePositiveRate: 0.9374217772215269
Weighted MatthewsCorrelation: 0.875069292875683
Weighted FMeasure: 0.9373398748665501
Iteration time: 61.0
Weighted AreaUnderPRC: 0.9843244879153861
Mean absolute error: 0.08857642746304534
Coverage of cases: 99.18648310387985
Instances selection time: 4.0
Test time: 12.0
Accumulative iteration time: 61.0
Weighted Recall: 0.9374217772215269
Weighted FalsePositiveRate: 0.06464099540377316
Kappa statistic: 0.8743617845972893
Training time: 57.0
		
Iteration: 2
Labeled set size: 339
Unlabelled set size: 1259
	
Mean region size: 61.13892365456821
Incorrectly Classified Instances: 5.944931163954943
Correctly Classified Instances: 94.05506883604505
Weighted Precision: 0.9412845024007686
Weighted AreaUnderROC: 0.985203380918373
Root mean squared error: 0.21852082587049557
Relative absolute error: 16.863503124438214
Root relative squared error: 43.70416517409911
Weighted TruePositiveRate: 0.9405506883604505
Weighted MatthewsCorrelation: 0.8814763613675943
Weighted FMeasure: 0.9404631100372997
Iteration time: 74.0
Weighted AreaUnderPRC: 0.9857396149789327
Mean absolute error: 0.08431751562219107
Coverage of cases: 99.24906132665832
Instances selection time: 4.0
Test time: 12.0
Accumulative iteration time: 135.0
Weighted Recall: 0.9405506883604505
Weighted FalsePositiveRate: 0.0616688713915051
Kappa statistic: 0.8806234223749498
Training time: 70.0
		
Iteration: 3
Labeled set size: 359
Unlabelled set size: 1239
	
Mean region size: 59.94993742177722
Incorrectly Classified Instances: 5.7571964956195245
Correctly Classified Instances: 94.24280350438048
Weighted Precision: 0.9431241329558906
Weighted AreaUnderROC: 0.9871210220229316
Root mean squared error: 0.2138569066661901
Relative absolute error: 15.847264890609553
Root relative squared error: 42.77138133323802
Weighted TruePositiveRate: 0.9424280350438048
Weighted MatthewsCorrelation: 0.885207943724714
Weighted FMeasure: 0.9423464224048389
Iteration time: 66.0
Weighted AreaUnderPRC: 0.9874271890673116
Mean absolute error: 0.07923632445304776
Coverage of cases: 99.18648310387985
Instances selection time: 4.0
Test time: 12.0
Accumulative iteration time: 201.0
Weighted Recall: 0.9424280350438048
Weighted FalsePositiveRate: 0.059727381305409985
Kappa statistic: 0.88439975404203
Training time: 62.0
		
Iteration: 4
Labeled set size: 379
Unlabelled set size: 1219
	
Mean region size: 59.48060075093867
Incorrectly Classified Instances: 6.382978723404255
Correctly Classified Instances: 93.61702127659575
Weighted Precision: 0.936842800664608
Weighted AreaUnderROC: 0.9873553025011576
Root mean squared error: 0.21578681406037606
Relative absolute error: 15.798943830737583
Root relative squared error: 43.15736281207521
Weighted TruePositiveRate: 0.9361702127659575
Weighted MatthewsCorrelation: 0.8726312171209111
Weighted FMeasure: 0.9360797291879738
Iteration time: 80.0
Weighted AreaUnderPRC: 0.9877079210622127
Mean absolute error: 0.07899471915368791
Coverage of cases: 99.18648310387985
Instances selection time: 3.0
Test time: 12.0
Accumulative iteration time: 281.0
Weighted Recall: 0.9361702127659575
Weighted FalsePositiveRate: 0.06601066292723384
Kappa statistic: 0.8718345099161636
Training time: 77.0
		
Iteration: 5
Labeled set size: 399
Unlabelled set size: 1199
	
Mean region size: 59.26157697121402
Incorrectly Classified Instances: 6.4455569461827285
Correctly Classified Instances: 93.55444305381727
Weighted Precision: 0.9360159104610404
Weighted AreaUnderROC: 0.9871700897026393
Root mean squared error: 0.2180707375456699
Relative absolute error: 15.835946850215052
Root relative squared error: 43.614147509133986
Weighted TruePositiveRate: 0.9355444305381727
Weighted MatthewsCorrelation: 0.8711928673191106
Weighted FMeasure: 0.9354702030708961
Iteration time: 67.0
Weighted AreaUnderPRC: 0.9875526900970526
Mean absolute error: 0.07917973425107526
Coverage of cases: 99.12390488110138
Instances selection time: 3.0
Test time: 12.0
Accumulative iteration time: 348.0
Weighted Recall: 0.9355444305381727
Weighted FalsePositiveRate: 0.06635646309167645
Kappa statistic: 0.8706146108627946
Training time: 64.0
		
Iteration: 6
Labeled set size: 419
Unlabelled set size: 1179
	
Mean region size: 58.541927409261575
Incorrectly Classified Instances: 6.382978723404255
Correctly Classified Instances: 93.61702127659575
Weighted Precision: 0.936842800664608
Weighted AreaUnderROC: 0.9877029688983763
Root mean squared error: 0.21753274723494692
Relative absolute error: 15.357139719067241
Root relative squared error: 43.50654944698938
Weighted TruePositiveRate: 0.9361702127659575
Weighted MatthewsCorrelation: 0.8726312171209111
Weighted FMeasure: 0.9360797291879738
Iteration time: 68.0
Weighted AreaUnderPRC: 0.9879700238329036
Mean absolute error: 0.07678569859533621
Coverage of cases: 99.12390488110138
Instances selection time: 3.0
Test time: 12.0
Accumulative iteration time: 416.0
Weighted Recall: 0.9361702127659575
Weighted FalsePositiveRate: 0.06601066292723384
Kappa statistic: 0.8718345099161636
Training time: 65.0
		
Iteration: 7
Labeled set size: 439
Unlabelled set size: 1159
	
Mean region size: 58.29161451814768
Incorrectly Classified Instances: 6.4455569461827285
Correctly Classified Instances: 93.55444305381727
Weighted Precision: 0.9360912347984293
Weighted AreaUnderROC: 0.9878151952974783
Root mean squared error: 0.21778627636564532
Relative absolute error: 15.38467098685915
Root relative squared error: 43.557255273129066
Weighted TruePositiveRate: 0.9355444305381727
Weighted MatthewsCorrelation: 0.8712609621603145
Weighted FMeasure: 0.9354634997328461
Iteration time: 85.0
Weighted AreaUnderPRC: 0.9880284857010727
Mean absolute error: 0.07692335493429575
Coverage of cases: 99.12390488110138
Instances selection time: 3.0
Test time: 11.0
Accumulative iteration time: 501.0
Weighted Recall: 0.9355444305381727
Weighted FalsePositiveRate: 0.06646947429077237
Kappa statistic: 0.8705999632069108
Training time: 82.0
		
Iteration: 8
Labeled set size: 459
Unlabelled set size: 1139
	
Mean region size: 57.415519399249064
Incorrectly Classified Instances: 6.257822277847309
Correctly Classified Instances: 93.74217772215269
Weighted Precision: 0.9378629842509228
Weighted AreaUnderROC: 0.9885207304918342
Root mean squared error: 0.21463030150236215
Relative absolute error: 14.50738337543134
Root relative squared error: 42.92606030047243
Weighted TruePositiveRate: 0.9374217772215269
Weighted MatthewsCorrelation: 0.8749315308078293
Weighted FMeasure: 0.9373528910962574
Iteration time: 93.0
Weighted AreaUnderPRC: 0.9887300172227877
Mean absolute error: 0.0725369168771567
Coverage of cases: 98.68585732165207
Instances selection time: 3.0
Test time: 12.0
Accumulative iteration time: 594.0
Weighted Recall: 0.9374217772215269
Weighted FalsePositiveRate: 0.06441497300558134
Kappa statistic: 0.8743902266478225
Training time: 90.0
		
Iteration: 9
Labeled set size: 479
Unlabelled set size: 1119
	
Mean region size: 57.97872340425532
Incorrectly Classified Instances: 6.132665832290363
Correctly Classified Instances: 93.86733416770964
Weighted Precision: 0.9389879120889499
Weighted AreaUnderROC: 0.9890979685673164
Root mean squared error: 0.21146387821834894
Relative absolute error: 14.356625898804184
Root relative squared error: 42.29277564366979
Weighted TruePositiveRate: 0.9386733416770964
Weighted MatthewsCorrelation: 0.8773288519808831
Weighted FMeasure: 0.9386178090221805
Iteration time: 79.0
Weighted AreaUnderPRC: 0.98921312522825
Mean absolute error: 0.07178312949402092
Coverage of cases: 99.12390488110138
Instances selection time: 3.0
Test time: 12.0
Accumulative iteration time: 673.0
Weighted Recall: 0.9386733416770964
Weighted FalsePositiveRate: 0.06293229428302474
Kappa statistic: 0.8769302827073389
Training time: 76.0
		
Iteration: 10
Labeled set size: 499
Unlabelled set size: 1099
	
Mean region size: 57.91614518147684
Incorrectly Classified Instances: 6.508135168961202
Correctly Classified Instances: 93.4918648310388
Weighted Precision: 0.9355865342063513
Weighted AreaUnderROC: 0.9888974344888205
Root mean squared error: 0.21131287255575137
Relative absolute error: 14.627537647664571
Root relative squared error: 42.26257451115028
Weighted TruePositiveRate: 0.934918648310388
Weighted MatthewsCorrelation: 0.8701158718001505
Weighted FMeasure: 0.9348263905446006
Iteration time: 116.0
Weighted AreaUnderPRC: 0.9889867790464562
Mean absolute error: 0.07313768823832285
Coverage of cases: 99.12390488110138
Instances selection time: 2.0
Test time: 12.0
Accumulative iteration time: 789.0
Weighted Recall: 0.934918648310388
Weighted FalsePositiveRate: 0.06726731925159861
Kappa statistic: 0.8693214610909902
Training time: 114.0
		
Iteration: 11
Labeled set size: 519
Unlabelled set size: 1079
	
Mean region size: 57.947434292866085
Incorrectly Classified Instances: 6.4455569461827285
Correctly Classified Instances: 93.55444305381727
Weighted Precision: 0.9360912347984293
Weighted AreaUnderROC: 0.9897081328823348
Root mean squared error: 0.21392165363647048
Relative absolute error: 14.671715782133166
Root relative squared error: 42.7843307272941
Weighted TruePositiveRate: 0.9355444305381727
Weighted MatthewsCorrelation: 0.8712609621603145
Weighted FMeasure: 0.9354634997328461
Iteration time: 89.0
Weighted AreaUnderPRC: 0.9898489341756276
Mean absolute error: 0.07335857891066583
Coverage of cases: 99.18648310387985
Instances selection time: 3.0
Test time: 12.0
Accumulative iteration time: 878.0
Weighted Recall: 0.9355444305381727
Weighted FalsePositiveRate: 0.06646947429077237
Kappa statistic: 0.8705999632069108
Training time: 86.0
		
Iteration: 12
Labeled set size: 539
Unlabelled set size: 1059
	
Mean region size: 57.88485607008761
Incorrectly Classified Instances: 6.195244055068836
Correctly Classified Instances: 93.80475594493116
Weighted Precision: 0.9384559860397473
Weighted AreaUnderROC: 0.9891878104864974
Root mean squared error: 0.21566768913658
Relative absolute error: 14.715515573319992
Root relative squared error: 43.133537827316
Weighted TruePositiveRate: 0.9380475594493116
Weighted MatthewsCorrelation: 0.876157328982762
Weighted FMeasure: 0.937982460511386
Iteration time: 86.0
Weighted AreaUnderPRC: 0.9893521424801367
Mean absolute error: 0.07357757786659996
Coverage of cases: 98.93617021276596
Instances selection time: 2.0
Test time: 12.0
Accumulative iteration time: 964.0
Weighted Recall: 0.9380475594493116
Weighted FalsePositiveRate: 0.06373013924385101
Kappa statistic: 0.8756533617969826
Training time: 84.0
		
Iteration: 13
Labeled set size: 559
Unlabelled set size: 1039
	
Mean region size: 59.48060075093867
Incorrectly Classified Instances: 6.821026282853567
Correctly Classified Instances: 93.17897371714643
Weighted Precision: 0.9322500567902583
Weighted AreaUnderROC: 0.9895394008836846
Root mean squared error: 0.23059632839618746
Relative absolute error: 16.558055473372015
Root relative squared error: 46.11926567923749
Weighted TruePositiveRate: 0.9317897371714643
Weighted MatthewsCorrelation: 0.8636508483255901
Weighted FMeasure: 0.9317111857740551
Iteration time: 113.0
Weighted AreaUnderPRC: 0.9896413456271613
Mean absolute error: 0.08279027736686007
Coverage of cases: 99.18648310387985
Instances selection time: 3.0
Test time: 11.0
Accumulative iteration time: 1077.0
Weighted Recall: 0.9317897371714643
Weighted FalsePositiveRate: 0.07012643206477076
Kappa statistic: 0.8630775979033457
Training time: 110.0
		
Iteration: 14
Labeled set size: 579
Unlabelled set size: 1019
	
Mean region size: 58.57321652065081
Incorrectly Classified Instances: 6.132665832290363
Correctly Classified Instances: 93.86733416770964
Weighted Precision: 0.9390502052634779
Weighted AreaUnderROC: 0.9900510904795913
Root mean squared error: 0.21012269156414806
Relative absolute error: 14.68266337474922
Root relative squared error: 42.02453831282961
Weighted TruePositiveRate: 0.9386733416770964
Weighted MatthewsCorrelation: 0.8773842732483693
Weighted FMeasure: 0.9386119185932101
Iteration time: 135.0
Weighted AreaUnderPRC: 0.9901348044284008
Mean absolute error: 0.0734133168737461
Coverage of cases: 99.31163954943679
Instances selection time: 2.0
Test time: 12.0
Accumulative iteration time: 1212.0
Weighted Recall: 0.9386733416770964
Weighted FalsePositiveRate: 0.06304530548212066
Kappa statistic: 0.8769163539876983
Training time: 133.0
		
Iteration: 15
Labeled set size: 599
Unlabelled set size: 999
	
Mean region size: 58.729662077597
Incorrectly Classified Instances: 6.132665832290363
Correctly Classified Instances: 93.86733416770964
Weighted Precision: 0.9390502052634779
Weighted AreaUnderROC: 0.989970256080238
Root mean squared error: 0.20724918840142967
Relative absolute error: 14.596368384015571
Root relative squared error: 41.44983768028593
Weighted TruePositiveRate: 0.9386733416770964
Weighted MatthewsCorrelation: 0.8773842732483693
Weighted FMeasure: 0.9386119185932101
Iteration time: 117.0
Weighted AreaUnderPRC: 0.9900317400093156
Mean absolute error: 0.07298184192007785
Coverage of cases: 99.18648310387985
Instances selection time: 2.0
Test time: 12.0
Accumulative iteration time: 1329.0
Weighted Recall: 0.9386733416770964
Weighted FalsePositiveRate: 0.06304530548212066
Kappa statistic: 0.8769163539876983
Training time: 115.0
		
Iteration: 16
Labeled set size: 619
Unlabelled set size: 979
	
Mean region size: 58.729662077597
Incorrectly Classified Instances: 6.07008760951189
Correctly Classified Instances: 93.92991239048811
Weighted Precision: 0.939645646820295
Weighted AreaUnderROC: 0.990164886478681
Root mean squared error: 0.207893082781549
Relative absolute error: 14.539824488602427
Root relative squared error: 41.5786165563098
Weighted TruePositiveRate: 0.9392991239048811
Weighted MatthewsCorrelation: 0.8786123686912855
Weighted FMeasure: 0.9392412668520488
Iteration time: 131.0
Weighted AreaUnderPRC: 0.9902195505820752
Mean absolute error: 0.07269912244301213
Coverage of cases: 99.31163954943679
Instances selection time: 2.0
Test time: 12.0
Accumulative iteration time: 1460.0
Weighted Recall: 0.9392991239048811
Weighted FalsePositiveRate: 0.062360471720390324
Kappa statistic: 0.8781792032442374
Training time: 129.0
		
Iteration: 17
Labeled set size: 639
Unlabelled set size: 959
	
Mean region size: 58.729662077597
Incorrectly Classified Instances: 5.944931163954943
Correctly Classified Instances: 94.05506883604505
Weighted Precision: 0.9407369961047416
Weighted AreaUnderROC: 0.9889029280887766
Root mean squared error: 0.2039043106731373
Relative absolute error: 14.414795045314865
Root relative squared error: 40.78086213462746
Weighted TruePositiveRate: 0.9405506883604505
Weighted MatthewsCorrelation: 0.8809821402807811
Weighted FMeasure: 0.9405103053285822
Iteration time: 126.0
Weighted AreaUnderPRC: 0.9889683400916637
Mean absolute error: 0.07207397522657433
Coverage of cases: 98.87359198998749
Instances selection time: 2.0
Test time: 12.0
Accumulative iteration time: 1586.0
Weighted Recall: 0.9405506883604505
Weighted FalsePositiveRate: 0.060764781798737816
Kappa statistic: 0.880731465492182
Training time: 124.0
		
Iteration: 18
Labeled set size: 659
Unlabelled set size: 939
	
Mean region size: 58.76095118898623
Incorrectly Classified Instances: 5.7571964956195245
Correctly Classified Instances: 94.24280350438048
Weighted Precision: 0.9425187718480095
Weighted AreaUnderROC: 0.9892199872862399
Root mean squared error: 0.20086846517031937
Relative absolute error: 14.067597235935406
Root relative squared error: 40.173693034063874
Weighted TruePositiveRate: 0.9424280350438048
Weighted MatthewsCorrelation: 0.8846670822451964
Weighted FMeasure: 0.942400811562531
Iteration time: 138.0
Weighted AreaUnderPRC: 0.9892840569763361
Mean absolute error: 0.07033798617967703
Coverage of cases: 99.0613266583229
Instances selection time: 2.0
Test time: 12.0
Accumulative iteration time: 1724.0
Weighted Recall: 0.9424280350438048
Weighted FalsePositiveRate: 0.05859726931445089
Kappa statistic: 0.8845304986954152
Training time: 136.0
		
Iteration: 19
Labeled set size: 679
Unlabelled set size: 919
	
Mean region size: 58.41677096370463
Incorrectly Classified Instances: 5.944931163954943
Correctly Classified Instances: 94.05506883604505
Weighted Precision: 0.9407858118804385
Weighted AreaUnderROC: 0.9907268032741856
Root mean squared error: 0.20375771002844764
Relative absolute error: 14.052285308193662
Root relative squared error: 40.75154200568953
Weighted TruePositiveRate: 0.9405506883604505
Weighted MatthewsCorrelation: 0.8810242904146999
Weighted FMeasure: 0.9405050669228878
Iteration time: 145.0
Weighted AreaUnderPRC: 0.9908266031459375
Mean absolute error: 0.07026142654096831
Coverage of cases: 99.43679599499374
Instances selection time: 2.0
Test time: 12.0
Accumulative iteration time: 1869.0
Weighted Recall: 0.9405506883604505
Weighted FalsePositiveRate: 0.060877792997833725
Kappa statistic: 0.8807179707990426
Training time: 143.0
		
Iteration: 20
Labeled set size: 699
Unlabelled set size: 899
	
Mean region size: 58.60450563204005
Incorrectly Classified Instances: 5.882352941176471
Correctly Classified Instances: 94.11764705882354
Weighted Precision: 0.9413875913757158
Weighted AreaUnderROC: 0.9906907024744743
Root mean squared error: 0.20311652222651064
Relative absolute error: 13.969174740758469
Root relative squared error: 40.623304445302125
Weighted TruePositiveRate: 0.9411764705882353
Weighted MatthewsCorrelation: 0.8822584419502614
Weighted FMeasure: 0.9411339443248008
Iteration time: 146.0
Weighted AreaUnderPRC: 0.9908068513675936
Mean absolute error: 0.06984587370379235
Coverage of cases: 99.49937421777221
Instances selection time: 2.0
Test time: 12.0
Accumulative iteration time: 2015.0
Weighted Recall: 0.9411764705882353
Weighted FalsePositiveRate: 0.06019295923610338
Kappa statistic: 0.8819802478059665
Training time: 144.0
		
Iteration: 21
Labeled set size: 719
Unlabelled set size: 879
	
Mean region size: 58.60450563204005
Incorrectly Classified Instances: 5.7571964956195245
Correctly Classified Instances: 94.24280350438048
Weighted Precision: 0.9425948998007425
Weighted AreaUnderROC: 0.9908673178332615
Root mean squared error: 0.20250856036252537
Relative absolute error: 14.045782675938877
Root relative squared error: 40.50171207250507
Weighted TruePositiveRate: 0.9424280350438048
Weighted MatthewsCorrelation: 0.8847302841200434
Weighted FMeasure: 0.9423913953122509
Iteration time: 143.0
Weighted AreaUnderPRC: 0.9910125907539894
Mean absolute error: 0.07022891337969439
Coverage of cases: 99.49937421777221
Instances selection time: 2.0
Test time: 11.0
Accumulative iteration time: 2158.0
Weighted Recall: 0.9424280350438048
Weighted FalsePositiveRate: 0.0588232917126427
Kappa statistic: 0.884504373429784
Training time: 141.0
		
Iteration: 22
Labeled set size: 739
Unlabelled set size: 859
	
Mean region size: 58.51063829787234
Incorrectly Classified Instances: 5.7571964956195245
Correctly Classified Instances: 94.24280350438048
Weighted Precision: 0.9425187718480095
Weighted AreaUnderROC: 0.9907809544737524
Root mean squared error: 0.2027675357343145
Relative absolute error: 13.971033700745716
Root relative squared error: 40.5535071468629
Weighted TruePositiveRate: 0.9424280350438048
Weighted MatthewsCorrelation: 0.8846670822451964
Weighted FMeasure: 0.942400811562531
Iteration time: 149.0
Weighted AreaUnderPRC: 0.9909193728912762
Mean absolute error: 0.06985516850372858
Coverage of cases: 99.49937421777221
Instances selection time: 2.0
Test time: 12.0
Accumulative iteration time: 2307.0
Weighted Recall: 0.9424280350438048
Weighted FalsePositiveRate: 0.05859726931445089
Kappa statistic: 0.8845304986954152
Training time: 147.0
		
Iteration: 23
Labeled set size: 759
Unlabelled set size: 839
	
Mean region size: 58.1351689612015
Incorrectly Classified Instances: 5.569461827284105
Correctly Classified Instances: 94.4305381727159
Weighted Precision: 0.9443824611739517
Weighted AreaUnderROC: 0.9907063984743489
Root mean squared error: 0.20023601042867664
Relative absolute error: 13.620528045483624
Root relative squared error: 40.04720208573533
Weighted TruePositiveRate: 0.9443053817271589
Weighted MatthewsCorrelation: 0.8884203785536792
Weighted FMeasure: 0.9442812130730853
Iteration time: 174.0
Weighted AreaUnderPRC: 0.990818245008826
Mean absolute error: 0.06810264022741812
Coverage of cases: 99.31163954943679
Instances selection time: 2.0
Test time: 12.0
Accumulative iteration time: 2481.0
Weighted Recall: 0.9443053817271589
Weighted FalsePositiveRate: 0.05665577922835577
Kappa statistic: 0.8883021250728437
Training time: 172.0
		
Iteration: 24
Labeled set size: 779
Unlabelled set size: 819
	
Mean region size: 57.7909887359199
Incorrectly Classified Instances: 5.444305381727159
Correctly Classified Instances: 94.55569461827284
Weighted Precision: 0.9455859393616102
Weighted AreaUnderROC: 0.9908500168731998
Root mean squared error: 0.1972769312130685
Relative absolute error: 13.340577726951503
Root relative squared error: 39.4553862426137
Weighted TruePositiveRate: 0.9455569461827285
Weighted MatthewsCorrelation: 0.8908936889447603
Weighted FMeasure: 0.9455413638049543
Iteration time: 146.0
Weighted AreaUnderPRC: 0.9909184937879799
Mean absolute error: 0.06670288863475751
Coverage of cases: 99.24906132665832
Instances selection time: 2.0
Test time: 11.0
Accumulative iteration time: 2627.0
Weighted Recall: 0.9455569461827285
Weighted FalsePositiveRate: 0.055173100505799176
Kappa statistic: 0.8908368811255362
Training time: 144.0
		
Iteration: 25
Labeled set size: 799
Unlabelled set size: 799
	
Mean region size: 57.66583229036296
Incorrectly Classified Instances: 5.444305381727159
Correctly Classified Instances: 94.55569461827284
Weighted Precision: 0.9455859393616102
Weighted AreaUnderROC: 0.9908288272733693
Root mean squared error: 0.1973688472219288
Relative absolute error: 13.288170746428394
Root relative squared error: 39.47376944438576
Weighted TruePositiveRate: 0.9455569461827285
Weighted MatthewsCorrelation: 0.8908936889447603
Weighted FMeasure: 0.9455413638049543
Iteration time: 164.0
Weighted AreaUnderPRC: 0.9908967508020955
Mean absolute error: 0.06644085373214197
Coverage of cases: 99.18648310387985
Instances selection time: 2.0
Test time: 12.0
Accumulative iteration time: 2791.0
Weighted Recall: 0.9455569461827285
Weighted FalsePositiveRate: 0.055173100505799176
Kappa statistic: 0.8908368811255362
Training time: 162.0
		
Iteration: 26
Labeled set size: 819
Unlabelled set size: 779
	
Mean region size: 57.88485607008761
Incorrectly Classified Instances: 5.694618272841051
Correctly Classified Instances: 94.30538172715895
Weighted Precision: 0.9431622415720184
Weighted AreaUnderROC: 0.9905510080755918
Root mean squared error: 0.20050585878043511
Relative absolute error: 13.619984481848993
Root relative squared error: 40.10117175608702
Weighted TruePositiveRate: 0.9430538172715894
Weighted MatthewsCorrelation: 0.8859361795648869
Weighted FMeasure: 0.9430246288399848
Iteration time: 172.0
Weighted AreaUnderPRC: 0.9906782841083621
Mean absolute error: 0.06809992240924496
Coverage of cases: 99.24906132665832
Instances selection time: 2.0
Test time: 12.0
Accumulative iteration time: 2963.0
Weighted Recall: 0.9430538172715894
Weighted FalsePositiveRate: 0.05802544675181645
Kappa statistic: 0.8857791427426892
Training time: 170.0
		
Iteration: 27
Labeled set size: 839
Unlabelled set size: 759
	
Mean region size: 57.85356695869837
Incorrectly Classified Instances: 5.319148936170213
Correctly Classified Instances: 94.68085106382979
Weighted Precision: 0.9468603817715407
Weighted AreaUnderROC: 0.9905023504759811
Root mean squared error: 0.198314169526544
Relative absolute error: 13.446437636024047
Root relative squared error: 39.662833905308794
Weighted TruePositiveRate: 0.9468085106382979
Weighted MatthewsCorrelation: 0.8934194398010453
Weighted FMeasure: 0.9467894414335429
Iteration time: 176.0
Weighted AreaUnderPRC: 0.9906202881392588
Mean absolute error: 0.06723218818012024
Coverage of cases: 99.37421777221527
Instances selection time: 2.0
Test time: 12.0
Accumulative iteration time: 3139.0
Weighted Recall: 0.9468085106382979
Weighted FalsePositiveRate: 0.054029455380530306
Kappa statistic: 0.8933343175610836
Training time: 174.0
		
Iteration: 28
Labeled set size: 859
Unlabelled set size: 739
	
Mean region size: 58.479349186483105
Incorrectly Classified Instances: 5.506883604505632
Correctly Classified Instances: 94.49311639549437
Weighted Precision: 0.9450246562041593
Weighted AreaUnderROC: 0.9906750064745999
Root mean squared error: 0.2004129363817454
Relative absolute error: 13.721621065117343
Root relative squared error: 40.08258727634908
Weighted TruePositiveRate: 0.9449311639549437
Weighted MatthewsCorrelation: 0.8896882705655192
Weighted FMeasure: 0.9449051241032905
Iteration time: 189.0
Weighted AreaUnderPRC: 0.9908341496051701
Mean absolute error: 0.06860810532558671
Coverage of cases: 99.49937421777221
Instances selection time: 2.0
Test time: 12.0
Accumulative iteration time: 3328.0
Weighted Recall: 0.9449311639549437
Weighted FalsePositiveRate: 0.05608395666572133
Kappa statistic: 0.8895509117956145
Training time: 187.0
		
Iteration: 29
Labeled set size: 879
Unlabelled set size: 719
	
Mean region size: 57.82227784730914
Incorrectly Classified Instances: 5.068836045056321
Correctly Classified Instances: 94.93116395494368
Weighted Precision: 0.949314951658539
Weighted AreaUnderROC: 0.990457616876339
Root mean squared error: 0.19882855166808427
Relative absolute error: 13.320140466557099
Root relative squared error: 39.76571033361685
Weighted TruePositiveRate: 0.9493116395494368
Weighted MatthewsCorrelation: 0.8984060230174662
Weighted FMeasure: 0.9493039796168421
Iteration time: 209.0
Weighted AreaUnderPRC: 0.9906340885891474
Mean absolute error: 0.06660070233278549
Coverage of cases: 99.37421777221527
Instances selection time: 2.0
Test time: 12.0
Accumulative iteration time: 3537.0
Weighted Recall: 0.9493116395494368
Weighted FalsePositiveRate: 0.051177109134513045
Kappa statistic: 0.8983883502767201
Training time: 207.0
		
Iteration: 30
Labeled set size: 899
Unlabelled set size: 699
	
Mean region size: 59.16770963704631
Incorrectly Classified Instances: 5.444305381727159
Correctly Classified Instances: 94.55569461827284
Weighted Precision: 0.9456078002349272
Weighted AreaUnderROC: 0.9907581952739344
Root mean squared error: 0.19855810414305528
Relative absolute error: 14.156441460717897
Root relative squared error: 39.71162082861105
Weighted TruePositiveRate: 0.9455569461827285
Weighted MatthewsCorrelation: 0.8909094198908457
Weighted FMeasure: 0.9455374282908028
Iteration time: 212.0
Weighted AreaUnderPRC: 0.9909263126999156
Mean absolute error: 0.07078220730358949
Coverage of cases: 99.56195244055068
Instances selection time: 2.0
Test time: 12.0
Accumulative iteration time: 3749.0
Weighted Recall: 0.9455569461827285
Weighted FalsePositiveRate: 0.05528611170489509
Kappa statistic: 0.8908245367978151
Training time: 210.0
		
Iteration: 31
Labeled set size: 919
Unlabelled set size: 679
	
Mean region size: 59.292866082603254
Incorrectly Classified Instances: 5.632040050062578
Correctly Classified Instances: 94.36795994993741
Weighted Precision: 0.9437174640031262
Weighted AreaUnderROC: 0.990643614474851
Root mean squared error: 0.19945522746407346
Relative absolute error: 14.08403145939419
Root relative squared error: 39.89104549281469
Weighted TruePositiveRate: 0.9436795994993742
Weighted MatthewsCorrelation: 0.8871360967350134
Weighted FMeasure: 0.9436614664391553
Iteration time: 203.0
Weighted AreaUnderPRC: 0.9908234585688404
Mean absolute error: 0.07042015729697094
Coverage of cases: 99.43679599499374
Instances selection time: 2.0
Test time: 12.0
Accumulative iteration time: 3952.0
Weighted Recall: 0.9436795994993742
Weighted FalsePositiveRate: 0.05711459059189429
Kappa statistic: 0.8870662510110012
Training time: 201.0
		
Iteration: 32
Labeled set size: 939
Unlabelled set size: 659
	
Mean region size: 59.13642052565707
Incorrectly Classified Instances: 5.694618272841051
Correctly Classified Instances: 94.30538172715895
Weighted Precision: 0.9431026371617003
Weighted AreaUnderROC: 0.9906514624747883
Root mean squared error: 0.19997891359402492
Relative absolute error: 14.090517936440438
Root relative squared error: 39.99578271880498
Weighted TruePositiveRate: 0.9430538172715894
Weighted MatthewsCorrelation: 0.8858893800704465
Weighted FMeasure: 0.9430334020053225
Iteration time: 215.0
Weighted AreaUnderPRC: 0.9908345919708144
Mean absolute error: 0.0704525896822022
Coverage of cases: 99.43679599499374
Instances selection time: 2.0
Test time: 12.0
Accumulative iteration time: 4167.0
Weighted Recall: 0.9430538172715894
Weighted FalsePositiveRate: 0.05779942435362463
Kappa statistic: 0.8858049752712777
Training time: 213.0
		
Iteration: 33
Labeled set size: 959
Unlabelled set size: 639
	
Mean region size: 58.917396745932415
Incorrectly Classified Instances: 5.632040050062578
Correctly Classified Instances: 94.36795994993741
Weighted Precision: 0.9436780114615412
Weighted AreaUnderROC: 0.9904081744767346
Root mean squared error: 0.20194938000681695
Relative absolute error: 14.002649282679938
Root relative squared error: 40.38987600136339
Weighted TruePositiveRate: 0.9436795994993742
Weighted MatthewsCorrelation: 0.8871157151140474
Weighted FMeasure: 0.9436728795003193
Iteration time: 242.0
Weighted AreaUnderPRC: 0.9906168002648149
Mean absolute error: 0.07001324641339969
Coverage of cases: 99.37421777221527
Instances selection time: 1.0
Test time: 12.0
Accumulative iteration time: 4409.0
Weighted Recall: 0.9436795994993742
Weighted FalsePositiveRate: 0.05677555699460656
Kappa statistic: 0.8871045480021539
Training time: 241.0
		
Iteration: 34
Labeled set size: 979
Unlabelled set size: 619
	
Mean region size: 59.60575719649562
Incorrectly Classified Instances: 5.444305381727159
Correctly Classified Instances: 94.55569461827284
Weighted Precision: 0.9455607214455813
Weighted AreaUnderROC: 0.9892757080857943
Root mean squared error: 0.20048624991880823
Relative absolute error: 14.221068981107582
Root relative squared error: 40.09724998376164
Weighted TruePositiveRate: 0.9455569461827285
Weighted MatthewsCorrelation: 0.8908992614361977
Weighted FMeasure: 0.9455584629028647
Iteration time: 240.0
Weighted AreaUnderPRC: 0.9893880779821053
Mean absolute error: 0.07110534490553791
Coverage of cases: 99.0613266583229
Instances selection time: 1.0
Test time: 12.0
Accumulative iteration time: 4649.0
Weighted Recall: 0.9455569461827285
Weighted FalsePositiveRate: 0.05460804451031962
Kappa statistic: 0.8908985609150879
Training time: 239.0
		
Iteration: 35
Labeled set size: 999
Unlabelled set size: 599
	
Mean region size: 59.292866082603254
Incorrectly Classified Instances: 5.569461827284105
Correctly Classified Instances: 94.4305381727159
Weighted Precision: 0.944321094230939
Weighted AreaUnderROC: 0.9893910736848713
Root mean squared error: 0.2007544574077255
Relative absolute error: 14.177033378745913
Root relative squared error: 40.150891481545095
Weighted TruePositiveRate: 0.9443053817271589
Weighted MatthewsCorrelation: 0.8884093785120901
Weighted FMeasure: 0.9443099048719671
Iteration time: 252.0
Weighted AreaUnderPRC: 0.9895138262993023
Mean absolute error: 0.07088516689372956
Coverage of cases: 99.0613266583229
Instances selection time: 2.0
Test time: 12.0
Accumulative iteration time: 4901.0
Weighted Recall: 0.9443053817271589
Weighted FalsePositiveRate: 0.05575168963558849
Kappa statistic: 0.8884030928433664
Training time: 250.0
		
Iteration: 36
Labeled set size: 1019
Unlabelled set size: 579
	
Mean region size: 58.79224030037547
Incorrectly Classified Instances: 5.569461827284105
Correctly Classified Instances: 94.4305381727159
Weighted Precision: 0.9443029317703654
Weighted AreaUnderROC: 0.9892600120859198
Root mean squared error: 0.20280668369041338
Relative absolute error: 14.083752875356396
Root relative squared error: 40.56133673808267
Weighted TruePositiveRate: 0.9443053817271589
Weighted MatthewsCorrelation: 0.888378566714407
Weighted FMeasure: 0.9443037862529131
Iteration time: 303.0
Weighted AreaUnderPRC: 0.9894387065569387
Mean absolute error: 0.07041876437678198
Coverage of cases: 98.99874843554443
Instances selection time: 2.0
Test time: 11.0
Accumulative iteration time: 5204.0
Weighted Recall: 0.9443053817271589
Weighted FalsePositiveRate: 0.05597771203378031
Kappa statistic: 0.8883778680174361
Training time: 301.0
		
Iteration: 37
Labeled set size: 1039
Unlabelled set size: 559
	
Mean region size: 59.26157697121402
Incorrectly Classified Instances: 5.569461827284105
Correctly Classified Instances: 94.4305381727159
Weighted Precision: 0.944321094230939
Weighted AreaUnderROC: 0.9888699664890402
Root mean squared error: 0.2024930112242999
Relative absolute error: 14.212930797396309
Root relative squared error: 40.49860224485998
Weighted TruePositiveRate: 0.9443053817271589
Weighted MatthewsCorrelation: 0.8884093785120901
Weighted FMeasure: 0.9443099048719671
Iteration time: 279.0
Weighted AreaUnderPRC: 0.9889964158056869
Mean absolute error: 0.07106465398698154
Coverage of cases: 99.0613266583229
Instances selection time: 1.0
Test time: 12.0
Accumulative iteration time: 5483.0
Weighted Recall: 0.9443053817271589
Weighted FalsePositiveRate: 0.05575168963558849
Kappa statistic: 0.8884030928433664
Training time: 278.0
		
Iteration: 38
Labeled set size: 1059
Unlabelled set size: 539
	
Mean region size: 58.917396745932415
Incorrectly Classified Instances: 5.632040050062578
Correctly Classified Instances: 94.36795994993741
Weighted Precision: 0.9436795994993742
Weighted AreaUnderROC: 0.989623374483013
Root mean squared error: 0.2024967272250059
Relative absolute error: 14.029305164438705
Root relative squared error: 40.499345445001175
Weighted TruePositiveRate: 0.9436795994993742
Weighted MatthewsCorrelation: 0.8871300649029595
Weighted FMeasure: 0.9436795994993742
Iteration time: 295.0
Weighted AreaUnderPRC: 0.9897729609342661
Mean absolute error: 0.07014652582219352
Coverage of cases: 99.12390488110138
Instances selection time: 1.0
Test time: 12.0
Accumulative iteration time: 5778.0
Weighted Recall: 0.9436795994993742
Weighted FalsePositiveRate: 0.056549534596414736
Kappa statistic: 0.8871300649029594
Training time: 294.0
		
Iteration: 39
Labeled set size: 1079
Unlabelled set size: 519
	
Mean region size: 58.917396745932415
Incorrectly Classified Instances: 5.632040050062578
Correctly Classified Instances: 94.36795994993741
Weighted Precision: 0.9436795994993742
Weighted AreaUnderROC: 0.9897065632823474
Root mean squared error: 0.20272525724941787
Relative absolute error: 13.97212448533813
Root relative squared error: 40.54505144988357
Weighted TruePositiveRate: 0.9436795994993742
Weighted MatthewsCorrelation: 0.8871300649029595
Weighted FMeasure: 0.9436795994993742
Iteration time: 315.0
Weighted AreaUnderPRC: 0.9898666397753925
Mean absolute error: 0.06986062242669065
Coverage of cases: 99.12390488110138
Instances selection time: 1.0
Test time: 12.0
Accumulative iteration time: 6093.0
Weighted Recall: 0.9436795994993742
Weighted FalsePositiveRate: 0.056549534596414736
Kappa statistic: 0.8871300649029594
Training time: 314.0
		
Iteration: 40
Labeled set size: 1099
Unlabelled set size: 499
	
Mean region size: 58.66708385481852
Incorrectly Classified Instances: 5.632040050062578
Correctly Classified Instances: 94.36795994993741
Weighted Precision: 0.9437034613758838
Weighted AreaUnderROC: 0.9893392768852859
Root mean squared error: 0.2014732402871389
Relative absolute error: 13.968798100903228
Root relative squared error: 40.29464805742778
Weighted TruePositiveRate: 0.9436795994993742
Weighted MatthewsCorrelation: 0.8871667279334866
Weighted FMeasure: 0.9436856094127263
Iteration time: 356.0
Weighted AreaUnderPRC: 0.9894709066145259
Mean absolute error: 0.06984399050451615
Coverage of cases: 99.18648310387985
Instances selection time: 1.0
Test time: 11.0
Accumulative iteration time: 6449.0
Weighted Recall: 0.9436795994993742
Weighted FalsePositiveRate: 0.05632351219822292
Kappa statistic: 0.8871555702715892
Training time: 355.0
		
Iteration: 41
Labeled set size: 1119
Unlabelled set size: 479
	
Mean region size: 58.63579474342929
Incorrectly Classified Instances: 5.506883604505632
Correctly Classified Instances: 94.49311639549437
Weighted Precision: 0.9449749480282049
Weighted AreaUnderROC: 0.9890175088878599
Root mean squared error: 0.20308564167584048
Relative absolute error: 14.049961136906564
Root relative squared error: 40.6171283351681
Weighted TruePositiveRate: 0.9449311639549437
Weighted MatthewsCorrelation: 0.8897008602896713
Weighted FMeasure: 0.9449397183439532
Iteration time: 322.0
Weighted AreaUnderPRC: 0.9891001094562771
Mean absolute error: 0.07024980568453282
Coverage of cases: 99.18648310387985
Instances selection time: 1.0
Test time: 12.0
Accumulative iteration time: 6771.0
Weighted Recall: 0.9449311639549437
Weighted FalsePositiveRate: 0.054953844674762234
Kappa statistic: 0.8896756893308082
Training time: 321.0
		
Iteration: 42
Labeled set size: 1139
Unlabelled set size: 459
	
Mean region size: 58.26032540675845
Incorrectly Classified Instances: 5.569461827284105
Correctly Classified Instances: 94.4305381727159
Weighted Precision: 0.944321094230939
Weighted AreaUnderROC: 0.9892968976856248
Root mean squared error: 0.2009828057038723
Relative absolute error: 13.68128827797436
Root relative squared error: 40.19656114077446
Weighted TruePositiveRate: 0.9443053817271589
Weighted MatthewsCorrelation: 0.8884093785120901
Weighted FMeasure: 0.9443099048719671
Iteration time: 317.0
Weighted AreaUnderPRC: 0.9894051803823646
Mean absolute error: 0.0684064413898718
Coverage of cases: 99.12390488110138
Instances selection time: 1.0
Test time: 12.0
Accumulative iteration time: 7088.0
Weighted Recall: 0.9443053817271589
Weighted FalsePositiveRate: 0.05575168963558849
Kappa statistic: 0.8884030928433664
Training time: 316.0
		
Iteration: 43
Labeled set size: 1159
Unlabelled set size: 439
	
Mean region size: 58.57321652065081
Incorrectly Classified Instances: 5.694618272841051
Correctly Classified Instances: 94.30538172715895
Weighted Precision: 0.9430577300310083
Weighted AreaUnderROC: 0.9893000368855999
Root mean squared error: 0.20311349647597035
Relative absolute error: 13.828093115085716
Root relative squared error: 40.62269929519407
Weighted TruePositiveRate: 0.9430538172715894
Weighted MatthewsCorrelation: 0.8858830993731034
Weighted FMeasure: 0.943055403725985
Iteration time: 321.0
Weighted AreaUnderPRC: 0.9894431627044716
Mean absolute error: 0.06914046557542858
Coverage of cases: 99.12390488110138
Instances selection time: 1.0
Test time: 12.0
Accumulative iteration time: 7409.0
Weighted Recall: 0.9430538172715894
Weighted FalsePositiveRate: 0.05712135715904916
Kappa statistic: 0.8858824027962412
Training time: 320.0
		
Iteration: 44
Labeled set size: 1179
Unlabelled set size: 419
	
Mean region size: 57.35294117647059
Incorrectly Classified Instances: 5.506883604505632
Correctly Classified Instances: 94.49311639549437
Weighted Precision: 0.9449311639549437
Weighted AreaUnderROC: 0.9896751712825986
Root mean squared error: 0.20149001286881263
Relative absolute error: 13.57290935432453
Root relative squared error: 40.298002573762524
Weighted TruePositiveRate: 0.9449311639549437
Weighted MatthewsCorrelation: 0.8896382856828938
Weighted FMeasure: 0.9449311639549437
Iteration time: 304.0
Weighted AreaUnderPRC: 0.9898128555517162
Mean absolute error: 0.06786454677162265
Coverage of cases: 99.0613266583229
Instances selection time: 1.0
Test time: 12.0
Accumulative iteration time: 7713.0
Weighted Recall: 0.9449311639549437
Weighted FalsePositiveRate: 0.05529287827204997
Kappa statistic: 0.8896382856828937
Training time: 303.0
		
Iteration: 45
Labeled set size: 1199
Unlabelled set size: 399
	
Mean region size: 57.66583229036296
Incorrectly Classified Instances: 5.569461827284105
Correctly Classified Instances: 94.4305381727159
Weighted Precision: 0.9443029317703654
Weighted AreaUnderROC: 0.9897928912816568
Root mean squared error: 0.20127746828607784
Relative absolute error: 13.515872978310847
Root relative squared error: 40.25549365721557
Weighted TruePositiveRate: 0.9443053817271589
Weighted MatthewsCorrelation: 0.888378566714407
Weighted FMeasure: 0.9443037862529131
Iteration time: 361.0
Weighted AreaUnderPRC: 0.9899328287510443
Mean absolute error: 0.06757936489155424
Coverage of cases: 99.12390488110138
Instances selection time: 1.0
Test time: 12.0
Accumulative iteration time: 8074.0
Weighted Recall: 0.9443053817271589
Weighted FalsePositiveRate: 0.05597771203378031
Kappa statistic: 0.8883778680174361
Training time: 360.0
		
Iteration: 46
Labeled set size: 1219
Unlabelled set size: 379
	
Mean region size: 57.69712140175219
Incorrectly Classified Instances: 5.569461827284105
Correctly Classified Instances: 94.4305381727159
Weighted Precision: 0.9443029317703654
Weighted AreaUnderROC: 0.9897544360819646
Root mean squared error: 0.20148661016984099
Relative absolute error: 13.507871464340571
Root relative squared error: 40.2973220339682
Weighted TruePositiveRate: 0.9443053817271589
Weighted MatthewsCorrelation: 0.888378566714407
Weighted FMeasure: 0.9443037862529131
Iteration time: 385.0
Weighted AreaUnderPRC: 0.9898974388634694
Mean absolute error: 0.06753935732170285
Coverage of cases: 99.12390488110138
Instances selection time: 1.0
Test time: 12.0
Accumulative iteration time: 8459.0
Weighted Recall: 0.9443053817271589
Weighted FalsePositiveRate: 0.05597771203378031
Kappa statistic: 0.8883778680174361
Training time: 384.0
		
Time end:Mon Nov 27 16.45.32 EET 2017