Mon Nov 27 16.43.07 EET 2017
Dataset: kr-vs-kp
Test set size: 1598
Initial Labelled set size: 319
Initial Unlabelled set size: 1279
Batch mode: QBestBatchMode
Batch size: 20
Classifiers: SMOsync-1cores
Scenario: PoolBasedSamplingScenario
Query strategy: MarginSamplingQueryStrategy-1cores
Time begining: Mon Nov 27 16.43.07 EET 2017
		
Iteration: 1
Labeled set size: 319
Unlabelled set size: 1279
	
Mean region size: 67.6470588235294
Incorrectly Classified Instances: 6.508135168961202
Correctly Classified Instances: 93.4918648310388
Weighted Precision: 0.9359763353437348
Weighted AreaUnderROC: 0.9882240760942074
Root mean squared error: 0.22014768004098698
Relative absolute error: 18.22642980236343
Root relative squared error: 44.0295360081974
Weighted TruePositiveRate: 0.934918648310388
Weighted MatthewsCorrelation: 0.8704763744045617
Weighted FMeasure: 0.9347959967593065
Iteration time: 62.0
Weighted AreaUnderPRC: 0.9882658302259499
Mean absolute error: 0.09113214901181715
Coverage of cases: 99.7496871088861
Instances selection time: 7.0
Test time: 12.0
Accumulative iteration time: 62.0
Weighted Recall: 0.934918648310388
Weighted FalsePositiveRate: 0.06771936404798226
Kappa statistic: 0.8692622480109126
Training time: 55.0
		
Iteration: 2
Labeled set size: 339
Unlabelled set size: 1259
	
Mean region size: 62.57822277847309
Incorrectly Classified Instances: 5.068836045056321
Correctly Classified Instances: 94.93116395494368
Weighted Precision: 0.9495123563900622
Weighted AreaUnderROC: 0.9885913624912691
Root mean squared error: 0.1969018715104546
Relative absolute error: 15.36422691485064
Root relative squared error: 39.38037430209092
Weighted TruePositiveRate: 0.9493116395494368
Weighted MatthewsCorrelation: 0.8985635585118056
Weighted FMeasure: 0.9492772077012123
Iteration time: 69.0
Weighted AreaUnderPRC: 0.988643234339683
Mean absolute error: 0.0768211345742532
Coverage of cases: 99.24906132665832
Instances selection time: 7.0
Test time: 12.0
Accumulative iteration time: 131.0
Weighted Recall: 0.9493116395494368
Weighted FalsePositiveRate: 0.05196818752818441
Kappa statistic: 0.8983078811038604
Training time: 62.0
		
Iteration: 3
Labeled set size: 359
Unlabelled set size: 1239
	
Mean region size: 61.702127659574465
Incorrectly Classified Instances: 5.506883604505632
Correctly Classified Instances: 94.49311639549437
Weighted Precision: 0.9449509855786185
Weighted AreaUnderROC: 0.9863389865092882
Root mean squared error: 0.20434146705646838
Relative absolute error: 15.845340558504557
Root relative squared error: 40.86829341129368
Weighted TruePositiveRate: 0.9449311639549437
Weighted MatthewsCorrelation: 0.88963319099851
Weighted FMeasure: 0.9449173275857055
Iteration time: 59.0
Weighted AreaUnderPRC: 0.9863407090660282
Mean absolute error: 0.07922670279252278
Coverage of cases: 99.12390488110138
Instances selection time: 7.0
Test time: 11.0
Accumulative iteration time: 190.0
Weighted Recall: 0.9449311639549437
Weighted FalsePositiveRate: 0.05574492306843361
Kappa statistic: 0.8895883746822086
Training time: 52.0
		
Iteration: 4
Labeled set size: 379
Unlabelled set size: 1219
	
Mean region size: 61.82728410513141
Incorrectly Classified Instances: 4.693366708385482
Correctly Classified Instances: 95.30663329161452
Weighted Precision: 0.9530696956893006
Weighted AreaUnderROC: 0.9906726520746187
Root mean squared error: 0.18262698285181256
Relative absolute error: 14.147077368698943
Root relative squared error: 36.52539657036251
Weighted TruePositiveRate: 0.9530663329161452
Weighted MatthewsCorrelation: 0.9059477476254806
Weighted FMeasure: 0.9530676404335042
Iteration time: 72.0
Weighted AreaUnderPRC: 0.9905717462178144
Mean absolute error: 0.07073538684349472
Coverage of cases: 99.49937421777221
Instances selection time: 7.0
Test time: 12.0
Accumulative iteration time: 262.0
Weighted Recall: 0.9530663329161452
Weighted FalsePositiveRate: 0.047068106564131
Kappa statistic: 0.9059470352716275
Training time: 65.0
		
Iteration: 5
Labeled set size: 399
Unlabelled set size: 1199
	
Mean region size: 59.88735919899875
Incorrectly Classified Instances: 4.8185231539424285
Correctly Classified Instances: 95.18147684605758
Weighted Precision: 0.9518127546628905
Weighted AreaUnderROC: 0.9882146584942827
Root mean squared error: 0.1917200430174786
Relative absolute error: 13.696180561018057
Root relative squared error: 38.34400860349572
Weighted TruePositiveRate: 0.9518147684605757
Weighted MatthewsCorrelation: 0.9034287536499354
Weighted FMeasure: 0.9518133881064528
Iteration time: 74.0
Weighted AreaUnderPRC: 0.9879551946790324
Mean absolute error: 0.06848090280509028
Coverage of cases: 99.31163954943679
Instances selection time: 6.0
Test time: 12.0
Accumulative iteration time: 336.0
Weighted Recall: 0.9518147684605757
Weighted FalsePositiveRate: 0.04843777408759167
Kappa statistic: 0.9034280431162086
Training time: 68.0
		
Iteration: 6
Labeled set size: 419
Unlabelled set size: 1179
	
Mean region size: 59.57446808510638
Incorrectly Classified Instances: 4.192740926157697
Correctly Classified Instances: 95.8072590738423
Weighted Precision: 0.9580756785184464
Weighted AreaUnderROC: 0.9906059087149525
Root mean squared error: 0.1772005559564505
Relative absolute error: 12.350040769445773
Root relative squared error: 35.4401111912901
Weighted TruePositiveRate: 0.958072590738423
Weighted MatthewsCorrelation: 0.9159800717516692
Weighted FMeasure: 0.9580737587872638
Iteration time: 75.0
Weighted AreaUnderPRC: 0.9903123055330019
Mean absolute error: 0.06175020384722887
Coverage of cases: 99.37421777221527
Instances selection time: 6.0
Test time: 12.0
Accumulative iteration time: 411.0
Weighted Recall: 0.958072590738423
Weighted FalsePositiveRate: 0.042041481266671905
Kappa statistic: 0.9159793515093204
Training time: 69.0
		
Iteration: 7
Labeled set size: 439
Unlabelled set size: 1159
	
Mean region size: 58.57321652065081
Incorrectly Classified Instances: 4.380475594493117
Correctly Classified Instances: 95.61952440550688
Weighted Precision: 0.9562030569424265
Weighted AreaUnderROC: 0.9899443576804451
Root mean squared error: 0.17885911977171431
Relative absolute error: 12.134130024082088
Root relative squared error: 35.771823954342864
Weighted TruePositiveRate: 0.9561952440550688
Weighted MatthewsCorrelation: 0.9122250614157716
Weighted FMeasure: 0.9561976502449725
Iteration time: 79.0
Weighted AreaUnderPRC: 0.9896137843807145
Mean absolute error: 0.06067065012041044
Coverage of cases: 99.0613266583229
Instances selection time: 6.0
Test time: 12.0
Accumulative iteration time: 490.0
Weighted Recall: 0.9561952440550688
Weighted FalsePositiveRate: 0.04386996015367111
Kappa statistic: 0.9122221925775726
Training time: 73.0
		
Iteration: 8
Labeled set size: 459
Unlabelled set size: 1139
	
Mean region size: 60.732165206508135
Incorrectly Classified Instances: 4.317897371714643
Correctly Classified Instances: 95.68210262828536
Weighted Precision: 0.9568241828111599
Weighted AreaUnderROC: 0.9893577020050381
Root mean squared error: 0.1799160655037764
Relative absolute error: 13.173437163265275
Root relative squared error: 35.98321310075528
Weighted TruePositiveRate: 0.9568210262828536
Weighted MatthewsCorrelation: 0.913471990720122
Weighted FMeasure: 0.9568222291988236
Iteration time: 126.0
Weighted AreaUnderPRC: 0.9888339023878815
Mean absolute error: 0.06586718581632638
Coverage of cases: 99.18648310387985
Instances selection time: 6.0
Test time: 12.0
Accumulative iteration time: 616.0
Weighted Recall: 0.9568210262828536
Weighted FalsePositiveRate: 0.04329813759103668
Kappa statistic: 0.9134712724498973
Training time: 120.0
		
Iteration: 9
Labeled set size: 479
Unlabelled set size: 1119
	
Mean region size: 68.4918648310388
Incorrectly Classified Instances: 2.6282853566958697
Correctly Classified Instances: 97.37171464330413
Weighted Precision: 0.9744294832836552
Weighted AreaUnderROC: 0.9874600556202193
Root mean squared error: 0.18093932435985527
Relative absolute error: 16.28534004330198
Root relative squared error: 36.18786487197105
Weighted TruePositiveRate: 0.9737171464330413
Weighted MatthewsCorrelation: 0.9480854822532108
Weighted FMeasure: 0.9737301238906776
Iteration time: 179.0
Weighted AreaUnderPRC: 0.9867710494262478
Mean absolute error: 0.0814267002165099
Coverage of cases: 99.0613266583229
Instances selection time: 7.0
Test time: 11.0
Accumulative iteration time: 795.0
Weighted Recall: 0.9737171464330413
Weighted FalsePositiveRate: 0.024694614825221554
Kappa statistic: 0.9474165014846792
Training time: 172.0
		
Iteration: 10
Labeled set size: 499
Unlabelled set size: 1099
	
Mean region size: 62.015018773466835
Incorrectly Classified Instances: 4.005006257822278
Correctly Classified Instances: 95.99499374217773
Weighted Precision: 0.9599705318392256
Weighted AreaUnderROC: 0.9888099116094206
Root mean squared error: 0.17256081965749606
Relative absolute error: 12.876937288035906
Root relative squared error: 34.51216393149921
Weighted TruePositiveRate: 0.9599499374217773
Weighted MatthewsCorrelation: 0.9197666398555197
Weighted FMeasure: 0.9599542111379387
Iteration time: 133.0
Weighted AreaUnderPRC: 0.9882620876285009
Mean absolute error: 0.06438468644017953
Coverage of cases: 99.12390488110138
Instances selection time: 6.0
Test time: 12.0
Accumulative iteration time: 928.0
Weighted Recall: 0.9599499374217773
Weighted FalsePositiveRate: 0.03998697998148088
Kappa statistic: 0.9197550721931302
Training time: 127.0
		
Iteration: 11
Labeled set size: 519
Unlabelled set size: 1079
	
Mean region size: 66.11389236545682
Incorrectly Classified Instances: 4.505632040050062
Correctly Classified Instances: 95.49436795994994
Weighted Precision: 0.9549414435296385
Weighted AreaUnderROC: 0.9888569996090438
Root mean squared error: 0.17938915814143058
Relative absolute error: 14.7863879810686
Root relative squared error: 35.87783162828612
Weighted TruePositiveRate: 0.9549436795994993
Weighted MatthewsCorrelation: 0.9096967084960302
Weighted FMeasure: 0.954941062644849
Iteration time: 148.0
Weighted AreaUnderPRC: 0.9883922807612513
Mean absolute error: 0.073931939905343
Coverage of cases: 99.12390488110138
Instances selection time: 6.0
Test time: 12.0
Accumulative iteration time: 1076.0
Weighted Recall: 0.9549436795994993
Weighted FalsePositiveRate: 0.0453526388762277
Kappa statistic: 0.9096938463156539
Training time: 142.0
		
Iteration: 12
Labeled set size: 539
Unlabelled set size: 1059
	
Mean region size: 64.86232790988736
Incorrectly Classified Instances: 4.380475594493117
Correctly Classified Instances: 95.61952440550688
Weighted Precision: 0.9561931573185202
Weighted AreaUnderROC: 0.9890179189679567
Root mean squared error: 0.1768809082457349
Relative absolute error: 13.757311049128221
Root relative squared error: 35.37618164914698
Weighted TruePositiveRate: 0.9561952440550688
Weighted MatthewsCorrelation: 0.9122052206575761
Weighted FMeasure: 0.9561926997936032
Iteration time: 158.0
Weighted AreaUnderPRC: 0.9885798129236854
Mean absolute error: 0.0687865552456411
Coverage of cases: 99.12390488110138
Instances selection time: 6.0
Test time: 11.0
Accumulative iteration time: 1234.0
Weighted Recall: 0.9561952440550688
Weighted FalsePositiveRate: 0.04409598255186293
Kappa statistic: 0.9122023505846636
Training time: 152.0
		
Iteration: 13
Labeled set size: 559
Unlabelled set size: 1039
	
Mean region size: 64.48685857321652
Incorrectly Classified Instances: 4.317897371714643
Correctly Classified Instances: 95.68210262828536
Weighted Precision: 0.9568193032579073
Weighted AreaUnderROC: 0.9890249468077003
Root mean squared error: 0.17651903772446317
Relative absolute error: 13.374253520943983
Root relative squared error: 35.303807544892635
Weighted TruePositiveRate: 0.9568210262828536
Weighted MatthewsCorrelation: 0.9134622116069543
Weighted FMeasure: 0.9568197893421461
Iteration time: 178.0
Weighted AreaUnderPRC: 0.9885893148803351
Mean absolute error: 0.06687126760471991
Coverage of cases: 99.12390488110138
Instances selection time: 5.0
Test time: 12.0
Accumulative iteration time: 1412.0
Weighted Recall: 0.9568210262828536
Weighted FalsePositiveRate: 0.04341114879013259
Kappa statistic: 0.9134614931820573
Training time: 173.0
		
Iteration: 14
Labeled set size: 579
Unlabelled set size: 1019
	
Mean region size: 64.0488110137672
Incorrectly Classified Instances: 4.380475594493117
Correctly Classified Instances: 95.61952440550688
Weighted Precision: 0.9561931573185202
Weighted AreaUnderROC: 0.9889825676080394
Root mean squared error: 0.17663151585065062
Relative absolute error: 13.073897454888158
Root relative squared error: 35.326303170130124
Weighted TruePositiveRate: 0.9561952440550688
Weighted MatthewsCorrelation: 0.9122052206575761
Weighted FMeasure: 0.9561926997936032
Iteration time: 156.0
Weighted AreaUnderPRC: 0.9885469492003571
Mean absolute error: 0.0653694872744408
Coverage of cases: 99.12390488110138
Instances selection time: 6.0
Test time: 14.0
Accumulative iteration time: 1568.0
Weighted Recall: 0.9561952440550688
Weighted FalsePositiveRate: 0.04409598255186293
Kappa statistic: 0.9122023505846636
Training time: 150.0
		
Iteration: 15
Labeled set size: 599
Unlabelled set size: 999
	
Mean region size: 63.39173967459324
Incorrectly Classified Instances: 4.380475594493117
Correctly Classified Instances: 95.61952440550688
Weighted Precision: 0.9561931573185202
Weighted AreaUnderROC: 0.9890233772077129
Root mean squared error: 0.17652344995923672
Relative absolute error: 12.80622242075565
Root relative squared error: 35.30468999184734
Weighted TruePositiveRate: 0.9561952440550688
Weighted MatthewsCorrelation: 0.9122052206575761
Weighted FMeasure: 0.9561926997936032
Iteration time: 165.0
Weighted AreaUnderPRC: 0.988586489536669
Mean absolute error: 0.06403111210377825
Coverage of cases: 99.12390488110138
Instances selection time: 6.0
Test time: 14.0
Accumulative iteration time: 1733.0
Weighted Recall: 0.9561952440550688
Weighted FalsePositiveRate: 0.04409598255186293
Kappa statistic: 0.9122023505846636
Training time: 159.0
		
Iteration: 16
Labeled set size: 619
Unlabelled set size: 979
	
Mean region size: 62.984981226533165
Incorrectly Classified Instances: 4.380475594493117
Correctly Classified Instances: 95.61952440550688
Weighted Precision: 0.9561931573185202
Weighted AreaUnderROC: 0.9890194885679442
Root mean squared error: 0.1766330349577018
Relative absolute error: 12.588253881811855
Root relative squared error: 35.32660699154036
Weighted TruePositiveRate: 0.9561952440550688
Weighted MatthewsCorrelation: 0.9122052206575761
Weighted FMeasure: 0.9561926997936032
Iteration time: 191.0
Weighted AreaUnderPRC: 0.9885840163968832
Mean absolute error: 0.06294126940905928
Coverage of cases: 99.12390488110138
Instances selection time: 5.0
Test time: 15.0
Accumulative iteration time: 1924.0
Weighted Recall: 0.9561952440550688
Weighted FalsePositiveRate: 0.04409598255186293
Kappa statistic: 0.9122023505846636
Training time: 186.0
		
Iteration: 17
Labeled set size: 639
Unlabelled set size: 959
	
Mean region size: 62.20275344180225
Incorrectly Classified Instances: 4.380475594493117
Correctly Classified Instances: 95.61952440550688
Weighted Precision: 0.9561931573185202
Weighted AreaUnderROC: 0.9889896661681828
Root mean squared error: 0.17668036506111437
Relative absolute error: 12.400470629514398
Root relative squared error: 35.336073012222876
Weighted TruePositiveRate: 0.9561952440550688
Weighted MatthewsCorrelation: 0.9122052206575761
Weighted FMeasure: 0.9561926997936032
Iteration time: 199.0
Weighted AreaUnderPRC: 0.9885547023338539
Mean absolute error: 0.06200235314757199
Coverage of cases: 99.12390488110138
Instances selection time: 5.0
Test time: 14.0
Accumulative iteration time: 2123.0
Weighted Recall: 0.9561952440550688
Weighted FalsePositiveRate: 0.04409598255186293
Kappa statistic: 0.9122023505846636
Training time: 194.0
		
Iteration: 18
Labeled set size: 659
Unlabelled set size: 939
	
Mean region size: 65.08135168961202
Incorrectly Classified Instances: 4.693366708385482
Correctly Classified Instances: 95.30663329161452
Weighted Precision: 0.9530708538959288
Weighted AreaUnderROC: 0.9893082949656338
Root mean squared error: 0.18016758873431946
Relative absolute error: 13.306548654162723
Root relative squared error: 36.03351774686389
Weighted TruePositiveRate: 0.9530663329161452
Weighted MatthewsCorrelation: 0.9059329599498748
Weighted FMeasure: 0.9530592403859649
Iteration time: 274.0
Weighted AreaUnderPRC: 0.9889561034476341
Mean absolute error: 0.06653274327081361
Coverage of cases: 99.0613266583229
Instances selection time: 5.0
Test time: 14.0
Accumulative iteration time: 2397.0
Weighted Recall: 0.9530663329161452
Weighted FalsePositiveRate: 0.04740714016141871
Kappa statistic: 0.9059151391451112
Training time: 269.0
		
Iteration: 19
Labeled set size: 679
Unlabelled set size: 919
	
Mean region size: 65.08135168961202
Incorrectly Classified Instances: 4.693366708385482
Correctly Classified Instances: 95.30663329161452
Weighted Precision: 0.9530708538959288
Weighted AreaUnderROC: 0.9893730232850159
Root mean squared error: 0.1806924068815801
Relative absolute error: 13.374230992587984
Root relative squared error: 36.138481376316015
Weighted TruePositiveRate: 0.9530663329161452
Weighted MatthewsCorrelation: 0.9059329599498748
Weighted FMeasure: 0.9530592403859649
Iteration time: 204.0
Weighted AreaUnderPRC: 0.9890194651553826
Mean absolute error: 0.06687115496293992
Coverage of cases: 99.0613266583229
Instances selection time: 6.0
Test time: 14.0
Accumulative iteration time: 2601.0
Weighted Recall: 0.9530663329161452
Weighted FalsePositiveRate: 0.04740714016141871
Kappa statistic: 0.9059151391451112
Training time: 198.0
		
Iteration: 20
Labeled set size: 699
Unlabelled set size: 899
	
Mean region size: 65.08135168961202
Incorrectly Classified Instances: 4.693366708385482
Correctly Classified Instances: 95.30663329161452
Weighted Precision: 0.9530708538959288
Weighted AreaUnderROC: 0.9891925192864599
Root mean squared error: 0.1806826579619957
Relative absolute error: 13.200200808936389
Root relative squared error: 36.13653159239914
Weighted TruePositiveRate: 0.9530663329161452
Weighted MatthewsCorrelation: 0.9059329599498748
Weighted FMeasure: 0.9530592403859649
Iteration time: 228.0
Weighted AreaUnderPRC: 0.9888360563501216
Mean absolute error: 0.06600100404468194
Coverage of cases: 99.0613266583229
Instances selection time: 6.0
Test time: 14.0
Accumulative iteration time: 2829.0
Weighted Recall: 0.9530663329161452
Weighted FalsePositiveRate: 0.04740714016141871
Kappa statistic: 0.9059151391451112
Training time: 222.0
		
Iteration: 21
Labeled set size: 719
Unlabelled set size: 879
	
Mean region size: 65.51939924906132
Incorrectly Classified Instances: 4.693366708385482
Correctly Classified Instances: 95.30663329161452
Weighted Precision: 0.9530708538959288
Weighted AreaUnderROC: 0.9890920648872635
Root mean squared error: 0.17944851205684223
Relative absolute error: 13.098019000836224
Root relative squared error: 35.88970241136845
Weighted TruePositiveRate: 0.9530663329161452
Weighted MatthewsCorrelation: 0.9059329599498748
Weighted FMeasure: 0.9530592403859649
Iteration time: 246.0
Weighted AreaUnderPRC: 0.9887333474700563
Mean absolute error: 0.06549009500418113
Coverage of cases: 99.12390488110138
Instances selection time: 5.0
Test time: 14.0
Accumulative iteration time: 3075.0
Weighted Recall: 0.9530663329161452
Weighted FalsePositiveRate: 0.04740714016141871
Kappa statistic: 0.9059151391451112
Training time: 241.0
		
Iteration: 22
Labeled set size: 739
Unlabelled set size: 859
	
Mean region size: 65.51939924906132
Incorrectly Classified Instances: 4.693366708385482
Correctly Classified Instances: 95.30663329161452
Weighted Precision: 0.9530708538959288
Weighted AreaUnderROC: 0.9891030520871756
Root mean squared error: 0.17923432833376937
Relative absolute error: 12.99899630634109
Root relative squared error: 35.84686566675387
Weighted TruePositiveRate: 0.9530663329161452
Weighted MatthewsCorrelation: 0.9059329599498748
Weighted FMeasure: 0.9530592403859649
Iteration time: 236.0
Weighted AreaUnderPRC: 0.9887488028835356
Mean absolute error: 0.06499498153170545
Coverage of cases: 99.12390488110138
Instances selection time: 5.0
Test time: 14.0
Accumulative iteration time: 3311.0
Weighted Recall: 0.9530663329161452
Weighted FalsePositiveRate: 0.04740714016141871
Kappa statistic: 0.9059151391451112
Training time: 231.0
		
Iteration: 23
Labeled set size: 759
Unlabelled set size: 839
	
Mean region size: 65.11264080100125
Incorrectly Classified Instances: 4.693366708385482
Correctly Classified Instances: 95.30663329161452
Weighted Precision: 0.9530708538959288
Weighted AreaUnderROC: 0.9889621628082026
Root mean squared error: 0.17906113858501757
Relative absolute error: 12.914608167474048
Root relative squared error: 35.812227717003516
Weighted TruePositiveRate: 0.9530663329161452
Weighted MatthewsCorrelation: 0.9059329599498748
Weighted FMeasure: 0.9530592403859649
Iteration time: 264.0
Weighted AreaUnderPRC: 0.9886022357172846
Mean absolute error: 0.06457304083737024
Coverage of cases: 99.12390488110138
Instances selection time: 5.0
Test time: 15.0
Accumulative iteration time: 3575.0
Weighted Recall: 0.9530663329161452
Weighted FalsePositiveRate: 0.04740714016141871
Kappa statistic: 0.9059151391451112
Training time: 259.0
		
Iteration: 24
Labeled set size: 779
Unlabelled set size: 819
	
Mean region size: 66.17647058823529
Incorrectly Classified Instances: 4.693366708385482
Correctly Classified Instances: 95.30663329161452
Weighted Precision: 0.9530708538959288
Weighted AreaUnderROC: 0.9894876040840992
Root mean squared error: 0.1839629238862173
Relative absolute error: 13.691300126463771
Root relative squared error: 36.79258477724346
Weighted TruePositiveRate: 0.9530663329161452
Weighted MatthewsCorrelation: 0.9059329599498748
Weighted FMeasure: 0.9530592403859649
Iteration time: 269.0
Weighted AreaUnderPRC: 0.9891483591521041
Mean absolute error: 0.06845650063231885
Coverage of cases: 99.24906132665832
Instances selection time: 5.0
Test time: 14.0
Accumulative iteration time: 3844.0
Weighted Recall: 0.9530663329161452
Weighted FalsePositiveRate: 0.04740714016141871
Kappa statistic: 0.9059151391451112
Training time: 264.0
		
Iteration: 25
Labeled set size: 799
Unlabelled set size: 799
	
Mean region size: 66.14518147684606
Incorrectly Classified Instances: 4.755944931163955
Correctly Classified Instances: 95.24405506883605
Weighted Precision: 0.9524499988020791
Weighted AreaUnderROC: 0.9895751269634991
Root mean squared error: 0.18762801365502257
Relative absolute error: 14.346844933914142
Root relative squared error: 37.52560273100451
Weighted TruePositiveRate: 0.9524405506883604
Weighted MatthewsCorrelation: 0.9046809148017317
Weighted FMeasure: 0.9524318136333902
Iteration time: 381.0
Weighted AreaUnderPRC: 0.9893165989805691
Mean absolute error: 0.0717342246695707
Coverage of cases: 99.31163954943679
Instances selection time: 5.0
Test time: 14.0
Accumulative iteration time: 4225.0
Weighted Recall: 0.9524405506883604
Weighted FalsePositiveRate: 0.04809197392314907
Kappa statistic: 0.9046552853008922
Training time: 376.0
		
Iteration: 26
Labeled set size: 819
Unlabelled set size: 779
	
Mean region size: 66.14518147684606
Incorrectly Classified Instances: 4.755944931163955
Correctly Classified Instances: 95.24405506883605
Weighted Precision: 0.9524499988020791
Weighted AreaUnderROC: 0.9898615436010075
Root mean squared error: 0.18769504846035934
Relative absolute error: 14.305441527794757
Root relative squared error: 37.539009692071865
Weighted TruePositiveRate: 0.9524405506883604
Weighted MatthewsCorrelation: 0.9046809148017317
Weighted FMeasure: 0.9524318136333902
Iteration time: 343.0
Weighted AreaUnderPRC: 0.9896318770850551
Mean absolute error: 0.07152720763897379
Coverage of cases: 99.31163954943679
Instances selection time: 5.0
Test time: 14.0
Accumulative iteration time: 4568.0
Weighted Recall: 0.9524405506883604
Weighted FalsePositiveRate: 0.04809197392314907
Kappa statistic: 0.9046552853008922
Training time: 338.0
		
Iteration: 27
Labeled set size: 839
Unlabelled set size: 759
	
Mean region size: 66.14518147684606
Incorrectly Classified Instances: 4.755944931163955
Correctly Classified Instances: 95.24405506883605
Weighted Precision: 0.9524499988020791
Weighted AreaUnderROC: 0.9899145352806837
Root mean squared error: 0.18761830763589266
Relative absolute error: 14.236136995236606
Root relative squared error: 37.52366152717853
Weighted TruePositiveRate: 0.9524405506883604
Weighted MatthewsCorrelation: 0.9046809148017317
Weighted FMeasure: 0.9524318136333902
Iteration time: 434.0
Weighted AreaUnderPRC: 0.98969689387286
Mean absolute error: 0.07118068497618303
Coverage of cases: 99.31163954943679
Instances selection time: 4.0
Test time: 15.0
Accumulative iteration time: 5002.0
Weighted Recall: 0.9524405506883604
Weighted FalsePositiveRate: 0.04809197392314907
Kappa statistic: 0.9046552853008922
Training time: 430.0
		
Iteration: 28
Labeled set size: 859
Unlabelled set size: 739
	
Mean region size: 66.14518147684606
Incorrectly Classified Instances: 4.755944931163955
Correctly Classified Instances: 95.24405506883605
Weighted Precision: 0.9524499988020791
Weighted AreaUnderROC: 0.9899816533602468
Root mean squared error: 0.18750494879483368
Relative absolute error: 14.16321486094579
Root relative squared error: 37.50098975896673
Weighted TruePositiveRate: 0.9524405506883604
Weighted MatthewsCorrelation: 0.9046809148017317
Weighted FMeasure: 0.9524318136333902
Iteration time: 327.0
Weighted AreaUnderPRC: 0.9898040403893461
Mean absolute error: 0.07081607430472894
Coverage of cases: 99.31163954943679
Instances selection time: 4.0
Test time: 14.0
Accumulative iteration time: 5329.0
Weighted Recall: 0.9524405506883604
Weighted FalsePositiveRate: 0.04809197392314907
Kappa statistic: 0.9046552853008922
Training time: 323.0
		
Iteration: 29
Labeled set size: 879
Unlabelled set size: 719
	
Mean region size: 66.14518147684606
Incorrectly Classified Instances: 4.755944931163955
Correctly Classified Instances: 95.24405506883605
Weighted Precision: 0.9524499988020791
Weighted AreaUnderROC: 0.9902967328776261
Root mean squared error: 0.18761930708813165
Relative absolute error: 14.11563429547501
Root relative squared error: 37.52386141762633
Weighted TruePositiveRate: 0.9524405506883604
Weighted MatthewsCorrelation: 0.9046809148017317
Weighted FMeasure: 0.9524318136333902
Iteration time: 407.0
Weighted AreaUnderPRC: 0.9901480706520694
Mean absolute error: 0.07057817147737505
Coverage of cases: 99.31163954943679
Instances selection time: 5.0
Test time: 14.0
Accumulative iteration time: 5736.0
Weighted Recall: 0.9524405506883604
Weighted FalsePositiveRate: 0.04809197392314907
Kappa statistic: 0.9046552853008922
Training time: 402.0
		
Iteration: 30
Labeled set size: 899
Unlabelled set size: 699
	
Mean region size: 66.14518147684606
Incorrectly Classified Instances: 4.755944931163955
Correctly Classified Instances: 95.24405506883605
Weighted Precision: 0.9524499988020791
Weighted AreaUnderROC: 0.989854515761264
Root mean squared error: 0.18750319057524234
Relative absolute error: 14.04249258142462
Root relative squared error: 37.50063811504847
Weighted TruePositiveRate: 0.9524405506883604
Weighted MatthewsCorrelation: 0.9046809148017317
Weighted FMeasure: 0.9524318136333902
Iteration time: 389.0
Weighted AreaUnderPRC: 0.9896353724188702
Mean absolute error: 0.0702124629071231
Coverage of cases: 99.31163954943679
Instances selection time: 4.0
Test time: 15.0
Accumulative iteration time: 6125.0
Weighted Recall: 0.9524405506883604
Weighted FalsePositiveRate: 0.04809197392314907
Kappa statistic: 0.9046552853008922
Training time: 385.0
		
Iteration: 31
Labeled set size: 919
Unlabelled set size: 679
	
Mean region size: 66.14518147684606
Incorrectly Classified Instances: 4.755944931163955
Correctly Classified Instances: 95.24405506883605
Weighted Precision: 0.9524499988020791
Weighted AreaUnderROC: 0.9898674472810605
Root mean squared error: 0.18758734899172289
Relative absolute error: 13.989064715831939
Root relative squared error: 37.51746979834458
Weighted TruePositiveRate: 0.9524405506883604
Weighted MatthewsCorrelation: 0.9046809148017317
Weighted FMeasure: 0.9524318136333902
Iteration time: 356.0
Weighted AreaUnderPRC: 0.9896618288106713
Mean absolute error: 0.0699453235791597
Coverage of cases: 99.31163954943679
Instances selection time: 4.0
Test time: 14.0
Accumulative iteration time: 6481.0
Weighted Recall: 0.9524405506883604
Weighted FalsePositiveRate: 0.04809197392314907
Kappa statistic: 0.9046552853008922
Training time: 352.0
		
Iteration: 32
Labeled set size: 939
Unlabelled set size: 659
	
Mean region size: 66.14518147684606
Incorrectly Classified Instances: 4.755944931163955
Correctly Classified Instances: 95.24405506883605
Weighted Precision: 0.9524499988020791
Weighted AreaUnderROC: 0.9892980572055153
Root mean squared error: 0.18807036374802527
Relative absolute error: 14.167167568692276
Root relative squared error: 37.61407274960506
Weighted TruePositiveRate: 0.9524405506883604
Weighted MatthewsCorrelation: 0.9046809148017317
Weighted FMeasure: 0.9524318136333902
Iteration time: 372.0
Weighted AreaUnderPRC: 0.9890047689539752
Mean absolute error: 0.07083583784346138
Coverage of cases: 99.31163954943679
Instances selection time: 4.0
Test time: 15.0
Accumulative iteration time: 6853.0
Weighted Recall: 0.9524405506883604
Weighted FalsePositiveRate: 0.04809197392314907
Kappa statistic: 0.9046552853008922
Training time: 368.0
		
Iteration: 33
Labeled set size: 959
Unlabelled set size: 639
	
Mean region size: 66.14518147684606
Incorrectly Classified Instances: 4.755944931163955
Correctly Classified Instances: 95.24405506883605
Weighted Precision: 0.9524499988020791
Weighted AreaUnderROC: 0.9904356424765148
Root mean squared error: 0.18811182803092524
Relative absolute error: 14.105234250977947
Root relative squared error: 37.62236560618505
Weighted TruePositiveRate: 0.9524405506883604
Weighted MatthewsCorrelation: 0.9046809148017317
Weighted FMeasure: 0.9524318136333902
Iteration time: 402.0
Weighted AreaUnderPRC: 0.9903181620136566
Mean absolute error: 0.07052617125488973
Coverage of cases: 99.31163954943679
Instances selection time: 3.0
Test time: 15.0
Accumulative iteration time: 7255.0
Weighted Recall: 0.9524405506883604
Weighted FalsePositiveRate: 0.04809197392314907
Kappa statistic: 0.9046552853008922
Training time: 399.0
		
Iteration: 34
Labeled set size: 979
Unlabelled set size: 619
	
Mean region size: 66.14518147684606
Incorrectly Classified Instances: 4.755944931163955
Correctly Classified Instances: 95.24405506883605
Weighted Precision: 0.9524499988020791
Weighted AreaUnderROC: 0.9901146592790827
Root mean squared error: 0.1882571274845685
Relative absolute error: 14.065543475400222
Root relative squared error: 37.651425496913696
Weighted TruePositiveRate: 0.9524405506883604
Weighted MatthewsCorrelation: 0.9046809148017317
Weighted FMeasure: 0.9524318136333902
Iteration time: 388.0
Weighted AreaUnderPRC: 0.9899445431027085
Mean absolute error: 0.07032771737700111
Coverage of cases: 99.31163954943679
Instances selection time: 4.0
Test time: 14.0
Accumulative iteration time: 7643.0
Weighted Recall: 0.9524405506883604
Weighted FalsePositiveRate: 0.04809197392314907
Kappa statistic: 0.9046552853008922
Training time: 384.0
		
Iteration: 35
Labeled set size: 999
Unlabelled set size: 599
	
Mean region size: 66.14518147684606
Incorrectly Classified Instances: 4.755944931163955
Correctly Classified Instances: 95.24405506883605
Weighted Precision: 0.9524499988020791
Weighted AreaUnderROC: 0.9898945052007438
Root mean squared error: 0.18832348787060674
Relative absolute error: 14.018362165855164
Root relative squared error: 37.66469757412135
Weighted TruePositiveRate: 0.9524405506883604
Weighted MatthewsCorrelation: 0.9046809148017317
Weighted FMeasure: 0.9524318136333902
Iteration time: 374.0
Weighted AreaUnderPRC: 0.9896846576513325
Mean absolute error: 0.07009181082927582
Coverage of cases: 99.31163954943679
Instances selection time: 4.0
Test time: 27.0
Accumulative iteration time: 8017.0
Weighted Recall: 0.9524405506883604
Weighted FalsePositiveRate: 0.04809197392314907
Kappa statistic: 0.9046552853008922
Training time: 370.0
		
Iteration: 36
Labeled set size: 1019
Unlabelled set size: 579
	
Mean region size: 66.14518147684606
Incorrectly Classified Instances: 4.755944931163955
Correctly Classified Instances: 95.24405506883605
Weighted Precision: 0.9524499988020791
Weighted AreaUnderROC: 0.9897854533618166
Root mean squared error: 0.18837010253413078
Relative absolute error: 13.967383566443711
Root relative squared error: 37.67402050682615
Weighted TruePositiveRate: 0.9524405506883604
Weighted MatthewsCorrelation: 0.9046809148017317
Weighted FMeasure: 0.9524318136333902
Iteration time: 451.0
Weighted AreaUnderPRC: 0.9895603791282106
Mean absolute error: 0.06983691783221856
Coverage of cases: 99.31163954943679
Instances selection time: 4.0
Test time: 14.0
Accumulative iteration time: 8468.0
Weighted Recall: 0.9524405506883604
Weighted FalsePositiveRate: 0.04809197392314907
Kappa statistic: 0.9046552853008922
Training time: 447.0
		
Iteration: 37
Labeled set size: 1039
Unlabelled set size: 559
	
Mean region size: 66.14518147684606
Incorrectly Classified Instances: 4.755944931163955
Correctly Classified Instances: 95.24405506883605
Weighted Precision: 0.9524499988020791
Weighted AreaUnderROC: 0.9899443576804451
Root mean squared error: 0.1884553173932314
Relative absolute error: 13.924388373261753
Root relative squared error: 37.69106347864628
Weighted TruePositiveRate: 0.9524405506883604
Weighted MatthewsCorrelation: 0.9046809148017317
Weighted FMeasure: 0.9524318136333902
Iteration time: 416.0
Weighted AreaUnderPRC: 0.9897464640669963
Mean absolute error: 0.06962194186630877
Coverage of cases: 99.31163954943679
Instances selection time: 3.0
Test time: 14.0
Accumulative iteration time: 8884.0
Weighted Recall: 0.9524405506883604
Weighted FalsePositiveRate: 0.04809197392314907
Kappa statistic: 0.9046552853008922
Training time: 413.0
		
Iteration: 38
Labeled set size: 1059
Unlabelled set size: 539
	
Mean region size: 66.14518147684606
Incorrectly Classified Instances: 4.755944931163955
Correctly Classified Instances: 95.24405506883605
Weighted Precision: 0.9524499988020791
Weighted AreaUnderROC: 0.9896131720830947
Root mean squared error: 0.18856425347510394
Relative absolute error: 13.887430680771088
Root relative squared error: 37.71285069502079
Weighted TruePositiveRate: 0.9524405506883604
Weighted MatthewsCorrelation: 0.9046809148017317
Weighted FMeasure: 0.9524318136333902
Iteration time: 421.0
Weighted AreaUnderPRC: 0.9893770321368951
Mean absolute error: 0.06943715340385544
Coverage of cases: 99.31163954943679
Instances selection time: 3.0
Test time: 14.0
Accumulative iteration time: 9305.0
Weighted Recall: 0.9524405506883604
Weighted FalsePositiveRate: 0.04809197392314907
Kappa statistic: 0.9046552853008922
Training time: 418.0
		
Iteration: 39
Labeled set size: 1079
Unlabelled set size: 519
	
Mean region size: 66.14518147684606
Incorrectly Classified Instances: 4.755944931163955
Correctly Classified Instances: 95.24405506883605
Weighted Precision: 0.9524499988020791
Weighted AreaUnderROC: 0.9895770712833836
Root mean squared error: 0.1886369045521654
Relative absolute error: 13.853064966175335
Root relative squared error: 37.72738091043308
Weighted TruePositiveRate: 0.9524405506883604
Weighted MatthewsCorrelation: 0.9046809148017317
Weighted FMeasure: 0.9524318136333902
Iteration time: 405.0
Weighted AreaUnderPRC: 0.989308986206199
Mean absolute error: 0.06926532483087668
Coverage of cases: 99.31163954943679
Instances selection time: 3.0
Test time: 14.0
Accumulative iteration time: 9710.0
Weighted Recall: 0.9524405506883604
Weighted FalsePositiveRate: 0.04809197392314907
Kappa statistic: 0.9046552853008922
Training time: 402.0
		
Iteration: 40
Labeled set size: 1099
Unlabelled set size: 499
	
Mean region size: 66.14518147684606
Incorrectly Classified Instances: 4.755944931163955
Correctly Classified Instances: 95.24405506883605
Weighted Precision: 0.9524499988020791
Weighted AreaUnderROC: 0.989918869360749
Root mean squared error: 0.18858577976508809
Relative absolute error: 13.830791574138832
Root relative squared error: 37.71715595301762
Weighted TruePositiveRate: 0.9524405506883604
Weighted MatthewsCorrelation: 0.9046809148017317
Weighted FMeasure: 0.9524318136333902
Iteration time: 475.0
Weighted AreaUnderPRC: 0.989715246967463
Mean absolute error: 0.06915395787069416
Coverage of cases: 99.31163954943679
Instances selection time: 3.0
Test time: 14.0
Accumulative iteration time: 10185.0
Weighted Recall: 0.9524405506883604
Weighted FalsePositiveRate: 0.04809197392314907
Kappa statistic: 0.9046552853008922
Training time: 472.0
		
Iteration: 41
Labeled set size: 1119
Unlabelled set size: 479
	
Mean region size: 66.14518147684606
Incorrectly Classified Instances: 4.755944931163955
Correctly Classified Instances: 95.24405506883605
Weighted Precision: 0.9524499988020791
Weighted AreaUnderROC: 0.9901280008789761
Root mean squared error: 0.18862332721389743
Relative absolute error: 13.825779433396566
Root relative squared error: 37.72466544277949
Weighted TruePositiveRate: 0.9524405506883604
Weighted MatthewsCorrelation: 0.9046809148017317
Weighted FMeasure: 0.9524318136333902
Iteration time: 457.0
Weighted AreaUnderPRC: 0.9899615428684136
Mean absolute error: 0.06912889716698283
Coverage of cases: 99.31163954943679
Instances selection time: 3.0
Test time: 14.0
Accumulative iteration time: 10642.0
Weighted Recall: 0.9524405506883604
Weighted FalsePositiveRate: 0.04809197392314907
Kappa statistic: 0.9046552853008922
Training time: 454.0
		
Iteration: 42
Labeled set size: 1139
Unlabelled set size: 459
	
Mean region size: 66.14518147684606
Incorrectly Classified Instances: 4.755944931163955
Correctly Classified Instances: 95.24405506883605
Weighted Precision: 0.9524499988020791
Weighted AreaUnderROC: 0.990294378477645
Root mean squared error: 0.18859030220236164
Relative absolute error: 13.810638718646157
Root relative squared error: 37.71806044047233
Weighted TruePositiveRate: 0.9524405506883604
Weighted MatthewsCorrelation: 0.9046809148017317
Weighted FMeasure: 0.9524318136333902
Iteration time: 530.0
Weighted AreaUnderPRC: 0.9901308944553731
Mean absolute error: 0.06905319359323078
Coverage of cases: 99.31163954943679
Instances selection time: 3.0
Test time: 14.0
Accumulative iteration time: 11172.0
Weighted Recall: 0.9524405506883604
Weighted FalsePositiveRate: 0.04809197392314907
Kappa statistic: 0.9046552853008922
Training time: 527.0
		
Iteration: 43
Labeled set size: 1159
Unlabelled set size: 439
	
Mean region size: 66.14518147684606
Incorrectly Classified Instances: 4.755944931163955
Correctly Classified Instances: 95.24405506883605
Weighted Precision: 0.9524499988020791
Weighted AreaUnderROC: 0.9896834293626326
Root mean squared error: 0.18857736269441952
Relative absolute error: 13.79900505564844
Root relative squared error: 37.7154725388839
Weighted TruePositiveRate: 0.9524405506883604
Weighted MatthewsCorrelation: 0.9046809148017317
Weighted FMeasure: 0.9524318136333902
Iteration time: 495.0
Weighted AreaUnderPRC: 0.9894486409951255
Mean absolute error: 0.0689950252782422
Coverage of cases: 99.31163954943679
Instances selection time: 2.0
Test time: 14.0
Accumulative iteration time: 11667.0
Weighted Recall: 0.9524405506883604
Weighted FalsePositiveRate: 0.04809197392314907
Kappa statistic: 0.9046552853008922
Training time: 493.0
		
Iteration: 44
Labeled set size: 1179
Unlabelled set size: 419
	
Mean region size: 66.14518147684606
Incorrectly Classified Instances: 4.755944931163955
Correctly Classified Instances: 95.24405506883605
Weighted Precision: 0.9524499988020791
Weighted AreaUnderROC: 0.9894989660039082
Root mean squared error: 0.18853500118588085
Relative absolute error: 13.783535344090122
Root relative squared error: 37.70700023717617
Weighted TruePositiveRate: 0.9524405506883604
Weighted MatthewsCorrelation: 0.9046809148017317
Weighted FMeasure: 0.9524318136333902
Iteration time: 480.0
Weighted AreaUnderPRC: 0.989235772458835
Mean absolute error: 0.06891767672045061
Coverage of cases: 99.31163954943679
Instances selection time: 3.0
Test time: 14.0
Accumulative iteration time: 12147.0
Weighted Recall: 0.9524405506883604
Weighted FalsePositiveRate: 0.04809197392314907
Kappa statistic: 0.9046552853008922
Training time: 477.0
		
Iteration: 45
Labeled set size: 1199
Unlabelled set size: 399
	
Mean region size: 66.14518147684606
Incorrectly Classified Instances: 4.755944931163955
Correctly Classified Instances: 95.24405506883605
Weighted Precision: 0.9524499988020791
Weighted AreaUnderROC: 0.9895186213639511
Root mean squared error: 0.18854684516684575
Relative absolute error: 13.77525210634044
Root relative squared error: 37.70936903336915
Weighted TruePositiveRate: 0.9524405506883604
Weighted MatthewsCorrelation: 0.9046809148017317
Weighted FMeasure: 0.9524318136333902
Iteration time: 484.0
Weighted AreaUnderPRC: 0.989237699632403
Mean absolute error: 0.0688762605317022
Coverage of cases: 99.31163954943679
Instances selection time: 2.0
Test time: 14.0
Accumulative iteration time: 12631.0
Weighted Recall: 0.9524405506883604
Weighted FalsePositiveRate: 0.04809197392314907
Kappa statistic: 0.9046552853008922
Training time: 482.0
		
Iteration: 46
Labeled set size: 1219
Unlabelled set size: 379
	
Mean region size: 66.14518147684606
Incorrectly Classified Instances: 4.755944931163955
Correctly Classified Instances: 95.24405506883605
Weighted Precision: 0.9524499988020791
Weighted AreaUnderROC: 0.9902579029580368
Root mean squared error: 0.18859221337709126
Relative absolute error: 13.7654285047868
Root relative squared error: 37.71844267541825
Weighted TruePositiveRate: 0.9524405506883604
Weighted MatthewsCorrelation: 0.9046809148017317
Weighted FMeasure: 0.9524318136333902
Iteration time: 564.0
Weighted AreaUnderPRC: 0.9900922650040435
Mean absolute error: 0.068827142523934
Coverage of cases: 99.31163954943679
Instances selection time: 2.0
Test time: 14.0
Accumulative iteration time: 13195.0
Weighted Recall: 0.9524405506883604
Weighted FalsePositiveRate: 0.04809197392314907
Kappa statistic: 0.9046552853008922
Training time: 562.0
		
Time end:Mon Nov 27 16.43.24 EET 2017