Sun Oct 08 05.14.47 EEST 2017
Dataset: segment
Test set size: 1155
Initial Labelled set size: 231
Initial Unlabelled set size: 924
Batch mode: QBestBatchMode
Batch size: 20
Classifiers: RandomForest-1cores
Scenario: PoolBasedSamplingScenario
Query strategy: RandomSelectionQueryStrategy-1cores
Time begining: Sun Oct 08 05.14.47 EEST 2017
		
Iteration: 1
Labeled set size: 231
Unlabelled set size: 924
	
Mean region size: 26.493506493506466
Incorrectly Classified Instances: 8.744588744588745
Correctly Classified Instances: 91.25541125541126
Weighted Precision: 0.9147487985234207
Weighted AreaUnderROC: 0.984782893873803
Root mean squared error: 0.14148256435800158
Relative absolute error: 20.05050505050509
Root relative squared error: 40.43201052071825
Weighted TruePositiveRate: 0.9125541125541126
Weighted MatthewsCorrelation: 0.8988068996895534
Weighted FMeasure: 0.9128181287122177
Iteration time: 26.0
Weighted AreaUnderPRC: 0.944286565518913
Mean absolute error: 0.049103277674706555
Coverage of cases: 98.44155844155844
Instances selection time: 2.0
Test time: 7.0
Accumulative iteration time: 26.0
Weighted Recall: 0.9125541125541126
Weighted FalsePositiveRate: 0.014574314574314573
Kappa statistic: 0.897979797979798
Training time: 24.0
		
Iteration: 2
Labeled set size: 251
Unlabelled set size: 904
	
Mean region size: 25.640074211502775
Incorrectly Classified Instances: 11.774891774891774
Correctly Classified Instances: 88.22510822510823
Weighted Precision: 0.8879830306994556
Weighted AreaUnderROC: 0.9832834841925749
Root mean squared error: 0.15086639090110499
Relative absolute error: 21.212121212121286
Root relative squared error: 43.113662321680216
Weighted TruePositiveRate: 0.8822510822510823
Weighted MatthewsCorrelation: 0.8651157952923842
Weighted FMeasure: 0.8840458347843553
Iteration time: 29.0
Weighted AreaUnderPRC: 0.9265572878012005
Mean absolute error: 0.05194805194805235
Coverage of cases: 98.96103896103897
Instances selection time: 2.0
Test time: 7.0
Accumulative iteration time: 55.0
Weighted Recall: 0.8822510822510823
Weighted FalsePositiveRate: 0.019624819624819625
Kappa statistic: 0.8626262626262626
Training time: 27.0
		
Iteration: 3
Labeled set size: 271
Unlabelled set size: 884
	
Mean region size: 23.772418058132217
Incorrectly Classified Instances: 8.831168831168831
Correctly Classified Instances: 91.16883116883118
Weighted Precision: 0.9165186057856347
Weighted AreaUnderROC: 0.9840810704447069
Root mean squared error: 0.14107985343904417
Relative absolute error: 18.050505050505073
Root relative squared error: 40.3169262897674
Weighted TruePositiveRate: 0.9116883116883117
Weighted MatthewsCorrelation: 0.8990050217850304
Weighted FMeasure: 0.9129917364605945
Iteration time: 31.0
Weighted AreaUnderPRC: 0.9379175432167915
Mean absolute error: 0.04420531849103302
Coverage of cases: 98.52813852813853
Instances selection time: 2.0
Test time: 7.0
Accumulative iteration time: 86.0
Weighted Recall: 0.9116883116883117
Weighted FalsePositiveRate: 0.014718614718614721
Kappa statistic: 0.896969696969697
Training time: 29.0
		
Iteration: 4
Labeled set size: 291
Unlabelled set size: 864
	
Mean region size: 26.938775510204067
Incorrectly Classified Instances: 8.571428571428571
Correctly Classified Instances: 91.42857142857143
Weighted Precision: 0.9187974494505381
Weighted AreaUnderROC: 0.9866517993790722
Root mean squared error: 0.14251040170783616
Relative absolute error: 21.070707070707172
Root relative squared error: 40.725739509379665
Weighted TruePositiveRate: 0.9142857142857143
Weighted MatthewsCorrelation: 0.9018391973889213
Weighted FMeasure: 0.9152521940216254
Iteration time: 35.0
Weighted AreaUnderPRC: 0.950154456601984
Mean absolute error: 0.05160173160173207
Coverage of cases: 98.96103896103897
Instances selection time: 2.0
Test time: 7.0
Accumulative iteration time: 121.0
Weighted Recall: 0.9142857142857143
Weighted FalsePositiveRate: 0.014285714285714285
Kappa statistic: 0.8999999999999998
Training time: 33.0
		
Iteration: 5
Labeled set size: 311
Unlabelled set size: 844
	
Mean region size: 24.230055658627048
Incorrectly Classified Instances: 7.705627705627705
Correctly Classified Instances: 92.2943722943723
Weighted Precision: 0.9239869930931593
Weighted AreaUnderROC: 0.9891464427828065
Root mean squared error: 0.13221859301512487
Relative absolute error: 17.14141414141412
Root relative squared error: 37.78461019617331
Weighted TruePositiveRate: 0.922943722943723
Weighted MatthewsCorrelation: 0.9105450440416555
Weighted FMeasure: 0.9232421458512554
Iteration time: 36.0
Weighted AreaUnderPRC: 0.956390699260589
Mean absolute error: 0.041978973407544966
Coverage of cases: 99.13419913419914
Instances selection time: 3.0
Test time: 6.0
Accumulative iteration time: 157.0
Weighted Recall: 0.922943722943723
Weighted FalsePositiveRate: 0.012842712842712841
Kappa statistic: 0.9101010101010101
Training time: 33.0
		
Iteration: 6
Labeled set size: 331
Unlabelled set size: 824
	
Mean region size: 24.625850340136026
Incorrectly Classified Instances: 6.233766233766234
Correctly Classified Instances: 93.76623376623377
Weighted Precision: 0.9393271164435539
Weighted AreaUnderROC: 0.9928361537452445
Root mean squared error: 0.1261189865291568
Relative absolute error: 16.747474747474758
Root relative squared error: 36.04150245189418
Weighted TruePositiveRate: 0.9376623376623376
Weighted MatthewsCorrelation: 0.9278502976418921
Weighted FMeasure: 0.9377131895815785
Iteration time: 39.0
Weighted AreaUnderPRC: 0.9664361693587373
Mean absolute error: 0.04101422387136693
Coverage of cases: 99.56709956709956
Instances selection time: 2.0
Test time: 6.0
Accumulative iteration time: 196.0
Weighted Recall: 0.9376623376623376
Weighted FalsePositiveRate: 0.010389610389610391
Kappa statistic: 0.9272727272727272
Training time: 37.0
		
Iteration: 7
Labeled set size: 351
Unlabelled set size: 804
	
Mean region size: 23.62399505256634
Incorrectly Classified Instances: 5.194805194805195
Correctly Classified Instances: 94.8051948051948
Weighted Precision: 0.9480112442373609
Weighted AreaUnderROC: 0.9930749048930867
Root mean squared error: 0.1221230459111211
Relative absolute error: 15.454545454545459
Root relative squared error: 34.89956730361846
Weighted TruePositiveRate: 0.948051948051948
Weighted MatthewsCorrelation: 0.9392885851247272
Weighted FMeasure: 0.9477374166233139
Iteration time: 40.0
Weighted AreaUnderPRC: 0.9674814640026933
Mean absolute error: 0.03784786641929516
Coverage of cases: 99.56709956709956
Instances selection time: 2.0
Test time: 7.0
Accumulative iteration time: 236.0
Weighted Recall: 0.948051948051948
Weighted FalsePositiveRate: 0.00865800865800866
Kappa statistic: 0.9393939393939393
Training time: 38.0
		
Iteration: 8
Labeled set size: 371
Unlabelled set size: 784
	
Mean region size: 23.426097711811853
Incorrectly Classified Instances: 6.0606060606060606
Correctly Classified Instances: 93.93939393939394
Weighted Precision: 0.940034528751391
Weighted AreaUnderROC: 0.992516069788797
Root mean squared error: 0.12276952478206211
Relative absolute error: 15.414141414141392
Root relative squared error: 35.08431402933633
Weighted TruePositiveRate: 0.9393939393939394
Weighted MatthewsCorrelation: 0.9294364774204645
Weighted FMeasure: 0.9391408542932373
Iteration time: 42.0
Weighted AreaUnderPRC: 0.9652693628138924
Mean absolute error: 0.03774891774891786
Coverage of cases: 99.48051948051948
Instances selection time: 2.0
Test time: 7.0
Accumulative iteration time: 278.0
Weighted Recall: 0.9393939393939394
Weighted FalsePositiveRate: 0.010101010101010102
Kappa statistic: 0.9292929292929294
Training time: 40.0
		
Iteration: 9
Labeled set size: 391
Unlabelled set size: 764
	
Mean region size: 23.834260977118042
Incorrectly Classified Instances: 6.58008658008658
Correctly Classified Instances: 93.41991341991341
Weighted Precision: 0.935060605498104
Weighted AreaUnderROC: 0.9942979579343215
Root mean squared error: 0.12533196488680437
Relative absolute error: 16.272727272727238
Root relative squared error: 35.816592283860274
Weighted TruePositiveRate: 0.9341991341991343
Weighted MatthewsCorrelation: 0.9235420979227473
Weighted FMeasure: 0.9342504305135572
Iteration time: 45.0
Weighted AreaUnderPRC: 0.9643991253191406
Mean absolute error: 0.03985157699443422
Coverage of cases: 100.0
Instances selection time: 2.0
Test time: 7.0
Accumulative iteration time: 323.0
Weighted Recall: 0.9341991341991343
Weighted FalsePositiveRate: 0.010966810966810967
Kappa statistic: 0.9232323232323233
Training time: 43.0
		
Iteration: 10
Labeled set size: 411
Unlabelled set size: 744
	
Mean region size: 24.291898577612898
Incorrectly Classified Instances: 6.233766233766234
Correctly Classified Instances: 93.76623376623377
Weighted Precision: 0.939046048727549
Weighted AreaUnderROC: 0.9952359088722724
Root mean squared error: 0.12333241404327376
Relative absolute error: 16.646464646464654
Root relative squared error: 35.24517303436342
Weighted TruePositiveRate: 0.9376623376623376
Weighted MatthewsCorrelation: 0.9278785807886072
Weighted FMeasure: 0.9381178253393451
Iteration time: 50.0
Weighted AreaUnderPRC: 0.9746715532062911
Mean absolute error: 0.040766852195423815
Coverage of cases: 99.82683982683983
Instances selection time: 2.0
Test time: 7.0
Accumulative iteration time: 373.0
Weighted Recall: 0.9376623376623376
Weighted FalsePositiveRate: 0.010389610389610388
Kappa statistic: 0.9272727272727272
Training time: 48.0
		
Iteration: 11
Labeled set size: 431
Unlabelled set size: 724
	
Mean region size: 23.290043290043187
Incorrectly Classified Instances: 4.675324675324675
Correctly Classified Instances: 95.32467532467533
Weighted Precision: 0.9534632490469822
Weighted AreaUnderROC: 0.9951195942105033
Root mean squared error: 0.11563061482464253
Relative absolute error: 14.434343434343402
Root relative squared error: 33.04420057921194
Weighted TruePositiveRate: 0.9532467532467532
Weighted MatthewsCorrelation: 0.9454663204641438
Weighted FMeasure: 0.9530318347290146
Iteration time: 50.0
Weighted AreaUnderPRC: 0.9747506202073891
Mean absolute error: 0.03534941249226971
Coverage of cases: 99.74025974025975
Instances selection time: 1.0
Test time: 7.0
Accumulative iteration time: 423.0
Weighted Recall: 0.9532467532467532
Weighted FalsePositiveRate: 0.007792207792207792
Kappa statistic: 0.9454545454545454
Training time: 49.0
		
Iteration: 12
Labeled set size: 451
Unlabelled set size: 704
	
Mean region size: 23.599257884972047
Incorrectly Classified Instances: 5.800865800865801
Correctly Classified Instances: 94.19913419913419
Weighted Precision: 0.9418909869533793
Weighted AreaUnderROC: 0.994473741746469
Root mean squared error: 0.11735067617935858
Relative absolute error: 14.969696969696942
Root relative squared error: 33.53574905450099
Weighted TruePositiveRate: 0.941991341991342
Weighted MatthewsCorrelation: 0.9322614561068829
Weighted FMeasure: 0.9418963675157028
Iteration time: 51.0
Weighted AreaUnderPRC: 0.9722832865565977
Mean absolute error: 0.036660482374768176
Coverage of cases: 99.74025974025975
Instances selection time: 2.0
Test time: 7.0
Accumulative iteration time: 474.0
Weighted Recall: 0.941991341991342
Weighted FalsePositiveRate: 0.00966810966810967
Kappa statistic: 0.9323232323232322
Training time: 49.0
		
Iteration: 13
Labeled set size: 471
Unlabelled set size: 684
	
Mean region size: 23.821892393320862
Incorrectly Classified Instances: 5.714285714285714
Correctly Classified Instances: 94.28571428571429
Weighted Precision: 0.9431489305502884
Weighted AreaUnderROC: 0.9937360619178801
Root mean squared error: 0.12332238497929754
Relative absolute error: 16.171717171717166
Root relative squared error: 35.24230699060715
Weighted TruePositiveRate: 0.9428571428571428
Weighted MatthewsCorrelation: 0.9334066697449332
Weighted FMeasure: 0.9427675764157852
Iteration time: 53.0
Weighted AreaUnderPRC: 0.9689238514195546
Mean absolute error: 0.03960420531849119
Coverage of cases: 99.74025974025975
Instances selection time: 1.0
Test time: 7.0
Accumulative iteration time: 527.0
Weighted Recall: 0.9428571428571428
Weighted FalsePositiveRate: 0.009523809523809523
Kappa statistic: 0.9333333333333333
Training time: 52.0
		
Iteration: 14
Labeled set size: 491
Unlabelled set size: 664
	
Mean region size: 23.017934446505702
Incorrectly Classified Instances: 6.0606060606060606
Correctly Classified Instances: 93.93939393939394
Weighted Precision: 0.9423803824230771
Weighted AreaUnderROC: 0.9917097380733744
Root mean squared error: 0.12010096762408895
Relative absolute error: 14.595959595959568
Root relative squared error: 34.32171030091298
Weighted TruePositiveRate: 0.9393939393939394
Weighted MatthewsCorrelation: 0.9303813239632698
Weighted FMeasure: 0.9396086606005307
Iteration time: 56.0
Weighted AreaUnderPRC: 0.968510312000195
Mean absolute error: 0.03574520717377869
Coverage of cases: 99.22077922077922
Instances selection time: 2.0
Test time: 7.0
Accumulative iteration time: 583.0
Weighted Recall: 0.9393939393939394
Weighted FalsePositiveRate: 0.010101010101010098
Kappa statistic: 0.9292929292929294
Training time: 54.0
		
Iteration: 15
Labeled set size: 511
Unlabelled set size: 644
	
Mean region size: 23.153988868274375
Incorrectly Classified Instances: 5.541125541125541
Correctly Classified Instances: 94.45887445887446
Weighted Precision: 0.9467393425135147
Weighted AreaUnderROC: 0.9934824434824434
Root mean squared error: 0.11924312950107308
Relative absolute error: 14.777777777777777
Root relative squared error: 34.076562637861805
Weighted TruePositiveRate: 0.9445887445887445
Weighted MatthewsCorrelation: 0.9362496912507792
Weighted FMeasure: 0.945134910136481
Iteration time: 59.0
Weighted AreaUnderPRC: 0.9684825700197078
Mean absolute error: 0.03619047619047634
Coverage of cases: 99.56709956709956
Instances selection time: 2.0
Test time: 7.0
Accumulative iteration time: 642.0
Weighted Recall: 0.9445887445887445
Weighted FalsePositiveRate: 0.009235209235209235
Kappa statistic: 0.9353535353535352
Training time: 57.0
		
Iteration: 16
Labeled set size: 531
Unlabelled set size: 624
	
Mean region size: 23.61162646876923
Incorrectly Classified Instances: 5.108225108225108
Correctly Classified Instances: 94.89177489177489
Weighted Precision: 0.9497046041858564
Weighted AreaUnderROC: 0.9958249158249157
Root mean squared error: 0.11377591925404384
Relative absolute error: 14.393939393939363
Root relative squared error: 32.51417717199247
Weighted TruePositiveRate: 0.9489177489177489
Weighted MatthewsCorrelation: 0.9407230838713289
Weighted FMeasure: 0.9490880525659067
Iteration time: 59.0
Weighted AreaUnderPRC: 0.9783985278723429
Mean absolute error: 0.035250463821892467
Coverage of cases: 99.82683982683983
Instances selection time: 1.0
Test time: 7.0
Accumulative iteration time: 701.0
Weighted Recall: 0.9489177489177489
Weighted FalsePositiveRate: 0.008513708513708515
Kappa statistic: 0.9404040404040405
Training time: 58.0
		
Iteration: 17
Labeled set size: 551
Unlabelled set size: 604
	
Mean region size: 23.327149041434645
Incorrectly Classified Instances: 5.108225108225108
Correctly Classified Instances: 94.89177489177489
Weighted Precision: 0.949678039988434
Weighted AreaUnderROC: 0.9953771481044207
Root mean squared error: 0.11540576689566594
Relative absolute error: 14.404040404040394
Root relative squared error: 32.97994493137862
Weighted TruePositiveRate: 0.9489177489177489
Weighted MatthewsCorrelation: 0.9406934302903848
Weighted FMeasure: 0.9490163123726494
Iteration time: 61.0
Weighted AreaUnderPRC: 0.9762327966413643
Mean absolute error: 0.03527520098948683
Coverage of cases: 99.74025974025975
Instances selection time: 1.0
Test time: 7.0
Accumulative iteration time: 762.0
Weighted Recall: 0.9489177489177489
Weighted FalsePositiveRate: 0.008513708513708515
Kappa statistic: 0.9404040404040405
Training time: 60.0
		
Iteration: 18
Labeled set size: 571
Unlabelled set size: 584
	
Mean region size: 22.585034013605238
Incorrectly Classified Instances: 6.32034632034632
Correctly Classified Instances: 93.67965367965368
Weighted Precision: 0.937933529366099
Weighted AreaUnderROC: 0.9942336787791333
Root mean squared error: 0.11552359896198922
Relative absolute error: 13.737373737373716
Root relative squared error: 33.01361824912543
Weighted TruePositiveRate: 0.9367965367965368
Weighted MatthewsCorrelation: 0.9267018615406368
Weighted FMeasure: 0.9369749733439038
Iteration time: 64.0
Weighted AreaUnderPRC: 0.9702127972465218
Mean absolute error: 0.0336425479282623
Coverage of cases: 99.65367965367966
Instances selection time: 1.0
Test time: 7.0
Accumulative iteration time: 826.0
Weighted Recall: 0.9367965367965368
Weighted FalsePositiveRate: 0.010533910533910533
Kappa statistic: 0.9262626262626262
Training time: 63.0
		
Iteration: 19
Labeled set size: 591
Unlabelled set size: 564
	
Mean region size: 22.213976499690528
Incorrectly Classified Instances: 6.0606060606060606
Correctly Classified Instances: 93.93939393939394
Weighted Precision: 0.9420350913936405
Weighted AreaUnderROC: 0.9947671520398792
Root mean squared error: 0.11246383325750099
Relative absolute error: 12.888888888888847
Root relative squared error: 32.139217366471335
Weighted TruePositiveRate: 0.9393939393939394
Weighted MatthewsCorrelation: 0.9304096103789388
Weighted FMeasure: 0.9401260322774564
Iteration time: 65.0
Weighted AreaUnderPRC: 0.9740882025878657
Mean absolute error: 0.031564625850340165
Coverage of cases: 99.74025974025975
Instances selection time: 1.0
Test time: 7.0
Accumulative iteration time: 891.0
Weighted Recall: 0.9393939393939394
Weighted FalsePositiveRate: 0.010101010101010102
Kappa statistic: 0.9292929292929294
Training time: 64.0
		
Iteration: 20
Labeled set size: 611
Unlabelled set size: 544
	
Mean region size: 21.521335807049866
Incorrectly Classified Instances: 5.454545454545454
Correctly Classified Instances: 94.54545454545455
Weighted Precision: 0.9457495127507244
Weighted AreaUnderROC: 0.995174690629236
Root mean squared error: 0.10911461296793223
Relative absolute error: 12.393939393939348
Root relative squared error: 31.18209794614901
Weighted TruePositiveRate: 0.9454545454545454
Weighted MatthewsCorrelation: 0.9364518463697766
Weighted FMeasure: 0.9454125128605251
Iteration time: 70.0
Weighted AreaUnderPRC: 0.9773168031390161
Mean absolute error: 0.030352504638218942
Coverage of cases: 99.65367965367966
Instances selection time: 1.0
Test time: 7.0
Accumulative iteration time: 961.0
Weighted Recall: 0.9454545454545454
Weighted FalsePositiveRate: 0.00909090909090909
Kappa statistic: 0.9363636363636362
Training time: 69.0
		
Iteration: 21
Labeled set size: 631
Unlabelled set size: 524
	
Mean region size: 22.510822510822315
Incorrectly Classified Instances: 5.021645021645021
Correctly Classified Instances: 94.97835497835497
Weighted Precision: 0.951495176487912
Weighted AreaUnderROC: 0.9957636975818794
Root mean squared error: 0.1083410634224178
Relative absolute error: 12.767676767676726
Root relative squared error: 30.961037750467252
Weighted TruePositiveRate: 0.9497835497835497
Weighted MatthewsCorrelation: 0.9419939153708817
Weighted FMeasure: 0.9497751511090237
Iteration time: 72.0
Weighted AreaUnderPRC: 0.9797126631559355
Mean absolute error: 0.03126777983920844
Coverage of cases: 99.74025974025975
Instances selection time: 1.0
Test time: 7.0
Accumulative iteration time: 1033.0
Weighted Recall: 0.9497835497835497
Weighted FalsePositiveRate: 0.00836940836940837
Kappa statistic: 0.9414141414141413
Training time: 71.0
		
Iteration: 22
Labeled set size: 651
Unlabelled set size: 504
	
Mean region size: 22.671614100185316
Incorrectly Classified Instances: 4.675324675324675
Correctly Classified Instances: 95.32467532467533
Weighted Precision: 0.9547724578939595
Weighted AreaUnderROC: 0.9964231055140146
Root mean squared error: 0.10729714720528274
Relative absolute error: 12.838383838383798
Root relative squared error: 30.662713842744232
Weighted TruePositiveRate: 0.9532467532467532
Weighted MatthewsCorrelation: 0.9460363545291902
Weighted FMeasure: 0.9534566448056693
Iteration time: 73.0
Weighted AreaUnderPRC: 0.9805399831153149
Mean absolute error: 0.03144094001236862
Coverage of cases: 99.82683982683983
Instances selection time: 1.0
Test time: 7.0
Accumulative iteration time: 1106.0
Weighted Recall: 0.9532467532467532
Weighted FalsePositiveRate: 0.007792207792207792
Kappa statistic: 0.9454545454545454
Training time: 72.0
		
Iteration: 23
Labeled set size: 671
Unlabelled set size: 484
	
Mean region size: 23.3024118738403
Incorrectly Classified Instances: 5.367965367965368
Correctly Classified Instances: 94.63203463203463
Weighted Precision: 0.9467703990851901
Weighted AreaUnderROC: 0.9955354409899865
Root mean squared error: 0.1123978268936475
Relative absolute error: 14.101010101010054
Root relative squared error: 32.12035447682929
Weighted TruePositiveRate: 0.9463203463203463
Weighted MatthewsCorrelation: 0.9374963153949599
Weighted FMeasure: 0.9462043882198787
Iteration time: 77.0
Weighted AreaUnderPRC: 0.9772586325781504
Mean absolute error: 0.034533085961657425
Coverage of cases: 99.74025974025975
Instances selection time: 1.0
Test time: 8.0
Accumulative iteration time: 1183.0
Weighted Recall: 0.9463203463203463
Weighted FalsePositiveRate: 0.008946608946608947
Kappa statistic: 0.9373737373737373
Training time: 76.0
		
Iteration: 24
Labeled set size: 691
Unlabelled set size: 464
	
Mean region size: 22.127396413110464
Incorrectly Classified Instances: 4.935064935064935
Correctly Classified Instances: 95.06493506493507
Weighted Precision: 0.9514563569833024
Weighted AreaUnderROC: 0.992978267523722
Root mean squared error: 0.1124638332575009
Relative absolute error: 12.959595959595916
Root relative squared error: 32.139217366471314
Weighted TruePositiveRate: 0.9506493506493506
Weighted MatthewsCorrelation: 0.9427168713313624
Weighted FMeasure: 0.9507095463118337
Iteration time: 77.0
Weighted AreaUnderPRC: 0.972547638678506
Mean absolute error: 0.03173778602350034
Coverage of cases: 99.3073593073593
Instances selection time: 1.0
Test time: 8.0
Accumulative iteration time: 1260.0
Weighted Recall: 0.9506493506493506
Weighted FalsePositiveRate: 0.008225108225108224
Kappa statistic: 0.9424242424242423
Training time: 76.0
		
Iteration: 25
Labeled set size: 711
Unlabelled set size: 444
	
Mean region size: 22.27581941867632
Incorrectly Classified Instances: 5.021645021645021
Correctly Classified Instances: 94.97835497835497
Weighted Precision: 0.951253118787442
Weighted AreaUnderROC: 0.9953614062704973
Root mean squared error: 0.1087512750584555
Relative absolute error: 12.727272727272682
Root relative squared error: 31.078265489865796
Weighted TruePositiveRate: 0.9497835497835497
Weighted MatthewsCorrelation: 0.9419977234650289
Weighted FMeasure: 0.9500701211413737
Iteration time: 83.0
Weighted AreaUnderPRC: 0.9793384197126469
Mean absolute error: 0.031168831168831193
Coverage of cases: 99.65367965367966
Instances selection time: 1.0
Test time: 7.0
Accumulative iteration time: 1343.0
Weighted Recall: 0.9497835497835497
Weighted FalsePositiveRate: 0.00836940836940837
Kappa statistic: 0.9414141414141413
Training time: 82.0
		
Iteration: 26
Labeled set size: 731
Unlabelled set size: 424
	
Mean region size: 22.01607915893605
Incorrectly Classified Instances: 5.021645021645021
Correctly Classified Instances: 94.97835497835497
Weighted Precision: 0.950377556598701
Weighted AreaUnderROC: 0.9970003060912153
Root mean squared error: 0.10808961215025639
Relative absolute error: 12.46464646464642
Root relative squared error: 30.889179564070854
Weighted TruePositiveRate: 0.9497835497835497
Weighted MatthewsCorrelation: 0.9416162615760097
Weighted FMeasure: 0.9497831586953073
Iteration time: 82.0
Weighted AreaUnderPRC: 0.9811045194284576
Mean absolute error: 0.030525664811379118
Coverage of cases: 100.0
Instances selection time: 1.0
Test time: 7.0
Accumulative iteration time: 1425.0
Weighted Recall: 0.9497835497835497
Weighted FalsePositiveRate: 0.00836940836940837
Kappa statistic: 0.9414141414141413
Training time: 81.0
		
Iteration: 27
Labeled set size: 751
Unlabelled set size: 404
	
Mean region size: 21.657390228818567
Incorrectly Classified Instances: 4.1558441558441555
Correctly Classified Instances: 95.84415584415585
Weighted Precision: 0.958921779872892
Weighted AreaUnderROC: 0.996135817044908
Root mean squared error: 0.10252230250449179
Relative absolute error: 11.50505050505044
Root relative squared error: 29.298188312314394
Weighted TruePositiveRate: 0.9584415584415584
Weighted MatthewsCorrelation: 0.9516630154597424
Weighted FMeasure: 0.958383314244201
Iteration time: 83.0
Weighted AreaUnderPRC: 0.9815318561420682
Mean absolute error: 0.028175633889919564
Coverage of cases: 99.74025974025975
Instances selection time: 1.0
Test time: 7.0
Accumulative iteration time: 1508.0
Weighted Recall: 0.9584415584415584
Weighted FalsePositiveRate: 0.006926406926406926
Kappa statistic: 0.9515151515151515
Training time: 82.0
		
Iteration: 28
Labeled set size: 771
Unlabelled set size: 384
	
Mean region size: 20.729746444031925
Incorrectly Classified Instances: 3.54978354978355
Correctly Classified Instances: 96.45021645021644
Weighted Precision: 0.9650297977110817
Weighted AreaUnderROC: 0.9969771306134941
Root mean squared error: 0.09717086430997869
Relative absolute error: 10.434343434343361
Root relative squared error: 27.7688874662113
Weighted TruePositiveRate: 0.9645021645021645
Weighted MatthewsCorrelation: 0.9587693619195126
Weighted FMeasure: 0.9645124772370738
Iteration time: 83.0
Weighted AreaUnderPRC: 0.9857651772309812
Mean absolute error: 0.025553494124922627
Coverage of cases: 99.74025974025975
Instances selection time: 1.0
Test time: 7.0
Accumulative iteration time: 1591.0
Weighted Recall: 0.9645021645021645
Weighted FalsePositiveRate: 0.005916305916305917
Kappa statistic: 0.9585858585858587
Training time: 82.0
		
Iteration: 29
Labeled set size: 791
Unlabelled set size: 364
	
Mean region size: 20.395794681508747
Incorrectly Classified Instances: 4.761904761904762
Correctly Classified Instances: 95.23809523809524
Weighted Precision: 0.9530632905844821
Weighted AreaUnderROC: 0.9975071056889239
Root mean squared error: 0.09936097617721606
Relative absolute error: 10.232323232323163
Root relative squared error: 28.394764064218297
Weighted TruePositiveRate: 0.9523809523809523
Weighted MatthewsCorrelation: 0.9446658364661519
Weighted FMeasure: 0.9523453228016677
Iteration time: 90.0
Weighted AreaUnderPRC: 0.9858931256053972
Mean absolute error: 0.025058750773036424
Coverage of cases: 99.91341991341992
Instances selection time: 1.0
Test time: 7.0
Accumulative iteration time: 1681.0
Weighted Recall: 0.9523809523809523
Weighted FalsePositiveRate: 0.007936507936507938
Kappa statistic: 0.9444444444444444
Training time: 89.0
		
Iteration: 30
Labeled set size: 811
Unlabelled set size: 344
	
Mean region size: 20.358688930117278
Incorrectly Classified Instances: 3.982683982683983
Correctly Classified Instances: 96.01731601731602
Weighted Precision: 0.9601540205040432
Weighted AreaUnderROC: 0.9975604530149984
Root mean squared error: 0.09498234057784118
Relative absolute error: 9.81818181818175
Root relative squared error: 27.143464715611987
Weighted TruePositiveRate: 0.9601731601731601
Weighted MatthewsCorrelation: 0.9534847184334007
Weighted FMeasure: 0.9600200507846691
Iteration time: 91.0
Weighted AreaUnderPRC: 0.9883879237305561
Mean absolute error: 0.024044526901669697
Coverage of cases: 99.82683982683983
Instances selection time: 1.0
Test time: 7.0
Accumulative iteration time: 1772.0
Weighted Recall: 0.9601731601731601
Weighted FalsePositiveRate: 0.006637806637806637
Kappa statistic: 0.9535353535353533
Training time: 90.0
		
Iteration: 31
Labeled set size: 831
Unlabelled set size: 324
	
Mean region size: 19.591836734693658
Incorrectly Classified Instances: 4.06926406926407
Correctly Classified Instances: 95.93073593073593
Weighted Precision: 0.9598326738314101
Weighted AreaUnderROC: 0.9967217630853995
Root mean squared error: 0.09673712059456625
Relative absolute error: 9.25252525252519
Root relative squared error: 27.6449348749897
Weighted TruePositiveRate: 0.9593073593073593
Weighted MatthewsCorrelation: 0.9526397067103892
Weighted FMeasure: 0.9590886848092834
Iteration time: 85.0
Weighted AreaUnderPRC: 0.9847875391872193
Mean absolute error: 0.02265924551638832
Coverage of cases: 99.74025974025975
Instances selection time: 1.0
Test time: 7.0
Accumulative iteration time: 1857.0
Weighted Recall: 0.9593073593073593
Weighted FalsePositiveRate: 0.0067821067821067825
Kappa statistic: 0.9525252525252526
Training time: 84.0
		
Iteration: 32
Labeled set size: 851
Unlabelled set size: 304
	
Mean region size: 21.137909709338064
Incorrectly Classified Instances: 4.415584415584416
Correctly Classified Instances: 95.58441558441558
Weighted Precision: 0.957135323003996
Weighted AreaUnderROC: 0.996227207136298
Root mean squared error: 0.10403129732205994
Relative absolute error: 11.333333333333258
Root relative squared error: 29.72941950052811
Weighted TruePositiveRate: 0.9558441558441558
Weighted MatthewsCorrelation: 0.9489954965944112
Weighted FMeasure: 0.9560843473197165
Iteration time: 101.0
Weighted AreaUnderPRC: 0.9824663182669084
Mean absolute error: 0.02775510204081626
Coverage of cases: 99.74025974025975
Instances selection time: 1.0
Test time: 7.0
Accumulative iteration time: 1958.0
Weighted Recall: 0.9558441558441558
Weighted FalsePositiveRate: 0.007359307359307358
Kappa statistic: 0.9484848484848484
Training time: 100.0
		
Iteration: 33
Labeled set size: 871
Unlabelled set size: 284
	
Mean region size: 21.001855287569356
Incorrectly Classified Instances: 3.6363636363636362
Correctly Classified Instances: 96.36363636363636
Weighted Precision: 0.9638089033408328
Weighted AreaUnderROC: 0.9960864051773142
Root mean squared error: 0.10266697186503403
Relative absolute error: 11.404040404040327
Root relative squared error: 29.3395310257011
Weighted TruePositiveRate: 0.9636363636363636
Weighted MatthewsCorrelation: 0.9576217021151492
Weighted FMeasure: 0.963592664863039
Iteration time: 100.0
Weighted AreaUnderPRC: 0.982827875828014
Mean absolute error: 0.027928262213976433
Coverage of cases: 99.65367965367966
Instances selection time: 1.0
Test time: 7.0
Accumulative iteration time: 2058.0
Weighted Recall: 0.9636363636363636
Weighted FalsePositiveRate: 0.00606060606060606
Kappa statistic: 0.9575757575757575
Training time: 99.0
		
Iteration: 34
Labeled set size: 891
Unlabelled set size: 264
	
Mean region size: 20.91527520098923
Incorrectly Classified Instances: 3.896103896103896
Correctly Classified Instances: 96.1038961038961
Weighted Precision: 0.9611436695007277
Weighted AreaUnderROC: 0.996474703747431
Root mean squared error: 0.09960962765756096
Relative absolute error: 10.777777777777704
Root relative squared error: 28.46582214345877
Weighted TruePositiveRate: 0.961038961038961
Weighted MatthewsCorrelation: 0.9545629409400356
Weighted FMeasure: 0.960976889589118
Iteration time: 101.0
Weighted AreaUnderPRC: 0.984188714716578
Mean absolute error: 0.026394557823129185
Coverage of cases: 99.74025974025975
Instances selection time: 1.0
Test time: 7.0
Accumulative iteration time: 2159.0
Weighted Recall: 0.961038961038961
Weighted FalsePositiveRate: 0.006493506493506494
Kappa statistic: 0.9545454545454544
Training time: 100.0
		
Iteration: 35
Labeled set size: 911
Unlabelled set size: 244
	
Mean region size: 19.938157081013994
Incorrectly Classified Instances: 4.5021645021645025
Correctly Classified Instances: 95.4978354978355
Weighted Precision: 0.955477031355915
Weighted AreaUnderROC: 0.9969683851502034
Root mean squared error: 0.09825943472287724
Relative absolute error: 9.828282828282761
Root relative squared error: 28.079972373292062
Weighted TruePositiveRate: 0.9549783549783549
Weighted MatthewsCorrelation: 0.9476930994337979
Weighted FMeasure: 0.9551444555039943
Iteration time: 106.0
Weighted AreaUnderPRC: 0.9843702737275273
Mean absolute error: 0.02406926406926401
Coverage of cases: 99.82683982683983
Instances selection time: 1.0
Test time: 7.0
Accumulative iteration time: 2265.0
Weighted Recall: 0.9549783549783549
Weighted FalsePositiveRate: 0.007503607503607503
Kappa statistic: 0.9474747474747472
Training time: 105.0
		
Iteration: 36
Labeled set size: 931
Unlabelled set size: 224
	
Mean region size: 20.80395794681488
Incorrectly Classified Instances: 4.1558441558441555
Correctly Classified Instances: 95.84415584415585
Weighted Precision: 0.9586513060891779
Weighted AreaUnderROC: 0.9958380340198522
Root mean squared error: 0.09849831029255561
Relative absolute error: 10.555555555555483
Root relative squared error: 28.148236753360408
Weighted TruePositiveRate: 0.9584415584415584
Weighted MatthewsCorrelation: 0.9515088606531837
Weighted FMeasure: 0.9581751166787714
Iteration time: 103.0
Weighted AreaUnderPRC: 0.9833391049794981
Mean absolute error: 0.02585034013605435
Coverage of cases: 99.56709956709956
Instances selection time: 1.0
Test time: 7.0
Accumulative iteration time: 2368.0
Weighted Recall: 0.9584415584415584
Weighted FalsePositiveRate: 0.006926406926406926
Kappa statistic: 0.9515151515151515
Training time: 102.0
		
Iteration: 37
Labeled set size: 951
Unlabelled set size: 204
	
Mean region size: 20.779220779220555
Incorrectly Classified Instances: 4.415584415584416
Correctly Classified Instances: 95.58441558441558
Weighted Precision: 0.9562373180634907
Weighted AreaUnderROC: 0.9960094451003543
Root mean squared error: 0.10043812495740756
Relative absolute error: 10.525252525252451
Root relative squared error: 28.70258496788018
Weighted TruePositiveRate: 0.9558441558441558
Weighted MatthewsCorrelation: 0.9486268786763692
Weighted FMeasure: 0.9558675267819758
Iteration time: 105.0
Weighted AreaUnderPRC: 0.9833604393668091
Mean absolute error: 0.02577612863327142
Coverage of cases: 99.65367965367966
Instances selection time: 1.0
Test time: 7.0
Accumulative iteration time: 2473.0
Weighted Recall: 0.9558441558441558
Weighted FalsePositiveRate: 0.00735930735930736
Kappa statistic: 0.9484848484848484
Training time: 104.0
		
Iteration: 38
Labeled set size: 971
Unlabelled set size: 184
	
Mean region size: 20.148423005565636
Incorrectly Classified Instances: 4.329004329004329
Correctly Classified Instances: 95.67099567099567
Weighted Precision: 0.95685141092311
Weighted AreaUnderROC: 0.9970173597446325
Root mean squared error: 0.09543702168563895
Relative absolute error: 9.787878787878721
Root relative squared error: 27.273400665087248
Weighted TruePositiveRate: 0.9567099567099567
Weighted MatthewsCorrelation: 0.9495319969126781
Weighted FMeasure: 0.9566693618950681
Iteration time: 111.0
Weighted AreaUnderPRC: 0.9873702136375244
Mean absolute error: 0.023970315398886766
Coverage of cases: 99.74025974025975
Instances selection time: 1.0
Test time: 7.0
Accumulative iteration time: 2584.0
Weighted Recall: 0.9567099567099567
Weighted FalsePositiveRate: 0.007215007215007216
Kappa statistic: 0.9494949494949494
Training time: 110.0
		
Iteration: 39
Labeled set size: 991
Unlabelled set size: 164
	
Mean region size: 20.222634508348573
Incorrectly Classified Instances: 3.54978354978355
Correctly Classified Instances: 96.45021645021644
Weighted Precision: 0.9645106619114344
Weighted AreaUnderROC: 0.9974371419825966
Root mean squared error: 0.09377666596641922
Relative absolute error: 9.63636363636357
Root relative squared error: 26.7989144963339
Weighted TruePositiveRate: 0.9645021645021645
Weighted MatthewsCorrelation: 0.9585822182674943
Weighted FMeasure: 0.9644794296172439
Iteration time: 112.0
Weighted AreaUnderPRC: 0.9865993103456193
Mean absolute error: 0.023599257884972108
Coverage of cases: 99.82683982683983
Instances selection time: 0.0
Test time: 7.0
Accumulative iteration time: 2696.0
Weighted Recall: 0.9645021645021645
Weighted FalsePositiveRate: 0.005916305916305917
Kappa statistic: 0.9585858585858587
Training time: 112.0
		
Iteration: 40
Labeled set size: 1011
Unlabelled set size: 144
	
Mean region size: 21.187384044526656
Incorrectly Classified Instances: 4.242424242424242
Correctly Classified Instances: 95.75757575757575
Weighted Precision: 0.9577866034432104
Weighted AreaUnderROC: 0.9961756089028817
Root mean squared error: 0.09923641679995804
Relative absolute error: 10.888888888888813
Root relative squared error: 28.35916825723951
Weighted TruePositiveRate: 0.9575757575757575
Weighted MatthewsCorrelation: 0.9505952049150179
Weighted FMeasure: 0.9576380341034663
Iteration time: 115.0
Weighted AreaUnderPRC: 0.9844799829115899
Mean absolute error: 0.026666666666666596
Coverage of cases: 99.65367965367966
Instances selection time: 1.0
Test time: 7.0
Accumulative iteration time: 2811.0
Weighted Recall: 0.9575757575757575
Weighted FalsePositiveRate: 0.00707070707070707
Kappa statistic: 0.9505050505050504
Training time: 114.0
		
Iteration: 41
Labeled set size: 1031
Unlabelled set size: 124
	
Mean region size: 19.703153988868063
Incorrectly Classified Instances: 4.242424242424242
Correctly Classified Instances: 95.75757575757575
Weighted Precision: 0.9577797180300759
Weighted AreaUnderROC: 0.9971979535615901
Root mean squared error: 0.09548884738681702
Relative absolute error: 9.30303030303024
Root relative squared error: 27.288211092822873
Weighted TruePositiveRate: 0.9575757575757575
Weighted MatthewsCorrelation: 0.9505597947255303
Weighted FMeasure: 0.9575232406301649
Iteration time: 111.0
Weighted AreaUnderPRC: 0.9853687858823994
Mean absolute error: 0.02278293135435987
Coverage of cases: 99.82683982683983
Instances selection time: 0.0
Test time: 7.0
Accumulative iteration time: 2922.0
Weighted Recall: 0.9575757575757575
Weighted FalsePositiveRate: 0.00707070707070707
Kappa statistic: 0.9505050505050504
Training time: 111.0
		
Iteration: 42
Labeled set size: 1051
Unlabelled set size: 104
	
Mean region size: 20.593692022263216
Incorrectly Classified Instances: 3.54978354978355
Correctly Classified Instances: 96.45021645021644
Weighted Precision: 0.9643191992800955
Weighted AreaUnderROC: 0.9976728322182867
Root mean squared error: 0.09520345690443886
Relative absolute error: 10.04040404040397
Root relative squared error: 27.206653969240996
Weighted TruePositiveRate: 0.9645021645021645
Weighted MatthewsCorrelation: 0.9584770547465837
Weighted FMeasure: 0.964341591908799
Iteration time: 122.0
Weighted AreaUnderPRC: 0.9871026352055362
Mean absolute error: 0.024588744588744525
Coverage of cases: 99.91341991341992
Instances selection time: 0.0
Test time: 7.0
Accumulative iteration time: 3044.0
Weighted Recall: 0.9645021645021645
Weighted FalsePositiveRate: 0.005916305916305917
Kappa statistic: 0.9585858585858587
Training time: 122.0
		
Iteration: 43
Labeled set size: 1071
Unlabelled set size: 84
	
Mean region size: 19.356833642547695
Incorrectly Classified Instances: 3.722943722943723
Correctly Classified Instances: 96.27705627705627
Weighted Precision: 0.9627687239181851
Weighted AreaUnderROC: 0.9974380165289256
Root mean squared error: 0.0926354329534132
Relative absolute error: 8.77777777777772
Root relative squared error: 26.47277999772746
Weighted TruePositiveRate: 0.9627705627705627
Weighted MatthewsCorrelation: 0.956561103651245
Weighted FMeasure: 0.9627570077527191
Iteration time: 113.0
Weighted AreaUnderPRC: 0.9880085401908982
Mean absolute error: 0.02149659863945573
Coverage of cases: 99.82683982683983
Instances selection time: 0.0
Test time: 7.0
Accumulative iteration time: 3157.0
Weighted Recall: 0.9627705627705627
Weighted FalsePositiveRate: 0.0062049062049062045
Kappa statistic: 0.9565656565656565
Training time: 113.0
		
Iteration: 44
Labeled set size: 1091
Unlabelled set size: 64
	
Mean region size: 20.692640692640456
Incorrectly Classified Instances: 4.1558441558441555
Correctly Classified Instances: 95.84415584415585
Weighted Precision: 0.958622279390675
Weighted AreaUnderROC: 0.9957536402990947
Root mean squared error: 0.09606996007825368
Relative absolute error: 9.919191919191851
Root relative squared error: 27.454277876814984
Weighted TruePositiveRate: 0.9584415584415584
Weighted MatthewsCorrelation: 0.9515986583289937
Weighted FMeasure: 0.9585169071410455
Iteration time: 122.0
Weighted AreaUnderPRC: 0.9825132846808471
Mean absolute error: 0.024291898577612804
Coverage of cases: 99.56709956709956
Instances selection time: 1.0
Test time: 7.0
Accumulative iteration time: 3279.0
Weighted Recall: 0.9584415584415584
Weighted FalsePositiveRate: 0.006926406926406926
Kappa statistic: 0.9515151515151515
Training time: 121.0
		
Iteration: 45
Labeled set size: 1111
Unlabelled set size: 44
	
Mean region size: 20.309214594928644
Incorrectly Classified Instances: 4.329004329004329
Correctly Classified Instances: 95.67099567099567
Weighted Precision: 0.9572007015641606
Weighted AreaUnderROC: 0.9973632428177883
Root mean squared error: 0.09601844803161268
Relative absolute error: 10.070707070707002
Root relative squared error: 27.439557083329344
Weighted TruePositiveRate: 0.9567099567099567
Weighted MatthewsCorrelation: 0.9497023983811012
Weighted FMeasure: 0.956845828459545
Iteration time: 124.0
Weighted AreaUnderPRC: 0.9869802443422496
Mean absolute error: 0.024662956091527456
Coverage of cases: 99.82683982683983
Instances selection time: 0.0
Test time: 7.0
Accumulative iteration time: 3403.0
Weighted Recall: 0.9567099567099567
Weighted FalsePositiveRate: 0.007215007215007214
Kappa statistic: 0.9494949494949494
Training time: 124.0
		
Iteration: 46
Labeled set size: 1131
Unlabelled set size: 24
	
Mean region size: 20.061842918985544
Incorrectly Classified Instances: 3.54978354978355
Correctly Classified Instances: 96.45021645021644
Weighted Precision: 0.9647376389459554
Weighted AreaUnderROC: 0.9962853644671827
Root mean squared error: 0.0966859639962798
Relative absolute error: 9.77777777777771
Root relative squared error: 27.630315659332226
Weighted TruePositiveRate: 0.9645021645021645
Weighted MatthewsCorrelation: 0.9586274695042808
Weighted FMeasure: 0.9643666050936461
Iteration time: 127.0
Weighted AreaUnderPRC: 0.9843320568982116
Mean absolute error: 0.02394557823129245
Coverage of cases: 99.65367965367966
Instances selection time: 1.0
Test time: 7.0
Accumulative iteration time: 3530.0
Weighted Recall: 0.9645021645021645
Weighted FalsePositiveRate: 0.005916305916305916
Kappa statistic: 0.9585858585858587
Training time: 126.0
		
Time end:Sun Oct 08 05.14.53 EEST 2017