Sun Oct 08 05.05.26 EEST 2017
Dataset: segment
Test set size: 1155
Initial Labelled set size: 231
Initial Unlabelled set size: 924
Batch mode: QBestBatchMode
Batch size: 20
Classifiers: IBk-1cores
Scenario: PoolBasedSamplingScenario
Query strategy: MarginSamplingQueryStrategy-1cores
Time begining: Sun Oct 08 05.05.26 EEST 2017
		
Iteration: 1
Labeled set size: 231
Unlabelled set size: 924
	
Mean region size: 14.285714285714091
Incorrectly Classified Instances: 9.35064935064935
Correctly Classified Instances: 90.64935064935065
Weighted Precision: 0.9054405126777709
Weighted AreaUnderROC: 0.9451563251563252
Root mean squared error: 0.16136792749345988
Relative absolute error: 13.525858104435962
Root relative squared error: 46.11472637443102
Weighted TruePositiveRate: 0.9064935064935065
Weighted MatthewsCorrelation: 0.8901806790127959
Weighted FMeasure: 0.9052005170719838
Iteration time: 69.0
Weighted AreaUnderPRC: 0.8406258518350335
Mean absolute error: 0.03312455045984331
Coverage of cases: 90.64935064935065
Instances selection time: 69.0
Test time: 89.0
Accumulative iteration time: 69.0
Weighted Recall: 0.9064935064935065
Weighted FalsePositiveRate: 0.015584415584415584
Kappa statistic: 0.8909090909090909
Training time: 0.0
		
Iteration: 2
Labeled set size: 251
Unlabelled set size: 904
	
Mean region size: 14.285714285714091
Incorrectly Classified Instances: 8.051948051948052
Correctly Classified Instances: 91.94805194805195
Weighted Precision: 0.919108532906186
Weighted AreaUnderROC: 0.9527075954348683
Root mean squared error: 0.1499153106191897
Relative absolute error: 11.848961277845717
Root relative squared error: 42.84186849225015
Weighted TruePositiveRate: 0.9194805194805195
Weighted MatthewsCorrelation: 0.9057696336340478
Weighted FMeasure: 0.9189057393196567
Iteration time: 71.0
Weighted AreaUnderPRC: 0.8616791350455936
Mean absolute error: 0.029017864353908
Coverage of cases: 91.94805194805195
Instances selection time: 71.0
Test time: 92.0
Accumulative iteration time: 140.0
Weighted Recall: 0.9194805194805195
Weighted FalsePositiveRate: 0.01341991341991342
Kappa statistic: 0.9060606060606059
Training time: 0.0
		
Iteration: 3
Labeled set size: 271
Unlabelled set size: 884
	
Mean region size: 14.285714285714091
Incorrectly Classified Instances: 7.532467532467533
Correctly Classified Instances: 92.46753246753246
Weighted Precision: 0.9249440773991662
Weighted AreaUnderROC: 0.9559066859066858
Root mean squared error: 0.145119751344866
Relative absolute error: 11.077233262239512
Root relative squared error: 41.47142327935761
Weighted TruePositiveRate: 0.9246753246753247
Weighted MatthewsCorrelation: 0.9120657962605313
Weighted FMeasure: 0.924150599814745
Iteration time: 73.0
Weighted AreaUnderPRC: 0.870919857026634
Mean absolute error: 0.027127918193239738
Coverage of cases: 92.46753246753246
Instances selection time: 73.0
Test time: 95.0
Accumulative iteration time: 213.0
Weighted Recall: 0.9246753246753247
Weighted FalsePositiveRate: 0.012554112554112554
Kappa statistic: 0.912121212121212
Training time: 0.0
		
Iteration: 4
Labeled set size: 291
Unlabelled set size: 864
	
Mean region size: 14.285714285714091
Incorrectly Classified Instances: 7.532467532467533
Correctly Classified Instances: 92.46753246753246
Weighted Precision: 0.9249440773991662
Weighted AreaUnderROC: 0.9562219598583236
Root mean squared error: 0.14520875865293992
Relative absolute error: 10.916545728705746
Root relative squared error: 41.49685923630959
Weighted TruePositiveRate: 0.9246753246753247
Weighted MatthewsCorrelation: 0.9120657962605313
Weighted FMeasure: 0.924150599814745
Iteration time: 73.0
Weighted AreaUnderPRC: 0.872078363411716
Mean absolute error: 0.02673439770295296
Coverage of cases: 92.46753246753246
Instances selection time: 73.0
Test time: 99.0
Accumulative iteration time: 286.0
Weighted Recall: 0.9246753246753247
Weighted FalsePositiveRate: 0.012554112554112554
Kappa statistic: 0.912121212121212
Training time: 0.0
		
Iteration: 5
Labeled set size: 311
Unlabelled set size: 844
	
Mean region size: 14.285714285714091
Incorrectly Classified Instances: 7.186147186147186
Correctly Classified Instances: 92.81385281385282
Weighted Precision: 0.9286930026372384
Weighted AreaUnderROC: 0.9583680965499148
Root mean squared error: 0.14191979168329705
Relative absolute error: 10.384683947392098
Root relative squared error: 40.556958636385424
Weighted TruePositiveRate: 0.9281385281385282
Weighted MatthewsCorrelation: 0.9162113963790849
Weighted FMeasure: 0.9276316233118195
Iteration time: 75.0
Weighted AreaUnderPRC: 0.878355330203707
Mean absolute error: 0.0254318790548379
Coverage of cases: 92.81385281385282
Instances selection time: 75.0
Test time: 102.0
Accumulative iteration time: 361.0
Weighted Recall: 0.9281385281385282
Weighted FalsePositiveRate: 0.011976911976911978
Kappa statistic: 0.9161616161616162
Training time: 0.0
		
Iteration: 6
Labeled set size: 331
Unlabelled set size: 824
	
Mean region size: 14.285714285714091
Incorrectly Classified Instances: 7.2727272727272725
Correctly Classified Instances: 92.72727272727273
Weighted Precision: 0.9284042807470341
Weighted AreaUnderROC: 0.9579443788534701
Root mean squared error: 0.1428400937247137
Relative absolute error: 10.364311694080422
Root relative squared error: 40.81995685096855
Weighted TruePositiveRate: 0.9272727272727272
Weighted MatthewsCorrelation: 0.915408445930097
Weighted FMeasure: 0.92678706375039
Iteration time: 75.0
Weighted AreaUnderPRC: 0.8776951617675597
Mean absolute error: 0.02538198782223788
Coverage of cases: 92.72727272727273
Instances selection time: 75.0
Test time: 104.0
Accumulative iteration time: 436.0
Weighted Recall: 0.9272727272727272
Weighted FalsePositiveRate: 0.012121212121212123
Kappa statistic: 0.9151515151515152
Training time: 0.0
		
Iteration: 7
Labeled set size: 351
Unlabelled set size: 804
	
Mean region size: 14.285714285714091
Incorrectly Classified Instances: 7.705627705627705
Correctly Classified Instances: 92.2943722943723
Weighted Precision: 0.9262078437073651
Weighted AreaUnderROC: 0.9562429489702218
Root mean squared error: 0.14707725052472745
Relative absolute error: 10.750149890295333
Root relative squared error: 42.030825264991606
Weighted TruePositiveRate: 0.922943722943723
Weighted MatthewsCorrelation: 0.9112591874240261
Weighted FMeasure: 0.9229945700809217
Iteration time: 75.0
Weighted AreaUnderPRC: 0.8740878024627775
Mean absolute error: 0.026326897690519296
Coverage of cases: 92.2943722943723
Instances selection time: 75.0
Test time: 108.0
Accumulative iteration time: 511.0
Weighted Recall: 0.922943722943723
Weighted FalsePositiveRate: 0.012842712842712843
Kappa statistic: 0.9101010101010101
Training time: 0.0
		
Iteration: 8
Labeled set size: 371
Unlabelled set size: 784
	
Mean region size: 14.285714285714091
Incorrectly Classified Instances: 7.619047619047619
Correctly Classified Instances: 92.38095238095238
Weighted Precision: 0.9272157392721918
Weighted AreaUnderROC: 0.956783855874765
Root mean squared error: 0.1463110558018688
Relative absolute error: 10.557071481266526
Root relative squared error: 41.81186688495298
Weighted TruePositiveRate: 0.9238095238095239
Weighted MatthewsCorrelation: 0.9123221568922572
Weighted FMeasure: 0.9238677125662557
Iteration time: 76.0
Weighted AreaUnderPRC: 0.8755920229742907
Mean absolute error: 0.025854052607183438
Coverage of cases: 92.38095238095238
Instances selection time: 76.0
Test time: 111.0
Accumulative iteration time: 587.0
Weighted Recall: 0.9238095238095239
Weighted FalsePositiveRate: 0.0126984126984127
Kappa statistic: 0.9111111111111112
Training time: 0.0
		
Iteration: 9
Labeled set size: 391
Unlabelled set size: 764
	
Mean region size: 14.285714285714091
Incorrectly Classified Instances: 7.619047619047619
Correctly Classified Instances: 92.38095238095238
Weighted Precision: 0.9272157392721918
Weighted AreaUnderROC: 0.956783855874765
Root mean squared error: 0.1463664299042135
Relative absolute error: 10.473234552375555
Root relative squared error: 41.82769135278571
Weighted TruePositiveRate: 0.9238095238095239
Weighted MatthewsCorrelation: 0.9123221568922572
Weighted FMeasure: 0.9238677125662557
Iteration time: 76.0
Weighted AreaUnderPRC: 0.8755920229742907
Mean absolute error: 0.025648737679287183
Coverage of cases: 92.38095238095238
Instances selection time: 76.0
Test time: 113.0
Accumulative iteration time: 663.0
Weighted Recall: 0.9238095238095239
Weighted FalsePositiveRate: 0.0126984126984127
Kappa statistic: 0.9111111111111112
Training time: 0.0
		
Iteration: 10
Labeled set size: 411
Unlabelled set size: 744
	
Mean region size: 14.285714285714091
Incorrectly Classified Instances: 7.619047619047619
Correctly Classified Instances: 92.38095238095238
Weighted Precision: 0.9272157392721918
Weighted AreaUnderROC: 0.9570532161441252
Root mean squared error: 0.14641657103522115
Relative absolute error: 10.392389271536796
Root relative squared error: 41.84202037449677
Weighted TruePositiveRate: 0.9238095238095239
Weighted MatthewsCorrelation: 0.9123221568922572
Weighted FMeasure: 0.9238677125662557
Iteration time: 76.0
Weighted AreaUnderPRC: 0.8756609851908506
Mean absolute error: 0.025450749236416752
Coverage of cases: 92.38095238095238
Instances selection time: 76.0
Test time: 117.0
Accumulative iteration time: 739.0
Weighted Recall: 0.9238095238095239
Weighted FalsePositiveRate: 0.0126984126984127
Kappa statistic: 0.9111111111111112
Training time: 0.0
		
Iteration: 11
Labeled set size: 431
Unlabelled set size: 724
	
Mean region size: 14.285714285714091
Incorrectly Classified Instances: 7.619047619047619
Correctly Classified Instances: 92.38095238095238
Weighted Precision: 0.9272157392721918
Weighted AreaUnderROC: 0.9569762560671651
Root mean squared error: 0.1464632902793616
Relative absolute error: 10.325100504018101
Root relative squared error: 41.85537151058325
Weighted TruePositiveRate: 0.9238095238095239
Weighted MatthewsCorrelation: 0.9123221568922572
Weighted FMeasure: 0.9238677125662557
Iteration time: 79.0
Weighted AreaUnderPRC: 0.8756411943689983
Mean absolute error: 0.02528596041800362
Coverage of cases: 92.38095238095238
Instances selection time: 79.0
Test time: 120.0
Accumulative iteration time: 818.0
Weighted Recall: 0.9238095238095239
Weighted FalsePositiveRate: 0.0126984126984127
Kappa statistic: 0.9111111111111112
Training time: 0.0
		
Iteration: 12
Labeled set size: 451
Unlabelled set size: 704
	
Mean region size: 14.285714285714091
Incorrectly Classified Instances: 7.619047619047619
Correctly Classified Instances: 92.38095238095238
Weighted Precision: 0.9272157392721918
Weighted AreaUnderROC: 0.9570147361056451
Root mean squared error: 0.14650613370335178
Relative absolute error: 10.261720495193691
Root relative squared error: 41.86761503880437
Weighted TruePositiveRate: 0.9238095238095239
Weighted MatthewsCorrelation: 0.9123221568922572
Weighted FMeasure: 0.9238677125662557
Iteration time: 77.0
Weighted AreaUnderPRC: 0.8756510810002921
Mean absolute error: 0.025130744069862206
Coverage of cases: 92.38095238095238
Instances selection time: 77.0
Test time: 122.0
Accumulative iteration time: 895.0
Weighted Recall: 0.9238095238095239
Weighted FalsePositiveRate: 0.0126984126984127
Kappa statistic: 0.9111111111111112
Training time: 0.0
		
Iteration: 13
Labeled set size: 471
Unlabelled set size: 684
	
Mean region size: 14.285714285714091
Incorrectly Classified Instances: 7.619047619047619
Correctly Classified Instances: 92.38095238095238
Weighted Precision: 0.9272157392721918
Weighted AreaUnderROC: 0.9569377760286852
Root mean squared error: 0.14654591029887
Relative absolute error: 10.205532225936711
Root relative squared error: 41.878982147788925
Weighted TruePositiveRate: 0.9238095238095239
Weighted MatthewsCorrelation: 0.9123221568922572
Weighted FMeasure: 0.9238677125662557
Iteration time: 76.0
Weighted AreaUnderPRC: 0.875631325250313
Mean absolute error: 0.02499314014515124
Coverage of cases: 92.38095238095238
Instances selection time: 76.0
Test time: 126.0
Accumulative iteration time: 971.0
Weighted Recall: 0.9238095238095239
Weighted FalsePositiveRate: 0.0126984126984127
Kappa statistic: 0.9111111111111112
Training time: 0.0
		
Iteration: 14
Labeled set size: 491
Unlabelled set size: 664
	
Mean region size: 14.285714285714091
Incorrectly Classified Instances: 7.619047619047619
Correctly Classified Instances: 92.38095238095238
Weighted Precision: 0.9272157392721918
Weighted AreaUnderROC: 0.9569377760286852
Root mean squared error: 0.1465826626867594
Relative absolute error: 10.152649900600359
Root relative squared error: 41.88948501745733
Weighted TruePositiveRate: 0.9238095238095239
Weighted MatthewsCorrelation: 0.9123221568922572
Weighted FMeasure: 0.9238677125662557
Iteration time: 77.0
Weighted AreaUnderPRC: 0.875631325250313
Mean absolute error: 0.02486363240963364
Coverage of cases: 92.38095238095238
Instances selection time: 77.0
Test time: 128.0
Accumulative iteration time: 1048.0
Weighted Recall: 0.9238095238095239
Weighted FalsePositiveRate: 0.0126984126984127
Kappa statistic: 0.9111111111111112
Training time: 0.0
		
Iteration: 15
Labeled set size: 511
Unlabelled set size: 644
	
Mean region size: 14.285714285714091
Incorrectly Classified Instances: 7.359307359307359
Correctly Classified Instances: 92.64069264069263
Weighted Precision: 0.9285722876643873
Weighted AreaUnderROC: 0.9583790283790286
Root mean squared error: 0.1440985968914564
Relative absolute error: 9.804916233487702
Root relative squared error: 41.1796040874248
Weighted TruePositiveRate: 0.9264069264069265
Weighted MatthewsCorrelation: 0.9148118861430916
Weighted FMeasure: 0.9260987323382064
Iteration time: 77.0
Weighted AreaUnderPRC: 0.878958943794031
Mean absolute error: 0.02401203975548019
Coverage of cases: 92.64069264069263
Instances selection time: 77.0
Test time: 130.0
Accumulative iteration time: 1125.0
Weighted Recall: 0.9264069264069265
Weighted FalsePositiveRate: 0.012265512265512266
Kappa statistic: 0.914141414141414
Training time: 0.0
		
Iteration: 16
Labeled set size: 531
Unlabelled set size: 624
	
Mean region size: 14.285714285714091
Incorrectly Classified Instances: 7.359307359307359
Correctly Classified Instances: 92.64069264069263
Weighted Precision: 0.9285722876643873
Weighted AreaUnderROC: 0.9583790283790286
Root mean squared error: 0.1441296860710163
Relative absolute error: 9.759594090866269
Root relative squared error: 41.188488560509875
Weighted TruePositiveRate: 0.9264069264069265
Weighted MatthewsCorrelation: 0.9148118861430916
Weighted FMeasure: 0.9260987323382064
Iteration time: 78.0
Weighted AreaUnderPRC: 0.878958943794031
Mean absolute error: 0.02390104675314199
Coverage of cases: 92.64069264069263
Instances selection time: 78.0
Test time: 133.0
Accumulative iteration time: 1203.0
Weighted Recall: 0.9264069264069265
Weighted FalsePositiveRate: 0.012265512265512266
Kappa statistic: 0.914141414141414
Training time: 0.0
		
Iteration: 17
Labeled set size: 551
Unlabelled set size: 604
	
Mean region size: 14.285714285714091
Incorrectly Classified Instances: 7.359307359307359
Correctly Classified Instances: 92.64069264069263
Weighted Precision: 0.9285722876643873
Weighted AreaUnderROC: 0.958417945690673
Root mean squared error: 0.14415868583807392
Relative absolute error: 9.716981489332671
Root relative squared error: 41.19677593423746
Weighted TruePositiveRate: 0.9264069264069265
Weighted MatthewsCorrelation: 0.9148118861430916
Weighted FMeasure: 0.9260987323382064
Iteration time: 77.0
Weighted AreaUnderPRC: 0.8789889660132058
Mean absolute error: 0.023796689361631134
Coverage of cases: 92.64069264069263
Instances selection time: 77.0
Test time: 137.0
Accumulative iteration time: 1280.0
Weighted Recall: 0.9264069264069265
Weighted FalsePositiveRate: 0.012265512265512266
Kappa statistic: 0.914141414141414
Training time: 0.0
		
Iteration: 18
Labeled set size: 571
Unlabelled set size: 584
	
Mean region size: 14.285714285714091
Incorrectly Classified Instances: 7.359307359307359
Correctly Classified Instances: 92.64069264069263
Weighted Precision: 0.9285722876643873
Weighted AreaUnderROC: 0.9584957803139621
Root mean squared error: 0.1441857990443752
Relative absolute error: 9.6767967878849
Root relative squared error: 41.2045241783225
Weighted TruePositiveRate: 0.9264069264069265
Weighted MatthewsCorrelation: 0.9148118861430916
Weighted FMeasure: 0.9260987323382064
Iteration time: 77.0
Weighted AreaUnderPRC: 0.8790490612214351
Mean absolute error: 0.02369827784788149
Coverage of cases: 92.64069264069263
Instances selection time: 77.0
Test time: 139.0
Accumulative iteration time: 1357.0
Weighted Recall: 0.9264069264069265
Weighted FalsePositiveRate: 0.012265512265512266
Kappa statistic: 0.914141414141414
Training time: 0.0
		
Iteration: 19
Labeled set size: 591
Unlabelled set size: 564
	
Mean region size: 14.285714285714091
Incorrectly Classified Instances: 7.445887445887446
Correctly Classified Instances: 92.55411255411255
Weighted Precision: 0.92760078944514
Weighted AreaUnderROC: 0.9579981634527089
Root mean squared error: 0.14505647077853806
Relative absolute error: 9.740135049309616
Root relative squared error: 41.45333935124154
Weighted TruePositiveRate: 0.9255411255411256
Weighted MatthewsCorrelation: 0.9137614784458604
Weighted FMeasure: 0.9252242012413069
Iteration time: 76.0
Weighted AreaUnderPRC: 0.8775724512676594
Mean absolute error: 0.02385339195749304
Coverage of cases: 92.55411255411255
Instances selection time: 76.0
Test time: 142.0
Accumulative iteration time: 1433.0
Weighted Recall: 0.9255411255411256
Weighted FalsePositiveRate: 0.012409812409812412
Kappa statistic: 0.913131313131313
Training time: 0.0
		
Iteration: 20
Labeled set size: 611
Unlabelled set size: 544
	
Mean region size: 14.285714285714091
Incorrectly Classified Instances: 7.445887445887446
Correctly Classified Instances: 92.55411255411255
Weighted Precision: 0.92760078944514
Weighted AreaUnderROC: 0.9580379553106825
Root mean squared error: 0.14508060392275038
Relative absolute error: 9.705558299173882
Root relative squared error: 41.460235971649276
Weighted TruePositiveRate: 0.9255411255411256
Weighted MatthewsCorrelation: 0.9137614784458604
Weighted FMeasure: 0.9252242012413069
Iteration time: 76.0
Weighted AreaUnderPRC: 0.8776076060021948
Mean absolute error: 0.02376871420205859
Coverage of cases: 92.55411255411255
Instances selection time: 76.0
Test time: 145.0
Accumulative iteration time: 1509.0
Weighted Recall: 0.9255411255411256
Weighted FalsePositiveRate: 0.012409812409812412
Kappa statistic: 0.913131313131313
Training time: 0.0
		
Iteration: 21
Labeled set size: 631
Unlabelled set size: 524
	
Mean region size: 14.285714285714091
Incorrectly Classified Instances: 7.445887445887446
Correctly Classified Instances: 92.55411255411255
Weighted Precision: 0.9268346030250392
Weighted AreaUnderROC: 0.9579767370676461
Root mean squared error: 0.1451033631166106
Relative absolute error: 9.673621726801969
Root relative squared error: 41.466739953039315
Weighted TruePositiveRate: 0.9255411255411256
Weighted MatthewsCorrelation: 0.9133268149589364
Weighted FMeasure: 0.9246877078297552
Iteration time: 75.0
Weighted AreaUnderPRC: 0.8766974926294007
Mean absolute error: 0.023690502188086555
Coverage of cases: 92.55411255411255
Instances selection time: 75.0
Test time: 150.0
Accumulative iteration time: 1584.0
Weighted Recall: 0.9255411255411256
Weighted FalsePositiveRate: 0.01240981240981241
Kappa statistic: 0.913131313131313
Training time: 0.0
		
Iteration: 22
Labeled set size: 651
Unlabelled set size: 504
	
Mean region size: 14.285714285714091
Incorrectly Classified Instances: 7.532467532467533
Correctly Classified Instances: 92.46753246753246
Weighted Precision: 0.9272073751981413
Weighted AreaUnderROC: 0.9574856793038611
Root mean squared error: 0.14596560027224403
Relative absolute error: 9.74356227456694
Root relative squared error: 41.713144744372556
Weighted TruePositiveRate: 0.9246753246753247
Weighted MatthewsCorrelation: 0.9126174066118473
Weighted FMeasure: 0.9234551983448098
Iteration time: 74.0
Weighted AreaUnderPRC: 0.8756780772155722
Mean absolute error: 0.023861785162204857
Coverage of cases: 92.46753246753246
Instances selection time: 74.0
Test time: 152.0
Accumulative iteration time: 1658.0
Weighted Recall: 0.9246753246753247
Weighted FalsePositiveRate: 0.012554112554112554
Kappa statistic: 0.912121212121212
Training time: 0.0
		
Iteration: 23
Labeled set size: 671
Unlabelled set size: 484
	
Mean region size: 14.285714285714091
Incorrectly Classified Instances: 7.705627705627705
Correctly Classified Instances: 92.2943722943723
Weighted Precision: 0.9271574631550413
Weighted AreaUnderROC: 0.9565945165945166
Root mean squared error: 0.14765344486394283
Relative absolute error: 9.914413944898671
Root relative squared error: 42.19548651276335
Weighted TruePositiveRate: 0.922943722943723
Weighted MatthewsCorrelation: 0.910974011753324
Weighted FMeasure: 0.9211388903398917
Iteration time: 72.0
Weighted AreaUnderPRC: 0.8737865496746959
Mean absolute error: 0.024280197416078484
Coverage of cases: 92.2943722943723
Instances selection time: 72.0
Test time: 155.0
Accumulative iteration time: 1730.0
Weighted Recall: 0.922943722943723
Weighted FalsePositiveRate: 0.012842712842712845
Kappa statistic: 0.9101010101010101
Training time: 0.0
		
Iteration: 24
Labeled set size: 691
Unlabelled set size: 464
	
Mean region size: 14.285714285714091
Incorrectly Classified Instances: 7.705627705627705
Correctly Classified Instances: 92.2943722943723
Weighted Precision: 0.9277153993089855
Weighted AreaUnderROC: 0.9570020551838733
Root mean squared error: 0.14767284099306094
Relative absolute error: 9.884465715782659
Root relative squared error: 42.20102941835121
Weighted TruePositiveRate: 0.922943722943723
Weighted MatthewsCorrelation: 0.9111222721448115
Weighted FMeasure: 0.9210255411263776
Iteration time: 71.0
Weighted AreaUnderPRC: 0.8754894484286203
Mean absolute error: 0.024206854814161714
Coverage of cases: 92.2943722943723
Instances selection time: 71.0
Test time: 158.0
Accumulative iteration time: 1801.0
Weighted Recall: 0.922943722943723
Weighted FalsePositiveRate: 0.012842712842712843
Kappa statistic: 0.9101010101010101
Training time: 0.0
		
Iteration: 25
Labeled set size: 711
Unlabelled set size: 444
	
Mean region size: 14.285714285714091
Incorrectly Classified Instances: 7.619047619047619
Correctly Classified Instances: 92.38095238095238
Weighted Precision: 0.9289909877796757
Weighted AreaUnderROC: 0.9549538676811405
Root mean squared error: 0.14688014545974679
Relative absolute error: 9.76070954353091
Root relative squared error: 41.97449780091752
Weighted TruePositiveRate: 0.9238095238095239
Weighted MatthewsCorrelation: 0.9122603303027113
Weighted FMeasure: 0.9218727124462816
Iteration time: 68.0
Weighted AreaUnderPRC: 0.8736768117311595
Mean absolute error: 0.023903778473953353
Coverage of cases: 92.38095238095238
Instances selection time: 68.0
Test time: 161.0
Accumulative iteration time: 1869.0
Weighted Recall: 0.9238095238095239
Weighted FalsePositiveRate: 0.0126984126984127
Kappa statistic: 0.9111111111111112
Training time: 0.0
		
Iteration: 26
Labeled set size: 731
Unlabelled set size: 424
	
Mean region size: 14.285714285714091
Incorrectly Classified Instances: 8.225108225108226
Correctly Classified Instances: 91.77489177489177
Weighted Precision: 0.9256215550969705
Weighted AreaUnderROC: 0.9515431369976824
Root mean squared error: 0.1526235235767183
Relative absolute error: 10.437444896758594
Root relative squared error: 43.615804809336346
Weighted TruePositiveRate: 0.9177489177489178
Weighted MatthewsCorrelation: 0.9057658568689836
Weighted FMeasure: 0.9147873815554795
Iteration time: 67.0
Weighted AreaUnderPRC: 0.8653674698285833
Mean absolute error: 0.025561089543082376
Coverage of cases: 91.77489177489177
Instances selection time: 67.0
Test time: 163.0
Accumulative iteration time: 1936.0
Weighted Recall: 0.9177489177489178
Weighted FalsePositiveRate: 0.01370851370851371
Kappa statistic: 0.9040404040404041
Training time: 0.0
		
Iteration: 27
Labeled set size: 751
Unlabelled set size: 404
	
Mean region size: 14.285714285714091
Incorrectly Classified Instances: 8.225108225108226
Correctly Classified Instances: 91.77489177489177
Weighted Precision: 0.9258633809717401
Weighted AreaUnderROC: 0.9520805457169093
Root mean squared error: 0.15264026384745805
Relative absolute error: 10.411658845908109
Root relative squared error: 43.62058874017433
Weighted TruePositiveRate: 0.9177489177489178
Weighted MatthewsCorrelation: 0.9057291681584405
Weighted FMeasure: 0.9144528165910277
Iteration time: 65.0
Weighted AreaUnderPRC: 0.8662405834284496
Mean absolute error: 0.025497940030795474
Coverage of cases: 91.77489177489177
Instances selection time: 65.0
Test time: 170.0
Accumulative iteration time: 2001.0
Weighted Recall: 0.9177489177489178
Weighted FalsePositiveRate: 0.013708513708513708
Kappa statistic: 0.9040404040404041
Training time: 0.0
		
Iteration: 28
Labeled set size: 771
Unlabelled set size: 384
	
Mean region size: 14.285714285714091
Incorrectly Classified Instances: 7.878787878787879
Correctly Classified Instances: 92.12121212121212
Weighted Precision: 0.9286688307651416
Weighted AreaUnderROC: 0.9539713148804058
Root mean squared error: 0.1494101344213519
Relative absolute error: 9.990282387102
Root relative squared error: 42.69750236884493
Weighted TruePositiveRate: 0.9212121212121213
Weighted MatthewsCorrelation: 0.9094815203657107
Weighted FMeasure: 0.9177032989455581
Iteration time: 63.0
Weighted AreaUnderPRC: 0.8713769813543161
Mean absolute error: 0.024465997682698883
Coverage of cases: 92.12121212121212
Instances selection time: 63.0
Test time: 169.0
Accumulative iteration time: 2064.0
Weighted Recall: 0.9212121212121213
Weighted FalsePositiveRate: 0.013131313131313131
Kappa statistic: 0.908080808080808
Training time: 0.0
		
Iteration: 29
Labeled set size: 791
Unlabelled set size: 364
	
Mean region size: 14.285714285714091
Incorrectly Classified Instances: 7.792207792207792
Correctly Classified Instances: 92.20779220779221
Weighted Precision: 0.9299663416615273
Weighted AreaUnderROC: 0.9544505662687481
Root mean squared error: 0.14860232490193567
Relative absolute error: 9.870147156258769
Root relative squared error: 42.46665157011945
Weighted TruePositiveRate: 0.922077922077922
Weighted MatthewsCorrelation: 0.9106100367342214
Weighted FMeasure: 0.9185256070598788
Iteration time: 62.0
Weighted AreaUnderPRC: 0.8728742097243318
Mean absolute error: 0.024171788954103213
Coverage of cases: 92.20779220779221
Instances selection time: 62.0
Test time: 172.0
Accumulative iteration time: 2126.0
Weighted Recall: 0.922077922077922
Weighted FalsePositiveRate: 0.012987012987012988
Kappa statistic: 0.9090909090909091
Training time: 0.0
		
Iteration: 30
Labeled set size: 811
Unlabelled set size: 344
	
Mean region size: 14.285714285714091
Incorrectly Classified Instances: 7.792207792207792
Correctly Classified Instances: 92.20779220779221
Weighted Precision: 0.9301289718716023
Weighted AreaUnderROC: 0.954440946259128
Root mean squared error: 0.14861647005713632
Relative absolute error: 9.851092950666503
Root relative squared error: 42.47069388491976
Weighted TruePositiveRate: 0.922077922077922
Weighted MatthewsCorrelation: 0.9106055030505025
Weighted FMeasure: 0.9183904260552788
Iteration time: 61.0
Weighted AreaUnderPRC: 0.8724380315314368
Mean absolute error: 0.02412512559346909
Coverage of cases: 92.20779220779221
Instances selection time: 61.0
Test time: 187.0
Accumulative iteration time: 2187.0
Weighted Recall: 0.922077922077922
Weighted FalsePositiveRate: 0.012987012987012988
Kappa statistic: 0.9090909090909091
Training time: 0.0
		
Iteration: 31
Labeled set size: 831
Unlabelled set size: 324
	
Mean region size: 14.285714285714091
Incorrectly Classified Instances: 7.792207792207792
Correctly Classified Instances: 92.20779220779221
Weighted Precision: 0.9301289718716023
Weighted AreaUnderROC: 0.954440946259128
Root mean squared error: 0.1486299726857834
Relative absolute error: 9.832948344004086
Root relative squared error: 42.47455258246312
Weighted TruePositiveRate: 0.922077922077922
Weighted MatthewsCorrelation: 0.9106055030505025
Weighted FMeasure: 0.9183904260552788
Iteration time: 58.0
Weighted AreaUnderPRC: 0.8724380315314368
Mean absolute error: 0.024080689822050923
Coverage of cases: 92.20779220779221
Instances selection time: 58.0
Test time: 180.0
Accumulative iteration time: 2245.0
Weighted Recall: 0.922077922077922
Weighted FalsePositiveRate: 0.012987012987012988
Kappa statistic: 0.9090909090909091
Training time: 0.0
		
Iteration: 32
Labeled set size: 851
Unlabelled set size: 304
	
Mean region size: 14.285714285714091
Incorrectly Classified Instances: 7.792207792207792
Correctly Classified Instances: 92.20779220779221
Weighted Precision: 0.9301289718716023
Weighted AreaUnderROC: 0.954440946259128
Root mean squared error: 0.14864287548083416
Relative absolute error: 9.81564972176171
Root relative squared error: 42.4782398632783
Weighted TruePositiveRate: 0.922077922077922
Weighted MatthewsCorrelation: 0.9106055030505025
Weighted FMeasure: 0.9183904260552788
Iteration time: 57.0
Weighted AreaUnderPRC: 0.8724380315314368
Mean absolute error: 0.024038325849212457
Coverage of cases: 92.20779220779221
Instances selection time: 57.0
Test time: 181.0
Accumulative iteration time: 2302.0
Weighted Recall: 0.922077922077922
Weighted FalsePositiveRate: 0.012987012987012988
Kappa statistic: 0.9090909090909091
Training time: 0.0
		
Iteration: 33
Labeled set size: 871
Unlabelled set size: 284
	
Mean region size: 14.285714285714091
Incorrectly Classified Instances: 7.792207792207792
Correctly Classified Instances: 92.20779220779221
Weighted Precision: 0.9301289718716023
Weighted AreaUnderROC: 0.954440946259128
Root mean squared error: 0.14865521744529048
Relative absolute error: 9.799139266293185
Root relative squared error: 42.481766873401476
Weighted TruePositiveRate: 0.922077922077922
Weighted MatthewsCorrelation: 0.9106055030505025
Weighted FMeasure: 0.9183904260552788
Iteration time: 59.0
Weighted AreaUnderPRC: 0.8724380315314368
Mean absolute error: 0.023997892080718106
Coverage of cases: 92.20779220779221
Instances selection time: 59.0
Test time: 184.0
Accumulative iteration time: 2361.0
Weighted Recall: 0.922077922077922
Weighted FalsePositiveRate: 0.012987012987012988
Kappa statistic: 0.9090909090909091
Training time: 0.0
		
Iteration: 34
Labeled set size: 891
Unlabelled set size: 264
	
Mean region size: 14.285714285714091
Incorrectly Classified Instances: 7.792207792207792
Correctly Classified Instances: 92.20779220779221
Weighted Precision: 0.9301289718716023
Weighted AreaUnderROC: 0.9547133674406402
Root mean squared error: 0.14866692083378905
Relative absolute error: 9.781011402271405
Root relative squared error: 42.485111395244495
Weighted TruePositiveRate: 0.922077922077922
Weighted MatthewsCorrelation: 0.9106055030505025
Weighted FMeasure: 0.9183904260552788
Iteration time: 51.0
Weighted AreaUnderPRC: 0.8725055691925259
Mean absolute error: 0.02395349731168518
Coverage of cases: 92.20779220779221
Instances selection time: 51.0
Test time: 186.0
Accumulative iteration time: 2412.0
Weighted Recall: 0.922077922077922
Weighted FalsePositiveRate: 0.012987012987012988
Kappa statistic: 0.9090909090909091
Training time: 0.0
		
Iteration: 35
Labeled set size: 911
Unlabelled set size: 244
	
Mean region size: 14.285714285714091
Incorrectly Classified Instances: 7.792207792207792
Correctly Classified Instances: 92.20779220779221
Weighted Precision: 0.9301289718716023
Weighted AreaUnderROC: 0.9547522847522847
Root mean squared error: 0.1486782346668957
Relative absolute error: 9.765646100208679
Root relative squared error: 42.488344592361564
Weighted TruePositiveRate: 0.922077922077922
Weighted MatthewsCorrelation: 0.9106055030505025
Weighted FMeasure: 0.9183904260552788
Iteration time: 47.0
Weighted AreaUnderPRC: 0.872515287720923
Mean absolute error: 0.023915868000511153
Coverage of cases: 92.20779220779221
Instances selection time: 47.0
Test time: 189.0
Accumulative iteration time: 2459.0
Weighted Recall: 0.922077922077922
Weighted FalsePositiveRate: 0.012987012987012988
Kappa statistic: 0.9090909090909091
Training time: 0.0
		
Iteration: 36
Labeled set size: 931
Unlabelled set size: 224
	
Mean region size: 14.285714285714091
Incorrectly Classified Instances: 7.792207792207792
Correctly Classified Instances: 92.20779220779221
Weighted Precision: 0.9301289718716023
Weighted AreaUnderROC: 0.9546744501289955
Root mean squared error: 0.14868913175556914
Relative absolute error: 9.751901597449105
Root relative squared error: 42.49145869483694
Weighted TruePositiveRate: 0.922077922077922
Weighted MatthewsCorrelation: 0.9106055030505025
Weighted FMeasure: 0.9183904260552788
Iteration time: 43.0
Weighted AreaUnderPRC: 0.8724958683327534
Mean absolute error: 0.023882207993753016
Coverage of cases: 92.20779220779221
Instances selection time: 43.0
Test time: 191.0
Accumulative iteration time: 2502.0
Weighted Recall: 0.922077922077922
Weighted FalsePositiveRate: 0.012987012987012988
Kappa statistic: 0.9090909090909091
Training time: 0.0
		
Iteration: 37
Labeled set size: 951
Unlabelled set size: 204
	
Mean region size: 14.285714285714091
Incorrectly Classified Instances: 7.792207792207792
Correctly Classified Instances: 92.20779220779221
Weighted Precision: 0.9301289718716023
Weighted AreaUnderROC: 0.9548301193755738
Root mean squared error: 0.14869950600836498
Relative absolute error: 9.736840204108244
Root relative squared error: 42.49442338451506
Weighted TruePositiveRate: 0.922077922077922
Weighted MatthewsCorrelation: 0.9106055030505025
Weighted FMeasure: 0.9183904260552788
Iteration time: 39.0
Weighted AreaUnderPRC: 0.8725347779770406
Mean absolute error: 0.02384532294883662
Coverage of cases: 92.20779220779221
Instances selection time: 39.0
Test time: 197.0
Accumulative iteration time: 2541.0
Weighted Recall: 0.922077922077922
Weighted FalsePositiveRate: 0.012987012987012988
Kappa statistic: 0.9090909090909091
Training time: 0.0
		
Iteration: 38
Labeled set size: 971
Unlabelled set size: 184
	
Mean region size: 14.285714285714091
Incorrectly Classified Instances: 7.792207792207792
Correctly Classified Instances: 92.20779220779221
Weighted Precision: 0.9301289718716023
Weighted AreaUnderROC: 0.9547522847522847
Root mean squared error: 0.14870955753264067
Relative absolute error: 9.724247090758695
Root relative squared error: 42.497295846836536
Weighted TruePositiveRate: 0.922077922077922
Weighted MatthewsCorrelation: 0.9106055030505025
Weighted FMeasure: 0.9183904260552788
Iteration time: 36.0
Weighted AreaUnderPRC: 0.872515287720923
Mean absolute error: 0.023814482671245883
Coverage of cases: 92.20779220779221
Instances selection time: 36.0
Test time: 197.0
Accumulative iteration time: 2577.0
Weighted Recall: 0.922077922077922
Weighted FalsePositiveRate: 0.012987012987012988
Kappa statistic: 0.9090909090909091
Training time: 0.0
		
Iteration: 39
Labeled set size: 991
Unlabelled set size: 164
	
Mean region size: 14.285714285714091
Incorrectly Classified Instances: 7.792207792207792
Correctly Classified Instances: 92.20779220779221
Weighted Precision: 0.9301289718716023
Weighted AreaUnderROC: 0.9547522847522847
Root mean squared error: 0.1487191947752016
Relative absolute error: 9.711553714657857
Root relative squared error: 42.50004991829674
Weighted TruePositiveRate: 0.922077922077922
Weighted MatthewsCorrelation: 0.9106055030505025
Weighted FMeasure: 0.9183904260552788
Iteration time: 31.0
Weighted AreaUnderPRC: 0.872515287720923
Mean absolute error: 0.023783396852223422
Coverage of cases: 92.20779220779221
Instances selection time: 31.0
Test time: 200.0
Accumulative iteration time: 2608.0
Weighted Recall: 0.922077922077922
Weighted FalsePositiveRate: 0.012987012987012988
Kappa statistic: 0.9090909090909091
Training time: 0.0
		
Iteration: 40
Labeled set size: 1011
Unlabelled set size: 144
	
Mean region size: 14.285714285714091
Incorrectly Classified Instances: 7.619047619047619
Correctly Classified Instances: 92.38095238095238
Weighted Precision: 0.9313079535464233
Weighted AreaUnderROC: 0.955697669334033
Root mean squared error: 0.14706738530003596
Relative absolute error: 9.49872807851077
Root relative squared error: 42.02800604221087
Weighted TruePositiveRate: 0.9238095238095239
Weighted MatthewsCorrelation: 0.912528934061145
Weighted FMeasure: 0.9203812241755943
Iteration time: 27.0
Weighted AreaUnderPRC: 0.8748776745676655
Mean absolute error: 0.023262191212679535
Coverage of cases: 92.38095238095238
Instances selection time: 27.0
Test time: 205.0
Accumulative iteration time: 2635.0
Weighted Recall: 0.9238095238095239
Weighted FalsePositiveRate: 0.0126984126984127
Kappa statistic: 0.9111111111111112
Training time: 0.0
		
Iteration: 41
Labeled set size: 1031
Unlabelled set size: 124
	
Mean region size: 14.285714285714091
Incorrectly Classified Instances: 6.147186147186147
Correctly Classified Instances: 93.85281385281385
Weighted Precision: 0.9417388948706631
Weighted AreaUnderROC: 0.9652245397699942
Root mean squared error: 0.13210584283181273
Relative absolute error: 7.780366828844623
Root relative squared error: 37.752389147462644
Weighted TruePositiveRate: 0.9385281385281385
Weighted MatthewsCorrelation: 0.9289530909067552
Weighted FMeasure: 0.9371443363719901
Iteration time: 23.0
Weighted AreaUnderPRC: 0.8979225955999728
Mean absolute error: 0.019053959580844056
Coverage of cases: 93.85281385281385
Instances selection time: 23.0
Test time: 209.0
Accumulative iteration time: 2658.0
Weighted Recall: 0.9385281385281385
Weighted FalsePositiveRate: 0.010245310245310247
Kappa statistic: 0.9282828282828283
Training time: 0.0
		
Iteration: 42
Labeled set size: 1051
Unlabelled set size: 104
	
Mean region size: 14.285714285714091
Incorrectly Classified Instances: 4.935064935064935
Correctly Classified Instances: 95.06493506493507
Weighted Precision: 0.9519009988496144
Weighted AreaUnderROC: 0.9718382963837509
Root mean squared error: 0.11837935286128719
Relative absolute error: 6.364074976650867
Root relative squared error: 33.829717902287165
Weighted TruePositiveRate: 0.9506493506493506
Weighted MatthewsCorrelation: 0.9426727075549546
Weighted FMeasure: 0.9500511020021001
Iteration time: 27.0
Weighted AreaUnderPRC: 0.9158776414144023
Mean absolute error: 0.015585489738736883
Coverage of cases: 95.06493506493507
Instances selection time: 27.0
Test time: 207.0
Accumulative iteration time: 2685.0
Weighted Recall: 0.9506493506493506
Weighted FalsePositiveRate: 0.008225108225108227
Kappa statistic: 0.9424242424242423
Training time: 0.0
		
Iteration: 43
Labeled set size: 1071
Unlabelled set size: 84
	
Mean region size: 14.285714285714091
Incorrectly Classified Instances: 4.935064935064935
Correctly Classified Instances: 95.06493506493507
Weighted Precision: 0.9512616637758611
Weighted AreaUnderROC: 0.9718194936376755
Root mean squared error: 0.11838572269434001
Relative absolute error: 6.352541447300206
Root relative squared error: 33.83153823370521
Weighted TruePositiveRate: 0.9506493506493506
Weighted MatthewsCorrelation: 0.9424953757199901
Weighted FMeasure: 0.9501676641648482
Iteration time: 16.0
Weighted AreaUnderPRC: 0.9156716369612552
Mean absolute error: 0.015557244360735264
Coverage of cases: 95.06493506493507
Instances selection time: 16.0
Test time: 211.0
Accumulative iteration time: 2701.0
Weighted Recall: 0.9506493506493506
Weighted FalsePositiveRate: 0.008225108225108226
Kappa statistic: 0.9424242424242423
Training time: 0.0
		
Iteration: 44
Labeled set size: 1091
Unlabelled set size: 64
	
Mean region size: 14.285714285714091
Incorrectly Classified Instances: 4.329004329004329
Correctly Classified Instances: 95.67099567099567
Weighted Precision: 0.9569902285476042
Weighted AreaUnderROC: 0.9751598233416415
Root mean squared error: 0.11088764771614343
Relative absolute error: 5.638590015616561
Root relative squared error: 31.68878482957218
Weighted TruePositiveRate: 0.9567099567099567
Weighted MatthewsCorrelation: 0.9495131793432475
Weighted FMeasure: 0.9564389615736509
Iteration time: 13.0
Weighted AreaUnderPRC: 0.9251735820670377
Mean absolute error: 0.013808791874979394
Coverage of cases: 95.67099567099567
Instances selection time: 13.0
Test time: 213.0
Accumulative iteration time: 2714.0
Weighted Recall: 0.9567099567099567
Weighted FalsePositiveRate: 0.007215007215007216
Kappa statistic: 0.9494949494949494
Training time: 0.0
		
Iteration: 45
Labeled set size: 1111
Unlabelled set size: 44
	
Mean region size: 14.285714285714091
Incorrectly Classified Instances: 4.329004329004329
Correctly Classified Instances: 95.67099567099567
Weighted Precision: 0.9569936537864184
Weighted AreaUnderROC: 0.9751851851851853
Root mean squared error: 0.11089310542343007
Relative absolute error: 5.627798541817666
Root relative squared error: 31.690344499340917
Weighted TruePositiveRate: 0.9567099567099567
Weighted MatthewsCorrelation: 0.9495496228215244
Weighted FMeasure: 0.9565603027840494
Iteration time: 9.0
Weighted AreaUnderPRC: 0.9255023973557333
Mean absolute error: 0.013782363775880057
Coverage of cases: 95.67099567099567
Instances selection time: 9.0
Test time: 215.0
Accumulative iteration time: 2723.0
Weighted Recall: 0.9567099567099567
Weighted FalsePositiveRate: 0.007215007215007216
Kappa statistic: 0.9494949494949494
Training time: 0.0
		
Iteration: 46
Labeled set size: 1131
Unlabelled set size: 24
	
Mean region size: 14.285714285714091
Incorrectly Classified Instances: 4.06926406926407
Correctly Classified Instances: 95.93073593073593
Weighted Precision: 0.9596632269128519
Weighted AreaUnderROC: 0.976558660195024
Root mean squared error: 0.10752167470123586
Relative absolute error: 5.317016450622933
Root relative squared error: 30.726877919213727
Weighted TruePositiveRate: 0.9593073593073593
Weighted MatthewsCorrelation: 0.9526283599406538
Weighted FMeasure: 0.9592428780875495
Iteration time: 5.0
Weighted AreaUnderPRC: 0.929419731740519
Mean absolute error: 0.01302126477703581
Coverage of cases: 95.93073593073593
Instances selection time: 5.0
Test time: 218.0
Accumulative iteration time: 2728.0
Weighted Recall: 0.9593073593073593
Weighted FalsePositiveRate: 0.006782106782106781
Kappa statistic: 0.9525252525252526
Training time: 0.0
		
Time end:Sun Oct 08 05.05.39 EEST 2017