Sun Oct 08 04.51.58 EEST 2017
Dataset: segment
Test set size: 1155
Initial Labelled set size: 231
Initial Unlabelled set size: 924
Batch mode: QBestBatchMode
Batch size: 20
Classifiers: RandomForest-1cores
Scenario: PoolBasedSamplingScenario
Query strategy: EntropySamplingQueryStrategy-1cores
Time begining: Sun Oct 08 04.51.58 EEST 2017
		
Iteration: 1
Labeled set size: 231
Unlabelled set size: 924
	
Mean region size: 25.281385281385255
Incorrectly Classified Instances: 7.705627705627705
Correctly Classified Instances: 92.2943722943723
Weighted Precision: 0.9238077033240579
Weighted AreaUnderROC: 0.9905741396650488
Root mean squared error: 0.13073220372543645
Relative absolute error: 17.84848484848489
Root relative squared error: 37.35983907563795
Weighted TruePositiveRate: 0.922943722943723
Weighted MatthewsCorrelation: 0.9103057926812944
Weighted FMeasure: 0.9226139181846632
Iteration time: 42.0
Weighted AreaUnderPRC: 0.959644034964427
Mean absolute error: 0.043710575139146855
Coverage of cases: 99.39393939393939
Instances selection time: 4.0
Test time: 7.0
Accumulative iteration time: 42.0
Weighted Recall: 0.922943722943723
Weighted FalsePositiveRate: 0.01284271284271284
Kappa statistic: 0.9101010101010101
Training time: 38.0
		
Iteration: 2
Labeled set size: 251
Unlabelled set size: 904
	
Mean region size: 24.78664192949899
Incorrectly Classified Instances: 6.83982683982684
Correctly Classified Instances: 93.16017316017316
Weighted Precision: 0.9336791458803808
Weighted AreaUnderROC: 0.9920827320827321
Root mean squared error: 0.13083623341896836
Relative absolute error: 17.878787878787932
Root relative squared error: 37.389568036817266
Weighted TruePositiveRate: 0.9316017316017317
Weighted MatthewsCorrelation: 0.9207489106214386
Weighted FMeasure: 0.9309883608459686
Iteration time: 33.0
Weighted AreaUnderPRC: 0.9592539253847449
Mean absolute error: 0.043784786641929814
Coverage of cases: 99.82683982683983
Instances selection time: 4.0
Test time: 7.0
Accumulative iteration time: 75.0
Weighted Recall: 0.9316017316017317
Weighted FalsePositiveRate: 0.0113997113997114
Kappa statistic: 0.9202020202020201
Training time: 29.0
		
Iteration: 3
Labeled set size: 271
Unlabelled set size: 884
	
Mean region size: 25.70191713048851
Incorrectly Classified Instances: 4.848484848484849
Correctly Classified Instances: 95.15151515151516
Weighted Precision: 0.952907942025151
Weighted AreaUnderROC: 0.9920376929467839
Root mean squared error: 0.12339257130920815
Relative absolute error: 17.14141414141423
Root relative squared error: 35.2623644050471
Weighted TruePositiveRate: 0.9515151515151515
Weighted MatthewsCorrelation: 0.9440177110832038
Weighted FMeasure: 0.9518785563518453
Iteration time: 37.0
Weighted AreaUnderPRC: 0.9633267452514805
Mean absolute error: 0.041978973407545236
Coverage of cases: 99.39393939393939
Instances selection time: 3.0
Test time: 8.0
Accumulative iteration time: 112.0
Weighted Recall: 0.9515151515151515
Weighted FalsePositiveRate: 0.00808080808080808
Kappa statistic: 0.9434343434343433
Training time: 34.0
		
Iteration: 4
Labeled set size: 291
Unlabelled set size: 864
	
Mean region size: 26.147186147186186
Incorrectly Classified Instances: 6.0606060606060606
Correctly Classified Instances: 93.93939393939394
Weighted Precision: 0.9404612334539975
Weighted AreaUnderROC: 0.9933788097424462
Root mean squared error: 0.12313167755924076
Relative absolute error: 17.585858585858652
Root relative squared error: 35.18780780585528
Weighted TruePositiveRate: 0.9393939393939394
Weighted MatthewsCorrelation: 0.92970866438141
Weighted FMeasure: 0.9395774871613869
Iteration time: 42.0
Weighted AreaUnderPRC: 0.9685981670297594
Mean absolute error: 0.04306740878169484
Coverage of cases: 99.65367965367966
Instances selection time: 3.0
Test time: 8.0
Accumulative iteration time: 154.0
Weighted Recall: 0.9393939393939394
Weighted FalsePositiveRate: 0.0101010101010101
Kappa statistic: 0.9292929292929294
Training time: 39.0
		
Iteration: 5
Labeled set size: 311
Unlabelled set size: 844
	
Mean region size: 24.291898577612812
Incorrectly Classified Instances: 3.896103896103896
Correctly Classified Instances: 96.1038961038961
Weighted Precision: 0.9617150773988444
Weighted AreaUnderROC: 0.9964191700555337
Root mean squared error: 0.10628953118873767
Relative absolute error: 13.888888888888907
Root relative squared error: 30.374763581405258
Weighted TruePositiveRate: 0.961038961038961
Weighted MatthewsCorrelation: 0.9546919794817902
Weighted FMeasure: 0.9607357525968839
Iteration time: 46.0
Weighted AreaUnderPRC: 0.9821605570638997
Mean absolute error: 0.03401360544217706
Coverage of cases: 99.82683982683983
Instances selection time: 4.0
Test time: 7.0
Accumulative iteration time: 200.0
Weighted Recall: 0.961038961038961
Weighted FalsePositiveRate: 0.006493506493506494
Kappa statistic: 0.9545454545454544
Training time: 42.0
		
Iteration: 6
Labeled set size: 331
Unlabelled set size: 824
	
Mean region size: 24.761904761904717
Incorrectly Classified Instances: 4.06926406926407
Correctly Classified Instances: 95.93073593073593
Weighted Precision: 0.959354213105542
Weighted AreaUnderROC: 0.9972307490489308
Root mean squared error: 0.10951063350068689
Relative absolute error: 15.060606060606114
Root relative squared error: 31.29527023998898
Weighted TruePositiveRate: 0.9593073593073593
Weighted MatthewsCorrelation: 0.9525317474656702
Weighted FMeasure: 0.9592749908854206
Iteration time: 67.0
Weighted AreaUnderPRC: 0.9840423287890425
Mean absolute error: 0.03688311688311717
Coverage of cases: 100.0
Instances selection time: 3.0
Test time: 7.0
Accumulative iteration time: 267.0
Weighted Recall: 0.9593073593073593
Weighted FalsePositiveRate: 0.0067821067821067825
Kappa statistic: 0.9525252525252526
Training time: 64.0
		
Iteration: 7
Labeled set size: 351
Unlabelled set size: 804
	
Mean region size: 24.403215831787165
Incorrectly Classified Instances: 3.722943722943723
Correctly Classified Instances: 96.27705627705627
Weighted Precision: 0.9631626378646712
Weighted AreaUnderROC: 0.9965206174297083
Root mean squared error: 0.10543663081151244
Relative absolute error: 14.212121212121241
Root relative squared error: 30.13102699674853
Weighted TruePositiveRate: 0.9627705627705627
Weighted MatthewsCorrelation: 0.9566695757812648
Weighted FMeasure: 0.9626641912605015
Iteration time: 54.0
Weighted AreaUnderPRC: 0.9841978934283836
Mean absolute error: 0.034805194805195026
Coverage of cases: 99.74025974025975
Instances selection time: 4.0
Test time: 7.0
Accumulative iteration time: 321.0
Weighted Recall: 0.9627705627705627
Weighted FalsePositiveRate: 0.006204906204906205
Kappa statistic: 0.9565656565656565
Training time: 50.0
		
Iteration: 8
Labeled set size: 371
Unlabelled set size: 784
	
Mean region size: 23.85899814471237
Incorrectly Classified Instances: 3.8095238095238093
Correctly Classified Instances: 96.19047619047619
Weighted Precision: 0.9620532880515049
Weighted AreaUnderROC: 0.9965372338099612
Root mean squared error: 0.10763092299342054
Relative absolute error: 13.969696969696999
Root relative squared error: 30.75809821917807
Weighted TruePositiveRate: 0.9619047619047619
Weighted MatthewsCorrelation: 0.9556054006678864
Weighted FMeasure: 0.9619019387299897
Iteration time: 56.0
Weighted AreaUnderPRC: 0.9793320369715927
Mean absolute error: 0.03421150278293157
Coverage of cases: 99.91341991341992
Instances selection time: 3.0
Test time: 7.0
Accumulative iteration time: 377.0
Weighted Recall: 0.9619047619047619
Weighted FalsePositiveRate: 0.00634920634920635
Kappa statistic: 0.9555555555555555
Training time: 53.0
		
Iteration: 9
Labeled set size: 391
Unlabelled set size: 764
	
Mean region size: 22.67161410018533
Incorrectly Classified Instances: 3.116883116883117
Correctly Classified Instances: 96.88311688311688
Weighted Precision: 0.9691569068307175
Weighted AreaUnderROC: 0.9978306878306878
Root mean squared error: 0.09426341071633455
Relative absolute error: 11.333333333333258
Root relative squared error: 26.93801339476554
Weighted TruePositiveRate: 0.9688311688311688
Weighted MatthewsCorrelation: 0.9636864006226488
Weighted FMeasure: 0.9686198254423273
Iteration time: 57.0
Weighted AreaUnderPRC: 0.9881998589248409
Mean absolute error: 0.02775510204081626
Coverage of cases: 99.91341991341992
Instances selection time: 3.0
Test time: 7.0
Accumulative iteration time: 434.0
Weighted Recall: 0.9688311688311688
Weighted FalsePositiveRate: 0.005194805194805195
Kappa statistic: 0.9636363636363636
Training time: 54.0
		
Iteration: 10
Labeled set size: 411
Unlabelled set size: 744
	
Mean region size: 23.265306122448838
Incorrectly Classified Instances: 3.29004329004329
Correctly Classified Instances: 96.70995670995671
Weighted Precision: 0.9670486411443169
Weighted AreaUnderROC: 0.9979876688967598
Root mean squared error: 0.09658356951269977
Relative absolute error: 12.101010101010065
Root relative squared error: 27.60105399832009
Weighted TruePositiveRate: 0.9670995670995671
Weighted MatthewsCorrelation: 0.9615455099547228
Weighted FMeasure: 0.9669145549883861
Iteration time: 60.0
Weighted AreaUnderPRC: 0.9892538894717096
Mean absolute error: 0.029635126777983956
Coverage of cases: 99.91341991341992
Instances selection time: 3.0
Test time: 7.0
Accumulative iteration time: 494.0
Weighted Recall: 0.9670995670995671
Weighted FalsePositiveRate: 0.005483405483405484
Kappa statistic: 0.9616161616161615
Training time: 57.0
		
Iteration: 11
Labeled set size: 431
Unlabelled set size: 724
	
Mean region size: 23.94557823129234
Incorrectly Classified Instances: 3.463203463203463
Correctly Classified Instances: 96.53679653679653
Weighted Precision: 0.96670112034121
Weighted AreaUnderROC: 0.9980082207354934
Root mean squared error: 0.09902430628075458
Relative absolute error: 12.989898989899002
Root relative squared error: 28.29855262744156
Weighted TruePositiveRate: 0.9653679653679653
Weighted MatthewsCorrelation: 0.9600549083643538
Weighted FMeasure: 0.9653626448813115
Iteration time: 62.0
Weighted AreaUnderPRC: 0.9881809280706882
Mean absolute error: 0.03181199752628341
Coverage of cases: 100.0
Instances selection time: 2.0
Test time: 7.0
Accumulative iteration time: 556.0
Weighted Recall: 0.9653679653679653
Weighted FalsePositiveRate: 0.005772005772005772
Kappa statistic: 0.9595959595959594
Training time: 60.0
		
Iteration: 12
Labeled set size: 451
Unlabelled set size: 704
	
Mean region size: 20.89053803339499
Incorrectly Classified Instances: 3.2034632034632033
Correctly Classified Instances: 96.7965367965368
Weighted Precision: 0.9685253640530468
Weighted AreaUnderROC: 0.9968258340985614
Root mean squared error: 0.09283549531217988
Relative absolute error: 9.93939393939387
Root relative squared error: 26.529952578894328
Weighted TruePositiveRate: 0.9679653679653679
Weighted MatthewsCorrelation: 0.9628174095456337
Weighted FMeasure: 0.967964299729526
Iteration time: 65.0
Weighted AreaUnderPRC: 0.988212490221492
Mean absolute error: 0.024341372912801418
Coverage of cases: 99.65367965367966
Instances selection time: 3.0
Test time: 7.0
Accumulative iteration time: 621.0
Weighted Recall: 0.9679653679653679
Weighted FalsePositiveRate: 0.0053391053391053395
Kappa statistic: 0.9626262626262626
Training time: 62.0
		
Iteration: 13
Labeled set size: 471
Unlabelled set size: 684
	
Mean region size: 23.129251700680122
Incorrectly Classified Instances: 3.463203463203463
Correctly Classified Instances: 96.53679653679653
Weighted Precision: 0.9657230953418457
Weighted AreaUnderROC: 0.9951620097074643
Root mean squared error: 0.10303976092498507
Relative absolute error: 12.77777777777775
Root relative squared error: 29.446064373201153
Weighted TruePositiveRate: 0.9653679653679653
Weighted MatthewsCorrelation: 0.9597175445622207
Weighted FMeasure: 0.9653699073763843
Iteration time: 68.0
Weighted AreaUnderPRC: 0.9820342680288668
Mean absolute error: 0.031292517006802786
Coverage of cases: 99.56709956709956
Instances selection time: 3.0
Test time: 7.0
Accumulative iteration time: 689.0
Weighted Recall: 0.9653679653679653
Weighted FalsePositiveRate: 0.005772005772005772
Kappa statistic: 0.9595959595959594
Training time: 65.0
		
Iteration: 14
Labeled set size: 491
Unlabelled set size: 664
	
Mean region size: 22.5726654298081
Incorrectly Classified Instances: 3.2034632034632033
Correctly Classified Instances: 96.7965367965368
Weighted Precision: 0.9681837520200012
Weighted AreaUnderROC: 0.9981324063142245
Root mean squared error: 0.09560535249711577
Relative absolute error: 11.737373737373686
Root relative squared error: 27.321505201299715
Weighted TruePositiveRate: 0.9679653679653679
Weighted MatthewsCorrelation: 0.962703919225961
Weighted FMeasure: 0.967976954972799
Iteration time: 70.0
Weighted AreaUnderPRC: 0.9898039649257153
Mean absolute error: 0.02874458874458874
Coverage of cases: 99.91341991341992
Instances selection time: 3.0
Test time: 7.0
Accumulative iteration time: 759.0
Weighted Recall: 0.9679653679653679
Weighted FalsePositiveRate: 0.0053391053391053395
Kappa statistic: 0.9626262626262626
Training time: 67.0
		
Iteration: 15
Labeled set size: 511
Unlabelled set size: 644
	
Mean region size: 20.606060606060417
Incorrectly Classified Instances: 3.2034632034632033
Correctly Classified Instances: 96.7965367965368
Weighted Precision: 0.9684845817872464
Weighted AreaUnderROC: 0.9986986750623115
Root mean squared error: 0.08654717989372747
Relative absolute error: 9.282828282828218
Root relative squared error: 24.73291676525781
Weighted TruePositiveRate: 0.9679653679653679
Weighted MatthewsCorrelation: 0.9628349266751736
Weighted FMeasure: 0.9680756747732634
Iteration time: 73.0
Weighted AreaUnderPRC: 0.9934607892455977
Mean absolute error: 0.022733457019171243
Coverage of cases: 99.91341991341992
Instances selection time: 4.0
Test time: 7.0
Accumulative iteration time: 832.0
Weighted Recall: 0.9679653679653679
Weighted FalsePositiveRate: 0.0053391053391053395
Kappa statistic: 0.9626262626262626
Training time: 69.0
		
Iteration: 16
Labeled set size: 531
Unlabelled set size: 624
	
Mean region size: 21.08843537414945
Incorrectly Classified Instances: 2.9437229437229435
Correctly Classified Instances: 97.05627705627705
Weighted Precision: 0.9711595439176646
Weighted AreaUnderROC: 0.9980878044514409
Root mean squared error: 0.09069238239845864
Relative absolute error: 9.818181818181749
Root relative squared error: 25.91750705058592
Weighted TruePositiveRate: 0.9705627705627705
Weighted MatthewsCorrelation: 0.9658106782651096
Weighted FMeasure: 0.9703880687010051
Iteration time: 74.0
Weighted AreaUnderPRC: 0.9898170676506713
Mean absolute error: 0.024044526901669694
Coverage of cases: 99.91341991341992
Instances selection time: 2.0
Test time: 7.0
Accumulative iteration time: 906.0
Weighted Recall: 0.9705627705627705
Weighted FalsePositiveRate: 0.004906204906204906
Kappa statistic: 0.9656565656565654
Training time: 72.0
		
Iteration: 17
Labeled set size: 551
Unlabelled set size: 604
	
Mean region size: 21.11317254174378
Incorrectly Classified Instances: 2.5974025974025974
Correctly Classified Instances: 97.40259740259741
Weighted Precision: 0.9744593540493413
Weighted AreaUnderROC: 0.9981332808605535
Root mean squared error: 0.08758422044521293
Relative absolute error: 9.90909090909084
Root relative squared error: 25.029275787857756
Weighted TruePositiveRate: 0.974025974025974
Weighted MatthewsCorrelation: 0.9698485849594225
Weighted FMeasure: 0.9740409998826298
Iteration time: 75.0
Weighted AreaUnderPRC: 0.9923274220314312
Mean absolute error: 0.024267161410018487
Coverage of cases: 99.82683982683983
Instances selection time: 2.0
Test time: 7.0
Accumulative iteration time: 981.0
Weighted Recall: 0.974025974025974
Weighted FalsePositiveRate: 0.004329004329004329
Kappa statistic: 0.9696969696969697
Training time: 73.0
		
Iteration: 18
Labeled set size: 571
Unlabelled set size: 584
	
Mean region size: 20.643166357451886
Incorrectly Classified Instances: 2.7705627705627704
Correctly Classified Instances: 97.22943722943722
Weighted Precision: 0.9730225942190527
Weighted AreaUnderROC: 0.9978722287813196
Root mean squared error: 0.08816131837791655
Relative absolute error: 9.34343434343428
Root relative squared error: 25.19419525897729
Weighted TruePositiveRate: 0.9722943722943723
Weighted MatthewsCorrelation: 0.9679383952386873
Weighted FMeasure: 0.9723369320553545
Iteration time: 76.0
Weighted AreaUnderPRC: 0.990336654474337
Mean absolute error: 0.02288188002473711
Coverage of cases: 99.82683982683983
Instances selection time: 2.0
Test time: 7.0
Accumulative iteration time: 1057.0
Weighted Recall: 0.9722943722943723
Weighted FalsePositiveRate: 0.0046176046176046185
Kappa statistic: 0.9676767676767676
Training time: 74.0
		
Iteration: 19
Labeled set size: 591
Unlabelled set size: 564
	
Mean region size: 21.620284477427134
Incorrectly Classified Instances: 3.0303030303030303
Correctly Classified Instances: 96.96969696969697
Weighted Precision: 0.9698867253541934
Weighted AreaUnderROC: 0.9987979360706634
Root mean squared error: 0.09256864941582096
Relative absolute error: 10.81818181818174
Root relative squared error: 26.45369501219025
Weighted TruePositiveRate: 0.9696969696969697
Weighted MatthewsCorrelation: 0.9646998322950638
Weighted FMeasure: 0.9696568774333942
Iteration time: 83.0
Weighted AreaUnderPRC: 0.9914700794807189
Mean absolute error: 0.026493506493506416
Coverage of cases: 100.0
Instances selection time: 2.0
Test time: 7.0
Accumulative iteration time: 1140.0
Weighted Recall: 0.9696969696969697
Weighted FalsePositiveRate: 0.00505050505050505
Kappa statistic: 0.9646464646464646
Training time: 81.0
		
Iteration: 20
Labeled set size: 611
Unlabelled set size: 544
	
Mean region size: 20.853432282003514
Incorrectly Classified Instances: 3.722943722943723
Correctly Classified Instances: 96.27705627705627
Weighted Precision: 0.9629186485079987
Weighted AreaUnderROC: 0.997307709125891
Root mean squared error: 0.09331389496316883
Relative absolute error: 10.020202020201951
Root relative squared error: 26.66666666666665
Weighted TruePositiveRate: 0.9627705627705627
Weighted MatthewsCorrelation: 0.9565992208217424
Weighted FMeasure: 0.9627103183083676
Iteration time: 83.0
Weighted AreaUnderPRC: 0.9868674710729272
Mean absolute error: 0.024539270253555904
Coverage of cases: 99.82683982683983
Instances selection time: 2.0
Test time: 7.0
Accumulative iteration time: 1223.0
Weighted Recall: 0.9627705627705627
Weighted FalsePositiveRate: 0.0062049062049062045
Kappa statistic: 0.9565656565656565
Training time: 81.0
		
Iteration: 21
Labeled set size: 631
Unlabelled set size: 524
	
Mean region size: 19.999999999999805
Incorrectly Classified Instances: 2.9437229437229435
Correctly Classified Instances: 97.05627705627705
Weighted Precision: 0.9707138017020972
Weighted AreaUnderROC: 0.9985377585377585
Root mean squared error: 0.08590167107444895
Relative absolute error: 8.626262626262568
Root relative squared error: 24.548447254892945
Weighted TruePositiveRate: 0.9705627705627705
Weighted MatthewsCorrelation: 0.965680399479617
Weighted FMeasure: 0.9704664661942002
Iteration time: 86.0
Weighted AreaUnderPRC: 0.9923107570616894
Mean absolute error: 0.021125541125541072
Coverage of cases: 99.91341991341992
Instances selection time: 2.0
Test time: 8.0
Accumulative iteration time: 1309.0
Weighted Recall: 0.9705627705627705
Weighted FalsePositiveRate: 0.004906204906204906
Kappa statistic: 0.9656565656565654
Training time: 84.0
		
Iteration: 22
Labeled set size: 651
Unlabelled set size: 504
	
Mean region size: 20.80395794681488
Incorrectly Classified Instances: 2.857142857142857
Correctly Classified Instances: 97.14285714285714
Weighted Precision: 0.9714426895634208
Weighted AreaUnderROC: 0.9983501683501683
Root mean squared error: 0.08747117203353488
Relative absolute error: 9.44444444444438
Root relative squared error: 24.996969513292704
Weighted TruePositiveRate: 0.9714285714285714
Weighted MatthewsCorrelation: 0.9666362019095917
Weighted FMeasure: 0.9713061045174927
Iteration time: 85.0
Weighted AreaUnderPRC: 0.9912642061673317
Mean absolute error: 0.023129251700680212
Coverage of cases: 99.91341991341992
Instances selection time: 2.0
Test time: 7.0
Accumulative iteration time: 1394.0
Weighted Recall: 0.9714285714285714
Weighted FalsePositiveRate: 0.004761904761904762
Kappa statistic: 0.9666666666666666
Training time: 83.0
		
Iteration: 23
Labeled set size: 671
Unlabelled set size: 484
	
Mean region size: 20.247371675942915
Incorrectly Classified Instances: 3.463203463203463
Correctly Classified Instances: 96.53679653679653
Weighted Precision: 0.9658024143948594
Weighted AreaUnderROC: 0.9977873977873977
Root mean squared error: 0.0896499065888609
Relative absolute error: 9.141414141414078
Root relative squared error: 25.61959477360318
Weighted TruePositiveRate: 0.9653679653679653
Weighted MatthewsCorrelation: 0.9597375450510224
Weighted FMeasure: 0.9653452791298509
Iteration time: 89.0
Weighted AreaUnderPRC: 0.9899436284617826
Mean absolute error: 0.022387136672850902
Coverage of cases: 99.82683982683983
Instances selection time: 2.0
Test time: 7.0
Accumulative iteration time: 1483.0
Weighted Recall: 0.9653679653679653
Weighted FalsePositiveRate: 0.005772005772005772
Kappa statistic: 0.9595959595959594
Training time: 87.0
		
Iteration: 24
Labeled set size: 691
Unlabelled set size: 464
	
Mean region size: 20.754483611626252
Incorrectly Classified Instances: 2.7705627705627704
Correctly Classified Instances: 97.22943722943722
Weighted Precision: 0.9728232786667937
Weighted AreaUnderROC: 0.9981765709038437
Root mean squared error: 0.09070601932544323
Relative absolute error: 9.57575757575751
Root relative squared error: 25.921404127075967
Weighted TruePositiveRate: 0.9722943722943723
Weighted MatthewsCorrelation: 0.9678208263955214
Weighted FMeasure: 0.972168609756112
Iteration time: 92.0
Weighted AreaUnderPRC: 0.9903330187159917
Mean absolute error: 0.02345083487940625
Coverage of cases: 99.91341991341992
Instances selection time: 2.0
Test time: 7.0
Accumulative iteration time: 1575.0
Weighted Recall: 0.9722943722943723
Weighted FalsePositiveRate: 0.0046176046176046185
Kappa statistic: 0.9676767676767676
Training time: 90.0
		
Iteration: 25
Labeled set size: 711
Unlabelled set size: 444
	
Mean region size: 20.828695114409218
Incorrectly Classified Instances: 3.116883116883117
Correctly Classified Instances: 96.88311688311688
Weighted Precision: 0.9688622660913058
Weighted AreaUnderROC: 0.9974974856793039
Root mean squared error: 0.09184429296183771
Relative absolute error: 9.676767676767613
Root relative squared error: 26.246692913372666
Weighted TruePositiveRate: 0.9688311688311688
Weighted MatthewsCorrelation: 0.9636281895468566
Weighted FMeasure: 0.9687664216370925
Iteration time: 92.0
Weighted AreaUnderPRC: 0.9883135108294037
Mean absolute error: 0.023698206555349353
Coverage of cases: 99.82683982683983
Instances selection time: 2.0
Test time: 7.0
Accumulative iteration time: 1667.0
Weighted Recall: 0.9688311688311688
Weighted FalsePositiveRate: 0.0051948051948051965
Kappa statistic: 0.9636363636363636
Training time: 90.0
		
Iteration: 26
Labeled set size: 731
Unlabelled set size: 424
	
Mean region size: 20.593692022263248
Incorrectly Classified Instances: 2.9437229437229435
Correctly Classified Instances: 97.05627705627705
Weighted Precision: 0.9710771045673067
Weighted AreaUnderROC: 0.9976531549258821
Root mean squared error: 0.08831550793878791
Relative absolute error: 9.17171717171711
Root relative squared error: 25.238258596220465
Weighted TruePositiveRate: 0.9705627705627705
Weighted MatthewsCorrelation: 0.9658347042651723
Weighted FMeasure: 0.9705771705851505
Iteration time: 97.0
Weighted AreaUnderPRC: 0.9883567784357966
Mean absolute error: 0.022461348175633836
Coverage of cases: 99.82683982683983
Instances selection time: 1.0
Test time: 8.0
Accumulative iteration time: 1764.0
Weighted Recall: 0.9705627705627705
Weighted FalsePositiveRate: 0.004906204906204906
Kappa statistic: 0.9656565656565654
Training time: 96.0
		
Iteration: 27
Labeled set size: 751
Unlabelled set size: 404
	
Mean region size: 20.544217687074624
Incorrectly Classified Instances: 2.5974025974025974
Correctly Classified Instances: 97.40259740259741
Weighted Precision: 0.9743133561920843
Weighted AreaUnderROC: 0.9979780488871398
Root mean squared error: 0.08807710121010891
Relative absolute error: 9.313131313131247
Root relative squared error: 25.170128198627665
Weighted TruePositiveRate: 0.974025974025974
Weighted MatthewsCorrelation: 0.9697574224455808
Weighted FMeasure: 0.9738937953555213
Iteration time: 97.0
Weighted AreaUnderPRC: 0.9912371002107657
Mean absolute error: 0.022807668521954174
Coverage of cases: 99.82683982683983
Instances selection time: 2.0
Test time: 7.0
Accumulative iteration time: 1861.0
Weighted Recall: 0.974025974025974
Weighted FalsePositiveRate: 0.00432900432900433
Kappa statistic: 0.9696969696969697
Training time: 95.0
		
Iteration: 28
Labeled set size: 771
Unlabelled set size: 384
	
Mean region size: 20.71737786023481
Incorrectly Classified Instances: 2.7705627705627704
Correctly Classified Instances: 97.22943722943722
Weighted Precision: 0.9722230424633708
Weighted AreaUnderROC: 0.9980042852770126
Root mean squared error: 0.08788028062622312
Relative absolute error: 9.383838383838318
Root relative squared error: 25.11388203179804
Weighted TruePositiveRate: 0.9722943722943723
Weighted MatthewsCorrelation: 0.9676297628064945
Weighted FMeasure: 0.9722161253979535
Iteration time: 99.0
Weighted AreaUnderPRC: 0.9915925058514492
Mean absolute error: 0.02298082869511435
Coverage of cases: 99.82683982683983
Instances selection time: 1.0
Test time: 7.0
Accumulative iteration time: 1960.0
Weighted Recall: 0.9722943722943723
Weighted FalsePositiveRate: 0.0046176046176046185
Kappa statistic: 0.9676767676767676
Training time: 98.0
		
Iteration: 29
Labeled set size: 791
Unlabelled set size: 364
	
Mean region size: 20.81632653061204
Incorrectly Classified Instances: 2.5108225108225106
Correctly Classified Instances: 97.4891774891775
Weighted Precision: 0.9752888449279666
Weighted AreaUnderROC: 0.9965700292973021
Root mean squared error: 0.09184429296183788
Relative absolute error: 9.666666666666602
Root relative squared error: 26.24669291337271
Weighted TruePositiveRate: 0.9748917748917749
Weighted MatthewsCorrelation: 0.970822085231583
Weighted FMeasure: 0.974821276364411
Iteration time: 99.0
Weighted AreaUnderPRC: 0.9866694310715936
Mean absolute error: 0.023673469387755042
Coverage of cases: 99.65367965367966
Instances selection time: 1.0
Test time: 8.0
Accumulative iteration time: 2059.0
Weighted Recall: 0.9748917748917749
Weighted FalsePositiveRate: 0.004184704184704185
Kappa statistic: 0.9707070707070707
Training time: 98.0
		
Iteration: 30
Labeled set size: 811
Unlabelled set size: 344
	
Mean region size: 19.999999999999826
Incorrectly Classified Instances: 2.683982683982684
Correctly Classified Instances: 97.31601731601732
Weighted Precision: 0.97327039171
Weighted AreaUnderROC: 0.9983051292142201
Root mean squared error: 0.0886091247808833
Relative absolute error: 9.020202020201957
Root relative squared error: 25.322166597906257
Weighted TruePositiveRate: 0.9731601731601731
Weighted MatthewsCorrelation: 0.9687011419334746
Weighted FMeasure: 0.9730797159325428
Iteration time: 105.0
Weighted AreaUnderPRC: 0.9907747265063257
Mean absolute error: 0.022090290661719175
Coverage of cases: 99.91341991341992
Instances selection time: 1.0
Test time: 8.0
Accumulative iteration time: 2164.0
Weighted Recall: 0.9731601731601731
Weighted FalsePositiveRate: 0.004473304473304474
Kappa statistic: 0.9686868686868686
Training time: 104.0
		
Iteration: 31
Labeled set size: 831
Unlabelled set size: 324
	
Mean region size: 19.95052566481119
Incorrectly Classified Instances: 2.683982683982684
Correctly Classified Instances: 97.31601731601732
Weighted Precision: 0.9732618678451662
Weighted AreaUnderROC: 0.997646595828414
Root mean squared error: 0.0877676135534531
Relative absolute error: 8.63636363636358
Root relative squared error: 25.081684733903085
Weighted TruePositiveRate: 0.9731601731601731
Weighted MatthewsCorrelation: 0.9687057143184905
Weighted FMeasure: 0.9731054426342808
Iteration time: 106.0
Weighted AreaUnderPRC: 0.9888074634180066
Mean absolute error: 0.021150278293135386
Coverage of cases: 99.82683982683983
Instances selection time: 1.0
Test time: 8.0
Accumulative iteration time: 2270.0
Weighted Recall: 0.9731601731601731
Weighted FalsePositiveRate: 0.004473304473304475
Kappa statistic: 0.9686868686868686
Training time: 105.0
		
Iteration: 32
Labeled set size: 851
Unlabelled set size: 304
	
Mean region size: 20.358688930117307
Incorrectly Classified Instances: 3.29004329004329
Correctly Classified Instances: 96.70995670995671
Weighted Precision: 0.9673612370084678
Weighted AreaUnderROC: 0.9977716559534741
Root mean squared error: 0.08796468622976115
Relative absolute error: 8.929292929292872
Root relative squared error: 25.13800294214302
Weighted TruePositiveRate: 0.9670995670995671
Weighted MatthewsCorrelation: 0.9617049743109949
Weighted FMeasure: 0.9670965887286055
Iteration time: 105.0
Weighted AreaUnderPRC: 0.9898649335738137
Mean absolute error: 0.021867656153370392
Coverage of cases: 99.82683982683983
Instances selection time: 1.0
Test time: 7.0
Accumulative iteration time: 2375.0
Weighted Recall: 0.9670995670995671
Weighted FalsePositiveRate: 0.005483405483405484
Kappa statistic: 0.9616161616161615
Training time: 104.0
		
Iteration: 33
Labeled set size: 871
Unlabelled set size: 284
	
Mean region size: 19.975262832405505
Incorrectly Classified Instances: 3.116883116883117
Correctly Classified Instances: 96.88311688311688
Weighted Precision: 0.9690799556594071
Weighted AreaUnderROC: 0.9980174034719489
Root mean squared error: 0.08715953285907838
Relative absolute error: 8.636363636363578
Root relative squared error: 24.907911201143296
Weighted TruePositiveRate: 0.9688311688311688
Weighted MatthewsCorrelation: 0.9636855093986019
Weighted FMeasure: 0.9687090272306986
Iteration time: 100.0
Weighted AreaUnderPRC: 0.9912983767863327
Mean absolute error: 0.021150278293135382
Coverage of cases: 99.82683982683983
Instances selection time: 1.0
Test time: 7.0
Accumulative iteration time: 2475.0
Weighted Recall: 0.9688311688311688
Weighted FalsePositiveRate: 0.005194805194805196
Kappa statistic: 0.9636363636363636
Training time: 99.0
		
Iteration: 34
Labeled set size: 891
Unlabelled set size: 264
	
Mean region size: 19.789734075448163
Incorrectly Classified Instances: 2.7705627705627704
Correctly Classified Instances: 97.22943722943722
Weighted Precision: 0.9730495674932467
Weighted AreaUnderROC: 0.9966570466570465
Root mean squared error: 0.08526578185865562
Relative absolute error: 8.353535353535298
Root relative squared error: 24.366726775202523
Weighted TruePositiveRate: 0.9722943722943723
Weighted MatthewsCorrelation: 0.9679196591882737
Weighted FMeasure: 0.9722453615597745
Iteration time: 107.0
Weighted AreaUnderPRC: 0.9899707593543963
Mean absolute error: 0.020457637600494696
Coverage of cases: 99.56709956709956
Instances selection time: 1.0
Test time: 7.0
Accumulative iteration time: 2582.0
Weighted Recall: 0.9722943722943723
Weighted FalsePositiveRate: 0.004617604617604618
Kappa statistic: 0.9676767676767676
Training time: 106.0
		
Iteration: 35
Labeled set size: 911
Unlabelled set size: 244
	
Mean region size: 19.56709956709936
Incorrectly Classified Instances: 3.722943722943723
Correctly Classified Instances: 96.27705627705627
Weighted Precision: 0.962938614744551
Weighted AreaUnderROC: 0.9970597752415935
Root mean squared error: 0.09107344450701477
Relative absolute error: 8.565656565656507
Root relative squared error: 26.02640461865094
Weighted TruePositiveRate: 0.9627705627705627
Weighted MatthewsCorrelation: 0.9566302031027822
Weighted FMeasure: 0.9627952957395374
Iteration time: 108.0
Weighted AreaUnderPRC: 0.9863004515454606
Mean absolute error: 0.02097711811997521
Coverage of cases: 99.74025974025975
Instances selection time: 2.0
Test time: 7.0
Accumulative iteration time: 2690.0
Weighted Recall: 0.9627705627705627
Weighted FalsePositiveRate: 0.0062049062049062045
Kappa statistic: 0.9565656565656565
Training time: 106.0
		
Iteration: 36
Labeled set size: 931
Unlabelled set size: 224
	
Mean region size: 20.927643784786458
Incorrectly Classified Instances: 3.3766233766233764
Correctly Classified Instances: 96.62337662337663
Weighted Precision: 0.9663734924232846
Weighted AreaUnderROC: 0.9981494599676418
Root mean squared error: 0.0953462589245594
Relative absolute error: 10.161616161616092
Root relative squared error: 27.247463045653294
Weighted TruePositiveRate: 0.9662337662337662
Weighted MatthewsCorrelation: 0.9606428692943623
Weighted FMeasure: 0.9661968422502285
Iteration time: 112.0
Weighted AreaUnderPRC: 0.9881047137485834
Mean absolute error: 0.024885590599876252
Coverage of cases: 100.0
Instances selection time: 2.0
Test time: 7.0
Accumulative iteration time: 2802.0
Weighted Recall: 0.9662337662337662
Weighted FalsePositiveRate: 0.005627705627705628
Kappa statistic: 0.9606060606060605
Training time: 110.0
		
Iteration: 37
Labeled set size: 951
Unlabelled set size: 204
	
Mean region size: 20.296846011131535
Incorrectly Classified Instances: 3.2034632034632033
Correctly Classified Instances: 96.7965367965368
Weighted Precision: 0.9686302821358403
Weighted AreaUnderROC: 0.9978219423673969
Root mean squared error: 0.08838550518203342
Relative absolute error: 9.171717171717109
Root relative squared error: 25.25826197464498
Weighted TruePositiveRate: 0.9679653679653679
Weighted MatthewsCorrelation: 0.9628231300963297
Weighted FMeasure: 0.9678569234025901
Iteration time: 119.0
Weighted AreaUnderPRC: 0.9907964433556921
Mean absolute error: 0.022461348175633833
Coverage of cases: 99.82683982683983
Instances selection time: 1.0
Test time: 7.0
Accumulative iteration time: 2921.0
Weighted Recall: 0.9679653679653679
Weighted FalsePositiveRate: 0.0053391053391053395
Kappa statistic: 0.9626262626262626
Training time: 118.0
		
Iteration: 38
Labeled set size: 971
Unlabelled set size: 184
	
Mean region size: 20.148423005565668
Incorrectly Classified Instances: 2.857142857142857
Correctly Classified Instances: 97.14285714285714
Weighted Precision: 0.9716931787456169
Weighted AreaUnderROC: 0.9971546635183
Root mean squared error: 0.09017265099934604
Relative absolute error: 9.11111111111105
Root relative squared error: 25.768981431954245
Weighted TruePositiveRate: 0.9714285714285714
Weighted MatthewsCorrelation: 0.9667553915537332
Weighted FMeasure: 0.9714251512063302
Iteration time: 116.0
Weighted AreaUnderPRC: 0.9874732304334202
Mean absolute error: 0.02231292517006797
Coverage of cases: 99.74025974025975
Instances selection time: 1.0
Test time: 7.0
Accumulative iteration time: 3037.0
Weighted Recall: 0.9714285714285714
Weighted FalsePositiveRate: 0.004761904761904762
Kappa statistic: 0.9666666666666666
Training time: 115.0
		
Iteration: 39
Labeled set size: 991
Unlabelled set size: 164
	
Mean region size: 20.197897340754295
Incorrectly Classified Instances: 3.463203463203463
Correctly Classified Instances: 96.53679653679653
Weighted Precision: 0.9655149772518411
Weighted AreaUnderROC: 0.9976575276575277
Root mean squared error: 0.09104627867657988
Relative absolute error: 9.070707070707009
Root relative squared error: 26.01864133596709
Weighted TruePositiveRate: 0.9653679653679653
Weighted MatthewsCorrelation: 0.9596049093335349
Weighted FMeasure: 0.965225759567183
Iteration time: 119.0
Weighted AreaUnderPRC: 0.9883026433520357
Mean absolute error: 0.02221397649969073
Coverage of cases: 99.82683982683983
Instances selection time: 1.0
Test time: 7.0
Accumulative iteration time: 3156.0
Weighted Recall: 0.9653679653679653
Weighted FalsePositiveRate: 0.005772005772005771
Kappa statistic: 0.9595959595959594
Training time: 118.0
		
Iteration: 40
Labeled set size: 1011
Unlabelled set size: 144
	
Mean region size: 19.591836734693686
Incorrectly Classified Instances: 3.29004329004329
Correctly Classified Instances: 96.70995670995671
Weighted Precision: 0.96725356534439
Weighted AreaUnderROC: 0.9970951943679217
Root mean squared error: 0.09080142046897553
Relative absolute error: 8.848484848484789
Root relative squared error: 25.94866727470472
Weighted TruePositiveRate: 0.9670995670995671
Weighted MatthewsCorrelation: 0.9616422264503983
Weighted FMeasure: 0.9670072199120161
Iteration time: 128.0
Weighted AreaUnderPRC: 0.9868864031107021
Mean absolute error: 0.021669758812615902
Coverage of cases: 99.74025974025975
Instances selection time: 1.0
Test time: 7.0
Accumulative iteration time: 3284.0
Weighted Recall: 0.9670995670995671
Weighted FalsePositiveRate: 0.005483405483405484
Kappa statistic: 0.9616161616161615
Training time: 127.0
		
Iteration: 41
Labeled set size: 1031
Unlabelled set size: 124
	
Mean region size: 20.48237476808887
Incorrectly Classified Instances: 2.9437229437229435
Correctly Classified Instances: 97.05627705627705
Weighted Precision: 0.9706220927150501
Weighted AreaUnderROC: 0.9969198478289388
Root mean squared error: 0.09150700099267876
Relative absolute error: 9.424242424242362
Root relative squared error: 26.150303704515228
Weighted TruePositiveRate: 0.9705627705627705
Weighted MatthewsCorrelation: 0.9656555111309092
Weighted FMeasure: 0.9704899890878929
Iteration time: 123.0
Weighted AreaUnderPRC: 0.9872312339654189
Mean absolute error: 0.023079777365491595
Coverage of cases: 99.74025974025975
Instances selection time: 1.0
Test time: 7.0
Accumulative iteration time: 3407.0
Weighted Recall: 0.9705627705627705
Weighted FalsePositiveRate: 0.004906204906204907
Kappa statistic: 0.9656565656565654
Training time: 122.0
		
Iteration: 42
Labeled set size: 1051
Unlabelled set size: 104
	
Mean region size: 20.457637600494564
Incorrectly Classified Instances: 3.896103896103896
Correctly Classified Instances: 96.1038961038961
Weighted Precision: 0.9614579256874967
Weighted AreaUnderROC: 0.9973160173160174
Root mean squared error: 0.09411896575888723
Relative absolute error: 9.747474747474678
Root relative squared error: 26.89673480990474
Weighted TruePositiveRate: 0.961038961038961
Weighted MatthewsCorrelation: 0.9546390348684672
Weighted FMeasure: 0.9608677000108236
Iteration time: 125.0
Weighted AreaUnderPRC: 0.987037000662944
Mean absolute error: 0.023871366728509518
Coverage of cases: 99.82683982683983
Instances selection time: 1.0
Test time: 7.0
Accumulative iteration time: 3532.0
Weighted Recall: 0.961038961038961
Weighted FalsePositiveRate: 0.006493506493506494
Kappa statistic: 0.9545454545454544
Training time: 124.0
		
Iteration: 43
Labeled set size: 1071
Unlabelled set size: 84
	
Mean region size: 20.06184291898559
Incorrectly Classified Instances: 3.2034632034632033
Correctly Classified Instances: 96.7965367965368
Weighted Precision: 0.9682405001849029
Weighted AreaUnderROC: 0.99813196904106
Root mean squared error: 0.08982908253602553
Relative absolute error: 9.050505050504988
Root relative squared error: 25.67079856548872
Weighted TruePositiveRate: 0.9679653679653679
Weighted MatthewsCorrelation: 0.9626957642882543
Weighted FMeasure: 0.967882419701931
Iteration time: 121.0
Weighted AreaUnderPRC: 0.9900406796539606
Mean absolute error: 0.02216450216450211
Coverage of cases: 99.91341991341992
Instances selection time: 1.0
Test time: 8.0
Accumulative iteration time: 3653.0
Weighted Recall: 0.9679653679653679
Weighted FalsePositiveRate: 0.0053391053391053395
Kappa statistic: 0.9626262626262626
Training time: 120.0
		
Iteration: 44
Labeled set size: 1091
Unlabelled set size: 64
	
Mean region size: 20.0865800865799
Incorrectly Classified Instances: 3.116883116883117
Correctly Classified Instances: 96.88311688311688
Weighted Precision: 0.9689741193756403
Weighted AreaUnderROC: 0.9980165289256199
Root mean squared error: 0.08976021103733504
Relative absolute error: 8.96969696969691
Root relative squared error: 25.651116895367267
Weighted TruePositiveRate: 0.9688311688311688
Weighted MatthewsCorrelation: 0.9636881058267271
Weighted FMeasure: 0.9688416269328686
Iteration time: 122.0
Weighted AreaUnderPRC: 0.9887022980308516
Mean absolute error: 0.02196660482374763
Coverage of cases: 99.91341991341992
Instances selection time: 1.0
Test time: 7.0
Accumulative iteration time: 3775.0
Weighted Recall: 0.9688311688311688
Weighted FalsePositiveRate: 0.005194805194805196
Kappa statistic: 0.9636363636363636
Training time: 121.0
		
Iteration: 45
Labeled set size: 1111
Unlabelled set size: 44
	
Mean region size: 20.44526901669737
Incorrectly Classified Instances: 3.6363636363636362
Correctly Classified Instances: 96.36363636363636
Weighted Precision: 0.9644072902163274
Weighted AreaUnderROC: 0.9980362062180245
Root mean squared error: 0.09212666390143487
Relative absolute error: 9.53535353535347
Root relative squared error: 26.327387130729708
Weighted TruePositiveRate: 0.9636363636363636
Weighted MatthewsCorrelation: 0.957822393110588
Weighted FMeasure: 0.9635903910598379
Iteration time: 129.0
Weighted AreaUnderPRC: 0.9893558746186351
Mean absolute error: 0.023351886209029008
Coverage of cases: 99.91341991341992
Instances selection time: 0.0
Test time: 8.0
Accumulative iteration time: 3904.0
Weighted Recall: 0.9636363636363636
Weighted FalsePositiveRate: 0.006060606060606061
Kappa statistic: 0.9575757575757575
Training time: 129.0
		
Iteration: 46
Labeled set size: 1131
Unlabelled set size: 24
	
Mean region size: 19.047619047618856
Incorrectly Classified Instances: 3.6363636363636362
Correctly Classified Instances: 96.36363636363636
Weighted Precision: 0.9641513212859463
Weighted AreaUnderROC: 0.9963146617692071
Root mean squared error: 0.09215351124686888
Relative absolute error: 8.515151515151459
Root relative squared error: 26.33505939874356
Weighted TruePositiveRate: 0.9636363636363636
Weighted MatthewsCorrelation: 0.9577529310515889
Weighted FMeasure: 0.9636435438171858
Iteration time: 124.0
Weighted AreaUnderPRC: 0.9869524769551917
Mean absolute error: 0.02085343228200366
Coverage of cases: 99.56709956709956
Instances selection time: 0.0
Test time: 8.0
Accumulative iteration time: 4028.0
Weighted Recall: 0.9636363636363636
Weighted FalsePositiveRate: 0.006060606060606061
Kappa statistic: 0.9575757575757575
Training time: 124.0
		
Time end:Sun Oct 08 04.52.05 EEST 2017