Sun Oct 08 05.01.44 EEST 2017
Dataset: segment
Test set size: 1155
Initial Labelled set size: 231
Initial Unlabelled set size: 924
Batch mode: QBestBatchMode
Batch size: 20
Classifiers: NaiveBayes-1cores
Scenario: PoolBasedSamplingScenario
Query strategy: MarginSamplingQueryStrategy-1cores
Time begining: Sun Oct 08 05.01.44 EEST 2017
		
Iteration: 1
Labeled set size: 231
Unlabelled set size: 924
	
Mean region size: 17.13048855905981
Incorrectly Classified Instances: 13.852813852813853
Correctly Classified Instances: 86.14718614718615
Weighted Precision: 0.8643525007944302
Weighted AreaUnderROC: 0.9728798810616992
Root mean squared error: 0.18263480050492925
Relative absolute error: 17.09065134206246
Root relative squared error: 52.192241559742115
Weighted TruePositiveRate: 0.8614718614718615
Weighted MatthewsCorrelation: 0.8377202652763968
Weighted FMeasure: 0.855973715434793
Iteration time: 78.0
Weighted AreaUnderPRC: 0.8841820465262371
Mean absolute error: 0.04185465634790825
Coverage of cases: 92.03463203463204
Instances selection time: 77.0
Test time: 90.0
Accumulative iteration time: 78.0
Weighted Recall: 0.8614718614718615
Weighted FalsePositiveRate: 0.023088023088023088
Kappa statistic: 0.8383838383838385
Training time: 1.0
		
Iteration: 2
Labeled set size: 251
Unlabelled set size: 904
	
Mean region size: 17.204700061842743
Incorrectly Classified Instances: 13.16017316017316
Correctly Classified Instances: 86.83982683982684
Weighted Precision: 0.8689730470493382
Weighted AreaUnderROC: 0.9733766233766233
Root mean squared error: 0.1765175560566229
Relative absolute error: 16.10097272722426
Root relative squared error: 50.44409334788267
Weighted TruePositiveRate: 0.8683982683982684
Weighted MatthewsCorrelation: 0.8450755322787228
Weighted FMeasure: 0.8631020143103061
Iteration time: 64.0
Weighted AreaUnderPRC: 0.8842518282387545
Mean absolute error: 0.039430953617692235
Coverage of cases: 92.46753246753246
Instances selection time: 63.0
Test time: 89.0
Accumulative iteration time: 142.0
Weighted Recall: 0.8683982683982684
Weighted FalsePositiveRate: 0.021933621933621934
Kappa statistic: 0.8464646464646464
Training time: 1.0
		
Iteration: 3
Labeled set size: 271
Unlabelled set size: 884
	
Mean region size: 17.625231910946063
Incorrectly Classified Instances: 10.909090909090908
Correctly Classified Instances: 89.0909090909091
Weighted Precision: 0.8913593499033121
Weighted AreaUnderROC: 0.9739630066902795
Root mean squared error: 0.1648015012997923
Relative absolute error: 15.41875196283296
Root relative squared error: 47.09595182006271
Weighted TruePositiveRate: 0.8909090909090909
Weighted MatthewsCorrelation: 0.8724582911763912
Weighted FMeasure: 0.8893883020177262
Iteration time: 61.0
Weighted AreaUnderPRC: 0.8846909885682193
Mean absolute error: 0.03776020888857068
Coverage of cases: 94.11255411255411
Instances selection time: 60.0
Test time: 86.0
Accumulative iteration time: 203.0
Weighted Recall: 0.8909090909090909
Weighted FalsePositiveRate: 0.01818181818181818
Kappa statistic: 0.8727272727272727
Training time: 1.0
		
Iteration: 4
Labeled set size: 291
Unlabelled set size: 864
	
Mean region size: 17.513914656771668
Incorrectly Classified Instances: 13.506493506493506
Correctly Classified Instances: 86.49350649350649
Weighted Precision: 0.8709623811274517
Weighted AreaUnderROC: 0.9713266867812322
Root mean squared error: 0.17303071909763165
Relative absolute error: 16.733119647513824
Root relative squared error: 49.447646688538605
Weighted TruePositiveRate: 0.8649350649350649
Weighted MatthewsCorrelation: 0.8436421919193693
Weighted FMeasure: 0.8622968218006557
Iteration time: 60.0
Weighted AreaUnderPRC: 0.8779223342106455
Mean absolute error: 0.04097906852452382
Coverage of cases: 93.5930735930736
Instances selection time: 59.0
Test time: 87.0
Accumulative iteration time: 263.0
Weighted Recall: 0.8649350649350649
Weighted FalsePositiveRate: 0.02251082251082251
Kappa statistic: 0.8424242424242424
Training time: 1.0
		
Iteration: 5
Labeled set size: 311
Unlabelled set size: 844
	
Mean region size: 17.340754483611487
Incorrectly Classified Instances: 12.467532467532468
Correctly Classified Instances: 87.53246753246754
Weighted Precision: 0.8750512665116728
Weighted AreaUnderROC: 0.972418995146268
Root mean squared error: 0.17133637093388823
Relative absolute error: 15.846604084678656
Root relative squared error: 48.96344636962942
Weighted TruePositiveRate: 0.8753246753246753
Weighted MatthewsCorrelation: 0.853319571020881
Weighted FMeasure: 0.8714455586101523
Iteration time: 59.0
Weighted AreaUnderPRC: 0.876662389799663
Mean absolute error: 0.038808010003294834
Coverage of cases: 92.98701298701299
Instances selection time: 58.0
Test time: 86.0
Accumulative iteration time: 322.0
Weighted Recall: 0.8753246753246753
Weighted FalsePositiveRate: 0.02077922077922078
Kappa statistic: 0.8545454545454545
Training time: 1.0
		
Iteration: 6
Labeled set size: 331
Unlabelled set size: 824
	
Mean region size: 17.57575757575743
Incorrectly Classified Instances: 12.813852813852813
Correctly Classified Instances: 87.18614718614718
Weighted Precision: 0.8742122356870017
Weighted AreaUnderROC: 0.9721133412042503
Root mean squared error: 0.1759922009599105
Relative absolute error: 16.838771172474406
Root relative squared error: 50.29396062379916
Weighted TruePositiveRate: 0.8718614718614719
Weighted MatthewsCorrelation: 0.8500902132658984
Weighted FMeasure: 0.8677932471224978
Iteration time: 58.0
Weighted AreaUnderPRC: 0.8759452383496473
Mean absolute error: 0.041237806952998717
Coverage of cases: 92.55411255411255
Instances selection time: 56.0
Test time: 85.0
Accumulative iteration time: 380.0
Weighted Recall: 0.8718614718614719
Weighted FalsePositiveRate: 0.021356421356421358
Kappa statistic: 0.8505050505050505
Training time: 2.0
		
Iteration: 7
Labeled set size: 351
Unlabelled set size: 804
	
Mean region size: 17.612863327148894
Incorrectly Classified Instances: 12.727272727272727
Correctly Classified Instances: 87.27272727272727
Weighted Precision: 0.8736718318961
Weighted AreaUnderROC: 0.9721334557698195
Root mean squared error: 0.17340819031617033
Relative absolute error: 16.37882649396506
Root relative squared error: 49.55551807430602
Weighted TruePositiveRate: 0.8727272727272727
Weighted MatthewsCorrelation: 0.8502060897737906
Weighted FMeasure: 0.8673242605173196
Iteration time: 56.0
Weighted AreaUnderPRC: 0.8764415233425027
Mean absolute error: 0.04011141182195543
Coverage of cases: 93.07359307359307
Instances selection time: 55.0
Test time: 85.0
Accumulative iteration time: 436.0
Weighted Recall: 0.8727272727272727
Weighted FalsePositiveRate: 0.02121212121212121
Kappa statistic: 0.8515151515151513
Training time: 1.0
		
Iteration: 8
Labeled set size: 371
Unlabelled set size: 784
	
Mean region size: 17.57575757575743
Incorrectly Classified Instances: 12.64069264069264
Correctly Classified Instances: 87.35930735930737
Weighted Precision: 0.8736533062531828
Weighted AreaUnderROC: 0.9718221172766628
Root mean squared error: 0.17408106689763464
Relative absolute error: 16.228712833664087
Root relative squared error: 49.747808574159194
Weighted TruePositiveRate: 0.8735930735930736
Weighted MatthewsCorrelation: 0.8506323618197237
Weighted FMeasure: 0.8672921388937541
Iteration time: 55.0
Weighted AreaUnderPRC: 0.8799166952887294
Mean absolute error: 0.03974378653142242
Coverage of cases: 93.24675324675324
Instances selection time: 53.0
Test time: 86.0
Accumulative iteration time: 491.0
Weighted Recall: 0.8735930735930736
Weighted FalsePositiveRate: 0.021067821067821065
Kappa statistic: 0.8525252525252524
Training time: 2.0
		
Iteration: 9
Labeled set size: 391
Unlabelled set size: 764
	
Mean region size: 17.46444032158303
Incorrectly Classified Instances: 12.554112554112555
Correctly Classified Instances: 87.44588744588745
Weighted Precision: 0.874671220578983
Weighted AreaUnderROC: 0.9716760680397045
Root mean squared error: 0.17494771872333256
Relative absolute error: 16.388549387005504
Root relative squared error: 49.99547496254719
Weighted TruePositiveRate: 0.8744588744588745
Weighted MatthewsCorrelation: 0.8518512021762279
Weighted FMeasure: 0.8686683890736075
Iteration time: 54.0
Weighted AreaUnderPRC: 0.8749742536701203
Mean absolute error: 0.04013522298858507
Coverage of cases: 92.72727272727273
Instances selection time: 53.0
Test time: 88.0
Accumulative iteration time: 545.0
Weighted Recall: 0.8744588744588745
Weighted FalsePositiveRate: 0.020923520923520924
Kappa statistic: 0.8535353535353535
Training time: 1.0
		
Iteration: 10
Labeled set size: 411
Unlabelled set size: 744
	
Mean region size: 17.501546072974495
Incorrectly Classified Instances: 13.073593073593074
Correctly Classified Instances: 86.92640692640693
Weighted Precision: 0.8681353715147465
Weighted AreaUnderROC: 0.9723984433075342
Root mean squared error: 0.17303279138821687
Relative absolute error: 16.133031625620088
Root relative squared error: 49.44823889490074
Weighted TruePositiveRate: 0.8692640692640693
Weighted MatthewsCorrelation: 0.8453014609659039
Weighted FMeasure: 0.8632918938140097
Iteration time: 52.0
Weighted AreaUnderPRC: 0.8807533497087577
Mean absolute error: 0.039509465205600384
Coverage of cases: 93.24675324675324
Instances selection time: 50.0
Test time: 88.0
Accumulative iteration time: 597.0
Weighted Recall: 0.8692640692640693
Weighted FalsePositiveRate: 0.02178932178932179
Kappa statistic: 0.8474747474747474
Training time: 2.0
		
Iteration: 11
Labeled set size: 431
Unlabelled set size: 724
	
Mean region size: 17.39022881880009
Incorrectly Classified Instances: 12.9004329004329
Correctly Classified Instances: 87.0995670995671
Weighted Precision: 0.8698894391645978
Weighted AreaUnderROC: 0.9729104901832174
Root mean squared error: 0.17208264278226462
Relative absolute error: 15.829551031870338
Root relative squared error: 49.1767113140541
Weighted TruePositiveRate: 0.870995670995671
Weighted MatthewsCorrelation: 0.8475032204710463
Weighted FMeasure: 0.8655893648172185
Iteration time: 51.0
Weighted AreaUnderPRC: 0.8821306473344528
Mean absolute error: 0.03876624742498875
Coverage of cases: 93.16017316017316
Instances selection time: 49.0
Test time: 88.0
Accumulative iteration time: 648.0
Weighted Recall: 0.870995670995671
Weighted FalsePositiveRate: 0.021500721500721503
Kappa statistic: 0.8494949494949495
Training time: 2.0
		
Iteration: 12
Labeled set size: 451
Unlabelled set size: 704
	
Mean region size: 17.40259740259725
Incorrectly Classified Instances: 12.64069264069264
Correctly Classified Instances: 87.35930735930737
Weighted Precision: 0.8729828475493163
Weighted AreaUnderROC: 0.9732384450566267
Root mean squared error: 0.16999554816836282
Relative absolute error: 15.597093983210446
Root relative squared error: 48.58027434834087
Weighted TruePositiveRate: 0.8735930735930736
Weighted MatthewsCorrelation: 0.8506997727995201
Weighted FMeasure: 0.8681989535083859
Iteration time: 50.0
Weighted AreaUnderPRC: 0.8847077688992161
Mean absolute error: 0.03819696485684207
Coverage of cases: 93.33333333333333
Instances selection time: 48.0
Test time: 87.0
Accumulative iteration time: 698.0
Weighted Recall: 0.8735930735930736
Weighted FalsePositiveRate: 0.021067821067821065
Kappa statistic: 0.8525252525252524
Training time: 2.0
		
Iteration: 13
Labeled set size: 471
Unlabelled set size: 684
	
Mean region size: 17.353123067408625
Incorrectly Classified Instances: 12.034632034632034
Correctly Classified Instances: 87.96536796536796
Weighted Precision: 0.8787084330952029
Weighted AreaUnderROC: 0.9747146792601338
Root mean squared error: 0.16564908450838844
Relative absolute error: 15.088157811990316
Root relative squared error: 47.338168897217386
Weighted TruePositiveRate: 0.8796536796536797
Weighted MatthewsCorrelation: 0.8581348913909577
Weighted FMeasure: 0.8757544991499697
Iteration time: 48.0
Weighted AreaUnderPRC: 0.8922646550994423
Mean absolute error: 0.03695059055997644
Coverage of cases: 93.85281385281385
Instances selection time: 46.0
Test time: 86.0
Accumulative iteration time: 746.0
Weighted Recall: 0.8796536796536797
Weighted FalsePositiveRate: 0.020057720057720056
Kappa statistic: 0.8595959595959595
Training time: 2.0
		
Iteration: 14
Labeled set size: 491
Unlabelled set size: 664
	
Mean region size: 16.957328385899643
Incorrectly Classified Instances: 12.554112554112555
Correctly Classified Instances: 87.44588744588745
Weighted Precision: 0.8730102557447191
Weighted AreaUnderROC: 0.9738353229262321
Root mean squared error: 0.17093780877175654
Relative absolute error: 15.381216757747007
Root relative squared error: 48.849547744695734
Weighted TruePositiveRate: 0.8744588744588745
Weighted MatthewsCorrelation: 0.8515536840601714
Weighted FMeasure: 0.8694251508497759
Iteration time: 48.0
Weighted AreaUnderPRC: 0.8859087779101716
Mean absolute error: 0.03766828593733977
Coverage of cases: 92.9004329004329
Instances selection time: 46.0
Test time: 87.0
Accumulative iteration time: 794.0
Weighted Recall: 0.8744588744588745
Weighted FalsePositiveRate: 0.020923520923520924
Kappa statistic: 0.8535353535353535
Training time: 2.0
		
Iteration: 15
Labeled set size: 511
Unlabelled set size: 644
	
Mean region size: 17.130488559059824
Incorrectly Classified Instances: 12.987012987012987
Correctly Classified Instances: 87.01298701298701
Weighted Precision: 0.8693471013196047
Weighted AreaUnderROC: 0.9733180287725741
Root mean squared error: 0.17294300121085301
Relative absolute error: 15.790852777549299
Root relative squared error: 49.42257921441426
Weighted TruePositiveRate: 0.8701298701298701
Weighted MatthewsCorrelation: 0.8464760716929958
Weighted FMeasure: 0.8643069188037391
Iteration time: 46.0
Weighted AreaUnderPRC: 0.8841776184626826
Mean absolute error: 0.038671476189916815
Coverage of cases: 92.64069264069263
Instances selection time: 44.0
Test time: 86.0
Accumulative iteration time: 840.0
Weighted Recall: 0.8701298701298701
Weighted FalsePositiveRate: 0.021645021645021644
Kappa statistic: 0.8484848484848484
Training time: 2.0
		
Iteration: 16
Labeled set size: 531
Unlabelled set size: 624
	
Mean region size: 17.056277056276876
Incorrectly Classified Instances: 12.727272727272727
Correctly Classified Instances: 87.27272727272727
Weighted Precision: 0.8716497775237461
Weighted AreaUnderROC: 0.9730434212252393
Root mean squared error: 0.17488008656969134
Relative absolute error: 16.014232792695104
Root relative squared error: 49.9761474647741
Weighted TruePositiveRate: 0.8727272727272727
Weighted MatthewsCorrelation: 0.8494249510974142
Weighted FMeasure: 0.8669955488800284
Iteration time: 45.0
Weighted AreaUnderPRC: 0.8806096104515143
Mean absolute error: 0.03921852928823308
Coverage of cases: 93.07359307359307
Instances selection time: 43.0
Test time: 86.0
Accumulative iteration time: 885.0
Weighted Recall: 0.8727272727272727
Weighted FalsePositiveRate: 0.021212121212121217
Kappa statistic: 0.8515151515151513
Training time: 2.0
		
Iteration: 17
Labeled set size: 551
Unlabelled set size: 604
	
Mean region size: 16.994434137291098
Incorrectly Classified Instances: 12.987012987012987
Correctly Classified Instances: 87.01298701298701
Weighted Precision: 0.8694174932196284
Weighted AreaUnderROC: 0.9733175914994098
Root mean squared error: 0.1750081167430172
Relative absolute error: 16.01032305914517
Root relative squared error: 50.012735134345746
Weighted TruePositiveRate: 0.8701298701298701
Weighted MatthewsCorrelation: 0.8464546861761428
Weighted FMeasure: 0.8641974300957077
Iteration time: 44.0
Weighted AreaUnderPRC: 0.8839191940557165
Mean absolute error: 0.039208954430559766
Coverage of cases: 92.98701298701299
Instances selection time: 42.0
Test time: 87.0
Accumulative iteration time: 929.0
Weighted Recall: 0.8701298701298701
Weighted FalsePositiveRate: 0.021645021645021644
Kappa statistic: 0.8484848484848484
Training time: 2.0
		
Iteration: 18
Labeled set size: 571
Unlabelled set size: 584
	
Mean region size: 17.217068645639912
Incorrectly Classified Instances: 12.727272727272727
Correctly Classified Instances: 87.27272727272727
Weighted Precision: 0.8720640765435062
Weighted AreaUnderROC: 0.9732270759543487
Root mean squared error: 0.17218854713702617
Relative absolute error: 15.798196808874952
Root relative squared error: 49.20697600430295
Weighted TruePositiveRate: 0.8727272727272727
Weighted MatthewsCorrelation: 0.8498466972828586
Weighted FMeasure: 0.8678873501707548
Iteration time: 43.0
Weighted AreaUnderPRC: 0.8854398056204055
Mean absolute error: 0.03868946157275515
Coverage of cases: 92.98701298701299
Instances selection time: 41.0
Test time: 86.0
Accumulative iteration time: 972.0
Weighted Recall: 0.8727272727272727
Weighted FalsePositiveRate: 0.021212121212121217
Kappa statistic: 0.8515151515151513
Training time: 2.0
		
Iteration: 19
Labeled set size: 591
Unlabelled set size: 564
	
Mean region size: 17.71181199752615
Incorrectly Classified Instances: 11.86147186147186
Correctly Classified Instances: 88.13852813852814
Weighted Precision: 0.880677709634129
Weighted AreaUnderROC: 0.9736704709431984
Root mean squared error: 0.1684995844111912
Relative absolute error: 16.395477825349836
Root relative squared error: 48.152767095818035
Weighted TruePositiveRate: 0.8813852813852814
Weighted MatthewsCorrelation: 0.8608015502533185
Weighted FMeasure: 0.8793670426940952
Iteration time: 41.0
Weighted AreaUnderPRC: 0.8884269306828051
Mean absolute error: 0.04015219059269365
Coverage of cases: 94.11255411255411
Instances selection time: 39.0
Test time: 86.0
Accumulative iteration time: 1013.0
Weighted Recall: 0.8813852813852814
Weighted FalsePositiveRate: 0.01976911976911977
Kappa statistic: 0.8616161616161616
Training time: 2.0
		
Iteration: 20
Labeled set size: 611
Unlabelled set size: 544
	
Mean region size: 17.748917748917616
Incorrectly Classified Instances: 13.93939393939394
Correctly Classified Instances: 86.06060606060606
Weighted Precision: 0.8643028632864533
Weighted AreaUnderROC: 0.9737601119419302
Root mean squared error: 0.17700868752338936
Relative absolute error: 17.608981925652632
Root relative squared error: 50.584445855072964
Weighted TruePositiveRate: 0.8606060606060606
Weighted MatthewsCorrelation: 0.8379823211355968
Weighted FMeasure: 0.8584697910482166
Iteration time: 41.0
Weighted AreaUnderPRC: 0.8904519496601394
Mean absolute error: 0.043124037368945406
Coverage of cases: 93.85281385281385
Instances selection time: 38.0
Test time: 84.0
Accumulative iteration time: 1054.0
Weighted Recall: 0.8606060606060606
Weighted FalsePositiveRate: 0.023232323232323233
Kappa statistic: 0.8373737373737373
Training time: 3.0
		
Iteration: 21
Labeled set size: 631
Unlabelled set size: 524
	
Mean region size: 17.761286332714775
Incorrectly Classified Instances: 14.285714285714286
Correctly Classified Instances: 85.71428571428571
Weighted Precision: 0.8615510792777598
Weighted AreaUnderROC: 0.9741790196335651
Root mean squared error: 0.17820193176089455
Relative absolute error: 17.993162286062653
Root relative squared error: 50.92544379912011
Weighted TruePositiveRate: 0.8571428571428571
Weighted MatthewsCorrelation: 0.8337627956678954
Weighted FMeasure: 0.8537278172176787
Iteration time: 38.0
Weighted AreaUnderPRC: 0.8886149373435414
Mean absolute error: 0.04406488723117403
Coverage of cases: 94.11255411255411
Instances selection time: 35.0
Test time: 86.0
Accumulative iteration time: 1092.0
Weighted Recall: 0.8571428571428571
Weighted FalsePositiveRate: 0.023809523809523808
Kappa statistic: 0.8333333333333331
Training time: 3.0
		
Iteration: 22
Labeled set size: 651
Unlabelled set size: 504
	
Mean region size: 17.798392084106244
Incorrectly Classified Instances: 14.025974025974026
Correctly Classified Instances: 85.97402597402598
Weighted Precision: 0.8616197290315963
Weighted AreaUnderROC: 0.9740863177226813
Root mean squared error: 0.17821138259336666
Relative absolute error: 18.05553471145684
Root relative squared error: 50.92814459946026
Weighted TruePositiveRate: 0.8597402597402597
Weighted MatthewsCorrelation: 0.8356954931870734
Weighted FMeasure: 0.855504406974282
Iteration time: 37.0
Weighted AreaUnderPRC: 0.8887637029907703
Mean absolute error: 0.044217636028057755
Coverage of cases: 94.28571428571429
Instances selection time: 35.0
Test time: 87.0
Accumulative iteration time: 1129.0
Weighted Recall: 0.8597402597402597
Weighted FalsePositiveRate: 0.023376623376623377
Kappa statistic: 0.8363636363636363
Training time: 2.0
		
Iteration: 23
Labeled set size: 671
Unlabelled set size: 484
	
Mean region size: 17.76128633271477
Incorrectly Classified Instances: 13.93939393939394
Correctly Classified Instances: 86.06060606060606
Weighted Precision: 0.8620298147795574
Weighted AreaUnderROC: 0.9742612269884998
Root mean squared error: 0.17741562415573672
Relative absolute error: 17.99379539054764
Root relative squared error: 50.70073768421102
Weighted TruePositiveRate: 0.8606060606060606
Weighted MatthewsCorrelation: 0.836717062031425
Weighted FMeasure: 0.8568670113268904
Iteration time: 35.0
Weighted AreaUnderPRC: 0.8893610955590263
Mean absolute error: 0.044066437691137265
Coverage of cases: 94.19913419913419
Instances selection time: 32.0
Test time: 87.0
Accumulative iteration time: 1164.0
Weighted Recall: 0.8606060606060606
Weighted FalsePositiveRate: 0.023232323232323233
Kappa statistic: 0.8373737373737373
Training time: 3.0
		
Iteration: 24
Labeled set size: 691
Unlabelled set size: 464
	
Mean region size: 17.86023500309201
Incorrectly Classified Instances: 13.93939393939394
Correctly Classified Instances: 86.06060606060606
Weighted Precision: 0.8627340289912213
Weighted AreaUnderROC: 0.9744693690148235
Root mean squared error: 0.17738592549372179
Relative absolute error: 17.959274373495315
Root relative squared error: 50.69225058461336
Weighted TruePositiveRate: 0.8606060606060606
Weighted MatthewsCorrelation: 0.8369317075870066
Weighted FMeasure: 0.8568191822531719
Iteration time: 35.0
Weighted AreaUnderPRC: 0.890078938834564
Mean absolute error: 0.043981896424886674
Coverage of cases: 94.28571428571429
Instances selection time: 32.0
Test time: 90.0
Accumulative iteration time: 1199.0
Weighted Recall: 0.8606060606060606
Weighted FalsePositiveRate: 0.023232323232323233
Kappa statistic: 0.8373737373737373
Training time: 3.0
		
Iteration: 25
Labeled set size: 711
Unlabelled set size: 444
	
Mean region size: 17.786023500309085
Incorrectly Classified Instances: 13.852813852813853
Correctly Classified Instances: 86.14718614718615
Weighted Precision: 0.8638634697234613
Weighted AreaUnderROC: 0.9746788228606412
Root mean squared error: 0.17760792242705536
Relative absolute error: 17.93677937788784
Root relative squared error: 50.75569149257852
Weighted TruePositiveRate: 0.8614718614718615
Weighted MatthewsCorrelation: 0.8380791296126643
Weighted FMeasure: 0.8578490726118764
Iteration time: 33.0
Weighted AreaUnderPRC: 0.8911744268121001
Mean absolute error: 0.043926806639725514
Coverage of cases: 94.19913419913419
Instances selection time: 30.0
Test time: 88.0
Accumulative iteration time: 1232.0
Weighted Recall: 0.8614718614718615
Weighted FalsePositiveRate: 0.023088023088023085
Kappa statistic: 0.8383838383838385
Training time: 3.0
		
Iteration: 26
Labeled set size: 731
Unlabelled set size: 424
	
Mean region size: 17.823129251700546
Incorrectly Classified Instances: 13.67965367965368
Correctly Classified Instances: 86.32034632034632
Weighted Precision: 0.8651740264641378
Weighted AreaUnderROC: 0.9749805413441776
Root mean squared error: 0.17619455042572135
Relative absolute error: 17.844493800428772
Root relative squared error: 50.351786800244646
Weighted TruePositiveRate: 0.8632034632034632
Weighted MatthewsCorrelation: 0.840138983461874
Weighted FMeasure: 0.8601200795705521
Iteration time: 32.0
Weighted AreaUnderPRC: 0.8927574095098293
Mean absolute error: 0.04370080114390738
Coverage of cases: 94.19913419913419
Instances selection time: 29.0
Test time: 85.0
Accumulative iteration time: 1264.0
Weighted Recall: 0.8632034632034632
Weighted FalsePositiveRate: 0.0227994227994228
Kappa statistic: 0.8404040404040403
Training time: 3.0
		
Iteration: 27
Labeled set size: 751
Unlabelled set size: 404
	
Mean region size: 17.637600494743225
Incorrectly Classified Instances: 14.458874458874458
Correctly Classified Instances: 85.54112554112554
Weighted Precision: 0.8589431762267905
Weighted AreaUnderROC: 0.9723459705277887
Root mean squared error: 0.1799471701315929
Relative absolute error: 18.246400809300972
Root relative squared error: 51.424187206022786
Weighted TruePositiveRate: 0.8554112554112554
Weighted MatthewsCorrelation: 0.8316850188177214
Weighted FMeasure: 0.8527047405526544
Iteration time: 30.0
Weighted AreaUnderPRC: 0.8798636839955598
Mean absolute error: 0.044685063206451554
Coverage of cases: 93.76623376623377
Instances selection time: 27.0
Test time: 87.0
Accumulative iteration time: 1294.0
Weighted Recall: 0.8554112554112554
Weighted FalsePositiveRate: 0.0240981240981241
Kappa statistic: 0.8313131313131313
Training time: 3.0
		
Iteration: 28
Labeled set size: 771
Unlabelled set size: 384
	
Mean region size: 17.649969078540376
Incorrectly Classified Instances: 13.766233766233766
Correctly Classified Instances: 86.23376623376623
Weighted Precision: 0.8646695077735114
Weighted AreaUnderROC: 0.9726253880799335
Root mean squared error: 0.1773588134398978
Relative absolute error: 17.852206545173125
Root relative squared error: 50.68450266987613
Weighted TruePositiveRate: 0.8623376623376623
Weighted MatthewsCorrelation: 0.8395931993747965
Weighted FMeasure: 0.86034514203129
Iteration time: 29.0
Weighted AreaUnderPRC: 0.8809817830003474
Mean absolute error: 0.04371968949838335
Coverage of cases: 93.76623376623377
Instances selection time: 26.0
Test time: 85.0
Accumulative iteration time: 1323.0
Weighted Recall: 0.8623376623376623
Weighted FalsePositiveRate: 0.022943722943722943
Kappa statistic: 0.8393939393939392
Training time: 3.0
		
Iteration: 29
Labeled set size: 791
Unlabelled set size: 364
	
Mean region size: 17.62523191094607
Incorrectly Classified Instances: 13.67965367965368
Correctly Classified Instances: 86.32034632034632
Weighted Precision: 0.8665876082881218
Weighted AreaUnderROC: 0.9728776946958765
Root mean squared error: 0.17735427810896834
Relative absolute error: 17.736490909398174
Root relative squared error: 50.68320659110709
Weighted TruePositiveRate: 0.8632034632034632
Weighted MatthewsCorrelation: 0.8408597243533192
Weighted FMeasure: 0.8609168017798113
Iteration time: 28.0
Weighted AreaUnderPRC: 0.8825536417773675
Mean absolute error: 0.04343630426791408
Coverage of cases: 93.76623376623377
Instances selection time: 25.0
Test time: 85.0
Accumulative iteration time: 1351.0
Weighted Recall: 0.8632034632034632
Weighted FalsePositiveRate: 0.0227994227994228
Kappa statistic: 0.8404040404040403
Training time: 3.0
		
Iteration: 30
Labeled set size: 811
Unlabelled set size: 344
	
Mean region size: 17.5881261595546
Incorrectly Classified Instances: 14.458874458874458
Correctly Classified Instances: 85.54112554112554
Weighted Precision: 0.8603478277601999
Weighted AreaUnderROC: 0.9726288862652498
Root mean squared error: 0.1784379785857484
Relative absolute error: 17.846080977296616
Root relative squared error: 50.99289979802131
Weighted TruePositiveRate: 0.8554112554112554
Weighted MatthewsCorrelation: 0.8317334389924788
Weighted FMeasure: 0.8514290396591412
Iteration time: 28.0
Weighted AreaUnderPRC: 0.8790946383289693
Mean absolute error: 0.04370468810766537
Coverage of cases: 93.5930735930736
Instances selection time: 24.0
Test time: 84.0
Accumulative iteration time: 1379.0
Weighted Recall: 0.8554112554112554
Weighted FalsePositiveRate: 0.024098124098124098
Kappa statistic: 0.8313131313131313
Training time: 4.0
		
Iteration: 31
Labeled set size: 831
Unlabelled set size: 324
	
Mean region size: 17.625231910946066
Incorrectly Classified Instances: 13.333333333333334
Correctly Classified Instances: 86.66666666666667
Weighted Precision: 0.8684370668218059
Weighted AreaUnderROC: 0.9738130219948403
Root mean squared error: 0.17607906355585554
Relative absolute error: 17.596738851472356
Root relative squared error: 50.31878367820902
Weighted TruePositiveRate: 0.8666666666666667
Weighted MatthewsCorrelation: 0.8441892272578851
Weighted FMeasure: 0.8637503849456328
Iteration time: 26.0
Weighted AreaUnderPRC: 0.8824632516151845
Mean absolute error: 0.04309405433013657
Coverage of cases: 93.5930735930736
Instances selection time: 23.0
Test time: 84.0
Accumulative iteration time: 1405.0
Weighted Recall: 0.8666666666666667
Weighted FalsePositiveRate: 0.02222222222222222
Kappa statistic: 0.8444444444444444
Training time: 3.0
		
Iteration: 32
Labeled set size: 851
Unlabelled set size: 304
	
Mean region size: 17.637600494743218
Incorrectly Classified Instances: 12.9004329004329
Correctly Classified Instances: 87.0995670995671
Weighted Precision: 0.8724458159586066
Weighted AreaUnderROC: 0.9763120381302197
Root mean squared error: 0.17164227825348796
Relative absolute error: 16.902146426368496
Root relative squared error: 49.0508666678163
Weighted TruePositiveRate: 0.870995670995671
Weighted MatthewsCorrelation: 0.849148443139164
Weighted FMeasure: 0.8681080211983511
Iteration time: 25.0
Weighted AreaUnderPRC: 0.8928212422229868
Mean absolute error: 0.04139301165641281
Coverage of cases: 94.28571428571429
Instances selection time: 21.0
Test time: 85.0
Accumulative iteration time: 1430.0
Weighted Recall: 0.870995670995671
Weighted FalsePositiveRate: 0.021500721500721503
Kappa statistic: 0.8494949494949495
Training time: 4.0
		
Iteration: 33
Labeled set size: 871
Unlabelled set size: 284
	
Mean region size: 17.687074829931834
Incorrectly Classified Instances: 13.16017316017316
Correctly Classified Instances: 86.83982683982684
Weighted Precision: 0.8710641074611662
Weighted AreaUnderROC: 0.9756193974375793
Root mean squared error: 0.17400329222307864
Relative absolute error: 17.304750492100805
Root relative squared error: 49.725582609608985
Weighted TruePositiveRate: 0.8683982683982684
Weighted MatthewsCorrelation: 0.8465361618162487
Weighted FMeasure: 0.865543454463891
Iteration time: 23.0
Weighted AreaUnderPRC: 0.888250154619422
Mean absolute error: 0.04237898079698175
Coverage of cases: 94.02597402597402
Instances selection time: 20.0
Test time: 84.0
Accumulative iteration time: 1453.0
Weighted Recall: 0.8683982683982684
Weighted FalsePositiveRate: 0.021933621933621934
Kappa statistic: 0.8464646464646464
Training time: 3.0
		
Iteration: 34
Labeled set size: 891
Unlabelled set size: 264
	
Mean region size: 17.74891774891761
Incorrectly Classified Instances: 13.073593073593074
Correctly Classified Instances: 86.92640692640693
Weighted Precision: 0.8717220053394709
Weighted AreaUnderROC: 0.9762901744719925
Root mean squared error: 0.17435910203152338
Relative absolute error: 17.355071490596515
Root relative squared error: 49.82726373182848
Weighted TruePositiveRate: 0.8692640692640693
Weighted MatthewsCorrelation: 0.8475370710749145
Weighted FMeasure: 0.8665965113552979
Iteration time: 22.0
Weighted AreaUnderPRC: 0.8909415181408433
Mean absolute error: 0.04250221589533859
Coverage of cases: 93.93939393939394
Instances selection time: 18.0
Test time: 84.0
Accumulative iteration time: 1475.0
Weighted Recall: 0.8692640692640693
Weighted FalsePositiveRate: 0.02178932178932179
Kappa statistic: 0.8474747474747474
Training time: 4.0
		
Iteration: 35
Labeled set size: 911
Unlabelled set size: 244
	
Mean region size: 17.538651824365974
Incorrectly Classified Instances: 13.246753246753247
Correctly Classified Instances: 86.75324675324676
Weighted Precision: 0.8705583905801552
Weighted AreaUnderROC: 0.9767182649000831
Root mean squared error: 0.17546214501433433
Relative absolute error: 17.301628699307262
Root relative squared error: 50.142484520256986
Weighted TruePositiveRate: 0.8675324675324675
Weighted MatthewsCorrelation: 0.8455946440060972
Weighted FMeasure: 0.8645352196778958
Iteration time: 20.0
Weighted AreaUnderPRC: 0.8890580396053629
Mean absolute error: 0.04237133559014041
Coverage of cases: 93.76623376623377
Instances selection time: 16.0
Test time: 87.0
Accumulative iteration time: 1495.0
Weighted Recall: 0.8675324675324675
Weighted FalsePositiveRate: 0.022077922077922075
Kappa statistic: 0.8454545454545452
Training time: 4.0
		
Iteration: 36
Labeled set size: 931
Unlabelled set size: 224
	
Mean region size: 16.969696969696837
Incorrectly Classified Instances: 18.00865800865801
Correctly Classified Instances: 81.991341991342
Weighted Precision: 0.8454560201982645
Weighted AreaUnderROC: 0.976714329441602
Root mean squared error: 0.2004391997597743
Relative absolute error: 20.048250903844327
Root relative squared error: 57.280272450710704
Weighted TruePositiveRate: 0.8199134199134199
Weighted MatthewsCorrelation: 0.7913520281609604
Weighted FMeasure: 0.8023197764937372
Iteration time: 19.0
Weighted AreaUnderPRC: 0.8890702788082241
Mean absolute error: 0.04909775731553734
Coverage of cases: 92.55411255411255
Instances selection time: 15.0
Test time: 86.0
Accumulative iteration time: 1514.0
Weighted Recall: 0.8199134199134199
Weighted FalsePositiveRate: 0.030014430014430018
Kappa statistic: 0.7898989898989899
Training time: 4.0
		
Iteration: 37
Labeled set size: 951
Unlabelled set size: 204
	
Mean region size: 16.944959802102524
Incorrectly Classified Instances: 18.181818181818183
Correctly Classified Instances: 81.81818181818181
Weighted Precision: 0.8439928463675911
Weighted AreaUnderROC: 0.9767108312562859
Root mean squared error: 0.20491970849357746
Relative absolute error: 20.427917096572425
Root relative squared error: 58.56068447239918
Weighted TruePositiveRate: 0.8181818181818182
Weighted MatthewsCorrelation: 0.7890544716789643
Weighted FMeasure: 0.7997786199144054
Iteration time: 17.0
Weighted AreaUnderPRC: 0.8885110876845116
Mean absolute error: 0.05002755207323881
Coverage of cases: 92.20779220779221
Instances selection time: 13.0
Test time: 88.0
Accumulative iteration time: 1531.0
Weighted Recall: 0.8181818181818182
Weighted FalsePositiveRate: 0.030303030303030304
Kappa statistic: 0.7878787878787878
Training time: 4.0
		
Iteration: 38
Labeled set size: 971
Unlabelled set size: 184
	
Mean region size: 16.920222634508214
Incorrectly Classified Instances: 18.181818181818183
Correctly Classified Instances: 81.81818181818181
Weighted Precision: 0.8439928463675911
Weighted AreaUnderROC: 0.9767532467532466
Root mean squared error: 0.20484830342332763
Relative absolute error: 20.392187990158966
Root relative squared error: 58.54027877389722
Weighted TruePositiveRate: 0.8181818181818182
Weighted MatthewsCorrelation: 0.7890544716789643
Weighted FMeasure: 0.7997786199144054
Iteration time: 16.0
Weighted AreaUnderPRC: 0.8888874201024705
Mean absolute error: 0.049940052220797684
Coverage of cases: 92.20779220779221
Instances selection time: 12.0
Test time: 87.0
Accumulative iteration time: 1547.0
Weighted Recall: 0.8181818181818182
Weighted FalsePositiveRate: 0.030303030303030304
Kappa statistic: 0.7878787878787878
Training time: 4.0
		
Iteration: 39
Labeled set size: 991
Unlabelled set size: 164
	
Mean region size: 16.932591218305372
Incorrectly Classified Instances: 18.26839826839827
Correctly Classified Instances: 81.73160173160173
Weighted Precision: 0.8430003261204124
Weighted AreaUnderROC: 0.9766990248808431
Root mean squared error: 0.20467154495776668
Relative absolute error: 20.38650755611443
Root relative squared error: 58.48976583492403
Weighted TruePositiveRate: 0.8173160173160173
Weighted MatthewsCorrelation: 0.7877817699889527
Weighted FMeasure: 0.7984065419221285
Iteration time: 15.0
Weighted AreaUnderPRC: 0.888690666107979
Mean absolute error: 0.04992614095374984
Coverage of cases: 92.2943722943723
Instances selection time: 11.0
Test time: 87.0
Accumulative iteration time: 1562.0
Weighted Recall: 0.8173160173160173
Weighted FalsePositiveRate: 0.030447330447330445
Kappa statistic: 0.7868686868686867
Training time: 4.0
		
Iteration: 40
Labeled set size: 1011
Unlabelled set size: 144
	
Mean region size: 16.920222634508214
Incorrectly Classified Instances: 18.26839826839827
Correctly Classified Instances: 81.73160173160173
Weighted Precision: 0.8430003261204124
Weighted AreaUnderROC: 0.9766994621540075
Root mean squared error: 0.20464019580542217
Relative absolute error: 20.38113150227507
Root relative squared error: 58.48080706842753
Weighted TruePositiveRate: 0.8173160173160173
Weighted MatthewsCorrelation: 0.7877817699889527
Weighted FMeasure: 0.7984065419221285
Iteration time: 14.0
Weighted AreaUnderPRC: 0.8886486792031489
Mean absolute error: 0.049912975107612625
Coverage of cases: 92.2943722943723
Instances selection time: 10.0
Test time: 86.0
Accumulative iteration time: 1576.0
Weighted Recall: 0.8173160173160173
Weighted FalsePositiveRate: 0.030447330447330445
Kappa statistic: 0.7868686868686867
Training time: 4.0
		
Iteration: 41
Labeled set size: 1031
Unlabelled set size: 124
	
Mean region size: 16.920222634508214
Incorrectly Classified Instances: 18.095238095238095
Correctly Classified Instances: 81.9047619047619
Weighted Precision: 0.8447010329793154
Weighted AreaUnderROC: 0.9767082076172986
Root mean squared error: 0.20450355171970283
Relative absolute error: 20.38923226931472
Root relative squared error: 58.44175776834969
Weighted TruePositiveRate: 0.819047619047619
Weighted MatthewsCorrelation: 0.7899932071195868
Weighted FMeasure: 0.8005846491010918
Iteration time: 12.0
Weighted AreaUnderPRC: 0.8885044201375452
Mean absolute error: 0.049932813720770956
Coverage of cases: 92.20779220779221
Instances selection time: 8.0
Test time: 90.0
Accumulative iteration time: 1588.0
Weighted Recall: 0.819047619047619
Weighted FalsePositiveRate: 0.03015873015873016
Kappa statistic: 0.7888888888888889
Training time: 4.0
		
Iteration: 42
Labeled set size: 1051
Unlabelled set size: 104
	
Mean region size: 16.920222634508214
Incorrectly Classified Instances: 18.095238095238095
Correctly Classified Instances: 81.9047619047619
Weighted Precision: 0.8449517010654966
Weighted AreaUnderROC: 0.9764856355765448
Root mean squared error: 0.20507905521244935
Relative absolute error: 20.455123630127357
Root relative squared error: 58.60622159029852
Weighted TruePositiveRate: 0.819047619047619
Weighted MatthewsCorrelation: 0.7903115809995519
Weighted FMeasure: 0.8011401369413347
Iteration time: 12.0
Weighted AreaUnderPRC: 0.8882093342289361
Mean absolute error: 0.05009418031867946
Coverage of cases: 92.20779220779221
Instances selection time: 7.0
Test time: 84.0
Accumulative iteration time: 1600.0
Weighted Recall: 0.819047619047619
Weighted FalsePositiveRate: 0.03015873015873016
Kappa statistic: 0.7888888888888889
Training time: 5.0
		
Iteration: 43
Labeled set size: 1071
Unlabelled set size: 84
	
Mean region size: 15.633889919604009
Incorrectly Classified Instances: 18.78787878787879
Correctly Classified Instances: 81.21212121212122
Weighted Precision: 0.8401630547526306
Weighted AreaUnderROC: 0.9742809042809043
Root mean squared error: 0.2216909283701467
Relative absolute error: 21.973756856284446
Root relative squared error: 63.35345976292124
Weighted TruePositiveRate: 0.8121212121212121
Weighted MatthewsCorrelation: 0.7808976419300064
Weighted FMeasure: 0.790189754624294
Iteration time: 10.0
Weighted AreaUnderPRC: 0.8806435286724639
Mean absolute error: 0.053813282097023366
Coverage of cases: 84.5021645021645
Instances selection time: 6.0
Test time: 84.0
Accumulative iteration time: 1610.0
Weighted Recall: 0.8121212121212121
Weighted FalsePositiveRate: 0.03131313131313132
Kappa statistic: 0.7808080808080807
Training time: 4.0
		
Iteration: 44
Labeled set size: 1091
Unlabelled set size: 64
	
Mean region size: 15.658627087198317
Incorrectly Classified Instances: 18.78787878787879
Correctly Classified Instances: 81.21212121212122
Weighted Precision: 0.8411100244496004
Weighted AreaUnderROC: 0.9738200183654729
Root mean squared error: 0.22242539424426452
Relative absolute error: 22.112300887328004
Root relative squared error: 63.56335086918009
Weighted TruePositiveRate: 0.8121212121212121
Weighted MatthewsCorrelation: 0.7815551688984765
Weighted FMeasure: 0.7910046802375753
Iteration time: 8.0
Weighted AreaUnderPRC: 0.878706991347084
Mean absolute error: 0.05415257360161983
Coverage of cases: 84.41558441558442
Instances selection time: 4.0
Test time: 85.0
Accumulative iteration time: 1618.0
Weighted Recall: 0.8121212121212121
Weighted FalsePositiveRate: 0.03131313131313132
Kappa statistic: 0.7808080808080807
Training time: 4.0
		
Iteration: 45
Labeled set size: 1111
Unlabelled set size: 44
	
Mean region size: 15.70810142238694
Incorrectly Classified Instances: 18.78787878787879
Correctly Classified Instances: 81.21212121212122
Weighted Precision: 0.8437370358518492
Weighted AreaUnderROC: 0.9739997376361013
Root mean squared error: 0.22339785688740646
Relative absolute error: 22.298272115774964
Root relative squared error: 63.841255217301956
Weighted TruePositiveRate: 0.8121212121212121
Weighted MatthewsCorrelation: 0.7822655551490347
Weighted FMeasure: 0.7912791664261523
Iteration time: 8.0
Weighted AreaUnderPRC: 0.8795940440034288
Mean absolute error: 0.05460801334475525
Coverage of cases: 84.5021645021645
Instances selection time: 3.0
Test time: 84.0
Accumulative iteration time: 1626.0
Weighted Recall: 0.8121212121212121
Weighted FalsePositiveRate: 0.031313131313131314
Kappa statistic: 0.7808080808080807
Training time: 5.0
		
Iteration: 46
Labeled set size: 1131
Unlabelled set size: 24
	
Mean region size: 15.720470006184096
Incorrectly Classified Instances: 18.78787878787879
Correctly Classified Instances: 81.21212121212122
Weighted Precision: 0.8434279967644878
Weighted AreaUnderROC: 0.9740111067383794
Root mean squared error: 0.22321757870250875
Relative absolute error: 22.269436527773
Root relative squared error: 63.78973643474726
Weighted TruePositiveRate: 0.8121212121212121
Weighted MatthewsCorrelation: 0.7821088324233547
Weighted FMeasure: 0.7911221262102824
Iteration time: 7.0
Weighted AreaUnderPRC: 0.8793643138932067
Mean absolute error: 0.05453739557821982
Coverage of cases: 84.5021645021645
Instances selection time: 2.0
Test time: 83.0
Accumulative iteration time: 1633.0
Weighted Recall: 0.8121212121212121
Weighted FalsePositiveRate: 0.03131313131313132
Kappa statistic: 0.7808080808080807
Training time: 5.0
		
Time end:Sun Oct 08 05.01.53 EEST 2017