Sun Oct 08 04.47.21 EEST 2017
Dataset: segment
Test set size: 1155
Initial Labelled set size: 231
Initial Unlabelled set size: 924
Batch mode: QBestBatchMode
Batch size: 20
Classifiers: SMO-1cores
Scenario: PoolBasedSamplingScenario
Query strategy: EntropySamplingQueryStrategy-1cores
Time begining: Sun Oct 08 04.47.21 EEST 2017
		
Iteration: 1
Labeled set size: 231
Unlabelled set size: 924
	
Mean region size: 71.7377860234989
Incorrectly Classified Instances: 15.41125541125541
Correctly Classified Instances: 84.58874458874459
Weighted Precision: 0.8445954296903925
Weighted AreaUnderROC: 0.9480440771349863
Root mean squared error: 0.30654131996852574
Relative absolute error: 84.6993746993759
Root relative squared error: 87.60147888358048
Weighted TruePositiveRate: 0.8458874458874459
Weighted MatthewsCorrelation: 0.8190918130355506
Weighted FMeasure: 0.8435181232755747
Iteration time: 154.0
Weighted AreaUnderPRC: 0.7885775748116582
Mean absolute error: 0.20742704008010512
Coverage of cases: 99.82683982683983
Instances selection time: 4.0
Test time: 9.0
Accumulative iteration time: 154.0
Weighted Recall: 0.8458874458874459
Weighted FalsePositiveRate: 0.025685425685425686
Kappa statistic: 0.8202020202020203
Training time: 150.0
		
Iteration: 2
Labeled set size: 251
Unlabelled set size: 904
	
Mean region size: 71.82436611007898
Incorrectly Classified Instances: 14.978354978354979
Correctly Classified Instances: 85.02164502164503
Weighted Precision: 0.8483986675702297
Weighted AreaUnderROC: 0.9502129520311339
Root mean squared error: 0.30630517462755474
Relative absolute error: 84.65127465127584
Root relative squared error: 87.53399473135379
Weighted TruePositiveRate: 0.8502164502164502
Weighted MatthewsCorrelation: 0.8242094965644063
Weighted FMeasure: 0.8487341707430636
Iteration time: 146.0
Weighted AreaUnderPRC: 0.7976692365564516
Mean absolute error: 0.20730924404394172
Coverage of cases: 99.82683982683983
Instances selection time: 5.0
Test time: 9.0
Accumulative iteration time: 300.0
Weighted Recall: 0.8502164502164502
Weighted FalsePositiveRate: 0.024963924963924963
Kappa statistic: 0.8252525252525252
Training time: 141.0
		
Iteration: 3
Labeled set size: 271
Unlabelled set size: 884
	
Mean region size: 71.76252319109318
Incorrectly Classified Instances: 14.891774891774892
Correctly Classified Instances: 85.10822510822511
Weighted Precision: 0.8492026887381036
Weighted AreaUnderROC: 0.9506279242642879
Root mean squared error: 0.3062456519295525
Relative absolute error: 84.63203463203581
Root relative squared error: 87.51698470356153
Weighted TruePositiveRate: 0.8510822510822511
Weighted MatthewsCorrelation: 0.8252136192361927
Weighted FMeasure: 0.8496533923890961
Iteration time: 146.0
Weighted AreaUnderPRC: 0.7982045777566379
Mean absolute error: 0.20726212562947635
Coverage of cases: 99.82683982683983
Instances selection time: 4.0
Test time: 9.0
Accumulative iteration time: 446.0
Weighted Recall: 0.8510822510822511
Weighted FalsePositiveRate: 0.024819624819624818
Kappa statistic: 0.8262626262626263
Training time: 142.0
		
Iteration: 4
Labeled set size: 291
Unlabelled set size: 864
	
Mean region size: 71.88620902906476
Incorrectly Classified Instances: 14.372294372294371
Correctly Classified Instances: 85.62770562770562
Weighted Precision: 0.8554825142587117
Weighted AreaUnderROC: 0.9539800603436966
Root mean squared error: 0.30587726959767636
Relative absolute error: 84.54545454545575
Root relative squared error: 87.41171068350367
Weighted TruePositiveRate: 0.8562770562770563
Weighted MatthewsCorrelation: 0.8318599022443761
Weighted FMeasure: 0.8556036127361026
Iteration time: 175.0
Weighted AreaUnderPRC: 0.8075314840780395
Mean absolute error: 0.20705009276438233
Coverage of cases: 99.82683982683983
Instances selection time: 4.0
Test time: 10.0
Accumulative iteration time: 621.0
Weighted Recall: 0.8562770562770563
Weighted FalsePositiveRate: 0.023953823953823956
Kappa statistic: 0.8323232323232324
Training time: 171.0
		
Iteration: 5
Labeled set size: 311
Unlabelled set size: 844
	
Mean region size: 71.9109461966591
Incorrectly Classified Instances: 14.285714285714286
Correctly Classified Instances: 85.71428571428571
Weighted Precision: 0.855437379440213
Weighted AreaUnderROC: 0.9556010319646685
Root mean squared error: 0.3057479557286502
Relative absolute error: 84.5165945165957
Root relative squared error: 87.37475616732944
Weighted TruePositiveRate: 0.8571428571428571
Weighted MatthewsCorrelation: 0.832441209878069
Weighted FMeasure: 0.856058334851337
Iteration time: 146.0
Weighted AreaUnderPRC: 0.8110570737484847
Mean absolute error: 0.20697941514268425
Coverage of cases: 99.82683982683983
Instances selection time: 4.0
Test time: 12.0
Accumulative iteration time: 767.0
Weighted Recall: 0.8571428571428571
Weighted FalsePositiveRate: 0.023809523809523808
Kappa statistic: 0.8333333333333331
Training time: 142.0
		
Iteration: 6
Labeled set size: 331
Unlabelled set size: 824
	
Mean region size: 71.93568336425339
Incorrectly Classified Instances: 14.1991341991342
Correctly Classified Instances: 85.80086580086581
Weighted Precision: 0.8572306937973163
Weighted AreaUnderROC: 0.9574887402160129
Root mean squared error: 0.30554975175092525
Relative absolute error: 84.46368446368567
Root relative squared error: 87.3181146627809
Weighted TruePositiveRate: 0.858008658008658
Weighted MatthewsCorrelation: 0.8338825943178149
Weighted FMeasure: 0.8573176537396578
Iteration time: 155.0
Weighted AreaUnderPRC: 0.8153528412180285
Mean absolute error: 0.20684983950290456
Coverage of cases: 99.82683982683983
Instances selection time: 4.0
Test time: 9.0
Accumulative iteration time: 922.0
Weighted Recall: 0.858008658008658
Weighted FalsePositiveRate: 0.02366522366522366
Kappa statistic: 0.8343434343434342
Training time: 151.0
		
Iteration: 7
Labeled set size: 351
Unlabelled set size: 804
	
Mean region size: 71.97278911564493
Incorrectly Classified Instances: 12.554112554112555
Correctly Classified Instances: 87.44588744588745
Weighted Precision: 0.8760240991371377
Weighted AreaUnderROC: 0.9601158773886048
Root mean squared error: 0.30495804566773543
Relative absolute error: 84.32419432419556
Root relative squared error: 87.14902056493737
Weighted TruePositiveRate: 0.8744588744588745
Weighted MatthewsCorrelation: 0.8537963557162247
Weighted FMeasure: 0.8733790368478944
Iteration time: 148.0
Weighted AreaUnderPRC: 0.8308651833230274
Mean absolute error: 0.20650823099803084
Coverage of cases: 99.82683982683983
Instances selection time: 4.0
Test time: 10.0
Accumulative iteration time: 1070.0
Weighted Recall: 0.8744588744588745
Weighted FalsePositiveRate: 0.020923520923520924
Kappa statistic: 0.8535353535353535
Training time: 144.0
		
Iteration: 8
Labeled set size: 371
Unlabelled set size: 784
	
Mean region size: 71.99752628323925
Incorrectly Classified Instances: 12.64069264069264
Correctly Classified Instances: 87.35930735930737
Weighted Precision: 0.8749171107793723
Weighted AreaUnderROC: 0.9603454457999914
Root mean squared error: 0.3049635637556032
Relative absolute error: 84.32419432419556
Root relative squared error: 87.15059748989442
Weighted TruePositiveRate: 0.8735930735930736
Weighted MatthewsCorrelation: 0.8527091725319629
Weighted FMeasure: 0.8725475382265825
Iteration time: 148.0
Weighted AreaUnderPRC: 0.8295250701519568
Mean absolute error: 0.20650823099803084
Coverage of cases: 99.82683982683983
Instances selection time: 4.0
Test time: 9.0
Accumulative iteration time: 1218.0
Weighted Recall: 0.8735930735930736
Weighted FalsePositiveRate: 0.021067821067821065
Kappa statistic: 0.8525252525252524
Training time: 144.0
		
Iteration: 9
Labeled set size: 391
Unlabelled set size: 764
	
Mean region size: 71.94805194805062
Incorrectly Classified Instances: 12.9004329004329
Correctly Classified Instances: 87.0995670995671
Weighted Precision: 0.870302266685594
Weighted AreaUnderROC: 0.9582972582972584
Root mean squared error: 0.3051667438028628
Relative absolute error: 84.37710437710561
Root relative squared error: 87.2086610247595
Weighted TruePositiveRate: 0.870995670995671
Weighted MatthewsCorrelation: 0.8488295111591455
Weighted FMeasure: 0.8694301110611795
Iteration time: 149.0
Weighted AreaUnderPRC: 0.8279022104146091
Mean absolute error: 0.20663780663781053
Coverage of cases: 99.82683982683983
Instances selection time: 3.0
Test time: 10.0
Accumulative iteration time: 1367.0
Weighted Recall: 0.870995670995671
Weighted FalsePositiveRate: 0.0215007215007215
Kappa statistic: 0.8494949494949495
Training time: 146.0
		
Iteration: 10
Labeled set size: 411
Unlabelled set size: 744
	
Mean region size: 72.02226345083359
Incorrectly Classified Instances: 11.255411255411255
Correctly Classified Instances: 88.74458874458874
Weighted Precision: 0.8898877563106181
Weighted AreaUnderROC: 0.9634382788928245
Root mean squared error: 0.3045761353302082
Relative absolute error: 84.22318422318548
Root relative squared error: 87.03988059525321
Weighted TruePositiveRate: 0.8874458874458875
Weighted MatthewsCorrelation: 0.8695778329361851
Weighted FMeasure: 0.8875921037067347
Iteration time: 150.0
Weighted AreaUnderPRC: 0.842196799465896
Mean absolute error: 0.2062608593220878
Coverage of cases: 99.82683982683983
Instances selection time: 3.0
Test time: 10.0
Accumulative iteration time: 1517.0
Weighted Recall: 0.8874458874458875
Weighted FalsePositiveRate: 0.01875901875901876
Kappa statistic: 0.8686868686868687
Training time: 147.0
		
Iteration: 11
Labeled set size: 431
Unlabelled set size: 724
	
Mean region size: 72.09647495361656
Incorrectly Classified Instances: 11.168831168831169
Correctly Classified Instances: 88.83116883116882
Weighted Precision: 0.8909291365860798
Weighted AreaUnderROC: 0.9636459836459838
Root mean squared error: 0.3045650850156972
Relative absolute error: 84.22318422318548
Root relative squared error: 87.03672270484745
Weighted TruePositiveRate: 0.8883116883116883
Weighted MatthewsCorrelation: 0.8706563994769564
Weighted FMeasure: 0.8884799423377103
Iteration time: 150.0
Weighted AreaUnderPRC: 0.8434634247599166
Mean absolute error: 0.20626085932208776
Coverage of cases: 99.82683982683983
Instances selection time: 3.0
Test time: 9.0
Accumulative iteration time: 1667.0
Weighted Recall: 0.8883116883116883
Weighted FalsePositiveRate: 0.018614718614718615
Kappa statistic: 0.8696969696969695
Training time: 147.0
		
Iteration: 12
Labeled set size: 451
Unlabelled set size: 704
	
Mean region size: 72.0841063698194
Incorrectly Classified Instances: 11.688311688311689
Correctly Classified Instances: 88.31168831168831
Weighted Precision: 0.8853519697135279
Weighted AreaUnderROC: 0.9657357120993486
Root mean squared error: 0.30449324819638746
Relative absolute error: 84.20875420875545
Root relative squared error: 87.01619362377457
Weighted TruePositiveRate: 0.8831168831168831
Weighted MatthewsCorrelation: 0.8642036266205774
Weighted FMeasure: 0.8823830257394023
Iteration time: 151.0
Weighted AreaUnderPRC: 0.8420178094610801
Mean absolute error: 0.2062255205112387
Coverage of cases: 99.82683982683983
Instances selection time: 4.0
Test time: 9.0
Accumulative iteration time: 1818.0
Weighted Recall: 0.8831168831168831
Weighted FalsePositiveRate: 0.01948051948051948
Kappa statistic: 0.8636363636363634
Training time: 147.0
		
Iteration: 13
Labeled set size: 471
Unlabelled set size: 684
	
Mean region size: 72.03463203463075
Incorrectly Classified Instances: 12.294372294372295
Correctly Classified Instances: 87.7056277056277
Weighted Precision: 0.8795960310985093
Weighted AreaUnderROC: 0.9650706196160741
Root mean squared error: 0.3046608410925092
Relative absolute error: 84.24723424723548
Root relative squared error: 87.06408728310947
Weighted TruePositiveRate: 0.8770562770562771
Weighted MatthewsCorrelation: 0.8569300282428604
Weighted FMeasure: 0.8752103298974431
Iteration time: 150.0
Weighted AreaUnderPRC: 0.833983230598092
Mean absolute error: 0.20631975734016939
Coverage of cases: 99.82683982683983
Instances selection time: 3.0
Test time: 21.0
Accumulative iteration time: 1968.0
Weighted Recall: 0.8770562770562771
Weighted FalsePositiveRate: 0.020490620490620493
Kappa statistic: 0.8565656565656566
Training time: 147.0
		
Iteration: 14
Labeled set size: 491
Unlabelled set size: 664
	
Mean region size: 72.22016079158816
Incorrectly Classified Instances: 14.025974025974026
Correctly Classified Instances: 85.97402597402598
Weighted Precision: 0.8642636012546011
Weighted AreaUnderROC: 0.9638226420044602
Root mean squared error: 0.30492309545896057
Relative absolute error: 84.34824434824553
Root relative squared error: 87.1390327108488
Weighted TruePositiveRate: 0.8597402597402597
Weighted MatthewsCorrelation: 0.8379102698625717
Weighted FMeasure: 0.8596918218789904
Iteration time: 185.0
Weighted AreaUnderPRC: 0.8239028918578851
Mean absolute error: 0.2065671290161124
Coverage of cases: 99.82683982683983
Instances selection time: 3.0
Test time: 10.0
Accumulative iteration time: 2153.0
Weighted Recall: 0.8597402597402597
Weighted FalsePositiveRate: 0.02337662337662338
Kappa statistic: 0.8363636363636363
Training time: 182.0
		
Iteration: 15
Labeled set size: 511
Unlabelled set size: 644
	
Mean region size: 72.49226963512562
Incorrectly Classified Instances: 14.025974025974026
Correctly Classified Instances: 85.97402597402598
Weighted Precision: 0.8642636012546011
Weighted AreaUnderROC: 0.9637456819275001
Root mean squared error: 0.30491573700980085
Relative absolute error: 84.35305435305554
Root relative squared error: 87.13692985884585
Weighted TruePositiveRate: 0.8597402597402597
Weighted MatthewsCorrelation: 0.8379102698625717
Weighted FMeasure: 0.8596918218789904
Iteration time: 155.0
Weighted AreaUnderPRC: 0.8239030404410728
Mean absolute error: 0.20657890861972875
Coverage of cases: 99.82683982683983
Instances selection time: 4.0
Test time: 9.0
Accumulative iteration time: 2308.0
Weighted Recall: 0.8597402597402597
Weighted FalsePositiveRate: 0.02337662337662338
Kappa statistic: 0.8363636363636363
Training time: 151.0
		
Iteration: 16
Labeled set size: 531
Unlabelled set size: 624
	
Mean region size: 72.4304267161398
Incorrectly Classified Instances: 13.93939393939394
Correctly Classified Instances: 86.06060606060606
Weighted Precision: 0.8654982960960542
Weighted AreaUnderROC: 0.9641676505312871
Root mean squared error: 0.30486422289261794
Relative absolute error: 84.33862433862554
Root relative squared error: 87.12220847365357
Weighted TruePositiveRate: 0.8606060606060606
Weighted MatthewsCorrelation: 0.8390282438423863
Weighted FMeasure: 0.8604886748318842
Iteration time: 157.0
Weighted AreaUnderPRC: 0.8253168431228044
Mean absolute error: 0.20654356980887975
Coverage of cases: 99.82683982683983
Instances selection time: 3.0
Test time: 9.0
Accumulative iteration time: 2465.0
Weighted Recall: 0.8606060606060606
Weighted FalsePositiveRate: 0.023232323232323233
Kappa statistic: 0.8373737373737373
Training time: 154.0
		
Iteration: 17
Labeled set size: 551
Unlabelled set size: 604
	
Mean region size: 72.47990105132847
Incorrectly Classified Instances: 13.593073593073592
Correctly Classified Instances: 86.4069264069264
Weighted Precision: 0.8680903900881471
Weighted AreaUnderROC: 0.9647312956403865
Root mean squared error: 0.30481638055989013
Relative absolute error: 84.32900432900553
Root relative squared error: 87.10853638827002
Weighted TruePositiveRate: 0.8640692640692641
Weighted MatthewsCorrelation: 0.842648714609822
Weighted FMeasure: 0.8635054642366405
Iteration time: 165.0
Weighted AreaUnderPRC: 0.8284856780763039
Mean absolute error: 0.20652001060164707
Coverage of cases: 99.82683982683983
Instances selection time: 3.0
Test time: 10.0
Accumulative iteration time: 2630.0
Weighted Recall: 0.8640692640692641
Weighted FalsePositiveRate: 0.022655122655122657
Kappa statistic: 0.8414141414141413
Training time: 162.0
		
Iteration: 18
Labeled set size: 571
Unlabelled set size: 584
	
Mean region size: 73.2838589981434
Incorrectly Classified Instances: 13.333333333333334
Correctly Classified Instances: 86.66666666666667
Weighted Precision: 0.871534747105416
Weighted AreaUnderROC: 0.9660168787441514
Root mean squared error: 0.30458902685711337
Relative absolute error: 84.28571428571547
Root relative squared error: 87.04356465592755
Weighted TruePositiveRate: 0.8666666666666667
Weighted MatthewsCorrelation: 0.8457281859296089
Weighted FMeasure: 0.8652244330179449
Iteration time: 162.0
Weighted AreaUnderPRC: 0.829426622629891
Mean absolute error: 0.20641399416910003
Coverage of cases: 99.82683982683983
Instances selection time: 3.0
Test time: 10.0
Accumulative iteration time: 2792.0
Weighted Recall: 0.8666666666666667
Weighted FalsePositiveRate: 0.022222222222222223
Kappa statistic: 0.8444444444444444
Training time: 159.0
		
Iteration: 19
Labeled set size: 591
Unlabelled set size: 564
	
Mean region size: 73.53123067408646
Incorrectly Classified Instances: 13.246753246753247
Correctly Classified Instances: 86.75324675324676
Weighted Precision: 0.8723122700193944
Weighted AreaUnderROC: 0.9658717040535224
Root mean squared error: 0.30456692676262537
Relative absolute error: 84.28571428571547
Root relative squared error: 87.03724902787188
Weighted TruePositiveRate: 0.8675324675324675
Weighted MatthewsCorrelation: 0.8466961627347952
Weighted FMeasure: 0.8660504737347355
Iteration time: 171.0
Weighted AreaUnderPRC: 0.8297995355250612
Mean absolute error: 0.20641399416910003
Coverage of cases: 99.82683982683983
Instances selection time: 3.0
Test time: 9.0
Accumulative iteration time: 2963.0
Weighted Recall: 0.8675324675324675
Weighted FalsePositiveRate: 0.022077922077922082
Kappa statistic: 0.8454545454545452
Training time: 168.0
		
Iteration: 20
Labeled set size: 611
Unlabelled set size: 544
	
Mean region size: 73.45701917130353
Incorrectly Classified Instances: 13.16017316017316
Correctly Classified Instances: 86.83982683982684
Weighted Precision: 0.8732462017699733
Weighted AreaUnderROC: 0.9659036249945341
Root mean squared error: 0.3045567970166968
Relative absolute error: 84.28090428090549
Root relative squared error: 87.03435421185117
Weighted TruePositiveRate: 0.8683982683982684
Weighted MatthewsCorrelation: 0.8477053332266274
Weighted FMeasure: 0.8668283201656852
Iteration time: 165.0
Weighted AreaUnderPRC: 0.8305051810470887
Mean absolute error: 0.20640221456548372
Coverage of cases: 99.82683982683983
Instances selection time: 3.0
Test time: 9.0
Accumulative iteration time: 3128.0
Weighted Recall: 0.8683982683982684
Weighted FalsePositiveRate: 0.021933621933621937
Kappa statistic: 0.8464646464646464
Training time: 162.0
		
Iteration: 21
Labeled set size: 631
Unlabelled set size: 524
	
Mean region size: 73.45701917130353
Incorrectly Classified Instances: 12.380952380952381
Correctly Classified Instances: 87.61904761904762
Weighted Precision: 0.8812326787116113
Weighted AreaUnderROC: 0.9678127596309415
Root mean squared error: 0.3042665748234997
Relative absolute error: 84.20875420875544
Root relative squared error: 86.951416311892
Weighted TruePositiveRate: 0.8761904761904762
Weighted MatthewsCorrelation: 0.8569968537578955
Weighted FMeasure: 0.8751190626889133
Iteration time: 156.0
Weighted AreaUnderPRC: 0.8380536161925632
Mean absolute error: 0.20622552051123869
Coverage of cases: 99.82683982683983
Instances selection time: 2.0
Test time: 9.0
Accumulative iteration time: 3284.0
Weighted Recall: 0.8761904761904762
Weighted FalsePositiveRate: 0.020634920634920638
Kappa statistic: 0.8555555555555555
Training time: 154.0
		
Iteration: 22
Labeled set size: 651
Unlabelled set size: 504
	
Mean region size: 73.45701917130353
Incorrectly Classified Instances: 12.467532467532468
Correctly Classified Instances: 87.53246753246754
Weighted Precision: 0.8803152082980568
Weighted AreaUnderROC: 0.9676846385937293
Root mean squared error: 0.30429422695803904
Relative absolute error: 84.21356421356542
Root relative squared error: 86.95931856754935
Weighted TruePositiveRate: 0.8753246753246753
Weighted MatthewsCorrelation: 0.8559933249267974
Weighted FMeasure: 0.8743423817959721
Iteration time: 157.0
Weighted AreaUnderPRC: 0.8372155412543898
Mean absolute error: 0.206237300114855
Coverage of cases: 99.82683982683983
Instances selection time: 2.0
Test time: 9.0
Accumulative iteration time: 3441.0
Weighted Recall: 0.8753246753246753
Weighted FalsePositiveRate: 0.020779220779220783
Kappa statistic: 0.8545454545454545
Training time: 155.0
		
Iteration: 23
Labeled set size: 671
Unlabelled set size: 484
	
Mean region size: 73.56833642547792
Incorrectly Classified Instances: 12.554112554112555
Correctly Classified Instances: 87.44588744588745
Weighted Precision: 0.8795995854486319
Weighted AreaUnderROC: 0.9672582972582973
Root mean squared error: 0.30433938670793503
Relative absolute error: 84.22799422799544
Root relative squared error: 86.97222404103431
Weighted TruePositiveRate: 0.8744588744588745
Weighted MatthewsCorrelation: 0.8550457572196848
Weighted FMeasure: 0.8735224138800637
Iteration time: 155.0
Weighted AreaUnderPRC: 0.8356547289185502
Mean absolute error: 0.20627263892570402
Coverage of cases: 99.82683982683983
Instances selection time: 2.0
Test time: 10.0
Accumulative iteration time: 3596.0
Weighted Recall: 0.8744588744588745
Weighted FalsePositiveRate: 0.020923520923520924
Kappa statistic: 0.8535353535353535
Training time: 153.0
		
Iteration: 24
Labeled set size: 691
Unlabelled set size: 464
	
Mean region size: 73.51886209028928
Incorrectly Classified Instances: 12.64069264069264
Correctly Classified Instances: 87.35930735930737
Weighted Precision: 0.8787002107568626
Weighted AreaUnderROC: 0.9671345489527309
Root mean squared error: 0.30437163956987834
Relative absolute error: 84.23280423280545
Root relative squared error: 86.98144106405996
Weighted TruePositiveRate: 0.8735930735930736
Weighted MatthewsCorrelation: 0.8540486138785076
Weighted FMeasure: 0.8727468915251398
Iteration time: 156.0
Weighted AreaUnderPRC: 0.8348851599916653
Mean absolute error: 0.20628441852932036
Coverage of cases: 99.82683982683983
Instances selection time: 3.0
Test time: 9.0
Accumulative iteration time: 3752.0
Weighted Recall: 0.8735930735930736
Weighted FalsePositiveRate: 0.02106782106782107
Kappa statistic: 0.8525252525252524
Training time: 153.0
		
Iteration: 25
Labeled set size: 711
Unlabelled set size: 444
	
Mean region size: 73.58070500927508
Incorrectly Classified Instances: 12.64069264069264
Correctly Classified Instances: 87.35930735930737
Weighted Precision: 0.8787002107568626
Weighted AreaUnderROC: 0.9671953299226026
Root mean squared error: 0.3043568958285113
Relative absolute error: 84.22799422799544
Root relative squared error: 86.97722768901426
Weighted TruePositiveRate: 0.8735930735930736
Weighted MatthewsCorrelation: 0.8540486138785076
Weighted FMeasure: 0.8727468915251398
Iteration time: 157.0
Weighted AreaUnderPRC: 0.8351400597088193
Mean absolute error: 0.20627263892570402
Coverage of cases: 99.82683982683983
Instances selection time: 2.0
Test time: 9.0
Accumulative iteration time: 3909.0
Weighted Recall: 0.8735930735930736
Weighted FalsePositiveRate: 0.02106782106782107
Kappa statistic: 0.8525252525252524
Training time: 155.0
		
Iteration: 26
Labeled set size: 731
Unlabelled set size: 424
	
Mean region size: 73.63017934446374
Incorrectly Classified Instances: 12.554112554112555
Correctly Classified Instances: 87.44588744588745
Weighted Precision: 0.8788850090907632
Weighted AreaUnderROC: 0.9672136953955137
Root mean squared error: 0.30432924938822603
Relative absolute error: 84.22318422318544
Root relative squared error: 86.96932706062555
Weighted TruePositiveRate: 0.8744588744588745
Weighted MatthewsCorrelation: 0.8547626220186766
Weighted FMeasure: 0.8734092713575429
Iteration time: 158.0
Weighted AreaUnderPRC: 0.8355788198289119
Mean absolute error: 0.20626085932208768
Coverage of cases: 99.82683982683983
Instances selection time: 2.0
Test time: 9.0
Accumulative iteration time: 4067.0
Weighted Recall: 0.8744588744588745
Weighted FalsePositiveRate: 0.020923520923520924
Kappa statistic: 0.8535353535353535
Training time: 156.0
		
Iteration: 27
Labeled set size: 751
Unlabelled set size: 404
	
Mean region size: 73.60544217686942
Incorrectly Classified Instances: 12.207792207792208
Correctly Classified Instances: 87.79220779220779
Weighted Precision: 0.8825501361380169
Weighted AreaUnderROC: 0.9677231186322096
Root mean squared error: 0.30427671423128205
Relative absolute error: 84.20875420875544
Root relative squared error: 86.95431388901741
Weighted TruePositiveRate: 0.8779220779220779
Weighted MatthewsCorrelation: 0.8588919642911321
Weighted FMeasure: 0.8769404014584026
Iteration time: 161.0
Weighted AreaUnderPRC: 0.8390052501421148
Mean absolute error: 0.20622552051123869
Coverage of cases: 99.82683982683983
Instances selection time: 2.0
Test time: 9.0
Accumulative iteration time: 4228.0
Weighted Recall: 0.8779220779220779
Weighted FalsePositiveRate: 0.020346320346320345
Kappa statistic: 0.8575757575757574
Training time: 159.0
		
Iteration: 28
Labeled set size: 771
Unlabelled set size: 384
	
Mean region size: 73.7786023500297
Incorrectly Classified Instances: 12.64069264069264
Correctly Classified Instances: 87.35930735930737
Weighted Precision: 0.8778895805966559
Weighted AreaUnderROC: 0.9667606803970441
Root mean squared error: 0.3043568958285112
Relative absolute error: 84.23280423280545
Root relative squared error: 86.97722768901424
Weighted TruePositiveRate: 0.8735930735930736
Weighted MatthewsCorrelation: 0.8536639333650287
Weighted FMeasure: 0.872385535567391
Iteration time: 165.0
Weighted AreaUnderPRC: 0.8338273318251925
Mean absolute error: 0.20628441852932036
Coverage of cases: 99.82683982683983
Instances selection time: 6.0
Test time: 9.0
Accumulative iteration time: 4393.0
Weighted Recall: 0.8735930735930736
Weighted FalsePositiveRate: 0.02106782106782107
Kappa statistic: 0.8525252525252524
Training time: 159.0
		
Iteration: 29
Labeled set size: 791
Unlabelled set size: 364
	
Mean region size: 73.70439084724673
Incorrectly Classified Instances: 12.207792207792208
Correctly Classified Instances: 87.79220779220779
Weighted Precision: 0.8825351670304882
Weighted AreaUnderROC: 0.9674878656696839
Root mean squared error: 0.30427487072772563
Relative absolute error: 84.21356421356542
Root relative squared error: 86.95378706399465
Weighted TruePositiveRate: 0.8779220779220779
Weighted MatthewsCorrelation: 0.8589866967208399
Weighted FMeasure: 0.8773110029903894
Iteration time: 160.0
Weighted AreaUnderPRC: 0.8392196867613142
Mean absolute error: 0.206237300114855
Coverage of cases: 99.82683982683983
Instances selection time: 2.0
Test time: 9.0
Accumulative iteration time: 4553.0
Weighted Recall: 0.8779220779220779
Weighted FalsePositiveRate: 0.020346320346320345
Kappa statistic: 0.8575757575757574
Training time: 158.0
		
Iteration: 30
Labeled set size: 811
Unlabelled set size: 344
	
Mean region size: 73.69202226344956
Incorrectly Classified Instances: 13.333333333333334
Correctly Classified Instances: 86.66666666666667
Weighted Precision: 0.8719761572244088
Weighted AreaUnderROC: 0.9656202719839084
Root mean squared error: 0.30455587611399615
Relative absolute error: 84.28090428090547
Root relative squared error: 87.0340910419839
Weighted TruePositiveRate: 0.8666666666666667
Weighted MatthewsCorrelation: 0.8463670854379225
Weighted FMeasure: 0.8670421552407269
Iteration time: 164.0
Weighted AreaUnderPRC: 0.8306225574781231
Mean absolute error: 0.2064022145654837
Coverage of cases: 99.82683982683983
Instances selection time: 2.0
Test time: 9.0
Accumulative iteration time: 4717.0
Weighted Recall: 0.8666666666666667
Weighted FalsePositiveRate: 0.022222222222222216
Kappa statistic: 0.8444444444444444
Training time: 162.0
		
Iteration: 31
Labeled set size: 831
Unlabelled set size: 324
	
Mean region size: 73.6672850958552
Incorrectly Classified Instances: 12.207792207792208
Correctly Classified Instances: 87.79220779220779
Weighted Precision: 0.8837946278755042
Weighted AreaUnderROC: 0.9682172373081464
Root mean squared error: 0.30422877950827915
Relative absolute error: 84.19432419432539
Root relative squared error: 86.94061540091356
Weighted TruePositiveRate: 0.8779220779220779
Weighted MatthewsCorrelation: 0.8591422727964041
Weighted FMeasure: 0.8762167100745396
Iteration time: 167.0
Weighted AreaUnderPRC: 0.8406560388904726
Mean absolute error: 0.2061901817003896
Coverage of cases: 99.82683982683983
Instances selection time: 2.0
Test time: 9.0
Accumulative iteration time: 4884.0
Weighted Recall: 0.8779220779220779
Weighted FalsePositiveRate: 0.020346320346320345
Kappa statistic: 0.8575757575757574
Training time: 165.0
		
Iteration: 32
Labeled set size: 851
Unlabelled set size: 304
	
Mean region size: 74.01360544217576
Incorrectly Classified Instances: 10.562770562770563
Correctly Classified Instances: 89.43722943722943
Weighted Precision: 0.8990724402857203
Weighted AreaUnderROC: 0.9675735712099349
Root mean squared error: 0.30404065492293453
Relative absolute error: 84.15103415103539
Root relative squared error: 86.88685432266074
Weighted TruePositiveRate: 0.8943722943722944
Weighted MatthewsCorrelation: 0.8777299248675208
Weighted FMeasure: 0.8920138083793532
Iteration time: 160.0
Weighted AreaUnderPRC: 0.8522959672323323
Mean absolute error: 0.20608416526784265
Coverage of cases: 99.82683982683983
Instances selection time: 1.0
Test time: 10.0
Accumulative iteration time: 5044.0
Weighted Recall: 0.8943722943722944
Weighted FalsePositiveRate: 0.017604617604617602
Kappa statistic: 0.8767676767676766
Training time: 159.0
		
Iteration: 33
Labeled set size: 871
Unlabelled set size: 284
	
Mean region size: 73.77860235002996
Incorrectly Classified Instances: 9.696969696969697
Correctly Classified Instances: 90.3030303030303
Weighted Precision: 0.9083666784785217
Weighted AreaUnderROC: 0.9670838252656435
Root mean squared error: 0.30401021206578577
Relative absolute error: 84.13660413660537
Root relative squared error: 86.87815455158926
Weighted TruePositiveRate: 0.9030303030303031
Weighted MatthewsCorrelation: 0.887762907154412
Weighted FMeasure: 0.8998993652981038
Iteration time: 162.0
Weighted AreaUnderPRC: 0.8595182718714242
Mean absolute error: 0.20604882645699363
Coverage of cases: 99.82683982683983
Instances selection time: 1.0
Test time: 10.0
Accumulative iteration time: 5206.0
Weighted Recall: 0.9030303030303031
Weighted FalsePositiveRate: 0.01616161616161616
Kappa statistic: 0.8868686868686869
Training time: 161.0
		
Iteration: 34
Labeled set size: 891
Unlabelled set size: 264
	
Mean region size: 73.88991960420435
Incorrectly Classified Instances: 9.61038961038961
Correctly Classified Instances: 90.3896103896104
Weighted Precision: 0.9106436805674339
Weighted AreaUnderROC: 0.966888801434256
Root mean squared error: 0.30401297972422264
Relative absolute error: 84.14141414141537
Root relative squared error: 86.87894547586707
Weighted TruePositiveRate: 0.9038961038961039
Weighted MatthewsCorrelation: 0.8894623191769632
Weighted FMeasure: 0.9014342937962484
Iteration time: 167.0
Weighted AreaUnderPRC: 0.8608660892008345
Mean absolute error: 0.20606060606060997
Coverage of cases: 99.82683982683983
Instances selection time: 3.0
Test time: 15.0
Accumulative iteration time: 5373.0
Weighted Recall: 0.9038961038961039
Weighted FalsePositiveRate: 0.016017316017316013
Kappa statistic: 0.8878787878787877
Training time: 164.0
		
Iteration: 35
Labeled set size: 911
Unlabelled set size: 244
	
Mean region size: 74.08781694495896
Incorrectly Classified Instances: 9.523809523809524
Correctly Classified Instances: 90.47619047619048
Weighted Precision: 0.9111107911841477
Weighted AreaUnderROC: 0.9681472736018191
Root mean squared error: 0.30384595254223484
Relative absolute error: 84.11255411255536
Root relative squared error: 86.83121348281182
Weighted TruePositiveRate: 0.9047619047619048
Weighted MatthewsCorrelation: 0.8902938607157017
Weighted FMeasure: 0.9021680791789628
Iteration time: 166.0
Weighted AreaUnderPRC: 0.8622489713997982
Mean absolute error: 0.20598992843891195
Coverage of cases: 99.82683982683983
Instances selection time: 1.0
Test time: 9.0
Accumulative iteration time: 5539.0
Weighted Recall: 0.9047619047619048
Weighted FalsePositiveRate: 0.015873015873015872
Kappa statistic: 0.8888888888888887
Training time: 165.0
		
Iteration: 36
Labeled set size: 931
Unlabelled set size: 224
	
Mean region size: 73.1354359925781
Incorrectly Classified Instances: 9.87012987012987
Correctly Classified Instances: 90.12987012987013
Weighted Precision: 0.9025989654535176
Weighted AreaUnderROC: 0.9697463815645635
Root mean squared error: 0.3038736429528961
Relative absolute error: 84.10293410293535
Root relative squared error: 86.8391266767821
Weighted TruePositiveRate: 0.9012987012987013
Weighted MatthewsCorrelation: 0.8850781519088118
Weighted FMeasure: 0.9005012003192777
Iteration time: 178.0
Weighted AreaUnderPRC: 0.860083956857596
Mean absolute error: 0.2059663692316793
Coverage of cases: 99.82683982683983
Instances selection time: 1.0
Test time: 9.0
Accumulative iteration time: 5717.0
Weighted Recall: 0.9012987012987013
Weighted FalsePositiveRate: 0.01645021645021645
Kappa statistic: 0.8848484848484848
Training time: 177.0
		
Iteration: 37
Labeled set size: 951
Unlabelled set size: 204
	
Mean region size: 73.12306740878094
Incorrectly Classified Instances: 9.87012987012987
Correctly Classified Instances: 90.12987012987013
Weighted Precision: 0.903316880216903
Weighted AreaUnderROC: 0.969923914469369
Root mean squared error: 0.30386902805968313
Relative absolute error: 84.10293410293535
Root relative squared error: 86.8378078611967
Weighted TruePositiveRate: 0.9012987012987013
Weighted MatthewsCorrelation: 0.8855662169426541
Weighted FMeasure: 0.9013352577971028
Iteration time: 176.0
Weighted AreaUnderPRC: 0.8612861531723148
Mean absolute error: 0.2059663692316793
Coverage of cases: 99.82683982683983
Instances selection time: 1.0
Test time: 12.0
Accumulative iteration time: 5893.0
Weighted Recall: 0.9012987012987013
Weighted FalsePositiveRate: 0.01645021645021645
Kappa statistic: 0.8848484848484848
Training time: 175.0
		
Iteration: 38
Labeled set size: 971
Unlabelled set size: 184
	
Mean region size: 73.13543599257808
Incorrectly Classified Instances: 10.216450216450216
Correctly Classified Instances: 89.78354978354979
Weighted Precision: 0.8997599689310606
Weighted AreaUnderROC: 0.9694210503301415
Root mean squared error: 0.3039336301881123
Relative absolute error: 84.11736411736538
Root relative squared error: 86.85626945714078
Weighted TruePositiveRate: 0.8978354978354979
Weighted MatthewsCorrelation: 0.8816629131787515
Weighted FMeasure: 0.898499855715913
Iteration time: 168.0
Weighted AreaUnderPRC: 0.858479625536548
Mean absolute error: 0.20600170804252832
Coverage of cases: 99.82683982683983
Instances selection time: 1.0
Test time: 10.0
Accumulative iteration time: 6061.0
Weighted Recall: 0.8978354978354979
Weighted FalsePositiveRate: 0.01702741702741703
Kappa statistic: 0.8808080808080808
Training time: 167.0
		
Iteration: 39
Labeled set size: 991
Unlabelled set size: 164
	
Mean region size: 73.17254174396953
Incorrectly Classified Instances: 10.216450216450216
Correctly Classified Instances: 89.78354978354979
Weighted Precision: 0.89971305935658
Weighted AreaUnderROC: 0.9697026542481089
Root mean squared error: 0.3039068681153218
Relative absolute error: 84.11255411255537
Root relative squared error: 86.84862155781458
Weighted TruePositiveRate: 0.8978354978354979
Weighted MatthewsCorrelation: 0.881664096843316
Weighted FMeasure: 0.8985702656663839
Iteration time: 173.0
Weighted AreaUnderPRC: 0.859585466959214
Mean absolute error: 0.205989928438912
Coverage of cases: 99.82683982683983
Instances selection time: 2.0
Test time: 9.0
Accumulative iteration time: 6234.0
Weighted Recall: 0.8978354978354979
Weighted FalsePositiveRate: 0.01702741702741703
Kappa statistic: 0.8808080808080808
Training time: 171.0
		
Iteration: 40
Labeled set size: 1011
Unlabelled set size: 144
	
Mean region size: 73.11069882498374
Incorrectly Classified Instances: 9.696969696969697
Correctly Classified Instances: 90.3030303030303
Weighted Precision: 0.9043096587008763
Weighted AreaUnderROC: 0.9705264768901134
Root mean squared error: 0.3038477986481209
Relative absolute error: 84.09331409331536
Root relative squared error: 86.83174105151221
Weighted TruePositiveRate: 0.9030303030303031
Weighted MatthewsCorrelation: 0.8874449604138236
Weighted FMeasure: 0.9035027825665691
Iteration time: 171.0
Weighted AreaUnderPRC: 0.8649632216532125
Mean absolute error: 0.20594281002444664
Coverage of cases: 99.82683982683983
Instances selection time: 1.0
Test time: 9.0
Accumulative iteration time: 6405.0
Weighted Recall: 0.9030303030303031
Weighted FalsePositiveRate: 0.01616161616161616
Kappa statistic: 0.8868686868686869
Training time: 170.0
		
Iteration: 41
Labeled set size: 1031
Unlabelled set size: 124
	
Mean region size: 73.0983302411866
Incorrectly Classified Instances: 9.696969696969697
Correctly Classified Instances: 90.3030303030303
Weighted Precision: 0.9043699667614689
Weighted AreaUnderROC: 0.9705960033232761
Root mean squared error: 0.3038274908664243
Relative absolute error: 84.08850408850535
Root relative squared error: 86.8259376194997
Weighted TruePositiveRate: 0.9030303030303031
Weighted MatthewsCorrelation: 0.8874566083404216
Weighted FMeasure: 0.9034670680450274
Iteration time: 174.0
Weighted AreaUnderPRC: 0.8646915553393921
Mean absolute error: 0.2059310304208303
Coverage of cases: 99.82683982683983
Instances selection time: 1.0
Test time: 9.0
Accumulative iteration time: 6579.0
Weighted Recall: 0.9030303030303031
Weighted FalsePositiveRate: 0.01616161616161616
Kappa statistic: 0.8868686868686869
Training time: 173.0
		
Iteration: 42
Labeled set size: 1051
Unlabelled set size: 104
	
Mean region size: 73.23438466295536
Incorrectly Classified Instances: 9.87012987012987
Correctly Classified Instances: 90.12987012987013
Weighted Precision: 0.9032444291677378
Weighted AreaUnderROC: 0.9699995627268355
Root mean squared error: 0.30387364295289604
Relative absolute error: 84.10293410293536
Root relative squared error: 86.83912667678209
Weighted TruePositiveRate: 0.9012987012987013
Weighted MatthewsCorrelation: 0.8856906663416585
Weighted FMeasure: 0.9018873559072631
Iteration time: 175.0
Weighted AreaUnderPRC: 0.8631002407668895
Mean absolute error: 0.20596636923167932
Coverage of cases: 99.82683982683983
Instances selection time: 1.0
Test time: 9.0
Accumulative iteration time: 6754.0
Weighted Recall: 0.9012987012987013
Weighted FalsePositiveRate: 0.01645021645021645
Kappa statistic: 0.8848484848484848
Training time: 174.0
		
Iteration: 43
Labeled set size: 1071
Unlabelled set size: 84
	
Mean region size: 73.19727891156388
Incorrectly Classified Instances: 10.216450216450216
Correctly Classified Instances: 89.78354978354979
Weighted Precision: 0.9005508203320322
Weighted AreaUnderROC: 0.9687305960033232
Root mean squared error: 0.3039557763284937
Relative absolute error: 84.12217412217538
Root relative squared error: 86.86259824390652
Weighted TruePositiveRate: 0.8978354978354979
Weighted MatthewsCorrelation: 0.8819031233190507
Weighted FMeasure: 0.8983516979886461
Iteration time: 176.0
Weighted AreaUnderPRC: 0.8588839719287109
Mean absolute error: 0.20601348764614466
Coverage of cases: 99.82683982683983
Instances selection time: 1.0
Test time: 9.0
Accumulative iteration time: 6930.0
Weighted Recall: 0.8978354978354979
Weighted FalsePositiveRate: 0.01702741702741703
Kappa statistic: 0.8808080808080808
Training time: 175.0
		
Iteration: 44
Labeled set size: 1091
Unlabelled set size: 64
	
Mean region size: 73.16017316017239
Incorrectly Classified Instances: 9.956709956709958
Correctly Classified Instances: 90.04329004329004
Weighted Precision: 0.9025223023735334
Weighted AreaUnderROC: 0.969250951069133
Root mean squared error: 0.303873642952896
Relative absolute error: 84.10293410293536
Root relative squared error: 86.83912667678207
Weighted TruePositiveRate: 0.9004329004329005
Weighted MatthewsCorrelation: 0.8846221672534704
Weighted FMeasure: 0.9006176483236338
Iteration time: 180.0
Weighted AreaUnderPRC: 0.8610029384728453
Mean absolute error: 0.20596636923167932
Coverage of cases: 99.82683982683983
Instances selection time: 1.0
Test time: 9.0
Accumulative iteration time: 7110.0
Weighted Recall: 0.9004329004329005
Weighted FalsePositiveRate: 0.016594516594516596
Kappa statistic: 0.8838383838383838
Training time: 179.0
		
Iteration: 45
Labeled set size: 1111
Unlabelled set size: 44
	
Mean region size: 73.19727891156383
Incorrectly Classified Instances: 9.956709956709958
Correctly Classified Instances: 90.04329004329004
Weighted Precision: 0.9025223023735334
Weighted AreaUnderROC: 0.9691276400367309
Root mean squared error: 0.3038828725290708
Relative absolute error: 84.10774410774536
Root relative squared error: 86.84176424786862
Weighted TruePositiveRate: 0.9004329004329005
Weighted MatthewsCorrelation: 0.8846221672534704
Weighted FMeasure: 0.9006176483236338
Iteration time: 178.0
Weighted AreaUnderPRC: 0.8609789587845023
Mean absolute error: 0.20597814883529564
Coverage of cases: 99.82683982683983
Instances selection time: 1.0
Test time: 10.0
Accumulative iteration time: 7288.0
Weighted Recall: 0.9004329004329005
Weighted FalsePositiveRate: 0.016594516594516596
Kappa statistic: 0.8838383838383838
Training time: 177.0
		
Iteration: 46
Labeled set size: 1131
Unlabelled set size: 24
	
Mean region size: 73.19727891156386
Incorrectly Classified Instances: 9.696969696969697
Correctly Classified Instances: 90.3030303030303
Weighted Precision: 0.9045337147343386
Weighted AreaUnderROC: 0.9698736280554462
Root mean squared error: 0.3038025658244799
Relative absolute error: 84.07888407888535
Root relative squared error: 86.81881469546522
Weighted TruePositiveRate: 0.9030303030303031
Weighted MatthewsCorrelation: 0.8875118295336514
Weighted FMeasure: 0.9034602902121357
Iteration time: 180.0
Weighted AreaUnderPRC: 0.8633134181951828
Mean absolute error: 0.20590747121359765
Coverage of cases: 99.82683982683983
Instances selection time: 0.0
Test time: 9.0
Accumulative iteration time: 7468.0
Weighted Recall: 0.9030303030303031
Weighted FalsePositiveRate: 0.01616161616161616
Kappa statistic: 0.8868686868686869
Training time: 180.0
		
Time end:Sun Oct 08 04.47.32 EEST 2017