Sun Oct 08 04.45.04 EEST 2017
Dataset: segment
Test set size: 1155
Initial Labelled set size: 231
Initial Unlabelled set size: 924
Batch mode: QBestBatchMode
Batch size: 20
Classifiers: NaiveBayes-1cores
Scenario: PoolBasedSamplingScenario
Query strategy: EntropySamplingQueryStrategy-1cores
Time begining: Sun Oct 08 04.45.04 EEST 2017
		
Iteration: 1
Labeled set size: 231
Unlabelled set size: 924
	
Mean region size: 15.584415584415389
Incorrectly Classified Instances: 26.666666666666668
Correctly Classified Instances: 73.33333333333333
Weighted Precision: 0.7739488895751189
Weighted AreaUnderROC: 0.9486042240587694
Root mean squared error: 0.26672454712243543
Relative absolute error: 30.781641498572302
Root relative squared error: 76.22288827123748
Weighted TruePositiveRate: 0.7333333333333333
Weighted MatthewsCorrelation: 0.7028796952891982
Weighted FMeasure: 0.7317931764904376
Iteration time: 82.0
Weighted AreaUnderPRC: 0.8145903063803923
Mean absolute error: 0.0753836118332386
Coverage of cases: 77.22943722943722
Instances selection time: 81.0
Test time: 90.0
Accumulative iteration time: 82.0
Weighted Recall: 0.7333333333333333
Weighted FalsePositiveRate: 0.044444444444444446
Kappa statistic: 0.6888888888888888
Training time: 1.0
		
Iteration: 2
Labeled set size: 251
Unlabelled set size: 904
	
Mean region size: 15.683364254792586
Incorrectly Classified Instances: 24.32900432900433
Correctly Classified Instances: 75.67099567099567
Weighted Precision: 0.8055820285846548
Weighted AreaUnderROC: 0.9521496348769075
Root mean squared error: 0.25415407681411495
Relative absolute error: 28.18685098108574
Root relative squared error: 72.63057716164847
Weighted TruePositiveRate: 0.7567099567099567
Weighted MatthewsCorrelation: 0.7323896038113328
Weighted FMeasure: 0.7529647982125292
Iteration time: 64.0
Weighted AreaUnderPRC: 0.8261696878957108
Mean absolute error: 0.06902902281082252
Coverage of cases: 80.08658008658008
Instances selection time: 63.0
Test time: 85.0
Accumulative iteration time: 146.0
Weighted Recall: 0.7567099567099567
Weighted FalsePositiveRate: 0.04054834054834055
Kappa statistic: 0.7161616161616161
Training time: 1.0
		
Iteration: 3
Labeled set size: 271
Unlabelled set size: 884
	
Mean region size: 15.918367346938512
Incorrectly Classified Instances: 23.72294372294372
Correctly Classified Instances: 76.27705627705627
Weighted Precision: 0.8179225852113612
Weighted AreaUnderROC: 0.9534050461323188
Root mean squared error: 0.24988305781667483
Relative absolute error: 27.553184097946247
Root relative squared error: 71.41003181867795
Weighted TruePositiveRate: 0.7627705627705628
Weighted MatthewsCorrelation: 0.7415581603534117
Weighted FMeasure: 0.7590602066285688
Iteration time: 63.0
Weighted AreaUnderPRC: 0.8270331025422535
Mean absolute error: 0.0674771855459911
Coverage of cases: 81.991341991342
Instances selection time: 62.0
Test time: 85.0
Accumulative iteration time: 209.0
Weighted Recall: 0.7627705627705628
Weighted FalsePositiveRate: 0.03953823953823954
Kappa statistic: 0.7232323232323232
Training time: 1.0
		
Iteration: 4
Labeled set size: 291
Unlabelled set size: 864
	
Mean region size: 15.386518243660866
Incorrectly Classified Instances: 19.393939393939394
Correctly Classified Instances: 80.60606060606061
Weighted Precision: 0.8292194908266337
Weighted AreaUnderROC: 0.9568367659276751
Root mean squared error: 0.23032185013931655
Relative absolute error: 23.19746333031504
Root relative squared error: 65.81995110309488
Weighted TruePositiveRate: 0.806060606060606
Weighted MatthewsCorrelation: 0.778295388890661
Weighted FMeasure: 0.7947388952056713
Iteration time: 61.0
Weighted AreaUnderPRC: 0.838580014632348
Mean absolute error: 0.05681011427832279
Coverage of cases: 82.68398268398268
Instances selection time: 60.0
Test time: 87.0
Accumulative iteration time: 270.0
Weighted Recall: 0.806060606060606
Weighted FalsePositiveRate: 0.03232323232323232
Kappa statistic: 0.7737373737373736
Training time: 1.0
		
Iteration: 5
Labeled set size: 311
Unlabelled set size: 844
	
Mean region size: 15.28756957328363
Incorrectly Classified Instances: 18.78787878787879
Correctly Classified Instances: 81.21212121212122
Weighted Precision: 0.8313686684711421
Weighted AreaUnderROC: 0.9566093838821114
Root mean squared error: 0.22719187039845543
Relative absolute error: 22.51405447229207
Root relative squared error: 64.92548488821973
Weighted TruePositiveRate: 0.8121212121212121
Weighted MatthewsCorrelation: 0.7837043318874704
Weighted FMeasure: 0.7998625436981089
Iteration time: 67.0
Weighted AreaUnderPRC: 0.8416428758021671
Mean absolute error: 0.05513645993214408
Coverage of cases: 83.37662337662337
Instances selection time: 60.0
Test time: 86.0
Accumulative iteration time: 337.0
Weighted Recall: 0.8121212121212121
Weighted FalsePositiveRate: 0.031313131313131314
Kappa statistic: 0.7808080808080807
Training time: 7.0
		
Iteration: 6
Labeled set size: 331
Unlabelled set size: 824
	
Mean region size: 15.918367346938512
Incorrectly Classified Instances: 18.441558441558442
Correctly Classified Instances: 81.55844155844156
Weighted Precision: 0.8349377248214807
Weighted AreaUnderROC: 0.9561826052735143
Root mean squared error: 0.2233968855954017
Relative absolute error: 22.224161841237688
Root relative squared error: 63.840977647491606
Weighted TruePositiveRate: 0.8155844155844156
Weighted MatthewsCorrelation: 0.7882367891468763
Weighted FMeasure: 0.8046099619858892
Iteration time: 59.0
Weighted AreaUnderPRC: 0.8374630533799545
Mean absolute error: 0.05442651879486804
Coverage of cases: 83.98268398268398
Instances selection time: 58.0
Test time: 88.0
Accumulative iteration time: 396.0
Weighted Recall: 0.8155844155844156
Weighted FalsePositiveRate: 0.030735930735930735
Kappa statistic: 0.7848484848484849
Training time: 1.0
		
Iteration: 7
Labeled set size: 351
Unlabelled set size: 804
	
Mean region size: 15.411255411255185
Incorrectly Classified Instances: 18.354978354978353
Correctly Classified Instances: 81.64502164502164
Weighted Precision: 0.835858435444939
Weighted AreaUnderROC: 0.9531606104333377
Root mean squared error: 0.22281032003847637
Relative absolute error: 21.893868921267096
Root relative squared error: 63.67335257738979
Weighted TruePositiveRate: 0.8164502164502164
Weighted MatthewsCorrelation: 0.7895076228762701
Weighted FMeasure: 0.806049291699815
Iteration time: 58.0
Weighted AreaUnderPRC: 0.8326886006650064
Mean absolute error: 0.0536176381745319
Coverage of cases: 83.72294372294373
Instances selection time: 56.0
Test time: 85.0
Accumulative iteration time: 454.0
Weighted Recall: 0.8164502164502164
Weighted FalsePositiveRate: 0.030591630591630586
Kappa statistic: 0.7858585858585857
Training time: 2.0
		
Iteration: 8
Labeled set size: 371
Unlabelled set size: 784
	
Mean region size: 15.57204700061819
Incorrectly Classified Instances: 18.095238095238095
Correctly Classified Instances: 81.9047619047619
Weighted Precision: 0.8387344472209111
Weighted AreaUnderROC: 0.9537876601512967
Root mean squared error: 0.2220219206814394
Relative absolute error: 21.868939458841425
Root relative squared error: 63.44804869459059
Weighted TruePositiveRate: 0.819047619047619
Weighted MatthewsCorrelation: 0.7924974174624299
Weighted FMeasure: 0.8084453581209196
Iteration time: 55.0
Weighted AreaUnderPRC: 0.8311719567286662
Mean absolute error: 0.053556586429815964
Coverage of cases: 84.32900432900433
Instances selection time: 54.0
Test time: 86.0
Accumulative iteration time: 509.0
Weighted Recall: 0.819047619047619
Weighted FalsePositiveRate: 0.030158730158730156
Kappa statistic: 0.7888888888888889
Training time: 1.0
		
Iteration: 9
Labeled set size: 391
Unlabelled set size: 764
	
Mean region size: 15.435992578849492
Incorrectly Classified Instances: 18.874458874458874
Correctly Classified Instances: 81.12554112554112
Weighted Precision: 0.8345113844843358
Weighted AreaUnderROC: 0.9530460448642266
Root mean squared error: 0.22451309650204246
Relative absolute error: 22.086716652204668
Root relative squared error: 64.15996148359486
Weighted TruePositiveRate: 0.8112554112554112
Weighted MatthewsCorrelation: 0.7842531009648038
Weighted FMeasure: 0.7997066400585132
Iteration time: 54.0
Weighted AreaUnderPRC: 0.8302121954642274
Mean absolute error: 0.054089918331930026
Coverage of cases: 83.54978354978356
Instances selection time: 53.0
Test time: 86.0
Accumulative iteration time: 563.0
Weighted Recall: 0.8112554112554112
Weighted FalsePositiveRate: 0.03145743145743146
Kappa statistic: 0.7797979797979796
Training time: 1.0
		
Iteration: 10
Labeled set size: 411
Unlabelled set size: 744
	
Mean region size: 15.36178107606656
Incorrectly Classified Instances: 18.095238095238095
Correctly Classified Instances: 81.9047619047619
Weighted Precision: 0.8421996785519842
Weighted AreaUnderROC: 0.9562849271940181
Root mean squared error: 0.22061433947619827
Relative absolute error: 21.39457167859592
Root relative squared error: 63.04579886008045
Weighted TruePositiveRate: 0.819047619047619
Weighted MatthewsCorrelation: 0.7930847193024764
Weighted FMeasure: 0.8069874955667217
Iteration time: 53.0
Weighted AreaUnderPRC: 0.8367331069815652
Mean absolute error: 0.052394869416969816
Coverage of cases: 83.98268398268398
Instances selection time: 51.0
Test time: 87.0
Accumulative iteration time: 616.0
Weighted Recall: 0.819047619047619
Weighted FalsePositiveRate: 0.03015873015873016
Kappa statistic: 0.7888888888888889
Training time: 2.0
		
Iteration: 11
Labeled set size: 431
Unlabelled set size: 724
	
Mean region size: 15.386518243660868
Incorrectly Classified Instances: 17.316017316017316
Correctly Classified Instances: 82.68398268398268
Weighted Precision: 0.8503552062641535
Weighted AreaUnderROC: 0.9592671301762212
Root mean squared error: 0.2182792103530376
Relative absolute error: 20.925312199597215
Root relative squared error: 62.378480129300556
Weighted TruePositiveRate: 0.8268398268398268
Weighted MatthewsCorrelation: 0.8022329236672507
Weighted FMeasure: 0.8147741097394968
Iteration time: 52.0
Weighted AreaUnderPRC: 0.844047961467729
Mean absolute error: 0.051245662529626056
Coverage of cases: 84.41558441558442
Instances selection time: 51.0
Test time: 87.0
Accumulative iteration time: 668.0
Weighted Recall: 0.8268398268398268
Weighted FalsePositiveRate: 0.028860028860028863
Kappa statistic: 0.7979797979797978
Training time: 1.0
		
Iteration: 12
Labeled set size: 451
Unlabelled set size: 704
	
Mean region size: 15.423623995052337
Incorrectly Classified Instances: 17.662337662337663
Correctly Classified Instances: 82.33766233766234
Weighted Precision: 0.8475391040308343
Weighted AreaUnderROC: 0.9598425816607634
Root mean squared error: 0.21839226756164665
Relative absolute error: 21.021072766509246
Root relative squared error: 62.41078891779803
Weighted TruePositiveRate: 0.8233766233766234
Weighted MatthewsCorrelation: 0.7980370492669377
Weighted FMeasure: 0.8103823007645498
Iteration time: 51.0
Weighted AreaUnderPRC: 0.8448037385117202
Mean absolute error: 0.051480178203696325
Coverage of cases: 84.58874458874459
Instances selection time: 49.0
Test time: 86.0
Accumulative iteration time: 719.0
Weighted Recall: 0.8233766233766234
Weighted FalsePositiveRate: 0.029437229437229442
Kappa statistic: 0.7939393939393938
Training time: 2.0
		
Iteration: 13
Labeled set size: 471
Unlabelled set size: 684
	
Mean region size: 15.349412492269414
Incorrectly Classified Instances: 17.48917748917749
Correctly Classified Instances: 82.5108225108225
Weighted Precision: 0.8469265346068778
Weighted AreaUnderROC: 0.9597070269797542
Root mean squared error: 0.2188581734471677
Relative absolute error: 21.082239259429517
Root relative squared error: 62.543932614694754
Weighted TruePositiveRate: 0.8251082251082251
Weighted MatthewsCorrelation: 0.7993509185522255
Weighted FMeasure: 0.8121778045681614
Iteration time: 48.0
Weighted AreaUnderPRC: 0.8411609434041307
Mean absolute error: 0.05162997369656231
Coverage of cases: 84.24242424242425
Instances selection time: 47.0
Test time: 86.0
Accumulative iteration time: 767.0
Weighted Recall: 0.8251082251082251
Weighted FalsePositiveRate: 0.029148629148629146
Kappa statistic: 0.795959595959596
Training time: 1.0
		
Iteration: 14
Labeled set size: 491
Unlabelled set size: 664
	
Mean region size: 15.324675324675104
Incorrectly Classified Instances: 17.662337662337663
Correctly Classified Instances: 82.33766233766234
Weighted Precision: 0.8439495980023567
Weighted AreaUnderROC: 0.9593913157549523
Root mean squared error: 0.218765155038143
Relative absolute error: 21.039408143384946
Root relative squared error: 62.517350390168545
Weighted TruePositiveRate: 0.8233766233766234
Weighted MatthewsCorrelation: 0.7973631484454426
Weighted FMeasure: 0.8113861867747945
Iteration time: 49.0
Weighted AreaUnderPRC: 0.839336035623049
Mean absolute error: 0.05152508116747356
Coverage of cases: 84.32900432900433
Instances selection time: 46.0
Test time: 105.0
Accumulative iteration time: 816.0
Weighted Recall: 0.8233766233766234
Weighted FalsePositiveRate: 0.02943722943722944
Kappa statistic: 0.7939393939393938
Training time: 3.0
		
Iteration: 15
Labeled set size: 511
Unlabelled set size: 644
	
Mean region size: 15.337043908472262
Incorrectly Classified Instances: 17.662337662337663
Correctly Classified Instances: 82.33766233766234
Weighted Precision: 0.8457351543287256
Weighted AreaUnderROC: 0.9598762516944335
Root mean squared error: 0.21914139928407542
Relative absolute error: 21.11476312539571
Root relative squared error: 62.62487113930769
Weighted TruePositiveRate: 0.8233766233766234
Weighted MatthewsCorrelation: 0.7981873890075551
Weighted FMeasure: 0.8119578173902194
Iteration time: 47.0
Weighted AreaUnderPRC: 0.8391742395119768
Mean absolute error: 0.05170962398056115
Coverage of cases: 84.15584415584415
Instances selection time: 45.0
Test time: 87.0
Accumulative iteration time: 863.0
Weighted Recall: 0.8233766233766234
Weighted FalsePositiveRate: 0.02943722943722944
Kappa statistic: 0.7939393939393938
Training time: 2.0
		
Iteration: 16
Labeled set size: 531
Unlabelled set size: 624
	
Mean region size: 15.39888682745803
Incorrectly Classified Instances: 17.662337662337663
Correctly Classified Instances: 82.33766233766234
Weighted Precision: 0.8463947883163828
Weighted AreaUnderROC: 0.9604600113691023
Root mean squared error: 0.21860787964352876
Relative absolute error: 21.058419761177163
Root relative squared error: 62.472405202480246
Weighted TruePositiveRate: 0.8233766233766234
Weighted MatthewsCorrelation: 0.7977976000801955
Weighted FMeasure: 0.8105389148955408
Iteration time: 48.0
Weighted AreaUnderPRC: 0.8411273436135949
Mean absolute error: 0.051571640231454496
Coverage of cases: 84.67532467532467
Instances selection time: 45.0
Test time: 85.0
Accumulative iteration time: 911.0
Weighted Recall: 0.8233766233766234
Weighted FalsePositiveRate: 0.029437229437229442
Kappa statistic: 0.7939393939393938
Training time: 3.0
		
Iteration: 17
Labeled set size: 551
Unlabelled set size: 604
	
Mean region size: 15.4359925788495
Incorrectly Classified Instances: 17.748917748917748
Correctly Classified Instances: 82.25108225108225
Weighted Precision: 0.8456366496142337
Weighted AreaUnderROC: 0.9602317547772092
Root mean squared error: 0.21878721324621173
Relative absolute error: 21.08010778075269
Root relative squared error: 62.52365404818287
Weighted TruePositiveRate: 0.8225108225108225
Weighted MatthewsCorrelation: 0.7972922705922149
Weighted FMeasure: 0.8108770424772881
Iteration time: 45.0
Weighted AreaUnderPRC: 0.8392368132429745
Mean absolute error: 0.05162475374878232
Coverage of cases: 84.5021645021645
Instances selection time: 43.0
Test time: 85.0
Accumulative iteration time: 956.0
Weighted Recall: 0.8225108225108225
Weighted FalsePositiveRate: 0.02958152958152958
Kappa statistic: 0.7929292929292928
Training time: 2.0
		
Iteration: 18
Labeled set size: 571
Unlabelled set size: 584
	
Mean region size: 15.559678416821045
Incorrectly Classified Instances: 17.835497835497836
Correctly Classified Instances: 82.16450216450217
Weighted Precision: 0.84445711353786
Weighted AreaUnderROC: 0.9614666141938869
Root mean squared error: 0.2189829866919877
Relative absolute error: 21.214459069735536
Root relative squared error: 62.579600970372255
Weighted TruePositiveRate: 0.8216450216450216
Weighted MatthewsCorrelation: 0.796057088518944
Weighted FMeasure: 0.8096190478349586
Iteration time: 44.0
Weighted AreaUnderPRC: 0.8440401617942264
Mean absolute error: 0.05195377731363827
Coverage of cases: 84.67532467532467
Instances selection time: 42.0
Test time: 86.0
Accumulative iteration time: 1000.0
Weighted Recall: 0.8216450216450216
Weighted FalsePositiveRate: 0.02972582972582973
Kappa statistic: 0.7919191919191918
Training time: 2.0
		
Iteration: 19
Labeled set size: 591
Unlabelled set size: 564
	
Mean region size: 15.510204081632429
Incorrectly Classified Instances: 17.748917748917748
Correctly Classified Instances: 82.25108225108225
Weighted Precision: 0.8465185323039137
Weighted AreaUnderROC: 0.9623429096156368
Root mean squared error: 0.21958336912497003
Relative absolute error: 21.369752240032785
Root relative squared error: 62.75117454169496
Weighted TruePositiveRate: 0.8225108225108225
Weighted MatthewsCorrelation: 0.7973623718983501
Weighted FMeasure: 0.8104213475390859
Iteration time: 44.0
Weighted AreaUnderPRC: 0.8493544482352372
Mean absolute error: 0.05233408711844786
Coverage of cases: 84.32900432900433
Instances selection time: 41.0
Test time: 86.0
Accumulative iteration time: 1044.0
Weighted Recall: 0.8225108225108225
Weighted FalsePositiveRate: 0.029581529581529587
Kappa statistic: 0.7929292929292928
Training time: 3.0
		
Iteration: 20
Labeled set size: 611
Unlabelled set size: 544
	
Mean region size: 15.534941249226739
Incorrectly Classified Instances: 17.748917748917748
Correctly Classified Instances: 82.25108225108225
Weighted Precision: 0.8449313275546824
Weighted AreaUnderROC: 0.9650653723380995
Root mean squared error: 0.22012131540408839
Relative absolute error: 21.463832961205433
Root relative squared error: 62.904905495862984
Weighted TruePositiveRate: 0.8225108225108225
Weighted MatthewsCorrelation: 0.7968957908917271
Weighted FMeasure: 0.8103969238376931
Iteration time: 41.0
Weighted AreaUnderPRC: 0.8634356250838786
Mean absolute error: 0.05256448888458496
Coverage of cases: 84.15584415584415
Instances selection time: 39.0
Test time: 85.0
Accumulative iteration time: 1085.0
Weighted Recall: 0.8225108225108225
Weighted FalsePositiveRate: 0.02958152958152958
Kappa statistic: 0.7929292929292928
Training time: 2.0
		
Iteration: 21
Labeled set size: 631
Unlabelled set size: 524
	
Mean region size: 15.497835497835272
Incorrectly Classified Instances: 17.662337662337663
Correctly Classified Instances: 82.33766233766234
Weighted Precision: 0.8446674747940808
Weighted AreaUnderROC: 0.966468144649963
Root mean squared error: 0.2201273441182652
Relative absolute error: 21.416239774954565
Root relative squared error: 62.90662834444245
Weighted TruePositiveRate: 0.8233766233766234
Weighted MatthewsCorrelation: 0.796981411159801
Weighted FMeasure: 0.809879568872012
Iteration time: 42.0
Weighted AreaUnderPRC: 0.8699817905397471
Mean absolute error: 0.0524479341427461
Coverage of cases: 83.98268398268398
Instances selection time: 39.0
Test time: 100.0
Accumulative iteration time: 1127.0
Weighted Recall: 0.8233766233766234
Weighted FalsePositiveRate: 0.02943722943722944
Kappa statistic: 0.7939393939393938
Training time: 3.0
		
Iteration: 22
Labeled set size: 651
Unlabelled set size: 504
	
Mean region size: 15.534941249226739
Incorrectly Classified Instances: 17.662337662337663
Correctly Classified Instances: 82.33766233766234
Weighted Precision: 0.8446565203317806
Weighted AreaUnderROC: 0.9675560802833529
Root mean squared error: 0.2197855800087312
Relative absolute error: 21.38951167110974
Root relative squared error: 62.808961115021035
Weighted TruePositiveRate: 0.8233766233766234
Weighted MatthewsCorrelation: 0.7969745386483157
Weighted FMeasure: 0.809868839990002
Iteration time: 38.0
Weighted AreaUnderPRC: 0.8745881942549593
Mean absolute error: 0.05238247756190163
Coverage of cases: 84.06926406926407
Instances selection time: 35.0
Test time: 87.0
Accumulative iteration time: 1165.0
Weighted Recall: 0.8233766233766234
Weighted FalsePositiveRate: 0.02943722943722944
Kappa statistic: 0.7939393939393938
Training time: 3.0
		
Iteration: 23
Labeled set size: 671
Unlabelled set size: 484
	
Mean region size: 15.547309833023887
Incorrectly Classified Instances: 17.92207792207792
Correctly Classified Instances: 82.07792207792208
Weighted Precision: 0.8429444662786006
Weighted AreaUnderROC: 0.9681630154357427
Root mean squared error: 0.22000245056657455
Relative absolute error: 21.493500180016227
Root relative squared error: 62.870937039165085
Weighted TruePositiveRate: 0.8207792207792208
Weighted MatthewsCorrelation: 0.7940983538243284
Weighted FMeasure: 0.8072182611079085
Iteration time: 37.0
Weighted AreaUnderPRC: 0.8770755008333587
Mean absolute error: 0.052637143297999144
Coverage of cases: 84.06926406926407
Instances selection time: 34.0
Test time: 86.0
Accumulative iteration time: 1202.0
Weighted Recall: 0.8207792207792208
Weighted FalsePositiveRate: 0.02987012987012987
Kappa statistic: 0.790909090909091
Training time: 3.0
		
Iteration: 24
Labeled set size: 691
Unlabelled set size: 464
	
Mean region size: 15.609152752009663
Incorrectly Classified Instances: 18.26839826839827
Correctly Classified Instances: 81.73160173160173
Weighted Precision: 0.8425000347045335
Weighted AreaUnderROC: 0.9670610870610872
Root mean squared error: 0.22209895123491466
Relative absolute error: 21.970633960514714
Root relative squared error: 63.47006200882942
Weighted TruePositiveRate: 0.8173160173160173
Weighted MatthewsCorrelation: 0.7908639618739803
Weighted FMeasure: 0.803889311549817
Iteration time: 35.0
Weighted AreaUnderPRC: 0.87151204886897
Mean absolute error: 0.05380563418901586
Coverage of cases: 83.98268398268398
Instances selection time: 32.0
Test time: 94.0
Accumulative iteration time: 1237.0
Weighted Recall: 0.8173160173160173
Weighted FalsePositiveRate: 0.030447330447330445
Kappa statistic: 0.7868686868686867
Training time: 3.0
		
Iteration: 25
Labeled set size: 711
Unlabelled set size: 444
	
Mean region size: 15.609152752009663
Incorrectly Classified Instances: 18.26839826839827
Correctly Classified Instances: 81.73160173160173
Weighted Precision: 0.8431582144148417
Weighted AreaUnderROC: 0.9671791508155145
Root mean squared error: 0.22255838464461727
Relative absolute error: 22.064050449840384
Root relative squared error: 63.60135604169457
Weighted TruePositiveRate: 0.8173160173160173
Weighted MatthewsCorrelation: 0.7911756095616591
Weighted FMeasure: 0.8041477416430747
Iteration time: 34.0
Weighted AreaUnderPRC: 0.872685082230149
Mean absolute error: 0.054034409264915456
Coverage of cases: 83.8961038961039
Instances selection time: 31.0
Test time: 88.0
Accumulative iteration time: 1271.0
Weighted Recall: 0.8173160173160173
Weighted FalsePositiveRate: 0.030447330447330452
Kappa statistic: 0.7868686868686867
Training time: 3.0
		
Iteration: 26
Labeled set size: 731
Unlabelled set size: 424
	
Mean region size: 15.646258503401128
Incorrectly Classified Instances: 18.528138528138527
Correctly Classified Instances: 81.47186147186147
Weighted Precision: 0.8394179917618715
Weighted AreaUnderROC: 0.9665599720145175
Root mean squared error: 0.2244401422306161
Relative absolute error: 22.520622203366013
Root relative squared error: 64.13911306398056
Weighted TruePositiveRate: 0.8147186147186147
Weighted MatthewsCorrelation: 0.7879259626951207
Weighted FMeasure: 0.8017912015203389
Iteration time: 37.0
Weighted AreaUnderPRC: 0.8711879481561964
Mean absolute error: 0.05515254417150884
Coverage of cases: 83.8961038961039
Instances selection time: 30.0
Test time: 90.0
Accumulative iteration time: 1308.0
Weighted Recall: 0.8147186147186147
Weighted FalsePositiveRate: 0.030880230880230883
Kappa statistic: 0.7838383838383839
Training time: 7.0
		
Iteration: 27
Labeled set size: 751
Unlabelled set size: 404
	
Mean region size: 15.68336425479259
Incorrectly Classified Instances: 18.528138528138527
Correctly Classified Instances: 81.47186147186147
Weighted Precision: 0.8397402836079797
Weighted AreaUnderROC: 0.9666220648038828
Root mean squared error: 0.22433227160186084
Relative absolute error: 22.480007409748342
Root relative squared error: 64.10828646413415
Weighted TruePositiveRate: 0.8147186147186147
Weighted MatthewsCorrelation: 0.7881767128673411
Weighted FMeasure: 0.8022252972862964
Iteration time: 33.0
Weighted AreaUnderPRC: 0.8676325397389857
Mean absolute error: 0.055053079370812504
Coverage of cases: 83.72294372294373
Instances selection time: 30.0
Test time: 88.0
Accumulative iteration time: 1341.0
Weighted Recall: 0.8147186147186147
Weighted FalsePositiveRate: 0.03088023088023088
Kappa statistic: 0.7838383838383839
Training time: 3.0
		
Iteration: 28
Labeled set size: 771
Unlabelled set size: 384
	
Mean region size: 16.301793444650308
Incorrectly Classified Instances: 19.653679653679653
Correctly Classified Instances: 80.34632034632034
Weighted Precision: 0.8311741118734884
Weighted AreaUnderROC: 0.9646954392408936
Root mean squared error: 0.22927624039605068
Relative absolute error: 24.1887515611919
Root relative squared error: 65.52114322996843
Weighted TruePositiveRate: 0.8034632034632034
Weighted MatthewsCorrelation: 0.7766330100692653
Weighted FMeasure: 0.7927846949385553
Iteration time: 58.0
Weighted AreaUnderPRC: 0.8634900934387365
Mean absolute error: 0.059237758925368166
Coverage of cases: 83.80952380952381
Instances selection time: 55.0
Test time: 130.0
Accumulative iteration time: 1399.0
Weighted Recall: 0.8034632034632034
Weighted FalsePositiveRate: 0.03275613275613276
Kappa statistic: 0.7707070707070707
Training time: 3.0
		
Iteration: 29
Labeled set size: 791
Unlabelled set size: 364
	
Mean region size: 16.25231910946169
Incorrectly Classified Instances: 19.22077922077922
Correctly Classified Instances: 80.77922077922078
Weighted Precision: 0.8304539044157625
Weighted AreaUnderROC: 0.9639573221391403
Root mean squared error: 0.2280450867652597
Relative absolute error: 23.80236225640907
Root relative squared error: 65.16931177442027
Weighted TruePositiveRate: 0.8077922077922078
Weighted MatthewsCorrelation: 0.7804141922764282
Weighted FMeasure: 0.7973022816889188
Iteration time: 29.0
Weighted AreaUnderPRC: 0.8624738014534831
Mean absolute error: 0.05829149940345103
Coverage of cases: 83.8961038961039
Instances selection time: 26.0
Test time: 86.0
Accumulative iteration time: 1428.0
Weighted Recall: 0.8077922077922078
Weighted FalsePositiveRate: 0.03203463203463203
Kappa statistic: 0.7757575757575756
Training time: 3.0
		
Iteration: 30
Labeled set size: 811
Unlabelled set size: 344
	
Mean region size: 16.25231910946169
Incorrectly Classified Instances: 19.134199134199132
Correctly Classified Instances: 80.86580086580086
Weighted Precision: 0.8310320301065388
Weighted AreaUnderROC: 0.964231055140146
Root mean squared error: 0.2274419592363609
Relative absolute error: 23.730701933343095
Root relative squared error: 64.99695372659704
Weighted TruePositiveRate: 0.8086580086580086
Weighted MatthewsCorrelation: 0.7815889761272828
Weighted FMeasure: 0.7987361934025232
Iteration time: 28.0
Weighted AreaUnderPRC: 0.8629123144803275
Mean absolute error: 0.058116004734718035
Coverage of cases: 83.72294372294373
Instances selection time: 25.0
Test time: 85.0
Accumulative iteration time: 1456.0
Weighted Recall: 0.8086580086580086
Weighted FalsePositiveRate: 0.03189033189033189
Kappa statistic: 0.7767676767676768
Training time: 3.0
		
Iteration: 31
Labeled set size: 831
Unlabelled set size: 324
	
Mean region size: 16.326530612244618
Incorrectly Classified Instances: 20.432900432900432
Correctly Classified Instances: 79.56709956709956
Weighted Precision: 0.825651745701811
Weighted AreaUnderROC: 0.9634194761467488
Root mean squared error: 0.23088350566132423
Relative absolute error: 24.616101501694178
Root relative squared error: 65.98045753777734
Weighted TruePositiveRate: 0.7956709956709956
Weighted MatthewsCorrelation: 0.7701712618617291
Weighted FMeasure: 0.7889164832743308
Iteration time: 27.0
Weighted AreaUnderPRC: 0.8609812544493113
Mean absolute error: 0.060284330208230895
Coverage of cases: 84.06926406926407
Instances selection time: 24.0
Test time: 97.0
Accumulative iteration time: 1483.0
Weighted Recall: 0.7956709956709956
Weighted FalsePositiveRate: 0.03405483405483405
Kappa statistic: 0.7616161616161614
Training time: 3.0
		
Iteration: 32
Labeled set size: 851
Unlabelled set size: 304
	
Mean region size: 16.363636363636083
Incorrectly Classified Instances: 19.913419913419915
Correctly Classified Instances: 80.08658008658008
Weighted Precision: 0.8282481063571386
Weighted AreaUnderROC: 0.9629244829244828
Root mean squared error: 0.2305963612833176
Relative absolute error: 24.607204517545952
Root relative squared error: 65.89839919677108
Weighted TruePositiveRate: 0.8008658008658008
Weighted MatthewsCorrelation: 0.7751737189771439
Weighted FMeasure: 0.7937402131183955
Iteration time: 28.0
Weighted AreaUnderPRC: 0.8609400669256663
Mean absolute error: 0.060262541675623
Coverage of cases: 84.06926406926407
Instances selection time: 22.0
Test time: 85.0
Accumulative iteration time: 1511.0
Weighted Recall: 0.8008658008658008
Weighted FalsePositiveRate: 0.03318903318903319
Kappa statistic: 0.7676767676767675
Training time: 6.0
		
Iteration: 33
Labeled set size: 871
Unlabelled set size: 284
	
Mean region size: 16.43784786641901
Incorrectly Classified Instances: 19.913419913419915
Correctly Classified Instances: 80.08658008658008
Weighted Precision: 0.8231505699273977
Weighted AreaUnderROC: 0.9630311775766323
Root mean squared error: 0.2296441221147181
Relative absolute error: 24.473538604542146
Root relative squared error: 65.62627418788564
Weighted TruePositiveRate: 0.8008658008658008
Weighted MatthewsCorrelation: 0.77283221094046
Weighted FMeasure: 0.7920390172823355
Iteration time: 24.0
Weighted AreaUnderPRC: 0.8646922393580515
Mean absolute error: 0.05993519658255245
Coverage of cases: 84.06926406926407
Instances selection time: 20.0
Test time: 85.0
Accumulative iteration time: 1535.0
Weighted Recall: 0.8008658008658008
Weighted FalsePositiveRate: 0.033189033189033185
Kappa statistic: 0.7676767676767675
Training time: 4.0
		
Iteration: 34
Labeled set size: 891
Unlabelled set size: 264
	
Mean region size: 16.413110698824703
Incorrectly Classified Instances: 19.567099567099568
Correctly Classified Instances: 80.43290043290044
Weighted Precision: 0.8266392873727749
Weighted AreaUnderROC: 0.9630639730639732
Root mean squared error: 0.229533229878634
Relative absolute error: 24.504618329375408
Root relative squared error: 65.59458409182072
Weighted TruePositiveRate: 0.8043290043290043
Weighted MatthewsCorrelation: 0.7765569579777908
Weighted FMeasure: 0.7945969336320767
Iteration time: 25.0
Weighted AreaUnderPRC: 0.8632957896988263
Mean absolute error: 0.06001131019438901
Coverage of cases: 84.15584415584415
Instances selection time: 21.0
Test time: 85.0
Accumulative iteration time: 1560.0
Weighted Recall: 0.8043290043290043
Weighted FalsePositiveRate: 0.03261183261183261
Kappa statistic: 0.7717171717171717
Training time: 4.0
		
Iteration: 35
Labeled set size: 911
Unlabelled set size: 244
	
Mean region size: 16.400742115027544
Incorrectly Classified Instances: 19.567099567099568
Correctly Classified Instances: 80.43290043290044
Weighted Precision: 0.8249470944469203
Weighted AreaUnderROC: 0.9631081376535922
Root mean squared error: 0.22926023449157
Relative absolute error: 24.403066868943736
Root relative squared error: 65.51656916176934
Weighted TruePositiveRate: 0.8043290043290043
Weighted MatthewsCorrelation: 0.7758995568715231
Weighted FMeasure: 0.7940669101663909
Iteration time: 21.0
Weighted AreaUnderPRC: 0.8633183822898216
Mean absolute error: 0.05976261274027063
Coverage of cases: 84.06926406926407
Instances selection time: 17.0
Test time: 90.0
Accumulative iteration time: 1581.0
Weighted Recall: 0.8043290043290043
Weighted FalsePositiveRate: 0.03261183261183261
Kappa statistic: 0.7717171717171717
Training time: 4.0
		
Iteration: 36
Labeled set size: 931
Unlabelled set size: 224
	
Mean region size: 16.400742115027544
Incorrectly Classified Instances: 19.567099567099568
Correctly Classified Instances: 80.43290043290044
Weighted Precision: 0.8252885752079047
Weighted AreaUnderROC: 0.9631221303948577
Root mean squared error: 0.22911181991500107
Relative absolute error: 24.398997106674635
Root relative squared error: 65.4741561637544
Weighted TruePositiveRate: 0.8043290043290043
Weighted MatthewsCorrelation: 0.7760730891689706
Weighted FMeasure: 0.7942684649671707
Iteration time: 19.0
Weighted AreaUnderPRC: 0.8629502127127112
Mean absolute error: 0.059752645975529976
Coverage of cases: 83.98268398268398
Instances selection time: 15.0
Test time: 87.0
Accumulative iteration time: 1600.0
Weighted Recall: 0.8043290043290043
Weighted FalsePositiveRate: 0.03261183261183261
Kappa statistic: 0.7717171717171717
Training time: 4.0
		
Iteration: 37
Labeled set size: 951
Unlabelled set size: 204
	
Mean region size: 16.33889919604177
Incorrectly Classified Instances: 19.393939393939394
Correctly Classified Instances: 80.60606060606061
Weighted Precision: 0.8267392526659441
Weighted AreaUnderROC: 0.9630827758100486
Root mean squared error: 0.2285753535399058
Relative absolute error: 24.249008620426924
Root relative squared error: 65.32084812738762
Weighted TruePositiveRate: 0.806060606060606
Weighted MatthewsCorrelation: 0.778218250439148
Weighted FMeasure: 0.7965131869291668
Iteration time: 21.0
Weighted AreaUnderPRC: 0.8611670221155987
Mean absolute error: 0.05938532723369885
Coverage of cases: 83.80952380952381
Instances selection time: 15.0
Test time: 87.0
Accumulative iteration time: 1621.0
Weighted Recall: 0.806060606060606
Weighted FalsePositiveRate: 0.03232323232323232
Kappa statistic: 0.7737373737373736
Training time: 6.0
		
Iteration: 38
Labeled set size: 971
Unlabelled set size: 184
	
Mean region size: 16.301793444650308
Incorrectly Classified Instances: 19.393939393939394
Correctly Classified Instances: 80.60606060606061
Weighted Precision: 0.82889891895435
Weighted AreaUnderROC: 0.9633180287725742
Root mean squared error: 0.22832459083602452
Relative absolute error: 24.14824354986217
Root relative squared error: 65.24918671576746
Weighted TruePositiveRate: 0.806060606060606
Weighted MatthewsCorrelation: 0.7785897092368914
Weighted FMeasure: 0.7959557558578414
Iteration time: 17.0
Weighted AreaUnderPRC: 0.8616862511440987
Mean absolute error: 0.059138555632315765
Coverage of cases: 83.80952380952381
Instances selection time: 12.0
Test time: 87.0
Accumulative iteration time: 1638.0
Weighted Recall: 0.806060606060606
Weighted FalsePositiveRate: 0.03232323232323232
Kappa statistic: 0.7737373737373736
Training time: 5.0
		
Iteration: 39
Labeled set size: 991
Unlabelled set size: 164
	
Mean region size: 16.277056277055998
Incorrectly Classified Instances: 19.653679653679653
Correctly Classified Instances: 80.34632034632034
Weighted Precision: 0.8259362118396508
Weighted AreaUnderROC: 0.96276356639993
Root mean squared error: 0.22935405922436142
Relative absolute error: 24.321787271668136
Root relative squared error: 65.54338181250506
Weighted TruePositiveRate: 0.8034632034632034
Weighted MatthewsCorrelation: 0.7755423843641019
Weighted FMeasure: 0.7934255720273751
Iteration time: 32.0
Weighted AreaUnderPRC: 0.8588046756676379
Mean absolute error: 0.059563560665309975
Coverage of cases: 83.63636363636364
Instances selection time: 19.0
Test time: 88.0
Accumulative iteration time: 1670.0
Weighted Recall: 0.8034632034632034
Weighted FalsePositiveRate: 0.03275613275613276
Kappa statistic: 0.7707070707070707
Training time: 13.0
		
Iteration: 40
Labeled set size: 1011
Unlabelled set size: 144
	
Mean region size: 16.277056277056
Incorrectly Classified Instances: 19.74025974025974
Correctly Classified Instances: 80.25974025974025
Weighted Precision: 0.8261591473343622
Weighted AreaUnderROC: 0.9628676374130921
Root mean squared error: 0.2296334650451566
Relative absolute error: 24.357591065744757
Root relative squared error: 65.62322867658477
Weighted TruePositiveRate: 0.8025974025974026
Weighted MatthewsCorrelation: 0.7750119002486894
Weighted FMeasure: 0.7927955655468406
Iteration time: 15.0
Weighted AreaUnderPRC: 0.8594745372096347
Mean absolute error: 0.05965124342631395
Coverage of cases: 83.80952380952381
Instances selection time: 10.0
Test time: 88.0
Accumulative iteration time: 1685.0
Weighted Recall: 0.8025974025974026
Weighted FalsePositiveRate: 0.0329004329004329
Kappa statistic: 0.7696969696969697
Training time: 5.0
		
Iteration: 41
Labeled set size: 1031
Unlabelled set size: 124
	
Mean region size: 16.326530612244614
Incorrectly Classified Instances: 19.74025974025974
Correctly Classified Instances: 80.25974025974025
Weighted Precision: 0.8253652718051364
Weighted AreaUnderROC: 0.9630521666885304
Root mean squared error: 0.2289886738010479
Relative absolute error: 24.28980892319784
Root relative squared error: 65.43896423040535
Weighted TruePositiveRate: 0.8025974025974026
Weighted MatthewsCorrelation: 0.7746702048589237
Weighted FMeasure: 0.7926440022236165
Iteration time: 13.0
Weighted AreaUnderPRC: 0.8603749871508469
Mean absolute error: 0.05948524634252557
Coverage of cases: 83.8961038961039
Instances selection time: 8.0
Test time: 88.0
Accumulative iteration time: 1698.0
Weighted Recall: 0.8025974025974026
Weighted FalsePositiveRate: 0.03290043290043291
Kappa statistic: 0.7696969696969697
Training time: 5.0
		
Iteration: 42
Labeled set size: 1051
Unlabelled set size: 104
	
Mean region size: 16.264687693258843
Incorrectly Classified Instances: 19.74025974025974
Correctly Classified Instances: 80.25974025974025
Weighted Precision: 0.8248502171682764
Weighted AreaUnderROC: 0.9633363942454853
Root mean squared error: 0.22914769221937767
Relative absolute error: 24.287645558098873
Root relative squared error: 65.48440752861013
Weighted TruePositiveRate: 0.8025974025974026
Weighted MatthewsCorrelation: 0.7743636496124569
Weighted FMeasure: 0.7921786253189573
Iteration time: 12.0
Weighted AreaUnderPRC: 0.8610435928969326
Mean absolute error: 0.05947994830554852
Coverage of cases: 83.80952380952381
Instances selection time: 8.0
Test time: 86.0
Accumulative iteration time: 1710.0
Weighted Recall: 0.8025974025974026
Weighted FalsePositiveRate: 0.0329004329004329
Kappa statistic: 0.7696969696969697
Training time: 4.0
		
Iteration: 43
Labeled set size: 1071
Unlabelled set size: 84
	
Mean region size: 16.301793444650308
Incorrectly Classified Instances: 19.653679653679653
Correctly Classified Instances: 80.34632034632034
Weighted Precision: 0.8241701481788339
Weighted AreaUnderROC: 0.962058682058682
Root mean squared error: 0.23091376898144136
Relative absolute error: 24.558533452212426
Root relative squared error: 65.98910600186845
Weighted TruePositiveRate: 0.8034632034632034
Weighted MatthewsCorrelation: 0.7749003176346544
Weighted FMeasure: 0.7930743857277883
Iteration time: 10.0
Weighted AreaUnderPRC: 0.8543812103752826
Mean absolute error: 0.060143347229908245
Coverage of cases: 83.54978354978356
Instances selection time: 6.0
Test time: 86.0
Accumulative iteration time: 1720.0
Weighted Recall: 0.8034632034632034
Weighted FalsePositiveRate: 0.03275613275613276
Kappa statistic: 0.7707070707070707
Training time: 4.0
		
Iteration: 44
Labeled set size: 1091
Unlabelled set size: 64
	
Mean region size: 16.289424860853156
Incorrectly Classified Instances: 19.48051948051948
Correctly Classified Instances: 80.51948051948052
Weighted Precision: 0.8261141302919958
Weighted AreaUnderROC: 0.9620560584196947
Root mean squared error: 0.23096362990158179
Relative absolute error: 24.560090615514067
Root relative squared error: 66.00335494665424
Weighted TruePositiveRate: 0.8051948051948052
Weighted MatthewsCorrelation: 0.7767610435851654
Weighted FMeasure: 0.7942451975068858
Iteration time: 10.0
Weighted AreaUnderPRC: 0.8543707034548512
Mean absolute error: 0.060147160691055114
Coverage of cases: 83.46320346320347
Instances selection time: 5.0
Test time: 85.0
Accumulative iteration time: 1730.0
Weighted Recall: 0.8051948051948052
Weighted FalsePositiveRate: 0.032467532467532464
Kappa statistic: 0.7727272727272728
Training time: 5.0
		
Iteration: 45
Labeled set size: 1111
Unlabelled set size: 44
	
Mean region size: 16.264687693258846
Incorrectly Classified Instances: 20.0
Correctly Classified Instances: 80.0
Weighted Precision: 0.8230862677802122
Weighted AreaUnderROC: 0.9620184529275438
Root mean squared error: 0.2313788962697622
Relative absolute error: 24.699615846909865
Root relative squared error: 66.122027196082
Weighted TruePositiveRate: 0.8
Weighted MatthewsCorrelation: 0.7719094828568135
Weighted FMeasure: 0.7902014159969084
Iteration time: 13.0
Weighted AreaUnderPRC: 0.8541255462732388
Mean absolute error: 0.060488855135289725
Coverage of cases: 83.29004329004329
Instances selection time: 5.0
Test time: 90.0
Accumulative iteration time: 1743.0
Weighted Recall: 0.8
Weighted FalsePositiveRate: 0.03333333333333334
Kappa statistic: 0.7666666666666667
Training time: 8.0
		
Iteration: 46
Labeled set size: 1131
Unlabelled set size: 24
	
Mean region size: 16.264687693258846
Incorrectly Classified Instances: 19.826839826839826
Correctly Classified Instances: 80.17316017316017
Weighted Precision: 0.8229017435226819
Weighted AreaUnderROC: 0.9619025755389392
Root mean squared error: 0.23124589002172788
Relative absolute error: 24.643875070866827
Root relative squared error: 66.08401749471528
Weighted TruePositiveRate: 0.8017316017316017
Weighted MatthewsCorrelation: 0.7730720789100163
Weighted FMeasure: 0.7914118713220595
Iteration time: 7.0
Weighted AreaUnderPRC: 0.8546575560599599
Mean absolute error: 0.060352347112327176
Coverage of cases: 83.29004329004329
Instances selection time: 2.0
Test time: 86.0
Accumulative iteration time: 1750.0
Weighted Recall: 0.8017316017316017
Weighted FalsePositiveRate: 0.03304473304473305
Kappa statistic: 0.7686868686868685
Training time: 5.0
		
Time end:Sun Oct 08 04.45.12 EEST 2017