Sun Oct 08 04.53.22 EEST 2017
Dataset: segment
Test set size: 1155
Initial Labelled set size: 231
Initial Unlabelled set size: 924
Batch mode: QBestBatchMode
Batch size: 20
Classifiers: NaiveBayes-1cores
Scenario: PoolBasedSamplingScenario
Query strategy: LeastConfidentSamplingQueryStrategy-1cores
Time begining: Sun Oct 08 04.53.22 EEST 2017
		
Iteration: 1
Labeled set size: 231
Unlabelled set size: 924
	
Mean region size: 15.831787260358528
Incorrectly Classified Instances: 26.233766233766232
Correctly Classified Instances: 73.76623376623377
Weighted Precision: 0.7767580154382185
Weighted AreaUnderROC: 0.9574603174603173
Root mean squared error: 0.2615978113294251
Relative absolute error: 30.217482374100605
Root relative squared error: 74.75780148502803
Weighted TruePositiveRate: 0.7376623376623377
Weighted MatthewsCorrelation: 0.705471240949908
Weighted FMeasure: 0.7329263761853425
Iteration time: 65.0
Weighted AreaUnderPRC: 0.8225750692188655
Mean absolute error: 0.07400199765085894
Coverage of cases: 79.48051948051948
Instances selection time: 64.0
Test time: 90.0
Accumulative iteration time: 65.0
Weighted Recall: 0.7376623376623377
Weighted FalsePositiveRate: 0.043722943722943726
Kappa statistic: 0.693939393939394
Training time: 1.0
		
Iteration: 2
Labeled set size: 251
Unlabelled set size: 904
	
Mean region size: 15.831787260358515
Incorrectly Classified Instances: 21.645021645021647
Correctly Classified Instances: 78.35497835497836
Weighted Precision: 0.8061568710901701
Weighted AreaUnderROC: 0.9614539332721151
Root mean squared error: 0.2380167005488924
Relative absolute error: 25.23291941093168
Root relative squared error: 68.01893777065402
Weighted TruePositiveRate: 0.7835497835497836
Weighted MatthewsCorrelation: 0.7513052840227761
Weighted FMeasure: 0.7731427390017268
Iteration time: 63.0
Weighted AreaUnderPRC: 0.8404593568911013
Mean absolute error: 0.06179490467983295
Coverage of cases: 82.85714285714286
Instances selection time: 62.0
Test time: 86.0
Accumulative iteration time: 128.0
Weighted Recall: 0.7835497835497836
Weighted FalsePositiveRate: 0.03607503607503607
Kappa statistic: 0.7474747474747475
Training time: 1.0
		
Iteration: 3
Labeled set size: 271
Unlabelled set size: 884
	
Mean region size: 15.807050092764195
Incorrectly Classified Instances: 20.173160173160174
Correctly Classified Instances: 79.82683982683983
Weighted Precision: 0.8179295084648366
Weighted AreaUnderROC: 0.961462678735406
Root mean squared error: 0.23243793261689663
Relative absolute error: 24.059594493999093
Root relative squared error: 66.42467204086171
Weighted TruePositiveRate: 0.7982683982683982
Weighted MatthewsCorrelation: 0.7679077241944474
Weighted FMeasure: 0.7889015444925195
Iteration time: 61.0
Weighted AreaUnderPRC: 0.8399823111145117
Mean absolute error: 0.058921455903671496
Coverage of cases: 83.37662337662337
Instances selection time: 59.0
Test time: 86.0
Accumulative iteration time: 189.0
Weighted Recall: 0.7982683982683982
Weighted FalsePositiveRate: 0.03362193362193362
Kappa statistic: 0.7646464646464646
Training time: 2.0
		
Iteration: 4
Labeled set size: 291
Unlabelled set size: 864
	
Mean region size: 16.165739022881674
Incorrectly Classified Instances: 20.086580086580085
Correctly Classified Instances: 79.91341991341992
Weighted Precision: 0.8180875849232864
Weighted AreaUnderROC: 0.9616730071275527
Root mean squared error: 0.2279394064720702
Relative absolute error: 23.64218797207651
Root relative squared error: 65.13911111509904
Weighted TruePositiveRate: 0.7991341991341991
Weighted MatthewsCorrelation: 0.7681221944903337
Weighted FMeasure: 0.7878922585891657
Iteration time: 60.0
Weighted AreaUnderPRC: 0.8427995313545323
Mean absolute error: 0.057899235849983535
Coverage of cases: 84.5021645021645
Instances selection time: 58.0
Test time: 91.0
Accumulative iteration time: 249.0
Weighted Recall: 0.7991341991341991
Weighted FalsePositiveRate: 0.03347763347763348
Kappa statistic: 0.7656565656565657
Training time: 2.0
		
Iteration: 5
Labeled set size: 311
Unlabelled set size: 844
	
Mean region size: 16.079158936301585
Incorrectly Classified Instances: 19.047619047619047
Correctly Classified Instances: 80.95238095238095
Weighted Precision: 0.8308997040919102
Weighted AreaUnderROC: 0.9611880711880711
Root mean squared error: 0.22292413596820773
Relative absolute error: 22.724724820487825
Root relative squared error: 63.70587818850806
Weighted TruePositiveRate: 0.8095238095238095
Weighted MatthewsCorrelation: 0.7805035553910399
Weighted FMeasure: 0.7976243803506788
Iteration time: 59.0
Weighted AreaUnderPRC: 0.8432705260957559
Mean absolute error: 0.055652387315480625
Coverage of cases: 84.76190476190476
Instances selection time: 57.0
Test time: 85.0
Accumulative iteration time: 308.0
Weighted Recall: 0.8095238095238095
Weighted FalsePositiveRate: 0.031746031746031744
Kappa statistic: 0.7777777777777778
Training time: 2.0
		
Iteration: 6
Labeled set size: 331
Unlabelled set size: 824
	
Mean region size: 16.042053184910124
Incorrectly Classified Instances: 18.528138528138527
Correctly Classified Instances: 81.47186147186147
Weighted Precision: 0.8342574872572746
Weighted AreaUnderROC: 0.9621863658227295
Root mean squared error: 0.22021936778012163
Relative absolute error: 22.214554325504157
Root relative squared error: 62.93292629628702
Weighted TruePositiveRate: 0.8147186147186147
Weighted MatthewsCorrelation: 0.7863434304414935
Weighted FMeasure: 0.8036260075321651
Iteration time: 58.0
Weighted AreaUnderPRC: 0.8451204731233243
Mean absolute error: 0.05440299018490837
Coverage of cases: 84.93506493506493
Instances selection time: 56.0
Test time: 85.0
Accumulative iteration time: 366.0
Weighted Recall: 0.8147186147186147
Weighted FalsePositiveRate: 0.03088023088023088
Kappa statistic: 0.7838383838383839
Training time: 2.0
		
Iteration: 7
Labeled set size: 351
Unlabelled set size: 804
	
Mean region size: 15.86889301174996
Incorrectly Classified Instances: 18.26839826839827
Correctly Classified Instances: 81.73160173160173
Weighted Precision: 0.8377628301864882
Weighted AreaUnderROC: 0.9620092701910884
Root mean squared error: 0.21778822520752425
Relative absolute error: 21.61589865330357
Root relative squared error: 62.23816943689127
Weighted TruePositiveRate: 0.8173160173160173
Weighted MatthewsCorrelation: 0.7883568794350289
Weighted FMeasure: 0.8031244954421825
Iteration time: 57.0
Weighted AreaUnderPRC: 0.8410215043519003
Mean absolute error: 0.052936894661151826
Coverage of cases: 85.36796536796537
Instances selection time: 55.0
Test time: 84.0
Accumulative iteration time: 423.0
Weighted Recall: 0.8173160173160173
Weighted FalsePositiveRate: 0.030447330447330452
Kappa statistic: 0.7868686868686867
Training time: 2.0
		
Iteration: 8
Labeled set size: 371
Unlabelled set size: 784
	
Mean region size: 16.004947433518662
Incorrectly Classified Instances: 17.48917748917749
Correctly Classified Instances: 82.5108225108225
Weighted Precision: 0.8481217406198
Weighted AreaUnderROC: 0.96461235733963
Root mean squared error: 0.21307101977596957
Relative absolute error: 20.797399904722813
Root relative squared error: 60.89011569965194
Weighted TruePositiveRate: 0.8251082251082251
Weighted MatthewsCorrelation: 0.7985975224091081
Weighted FMeasure: 0.8117897608683229
Iteration time: 66.0
Weighted AreaUnderPRC: 0.8539950841902036
Mean absolute error: 0.05093240792993364
Coverage of cases: 86.4069264069264
Instances selection time: 65.0
Test time: 86.0
Accumulative iteration time: 489.0
Weighted Recall: 0.8251082251082251
Weighted FalsePositiveRate: 0.029148629148629146
Kappa statistic: 0.795959595959596
Training time: 1.0
		
Iteration: 9
Labeled set size: 391
Unlabelled set size: 764
	
Mean region size: 16.685219542362166
Incorrectly Classified Instances: 17.4025974025974
Correctly Classified Instances: 82.59740259740259
Weighted Precision: 0.8488807146694508
Weighted AreaUnderROC: 0.9657051029778303
Root mean squared error: 0.20186791920496577
Relative absolute error: 19.75314222546896
Root relative squared error: 57.68856304044703
Weighted TruePositiveRate: 0.825974025974026
Weighted MatthewsCorrelation: 0.7998871950842695
Weighted FMeasure: 0.8132233373326155
Iteration time: 52.0
Weighted AreaUnderPRC: 0.8591218486942043
Mean absolute error: 0.048375042184822144
Coverage of cases: 91.25541125541126
Instances selection time: 51.0
Test time: 87.0
Accumulative iteration time: 541.0
Weighted Recall: 0.825974025974026
Weighted FalsePositiveRate: 0.029004329004329005
Kappa statistic: 0.796969696969697
Training time: 1.0
		
Iteration: 10
Labeled set size: 411
Unlabelled set size: 744
	
Mean region size: 16.660482374767856
Incorrectly Classified Instances: 17.662337662337663
Correctly Classified Instances: 82.33766233766234
Weighted Precision: 0.8446625872645968
Weighted AreaUnderROC: 0.9643705452796363
Root mean squared error: 0.20485002220854015
Relative absolute error: 20.23921151041956
Root relative squared error: 58.540769957684496
Weighted TruePositiveRate: 0.8233766233766234
Weighted MatthewsCorrelation: 0.7957728849664526
Weighted FMeasure: 0.8092350868549794
Iteration time: 54.0
Weighted AreaUnderPRC: 0.8529199315251182
Mean absolute error: 0.04956541594388485
Coverage of cases: 91.08225108225108
Instances selection time: 52.0
Test time: 86.0
Accumulative iteration time: 595.0
Weighted Recall: 0.8233766233766234
Weighted FalsePositiveRate: 0.02943722943722944
Kappa statistic: 0.7939393939393938
Training time: 2.0
		
Iteration: 11
Labeled set size: 431
Unlabelled set size: 724
	
Mean region size: 17.006802721088203
Incorrectly Classified Instances: 16.96969696969697
Correctly Classified Instances: 83.03030303030303
Weighted Precision: 0.8518504543144632
Weighted AreaUnderROC: 0.964274345183436
Root mean squared error: 0.19804896900898913
Relative absolute error: 19.652960186685302
Root relative squared error: 56.59720711823516
Weighted TruePositiveRate: 0.8303030303030303
Weighted MatthewsCorrelation: 0.8044711508026039
Weighted FMeasure: 0.8176536062969594
Iteration time: 51.0
Weighted AreaUnderPRC: 0.8511631805532885
Mean absolute error: 0.04812969841637237
Coverage of cases: 91.16883116883118
Instances selection time: 49.0
Test time: 85.0
Accumulative iteration time: 646.0
Weighted Recall: 0.8303030303030303
Weighted FalsePositiveRate: 0.02828282828282828
Kappa statistic: 0.8020202020202021
Training time: 2.0
		
Iteration: 12
Labeled set size: 451
Unlabelled set size: 704
	
Mean region size: 16.697588126159314
Incorrectly Classified Instances: 17.575757575757574
Correctly Classified Instances: 82.42424242424242
Weighted Precision: 0.8475483671685637
Weighted AreaUnderROC: 0.964326380690017
Root mean squared error: 0.19807771700466054
Relative absolute error: 19.475511359512076
Root relative squared error: 56.60542254229613
Weighted TruePositiveRate: 0.8242424242424242
Weighted MatthewsCorrelation: 0.7984202400836797
Weighted FMeasure: 0.8128847481084087
Iteration time: 54.0
Weighted AreaUnderPRC: 0.8511321876051603
Mean absolute error: 0.04769512986002977
Coverage of cases: 90.99567099567099
Instances selection time: 52.0
Test time: 86.0
Accumulative iteration time: 700.0
Weighted Recall: 0.8242424242424242
Weighted FalsePositiveRate: 0.029292929292929294
Kappa statistic: 0.794949494949495
Training time: 2.0
		
Iteration: 13
Labeled set size: 471
Unlabelled set size: 684
	
Mean region size: 16.709956709956472
Incorrectly Classified Instances: 17.835497835497836
Correctly Classified Instances: 82.16450216450217
Weighted Precision: 0.8435310796117059
Weighted AreaUnderROC: 0.9641777078140715
Root mean squared error: 0.20136043582830113
Relative absolute error: 19.942391925670822
Root relative squared error: 57.54353758577351
Weighted TruePositiveRate: 0.8216450216450216
Weighted MatthewsCorrelation: 0.7933081995014644
Weighted FMeasure: 0.806213345493789
Iteration time: 123.0
Weighted AreaUnderPRC: 0.8513496786610124
Mean absolute error: 0.04883851083837773
Coverage of cases: 90.99567099567099
Instances selection time: 118.0
Test time: 219.0
Accumulative iteration time: 823.0
Weighted Recall: 0.8216450216450216
Weighted FalsePositiveRate: 0.02972582972582973
Kappa statistic: 0.7919191919191918
Training time: 5.0
		
Iteration: 14
Labeled set size: 491
Unlabelled set size: 664
	
Mean region size: 16.846011131725163
Incorrectly Classified Instances: 18.26839826839827
Correctly Classified Instances: 81.73160173160173
Weighted Precision: 0.840236131440016
Weighted AreaUnderROC: 0.9635921990467446
Root mean squared error: 0.20155265880684517
Relative absolute error: 19.992263381098674
Root relative squared error: 57.59846987743844
Weighted TruePositiveRate: 0.8173160173160173
Weighted MatthewsCorrelation: 0.7881409297778116
Weighted FMeasure: 0.8008407592883707
Iteration time: 47.0
Weighted AreaUnderPRC: 0.8510736372410337
Mean absolute error: 0.04896064501493574
Coverage of cases: 91.51515151515152
Instances selection time: 45.0
Test time: 96.0
Accumulative iteration time: 870.0
Weighted Recall: 0.8173160173160173
Weighted FalsePositiveRate: 0.030447330447330445
Kappa statistic: 0.7868686868686867
Training time: 2.0
		
Iteration: 15
Labeled set size: 511
Unlabelled set size: 644
	
Mean region size: 16.932591218305255
Incorrectly Classified Instances: 18.00865800865801
Correctly Classified Instances: 81.991341991342
Weighted Precision: 0.8428076594278482
Weighted AreaUnderROC: 0.9637137609864884
Root mean squared error: 0.20107756183591013
Relative absolute error: 19.96690208406422
Root relative squared error: 57.462699609106295
Weighted TruePositiveRate: 0.8199134199134199
Weighted MatthewsCorrelation: 0.7913378962177045
Weighted FMeasure: 0.80382715108789
Iteration time: 48.0
Weighted AreaUnderPRC: 0.8511531779947409
Mean absolute error: 0.04889853571607585
Coverage of cases: 91.68831168831169
Instances selection time: 46.0
Test time: 85.0
Accumulative iteration time: 918.0
Weighted Recall: 0.8199134199134199
Weighted FalsePositiveRate: 0.03001443001443001
Kappa statistic: 0.7898989898989899
Training time: 2.0
		
Iteration: 16
Labeled set size: 531
Unlabelled set size: 624
	
Mean region size: 16.907854050710938
Incorrectly Classified Instances: 17.748917748917748
Correctly Classified Instances: 82.25108225108225
Weighted Precision: 0.8474492695424851
Weighted AreaUnderROC: 0.9637238182692729
Root mean squared error: 0.2005603184654375
Relative absolute error: 19.809533882933508
Root relative squared error: 57.314885003881834
Weighted TruePositiveRate: 0.8225108225108225
Weighted MatthewsCorrelation: 0.7954233782223571
Weighted FMeasure: 0.8073504108339812
Iteration time: 49.0
Weighted AreaUnderPRC: 0.8512884153933196
Mean absolute error: 0.04851314420310268
Coverage of cases: 91.68831168831169
Instances selection time: 47.0
Test time: 85.0
Accumulative iteration time: 967.0
Weighted Recall: 0.8225108225108225
Weighted FalsePositiveRate: 0.02958152958152958
Kappa statistic: 0.7929292929292928
Training time: 2.0
		
Iteration: 17
Labeled set size: 551
Unlabelled set size: 604
	
Mean region size: 16.858379715522318
Incorrectly Classified Instances: 18.26839826839827
Correctly Classified Instances: 81.73160173160173
Weighted Precision: 0.8412665414898816
Weighted AreaUnderROC: 0.9634885653067471
Root mean squared error: 0.20346545124430476
Relative absolute error: 20.229426556594092
Root relative squared error: 58.145095847262006
Weighted TruePositiveRate: 0.8173160173160173
Weighted MatthewsCorrelation: 0.7885787021433159
Weighted FMeasure: 0.8010922129948906
Iteration time: 43.0
Weighted AreaUnderPRC: 0.8498989958119169
Mean absolute error: 0.04954145279165921
Coverage of cases: 91.6017316017316
Instances selection time: 41.0
Test time: 85.0
Accumulative iteration time: 1010.0
Weighted Recall: 0.8173160173160173
Weighted FalsePositiveRate: 0.030447330447330445
Kappa statistic: 0.7868686868686867
Training time: 2.0
		
Iteration: 18
Labeled set size: 571
Unlabelled set size: 584
	
Mean region size: 16.771799628942233
Incorrectly Classified Instances: 17.92207792207792
Correctly Classified Instances: 82.07792207792208
Weighted Precision: 0.8475837472025679
Weighted AreaUnderROC: 0.9641986969259697
Root mean squared error: 0.20194022300424486
Relative absolute error: 19.930615043156507
Root relative squared error: 57.709225572161834
Weighted TruePositiveRate: 0.8207792207792208
Weighted MatthewsCorrelation: 0.7932388449468667
Weighted FMeasure: 0.8040850407961819
Iteration time: 44.0
Weighted AreaUnderPRC: 0.8532971878387995
Mean absolute error: 0.048809669493444716
Coverage of cases: 91.77489177489177
Instances selection time: 42.0
Test time: 84.0
Accumulative iteration time: 1054.0
Weighted Recall: 0.8207792207792208
Weighted FalsePositiveRate: 0.02987012987012987
Kappa statistic: 0.790909090909091
Training time: 2.0
		
Iteration: 19
Labeled set size: 591
Unlabelled set size: 564
	
Mean region size: 16.784168212739388
Incorrectly Classified Instances: 18.181818181818183
Correctly Classified Instances: 81.81818181818181
Weighted Precision: 0.8413681237523224
Weighted AreaUnderROC: 0.9635541562814292
Root mean squared error: 0.20611350254744204
Relative absolute error: 20.515801409531942
Root relative squared error: 58.90183953955847
Weighted TruePositiveRate: 0.8181818181818182
Weighted MatthewsCorrelation: 0.789051187583719
Weighted FMeasure: 0.8012326086123346
Iteration time: 41.0
Weighted AreaUnderPRC: 0.8510943931930826
Mean absolute error: 0.050242778962119254
Coverage of cases: 91.16883116883118
Instances selection time: 39.0
Test time: 84.0
Accumulative iteration time: 1095.0
Weighted Recall: 0.8181818181818182
Weighted FalsePositiveRate: 0.030303030303030304
Kappa statistic: 0.7878787878787878
Training time: 2.0
		
Iteration: 20
Labeled set size: 611
Unlabelled set size: 544
	
Mean region size: 16.32653061224467
Incorrectly Classified Instances: 18.441558441558442
Correctly Classified Instances: 81.55844155844156
Weighted Precision: 0.8390891999914556
Weighted AreaUnderROC: 0.9655721719358085
Root mean squared error: 0.21587053046393853
Relative absolute error: 21.393757503990063
Root relative squared error: 61.69014251640098
Weighted TruePositiveRate: 0.8155844155844156
Weighted MatthewsCorrelation: 0.7858726721333865
Weighted FMeasure: 0.7976789940481295
Iteration time: 40.0
Weighted AreaUnderPRC: 0.8584212180792639
Mean absolute error: 0.052392875519975894
Coverage of cases: 89.26406926406926
Instances selection time: 37.0
Test time: 85.0
Accumulative iteration time: 1135.0
Weighted Recall: 0.8155844155844156
Weighted FalsePositiveRate: 0.03073593073593073
Kappa statistic: 0.7848484848484849
Training time: 3.0
		
Iteration: 21
Labeled set size: 631
Unlabelled set size: 524
	
Mean region size: 16.35126777983898
Incorrectly Classified Instances: 18.354978354978353
Correctly Classified Instances: 81.64502164502164
Weighted Precision: 0.8385303048213293
Weighted AreaUnderROC: 0.965632078359351
Root mean squared error: 0.21510211377728333
Relative absolute error: 21.35502011084159
Root relative squared error: 61.47054915731736
Weighted TruePositiveRate: 0.8164502164502164
Weighted MatthewsCorrelation: 0.786448749413646
Weighted FMeasure: 0.7986022435132988
Iteration time: 38.0
Weighted AreaUnderPRC: 0.8591240503651539
Mean absolute error: 0.05229800843471433
Coverage of cases: 89.35064935064935
Instances selection time: 35.0
Test time: 86.0
Accumulative iteration time: 1173.0
Weighted Recall: 0.8164502164502164
Weighted FalsePositiveRate: 0.030591630591630593
Kappa statistic: 0.7858585858585857
Training time: 3.0
		
Iteration: 22
Labeled set size: 651
Unlabelled set size: 504
	
Mean region size: 16.388373531230442
Incorrectly Classified Instances: 18.354978354978353
Correctly Classified Instances: 81.64502164502164
Weighted Precision: 0.8408378951003744
Weighted AreaUnderROC: 0.9658437185709914
Root mean squared error: 0.2145939512291281
Relative absolute error: 21.362165247508337
Root relative squared error: 61.32532961322387
Weighted TruePositiveRate: 0.8164502164502164
Weighted MatthewsCorrelation: 0.7878497523231958
Weighted FMeasure: 0.800180255931944
Iteration time: 37.0
Weighted AreaUnderPRC: 0.858953039817855
Mean absolute error: 0.052315506728592066
Coverage of cases: 89.87012987012987
Instances selection time: 34.0
Test time: 87.0
Accumulative iteration time: 1210.0
Weighted Recall: 0.8164502164502164
Weighted FalsePositiveRate: 0.030591630591630593
Kappa statistic: 0.7858585858585857
Training time: 3.0
		
Iteration: 23
Labeled set size: 671
Unlabelled set size: 484
	
Mean region size: 16.264687693258907
Incorrectly Classified Instances: 18.78787878787879
Correctly Classified Instances: 81.21212121212122
Weighted Precision: 0.8342753322345807
Weighted AreaUnderROC: 0.9649424985788624
Root mean squared error: 0.2180589064940793
Relative absolute error: 21.79169349606407
Root relative squared error: 62.315523057638934
Weighted TruePositiveRate: 0.8121212121212121
Weighted MatthewsCorrelation: 0.7820347340303286
Weighted FMeasure: 0.795474651091511
Iteration time: 36.0
Weighted AreaUnderPRC: 0.856020219645161
Mean absolute error: 0.053367412643422436
Coverage of cases: 88.91774891774892
Instances selection time: 33.0
Test time: 86.0
Accumulative iteration time: 1246.0
Weighted Recall: 0.8121212121212121
Weighted FalsePositiveRate: 0.031313131313131314
Kappa statistic: 0.7808080808080807
Training time: 3.0
		
Iteration: 24
Labeled set size: 691
Unlabelled set size: 464
	
Mean region size: 16.75943104514511
Incorrectly Classified Instances: 19.393939393939394
Correctly Classified Instances: 80.60606060606061
Weighted Precision: 0.8272505582573321
Weighted AreaUnderROC: 0.9621697494424769
Root mean squared error: 0.22106708048627885
Relative absolute error: 22.836743529562934
Root relative squared error: 63.17518038045225
Weighted TruePositiveRate: 0.806060606060606
Weighted MatthewsCorrelation: 0.7754609848120715
Weighted FMeasure: 0.7914710469574012
Iteration time: 35.0
Weighted AreaUnderPRC: 0.8464217373083022
Mean absolute error: 0.055926718847909465
Coverage of cases: 88.91774891774892
Instances selection time: 32.0
Test time: 86.0
Accumulative iteration time: 1281.0
Weighted Recall: 0.806060606060606
Weighted FalsePositiveRate: 0.032323232323232316
Kappa statistic: 0.7737373737373736
Training time: 3.0
		
Iteration: 25
Labeled set size: 711
Unlabelled set size: 444
	
Mean region size: 16.75943104514511
Incorrectly Classified Instances: 19.653679653679653
Correctly Classified Instances: 80.34632034632034
Weighted Precision: 0.8243316820705152
Weighted AreaUnderROC: 0.9622305304123485
Root mean squared error: 0.22239355444215392
Relative absolute error: 23.07282743450389
Root relative squared error: 63.554251887833836
Weighted TruePositiveRate: 0.8034632034632034
Weighted MatthewsCorrelation: 0.7725961394519162
Weighted FMeasure: 0.7893093931042412
Iteration time: 33.0
Weighted AreaUnderPRC: 0.8471737403344867
Mean absolute error: 0.05650488351307099
Coverage of cases: 88.48484848484848
Instances selection time: 30.0
Test time: 86.0
Accumulative iteration time: 1314.0
Weighted Recall: 0.8034632034632034
Weighted FalsePositiveRate: 0.032756132756132754
Kappa statistic: 0.7707070707070707
Training time: 3.0
		
Iteration: 26
Labeled set size: 731
Unlabelled set size: 424
	
Mean region size: 16.796536796536568
Incorrectly Classified Instances: 19.653679653679653
Correctly Classified Instances: 80.34632034632034
Weighted Precision: 0.8253099551321587
Weighted AreaUnderROC: 0.962462285189558
Root mean squared error: 0.22198777689273091
Relative absolute error: 23.052929196244804
Root relative squared error: 63.43829129423144
Weighted TruePositiveRate: 0.8034632034632034
Weighted MatthewsCorrelation: 0.7730081113980762
Weighted FMeasure: 0.789490311810811
Iteration time: 32.0
Weighted AreaUnderPRC: 0.8477774502190074
Mean absolute error: 0.05645615313366099
Coverage of cases: 89.00432900432901
Instances selection time: 29.0
Test time: 88.0
Accumulative iteration time: 1346.0
Weighted Recall: 0.8034632034632034
Weighted FalsePositiveRate: 0.03275613275613276
Kappa statistic: 0.7707070707070707
Training time: 3.0
		
Iteration: 27
Labeled set size: 751
Unlabelled set size: 404
	
Mean region size: 16.8707482993195
Incorrectly Classified Instances: 19.74025974025974
Correctly Classified Instances: 80.25974025974025
Weighted Precision: 0.8261673423603008
Weighted AreaUnderROC: 0.9627036599763871
Root mean squared error: 0.22067788094623417
Relative absolute error: 22.943392847974277
Root relative squared error: 63.06395734764146
Weighted TruePositiveRate: 0.8025974025974026
Weighted MatthewsCorrelation: 0.7727852656905948
Weighted FMeasure: 0.7891876218583115
Iteration time: 31.0
Weighted AreaUnderPRC: 0.8483690916548328
Mean absolute error: 0.05618790085218214
Coverage of cases: 89.26406926406926
Instances selection time: 28.0
Test time: 87.0
Accumulative iteration time: 1377.0
Weighted Recall: 0.8025974025974026
Weighted FalsePositiveRate: 0.0329004329004329
Kappa statistic: 0.7696969696969697
Training time: 3.0
		
Iteration: 28
Labeled set size: 771
Unlabelled set size: 384
	
Mean region size: 16.92022263450813
Incorrectly Classified Instances: 19.393939393939394
Correctly Classified Instances: 80.60606060606061
Weighted Precision: 0.8347335341094507
Weighted AreaUnderROC: 0.9634601425510515
Root mean squared error: 0.2179286262057743
Relative absolute error: 22.673474829540872
Root relative squared error: 62.278292364151774
Weighted TruePositiveRate: 0.806060606060606
Weighted MatthewsCorrelation: 0.7787152889767973
Weighted FMeasure: 0.7936469193381601
Iteration time: 30.0
Weighted AreaUnderPRC: 0.8508720961399449
Mean absolute error: 0.05552687713356973
Coverage of cases: 89.52380952380952
Instances selection time: 27.0
Test time: 86.0
Accumulative iteration time: 1407.0
Weighted Recall: 0.806060606060606
Weighted FalsePositiveRate: 0.03232323232323232
Kappa statistic: 0.7737373737373736
Training time: 3.0
		
Iteration: 29
Labeled set size: 791
Unlabelled set size: 364
	
Mean region size: 17.217068645639852
Incorrectly Classified Instances: 20.346320346320347
Correctly Classified Instances: 79.65367965367966
Weighted Precision: 0.8249197745618492
Weighted AreaUnderROC: 0.9624141851414578
Root mean squared error: 0.22212149352405494
Relative absolute error: 23.616421557766515
Root relative squared error: 63.47650400453268
Weighted TruePositiveRate: 0.7965367965367965
Weighted MatthewsCorrelation: 0.7685146725821689
Weighted FMeasure: 0.7864526372506547
Iteration time: 29.0
Weighted AreaUnderPRC: 0.8469186823589419
Mean absolute error: 0.05783613442718355
Coverage of cases: 89.35064935064935
Instances selection time: 25.0
Test time: 87.0
Accumulative iteration time: 1436.0
Weighted Recall: 0.7965367965367965
Weighted FalsePositiveRate: 0.03391053391053391
Kappa statistic: 0.7626262626262625
Training time: 4.0
		
Iteration: 30
Labeled set size: 811
Unlabelled set size: 344
	
Mean region size: 17.25417439703132
Incorrectly Classified Instances: 20.173160173160174
Correctly Classified Instances: 79.82683982683983
Weighted Precision: 0.8273450275551607
Weighted AreaUnderROC: 0.9625952162315798
Root mean squared error: 0.22279826138443795
Relative absolute error: 23.762329842463192
Root relative squared error: 63.669906529962255
Weighted TruePositiveRate: 0.7982683982683982
Weighted MatthewsCorrelation: 0.7705599902770819
Weighted FMeasure: 0.7878833235748545
Iteration time: 28.0
Weighted AreaUnderPRC: 0.8463362487626592
Mean absolute error: 0.05819346083868561
Coverage of cases: 89.0909090909091
Instances selection time: 25.0
Test time: 84.0
Accumulative iteration time: 1464.0
Weighted Recall: 0.7982683982683982
Weighted FalsePositiveRate: 0.033621933621933615
Kappa statistic: 0.7646464646464646
Training time: 3.0
		
Iteration: 31
Labeled set size: 831
Unlabelled set size: 324
	
Mean region size: 17.278911564625627
Incorrectly Classified Instances: 20.346320346320347
Correctly Classified Instances: 79.65367965367966
Weighted Precision: 0.8262263794654076
Weighted AreaUnderROC: 0.9627915518824609
Root mean squared error: 0.221586055770812
Relative absolute error: 23.552666662223768
Root relative squared error: 63.32348992134481
Weighted TruePositiveRate: 0.7965367965367965
Weighted MatthewsCorrelation: 0.768821065626365
Weighted FMeasure: 0.7863679163920538
Iteration time: 26.0
Weighted AreaUnderPRC: 0.8469659322652126
Mean absolute error: 0.05767999998911968
Coverage of cases: 89.52380952380952
Instances selection time: 23.0
Test time: 86.0
Accumulative iteration time: 1490.0
Weighted Recall: 0.7965367965367965
Weighted FalsePositiveRate: 0.03391053391053391
Kappa statistic: 0.7626262626262625
Training time: 3.0
		
Iteration: 32
Labeled set size: 851
Unlabelled set size: 304
	
Mean region size: 17.328385899814254
Incorrectly Classified Instances: 20.0
Correctly Classified Instances: 80.0
Weighted Precision: 0.828927524117468
Weighted AreaUnderROC: 0.9630757794394158
Root mean squared error: 0.22017501877308726
Relative absolute error: 23.372045159791785
Root relative squared error: 62.92025251187314
Weighted TruePositiveRate: 0.8
Weighted MatthewsCorrelation: 0.7725648439867466
Weighted FMeasure: 0.7897114280044242
Iteration time: 25.0
Weighted AreaUnderPRC: 0.8467501995851479
Mean absolute error: 0.057237661615816865
Coverage of cases: 89.78354978354979
Instances selection time: 22.0
Test time: 89.0
Accumulative iteration time: 1515.0
Weighted Recall: 0.8
Weighted FalsePositiveRate: 0.033333333333333326
Kappa statistic: 0.7666666666666667
Training time: 3.0
		
Iteration: 33
Labeled set size: 871
Unlabelled set size: 284
	
Mean region size: 17.241805813234166
Incorrectly Classified Instances: 19.826839826839826
Correctly Classified Instances: 80.17316017316017
Weighted Precision: 0.8294436520755784
Weighted AreaUnderROC: 0.9640640167912895
Root mean squared error: 0.21896004591829965
Relative absolute error: 23.12272115311235
Root relative squared error: 62.57304509822421
Weighted TruePositiveRate: 0.8017316017316017
Weighted MatthewsCorrelation: 0.7740147001003023
Weighted FMeasure: 0.7909711327261822
Iteration time: 24.0
Weighted AreaUnderPRC: 0.8543516664787991
Mean absolute error: 0.05662707221170396
Coverage of cases: 90.04329004329004
Instances selection time: 20.0
Test time: 85.0
Accumulative iteration time: 1539.0
Weighted Recall: 0.8017316017316017
Weighted FalsePositiveRate: 0.03304473304473304
Kappa statistic: 0.7686868686868685
Training time: 4.0
		
Iteration: 34
Labeled set size: 891
Unlabelled set size: 264
	
Mean region size: 17.25417439703132
Incorrectly Classified Instances: 19.393939393939394
Correctly Classified Instances: 80.60606060606061
Weighted Precision: 0.8340039206999444
Weighted AreaUnderROC: 0.9649289431107612
Root mean squared error: 0.21651903785070473
Relative absolute error: 22.682832095855137
Root relative squared error: 61.875468938801326
Weighted TruePositiveRate: 0.806060606060606
Weighted MatthewsCorrelation: 0.7788543830267922
Weighted FMeasure: 0.794743597539852
Iteration time: 23.0
Weighted AreaUnderPRC: 0.8571619238807946
Mean absolute error: 0.05554979288780874
Coverage of cases: 90.21645021645021
Instances selection time: 19.0
Test time: 85.0
Accumulative iteration time: 1562.0
Weighted Recall: 0.806060606060606
Weighted FalsePositiveRate: 0.032323232323232316
Kappa statistic: 0.7737373737373736
Training time: 4.0
		
Iteration: 35
Labeled set size: 911
Unlabelled set size: 244
	
Mean region size: 16.21521335807035
Incorrectly Classified Instances: 20.25974025974026
Correctly Classified Instances: 79.74025974025975
Weighted Precision: 0.8184508380228986
Weighted AreaUnderROC: 0.963547597183961
Root mean squared error: 0.23172242410412625
Relative absolute error: 24.44747903603502
Root relative squared error: 66.2201984518561
Weighted TruePositiveRate: 0.7974025974025974
Weighted MatthewsCorrelation: 0.7665005728786609
Weighted FMeasure: 0.7844639332737585
Iteration time: 20.0
Weighted AreaUnderPRC: 0.8595121881301986
Mean absolute error: 0.05987137723110643
Coverage of cases: 83.54978354978356
Instances selection time: 16.0
Test time: 86.0
Accumulative iteration time: 1582.0
Weighted Recall: 0.7974025974025974
Weighted FalsePositiveRate: 0.033766233766233764
Kappa statistic: 0.7636363636363636
Training time: 4.0
		
Iteration: 36
Labeled set size: 931
Unlabelled set size: 224
	
Mean region size: 16.338899196041897
Incorrectly Classified Instances: 20.25974025974026
Correctly Classified Instances: 79.74025974025975
Weighted Precision: 0.8280378224773425
Weighted AreaUnderROC: 0.9661812934540208
Root mean squared error: 0.23128311475405322
Relative absolute error: 24.441051675835187
Root relative squared error: 66.09465534804964
Weighted TruePositiveRate: 0.7974025974025974
Weighted MatthewsCorrelation: 0.7691530656887818
Weighted FMeasure: 0.7844690944741869
Iteration time: 19.0
Weighted AreaUnderPRC: 0.8653158284019106
Mean absolute error: 0.05985563675714765
Coverage of cases: 83.8961038961039
Instances selection time: 15.0
Test time: 87.0
Accumulative iteration time: 1601.0
Weighted Recall: 0.7974025974025974
Weighted FalsePositiveRate: 0.033766233766233764
Kappa statistic: 0.7636363636363636
Training time: 4.0
		
Iteration: 37
Labeled set size: 951
Unlabelled set size: 204
	
Mean region size: 16.141001855287403
Incorrectly Classified Instances: 20.432900432900432
Correctly Classified Instances: 79.56709956709956
Weighted Precision: 0.8270163027103569
Weighted AreaUnderROC: 0.9664301018846475
Root mean squared error: 0.23046642947224075
Relative absolute error: 24.19826729734675
Root relative squared error: 65.86126808894679
Weighted TruePositiveRate: 0.7956709956709956
Weighted MatthewsCorrelation: 0.7660661921862267
Weighted FMeasure: 0.7801407722118274
Iteration time: 18.0
Weighted AreaUnderPRC: 0.865508246405024
Mean absolute error: 0.0592610627690127
Coverage of cases: 83.98268398268398
Instances selection time: 14.0
Test time: 86.0
Accumulative iteration time: 1619.0
Weighted Recall: 0.7956709956709956
Weighted FalsePositiveRate: 0.03405483405483405
Kappa statistic: 0.7616161616161614
Training time: 4.0
		
Iteration: 38
Labeled set size: 971
Unlabelled set size: 184
	
Mean region size: 16.141001855287403
Incorrectly Classified Instances: 20.346320346320347
Correctly Classified Instances: 79.65367965367966
Weighted Precision: 0.8276291102454117
Weighted AreaUnderROC: 0.9664475928112292
Root mean squared error: 0.23041616597424716
Relative absolute error: 24.19601216839369
Root relative squared error: 65.84690409795675
Weighted TruePositiveRate: 0.7965367965367965
Weighted MatthewsCorrelation: 0.7669714599302401
Weighted FMeasure: 0.7809468574767054
Iteration time: 42.0
Weighted AreaUnderPRC: 0.8657181347367784
Mean absolute error: 0.0592555400042297
Coverage of cases: 83.98268398268398
Instances selection time: 31.0
Test time: 200.0
Accumulative iteration time: 1661.0
Weighted Recall: 0.7965367965367965
Weighted FalsePositiveRate: 0.03391053391053391
Kappa statistic: 0.7626262626262625
Training time: 11.0
		
Iteration: 39
Labeled set size: 991
Unlabelled set size: 164
	
Mean region size: 16.091527520098786
Incorrectly Classified Instances: 20.173160173160174
Correctly Classified Instances: 79.82683982683983
Weighted Precision: 0.8291729008318871
Weighted AreaUnderROC: 0.9664886964886967
Root mean squared error: 0.23027012826297305
Relative absolute error: 24.12936829268971
Root relative squared error: 65.80517034577711
Weighted TruePositiveRate: 0.7982683982683982
Weighted MatthewsCorrelation: 0.7688989943414951
Weighted FMeasure: 0.7825469999903641
Iteration time: 15.0
Weighted AreaUnderPRC: 0.865815361474826
Mean absolute error: 0.05909233051270975
Coverage of cases: 83.72294372294373
Instances selection time: 11.0
Test time: 87.0
Accumulative iteration time: 1676.0
Weighted Recall: 0.7982683982683982
Weighted FalsePositiveRate: 0.033621933621933615
Kappa statistic: 0.7646464646464646
Training time: 4.0
		
Iteration: 40
Labeled set size: 1011
Unlabelled set size: 144
	
Mean region size: 16.116264687693096
Incorrectly Classified Instances: 20.346320346320347
Correctly Classified Instances: 79.65367965367966
Weighted Precision: 0.8236986865390207
Weighted AreaUnderROC: 0.9663304036031307
Root mean squared error: 0.22995213777635737
Relative absolute error: 24.11091204562812
Root relative squared error: 65.71429699499588
Weighted TruePositiveRate: 0.7965367965367965
Weighted MatthewsCorrelation: 0.7660497461320568
Weighted FMeasure: 0.7810302917413616
Iteration time: 13.0
Weighted AreaUnderPRC: 0.8659444772029443
Mean absolute error: 0.05904713154031401
Coverage of cases: 83.8961038961039
Instances selection time: 9.0
Test time: 87.0
Accumulative iteration time: 1689.0
Weighted Recall: 0.7965367965367965
Weighted FalsePositiveRate: 0.03391053391053391
Kappa statistic: 0.7626262626262625
Training time: 4.0
		
Iteration: 41
Labeled set size: 1031
Unlabelled set size: 124
	
Mean region size: 16.141001855287406
Incorrectly Classified Instances: 20.346320346320347
Correctly Classified Instances: 79.65367965367966
Weighted Precision: 0.8222030125880038
Weighted AreaUnderROC: 0.9663548909003454
Root mean squared error: 0.2300765663531848
Relative absolute error: 24.104970268354013
Root relative squared error: 65.74985542263813
Weighted TruePositiveRate: 0.7965367965367965
Weighted MatthewsCorrelation: 0.7658041270847894
Weighted FMeasure: 0.7813083382267533
Iteration time: 12.0
Weighted AreaUnderPRC: 0.8663722637979924
Mean absolute error: 0.059032580249030485
Coverage of cases: 83.8961038961039
Instances selection time: 8.0
Test time: 87.0
Accumulative iteration time: 1701.0
Weighted Recall: 0.7965367965367965
Weighted FalsePositiveRate: 0.03391053391053391
Kappa statistic: 0.7626262626262625
Training time: 4.0
		
Iteration: 42
Labeled set size: 1051
Unlabelled set size: 104
	
Mean region size: 16.141001855287406
Incorrectly Classified Instances: 20.173160173160174
Correctly Classified Instances: 79.82683982683983
Weighted Precision: 0.8291729008318871
Weighted AreaUnderROC: 0.9663339017884472
Root mean squared error: 0.2306826766970606
Relative absolute error: 24.206597165115323
Root relative squared error: 65.92306588084196
Weighted TruePositiveRate: 0.7982683982683982
Weighted MatthewsCorrelation: 0.7688989943414951
Weighted FMeasure: 0.7825469999903641
Iteration time: 12.0
Weighted AreaUnderPRC: 0.8662917560337551
Mean absolute error: 0.059281462445180635
Coverage of cases: 83.80952380952381
Instances selection time: 7.0
Test time: 85.0
Accumulative iteration time: 1713.0
Weighted Recall: 0.7982683982683982
Weighted FalsePositiveRate: 0.033621933621933615
Kappa statistic: 0.7646464646464646
Training time: 5.0
		
Iteration: 43
Labeled set size: 1071
Unlabelled set size: 84
	
Mean region size: 16.165739022881716
Incorrectly Classified Instances: 20.25974025974026
Correctly Classified Instances: 79.74025974025975
Weighted Precision: 0.8288349092307362
Weighted AreaUnderROC: 0.9662333289606017
Root mean squared error: 0.23070021142955394
Relative absolute error: 24.198262586084528
Root relative squared error: 65.92807684803687
Weighted TruePositiveRate: 0.7974025974025974
Weighted MatthewsCorrelation: 0.7681367772780325
Weighted FMeasure: 0.7818758846954467
Iteration time: 10.0
Weighted AreaUnderPRC: 0.8657126673900913
Mean absolute error: 0.059261051231227664
Coverage of cases: 83.8961038961039
Instances selection time: 5.0
Test time: 85.0
Accumulative iteration time: 1723.0
Weighted Recall: 0.7974025974025974
Weighted FalsePositiveRate: 0.033766233766233764
Kappa statistic: 0.7636363636363636
Training time: 5.0
		
Iteration: 44
Labeled set size: 1091
Unlabelled set size: 64
	
Mean region size: 16.141001855287403
Incorrectly Classified Instances: 20.432900432900432
Correctly Classified Instances: 79.56709956709956
Weighted Precision: 0.828375024309752
Weighted AreaUnderROC: 0.9651917442826534
Root mean squared error: 0.23152714689363812
Relative absolute error: 24.365289838429714
Root relative squared error: 66.16439334071228
Weighted TruePositiveRate: 0.7956709956709956
Weighted MatthewsCorrelation: 0.7667167876882984
Weighted FMeasure: 0.7806387388472792
Iteration time: 9.0
Weighted AreaUnderPRC: 0.8595346630678381
Mean absolute error: 0.05967009756350159
Coverage of cases: 83.72294372294373
Instances selection time: 4.0
Test time: 85.0
Accumulative iteration time: 1732.0
Weighted Recall: 0.7956709956709956
Weighted FalsePositiveRate: 0.03405483405483406
Kappa statistic: 0.7616161616161614
Training time: 5.0
		
Iteration: 45
Labeled set size: 1111
Unlabelled set size: 44
	
Mean region size: 16.116264687693096
Incorrectly Classified Instances: 20.692640692640694
Correctly Classified Instances: 79.3073593073593
Weighted Precision: 0.8228542541946979
Weighted AreaUnderROC: 0.9651375224102497
Root mean squared error: 0.23143725511091884
Relative absolute error: 24.347109503346164
Root relative squared error: 66.13870462407695
Weighted TruePositiveRate: 0.793073593073593
Weighted MatthewsCorrelation: 0.7632578090690945
Weighted FMeasure: 0.7785972745934997
Iteration time: 8.0
Weighted AreaUnderPRC: 0.8580270995029496
Mean absolute error: 0.05962557429390923
Coverage of cases: 83.63636363636364
Instances selection time: 3.0
Test time: 86.0
Accumulative iteration time: 1740.0
Weighted Recall: 0.793073593073593
Weighted FalsePositiveRate: 0.034487734487734484
Kappa statistic: 0.7585858585858586
Training time: 5.0
		
Iteration: 46
Labeled set size: 1131
Unlabelled set size: 24
	
Mean region size: 16.06679035250446
Incorrectly Classified Instances: 20.77922077922078
Correctly Classified Instances: 79.22077922077922
Weighted Precision: 0.8111583560435122
Weighted AreaUnderROC: 0.9661817307271852
Root mean squared error: 0.23199977977325112
Relative absolute error: 24.385106440315816
Root relative squared error: 66.29945943629559
Weighted TruePositiveRate: 0.7922077922077922
Weighted MatthewsCorrelation: 0.7573244330345364
Weighted FMeasure: 0.7739747399391752
Iteration time: 7.0
Weighted AreaUnderPRC: 0.8610725440411641
Mean absolute error: 0.05971862801710022
Coverage of cases: 83.80952380952381
Instances selection time: 2.0
Test time: 85.0
Accumulative iteration time: 1747.0
Weighted Recall: 0.7922077922077922
Weighted FalsePositiveRate: 0.03463203463203463
Kappa statistic: 0.7575757575757575
Training time: 5.0
		
Time end:Sun Oct 08 04.53.31 EEST 2017