Sun Oct 08 05.14.12 EEST 2017
Dataset: segment
Test set size: 1155
Initial Labelled set size: 231
Initial Unlabelled set size: 924
Batch mode: QBestBatchMode
Batch size: 20
Classifiers: RandomForest-1cores
Scenario: PoolBasedSamplingScenario
Query strategy: RandomSelectionQueryStrategy-1cores
Time begining: Sun Oct 08 05.14.12 EEST 2017
		
Iteration: 1
Labeled set size: 231
Unlabelled set size: 924
	
Mean region size: 25.875077303648947
Incorrectly Classified Instances: 8.744588744588745
Correctly Classified Instances: 91.25541125541126
Weighted Precision: 0.914114543169643
Weighted AreaUnderROC: 0.9856779920416283
Root mean squared error: 0.1363995005404378
Relative absolute error: 18.47474747474754
Root relative squared error: 38.97940404103087
Weighted TruePositiveRate: 0.9125541125541126
Weighted MatthewsCorrelation: 0.8985303744731017
Weighted FMeasure: 0.9126172020133326
Iteration time: 38.0
Weighted AreaUnderPRC: 0.9483306420037007
Mean absolute error: 0.04524427952999417
Coverage of cases: 98.78787878787878
Instances selection time: 2.0
Test time: 7.0
Accumulative iteration time: 38.0
Weighted Recall: 0.9125541125541126
Weighted FalsePositiveRate: 0.014574314574314576
Kappa statistic: 0.897979797979798
Training time: 36.0
		
Iteration: 2
Labeled set size: 251
Unlabelled set size: 904
	
Mean region size: 23.933209647495513
Incorrectly Classified Instances: 7.792207792207792
Correctly Classified Instances: 92.20779220779221
Weighted Precision: 0.924193467679686
Weighted AreaUnderROC: 0.990495867768595
Root mean squared error: 0.129591909777491
Relative absolute error: 16.676767676767653
Root relative squared error: 37.03397293722543
Weighted TruePositiveRate: 0.922077922077922
Weighted MatthewsCorrelation: 0.9099382069268205
Weighted FMeasure: 0.9225117668060236
Iteration time: 29.0
Weighted AreaUnderPRC: 0.9613329773200764
Mean absolute error: 0.04084106369820668
Coverage of cases: 99.22077922077922
Instances selection time: 3.0
Test time: 6.0
Accumulative iteration time: 67.0
Weighted Recall: 0.922077922077922
Weighted FalsePositiveRate: 0.012987012987012986
Kappa statistic: 0.9090909090909091
Training time: 26.0
		
Iteration: 3
Labeled set size: 271
Unlabelled set size: 884
	
Mean region size: 24.094001236858553
Incorrectly Classified Instances: 7.792207792207792
Correctly Classified Instances: 92.20779220779221
Weighted Precision: 0.9228750046242075
Weighted AreaUnderROC: 0.9909296427478245
Root mean squared error: 0.1310062856390204
Relative absolute error: 16.939393939393927
Root relative squared error: 37.43816450650534
Weighted TruePositiveRate: 0.922077922077922
Weighted MatthewsCorrelation: 0.9093658609455394
Weighted FMeasure: 0.9220839182305559
Iteration time: 32.0
Weighted AreaUnderPRC: 0.9570538891830859
Mean absolute error: 0.04148423005565877
Coverage of cases: 99.48051948051948
Instances selection time: 2.0
Test time: 7.0
Accumulative iteration time: 99.0
Weighted Recall: 0.922077922077922
Weighted FalsePositiveRate: 0.012987012987012988
Kappa statistic: 0.9090909090909091
Training time: 30.0
		
Iteration: 4
Labeled set size: 291
Unlabelled set size: 864
	
Mean region size: 24.662956091527665
Incorrectly Classified Instances: 6.83982683982684
Correctly Classified Instances: 93.16017316017316
Weighted Precision: 0.9309470419012655
Weighted AreaUnderROC: 0.990365997638725
Root mean squared error: 0.1266083907215995
Relative absolute error: 16.474747474747467
Root relative squared error: 36.18136134933159
Weighted TruePositiveRate: 0.9316017316017317
Weighted MatthewsCorrelation: 0.9198416980085778
Weighted FMeasure: 0.9311276786780835
Iteration time: 33.0
Weighted AreaUnderPRC: 0.9615084318709309
Mean absolute error: 0.040346320346320505
Coverage of cases: 99.22077922077922
Instances selection time: 2.0
Test time: 7.0
Accumulative iteration time: 132.0
Weighted Recall: 0.9316017316017317
Weighted FalsePositiveRate: 0.0113997113997114
Kappa statistic: 0.9202020202020201
Training time: 31.0
		
Iteration: 5
Labeled set size: 311
Unlabelled set size: 844
	
Mean region size: 22.918985776128583
Incorrectly Classified Instances: 6.83982683982684
Correctly Classified Instances: 93.16017316017316
Weighted Precision: 0.9317299231054343
Weighted AreaUnderROC: 0.9908526826708643
Root mean squared error: 0.12138145253361944
Relative absolute error: 14.8383838383838
Root relative squared error: 34.6876393436094
Weighted TruePositiveRate: 0.9316017316017317
Weighted MatthewsCorrelation: 0.9200403517076723
Weighted FMeasure: 0.9308835529769715
Iteration time: 35.0
Weighted AreaUnderPRC: 0.9647731834444331
Mean absolute error: 0.036338899196042114
Coverage of cases: 99.13419913419914
Instances selection time: 2.0
Test time: 7.0
Accumulative iteration time: 167.0
Weighted Recall: 0.9316017316017317
Weighted FalsePositiveRate: 0.0113997113997114
Kappa statistic: 0.9202020202020201
Training time: 33.0
		
Iteration: 6
Labeled set size: 331
Unlabelled set size: 824
	
Mean region size: 24.576376004947623
Incorrectly Classified Instances: 6.83982683982684
Correctly Classified Instances: 93.16017316017316
Weighted Precision: 0.9321548248365628
Weighted AreaUnderROC: 0.9907075079802353
Root mean squared error: 0.12181882793651748
Relative absolute error: 15.717171717171675
Root relative squared error: 34.81262977597625
Weighted TruePositiveRate: 0.9316017316017317
Weighted MatthewsCorrelation: 0.9201034911183994
Weighted FMeasure: 0.9306294118860899
Iteration time: 37.0
Weighted AreaUnderPRC: 0.9690124147000951
Mean absolute error: 0.038491032776747126
Coverage of cases: 99.04761904761905
Instances selection time: 2.0
Test time: 6.0
Accumulative iteration time: 204.0
Weighted Recall: 0.9316017316017317
Weighted FalsePositiveRate: 0.0113997113997114
Kappa statistic: 0.9202020202020201
Training time: 35.0
		
Iteration: 7
Labeled set size: 351
Unlabelled set size: 804
	
Mean region size: 22.770562770562663
Incorrectly Classified Instances: 6.926406926406926
Correctly Classified Instances: 93.07359307359307
Weighted Precision: 0.9311855930063757
Weighted AreaUnderROC: 0.991597358870086
Root mean squared error: 0.1225577747972985
Relative absolute error: 14.555555555555513
Root relative squared error: 35.023801430836485
Weighted TruePositiveRate: 0.9307359307359307
Weighted MatthewsCorrelation: 0.9193627819649224
Weighted FMeasure: 0.9307941007679443
Iteration time: 39.0
Weighted AreaUnderPRC: 0.9602079538762746
Mean absolute error: 0.03564625850340141
Coverage of cases: 99.39393939393939
Instances selection time: 2.0
Test time: 7.0
Accumulative iteration time: 243.0
Weighted Recall: 0.9307359307359307
Weighted FalsePositiveRate: 0.011544011544011544
Kappa statistic: 0.9191919191919191
Training time: 37.0
		
Iteration: 8
Labeled set size: 371
Unlabelled set size: 784
	
Mean region size: 22.36239950525648
Incorrectly Classified Instances: 7.2727272727272725
Correctly Classified Instances: 92.72727272727273
Weighted Precision: 0.9282698571839987
Weighted AreaUnderROC: 0.989385631203813
Root mean squared error: 0.12678411376344806
Relative absolute error: 14.68686868686866
Root relative squared error: 36.23157839133244
Weighted TruePositiveRate: 0.9272727272727272
Weighted MatthewsCorrelation: 0.9155705314369469
Weighted FMeasure: 0.9275392235861006
Iteration time: 41.0
Weighted AreaUnderPRC: 0.9583643643845868
Mean absolute error: 0.03596784168212749
Coverage of cases: 99.04761904761905
Instances selection time: 2.0
Test time: 6.0
Accumulative iteration time: 284.0
Weighted Recall: 0.9272727272727272
Weighted FalsePositiveRate: 0.012121212121212121
Kappa statistic: 0.9151515151515152
Training time: 39.0
		
Iteration: 9
Labeled set size: 391
Unlabelled set size: 764
	
Mean region size: 23.74768089053814
Incorrectly Classified Instances: 6.32034632034632
Correctly Classified Instances: 93.67965367965368
Weighted Precision: 0.9366221897071954
Weighted AreaUnderROC: 0.9914854169399625
Root mean squared error: 0.12519372742975218
Relative absolute error: 16.050505050505016
Root relative squared error: 35.77708763999654
Weighted TruePositiveRate: 0.9367965367965368
Weighted MatthewsCorrelation: 0.9260587245012443
Weighted FMeasure: 0.9362893649079274
Iteration time: 44.0
Weighted AreaUnderPRC: 0.9637571122219515
Mean absolute error: 0.03930735930735939
Coverage of cases: 99.39393939393939
Instances selection time: 2.0
Test time: 7.0
Accumulative iteration time: 328.0
Weighted Recall: 0.9367965367965368
Weighted FalsePositiveRate: 0.010533910533910533
Kappa statistic: 0.9262626262626262
Training time: 42.0
		
Iteration: 10
Labeled set size: 411
Unlabelled set size: 744
	
Mean region size: 22.85714285714276
Incorrectly Classified Instances: 7.445887445887446
Correctly Classified Instances: 92.55411255411255
Weighted Precision: 0.9262575986948265
Weighted AreaUnderROC: 0.991157462066553
Root mean squared error: 0.12505533716368547
Relative absolute error: 15.161616161616129
Root relative squared error: 35.73753932731954
Weighted TruePositiveRate: 0.9255411255411256
Weighted MatthewsCorrelation: 0.9131799045702286
Weighted FMeasure: 0.9248403037818754
Iteration time: 47.0
Weighted AreaUnderPRC: 0.9620859286637093
Mean absolute error: 0.037130488559060065
Coverage of cases: 99.3073593073593
Instances selection time: 2.0
Test time: 7.0
Accumulative iteration time: 375.0
Weighted Recall: 0.9255411255411256
Weighted FalsePositiveRate: 0.012409812409812412
Kappa statistic: 0.913131313131313
Training time: 45.0
		
Iteration: 11
Labeled set size: 431
Unlabelled set size: 724
	
Mean region size: 22.634508348793926
Incorrectly Classified Instances: 6.32034632034632
Correctly Classified Instances: 93.67965367965368
Weighted Precision: 0.9370194032136201
Weighted AreaUnderROC: 0.9876549040185405
Root mean squared error: 0.12868201112677494
Relative absolute error: 15.565656565656534
Root relative squared error: 36.77394773917029
Weighted TruePositiveRate: 0.9367965367965368
Weighted MatthewsCorrelation: 0.926319343317096
Weighted FMeasure: 0.9367281023187264
Iteration time: 48.0
Weighted AreaUnderPRC: 0.9550125207239357
Mean absolute error: 0.03811997526283249
Coverage of cases: 98.7012987012987
Instances selection time: 1.0
Test time: 7.0
Accumulative iteration time: 423.0
Weighted Recall: 0.9367965367965368
Weighted FalsePositiveRate: 0.010533910533910533
Kappa statistic: 0.9262626262626262
Training time: 47.0
		
Iteration: 12
Labeled set size: 451
Unlabelled set size: 704
	
Mean region size: 22.79529993815695
Incorrectly Classified Instances: 5.454545454545454
Correctly Classified Instances: 94.54545454545455
Weighted Precision: 0.946966923733228
Weighted AreaUnderROC: 0.9926927281472735
Root mean squared error: 0.11403652486957438
Relative absolute error: 13.585858585858547
Root relative squared error: 32.58865142991041
Weighted TruePositiveRate: 0.9454545454545454
Weighted MatthewsCorrelation: 0.9369523596372062
Weighted FMeasure: 0.9457076245488573
Iteration time: 51.0
Weighted AreaUnderPRC: 0.9696650140130968
Mean absolute error: 0.033271490414347606
Coverage of cases: 99.39393939393939
Instances selection time: 2.0
Test time: 6.0
Accumulative iteration time: 474.0
Weighted Recall: 0.9454545454545454
Weighted FalsePositiveRate: 0.00909090909090909
Kappa statistic: 0.9363636363636362
Training time: 49.0
		
Iteration: 13
Labeled set size: 471
Unlabelled set size: 684
	
Mean region size: 22.597402597402464
Incorrectly Classified Instances: 6.0606060606060606
Correctly Classified Instances: 93.93939393939394
Weighted Precision: 0.9397056112064788
Weighted AreaUnderROC: 0.9926179544361362
Root mean squared error: 0.11953320878514785
Relative absolute error: 13.989898989898942
Root relative squared error: 34.15945969813757
Weighted TruePositiveRate: 0.9393939393939394
Weighted MatthewsCorrelation: 0.9293608651962568
Weighted FMeasure: 0.9392638242373652
Iteration time: 52.0
Weighted AreaUnderPRC: 0.9669929601575357
Mean absolute error: 0.034260977118120005
Coverage of cases: 99.56709956709956
Instances selection time: 2.0
Test time: 6.0
Accumulative iteration time: 526.0
Weighted Recall: 0.9393939393939394
Weighted FalsePositiveRate: 0.010101010101010102
Kappa statistic: 0.9292929292929294
Training time: 50.0
		
Iteration: 14
Labeled set size: 491
Unlabelled set size: 664
	
Mean region size: 22.201607915893433
Incorrectly Classified Instances: 5.800865800865801
Correctly Classified Instances: 94.19913419913419
Weighted Precision: 0.9429943379084892
Weighted AreaUnderROC: 0.9923258559622194
Root mean squared error: 0.11597240198006856
Relative absolute error: 13.515151515151466
Root relative squared error: 33.14187439454557
Weighted TruePositiveRate: 0.941991341991342
Weighted MatthewsCorrelation: 0.9326543331848921
Weighted FMeasure: 0.9419583045646426
Iteration time: 54.0
Weighted AreaUnderPRC: 0.9703357946095535
Mean absolute error: 0.033098330241187406
Coverage of cases: 99.3073593073593
Instances selection time: 2.0
Test time: 7.0
Accumulative iteration time: 580.0
Weighted Recall: 0.941991341991342
Weighted FalsePositiveRate: 0.00966810966810967
Kappa statistic: 0.9323232323232322
Training time: 52.0
		
Iteration: 15
Labeled set size: 511
Unlabelled set size: 644
	
Mean region size: 23.52504638218919
Incorrectly Classified Instances: 6.406926406926407
Correctly Classified Instances: 93.5930735930736
Weighted Precision: 0.9356725511703153
Weighted AreaUnderROC: 0.9906843325025144
Root mean squared error: 0.12408228362944815
Relative absolute error: 15.63636363636364
Root relative squared error: 35.45946611800199
Weighted TruePositiveRate: 0.935930735930736
Weighted MatthewsCorrelation: 0.9250675955682853
Weighted FMeasure: 0.9355963470622697
Iteration time: 58.0
Weighted AreaUnderPRC: 0.9628485284858886
Mean absolute error: 0.038293135435992755
Coverage of cases: 99.22077922077922
Instances selection time: 1.0
Test time: 7.0
Accumulative iteration time: 638.0
Weighted Recall: 0.935930735930736
Weighted FalsePositiveRate: 0.010678210678210679
Kappa statistic: 0.9252525252525251
Training time: 57.0
		
Iteration: 16
Labeled set size: 531
Unlabelled set size: 624
	
Mean region size: 22.090290661719017
Incorrectly Classified Instances: 7.2727272727272725
Correctly Classified Instances: 92.72727272727273
Weighted Precision: 0.9276549202565048
Weighted AreaUnderROC: 0.9888416633871179
Root mean squared error: 0.1216359319368956
Relative absolute error: 13.757575757575722
Root relative squared error: 34.76036289055143
Weighted TruePositiveRate: 0.9272727272727272
Weighted MatthewsCorrelation: 0.9152725087787233
Weighted FMeasure: 0.9272399597042033
Iteration time: 61.0
Weighted AreaUnderPRC: 0.9590010880890388
Mean absolute error: 0.033692022263450895
Coverage of cases: 98.87445887445888
Instances selection time: 2.0
Test time: 6.0
Accumulative iteration time: 699.0
Weighted Recall: 0.9272727272727272
Weighted FalsePositiveRate: 0.012121212121212121
Kappa statistic: 0.9151515151515152
Training time: 59.0
		
Iteration: 17
Labeled set size: 551
Unlabelled set size: 604
	
Mean region size: 21.533704390847014
Incorrectly Classified Instances: 5.021645021645021
Correctly Classified Instances: 94.97835497835497
Weighted Precision: 0.9505830451992985
Weighted AreaUnderROC: 0.99176702085793
Root mean squared error: 0.1090465793254657
Relative absolute error: 11.888888888888825
Root relative squared error: 31.162655713387316
Weighted TruePositiveRate: 0.9497835497835497
Weighted MatthewsCorrelation: 0.9416412778066661
Weighted FMeasure: 0.9496258678701227
Iteration time: 60.0
Weighted AreaUnderPRC: 0.973233671007567
Mean absolute error: 0.02911564625850337
Coverage of cases: 99.04761904761905
Instances selection time: 1.0
Test time: 7.0
Accumulative iteration time: 759.0
Weighted Recall: 0.9497835497835497
Weighted FalsePositiveRate: 0.00836940836940837
Kappa statistic: 0.9414141414141413
Training time: 59.0
		
Iteration: 18
Labeled set size: 571
Unlabelled set size: 584
	
Mean region size: 21.855287569573086
Incorrectly Classified Instances: 5.108225108225108
Correctly Classified Instances: 94.89177489177489
Weighted Precision: 0.9492293604489762
Weighted AreaUnderROC: 0.9934732607459882
Root mean squared error: 0.10889902729001973
Relative absolute error: 11.89898989898983
Root relative squared error: 31.120489207029618
Weighted TruePositiveRate: 0.9489177489177489
Weighted MatthewsCorrelation: 0.9404615139051918
Weighted FMeasure: 0.9487485371839192
Iteration time: 65.0
Weighted AreaUnderPRC: 0.974796932001467
Mean absolute error: 0.02914038342609767
Coverage of cases: 99.39393939393939
Instances selection time: 2.0
Test time: 6.0
Accumulative iteration time: 824.0
Weighted Recall: 0.9489177489177489
Weighted FalsePositiveRate: 0.008513708513708513
Kappa statistic: 0.9404040404040405
Training time: 63.0
		
Iteration: 19
Labeled set size: 591
Unlabelled set size: 564
	
Mean region size: 23.030303030302942
Incorrectly Classified Instances: 5.194805194805195
Correctly Classified Instances: 94.8051948051948
Weighted Precision: 0.9484649948995506
Weighted AreaUnderROC: 0.9927119681665136
Root mean squared error: 0.11267259830766369
Relative absolute error: 13.666666666666622
Root relative squared error: 32.1988769488576
Weighted TruePositiveRate: 0.948051948051948
Weighted MatthewsCorrelation: 0.939481538032827
Weighted FMeasure: 0.9478712840053842
Iteration time: 68.0
Weighted AreaUnderPRC: 0.9743454398413873
Mean absolute error: 0.033469387755102074
Coverage of cases: 99.22077922077922
Instances selection time: 2.0
Test time: 7.0
Accumulative iteration time: 892.0
Weighted Recall: 0.948051948051948
Weighted FalsePositiveRate: 0.008658008658008658
Kappa statistic: 0.9393939393939393
Training time: 66.0
		
Iteration: 20
Labeled set size: 611
Unlabelled set size: 544
	
Mean region size: 21.731601731601522
Incorrectly Classified Instances: 4.935064935064935
Correctly Classified Instances: 95.06493506493507
Weighted Precision: 0.9507647695581436
Weighted AreaUnderROC: 0.99370239188421
Root mean squared error: 0.11216649873498906
Relative absolute error: 12.98989898989894
Root relative squared error: 32.05424694911337
Weighted TruePositiveRate: 0.9506493506493506
Weighted MatthewsCorrelation: 0.9424368131762703
Weighted FMeasure: 0.9505565975541169
Iteration time: 66.0
Weighted AreaUnderPRC: 0.9745577962871204
Mean absolute error: 0.031811997526283255
Coverage of cases: 99.48051948051948
Instances selection time: 2.0
Test time: 7.0
Accumulative iteration time: 958.0
Weighted Recall: 0.9506493506493506
Weighted FalsePositiveRate: 0.008225108225108226
Kappa statistic: 0.9424242424242423
Training time: 64.0
		
Iteration: 21
Labeled set size: 631
Unlabelled set size: 524
	
Mean region size: 21.607915893629965
Incorrectly Classified Instances: 4.5021645021645025
Correctly Classified Instances: 95.4978354978355
Weighted Precision: 0.9549754850924236
Weighted AreaUnderROC: 0.9943272552363464
Root mean squared error: 0.10666125527399058
Relative absolute error: 11.696969696969628
Root relative squared error: 30.480992587035377
Weighted TruePositiveRate: 0.9549783549783549
Weighted MatthewsCorrelation: 0.9473732909974596
Weighted FMeasure: 0.9546306558477908
Iteration time: 68.0
Weighted AreaUnderPRC: 0.9764552591371509
Mean absolute error: 0.028645640074211456
Coverage of cases: 99.48051948051948
Instances selection time: 1.0
Test time: 7.0
Accumulative iteration time: 1026.0
Weighted Recall: 0.9549783549783549
Weighted FalsePositiveRate: 0.007503607503607503
Kappa statistic: 0.9474747474747472
Training time: 67.0
		
Iteration: 22
Labeled set size: 651
Unlabelled set size: 504
	
Mean region size: 20.556586270871765
Incorrectly Classified Instances: 4.848484848484849
Correctly Classified Instances: 95.15151515151516
Weighted Precision: 0.9517442047538202
Weighted AreaUnderROC: 0.9915225851589488
Root mean squared error: 0.10987146028893725
Relative absolute error: 11.535353535353465
Root relative squared error: 31.398385083608726
Weighted TruePositiveRate: 0.9515151515151515
Weighted MatthewsCorrelation: 0.9434290084738122
Weighted FMeasure: 0.9512233127750709
Iteration time: 68.0
Weighted AreaUnderPRC: 0.9718606941596175
Mean absolute error: 0.028249845392702484
Coverage of cases: 98.96103896103897
Instances selection time: 1.0
Test time: 7.0
Accumulative iteration time: 1094.0
Weighted Recall: 0.9515151515151515
Weighted FalsePositiveRate: 0.00808080808080808
Kappa statistic: 0.9434343434343433
Training time: 67.0
		
Iteration: 23
Labeled set size: 671
Unlabelled set size: 484
	
Mean region size: 20.69264069264048
Incorrectly Classified Instances: 6.32034632034632
Correctly Classified Instances: 93.67965367965368
Weighted Precision: 0.9367912868564594
Weighted AreaUnderROC: 0.9936066290611745
Root mean squared error: 0.11247483055213012
Relative absolute error: 11.606060606060534
Root relative squared error: 32.14236010518378
Weighted TruePositiveRate: 0.9367965367965368
Weighted MatthewsCorrelation: 0.9261270775108782
Weighted FMeasure: 0.936333887220389
Iteration time: 75.0
Weighted AreaUnderPRC: 0.9721282489521428
Mean absolute error: 0.028423005565862653
Coverage of cases: 99.48051948051948
Instances selection time: 1.0
Test time: 7.0
Accumulative iteration time: 1169.0
Weighted Recall: 0.9367965367965368
Weighted FalsePositiveRate: 0.010533910533910534
Kappa statistic: 0.9262626262626262
Training time: 74.0
		
Iteration: 24
Labeled set size: 691
Unlabelled set size: 464
	
Mean region size: 21.805813234384438
Incorrectly Classified Instances: 4.415584415584416
Correctly Classified Instances: 95.58441558441558
Weighted Precision: 0.9564200069864757
Weighted AreaUnderROC: 0.995982771437317
Root mean squared error: 0.1049663491148753
Relative absolute error: 11.707070707070633
Root relative squared error: 29.996632807666543
Weighted TruePositiveRate: 0.9558441558441558
Weighted MatthewsCorrelation: 0.9486651490952475
Weighted FMeasure: 0.9557915689729334
Iteration time: 77.0
Weighted AreaUnderPRC: 0.9812822605261591
Mean absolute error: 0.028670377241805753
Coverage of cases: 99.74025974025975
Instances selection time: 1.0
Test time: 7.0
Accumulative iteration time: 1246.0
Weighted Recall: 0.9558441558441558
Weighted FalsePositiveRate: 0.007359307359307358
Kappa statistic: 0.9484848484848484
Training time: 76.0
		
Iteration: 25
Labeled set size: 711
Unlabelled set size: 444
	
Mean region size: 21.3234384662954
Incorrectly Classified Instances: 5.800865800865801
Correctly Classified Instances: 94.19913419913419
Weighted Precision: 0.9426651716053669
Weighted AreaUnderROC: 0.9946071100616555
Root mean squared error: 0.11019743904486627
Relative absolute error: 12.111111111111045
Root relative squared error: 31.49154127249362
Weighted TruePositiveRate: 0.941991341991342
Weighted MatthewsCorrelation: 0.9323923173240869
Weighted FMeasure: 0.9414085475444506
Iteration time: 77.0
Weighted AreaUnderPRC: 0.9762212754545119
Mean absolute error: 0.029659863945578197
Coverage of cases: 99.56709956709956
Instances selection time: 2.0
Test time: 7.0
Accumulative iteration time: 1323.0
Weighted Recall: 0.941991341991342
Weighted FalsePositiveRate: 0.00966810966810967
Kappa statistic: 0.9323232323232322
Training time: 75.0
		
Iteration: 26
Labeled set size: 731
Unlabelled set size: 424
	
Mean region size: 20.432900432900226
Incorrectly Classified Instances: 4.848484848484849
Correctly Classified Instances: 95.15151515151516
Weighted Precision: 0.9519663362036827
Weighted AreaUnderROC: 0.9919401810310899
Root mean squared error: 0.10773429832347017
Relative absolute error: 11.111111111111034
Root relative squared error: 30.787640180416304
Weighted TruePositiveRate: 0.9515151515151515
Weighted MatthewsCorrelation: 0.9435700578056201
Weighted FMeasure: 0.9514490952628663
Iteration time: 80.0
Weighted AreaUnderPRC: 0.9699210046110478
Mean absolute error: 0.027210884353741426
Coverage of cases: 99.04761904761905
Instances selection time: 1.0
Test time: 7.0
Accumulative iteration time: 1403.0
Weighted Recall: 0.9515151515151515
Weighted FalsePositiveRate: 0.00808080808080808
Kappa statistic: 0.9434343434343433
Training time: 79.0
		
Iteration: 27
Labeled set size: 751
Unlabelled set size: 404
	
Mean region size: 21.17501546072952
Incorrectly Classified Instances: 4.761904761904762
Correctly Classified Instances: 95.23809523809524
Weighted Precision: 0.9528537894447718
Weighted AreaUnderROC: 0.9939774367047094
Root mean squared error: 0.10988271703404019
Relative absolute error: 12.3535353535353
Root relative squared error: 31.401601966469848
Weighted TruePositiveRate: 0.9523809523809523
Weighted MatthewsCorrelation: 0.9446338044395849
Weighted FMeasure: 0.9524776131097146
Iteration time: 86.0
Weighted AreaUnderPRC: 0.9771490031521549
Mean absolute error: 0.030253555967841683
Coverage of cases: 99.39393939393939
Instances selection time: 1.0
Test time: 7.0
Accumulative iteration time: 1489.0
Weighted Recall: 0.9523809523809523
Weighted FalsePositiveRate: 0.007936507936507938
Kappa statistic: 0.9444444444444444
Training time: 85.0
		
Iteration: 28
Labeled set size: 771
Unlabelled set size: 384
	
Mean region size: 21.162646876932378
Incorrectly Classified Instances: 4.935064935064935
Correctly Classified Instances: 95.06493506493507
Weighted Precision: 0.9510518514164892
Weighted AreaUnderROC: 0.9962110280292099
Root mean squared error: 0.10380515499762837
Relative absolute error: 11.171717171717091
Root relative squared error: 29.664793948382613
Weighted TruePositiveRate: 0.9506493506493506
Weighted MatthewsCorrelation: 0.9424940881879099
Weighted FMeasure: 0.9504252412235162
Iteration time: 84.0
Weighted AreaUnderPRC: 0.981115368603121
Mean absolute error: 0.02735930735930728
Coverage of cases: 99.82683982683983
Instances selection time: 1.0
Test time: 7.0
Accumulative iteration time: 1573.0
Weighted Recall: 0.9506493506493506
Weighted FalsePositiveRate: 0.008225108225108226
Kappa statistic: 0.9424242424242423
Training time: 83.0
		
Iteration: 29
Labeled set size: 791
Unlabelled set size: 364
	
Mean region size: 21.37291280148403
Incorrectly Classified Instances: 4.415584415584416
Correctly Classified Instances: 95.58441558441558
Weighted Precision: 0.9566272384882781
Weighted AreaUnderROC: 0.9960728497092133
Root mean squared error: 0.10357851893926867
Relative absolute error: 11.171717171717093
Root relative squared error: 29.60002730001464
Weighted TruePositiveRate: 0.9558441558441558
Weighted MatthewsCorrelation: 0.948768955695387
Weighted FMeasure: 0.9559058783762573
Iteration time: 87.0
Weighted AreaUnderPRC: 0.9802593607511997
Mean absolute error: 0.027359307359307285
Coverage of cases: 99.74025974025975
Instances selection time: 1.0
Test time: 7.0
Accumulative iteration time: 1660.0
Weighted Recall: 0.9558441558441558
Weighted FalsePositiveRate: 0.00735930735930736
Kappa statistic: 0.9484848484848484
Training time: 86.0
		
Iteration: 30
Labeled set size: 811
Unlabelled set size: 344
	
Mean region size: 20.160791589362795
Incorrectly Classified Instances: 4.675324675324675
Correctly Classified Instances: 95.32467532467533
Weighted Precision: 0.9539534951864034
Weighted AreaUnderROC: 0.9933705015523198
Root mean squared error: 0.10597487479500486
Relative absolute error: 10.424242424242356
Root relative squared error: 30.2848430270278
Weighted TruePositiveRate: 0.9532467532467532
Weighted MatthewsCorrelation: 0.9457346116923926
Weighted FMeasure: 0.953378167893915
Iteration time: 88.0
Weighted AreaUnderPRC: 0.9737392436892255
Mean absolute error: 0.02552875695732833
Coverage of cases: 99.39393939393939
Instances selection time: 1.0
Test time: 7.0
Accumulative iteration time: 1748.0
Weighted Recall: 0.9532467532467532
Weighted FalsePositiveRate: 0.007792207792207792
Kappa statistic: 0.9454545454545454
Training time: 87.0
		
Iteration: 31
Labeled set size: 831
Unlabelled set size: 324
	
Mean region size: 20.95238095238073
Incorrectly Classified Instances: 5.021645021645021
Correctly Classified Instances: 94.97835497835497
Weighted Precision: 0.9509139639806395
Weighted AreaUnderROC: 0.9911032401941493
Root mean squared error: 0.10992773248739682
Relative absolute error: 11.565656565656502
Root relative squared error: 31.414466203783956
Weighted TruePositiveRate: 0.9497835497835497
Weighted MatthewsCorrelation: 0.9417961019168961
Weighted FMeasure: 0.9497835259320674
Iteration time: 94.0
Weighted AreaUnderPRC: 0.9715775035686757
Mean absolute error: 0.028324056895485433
Coverage of cases: 98.96103896103897
Instances selection time: 1.0
Test time: 7.0
Accumulative iteration time: 1842.0
Weighted Recall: 0.9497835497835497
Weighted FalsePositiveRate: 0.008369408369408369
Kappa statistic: 0.9414141414141413
Training time: 93.0
		
Iteration: 32
Labeled set size: 851
Unlabelled set size: 304
	
Mean region size: 19.93815708101402
Incorrectly Classified Instances: 4.848484848484849
Correctly Classified Instances: 95.15151515151516
Weighted Precision: 0.9524550962646032
Weighted AreaUnderROC: 0.9943513052603962
Root mean squared error: 0.10230491488268179
Relative absolute error: 9.868686868686805
Root relative squared error: 29.236064624834036
Weighted TruePositiveRate: 0.9515151515151515
Weighted MatthewsCorrelation: 0.9437493438995251
Weighted FMeasure: 0.9515012145942012
Iteration time: 90.0
Weighted AreaUnderPRC: 0.9796065771680159
Mean absolute error: 0.02416821273964126
Coverage of cases: 99.39393939393939
Instances selection time: 0.0
Test time: 7.0
Accumulative iteration time: 1932.0
Weighted Recall: 0.9515151515151515
Weighted FalsePositiveRate: 0.008080808080808079
Kappa statistic: 0.9434343434343433
Training time: 90.0
		
Iteration: 33
Labeled set size: 871
Unlabelled set size: 284
	
Mean region size: 20.544217687074607
Incorrectly Classified Instances: 3.896103896103896
Correctly Classified Instances: 96.1038961038961
Weighted Precision: 0.9609115526364689
Weighted AreaUnderROC: 0.9977423586514494
Root mean squared error: 0.09559241449685367
Relative absolute error: 9.989898989898922
Root relative squared error: 27.317807859757394
Weighted TruePositiveRate: 0.961038961038961
Weighted MatthewsCorrelation: 0.9543878983078025
Weighted FMeasure: 0.9606465570479406
Iteration time: 96.0
Weighted AreaUnderPRC: 0.9877531529282061
Mean absolute error: 0.024465058750772973
Coverage of cases: 99.91341991341992
Instances selection time: 1.0
Test time: 7.0
Accumulative iteration time: 2028.0
Weighted Recall: 0.961038961038961
Weighted FalsePositiveRate: 0.006493506493506494
Kappa statistic: 0.9545454545454544
Training time: 95.0
		
Iteration: 34
Labeled set size: 891
Unlabelled set size: 264
	
Mean region size: 20.346320346320123
Incorrectly Classified Instances: 4.675324675324675
Correctly Classified Instances: 95.32467532467533
Weighted Precision: 0.9537154714381435
Weighted AreaUnderROC: 0.9961056451965543
Root mean squared error: 0.10085595329369744
Relative absolute error: 10.181818181818112
Root relative squared error: 28.821989360678575
Weighted TruePositiveRate: 0.9532467532467532
Weighted MatthewsCorrelation: 0.9455285102773395
Weighted FMeasure: 0.9529528201627467
Iteration time: 97.0
Weighted AreaUnderPRC: 0.9816380190600664
Mean absolute error: 0.024935064935064873
Coverage of cases: 99.74025974025975
Instances selection time: 1.0
Test time: 7.0
Accumulative iteration time: 2125.0
Weighted Recall: 0.9532467532467532
Weighted FalsePositiveRate: 0.007792207792207792
Kappa statistic: 0.9454545454545454
Training time: 96.0
		
Iteration: 35
Labeled set size: 911
Unlabelled set size: 244
	
Mean region size: 21.162646876932385
Incorrectly Classified Instances: 4.1558441558441555
Correctly Classified Instances: 95.84415584415585
Weighted Precision: 0.958906987239392
Weighted AreaUnderROC: 0.9943088897634352
Root mean squared error: 0.10105198059875597
Relative absolute error: 10.848484848484775
Root relative squared error: 28.878008829200645
Weighted TruePositiveRate: 0.9584415584415584
Weighted MatthewsCorrelation: 0.9516443402806158
Weighted FMeasure: 0.9583457459789579
Iteration time: 103.0
Weighted AreaUnderPRC: 0.9799920880491234
Mean absolute error: 0.02656771799628936
Coverage of cases: 99.39393939393939
Instances selection time: 1.0
Test time: 7.0
Accumulative iteration time: 2228.0
Weighted Recall: 0.9584415584415584
Weighted FalsePositiveRate: 0.006926406926406926
Kappa statistic: 0.9515151515151515
Training time: 102.0
		
Iteration: 36
Labeled set size: 931
Unlabelled set size: 224
	
Mean region size: 21.49659863945556
Incorrectly Classified Instances: 4.675324675324675
Correctly Classified Instances: 95.32467532467533
Weighted Precision: 0.9545633229827332
Weighted AreaUnderROC: 0.9926752372206918
Root mean squared error: 0.1079980301705425
Relative absolute error: 11.575757575757498
Root relative squared error: 30.86300783341201
Weighted TruePositiveRate: 0.9532467532467532
Weighted MatthewsCorrelation: 0.9459651507549036
Weighted FMeasure: 0.953463017401802
Iteration time: 103.0
Weighted AreaUnderPRC: 0.9734036090056705
Mean absolute error: 0.028348794063079708
Coverage of cases: 99.22077922077922
Instances selection time: 1.0
Test time: 7.0
Accumulative iteration time: 2331.0
Weighted Recall: 0.9532467532467532
Weighted FalsePositiveRate: 0.007792207792207792
Kappa statistic: 0.9454545454545454
Training time: 102.0
		
Iteration: 37
Labeled set size: 951
Unlabelled set size: 204
	
Mean region size: 20.643166357451854
Incorrectly Classified Instances: 4.5021645021645025
Correctly Classified Instances: 95.4978354978355
Weighted Precision: 0.9552401207586098
Weighted AreaUnderROC: 0.9960181905636452
Root mean squared error: 0.10163779408952192
Relative absolute error: 10.535353535353462
Root relative squared error: 29.045418978495753
Weighted TruePositiveRate: 0.9549783549783549
Weighted MatthewsCorrelation: 0.9475657875241976
Weighted FMeasure: 0.9549846405722809
Iteration time: 104.0
Weighted AreaUnderPRC: 0.9807769671540221
Mean absolute error: 0.02580086580086573
Coverage of cases: 99.74025974025975
Instances selection time: 0.0
Test time: 8.0
Accumulative iteration time: 2435.0
Weighted Recall: 0.9549783549783549
Weighted FalsePositiveRate: 0.007503607503607503
Kappa statistic: 0.9474747474747472
Training time: 104.0
		
Iteration: 38
Labeled set size: 971
Unlabelled set size: 184
	
Mean region size: 19.777365491651004
Incorrectly Classified Instances: 5.194805194805195
Correctly Classified Instances: 94.8051948051948
Weighted Precision: 0.9485243683198882
Weighted AreaUnderROC: 0.9909606891425073
Root mean squared error: 0.10911461296793215
Relative absolute error: 10.434343434343367
Root relative squared error: 31.182097946148986
Weighted TruePositiveRate: 0.948051948051948
Weighted MatthewsCorrelation: 0.9394365725067585
Weighted FMeasure: 0.9476593217772906
Iteration time: 106.0
Weighted AreaUnderPRC: 0.9680547074646689
Mean absolute error: 0.025553494124922638
Coverage of cases: 98.87445887445888
Instances selection time: 0.0
Test time: 7.0
Accumulative iteration time: 2541.0
Weighted Recall: 0.948051948051948
Weighted FalsePositiveRate: 0.00865800865800866
Kappa statistic: 0.9393939393939393
Training time: 106.0
		
Iteration: 39
Labeled set size: 991
Unlabelled set size: 164
	
Mean region size: 21.286332714903935
Incorrectly Classified Instances: 4.1558441558441555
Correctly Classified Instances: 95.84415584415585
Weighted Precision: 0.958353016967195
Weighted AreaUnderROC: 0.9952332852332851
Root mean squared error: 0.10380515499762835
Relative absolute error: 11.303030303030223
Root relative squared error: 29.664793948382606
Weighted TruePositiveRate: 0.9584415584415584
Weighted MatthewsCorrelation: 0.9514033510236554
Weighted FMeasure: 0.9581591716243014
Iteration time: 114.0
Weighted AreaUnderPRC: 0.9805168740282286
Mean absolute error: 0.02768089053803332
Coverage of cases: 99.56709956709956
Instances selection time: 0.0
Test time: 8.0
Accumulative iteration time: 2655.0
Weighted Recall: 0.9584415584415584
Weighted FalsePositiveRate: 0.006926406926406926
Kappa statistic: 0.9515151515151515
Training time: 114.0
		
Iteration: 40
Labeled set size: 1011
Unlabelled set size: 144
	
Mean region size: 19.876314162028233
Incorrectly Classified Instances: 4.761904761904762
Correctly Classified Instances: 95.23809523809524
Weighted Precision: 0.9540280814197932
Weighted AreaUnderROC: 0.9961104552013643
Root mean squared error: 0.0999938155168623
Relative absolute error: 9.74747474747468
Root relative squared error: 28.575612969202496
Weighted TruePositiveRate: 0.9523809523809523
Weighted MatthewsCorrelation: 0.9450268270056982
Weighted FMeasure: 0.9524615217529541
Iteration time: 110.0
Weighted AreaUnderPRC: 0.9839081899168364
Mean absolute error: 0.02387136672850952
Coverage of cases: 99.65367965367966
Instances selection time: 1.0
Test time: 7.0
Accumulative iteration time: 2765.0
Weighted Recall: 0.9523809523809523
Weighted FalsePositiveRate: 0.007936507936507936
Kappa statistic: 0.9444444444444444
Training time: 109.0
		
Iteration: 41
Labeled set size: 1031
Unlabelled set size: 124
	
Mean region size: 19.95052566481118
Incorrectly Classified Instances: 4.329004329004329
Correctly Classified Instances: 95.67099567099567
Weighted Precision: 0.9568653876904849
Weighted AreaUnderROC: 0.994755782937601
Root mean squared error: 0.10228073218174523
Relative absolute error: 10.161616161616093
Root relative squared error: 29.22915384241273
Weighted TruePositiveRate: 0.9567099567099567
Weighted MatthewsCorrelation: 0.9494947221789966
Weighted FMeasure: 0.956524895919986
Iteration time: 112.0
Weighted AreaUnderPRC: 0.9801136638316957
Mean absolute error: 0.024885590599876255
Coverage of cases: 99.48051948051948
Instances selection time: 0.0
Test time: 7.0
Accumulative iteration time: 2877.0
Weighted Recall: 0.9567099567099567
Weighted FalsePositiveRate: 0.007215007215007216
Kappa statistic: 0.9494949494949494
Training time: 112.0
		
Iteration: 42
Labeled set size: 1051
Unlabelled set size: 104
	
Mean region size: 19.653679653679443
Incorrectly Classified Instances: 3.3766233766233764
Correctly Classified Instances: 96.62337662337663
Weighted Precision: 0.9664246056585332
Weighted AreaUnderROC: 0.9939660676024312
Root mean squared error: 0.09556653324160824
Relative absolute error: 9.141414141414078
Root relative squared error: 27.310411675011093
Weighted TruePositiveRate: 0.9662337662337662
Weighted MatthewsCorrelation: 0.9606465640536569
Weighted FMeasure: 0.9661469379922661
Iteration time: 118.0
Weighted AreaUnderPRC: 0.9798835108216
Mean absolute error: 0.022387136672850902
Coverage of cases: 99.22077922077922
Instances selection time: 0.0
Test time: 7.0
Accumulative iteration time: 2995.0
Weighted Recall: 0.9662337662337662
Weighted FalsePositiveRate: 0.005627705627705628
Kappa statistic: 0.9606060606060605
Training time: 118.0
		
Iteration: 43
Labeled set size: 1071
Unlabelled set size: 84
	
Mean region size: 20.371057513914437
Incorrectly Classified Instances: 4.761904761904762
Correctly Classified Instances: 95.23809523809524
Weighted Precision: 0.9530218153275158
Weighted AreaUnderROC: 0.9938803620621803
Root mean squared error: 0.10080688690631574
Relative absolute error: 10.282828282828213
Root relative squared error: 28.8079674725411
Weighted TruePositiveRate: 0.9523809523809523
Weighted MatthewsCorrelation: 0.9446432401091274
Weighted FMeasure: 0.9523126599650469
Iteration time: 126.0
Weighted AreaUnderPRC: 0.9773575060235308
Mean absolute error: 0.025182436611007976
Coverage of cases: 99.3073593073593
Instances selection time: 1.0
Test time: 7.0
Accumulative iteration time: 3121.0
Weighted Recall: 0.9523809523809523
Weighted FalsePositiveRate: 0.007936507936507936
Kappa statistic: 0.9444444444444444
Training time: 125.0
		
Iteration: 44
Labeled set size: 1091
Unlabelled set size: 64
	
Mean region size: 19.901051329622543
Incorrectly Classified Instances: 4.242424242424242
Correctly Classified Instances: 95.75757575757575
Weighted Precision: 0.9584699719263055
Weighted AreaUnderROC: 0.9961143906598452
Root mean squared error: 0.09732348879824168
Relative absolute error: 9.505050505050438
Root relative squared error: 27.8125035467027
Weighted TruePositiveRate: 0.9575757575757575
Weighted MatthewsCorrelation: 0.9508329727542867
Weighted FMeasure: 0.9576542553635917
Iteration time: 124.0
Weighted AreaUnderPRC: 0.981812695247468
Mean absolute error: 0.02327767470624607
Coverage of cases: 99.65367965367966
Instances selection time: 0.0
Test time: 8.0
Accumulative iteration time: 3245.0
Weighted Recall: 0.9575757575757575
Weighted FalsePositiveRate: 0.00707070707070707
Kappa statistic: 0.9505050505050504
Training time: 124.0
		
Iteration: 45
Labeled set size: 1111
Unlabelled set size: 44
	
Mean region size: 20.309214594928658
Incorrectly Classified Instances: 3.29004329004329
Correctly Classified Instances: 96.70995670995671
Weighted Precision: 0.966905444367898
Weighted AreaUnderROC: 0.9980182780182781
Root mean squared error: 0.09110060223670952
Relative absolute error: 9.080808080808017
Root relative squared error: 26.034165586355467
Weighted TruePositiveRate: 0.9670995670995671
Weighted MatthewsCorrelation: 0.9615058124152016
Weighted FMeasure: 0.9669473169815965
Iteration time: 124.0
Weighted AreaUnderPRC: 0.9889318657045723
Mean absolute error: 0.022238713667285036
Coverage of cases: 99.91341991341992
Instances selection time: 0.0
Test time: 7.0
Accumulative iteration time: 3369.0
Weighted Recall: 0.9670995670995671
Weighted FalsePositiveRate: 0.005483405483405484
Kappa statistic: 0.9616161616161615
Training time: 124.0
		
Iteration: 46
Labeled set size: 1131
Unlabelled set size: 24
	
Mean region size: 20.618429189857537
Incorrectly Classified Instances: 4.5021645021645025
Correctly Classified Instances: 95.4978354978355
Weighted Precision: 0.9553786469623867
Weighted AreaUnderROC: 0.9970151733788098
Root mean squared error: 0.0977293221513547
Relative absolute error: 10.060606060605993
Root relative squared error: 27.928480087537825
Weighted TruePositiveRate: 0.9549783549783549
Weighted MatthewsCorrelation: 0.9475738611258754
Weighted FMeasure: 0.9548484544523846
Iteration time: 129.0
Weighted AreaUnderPRC: 0.9851639746293084
Mean absolute error: 0.02463821892393315
Coverage of cases: 99.82683982683983
Instances selection time: 0.0
Test time: 7.0
Accumulative iteration time: 3498.0
Weighted Recall: 0.9549783549783549
Weighted FalsePositiveRate: 0.007503607503607502
Kappa statistic: 0.9474747474747472
Training time: 129.0
		
Time end:Sun Oct 08 05.14.19 EEST 2017