Sun Oct 08 05.13.43 EEST 2017
Dataset: segment
Test set size: 1155
Initial Labelled set size: 231
Initial Unlabelled set size: 924
Batch mode: QBestBatchMode
Batch size: 20
Classifiers: J48-1cores
Scenario: PoolBasedSamplingScenario
Query strategy: RandomSelectionQueryStrategy-1cores
Time begining: Sun Oct 08 05.13.43 EEST 2017
		
Iteration: 1
Labeled set size: 231
Unlabelled set size: 924
	
Mean region size: 15.559678416821061
Incorrectly Classified Instances: 12.64069264069264
Correctly Classified Instances: 87.35930735930737
Weighted Precision: 0.8731515729977002
Weighted AreaUnderROC: 0.934444881717609
Root mean squared error: 0.18843186397936676
Relative absolute error: 16.52204585537914
Root relative squared error: 53.84889043694684
Weighted TruePositiveRate: 0.8735930735930736
Weighted MatthewsCorrelation: 0.8520368396373372
Weighted FMeasure: 0.8724041579944299
Iteration time: 16.0
Weighted AreaUnderPRC: 0.7962189527416337
Mean absolute error: 0.0404621531152144
Coverage of cases: 89.43722943722943
Instances selection time: 3.0
Test time: 5.0
Accumulative iteration time: 16.0
Weighted Recall: 0.8735930735930736
Weighted FalsePositiveRate: 0.021067821067821065
Kappa statistic: 0.8525252525252524
Training time: 13.0
		
Iteration: 2
Labeled set size: 251
Unlabelled set size: 904
	
Mean region size: 14.829931972788913
Incorrectly Classified Instances: 10.216450216450216
Correctly Classified Instances: 89.78354978354979
Weighted Precision: 0.8972208615306546
Weighted AreaUnderROC: 0.9461183261183261
Root mean squared error: 0.16839640375289833
Relative absolute error: 12.864024864024792
Root relative squared error: 48.12328076666813
Weighted TruePositiveRate: 0.8978354978354979
Weighted MatthewsCorrelation: 0.8803326201005813
Weighted FMeasure: 0.8969074526209284
Iteration time: 15.0
Weighted AreaUnderPRC: 0.8339987044738261
Mean absolute error: 0.031503734360877174
Coverage of cases: 90.56277056277057
Instances selection time: 3.0
Test time: 4.0
Accumulative iteration time: 31.0
Weighted Recall: 0.8978354978354979
Weighted FalsePositiveRate: 0.01702741702741703
Kappa statistic: 0.8808080808080808
Training time: 12.0
		
Iteration: 3
Labeled set size: 271
Unlabelled set size: 884
	
Mean region size: 15.609152752009676
Incorrectly Classified Instances: 11.082251082251082
Correctly Classified Instances: 88.91774891774892
Weighted Precision: 0.8895794390338899
Weighted AreaUnderROC: 0.9421251475796931
Root mean squared error: 0.17578777934096818
Relative absolute error: 14.047138047137969
Root relative squared error: 50.23554228027221
Weighted TruePositiveRate: 0.8891774891774892
Weighted MatthewsCorrelation: 0.8706265286301809
Weighted FMeasure: 0.8884154446473708
Iteration time: 16.0
Weighted AreaUnderPRC: 0.8178653988398953
Mean absolute error: 0.034401154401154356
Coverage of cases: 90.3896103896104
Instances selection time: 3.0
Test time: 4.0
Accumulative iteration time: 47.0
Weighted Recall: 0.8891774891774892
Weighted FalsePositiveRate: 0.01847041847041847
Kappa statistic: 0.8707070707070705
Training time: 13.0
		
Iteration: 4
Labeled set size: 291
Unlabelled set size: 864
	
Mean region size: 16.52442795299914
Incorrectly Classified Instances: 10.043290043290042
Correctly Classified Instances: 89.95670995670996
Weighted Precision: 0.9014435996427532
Weighted AreaUnderROC: 0.9523560278105733
Root mean squared error: 0.16480651169598426
Relative absolute error: 12.888379923263528
Root relative squared error: 47.09738366003865
Weighted TruePositiveRate: 0.8995670995670996
Weighted MatthewsCorrelation: 0.8834566338736088
Weighted FMeasure: 0.8995068516613864
Iteration time: 17.0
Weighted AreaUnderPRC: 0.8470807703269109
Mean absolute error: 0.03156337940391082
Coverage of cases: 92.46753246753246
Instances selection time: 3.0
Test time: 4.0
Accumulative iteration time: 64.0
Weighted Recall: 0.8995670995670996
Weighted FalsePositiveRate: 0.01673881673881674
Kappa statistic: 0.8828282828282827
Training time: 14.0
		
Iteration: 5
Labeled set size: 311
Unlabelled set size: 844
	
Mean region size: 15.918367346938556
Incorrectly Classified Instances: 9.35064935064935
Correctly Classified Instances: 90.64935064935065
Weighted Precision: 0.9098137922717051
Weighted AreaUnderROC: 0.9559845205299752
Root mean squared error: 0.15557105088856868
Relative absolute error: 11.673197798990513
Root relative squared error: 44.458130899647266
Weighted TruePositiveRate: 0.9064935064935065
Weighted MatthewsCorrelation: 0.8918131201861956
Weighted FMeasure: 0.9057436245256473
Iteration time: 17.0
Weighted AreaUnderPRC: 0.8579875432926417
Mean absolute error: 0.028587423181201378
Coverage of cases: 92.98701298701299
Instances selection time: 2.0
Test time: 5.0
Accumulative iteration time: 81.0
Weighted Recall: 0.9064935064935065
Weighted FalsePositiveRate: 0.015584415584415584
Kappa statistic: 0.8909090909090909
Training time: 15.0
		
Iteration: 6
Labeled set size: 331
Unlabelled set size: 824
	
Mean region size: 15.68336425479261
Incorrectly Classified Instances: 9.87012987012987
Correctly Classified Instances: 90.12987012987013
Weighted Precision: 0.9014595337482745
Weighted AreaUnderROC: 0.9553815208360662
Root mean squared error: 0.1581365991732697
Relative absolute error: 12.02867565446834
Root relative squared error: 45.19129739057944
Weighted TruePositiveRate: 0.9012987012987013
Weighted MatthewsCorrelation: 0.8848558610722446
Weighted FMeasure: 0.9011335389922874
Iteration time: 19.0
Weighted AreaUnderPRC: 0.8621860481555491
Mean absolute error: 0.029457981194616473
Coverage of cases: 92.72727272727273
Instances selection time: 3.0
Test time: 4.0
Accumulative iteration time: 100.0
Weighted Recall: 0.9012987012987013
Weighted FalsePositiveRate: 0.01645021645021645
Kappa statistic: 0.8848484848484848
Training time: 16.0
		
Iteration: 7
Labeled set size: 351
Unlabelled set size: 804
	
Mean region size: 15.893630179344234
Incorrectly Classified Instances: 8.831168831168831
Correctly Classified Instances: 91.16883116883118
Weighted Precision: 0.9128041119030872
Weighted AreaUnderROC: 0.9688254842800297
Root mean squared error: 0.14304025778263096
Relative absolute error: 10.629541709812447
Root relative squared error: 40.87715849508847
Weighted TruePositiveRate: 0.9116883116883117
Weighted MatthewsCorrelation: 0.8972853672482982
Weighted FMeasure: 0.9114577218047858
Iteration time: 20.0
Weighted AreaUnderPRC: 0.9016666486777857
Mean absolute error: 0.026031530717908143
Coverage of cases: 94.63203463203463
Instances selection time: 2.0
Test time: 4.0
Accumulative iteration time: 120.0
Weighted Recall: 0.9116883116883117
Weighted FalsePositiveRate: 0.01471861471861472
Kappa statistic: 0.896969696969697
Training time: 18.0
		
Iteration: 8
Labeled set size: 371
Unlabelled set size: 784
	
Mean region size: 15.893630179344234
Incorrectly Classified Instances: 8.831168831168831
Correctly Classified Instances: 91.16883116883118
Weighted Precision: 0.9128041119030872
Weighted AreaUnderROC: 0.9678223796405614
Root mean squared error: 0.14303905807816963
Relative absolute error: 10.898670689579662
Root relative squared error: 40.87681565098169
Weighted TruePositiveRate: 0.9116883116883117
Weighted MatthewsCorrelation: 0.8972853672482982
Weighted FMeasure: 0.9114577218047858
Iteration time: 21.0
Weighted AreaUnderPRC: 0.9021502825232673
Mean absolute error: 0.0266906220969299
Coverage of cases: 94.63203463203463
Instances selection time: 2.0
Test time: 5.0
Accumulative iteration time: 141.0
Weighted Recall: 0.9116883116883117
Weighted FalsePositiveRate: 0.01471861471861472
Kappa statistic: 0.896969696969697
Training time: 19.0
		
Iteration: 9
Labeled set size: 391
Unlabelled set size: 764
	
Mean region size: 15.572047000618209
Incorrectly Classified Instances: 9.177489177489177
Correctly Classified Instances: 90.82251082251082
Weighted Precision: 0.9109082373524499
Weighted AreaUnderROC: 0.9541326686781233
Root mean squared error: 0.15394465083919454
Relative absolute error: 11.178134730766198
Root relative squared error: 43.99334837181013
Weighted TruePositiveRate: 0.9082251082251083
Weighted MatthewsCorrelation: 0.894108925473211
Weighted FMeasure: 0.9091241077220671
Iteration time: 22.0
Weighted AreaUnderPRC: 0.8741694547191993
Mean absolute error: 0.027375023830447945
Coverage of cases: 92.38095238095238
Instances selection time: 2.0
Test time: 4.0
Accumulative iteration time: 163.0
Weighted Recall: 0.9082251082251083
Weighted FalsePositiveRate: 0.015295815295815297
Kappa statistic: 0.892929292929293
Training time: 20.0
		
Iteration: 10
Labeled set size: 411
Unlabelled set size: 744
	
Mean region size: 15.448361162646659
Incorrectly Classified Instances: 7.0995670995671
Correctly Classified Instances: 92.9004329004329
Weighted Precision: 0.9287071856131456
Weighted AreaUnderROC: 0.9667121430757796
Root mean squared error: 0.13924829386444604
Relative absolute error: 10.2816657393459
Root relative squared error: 39.79351454411872
Weighted TruePositiveRate: 0.929004329004329
Weighted MatthewsCorrelation: 0.9169637178105922
Weighted FMeasure: 0.9286353631826423
Iteration time: 22.0
Weighted AreaUnderPRC: 0.8930293777178874
Mean absolute error: 0.02517958956574517
Coverage of cases: 93.85281385281385
Instances selection time: 2.0
Test time: 5.0
Accumulative iteration time: 185.0
Weighted Recall: 0.929004329004329
Weighted FalsePositiveRate: 0.011832611832611833
Kappa statistic: 0.9171717171717172
Training time: 20.0
		
Iteration: 11
Labeled set size: 431
Unlabelled set size: 724
	
Mean region size: 18.330241187383745
Incorrectly Classified Instances: 9.004329004329005
Correctly Classified Instances: 90.99567099567099
Weighted Precision: 0.9151545837979926
Weighted AreaUnderROC: 0.9630993921903013
Root mean squared error: 0.15212431140137306
Relative absolute error: 12.46803137760576
Root relative squared error: 43.47314304732193
Weighted TruePositiveRate: 0.90995670995671
Weighted MatthewsCorrelation: 0.8970687266162709
Weighted FMeasure: 0.911084647205683
Iteration time: 25.0
Weighted AreaUnderPRC: 0.8734340570152668
Mean absolute error: 0.030533954394136687
Coverage of cases: 94.45887445887446
Instances selection time: 2.0
Test time: 5.0
Accumulative iteration time: 210.0
Weighted Recall: 0.90995670995671
Weighted FalsePositiveRate: 0.015007215007215009
Kappa statistic: 0.8949494949494948
Training time: 23.0
		
Iteration: 12
Labeled set size: 451
Unlabelled set size: 704
	
Mean region size: 15.163883735312098
Incorrectly Classified Instances: 7.878787878787879
Correctly Classified Instances: 92.12121212121212
Weighted Precision: 0.9213210884749243
Weighted AreaUnderROC: 0.9580261489352399
Root mean squared error: 0.1438737849901724
Relative absolute error: 10.467620102205673
Root relative squared error: 41.11535873536221
Weighted TruePositiveRate: 0.9212121212121213
Weighted MatthewsCorrelation: 0.9081187440309403
Weighted FMeasure: 0.9212142487493776
Iteration time: 27.0
Weighted AreaUnderPRC: 0.8924899010090355
Mean absolute error: 0.02563498800540176
Coverage of cases: 92.98701298701299
Instances selection time: 2.0
Test time: 5.0
Accumulative iteration time: 237.0
Weighted Recall: 0.9212121212121213
Weighted FalsePositiveRate: 0.013131313131313133
Kappa statistic: 0.908080808080808
Training time: 25.0
		
Iteration: 13
Labeled set size: 471
Unlabelled set size: 684
	
Mean region size: 15.43599257884951
Incorrectly Classified Instances: 6.4935064935064934
Correctly Classified Instances: 93.50649350649351
Weighted Precision: 0.9370845637366357
Weighted AreaUnderROC: 0.9676570903843632
Root mean squared error: 0.13187242858735768
Relative absolute error: 9.073868576216015
Root relative squared error: 37.685685471074564
Weighted TruePositiveRate: 0.935064935064935
Weighted MatthewsCorrelation: 0.9250017631464883
Weighted FMeasure: 0.9352769412071916
Iteration time: 28.0
Weighted AreaUnderPRC: 0.9057587011272659
Mean absolute error: 0.022221718962161765
Coverage of cases: 94.63203463203463
Instances selection time: 1.0
Test time: 5.0
Accumulative iteration time: 265.0
Weighted Recall: 0.935064935064935
Weighted FalsePositiveRate: 0.010822510822510822
Kappa statistic: 0.9242424242424241
Training time: 27.0
		
Iteration: 14
Labeled set size: 491
Unlabelled set size: 664
	
Mean region size: 15.23809523809503
Incorrectly Classified Instances: 7.2727272727272725
Correctly Classified Instances: 92.72727272727273
Weighted Precision: 0.9308022142606351
Weighted AreaUnderROC: 0.9630897721806813
Root mean squared error: 0.1395404487944879
Relative absolute error: 9.598817046305598
Root relative squared error: 39.87700476963685
Weighted TruePositiveRate: 0.9272727272727272
Weighted MatthewsCorrelation: 0.9166013606845559
Weighted FMeasure: 0.9280625690878506
Iteration time: 27.0
Weighted AreaUnderPRC: 0.8912155521090379
Mean absolute error: 0.023507307052177073
Coverage of cases: 93.85281385281385
Instances selection time: 1.0
Test time: 5.0
Accumulative iteration time: 292.0
Weighted Recall: 0.9272727272727272
Weighted FalsePositiveRate: 0.012121212121212123
Kappa statistic: 0.9151515151515152
Training time: 26.0
		
Iteration: 15
Labeled set size: 511
Unlabelled set size: 644
	
Mean region size: 15.213358070500721
Incorrectly Classified Instances: 7.186147186147186
Correctly Classified Instances: 92.81385281385282
Weighted Precision: 0.930961441123987
Weighted AreaUnderROC: 0.9646403428221612
Root mean squared error: 0.1383627726107216
Relative absolute error: 9.695849265205808
Root relative squared error: 39.54045576751703
Weighted TruePositiveRate: 0.9281385281385282
Weighted MatthewsCorrelation: 0.9173484938429084
Weighted FMeasure: 0.9288764875813386
Iteration time: 28.0
Weighted AreaUnderPRC: 0.89131258482939
Mean absolute error: 0.023744936976014326
Coverage of cases: 93.93939393939394
Instances selection time: 1.0
Test time: 5.0
Accumulative iteration time: 320.0
Weighted Recall: 0.9281385281385282
Weighted FalsePositiveRate: 0.011976911976911976
Kappa statistic: 0.9161616161616162
Training time: 27.0
		
Iteration: 16
Labeled set size: 531
Unlabelled set size: 624
	
Mean region size: 15.250463821892184
Incorrectly Classified Instances: 7.0995670995671
Correctly Classified Instances: 92.9004329004329
Weighted Precision: 0.9319031624958786
Weighted AreaUnderROC: 0.9652551488915126
Root mean squared error: 0.13761944690798375
Relative absolute error: 9.607555108211402
Root relative squared error: 39.328032754336625
Weighted TruePositiveRate: 0.929004329004329
Weighted MatthewsCorrelation: 0.918381769687003
Weighted FMeasure: 0.9297288333164372
Iteration time: 29.0
Weighted AreaUnderPRC: 0.892825054613854
Mean absolute error: 0.023528706387456598
Coverage of cases: 94.02597402597402
Instances selection time: 2.0
Test time: 4.0
Accumulative iteration time: 349.0
Weighted Recall: 0.929004329004329
Weighted FalsePositiveRate: 0.011832611832611833
Kappa statistic: 0.9171717171717172
Training time: 27.0
		
Iteration: 17
Labeled set size: 551
Unlabelled set size: 604
	
Mean region size: 15.4112554112552
Incorrectly Classified Instances: 5.800865800865801
Correctly Classified Instances: 94.19913419913419
Weighted Precision: 0.9436266490362715
Weighted AreaUnderROC: 0.9735607153788971
Root mean squared error: 0.12382616767342745
Relative absolute error: 8.295975629308842
Root relative squared error: 35.38627488715782
Weighted TruePositiveRate: 0.941991341991342
Weighted MatthewsCorrelation: 0.932977503309595
Weighted FMeasure: 0.942308828631942
Iteration time: 30.0
Weighted AreaUnderPRC: 0.9176445813170427
Mean absolute error: 0.02031667501055235
Coverage of cases: 95.32467532467533
Instances selection time: 1.0
Test time: 5.0
Accumulative iteration time: 379.0
Weighted Recall: 0.941991341991342
Weighted FalsePositiveRate: 0.009668109668109668
Kappa statistic: 0.9323232323232322
Training time: 29.0
		
Iteration: 18
Labeled set size: 571
Unlabelled set size: 584
	
Mean region size: 14.928880643166146
Incorrectly Classified Instances: 5.541125541125541
Correctly Classified Instances: 94.45887445887446
Weighted Precision: 0.9445799491189963
Weighted AreaUnderROC: 0.9737076391621847
Root mean squared error: 0.12321877136108166
Relative absolute error: 8.078940924395386
Root relative squared error: 35.212696932853355
Weighted TruePositiveRate: 0.9445887445887445
Weighted MatthewsCorrelation: 0.9353101061411588
Weighted FMeasure: 0.944448436081573
Iteration time: 31.0
Weighted AreaUnderPRC: 0.9154117398645539
Mean absolute error: 0.019785161447498992
Coverage of cases: 95.32467532467533
Instances selection time: 2.0
Test time: 4.0
Accumulative iteration time: 410.0
Weighted Recall: 0.9445887445887445
Weighted FalsePositiveRate: 0.009235209235209235
Kappa statistic: 0.9353535353535352
Training time: 29.0
		
Iteration: 19
Labeled set size: 591
Unlabelled set size: 564
	
Mean region size: 14.928880643166146
Incorrectly Classified Instances: 5.541125541125541
Correctly Classified Instances: 94.45887445887446
Weighted Precision: 0.9445799491189963
Weighted AreaUnderROC: 0.9737076391621847
Root mean squared error: 0.123279500109087
Relative absolute error: 8.049467955440656
Root relative squared error: 35.230051618142
Weighted TruePositiveRate: 0.9445887445887445
Weighted MatthewsCorrelation: 0.9353101061411588
Weighted FMeasure: 0.944448436081573
Iteration time: 32.0
Weighted AreaUnderPRC: 0.9154117398645539
Mean absolute error: 0.01971298274801802
Coverage of cases: 95.32467532467533
Instances selection time: 1.0
Test time: 5.0
Accumulative iteration time: 442.0
Weighted Recall: 0.9445887445887445
Weighted FalsePositiveRate: 0.009235209235209235
Kappa statistic: 0.9353535353535352
Training time: 31.0
		
Iteration: 20
Labeled set size: 611
Unlabelled set size: 544
	
Mean region size: 14.916512059368994
Incorrectly Classified Instances: 7.012987012987013
Correctly Classified Instances: 92.98701298701299
Weighted Precision: 0.9295448212858902
Weighted AreaUnderROC: 0.9675433993615812
Root mean squared error: 0.13407120126926342
Relative absolute error: 9.417264641018635
Root relative squared error: 38.31403710302922
Weighted TruePositiveRate: 0.9298701298701298
Weighted MatthewsCorrelation: 0.9179009541370068
Weighted FMeasure: 0.9292788925959806
Iteration time: 33.0
Weighted AreaUnderPRC: 0.8972409084052282
Mean absolute error: 0.023062688916780427
Coverage of cases: 94.37229437229438
Instances selection time: 1.0
Test time: 5.0
Accumulative iteration time: 475.0
Weighted Recall: 0.9298701298701298
Weighted FalsePositiveRate: 0.011688311688311689
Kappa statistic: 0.918181818181818
Training time: 32.0
		
Iteration: 21
Labeled set size: 631
Unlabelled set size: 524
	
Mean region size: 14.916512059368994
Incorrectly Classified Instances: 7.012987012987013
Correctly Classified Instances: 92.98701298701299
Weighted Precision: 0.9295448212858902
Weighted AreaUnderROC: 0.9675433993615812
Root mean squared error: 0.13409704937233813
Relative absolute error: 9.366242707986643
Root relative squared error: 38.32142381375361
Weighted TruePositiveRate: 0.9298701298701298
Weighted MatthewsCorrelation: 0.9179009541370068
Weighted FMeasure: 0.9292788925959806
Iteration time: 34.0
Weighted AreaUnderPRC: 0.8972409084052282
Mean absolute error: 0.02293773724404902
Coverage of cases: 94.37229437229438
Instances selection time: 1.0
Test time: 5.0
Accumulative iteration time: 509.0
Weighted Recall: 0.9298701298701298
Weighted FalsePositiveRate: 0.011688311688311689
Kappa statistic: 0.918181818181818
Training time: 33.0
		
Iteration: 22
Labeled set size: 651
Unlabelled set size: 504
	
Mean region size: 14.632034632034431
Incorrectly Classified Instances: 4.935064935064935
Correctly Classified Instances: 95.06493506493507
Weighted Precision: 0.9508268152397529
Weighted AreaUnderROC: 0.9743272552363462
Root mean squared error: 0.11832565853617116
Relative absolute error: 7.238992139962117
Root relative squared error: 33.8143734707818
Weighted TruePositiveRate: 0.9506493506493506
Weighted MatthewsCorrelation: 0.9424443943014721
Weighted FMeasure: 0.9505102477842774
Iteration time: 33.0
Weighted AreaUnderPRC: 0.9143566991000613
Mean absolute error: 0.01772814401623383
Coverage of cases: 95.23809523809524
Instances selection time: 1.0
Test time: 5.0
Accumulative iteration time: 542.0
Weighted Recall: 0.9506493506493506
Weighted FalsePositiveRate: 0.008225108225108226
Kappa statistic: 0.9424242424242423
Training time: 32.0
		
Iteration: 23
Labeled set size: 671
Unlabelled set size: 484
	
Mean region size: 14.632034632034431
Incorrectly Classified Instances: 6.0606060606060606
Correctly Classified Instances: 93.93939393939394
Weighted Precision: 0.9391974054371846
Weighted AreaUnderROC: 0.9658874458874458
Root mean squared error: 0.13118905965432454
Relative absolute error: 8.504073037014779
Root relative squared error: 37.490396532007736
Weighted TruePositiveRate: 0.9393939393939394
Weighted MatthewsCorrelation: 0.9291004607533316
Weighted FMeasure: 0.9389571354722352
Iteration time: 34.0
Weighted AreaUnderPRC: 0.893023009071325
Mean absolute error: 0.020826301315138324
Coverage of cases: 94.11255411255411
Instances selection time: 1.0
Test time: 5.0
Accumulative iteration time: 576.0
Weighted Recall: 0.9393939393939394
Weighted FalsePositiveRate: 0.0101010101010101
Kappa statistic: 0.9292929292929294
Training time: 33.0
		
Iteration: 24
Labeled set size: 691
Unlabelled set size: 464
	
Mean region size: 15.856524427952781
Incorrectly Classified Instances: 5.887445887445887
Correctly Classified Instances: 94.11255411255411
Weighted Precision: 0.9415453718311375
Weighted AreaUnderROC: 0.9728156019065112
Root mean squared error: 0.12718701108413424
Relative absolute error: 8.59839446383082
Root relative squared error: 36.34671589101427
Weighted TruePositiveRate: 0.9411255411255411
Weighted MatthewsCorrelation: 0.9314173034025651
Weighted FMeasure: 0.9409943680857933
Iteration time: 37.0
Weighted AreaUnderPRC: 0.9056780662504238
Mean absolute error: 0.02105729256448373
Coverage of cases: 95.23809523809524
Instances selection time: 2.0
Test time: 4.0
Accumulative iteration time: 613.0
Weighted Recall: 0.9411255411255411
Weighted FalsePositiveRate: 0.00981240981240981
Kappa statistic: 0.9313131313131312
Training time: 35.0
		
Iteration: 25
Labeled set size: 711
Unlabelled set size: 444
	
Mean region size: 14.632034632034431
Incorrectly Classified Instances: 4.675324675324675
Correctly Classified Instances: 95.32467532467533
Weighted Precision: 0.9535695595497762
Weighted AreaUnderROC: 0.9786016004197824
Root mean squared error: 0.11489220997498675
Relative absolute error: 6.786855101776737
Root relative squared error: 32.833183816932404
Weighted TruePositiveRate: 0.9532467532467532
Weighted MatthewsCorrelation: 0.9455621311157743
Weighted FMeasure: 0.9532369583782986
Iteration time: 37.0
Weighted AreaUnderPRC: 0.9192591106789926
Mean absolute error: 0.016620869637004324
Coverage of cases: 95.4978354978355
Instances selection time: 1.0
Test time: 5.0
Accumulative iteration time: 650.0
Weighted Recall: 0.9532467532467532
Weighted FalsePositiveRate: 0.007792207792207792
Kappa statistic: 0.9454545454545454
Training time: 36.0
		
Iteration: 26
Labeled set size: 731
Unlabelled set size: 424
	
Mean region size: 14.557823129251501
Incorrectly Classified Instances: 5.714285714285714
Correctly Classified Instances: 94.28571428571429
Weighted Precision: 0.9440044812010452
Weighted AreaUnderROC: 0.9714766714766716
Root mean squared error: 0.1258125748347046
Relative absolute error: 7.800151443715809
Root relative squared error: 35.953938016587415
Weighted TruePositiveRate: 0.9428571428571428
Weighted MatthewsCorrelation: 0.9336871783852173
Weighted FMeasure: 0.9427116494958048
Iteration time: 39.0
Weighted AreaUnderPRC: 0.9000359317303683
Mean absolute error: 0.01910241169889594
Coverage of cases: 94.54545454545455
Instances selection time: 1.0
Test time: 5.0
Accumulative iteration time: 689.0
Weighted Recall: 0.9428571428571428
Weighted FalsePositiveRate: 0.009523809523809525
Kappa statistic: 0.9333333333333333
Training time: 38.0
		
Iteration: 27
Labeled set size: 751
Unlabelled set size: 404
	
Mean region size: 14.508348794062883
Incorrectly Classified Instances: 5.2813852813852815
Correctly Classified Instances: 94.71861471861472
Weighted Precision: 0.947613437335869
Weighted AreaUnderROC: 0.9697245179063363
Root mean squared error: 0.12198560344463404
Relative absolute error: 7.221122952158071
Root relative squared error: 34.860289847232124
Weighted TruePositiveRate: 0.9471861471861471
Weighted MatthewsCorrelation: 0.9385268390380811
Weighted FMeasure: 0.947175477434917
Iteration time: 40.0
Weighted AreaUnderPRC: 0.9064673148057484
Mean absolute error: 0.017684382739979024
Coverage of cases: 94.97835497835497
Instances selection time: 1.0
Test time: 5.0
Accumulative iteration time: 729.0
Weighted Recall: 0.9471861471861471
Weighted FalsePositiveRate: 0.008802308802308803
Kappa statistic: 0.9383838383838383
Training time: 39.0
		
Iteration: 28
Labeled set size: 771
Unlabelled set size: 384
	
Mean region size: 14.508348794062883
Incorrectly Classified Instances: 5.2813852813852815
Correctly Classified Instances: 94.71861471861472
Weighted Precision: 0.947613437335869
Weighted AreaUnderROC: 0.9697428833792472
Root mean squared error: 0.12197937891677
Relative absolute error: 7.176337845736646
Root relative squared error: 34.85851104023052
Weighted TruePositiveRate: 0.9471861471861471
Weighted MatthewsCorrelation: 0.9385268390380811
Weighted FMeasure: 0.947175477434917
Iteration time: 41.0
Weighted AreaUnderPRC: 0.9066084418679463
Mean absolute error: 0.017574704928334718
Coverage of cases: 94.97835497835497
Instances selection time: 0.0
Test time: 5.0
Accumulative iteration time: 770.0
Weighted Recall: 0.9471861471861471
Weighted FalsePositiveRate: 0.008802308802308803
Kappa statistic: 0.9383838383838383
Training time: 41.0
		
Iteration: 29
Labeled set size: 791
Unlabelled set size: 364
	
Mean region size: 14.508348794062883
Incorrectly Classified Instances: 5.2813852813852815
Correctly Classified Instances: 94.71861471861472
Weighted Precision: 0.947613437335869
Weighted AreaUnderROC: 0.9697428833792472
Root mean squared error: 0.12199432819885152
Relative absolute error: 7.153509465439587
Root relative squared error: 34.86278315342793
Weighted TruePositiveRate: 0.9471861471861471
Weighted MatthewsCorrelation: 0.9385268390380811
Weighted FMeasure: 0.947175477434917
Iteration time: 42.0
Weighted AreaUnderPRC: 0.9066084418679463
Mean absolute error: 0.01751879869087253
Coverage of cases: 94.97835497835497
Instances selection time: 1.0
Test time: 5.0
Accumulative iteration time: 812.0
Weighted Recall: 0.9471861471861471
Weighted FalsePositiveRate: 0.008802308802308803
Kappa statistic: 0.9383838383838383
Training time: 41.0
		
Iteration: 30
Labeled set size: 811
Unlabelled set size: 344
	
Mean region size: 14.80519480519461
Incorrectly Classified Instances: 5.2813852813852815
Correctly Classified Instances: 94.71861471861472
Weighted Precision: 0.9478058842115687
Weighted AreaUnderROC: 0.973854562945472
Root mean squared error: 0.118914137077391
Relative absolute error: 7.166090000206651
Root relative squared error: 33.982545221681164
Weighted TruePositiveRate: 0.9471861471861471
Weighted MatthewsCorrelation: 0.9386309745325594
Weighted FMeasure: 0.9473091595305396
Iteration time: 43.0
Weighted AreaUnderPRC: 0.9190264603369953
Mean absolute error: 0.017549608163771466
Coverage of cases: 95.4978354978355
Instances selection time: 1.0
Test time: 5.0
Accumulative iteration time: 855.0
Weighted Recall: 0.9471861471861471
Weighted FalsePositiveRate: 0.008802308802308801
Kappa statistic: 0.9383838383838383
Training time: 42.0
		
Iteration: 31
Labeled set size: 831
Unlabelled set size: 324
	
Mean region size: 14.80519480519461
Incorrectly Classified Instances: 5.2813852813852815
Correctly Classified Instances: 94.71861471861472
Weighted Precision: 0.9478058842115687
Weighted AreaUnderROC: 0.973854562945472
Root mean squared error: 0.11892565076180603
Relative absolute error: 7.14094017629424
Root relative squared error: 33.98583553106673
Weighted TruePositiveRate: 0.9471861471861471
Weighted MatthewsCorrelation: 0.9386309745325594
Weighted FMeasure: 0.9473091595305396
Iteration time: 44.0
Weighted AreaUnderPRC: 0.9190264603369953
Mean absolute error: 0.017488016758271684
Coverage of cases: 95.4978354978355
Instances selection time: 0.0
Test time: 5.0
Accumulative iteration time: 899.0
Weighted Recall: 0.9471861471861471
Weighted FalsePositiveRate: 0.008802308802308801
Kappa statistic: 0.9383838383838383
Training time: 44.0
		
Iteration: 32
Labeled set size: 851
Unlabelled set size: 304
	
Mean region size: 14.755720470005988
Incorrectly Classified Instances: 4.935064935064935
Correctly Classified Instances: 95.06493506493507
Weighted Precision: 0.9515662584492233
Weighted AreaUnderROC: 0.9737806637806639
Root mean squared error: 0.11677808244134831
Relative absolute error: 6.805737749347747
Root relative squared error: 33.37211676422988
Weighted TruePositiveRate: 0.9506493506493506
Weighted MatthewsCorrelation: 0.9427908988086885
Weighted FMeasure: 0.9508319112356388
Iteration time: 45.0
Weighted AreaUnderPRC: 0.9181663002795897
Mean absolute error: 0.016667112855545573
Coverage of cases: 95.4978354978355
Instances selection time: 0.0
Test time: 5.0
Accumulative iteration time: 944.0
Weighted Recall: 0.9506493506493506
Weighted FalsePositiveRate: 0.008225108225108226
Kappa statistic: 0.9424242424242423
Training time: 45.0
		
Iteration: 33
Labeled set size: 871
Unlabelled set size: 284
	
Mean region size: 14.755720470005988
Incorrectly Classified Instances: 4.935064935064935
Correctly Classified Instances: 95.06493506493507
Weighted Precision: 0.9515662584492233
Weighted AreaUnderROC: 0.9737806637806639
Root mean squared error: 0.11677842023651372
Relative absolute error: 6.787500163527989
Root relative squared error: 33.37221329723905
Weighted TruePositiveRate: 0.9506493506493506
Weighted MatthewsCorrelation: 0.9427908988086885
Weighted FMeasure: 0.9508319112356388
Iteration time: 46.0
Weighted AreaUnderPRC: 0.9181663002795897
Mean absolute error: 0.016622449380068616
Coverage of cases: 95.4978354978355
Instances selection time: 1.0
Test time: 5.0
Accumulative iteration time: 990.0
Weighted Recall: 0.9506493506493506
Weighted FalsePositiveRate: 0.008225108225108226
Kappa statistic: 0.9424242424242423
Training time: 45.0
		
Iteration: 34
Labeled set size: 891
Unlabelled set size: 264
	
Mean region size: 14.706246134817365
Incorrectly Classified Instances: 4.935064935064935
Correctly Classified Instances: 95.06493506493507
Weighted Precision: 0.9514117626083599
Weighted AreaUnderROC: 0.9768577550395732
Root mean squared error: 0.11593199193422414
Relative absolute error: 6.6605363258368735
Root relative squared error: 33.13032626205209
Weighted TruePositiveRate: 0.9506493506493506
Weighted MatthewsCorrelation: 0.9427306130325109
Weighted FMeasure: 0.9508076515182493
Iteration time: 47.0
Weighted AreaUnderPRC: 0.9259853185463257
Mean absolute error: 0.0163115175326618
Coverage of cases: 95.93073593073593
Instances selection time: 1.0
Test time: 5.0
Accumulative iteration time: 1037.0
Weighted Recall: 0.9506493506493506
Weighted FalsePositiveRate: 0.008225108225108226
Kappa statistic: 0.9424242424242423
Training time: 46.0
		
Iteration: 35
Labeled set size: 911
Unlabelled set size: 244
	
Mean region size: 14.471243042671416
Incorrectly Classified Instances: 5.021645021645021
Correctly Classified Instances: 94.97835497835497
Weighted Precision: 0.9501100823590384
Weighted AreaUnderROC: 0.974001049455595
Root mean squared error: 0.11902144001986371
Relative absolute error: 6.6812086812086555
Root relative squared error: 34.01320959165953
Weighted TruePositiveRate: 0.9497835497835497
Weighted MatthewsCorrelation: 0.941542788834121
Weighted FMeasure: 0.9498427333439521
Iteration time: 44.0
Weighted AreaUnderPRC: 0.913466466610571
Mean absolute error: 0.016362143709082493
Coverage of cases: 95.15151515151516
Instances selection time: 0.0
Test time: 5.0
Accumulative iteration time: 1081.0
Weighted Recall: 0.9497835497835497
Weighted FalsePositiveRate: 0.008369408369408369
Kappa statistic: 0.9414141414141413
Training time: 44.0
		
Iteration: 36
Labeled set size: 931
Unlabelled set size: 224
	
Mean region size: 14.743351886208826
Incorrectly Classified Instances: 5.367965367965368
Correctly Classified Instances: 94.63203463203463
Weighted Precision: 0.9463879997183782
Weighted AreaUnderROC: 0.9769959333595698
Root mean squared error: 0.11838985795534719
Relative absolute error: 7.012982222057995
Root relative squared error: 33.83271998297098
Weighted TruePositiveRate: 0.9463203463203463
Weighted MatthewsCorrelation: 0.9373915758314351
Weighted FMeasure: 0.9463017412918923
Iteration time: 47.0
Weighted AreaUnderPRC: 0.9213633350821328
Mean absolute error: 0.01717465033973394
Coverage of cases: 95.58441558441558
Instances selection time: 1.0
Test time: 5.0
Accumulative iteration time: 1128.0
Weighted Recall: 0.9463203463203463
Weighted FalsePositiveRate: 0.008946608946608947
Kappa statistic: 0.9373737373737373
Training time: 46.0
		
Iteration: 37
Labeled set size: 951
Unlabelled set size: 204
	
Mean region size: 14.582560296845811
Incorrectly Classified Instances: 5.108225108225108
Correctly Classified Instances: 94.89177489177489
Weighted Precision: 0.9490575542588472
Weighted AreaUnderROC: 0.9766815339542613
Root mean squared error: 0.11704031878830595
Relative absolute error: 6.644259190599622
Root relative squared error: 33.44705704246994
Weighted TruePositiveRate: 0.9489177489177489
Weighted MatthewsCorrelation: 0.9404667581614046
Weighted FMeasure: 0.9489696568189719
Iteration time: 48.0
Weighted AreaUnderPRC: 0.9209809467699047
Mean absolute error: 0.016271655160652206
Coverage of cases: 95.4978354978355
Instances selection time: 1.0
Test time: 4.0
Accumulative iteration time: 1176.0
Weighted Recall: 0.9489177489177489
Weighted FalsePositiveRate: 0.008513708513708513
Kappa statistic: 0.9404040404040405
Training time: 47.0
		
Iteration: 38
Labeled set size: 971
Unlabelled set size: 184
	
Mean region size: 14.619666048237276
Incorrectly Classified Instances: 5.108225108225108
Correctly Classified Instances: 94.89177489177489
Weighted Precision: 0.9490575542588472
Weighted AreaUnderROC: 0.9766618566618567
Root mean squared error: 0.11741261449825287
Relative absolute error: 6.735489615560585
Root relative squared error: 33.55344940346294
Weighted TruePositiveRate: 0.9489177489177489
Weighted MatthewsCorrelation: 0.9404667581614046
Weighted FMeasure: 0.9489696568189719
Iteration time: 48.0
Weighted AreaUnderPRC: 0.9208033934453186
Mean absolute error: 0.016495076609536197
Coverage of cases: 95.4978354978355
Instances selection time: 0.0
Test time: 5.0
Accumulative iteration time: 1224.0
Weighted Recall: 0.9489177489177489
Weighted FalsePositiveRate: 0.008513708513708513
Kappa statistic: 0.9404040404040405
Training time: 48.0
		
Iteration: 39
Labeled set size: 991
Unlabelled set size: 164
	
Mean region size: 14.619666048237276
Incorrectly Classified Instances: 5.108225108225108
Correctly Classified Instances: 94.89177489177489
Weighted Precision: 0.9490575542588472
Weighted AreaUnderROC: 0.9766618566618567
Root mean squared error: 0.11741259306093105
Relative absolute error: 6.726559771222074
Root relative squared error: 33.55344327723795
Weighted TruePositiveRate: 0.9489177489177489
Weighted MatthewsCorrelation: 0.9404667581614046
Weighted FMeasure: 0.9489696568189719
Iteration time: 49.0
Weighted AreaUnderPRC: 0.9208033934453186
Mean absolute error: 0.016473207602992902
Coverage of cases: 95.4978354978355
Instances selection time: 0.0
Test time: 5.0
Accumulative iteration time: 1273.0
Weighted Recall: 0.9489177489177489
Weighted FalsePositiveRate: 0.008513708513708513
Kappa statistic: 0.9404040404040405
Training time: 49.0
		
Iteration: 40
Labeled set size: 1011
Unlabelled set size: 144
	
Mean region size: 15.00309214594908
Incorrectly Classified Instances: 4.935064935064935
Correctly Classified Instances: 95.06493506493507
Weighted Precision: 0.9508641932627689
Weighted AreaUnderROC: 0.9796934715116533
Root mean squared error: 0.11516440453610967
Relative absolute error: 6.4835898344669864
Root relative squared error: 32.9109698919088
Weighted TruePositiveRate: 0.9506493506493506
Weighted MatthewsCorrelation: 0.9425129947417481
Weighted FMeasure: 0.950701980753303
Iteration time: 49.0
Weighted AreaUnderPRC: 0.9293071232558228
Mean absolute error: 0.01587817918644983
Coverage of cases: 96.53679653679653
Instances selection time: 0.0
Test time: 5.0
Accumulative iteration time: 1322.0
Weighted Recall: 0.9506493506493506
Weighted FalsePositiveRate: 0.008225108225108226
Kappa statistic: 0.9424242424242423
Training time: 49.0
		
Iteration: 41
Labeled set size: 1031
Unlabelled set size: 124
	
Mean region size: 14.557823129251501
Incorrectly Classified Instances: 4.848484848484849
Correctly Classified Instances: 95.15151515151516
Weighted Precision: 0.9524563787901291
Weighted AreaUnderROC: 0.9746407800953255
Root mean squared error: 0.11641156902205906
Relative absolute error: 6.223813379931545
Root relative squared error: 33.26737683043005
Weighted TruePositiveRate: 0.9515151515151515
Weighted MatthewsCorrelation: 0.9438411847782262
Weighted FMeasure: 0.951805504519081
Iteration time: 50.0
Weighted AreaUnderPRC: 0.9220732686391794
Mean absolute error: 0.015241991950852827
Coverage of cases: 95.4978354978355
Instances selection time: 0.0
Test time: 5.0
Accumulative iteration time: 1372.0
Weighted Recall: 0.9515151515151515
Weighted FalsePositiveRate: 0.008080808080808079
Kappa statistic: 0.9434343434343433
Training time: 50.0
		
Iteration: 42
Labeled set size: 1051
Unlabelled set size: 104
	
Mean region size: 14.372294372294178
Incorrectly Classified Instances: 5.021645021645021
Correctly Classified Instances: 94.97835497835497
Weighted Precision: 0.9501954852769878
Weighted AreaUnderROC: 0.9721225239407058
Root mean squared error: 0.11894890511550248
Relative absolute error: 6.242704826038114
Root relative squared error: 33.99248101616642
Weighted TruePositiveRate: 0.9497835497835497
Weighted MatthewsCorrelation: 0.9415984489231458
Weighted FMeasure: 0.9499339841681235
Iteration time: 51.0
Weighted AreaUnderPRC: 0.9092010086231566
Mean absolute error: 0.015288256716828099
Coverage of cases: 95.23809523809524
Instances selection time: 1.0
Test time: 4.0
Accumulative iteration time: 1423.0
Weighted Recall: 0.9497835497835497
Weighted FalsePositiveRate: 0.00836940836940837
Kappa statistic: 0.9414141414141413
Training time: 50.0
		
Iteration: 43
Labeled set size: 1071
Unlabelled set size: 84
	
Mean region size: 14.372294372294178
Incorrectly Classified Instances: 5.021645021645021
Correctly Classified Instances: 94.97835497835497
Weighted Precision: 0.9501954852769878
Weighted AreaUnderROC: 0.9721225239407058
Root mean squared error: 0.11895187281699497
Relative absolute error: 6.238510869342473
Root relative squared error: 33.99332910750907
Weighted TruePositiveRate: 0.9497835497835497
Weighted MatthewsCorrelation: 0.9415984489231458
Weighted FMeasure: 0.9499339841681235
Iteration time: 51.0
Weighted AreaUnderPRC: 0.9092010086231566
Mean absolute error: 0.015277985802471429
Coverage of cases: 95.23809523809524
Instances selection time: 0.0
Test time: 5.0
Accumulative iteration time: 1474.0
Weighted Recall: 0.9497835497835497
Weighted FalsePositiveRate: 0.00836940836940837
Kappa statistic: 0.9414141414141413
Training time: 51.0
		
Iteration: 44
Labeled set size: 1091
Unlabelled set size: 64
	
Mean region size: 14.372294372294178
Incorrectly Classified Instances: 4.848484848484849
Correctly Classified Instances: 95.15151515151516
Weighted Precision: 0.9520034812026308
Weighted AreaUnderROC: 0.9734535834535835
Root mean squared error: 0.11685225643598496
Relative absolute error: 6.0298235979755805
Root relative squared error: 33.39331374878498
Weighted TruePositiveRate: 0.9515151515151515
Weighted MatthewsCorrelation: 0.9436559792193364
Weighted FMeasure: 0.9517043531026714
Iteration time: 53.0
Weighted AreaUnderPRC: 0.9132564550360802
Mean absolute error: 0.014766914933817812
Coverage of cases: 95.41125541125541
Instances selection time: 1.0
Test time: 4.0
Accumulative iteration time: 1527.0
Weighted Recall: 0.9515151515151515
Weighted FalsePositiveRate: 0.00808080808080808
Kappa statistic: 0.9434343434343433
Training time: 52.0
		
Iteration: 45
Labeled set size: 1111
Unlabelled set size: 44
	
Mean region size: 14.372294372294178
Incorrectly Classified Instances: 4.848484848484849
Correctly Classified Instances: 95.15151515151516
Weighted Precision: 0.9520034812026308
Weighted AreaUnderROC: 0.9734535834535835
Root mean squared error: 0.1168549501704918
Relative absolute error: 6.025844081783371
Root relative squared error: 33.39408354754015
Weighted TruePositiveRate: 0.9515151515151515
Weighted MatthewsCorrelation: 0.9436559792193364
Weighted FMeasure: 0.9517043531026714
Iteration time: 55.0
Weighted AreaUnderPRC: 0.9132564550360802
Mean absolute error: 0.014757169179877707
Coverage of cases: 95.41125541125541
Instances selection time: 1.0
Test time: 4.0
Accumulative iteration time: 1582.0
Weighted Recall: 0.9515151515151515
Weighted FalsePositiveRate: 0.00808080808080808
Kappa statistic: 0.9434343434343433
Training time: 54.0
		
Iteration: 46
Labeled set size: 1131
Unlabelled set size: 24
	
Mean region size: 14.372294372294178
Incorrectly Classified Instances: 4.848484848484849
Correctly Classified Instances: 95.15151515151516
Weighted Precision: 0.9520034812026308
Weighted AreaUnderROC: 0.9739643185097729
Root mean squared error: 0.11679505003440845
Relative absolute error: 6.113369271402406
Root relative squared error: 33.376965657831946
Weighted TruePositiveRate: 0.9515151515151515
Weighted MatthewsCorrelation: 0.9436559792193364
Weighted FMeasure: 0.9517043531026714
Iteration time: 54.0
Weighted AreaUnderPRC: 0.9140778063038602
Mean absolute error: 0.014971516583026366
Coverage of cases: 95.41125541125541
Instances selection time: 1.0
Test time: 5.0
Accumulative iteration time: 1636.0
Weighted Recall: 0.9515151515151515
Weighted FalsePositiveRate: 0.00808080808080808
Kappa statistic: 0.9434343434343433
Training time: 53.0
		
Time end:Sun Oct 08 05.13.48 EEST 2017