Sun Oct 08 05.10.24 EEST 2017
Dataset: segment
Test set size: 1155
Initial Labelled set size: 231
Initial Unlabelled set size: 924
Batch mode: QBestBatchMode
Batch size: 20
Classifiers: SMO-1cores
Scenario: PoolBasedSamplingScenario
Query strategy: RandomSelectionQueryStrategy-1cores
Time begining: Sun Oct 08 05.10.24 EEST 2017
		
Iteration: 1
Labeled set size: 231
Unlabelled set size: 924
	
Mean region size: 73.27149041434602
Incorrectly Classified Instances: 13.41991341991342
Correctly Classified Instances: 86.58008658008659
Weighted Precision: 0.8719203962505939
Weighted AreaUnderROC: 0.9503017184835368
Root mean squared error: 0.3060835083686732
Relative absolute error: 84.60798460798586
Root relative squared error: 87.47064832148446
Weighted TruePositiveRate: 0.8658008658008658
Weighted MatthewsCorrelation: 0.845104802723828
Weighted FMeasure: 0.8645206401830122
Iteration time: 166.0
Weighted AreaUnderPRC: 0.8066997628354685
Mean absolute error: 0.2072032276113948
Coverage of cases: 99.56709956709956
Instances selection time: 3.0
Test time: 9.0
Accumulative iteration time: 166.0
Weighted Recall: 0.8658008658008658
Weighted FalsePositiveRate: 0.022366522366522364
Kappa statistic: 0.8434343434343434
Training time: 163.0
		
Iteration: 2
Labeled set size: 251
Unlabelled set size: 904
	
Mean region size: 72.15831787260205
Incorrectly Classified Instances: 12.207792207792208
Correctly Classified Instances: 87.79220779220779
Weighted Precision: 0.8823538016421577
Weighted AreaUnderROC: 0.9566662293935021
Root mean squared error: 0.3055635200701066
Relative absolute error: 84.44925444925569
Root relative squared error: 87.32204928771874
Weighted TruePositiveRate: 0.8779220779220779
Weighted MatthewsCorrelation: 0.8588680160897091
Weighted FMeasure: 0.8772363750941498
Iteration time: 156.0
Weighted AreaUnderPRC: 0.8280931111556861
Mean absolute error: 0.20681450069205565
Coverage of cases: 99.56709956709956
Instances selection time: 3.0
Test time: 9.0
Accumulative iteration time: 322.0
Weighted Recall: 0.8779220779220779
Weighted FalsePositiveRate: 0.020346320346320345
Kappa statistic: 0.8575757575757574
Training time: 153.0
		
Iteration: 3
Labeled set size: 271
Unlabelled set size: 884
	
Mean region size: 72.03463203463049
Incorrectly Classified Instances: 10.995670995670995
Correctly Classified Instances: 89.00432900432901
Weighted Precision: 0.8898432816073312
Weighted AreaUnderROC: 0.9630714067077704
Root mean squared error: 0.3050619528941778
Relative absolute error: 84.31938431938553
Root relative squared error: 87.17871452823074
Weighted TruePositiveRate: 0.8900432900432901
Weighted MatthewsCorrelation: 0.8712842237713584
Weighted FMeasure: 0.888776425312077
Iteration time: 158.0
Weighted AreaUnderPRC: 0.8404023220600116
Mean absolute error: 0.20649645139441444
Coverage of cases: 99.56709956709956
Instances selection time: 3.0
Test time: 9.0
Accumulative iteration time: 480.0
Weighted Recall: 0.8900432900432901
Weighted FalsePositiveRate: 0.018326118326118326
Kappa statistic: 0.8717171717171717
Training time: 155.0
		
Iteration: 4
Labeled set size: 291
Unlabelled set size: 864
	
Mean region size: 72.70253555967687
Incorrectly Classified Instances: 11.341991341991342
Correctly Classified Instances: 88.65800865800865
Weighted Precision: 0.8871554001685743
Weighted AreaUnderROC: 0.9636814027723118
Root mean squared error: 0.3050159806113978
Relative absolute error: 84.32419432419552
Root relative squared error: 87.16557685413316
Weighted TruePositiveRate: 0.8865800865800866
Weighted MatthewsCorrelation: 0.8676616127460669
Weighted FMeasure: 0.88583189242686
Iteration time: 158.0
Weighted AreaUnderPRC: 0.8366052764649995
Mean absolute error: 0.20650823099803073
Coverage of cases: 99.56709956709956
Instances selection time: 3.0
Test time: 9.0
Accumulative iteration time: 638.0
Weighted Recall: 0.8865800865800866
Weighted FalsePositiveRate: 0.0189033189033189
Kappa statistic: 0.8676767676767677
Training time: 155.0
		
Iteration: 5
Labeled set size: 311
Unlabelled set size: 844
	
Mean region size: 72.73964131106833
Incorrectly Classified Instances: 10.12987012987013
Correctly Classified Instances: 89.87012987012987
Weighted Precision: 0.8987935206753704
Weighted AreaUnderROC: 0.9644619353710262
Root mean squared error: 0.3048458228839746
Relative absolute error: 84.28571428571547
Root relative squared error: 87.11695023320236
Weighted TruePositiveRate: 0.8987012987012987
Weighted MatthewsCorrelation: 0.8817323490381195
Weighted FMeasure: 0.8982967843383557
Iteration time: 159.0
Weighted AreaUnderPRC: 0.8494673477926439
Mean absolute error: 0.20641399416910003
Coverage of cases: 99.56709956709956
Instances selection time: 2.0
Test time: 9.0
Accumulative iteration time: 797.0
Weighted Recall: 0.8987012987012987
Weighted FalsePositiveRate: 0.016883116883116882
Kappa statistic: 0.8818181818181816
Training time: 157.0
		
Iteration: 6
Labeled set size: 331
Unlabelled set size: 824
	
Mean region size: 73.07359307359151
Incorrectly Classified Instances: 9.87012987012987
Correctly Classified Instances: 90.12987012987013
Weighted Precision: 0.9006111870035372
Weighted AreaUnderROC: 0.9639004766277494
Root mean squared error: 0.3048237414075136
Relative absolute error: 84.29052429052551
Root relative squared error: 87.11063992569107
Weighted TruePositiveRate: 0.9012987012987013
Weighted MatthewsCorrelation: 0.884306273993115
Weighted FMeasure: 0.9002288329728736
Iteration time: 160.0
Weighted AreaUnderPRC: 0.8503559558153923
Mean absolute error: 0.20642577377271643
Coverage of cases: 99.56709956709956
Instances selection time: 2.0
Test time: 9.0
Accumulative iteration time: 957.0
Weighted Recall: 0.9012987012987013
Weighted FalsePositiveRate: 0.01645021645021645
Kappa statistic: 0.8848484848484848
Training time: 158.0
		
Iteration: 7
Labeled set size: 351
Unlabelled set size: 804
	
Mean region size: 73.23438466295454
Incorrectly Classified Instances: 10.303030303030303
Correctly Classified Instances: 89.6969696969697
Weighted Precision: 0.8965429697618038
Weighted AreaUnderROC: 0.9658870086142812
Root mean squared error: 0.30454666693383353
Relative absolute error: 84.22799422799545
Root relative squared error: 87.03145929954333
Weighted TruePositiveRate: 0.896969696969697
Weighted MatthewsCorrelation: 0.8794727217660957
Weighted FMeasure: 0.8963490668168728
Iteration time: 161.0
Weighted AreaUnderPRC: 0.8485128343134141
Mean absolute error: 0.20627263892570405
Coverage of cases: 99.91341991341992
Instances selection time: 3.0
Test time: 9.0
Accumulative iteration time: 1118.0
Weighted Recall: 0.896969696969697
Weighted FalsePositiveRate: 0.01717171717171717
Kappa statistic: 0.8797979797979798
Training time: 158.0
		
Iteration: 8
Labeled set size: 371
Unlabelled set size: 784
	
Mean region size: 73.2838589981432
Incorrectly Classified Instances: 9.696969696969697
Correctly Classified Instances: 90.3030303030303
Weighted Precision: 0.9030555306009488
Weighted AreaUnderROC: 0.9678870960689142
Root mean squared error: 0.3043697966412629
Relative absolute error: 84.1895141895154
Root relative squared error: 86.98091440334026
Weighted TruePositiveRate: 0.9030303030303031
Weighted MatthewsCorrelation: 0.8866784310921912
Weighted FMeasure: 0.9023512762826912
Iteration time: 162.0
Weighted AreaUnderPRC: 0.8582918985177523
Mean absolute error: 0.20617840209677332
Coverage of cases: 99.91341991341992
Instances selection time: 2.0
Test time: 9.0
Accumulative iteration time: 1280.0
Weighted Recall: 0.9030303030303031
Weighted FalsePositiveRate: 0.01616161616161616
Kappa statistic: 0.8868686868686869
Training time: 160.0
		
Iteration: 9
Labeled set size: 391
Unlabelled set size: 764
	
Mean region size: 73.23438466295458
Incorrectly Classified Instances: 9.956709956709958
Correctly Classified Instances: 90.04329004329004
Weighted Precision: 0.8996215689605953
Weighted AreaUnderROC: 0.9669530805894442
Root mean squared error: 0.30447021998801044
Relative absolute error: 84.20875420875544
Root relative squared error: 87.0096127650829
Weighted TruePositiveRate: 0.9004329004329005
Weighted MatthewsCorrelation: 0.8833689147729504
Weighted FMeasure: 0.8997622529964379
Iteration time: 162.0
Weighted AreaUnderPRC: 0.8525281731031917
Mean absolute error: 0.20622552051123869
Coverage of cases: 99.91341991341992
Instances selection time: 2.0
Test time: 9.0
Accumulative iteration time: 1442.0
Weighted Recall: 0.9004329004329005
Weighted FalsePositiveRate: 0.016594516594516592
Kappa statistic: 0.8838383838383838
Training time: 160.0
		
Iteration: 10
Labeled set size: 411
Unlabelled set size: 744
	
Mean region size: 73.35807050092608
Incorrectly Classified Instances: 9.437229437229437
Correctly Classified Instances: 90.56277056277057
Weighted Precision: 0.9047439324084616
Weighted AreaUnderROC: 0.9675289693471513
Root mean squared error: 0.3042877750180747
Relative absolute error: 84.16065416065538
Root relative squared error: 86.95747477212691
Weighted TruePositiveRate: 0.9056277056277057
Weighted MatthewsCorrelation: 0.889332788119794
Weighted FMeasure: 0.9047104871400823
Iteration time: 166.0
Weighted AreaUnderPRC: 0.8588664483849178
Mean absolute error: 0.2061077244750753
Coverage of cases: 99.91341991341992
Instances selection time: 2.0
Test time: 9.0
Accumulative iteration time: 1608.0
Weighted Recall: 0.9056277056277057
Weighted FalsePositiveRate: 0.01572871572871573
Kappa statistic: 0.8898989898989899
Training time: 164.0
		
Iteration: 11
Labeled set size: 431
Unlabelled set size: 724
	
Mean region size: 73.43228200370905
Incorrectly Classified Instances: 8.831168831168831
Correctly Classified Instances: 91.16883116883118
Weighted Precision: 0.9106358469199277
Weighted AreaUnderROC: 0.9674332065241156
Root mean squared error: 0.304224170002267
Relative absolute error: 84.15103415103542
Root relative squared error: 86.939298124849
Weighted TruePositiveRate: 0.9116883116883117
Weighted MatthewsCorrelation: 0.8963264942597189
Weighted FMeasure: 0.910700308231306
Iteration time: 168.0
Weighted AreaUnderPRC: 0.8674867133497312
Mean absolute error: 0.2060841652678427
Coverage of cases: 99.91341991341992
Instances selection time: 2.0
Test time: 9.0
Accumulative iteration time: 1776.0
Weighted Recall: 0.9116883116883117
Weighted FalsePositiveRate: 0.01471861471861472
Kappa statistic: 0.896969696969697
Training time: 166.0
		
Iteration: 12
Labeled set size: 451
Unlabelled set size: 704
	
Mean region size: 72.9128014842285
Incorrectly Classified Instances: 8.658008658008658
Correctly Classified Instances: 91.34199134199135
Weighted Precision: 0.9126121957689821
Weighted AreaUnderROC: 0.9674056583147492
Root mean squared error: 0.3042186385028619
Relative absolute error: 84.14141414141537
Root relative squared error: 86.93771736722593
Weighted TruePositiveRate: 0.9134199134199135
Weighted MatthewsCorrelation: 0.8984384590406669
Weighted FMeasure: 0.9124584388807441
Iteration time: 169.0
Weighted AreaUnderPRC: 0.8690300607344675
Mean absolute error: 0.20606060606060997
Coverage of cases: 99.65367965367966
Instances selection time: 1.0
Test time: 10.0
Accumulative iteration time: 1945.0
Weighted Recall: 0.9134199134199135
Weighted FalsePositiveRate: 0.014430014430014428
Kappa statistic: 0.898989898989899
Training time: 168.0
		
Iteration: 13
Labeled set size: 471
Unlabelled set size: 684
	
Mean region size: 72.90043290043135
Incorrectly Classified Instances: 8.311688311688311
Correctly Classified Instances: 91.68831168831169
Weighted Precision: 0.916223788738329
Weighted AreaUnderROC: 0.9678674187765098
Root mean squared error: 0.3041218209771428
Relative absolute error: 84.11736411736538
Root relative squared error: 86.91004945467269
Weighted TruePositiveRate: 0.9168831168831169
Weighted MatthewsCorrelation: 0.9025585502726023
Weighted FMeasure: 0.916023388037932
Iteration time: 169.0
Weighted AreaUnderPRC: 0.873428932286974
Mean absolute error: 0.20600170804252832
Coverage of cases: 99.65367965367966
Instances selection time: 2.0
Test time: 9.0
Accumulative iteration time: 2114.0
Weighted Recall: 0.9168831168831169
Weighted FalsePositiveRate: 0.013852813852813853
Kappa statistic: 0.903030303030303
Training time: 167.0
		
Iteration: 14
Labeled set size: 491
Unlabelled set size: 664
	
Mean region size: 72.87569573283702
Incorrectly Classified Instances: 8.571428571428571
Correctly Classified Instances: 91.42857142857143
Weighted Precision: 0.9133560133489376
Weighted AreaUnderROC: 0.9694367921640651
Root mean squared error: 0.30400559924572984
Relative absolute error: 84.09331409331533
Root relative squared error: 86.87683632845784
Weighted TruePositiveRate: 0.9142857142857143
Weighted MatthewsCorrelation: 0.8993840418509293
Weighted FMeasure: 0.9132472014354518
Iteration time: 169.0
Weighted AreaUnderPRC: 0.870772944807397
Mean absolute error: 0.20594281002444662
Coverage of cases: 99.91341991341992
Instances selection time: 2.0
Test time: 9.0
Accumulative iteration time: 2283.0
Weighted Recall: 0.9142857142857143
Weighted FalsePositiveRate: 0.014285714285714285
Kappa statistic: 0.8999999999999998
Training time: 167.0
		
Iteration: 15
Labeled set size: 511
Unlabelled set size: 644
	
Mean region size: 72.94990723561997
Incorrectly Classified Instances: 8.571428571428571
Correctly Classified Instances: 91.42857142857143
Weighted Precision: 0.9129361154626193
Weighted AreaUnderROC: 0.9719270628361537
Root mean squared error: 0.30383395258055823
Relative absolute error: 84.0548340548353
Root relative squared error: 86.82778420812375
Weighted TruePositiveRate: 0.9142857142857143
Weighted MatthewsCorrelation: 0.8992173752593557
Weighted FMeasure: 0.9131658109131394
Iteration time: 171.0
Weighted AreaUnderPRC: 0.8722370110787128
Mean absolute error: 0.2058485731955159
Coverage of cases: 99.91341991341992
Instances selection time: 2.0
Test time: 9.0
Accumulative iteration time: 2454.0
Weighted Recall: 0.9142857142857143
Weighted FalsePositiveRate: 0.014285714285714285
Kappa statistic: 0.8999999999999998
Training time: 169.0
		
Iteration: 16
Labeled set size: 531
Unlabelled set size: 624
	
Mean region size: 72.8385899814456
Incorrectly Classified Instances: 8.744588744588745
Correctly Classified Instances: 91.25541125541126
Weighted Precision: 0.910523407609758
Weighted AreaUnderROC: 0.972219598583235
Root mean squared error: 0.3037905641489949
Relative absolute error: 84.05002405002529
Root relative squared error: 86.8153849310156
Weighted TruePositiveRate: 0.9125541125541126
Weighted MatthewsCorrelation: 0.8967954174326493
Weighted FMeasure: 0.9108506574450154
Iteration time: 178.0
Weighted AreaUnderPRC: 0.870977649427283
Mean absolute error: 0.20583679359189955
Coverage of cases: 99.91341991341992
Instances selection time: 2.0
Test time: 9.0
Accumulative iteration time: 2632.0
Weighted Recall: 0.9125541125541126
Weighted FalsePositiveRate: 0.014574314574314573
Kappa statistic: 0.897979797979798
Training time: 176.0
		
Iteration: 17
Labeled set size: 551
Unlabelled set size: 604
	
Mean region size: 72.82622139764844
Incorrectly Classified Instances: 8.398268398268398
Correctly Classified Instances: 91.6017316017316
Weighted Precision: 0.9146725972383866
Weighted AreaUnderROC: 0.9716472080108443
Root mean squared error: 0.30380902806874477
Relative absolute error: 84.05002405002527
Root relative squared error: 86.8206614355868
Weighted TruePositiveRate: 0.9160173160173161
Weighted MatthewsCorrelation: 0.901209365799777
Weighted FMeasure: 0.9147914518021198
Iteration time: 172.0
Weighted AreaUnderPRC: 0.8747115656631764
Mean absolute error: 0.20583679359189952
Coverage of cases: 99.82683982683983
Instances selection time: 2.0
Test time: 9.0
Accumulative iteration time: 2804.0
Weighted Recall: 0.9160173160173161
Weighted FalsePositiveRate: 0.013997113997113998
Kappa statistic: 0.9020202020202019
Training time: 170.0
		
Iteration: 18
Labeled set size: 571
Unlabelled set size: 584
	
Mean region size: 72.93753865182285
Incorrectly Classified Instances: 8.311688311688311
Correctly Classified Instances: 91.68831168831169
Weighted Precision: 0.9158010381612157
Weighted AreaUnderROC: 0.9720363811272903
Root mean squared error: 0.30378687123037834
Relative absolute error: 84.05002405002527
Root relative squared error: 86.81432959161718
Weighted TruePositiveRate: 0.9168831168831169
Weighted MatthewsCorrelation: 0.9023663854733509
Weighted FMeasure: 0.915853441361355
Iteration time: 173.0
Weighted AreaUnderPRC: 0.8771526924212361
Mean absolute error: 0.2058367935918995
Coverage of cases: 99.65367965367966
Instances selection time: 1.0
Test time: 10.0
Accumulative iteration time: 2977.0
Weighted Recall: 0.9168831168831169
Weighted FalsePositiveRate: 0.013852813852813853
Kappa statistic: 0.903030303030303
Training time: 172.0
		
Iteration: 19
Labeled set size: 591
Unlabelled set size: 564
	
Mean region size: 72.7891156462569
Incorrectly Classified Instances: 8.484848484848484
Correctly Classified Instances: 91.51515151515152
Weighted Precision: 0.9136091867057493
Weighted AreaUnderROC: 0.9711937557392103
Root mean squared error: 0.3038745659231267
Relative absolute error: 84.06926406926527
Root relative squared error: 86.83939043749527
Weighted TruePositiveRate: 0.9151515151515152
Weighted MatthewsCorrelation: 0.9000812623894106
Weighted FMeasure: 0.9137478567761521
Iteration time: 175.0
Weighted AreaUnderPRC: 0.8733737772196908
Mean absolute error: 0.20588391200636483
Coverage of cases: 99.65367965367966
Instances selection time: 2.0
Test time: 9.0
Accumulative iteration time: 3152.0
Weighted Recall: 0.9151515151515152
Weighted FalsePositiveRate: 0.01414141414141414
Kappa statistic: 0.9010101010101009
Training time: 173.0
		
Iteration: 20
Labeled set size: 611
Unlabelled set size: 544
	
Mean region size: 72.98701298701141
Incorrectly Classified Instances: 8.658008658008658
Correctly Classified Instances: 91.34199134199135
Weighted Precision: 0.912124406881481
Weighted AreaUnderROC: 0.9723302286938651
Root mean squared error: 0.30374901622592176
Relative absolute error: 84.04040404040526
Root relative squared error: 86.80351162301874
Weighted TruePositiveRate: 0.9134199134199135
Weighted MatthewsCorrelation: 0.898219655539727
Weighted FMeasure: 0.9122740874795938
Iteration time: 177.0
Weighted AreaUnderPRC: 0.8728977231224002
Mean absolute error: 0.20581323438466684
Coverage of cases: 99.91341991341992
Instances selection time: 2.0
Test time: 9.0
Accumulative iteration time: 3329.0
Weighted Recall: 0.9134199134199135
Weighted FalsePositiveRate: 0.014430014430014428
Kappa statistic: 0.898989898989899
Training time: 175.0
		
Iteration: 21
Labeled set size: 631
Unlabelled set size: 524
	
Mean region size: 72.94990723561992
Incorrectly Classified Instances: 8.658008658008658
Correctly Classified Instances: 91.34199134199135
Weighted Precision: 0.9120799635806486
Weighted AreaUnderROC: 0.9720748611657702
Root mean squared error: 0.30379241059146883
Relative absolute error: 84.05002405002527
Root relative squared error: 86.81591259590398
Weighted TruePositiveRate: 0.9134199134199135
Weighted MatthewsCorrelation: 0.8982007413122849
Weighted FMeasure: 0.9122606473864028
Iteration time: 178.0
Weighted AreaUnderPRC: 0.8723650381504813
Mean absolute error: 0.2058367935918995
Coverage of cases: 99.91341991341992
Instances selection time: 1.0
Test time: 9.0
Accumulative iteration time: 3507.0
Weighted Recall: 0.9134199134199135
Weighted FalsePositiveRate: 0.014430014430014428
Kappa statistic: 0.898989898989899
Training time: 177.0
		
Iteration: 22
Labeled set size: 651
Unlabelled set size: 504
	
Mean region size: 73.11069882498303
Incorrectly Classified Instances: 8.831168831168831
Correctly Classified Instances: 91.16883116883118
Weighted Precision: 0.9102830355753949
Weighted AreaUnderROC: 0.9714775460230006
Root mean squared error: 0.30375824958883124
Relative absolute error: 84.05002405002527
Root relative squared error: 86.80615027625487
Weighted TruePositiveRate: 0.9116883116883117
Weighted MatthewsCorrelation: 0.896152829392164
Weighted FMeasure: 0.9105116171815507
Iteration time: 177.0
Weighted AreaUnderPRC: 0.8710823467449598
Mean absolute error: 0.20583679359189952
Coverage of cases: 99.91341991341992
Instances selection time: 1.0
Test time: 9.0
Accumulative iteration time: 3684.0
Weighted Recall: 0.9116883116883117
Weighted FalsePositiveRate: 0.01471861471861472
Kappa statistic: 0.896969696969697
Training time: 176.0
		
Iteration: 23
Labeled set size: 671
Unlabelled set size: 484
	
Mean region size: 73.19727891156316
Incorrectly Classified Instances: 8.571428571428571
Correctly Classified Instances: 91.42857142857143
Weighted Precision: 0.9128828521981124
Weighted AreaUnderROC: 0.9713992741265468
Root mean squared error: 0.30375270960476625
Relative absolute error: 84.05002405002529
Root relative squared error: 86.80456709393825
Weighted TruePositiveRate: 0.9142857142857143
Weighted MatthewsCorrelation: 0.8991644646418647
Weighted FMeasure: 0.913043444386225
Iteration time: 179.0
Weighted AreaUnderPRC: 0.8731399738145148
Mean absolute error: 0.20583679359189955
Coverage of cases: 99.91341991341992
Instances selection time: 1.0
Test time: 12.0
Accumulative iteration time: 3863.0
Weighted Recall: 0.9142857142857143
Weighted FalsePositiveRate: 0.014285714285714285
Kappa statistic: 0.8999999999999998
Training time: 178.0
		
Iteration: 24
Labeled set size: 691
Unlabelled set size: 464
	
Mean region size: 73.08596165738871
Incorrectly Classified Instances: 8.831168831168831
Correctly Classified Instances: 91.16883116883118
Weighted Precision: 0.9102163699048735
Weighted AreaUnderROC: 0.9711753902662996
Root mean squared error: 0.3037333188647913
Relative absolute error: 84.04040404040526
Root relative squared error: 86.79902572842633
Weighted TruePositiveRate: 0.9116883116883117
Weighted MatthewsCorrelation: 0.8960736124324292
Weighted FMeasure: 0.91031433686859
Iteration time: 180.0
Weighted AreaUnderPRC: 0.8695844255246558
Mean absolute error: 0.20581323438466684
Coverage of cases: 99.91341991341992
Instances selection time: 1.0
Test time: 9.0
Accumulative iteration time: 4043.0
Weighted Recall: 0.9116883116883117
Weighted FalsePositiveRate: 0.01471861471861472
Kappa statistic: 0.896969696969697
Training time: 179.0
		
Iteration: 25
Labeled set size: 711
Unlabelled set size: 444
	
Mean region size: 73.18491032776598
Incorrectly Classified Instances: 8.571428571428571
Correctly Classified Instances: 91.42857142857143
Weighted Precision: 0.9135153229391665
Weighted AreaUnderROC: 0.9715750579386943
Root mean squared error: 0.3036954571851444
Relative absolute error: 84.03559403559527
Root relative squared error: 86.78820585223338
Weighted TruePositiveRate: 0.9142857142857143
Weighted MatthewsCorrelation: 0.8994044497391381
Weighted FMeasure: 0.9131173843309504
Iteration time: 182.0
Weighted AreaUnderPRC: 0.8727327364930588
Mean absolute error: 0.20580145478105052
Coverage of cases: 99.91341991341992
Instances selection time: 2.0
Test time: 9.0
Accumulative iteration time: 4225.0
Weighted Recall: 0.9142857142857143
Weighted FalsePositiveRate: 0.014285714285714285
Kappa statistic: 0.8999999999999998
Training time: 180.0
		
Iteration: 26
Labeled set size: 731
Unlabelled set size: 424
	
Mean region size: 73.16017316017167
Incorrectly Classified Instances: 8.917748917748918
Correctly Classified Instances: 91.08225108225108
Weighted Precision: 0.9094408554761951
Weighted AreaUnderROC: 0.9713927150290786
Root mean squared error: 0.30374162933350257
Relative absolute error: 84.04521404521526
Root relative squared error: 86.80140064267735
Weighted TruePositiveRate: 0.9108225108225109
Weighted MatthewsCorrelation: 0.895026726802225
Weighted FMeasure: 0.9092119882428729
Iteration time: 181.0
Weighted AreaUnderPRC: 0.8678943391132079
Mean absolute error: 0.20582501398828318
Coverage of cases: 99.91341991341992
Instances selection time: 1.0
Test time: 9.0
Accumulative iteration time: 4406.0
Weighted Recall: 0.9108225108225109
Weighted FalsePositiveRate: 0.014862914862914864
Kappa statistic: 0.8959595959595958
Training time: 180.0
		
Iteration: 27
Labeled set size: 751
Unlabelled set size: 404
	
Mean region size: 73.60544217686949
Incorrectly Classified Instances: 9.177489177489177
Correctly Classified Instances: 90.82251082251082
Weighted Precision: 0.9067331396051722
Weighted AreaUnderROC: 0.9702531811622721
Root mean squared error: 0.30376378947185917
Relative absolute error: 84.0740740740753
Root relative squared error: 86.80773342969772
Weighted TruePositiveRate: 0.9082251082251083
Weighted MatthewsCorrelation: 0.8920066310893835
Weighted FMeasure: 0.9067843586868176
Iteration time: 184.0
Weighted AreaUnderPRC: 0.866022894791999
Mean absolute error: 0.2058956916099812
Coverage of cases: 99.91341991341992
Instances selection time: 1.0
Test time: 9.0
Accumulative iteration time: 4590.0
Weighted Recall: 0.9082251082251083
Weighted FalsePositiveRate: 0.015295815295815293
Kappa statistic: 0.892929292929293
Training time: 183.0
		
Iteration: 28
Labeled set size: 771
Unlabelled set size: 384
	
Mean region size: 73.67965367965243
Incorrectly Classified Instances: 8.744588744588745
Correctly Classified Instances: 91.25541125541126
Weighted Precision: 0.911427789080648
Weighted AreaUnderROC: 0.9714360050723688
Root mean squared error: 0.30363080438174633
Relative absolute error: 84.04040404040526
Root relative squared error: 86.7697297747107
Weighted TruePositiveRate: 0.9125541125541126
Weighted MatthewsCorrelation: 0.8972989119885268
Weighted FMeasure: 0.9115182221618868
Iteration time: 181.0
Weighted AreaUnderPRC: 0.8710188329849774
Mean absolute error: 0.20581323438466684
Coverage of cases: 99.91341991341992
Instances selection time: 1.0
Test time: 10.0
Accumulative iteration time: 4771.0
Weighted Recall: 0.9125541125541126
Weighted FalsePositiveRate: 0.014574314574314573
Kappa statistic: 0.897979797979798
Training time: 180.0
		
Iteration: 29
Labeled set size: 791
Unlabelled set size: 364
	
Mean region size: 73.71675943104377
Incorrectly Classified Instances: 8.744588744588745
Correctly Classified Instances: 91.25541125541126
Weighted Precision: 0.9116398612040348
Weighted AreaUnderROC: 0.9710415846779483
Root mean squared error: 0.3036834512766905
Relative absolute error: 84.05002405002529
Root relative squared error: 86.78477487811213
Weighted TruePositiveRate: 0.9125541125541126
Weighted MatthewsCorrelation: 0.8974072124784888
Weighted FMeasure: 0.9116424267011102
Iteration time: 185.0
Weighted AreaUnderPRC: 0.8712880661176781
Mean absolute error: 0.20583679359189955
Coverage of cases: 99.91341991341992
Instances selection time: 1.0
Test time: 9.0
Accumulative iteration time: 4956.0
Weighted Recall: 0.9125541125541126
Weighted FalsePositiveRate: 0.014574314574314573
Kappa statistic: 0.897979797979798
Training time: 184.0
		
Iteration: 30
Labeled set size: 811
Unlabelled set size: 344
	
Mean region size: 73.72912801484094
Incorrectly Classified Instances: 8.831168831168831
Correctly Classified Instances: 91.16883116883118
Weighted Precision: 0.9107273699951665
Weighted AreaUnderROC: 0.97090996545542
Root mean squared error: 0.30369822771200145
Relative absolute error: 84.0548340548353
Root relative squared error: 86.78899759623052
Weighted TruePositiveRate: 0.9116883116883117
Weighted MatthewsCorrelation: 0.8963400851938219
Weighted FMeasure: 0.9106315751323286
Iteration time: 184.0
Weighted AreaUnderPRC: 0.870992403606644
Mean absolute error: 0.2058485731955159
Coverage of cases: 99.91341991341992
Instances selection time: 0.0
Test time: 9.0
Accumulative iteration time: 5140.0
Weighted Recall: 0.9116883116883117
Weighted FalsePositiveRate: 0.01471861471861472
Kappa statistic: 0.896969696969697
Training time: 184.0
		
Iteration: 31
Labeled set size: 831
Unlabelled set size: 324
	
Mean region size: 73.49412492269501
Incorrectly Classified Instances: 8.658008658008658
Correctly Classified Instances: 91.34199134199135
Weighted Precision: 0.9126850827851328
Weighted AreaUnderROC: 0.9706349206349205
Root mean squared error: 0.303708386094246
Relative absolute error: 84.04521404521527
Root relative squared error: 86.79190059576017
Weighted TruePositiveRate: 0.9134199134199135
Weighted MatthewsCorrelation: 0.8984932985559275
Weighted FMeasure: 0.9125559194175054
Iteration time: 183.0
Weighted AreaUnderPRC: 0.8713668116288652
Mean absolute error: 0.2058250139882832
Coverage of cases: 99.91341991341992
Instances selection time: 0.0
Test time: 9.0
Accumulative iteration time: 5323.0
Weighted Recall: 0.9134199134199135
Weighted FalsePositiveRate: 0.014430014430014432
Kappa statistic: 0.898989898989899
Training time: 183.0
		
Iteration: 32
Labeled set size: 851
Unlabelled set size: 304
	
Mean region size: 73.81570810142125
Incorrectly Classified Instances: 8.831168831168831
Correctly Classified Instances: 91.16883116883118
Weighted Precision: 0.9109565601089221
Weighted AreaUnderROC: 0.9706117451571997
Root mean squared error: 0.30366036165703914
Relative absolute error: 84.0596440596453
Root relative squared error: 86.77817646968704
Weighted TruePositiveRate: 0.9116883116883117
Weighted MatthewsCorrelation: 0.8965026972008935
Weighted FMeasure: 0.9109266241450522
Iteration time: 188.0
Weighted AreaUnderPRC: 0.8714989699440635
Mean absolute error: 0.20586035279913223
Coverage of cases: 99.91341991341992
Instances selection time: 1.0
Test time: 9.0
Accumulative iteration time: 5511.0
Weighted Recall: 0.9116883116883117
Weighted FalsePositiveRate: 0.01471861471861472
Kappa statistic: 0.896969696969697
Training time: 187.0
		
Iteration: 33
Labeled set size: 871
Unlabelled set size: 284
	
Mean region size: 73.87755102040704
Incorrectly Classified Instances: 8.831168831168831
Correctly Classified Instances: 91.16883116883118
Weighted Precision: 0.9114129882701877
Weighted AreaUnderROC: 0.9698723162359526
Root mean squared error: 0.30367144489357273
Relative absolute error: 84.06445406445529
Root relative squared error: 86.78134376834439
Weighted TruePositiveRate: 0.9116883116883117
Weighted MatthewsCorrelation: 0.896708630666701
Weighted FMeasure: 0.9110965083173478
Iteration time: 192.0
Weighted AreaUnderPRC: 0.8704725458624528
Mean absolute error: 0.20587213240274854
Coverage of cases: 99.91341991341992
Instances selection time: 1.0
Test time: 9.0
Accumulative iteration time: 5703.0
Weighted Recall: 0.9116883116883117
Weighted FalsePositiveRate: 0.01471861471861472
Kappa statistic: 0.896969696969697
Training time: 191.0
		
Iteration: 34
Labeled set size: 891
Unlabelled set size: 264
	
Mean region size: 73.61781076066679
Incorrectly Classified Instances: 8.831168831168831
Correctly Classified Instances: 91.16883116883118
Weighted Precision: 0.9114129882701877
Weighted AreaUnderROC: 0.9700253618435436
Root mean squared error: 0.3036908395842169
Relative absolute error: 84.06445406445529
Root relative squared error: 86.78688626285408
Weighted TruePositiveRate: 0.9116883116883117
Weighted MatthewsCorrelation: 0.896708630666701
Weighted FMeasure: 0.9110965083173478
Iteration time: 186.0
Weighted AreaUnderPRC: 0.8702829543947117
Mean absolute error: 0.20587213240274854
Coverage of cases: 99.91341991341992
Instances selection time: 1.0
Test time: 9.0
Accumulative iteration time: 5889.0
Weighted Recall: 0.9116883116883117
Weighted FalsePositiveRate: 0.01471861471861472
Kappa statistic: 0.896969696969697
Training time: 185.0
		
Iteration: 35
Labeled set size: 911
Unlabelled set size: 244
	
Mean region size: 73.60544217686962
Incorrectly Classified Instances: 8.398268398268398
Correctly Classified Instances: 91.6017316017316
Weighted Precision: 0.9163602020571748
Weighted AreaUnderROC: 0.9709773055227601
Root mean squared error: 0.30356059431863913
Relative absolute error: 84.03078403078528
Root relative squared error: 86.74966557794488
Weighted TruePositiveRate: 0.9160173160173161
Weighted MatthewsCorrelation: 0.9020457799824046
Weighted FMeasure: 0.9156780897084394
Iteration time: 190.0
Weighted AreaUnderPRC: 0.8749955936854659
Mean absolute error: 0.2057896751774342
Coverage of cases: 99.91341991341992
Instances selection time: 1.0
Test time: 9.0
Accumulative iteration time: 6079.0
Weighted Recall: 0.9160173160173161
Weighted FalsePositiveRate: 0.013997113997113998
Kappa statistic: 0.9020202020202019
Training time: 189.0
		
Iteration: 36
Labeled set size: 931
Unlabelled set size: 224
	
Mean region size: 73.79097093382694
Incorrectly Classified Instances: 8.917748917748918
Correctly Classified Instances: 91.08225108225108
Weighted Precision: 0.9108242119877418
Weighted AreaUnderROC: 0.9704460186278367
Root mean squared error: 0.30364927801596586
Relative absolute error: 84.0548340548353
Root relative squared error: 86.77500905542284
Weighted TruePositiveRate: 0.9108225108225109
Weighted MatthewsCorrelation: 0.8958918936763169
Weighted FMeasure: 0.9105768379857995
Iteration time: 190.0
Weighted AreaUnderPRC: 0.8700120739760712
Mean absolute error: 0.2058485731955159
Coverage of cases: 99.91341991341992
Instances selection time: 1.0
Test time: 9.0
Accumulative iteration time: 6269.0
Weighted Recall: 0.9108225108225109
Weighted FalsePositiveRate: 0.014862914862914864
Kappa statistic: 0.8959595959595958
Training time: 189.0
		
Iteration: 37
Labeled set size: 951
Unlabelled set size: 204
	
Mean region size: 73.86518243660991
Incorrectly Classified Instances: 8.311688311688311
Correctly Classified Instances: 91.68831168831169
Weighted Precision: 0.9170448515862348
Weighted AreaUnderROC: 0.9717705190432463
Root mean squared error: 0.30346449106692747
Relative absolute error: 84.01154401154525
Root relative squared error: 86.72220178619138
Weighted TruePositiveRate: 0.9168831168831169
Weighted MatthewsCorrelation: 0.9029755672852613
Weighted FMeasure: 0.9164831502153896
Iteration time: 189.0
Weighted AreaUnderPRC: 0.876263740631942
Mean absolute error: 0.20574255676296885
Coverage of cases: 99.91341991341992
Instances selection time: 0.0
Test time: 9.0
Accumulative iteration time: 6458.0
Weighted Recall: 0.9168831168831169
Weighted FalsePositiveRate: 0.013852813852813853
Kappa statistic: 0.903030303030303
Training time: 189.0
		
Iteration: 38
Labeled set size: 971
Unlabelled set size: 184
	
Mean region size: 73.84044526901559
Incorrectly Classified Instances: 8.225108225108226
Correctly Classified Instances: 91.77489177489177
Weighted Precision: 0.9178334946853858
Weighted AreaUnderROC: 0.9722230967685513
Root mean squared error: 0.3034265958428532
Relative absolute error: 84.00192400192525
Root relative squared error: 86.71137232387983
Weighted TruePositiveRate: 0.9177489177489178
Weighted MatthewsCorrelation: 0.903907528644571
Weighted FMeasure: 0.9171639213304379
Iteration time: 193.0
Weighted AreaUnderPRC: 0.8774314180477909
Mean absolute error: 0.20571899755573617
Coverage of cases: 99.91341991341992
Instances selection time: 0.0
Test time: 9.0
Accumulative iteration time: 6651.0
Weighted Recall: 0.9177489177489178
Weighted FalsePositiveRate: 0.013708513708513708
Kappa statistic: 0.9040404040404041
Training time: 193.0
		
Iteration: 39
Labeled set size: 991
Unlabelled set size: 164
	
Mean region size: 73.90228818800139
Incorrectly Classified Instances: 8.225108225108226
Correctly Classified Instances: 91.77489177489177
Weighted Precision: 0.9178334946853858
Weighted AreaUnderROC: 0.9722370895098167
Root mean squared error: 0.3034256715099707
Relative absolute error: 84.00192400192525
Root relative squared error: 86.71110817375646
Weighted TruePositiveRate: 0.9177489177489178
Weighted MatthewsCorrelation: 0.903907528644571
Weighted FMeasure: 0.9171639213304379
Iteration time: 193.0
Weighted AreaUnderPRC: 0.8774260536774796
Mean absolute error: 0.20571899755573617
Coverage of cases: 99.91341991341992
Instances selection time: 1.0
Test time: 9.0
Accumulative iteration time: 6844.0
Weighted Recall: 0.9177489177489178
Weighted FalsePositiveRate: 0.013708513708513708
Kappa statistic: 0.9040404040404041
Training time: 192.0
		
Iteration: 40
Labeled set size: 1011
Unlabelled set size: 144
	
Mean region size: 73.82807668521846
Incorrectly Classified Instances: 8.311688311688311
Correctly Classified Instances: 91.68831168831169
Weighted Precision: 0.9169496027956937
Weighted AreaUnderROC: 0.9718339236521055
Root mean squared error: 0.3034802023330409
Relative absolute error: 84.01154401154525
Root relative squared error: 86.72669165446366
Weighted TruePositiveRate: 0.9168831168831169
Weighted MatthewsCorrelation: 0.9029300615058983
Weighted FMeasure: 0.9164376700235042
Iteration time: 197.0
Weighted AreaUnderPRC: 0.876533358127922
Mean absolute error: 0.20574255676296885
Coverage of cases: 99.91341991341992
Instances selection time: 0.0
Test time: 10.0
Accumulative iteration time: 7041.0
Weighted Recall: 0.9168831168831169
Weighted FalsePositiveRate: 0.013852813852813853
Kappa statistic: 0.903030303030303
Training time: 197.0
		
Iteration: 41
Labeled set size: 1031
Unlabelled set size: 124
	
Mean region size: 73.85281385281279
Incorrectly Classified Instances: 8.311688311688311
Correctly Classified Instances: 91.68831168831169
Weighted Precision: 0.916888014213985
Weighted AreaUnderROC: 0.9725755389391753
Root mean squared error: 0.3033886958854186
Relative absolute error: 83.98749398749523
Root relative squared error: 86.7005415088979
Weighted TruePositiveRate: 0.9168831168831169
Weighted MatthewsCorrelation: 0.9029180471796119
Weighted FMeasure: 0.916474309791073
Iteration time: 200.0
Weighted AreaUnderPRC: 0.8777751339044721
Mean absolute error: 0.20568365874488717
Coverage of cases: 99.91341991341992
Instances selection time: 1.0
Test time: 9.0
Accumulative iteration time: 7241.0
Weighted Recall: 0.9168831168831169
Weighted FalsePositiveRate: 0.013852813852813853
Kappa statistic: 0.903030303030303
Training time: 199.0
		
Iteration: 42
Labeled set size: 1051
Unlabelled set size: 104
	
Mean region size: 73.79097093382703
Incorrectly Classified Instances: 8.311688311688311
Correctly Classified Instances: 91.68831168831169
Weighted Precision: 0.916947079834034
Weighted AreaUnderROC: 0.9727640036730946
Root mean squared error: 0.3033692818784372
Relative absolute error: 83.97787397787523
Root relative squared error: 86.69499349428506
Weighted TruePositiveRate: 0.9168831168831169
Weighted MatthewsCorrelation: 0.9029646710982957
Weighted FMeasure: 0.916567703910235
Iteration time: 200.0
Weighted AreaUnderPRC: 0.8777841619038824
Mean absolute error: 0.20566009953765452
Coverage of cases: 99.91341991341992
Instances selection time: 0.0
Test time: 9.0
Accumulative iteration time: 7441.0
Weighted Recall: 0.9168831168831169
Weighted FalsePositiveRate: 0.013852813852813853
Kappa statistic: 0.903030303030303
Training time: 200.0
		
Iteration: 43
Labeled set size: 1071
Unlabelled set size: 84
	
Mean region size: 73.80333951762418
Incorrectly Classified Instances: 8.225108225108226
Correctly Classified Instances: 91.77489177489177
Weighted Precision: 0.9177515413230053
Weighted AreaUnderROC: 0.9731606104333378
Root mean squared error: 0.30335448942013377
Relative absolute error: 83.97306397306521
Root relative squared error: 86.69076619721515
Weighted TruePositiveRate: 0.9177489177489178
Weighted MatthewsCorrelation: 0.9039865322926695
Weighted FMeasure: 0.9175540476179466
Iteration time: 196.0
Weighted AreaUnderPRC: 0.8793039204260524
Mean absolute error: 0.20564831993403815
Coverage of cases: 99.91341991341992
Instances selection time: 1.0
Test time: 9.0
Accumulative iteration time: 7637.0
Weighted Recall: 0.9177489177489178
Weighted FalsePositiveRate: 0.01370851370851371
Kappa statistic: 0.9040404040404041
Training time: 195.0
		
Iteration: 44
Labeled set size: 1091
Unlabelled set size: 64
	
Mean region size: 73.9888682745815
Incorrectly Classified Instances: 7.965367965367966
Correctly Classified Instances: 92.03463203463204
Weighted Precision: 0.9203729381308116
Weighted AreaUnderROC: 0.973301849665486
Root mean squared error: 0.3032805163061202
Relative absolute error: 83.96344396344521
Root relative squared error: 86.66962661907974
Weighted TruePositiveRate: 0.9203463203463204
Weighted MatthewsCorrelation: 0.9069929266323757
Weighted FMeasure: 0.9200335528926332
Iteration time: 197.0
Weighted AreaUnderPRC: 0.8818566279662702
Mean absolute error: 0.2056247607268055
Coverage of cases: 99.91341991341992
Instances selection time: 1.0
Test time: 9.0
Accumulative iteration time: 7834.0
Weighted Recall: 0.9203463203463204
Weighted FalsePositiveRate: 0.013275613275613274
Kappa statistic: 0.9070707070707069
Training time: 196.0
		
Iteration: 45
Labeled set size: 1111
Unlabelled set size: 44
	
Mean region size: 74.00123685837866
Incorrectly Classified Instances: 7.878787878787879
Correctly Classified Instances: 92.12121212121212
Weighted Precision: 0.9211716248283688
Weighted AreaUnderROC: 0.9737872228781318
Root mean squared error: 0.3032361237759132
Relative absolute error: 83.95382395382521
Root relative squared error: 86.65694039688327
Weighted TruePositiveRate: 0.9212121212121213
Weighted MatthewsCorrelation: 0.9079935307587989
Weighted FMeasure: 0.9209497889848135
Iteration time: 200.0
Weighted AreaUnderPRC: 0.8831087592999048
Mean absolute error: 0.2056012015195728
Coverage of cases: 99.91341991341992
Instances selection time: 0.0
Test time: 9.0
Accumulative iteration time: 8034.0
Weighted Recall: 0.9212121212121213
Weighted FalsePositiveRate: 0.013131313131313131
Kappa statistic: 0.908080808080808
Training time: 200.0
		
Iteration: 46
Labeled set size: 1131
Unlabelled set size: 24
	
Mean region size: 74.12492269635024
Incorrectly Classified Instances: 7.705627705627705
Correctly Classified Instances: 92.2943722943723
Weighted Precision: 0.9229859640521764
Weighted AreaUnderROC: 0.9744671826490007
Root mean squared error: 0.30315472058695286
Relative absolute error: 83.93939393939519
Root relative squared error: 86.6336774979713
Weighted TruePositiveRate: 0.922943722943723
Weighted MatthewsCorrelation: 0.910049524572367
Weighted FMeasure: 0.9227083678672359
Iteration time: 202.0
Weighted AreaUnderPRC: 0.8857425306799721
Mean absolute error: 0.2055658627087238
Coverage of cases: 99.91341991341992
Instances selection time: 1.0
Test time: 9.0
Accumulative iteration time: 8236.0
Weighted Recall: 0.922943722943723
Weighted FalsePositiveRate: 0.012842712842712841
Kappa statistic: 0.9101010101010101
Training time: 201.0
		
Time end:Sun Oct 08 05.10.35 EEST 2017