Tue Oct 31 12.14.14 EET 2017
Dataset: hypothyroid
Test set size: 1886
Initial Labelled set size: 377
Initial Unlabelled set size: 1509
Batch mode: QBestBatchMode
Batch size: 20
Classifiers: J48-1cores
Scenario: PoolBasedSamplingScenario
Query strategy: KullbackLeiblerDivergenceQueryStrategy-1cores
Time begining: Tue Oct 31 12.14.14 EET 2017
		
Iteration: 1
Labeled set size: 377
Unlabelled set size: 1509
	
Mean region size: 25.05302226935313
Incorrectly Classified Instances: 1.855779427359491
Correctly Classified Instances: 98.1442205726405
Weighted Precision: 0.9835269188732829
Weighted AreaUnderROC: 0.9744591658903535
Root mean squared error: 0.09428604350971213
Relative absolute error: 2.430867118035746
Root relative squared error: 21.774429040462827
Weighted TruePositiveRate: 0.9814422057264051
Weighted MatthewsCorrelation: 0.9119623476058223
Weighted FMeasure: 0.9810994677451798
Iteration time: 4.0
Weighted AreaUnderPRC: 0.9773296287832152
Mean absolute error: 0.009115751692634047
Coverage of cases: 98.3032873806999
Instances selection time: 2.0
Test time: 4.0
Accumulative iteration time: 4.0
Weighted Recall: 0.9814422057264051
Weighted FalsePositiveRate: 0.03871846571544695
Kappa statistic: 0.8765992926097911
Training time: 2.0
		
Iteration: 2
Labeled set size: 397
Unlabelled set size: 1489
	
Mean region size: 29.175503711558854
Incorrectly Classified Instances: 2.1208907741251326
Correctly Classified Instances: 97.87910922587487
Weighted Precision: 0.9798188450290272
Weighted AreaUnderROC: 0.9144911703942828
Root mean squared error: 0.10166516202400801
Relative absolute error: 4.934967478090068
Root relative squared error: 23.47856346470718
Weighted TruePositiveRate: 0.9787910922587487
Weighted MatthewsCorrelation: 0.8831023888068205
Weighted FMeasure: 0.9776401656078166
Iteration time: 6.0
Weighted AreaUnderPRC: 0.9671372326932521
Mean absolute error: 0.018506128042837754
Coverage of cases: 98.3032873806999
Instances selection time: 2.0
Test time: 5.0
Accumulative iteration time: 10.0
Weighted Recall: 0.9787910922587487
Weighted FalsePositiveRate: 0.13300873742909108
Kappa statistic: 0.8482126150125453
Training time: 4.0
		
Iteration: 3
Labeled set size: 417
Unlabelled set size: 1469
	
Mean region size: 27.61134676564157
Incorrectly Classified Instances: 2.3329798515376456
Correctly Classified Instances: 97.66702014846236
Weighted Precision: 0.9757818774956211
Weighted AreaUnderROC: 0.9144911703942828
Root mean squared error: 0.10384677590886586
Relative absolute error: 4.609853801415835
Root relative squared error: 23.982385610183382
Weighted TruePositiveRate: 0.9766702014846236
Weighted MatthewsCorrelation: 0.8260746227045043
Weighted FMeasure: 0.9749592767165767
Iteration time: 6.0
Weighted AreaUnderPRC: 0.9671372326932521
Mean absolute error: 0.017286951755309383
Coverage of cases: 98.3032873806999
Instances selection time: 2.0
Test time: 5.0
Accumulative iteration time: 16.0
Weighted Recall: 0.9766702014846236
Weighted FalsePositiveRate: 0.23394805205988792
Kappa statistic: 0.8227772948892361
Training time: 4.0
		
Iteration: 4
Labeled set size: 437
Unlabelled set size: 1449
	
Mean region size: 27.99575821845175
Incorrectly Classified Instances: 1.6436903499469777
Correctly Classified Instances: 98.35630965005302
Weighted Precision: 0.982548405855053
Weighted AreaUnderROC: 0.9439042719134604
Root mean squared error: 0.08776626926105098
Relative absolute error: 3.4076279210565734
Root relative squared error: 20.268751673454787
Weighted TruePositiveRate: 0.9835630965005302
Weighted MatthewsCorrelation: 0.8974811896563915
Weighted FMeasure: 0.9828460116743056
Iteration time: 6.0
Weighted AreaUnderPRC: 0.9792732946646373
Mean absolute error: 0.012778604703962151
Coverage of cases: 99.15164369034994
Instances selection time: 2.0
Test time: 5.0
Accumulative iteration time: 22.0
Weighted Recall: 0.9835630965005302
Weighted FalsePositiveRate: 0.1266384768812266
Kappa statistic: 0.881775809598916
Training time: 4.0
		
Iteration: 5
Labeled set size: 457
Unlabelled set size: 1429
	
Mean region size: 27.05461293743372
Incorrectly Classified Instances: 1.9088016967126193
Correctly Classified Instances: 98.09119830328738
Weighted Precision: 0.9821742756494208
Weighted AreaUnderROC: 0.9439042719134604
Root mean squared error: 0.08845200870531701
Relative absolute error: 3.3008458280559645
Root relative squared error: 20.42711641455116
Weighted TruePositiveRate: 0.9809119830328739
Weighted MatthewsCorrelation: 0.898990831715919
Weighted FMeasure: 0.98004285024738
Iteration time: 6.0
Weighted AreaUnderPRC: 0.9792732946646373
Mean absolute error: 0.012378171855209867
Coverage of cases: 99.15164369034994
Instances selection time: 2.0
Test time: 5.0
Accumulative iteration time: 28.0
Weighted Recall: 0.9809119830328739
Weighted FalsePositiveRate: 0.11402271150528287
Kappa statistic: 0.8642886125641372
Training time: 4.0
		
Iteration: 6
Labeled set size: 477
Unlabelled set size: 1409
	
Mean region size: 27.187168610816542
Incorrectly Classified Instances: 0.9544008483563097
Correctly Classified Instances: 99.04559915164369
Weighted Precision: 0.9920448280851359
Weighted AreaUnderROC: 0.9920539921656583
Root mean squared error: 0.05674282434392842
Relative absolute error: 2.0926175937435665
Root relative squared error: 13.10419396381869
Weighted TruePositiveRate: 0.9904559915164369
Weighted MatthewsCorrelation: 0.9688225194424291
Weighted FMeasure: 0.9905854893438807
Iteration time: 6.0
Weighted AreaUnderPRC: 0.9951637488081867
Mean absolute error: 0.007847315976538373
Coverage of cases: 99.89395546129374
Instances selection time: 1.0
Test time: 5.0
Accumulative iteration time: 34.0
Weighted Recall: 0.9904559915164369
Weighted FalsePositiveRate: 0.012859735908047796
Kappa statistic: 0.9351269541887145
Training time: 5.0
		
Iteration: 7
Labeled set size: 497
Unlabelled set size: 1389
	
Mean region size: 27.187168610816542
Incorrectly Classified Instances: 0.9544008483563097
Correctly Classified Instances: 99.04559915164369
Weighted Precision: 0.9920448280851359
Weighted AreaUnderROC: 0.9905432206553224
Root mean squared error: 0.05674282434392842
Relative absolute error: 2.0926175937435665
Root relative squared error: 13.10419396381869
Weighted TruePositiveRate: 0.9904559915164369
Weighted MatthewsCorrelation: 0.9688225194424291
Weighted FMeasure: 0.9905854893438807
Iteration time: 6.0
Weighted AreaUnderPRC: 0.9949099452605792
Mean absolute error: 0.007847315976538373
Coverage of cases: 99.89395546129374
Instances selection time: 1.0
Test time: 5.0
Accumulative iteration time: 40.0
Weighted Recall: 0.9904559915164369
Weighted FalsePositiveRate: 0.012859735908047796
Kappa statistic: 0.9351269541887145
Training time: 5.0
		
Iteration: 8
Labeled set size: 517
Unlabelled set size: 1369
	
Mean region size: 27.187168610816542
Incorrectly Classified Instances: 0.9544008483563097
Correctly Classified Instances: 99.04559915164369
Weighted Precision: 0.9920448280851359
Weighted AreaUnderROC: 0.9920539921656583
Root mean squared error: 0.05674282434392842
Relative absolute error: 2.092617593743579
Root relative squared error: 13.10419396381869
Weighted TruePositiveRate: 0.9904559915164369
Weighted MatthewsCorrelation: 0.9688225194424291
Weighted FMeasure: 0.9905854893438807
Iteration time: 6.0
Weighted AreaUnderPRC: 0.9951637488081867
Mean absolute error: 0.007847315976538422
Coverage of cases: 99.89395546129374
Instances selection time: 1.0
Test time: 5.0
Accumulative iteration time: 46.0
Weighted Recall: 0.9904559915164369
Weighted FalsePositiveRate: 0.012859735908047796
Kappa statistic: 0.9351269541887145
Training time: 5.0
		
Iteration: 9
Labeled set size: 537
Unlabelled set size: 1349
	
Mean region size: 27.187168610816542
Incorrectly Classified Instances: 0.9544008483563097
Correctly Classified Instances: 99.04559915164369
Weighted Precision: 0.9920448280851359
Weighted AreaUnderROC: 0.9905432206553224
Root mean squared error: 0.05674282434392842
Relative absolute error: 2.0926175937435807
Root relative squared error: 13.10419396381869
Weighted TruePositiveRate: 0.9904559915164369
Weighted MatthewsCorrelation: 0.9688225194424291
Weighted FMeasure: 0.9905854893438807
Iteration time: 6.0
Weighted AreaUnderPRC: 0.9949099452605792
Mean absolute error: 0.007847315976538427
Coverage of cases: 99.89395546129374
Instances selection time: 2.0
Test time: 5.0
Accumulative iteration time: 52.0
Weighted Recall: 0.9904559915164369
Weighted FalsePositiveRate: 0.012859735908047796
Kappa statistic: 0.9351269541887145
Training time: 4.0
		
Iteration: 10
Labeled set size: 557
Unlabelled set size: 1329
	
Mean region size: 27.187168610816542
Incorrectly Classified Instances: 0.9544008483563097
Correctly Classified Instances: 99.04559915164369
Weighted Precision: 0.9920448280851359
Weighted AreaUnderROC: 0.9912986064104903
Root mean squared error: 0.05659317011838436
Relative absolute error: 2.0911491682224628
Root relative squared error: 13.0696328008574
Weighted TruePositiveRate: 0.9904559915164369
Weighted MatthewsCorrelation: 0.9688225194424291
Weighted FMeasure: 0.9905854893438807
Iteration time: 6.0
Weighted AreaUnderPRC: 0.9950367639834836
Mean absolute error: 0.007841809380834236
Coverage of cases: 99.89395546129374
Instances selection time: 2.0
Test time: 5.0
Accumulative iteration time: 58.0
Weighted Recall: 0.9904559915164369
Weighted FalsePositiveRate: 0.012859735908047796
Kappa statistic: 0.9351269541887145
Training time: 4.0
		
Iteration: 11
Labeled set size: 577
Unlabelled set size: 1309
	
Mean region size: 27.17391304347826
Incorrectly Classified Instances: 1.1134676564156947
Correctly Classified Instances: 98.8865323435843
Weighted Precision: 0.9899275961268466
Weighted AreaUnderROC: 0.9919402073289415
Root mean squared error: 0.06059050473005357
Relative absolute error: 2.2183945318453775
Root relative squared error: 13.992777686492689
Weighted TruePositiveRate: 0.9888653234358431
Weighted MatthewsCorrelation: 0.9540131138232071
Weighted FMeasure: 0.9889215141093006
Iteration time: 6.0
Weighted AreaUnderPRC: 0.9944494662702323
Mean absolute error: 0.008318979494420165
Coverage of cases: 99.73488865323436
Instances selection time: 1.0
Test time: 5.0
Accumulative iteration time: 64.0
Weighted Recall: 0.9888653234358431
Weighted FalsePositiveRate: 0.038122258460512516
Kappa statistic: 0.9233230919344632
Training time: 5.0
		
Iteration: 12
Labeled set size: 597
Unlabelled set size: 1289
	
Mean region size: 27.17391304347826
Incorrectly Classified Instances: 1.1134676564156947
Correctly Classified Instances: 98.8865323435843
Weighted Precision: 0.9899275961268466
Weighted AreaUnderROC: 0.9916169893856246
Root mean squared error: 0.060602197819890936
Relative absolute error: 2.216834309996197
Root relative squared error: 13.995478089918794
Weighted TruePositiveRate: 0.9888653234358431
Weighted MatthewsCorrelation: 0.9540131138232071
Weighted FMeasure: 0.9889215141093006
Iteration time: 7.0
Weighted AreaUnderPRC: 0.9943950374124189
Mean absolute error: 0.00831312866248574
Coverage of cases: 99.73488865323436
Instances selection time: 2.0
Test time: 5.0
Accumulative iteration time: 71.0
Weighted Recall: 0.9888653234358431
Weighted FalsePositiveRate: 0.038122258460512516
Kappa statistic: 0.9233230919344632
Training time: 5.0
		
Iteration: 13
Labeled set size: 617
Unlabelled set size: 1269
	
Mean region size: 27.17391304347826
Incorrectly Classified Instances: 1.1134676564156947
Correctly Classified Instances: 98.8865323435843
Weighted Precision: 0.9899275961268466
Weighted AreaUnderROC: 0.9916169893856246
Root mean squared error: 0.06061332541786319
Relative absolute error: 2.2153872747216283
Root relative squared error: 13.99804789859268
Weighted TruePositiveRate: 0.9888653234358431
Weighted MatthewsCorrelation: 0.9540131138232071
Weighted FMeasure: 0.9889215141093006
Iteration time: 7.0
Weighted AreaUnderPRC: 0.9943950374124189
Mean absolute error: 0.008307702280206107
Coverage of cases: 99.73488865323436
Instances selection time: 2.0
Test time: 4.0
Accumulative iteration time: 78.0
Weighted Recall: 0.9888653234358431
Weighted FalsePositiveRate: 0.038122258460512516
Kappa statistic: 0.9233230919344632
Training time: 5.0
		
Iteration: 14
Labeled set size: 637
Unlabelled set size: 1249
	
Mean region size: 27.187168610816542
Incorrectly Classified Instances: 1.2725344644750796
Correctly Classified Instances: 98.72746553552491
Weighted Precision: 0.9890168156339948
Weighted AreaUnderROC: 0.9903055504235766
Root mean squared error: 0.06627449648707448
Relative absolute error: 2.4014747871571696
Root relative squared error: 15.305439354887744
Weighted TruePositiveRate: 0.9872746553552492
Weighted MatthewsCorrelation: 0.9495758030121036
Weighted FMeasure: 0.9874732102197638
Iteration time: 7.0
Weighted AreaUnderPRC: 0.9925381473187074
Mean absolute error: 0.009005530451839387
Coverage of cases: 99.6288441145281
Instances selection time: 2.0
Test time: 5.0
Accumulative iteration time: 85.0
Weighted Recall: 0.9872746553552492
Weighted FalsePositiveRate: 0.03816379930266078
Kappa statistic: 0.9126718770800332
Training time: 5.0
		
Iteration: 15
Labeled set size: 657
Unlabelled set size: 1229
	
Mean region size: 27.187168610816542
Incorrectly Classified Instances: 1.2725344644750796
Correctly Classified Instances: 98.72746553552491
Weighted Precision: 0.9890168156339948
Weighted AreaUnderROC: 0.9899823324802595
Root mean squared error: 0.0661336378312463
Relative absolute error: 2.398068483953399
Root relative squared error: 15.27290944174371
Weighted TruePositiveRate: 0.9872746553552492
Weighted MatthewsCorrelation: 0.9495758030121036
Weighted FMeasure: 0.9874732102197638
Iteration time: 7.0
Weighted AreaUnderPRC: 0.9924798565915034
Mean absolute error: 0.008992756814825247
Coverage of cases: 99.6288441145281
Instances selection time: 2.0
Test time: 4.0
Accumulative iteration time: 92.0
Weighted Recall: 0.9872746553552492
Weighted FalsePositiveRate: 0.03816379930266078
Kappa statistic: 0.9126718770800332
Training time: 5.0
		
Iteration: 16
Labeled set size: 677
Unlabelled set size: 1209
	
Mean region size: 27.187168610816542
Incorrectly Classified Instances: 1.2725344644750796
Correctly Classified Instances: 98.72746553552491
Weighted Precision: 0.9890168156339948
Weighted AreaUnderROC: 0.9899823324802595
Root mean squared error: 0.06599752235013107
Relative absolute error: 2.3947726135941596
Root relative squared error: 15.241474917878605
Weighted TruePositiveRate: 0.9872746553552492
Weighted MatthewsCorrelation: 0.9495758030121036
Weighted FMeasure: 0.9874732102197638
Iteration time: 7.0
Weighted AreaUnderPRC: 0.9924799207552435
Mean absolute error: 0.008980397300978098
Coverage of cases: 99.6288441145281
Instances selection time: 2.0
Test time: 4.0
Accumulative iteration time: 99.0
Weighted Recall: 0.9872746553552492
Weighted FalsePositiveRate: 0.03816379930266078
Kappa statistic: 0.9126718770800332
Training time: 5.0
		
Iteration: 17
Labeled set size: 697
Unlabelled set size: 1189
	
Mean region size: 27.187168610816542
Incorrectly Classified Instances: 1.2725344644750796
Correctly Classified Instances: 98.72746553552491
Weighted Precision: 0.9890168156339948
Weighted AreaUnderROC: 0.9899823324802595
Root mean squared error: 0.06598712095010348
Relative absolute error: 2.3933798870017156
Root relative squared error: 15.239072817436256
Weighted TruePositiveRate: 0.9872746553552492
Weighted MatthewsCorrelation: 0.9495758030121036
Weighted FMeasure: 0.9874732102197638
Iteration time: 7.0
Weighted AreaUnderPRC: 0.9924837634503489
Mean absolute error: 0.008975174576256434
Coverage of cases: 99.6288441145281
Instances selection time: 1.0
Test time: 5.0
Accumulative iteration time: 106.0
Weighted Recall: 0.9872746553552492
Weighted FalsePositiveRate: 0.03816379930266078
Kappa statistic: 0.9126718770800332
Training time: 6.0
		
Iteration: 18
Labeled set size: 717
Unlabelled set size: 1169
	
Mean region size: 27.187168610816542
Incorrectly Classified Instances: 1.2725344644750796
Correctly Classified Instances: 98.72746553552491
Weighted Precision: 0.9890168156339948
Weighted AreaUnderROC: 0.9914713140168884
Root mean squared error: 0.06597747203048811
Relative absolute error: 2.392070180922707
Root relative squared error: 15.236844494901327
Weighted TruePositiveRate: 0.9872746553552492
Weighted MatthewsCorrelation: 0.9495758030121036
Weighted FMeasure: 0.9874732102197638
Iteration time: 8.0
Weighted AreaUnderPRC: 0.9927344836264045
Mean absolute error: 0.008970263178460152
Coverage of cases: 99.6288441145281
Instances selection time: 2.0
Test time: 4.0
Accumulative iteration time: 114.0
Weighted Recall: 0.9872746553552492
Weighted FalsePositiveRate: 0.03816379930266078
Kappa statistic: 0.9126718770800332
Training time: 6.0
		
Iteration: 19
Labeled set size: 737
Unlabelled set size: 1149
	
Mean region size: 27.187168610816542
Incorrectly Classified Instances: 1.2725344644750796
Correctly Classified Instances: 98.72746553552491
Weighted Precision: 0.9890168156339948
Weighted AreaUnderROC: 0.9911480960735713
Root mean squared error: 0.06596849911864633
Relative absolute error: 2.3908362857267433
Root relative squared error: 15.234772289674419
Weighted TruePositiveRate: 0.9872746553552492
Weighted MatthewsCorrelation: 0.9495758030121036
Weighted FMeasure: 0.9874732102197638
Iteration time: 7.0
Weighted AreaUnderPRC: 0.9926800233612868
Mean absolute error: 0.008965636071475288
Coverage of cases: 99.6288441145281
Instances selection time: 2.0
Test time: 5.0
Accumulative iteration time: 121.0
Weighted Recall: 0.9872746553552492
Weighted FalsePositiveRate: 0.03816379930266078
Kappa statistic: 0.9126718770800332
Training time: 5.0
		
Iteration: 20
Labeled set size: 757
Unlabelled set size: 1129
	
Mean region size: 27.187168610816542
Incorrectly Classified Instances: 1.2725344644750796
Correctly Classified Instances: 98.72746553552491
Weighted Precision: 0.9890168156339948
Weighted AreaUnderROC: 0.9907268232485741
Root mean squared error: 0.06597796379626968
Relative absolute error: 2.389938437636052
Root relative squared error: 15.236958063343874
Weighted TruePositiveRate: 0.9872746553552492
Weighted MatthewsCorrelation: 0.9495758030121036
Weighted FMeasure: 0.9874732102197638
Iteration time: 7.0
Weighted AreaUnderPRC: 0.9926090414427069
Mean absolute error: 0.008962269141135196
Coverage of cases: 99.6288441145281
Instances selection time: 1.0
Test time: 5.0
Accumulative iteration time: 128.0
Weighted Recall: 0.9872746553552492
Weighted FalsePositiveRate: 0.03816379930266078
Kappa statistic: 0.9126718770800332
Training time: 6.0
		
Iteration: 21
Labeled set size: 777
Unlabelled set size: 1109
	
Mean region size: 27.187168610816542
Incorrectly Classified Instances: 1.2725344644750796
Correctly Classified Instances: 98.72746553552491
Weighted Precision: 0.9890168156339948
Weighted AreaUnderROC: 0.9907268232485741
Root mean squared error: 0.06596964155303368
Relative absolute error: 2.3888311303069116
Root relative squared error: 15.235036123594847
Weighted TruePositiveRate: 0.9872746553552492
Weighted MatthewsCorrelation: 0.9495758030121036
Weighted FMeasure: 0.9874732102197638
Iteration time: 8.0
Weighted AreaUnderPRC: 0.9926090414427069
Mean absolute error: 0.008958116738650919
Coverage of cases: 99.6288441145281
Instances selection time: 2.0
Test time: 4.0
Accumulative iteration time: 136.0
Weighted Recall: 0.9872746553552492
Weighted FalsePositiveRate: 0.03816379930266078
Kappa statistic: 0.9126718770800332
Training time: 6.0
		
Iteration: 22
Labeled set size: 797
Unlabelled set size: 1089
	
Mean region size: 27.187168610816542
Incorrectly Classified Instances: 1.2725344644750796
Correctly Classified Instances: 98.72746553552491
Weighted Precision: 0.9890168156339948
Weighted AreaUnderROC: 0.9899823324802595
Root mean squared error: 0.06597871628049665
Relative absolute error: 2.388036639064001
Root relative squared error: 15.237131842132273
Weighted TruePositiveRate: 0.9872746553552492
Weighted MatthewsCorrelation: 0.9495758030121036
Weighted FMeasure: 0.9874732102197638
Iteration time: 8.0
Weighted AreaUnderPRC: 0.9924798565915034
Mean absolute error: 0.008955137396490002
Coverage of cases: 99.6288441145281
Instances selection time: 2.0
Test time: 4.0
Accumulative iteration time: 144.0
Weighted Recall: 0.9872746553552492
Weighted FalsePositiveRate: 0.03816379930266078
Kappa statistic: 0.9126718770800332
Training time: 6.0
		
Iteration: 23
Labeled set size: 817
Unlabelled set size: 1069
	
Mean region size: 27.187168610816542
Incorrectly Classified Instances: 1.2725344644750796
Correctly Classified Instances: 98.72746553552491
Weighted Precision: 0.9890168156339948
Weighted AreaUnderROC: 0.9914713140168884
Root mean squared error: 0.06595453337847368
Relative absolute error: 2.386788735125737
Root relative squared error: 15.231547040135176
Weighted TruePositiveRate: 0.9872746553552492
Weighted MatthewsCorrelation: 0.9495758030121036
Weighted FMeasure: 0.9874732102197638
Iteration time: 8.0
Weighted AreaUnderPRC: 0.9927344836264045
Mean absolute error: 0.008950457756721514
Coverage of cases: 99.6288441145281
Instances selection time: 2.0
Test time: 5.0
Accumulative iteration time: 152.0
Weighted Recall: 0.9872746553552492
Weighted FalsePositiveRate: 0.03816379930266078
Kappa statistic: 0.9126718770800332
Training time: 6.0
		
Iteration: 24
Labeled set size: 837
Unlabelled set size: 1049
	
Mean region size: 27.187168610816542
Incorrectly Classified Instances: 1.2725344644750796
Correctly Classified Instances: 98.72746553552491
Weighted Precision: 0.9890168156339948
Weighted AreaUnderROC: 0.9899823324802595
Root mean squared error: 0.06580843545405637
Relative absolute error: 2.383715791350637
Root relative squared error: 15.197807169739026
Weighted TruePositiveRate: 0.9872746553552492
Weighted MatthewsCorrelation: 0.9495758030121036
Weighted FMeasure: 0.9874732102197638
Iteration time: 7.0
Weighted AreaUnderPRC: 0.9924799207552435
Mean absolute error: 0.008938934217564889
Coverage of cases: 99.6288441145281
Instances selection time: 1.0
Test time: 5.0
Accumulative iteration time: 159.0
Weighted Recall: 0.9872746553552492
Weighted FalsePositiveRate: 0.03816379930266078
Kappa statistic: 0.9126718770800332
Training time: 6.0
		
Iteration: 25
Labeled set size: 857
Unlabelled set size: 1029
	
Mean region size: 27.187168610816542
Incorrectly Classified Instances: 1.2725344644750796
Correctly Classified Instances: 98.72746553552491
Weighted Precision: 0.9890168156339948
Weighted AreaUnderROC: 0.9914713140168884
Root mean squared error: 0.06568315445498948
Relative absolute error: 2.380961080138405
Root relative squared error: 15.168874762324778
Weighted TruePositiveRate: 0.9872746553552492
Weighted MatthewsCorrelation: 0.9495758030121036
Weighted FMeasure: 0.9874732102197638
Iteration time: 8.0
Weighted AreaUnderPRC: 0.9927344836264045
Mean absolute error: 0.00892860405051902
Coverage of cases: 99.6288441145281
Instances selection time: 2.0
Test time: 4.0
Accumulative iteration time: 167.0
Weighted Recall: 0.9872746553552492
Weighted FalsePositiveRate: 0.03816379930266078
Kappa statistic: 0.9126718770800332
Training time: 6.0
		
Iteration: 26
Labeled set size: 877
Unlabelled set size: 1009
	
Mean region size: 27.187168610816542
Incorrectly Classified Instances: 1.2725344644750796
Correctly Classified Instances: 98.72746553552491
Weighted Precision: 0.9890168156339948
Weighted AreaUnderROC: 0.9914713140168884
Root mean squared error: 0.065676996352858
Relative absolute error: 2.380092879941446
Root relative squared error: 15.167452609555454
Weighted TruePositiveRate: 0.9872746553552492
Weighted MatthewsCorrelation: 0.9495758030121036
Weighted FMeasure: 0.9874732102197638
Iteration time: 7.0
Weighted AreaUnderPRC: 0.9927344836264045
Mean absolute error: 0.008925348299780422
Coverage of cases: 99.6288441145281
Instances selection time: 1.0
Test time: 5.0
Accumulative iteration time: 174.0
Weighted Recall: 0.9872746553552492
Weighted FalsePositiveRate: 0.03816379930266078
Kappa statistic: 0.9126718770800332
Training time: 6.0
		
Iteration: 27
Labeled set size: 897
Unlabelled set size: 989
	
Mean region size: 27.187168610816542
Incorrectly Classified Instances: 1.2725344644750796
Correctly Classified Instances: 98.72746553552491
Weighted Precision: 0.9890168156339948
Weighted AreaUnderROC: 0.9907268232485741
Root mean squared error: 0.06567118027821982
Relative absolute error: 2.379265427376057
Root relative squared error: 15.166109444652262
Weighted TruePositiveRate: 0.9872746553552492
Weighted MatthewsCorrelation: 0.9495758030121036
Weighted FMeasure: 0.9874732102197638
Iteration time: 7.0
Weighted AreaUnderPRC: 0.9926090414427069
Mean absolute error: 0.008922245352660214
Coverage of cases: 99.6288441145281
Instances selection time: 1.0
Test time: 5.0
Accumulative iteration time: 181.0
Weighted Recall: 0.9872746553552492
Weighted FalsePositiveRate: 0.03816379930266078
Kappa statistic: 0.9126718770800332
Training time: 6.0
		
Iteration: 28
Labeled set size: 917
Unlabelled set size: 969
	
Mean region size: 27.187168610816542
Incorrectly Classified Instances: 1.2725344644750796
Correctly Classified Instances: 98.72746553552491
Weighted Precision: 0.9890168156339948
Weighted AreaUnderROC: 0.9899823324802595
Root mean squared error: 0.0656656791492057
Relative absolute error: 2.378475919210276
Root relative squared error: 15.164839013325402
Weighted TruePositiveRate: 0.9872746553552492
Weighted MatthewsCorrelation: 0.9495758030121036
Weighted FMeasure: 0.9874732102197638
Iteration time: 8.0
Weighted AreaUnderPRC: 0.9924837634503489
Mean absolute error: 0.008919284697038534
Coverage of cases: 99.6288441145281
Instances selection time: 1.0
Test time: 5.0
Accumulative iteration time: 189.0
Weighted Recall: 0.9872746553552492
Weighted FalsePositiveRate: 0.03816379930266078
Kappa statistic: 0.9126718770800332
Training time: 7.0
		
Iteration: 29
Labeled set size: 937
Unlabelled set size: 949
	
Mean region size: 27.187168610816542
Incorrectly Classified Instances: 1.2725344644750796
Correctly Classified Instances: 98.72746553552491
Weighted Precision: 0.9890168156339948
Weighted AreaUnderROC: 0.9914713140168884
Root mean squared error: 0.06553205258225829
Relative absolute error: 2.3756669178890104
Root relative squared error: 15.133979279566216
Weighted TruePositiveRate: 0.9872746553552492
Weighted MatthewsCorrelation: 0.9495758030121036
Weighted FMeasure: 0.9874732102197638
Iteration time: 7.0
Weighted AreaUnderPRC: 0.9927344836264045
Mean absolute error: 0.00890875094208379
Coverage of cases: 99.6288441145281
Instances selection time: 1.0
Test time: 5.0
Accumulative iteration time: 196.0
Weighted Recall: 0.9872746553552492
Weighted FalsePositiveRate: 0.03816379930266078
Kappa statistic: 0.9126718770800332
Training time: 6.0
		
Iteration: 30
Labeled set size: 957
Unlabelled set size: 929
	
Mean region size: 27.187168610816542
Incorrectly Classified Instances: 1.2725344644750796
Correctly Classified Instances: 98.72746553552491
Weighted Precision: 0.9890168156339948
Weighted AreaUnderROC: 0.9899823324802595
Root mean squared error: 0.06552724527428817
Relative absolute error: 2.374942135175855
Root relative squared error: 15.132869079345966
Weighted TruePositiveRate: 0.9872746553552492
Weighted MatthewsCorrelation: 0.9495758030121036
Weighted FMeasure: 0.9874732102197638
Iteration time: 8.0
Weighted AreaUnderPRC: 0.9924798565915034
Mean absolute error: 0.008906033006909455
Coverage of cases: 99.6288441145281
Instances selection time: 2.0
Test time: 4.0
Accumulative iteration time: 204.0
Weighted Recall: 0.9872746553552492
Weighted FalsePositiveRate: 0.03816379930266078
Kappa statistic: 0.9126718770800332
Training time: 6.0
		
Iteration: 31
Labeled set size: 977
Unlabelled set size: 909
	
Mean region size: 27.187168610816542
Incorrectly Classified Instances: 1.2725344644750796
Correctly Classified Instances: 98.72746553552491
Weighted Precision: 0.9890168156339948
Weighted AreaUnderROC: 0.9914713140168884
Root mean squared error: 0.06551026238846792
Relative absolute error: 2.3740468928845546
Root relative squared error: 15.128947049865989
Weighted TruePositiveRate: 0.9872746553552492
Weighted MatthewsCorrelation: 0.9495758030121036
Weighted FMeasure: 0.9874732102197638
Iteration time: 8.0
Weighted AreaUnderPRC: 0.9927344836264045
Mean absolute error: 0.00890267584831708
Coverage of cases: 99.6288441145281
Instances selection time: 1.0
Test time: 5.0
Accumulative iteration time: 212.0
Weighted Recall: 0.9872746553552492
Weighted FalsePositiveRate: 0.03816379930266078
Kappa statistic: 0.9126718770800332
Training time: 7.0
		
Iteration: 32
Labeled set size: 997
Unlabelled set size: 889
	
Mean region size: 27.187168610816542
Incorrectly Classified Instances: 1.2725344644750796
Correctly Classified Instances: 98.72746553552491
Weighted Precision: 0.9890168156339948
Weighted AreaUnderROC: 0.9907268232485741
Root mean squared error: 0.06537150800150884
Relative absolute error: 2.371174464588409
Root relative squared error: 15.096903096801164
Weighted TruePositiveRate: 0.9872746553552492
Weighted MatthewsCorrelation: 0.9495758030121036
Weighted FMeasure: 0.9874732102197638
Iteration time: 8.0
Weighted AreaUnderPRC: 0.9926090414427069
Mean absolute error: 0.008891904242206533
Coverage of cases: 99.6288441145281
Instances selection time: 1.0
Test time: 5.0
Accumulative iteration time: 220.0
Weighted Recall: 0.9872746553552492
Weighted FalsePositiveRate: 0.03816379930266078
Kappa statistic: 0.9126718770800332
Training time: 7.0
		
Iteration: 33
Labeled set size: 1017
Unlabelled set size: 869
	
Mean region size: 27.160657476139978
Incorrectly Classified Instances: 1.2725344644750796
Correctly Classified Instances: 98.72746553552491
Weighted Precision: 0.9890168156339948
Weighted AreaUnderROC: 0.9899823324802595
Root mean squared error: 0.06535646164273612
Relative absolute error: 2.3703496136678806
Root relative squared error: 15.09342828908606
Weighted TruePositiveRate: 0.9872746553552492
Weighted MatthewsCorrelation: 0.9495758030121036
Weighted FMeasure: 0.9874732102197638
Iteration time: 8.0
Weighted AreaUnderPRC: 0.9924798565915034
Mean absolute error: 0.008888811051254553
Coverage of cases: 99.6288441145281
Instances selection time: 1.0
Test time: 5.0
Accumulative iteration time: 228.0
Weighted Recall: 0.9872746553552492
Weighted FalsePositiveRate: 0.03816379930266078
Kappa statistic: 0.9126718770800332
Training time: 7.0
		
Iteration: 34
Labeled set size: 1037
Unlabelled set size: 849
	
Mean region size: 27.160657476139978
Incorrectly Classified Instances: 1.2725344644750796
Correctly Classified Instances: 98.72746553552491
Weighted Precision: 0.9890168156339948
Weighted AreaUnderROC: 0.9914713140168884
Root mean squared error: 0.0652468702831081
Relative absolute error: 2.3679584093204427
Root relative squared error: 15.068119248693225
Weighted TruePositiveRate: 0.9872746553552492
Weighted MatthewsCorrelation: 0.9495758030121036
Weighted FMeasure: 0.9874732102197638
Iteration time: 8.0
Weighted AreaUnderPRC: 0.9927344836264045
Mean absolute error: 0.00887984403495166
Coverage of cases: 99.6288441145281
Instances selection time: 1.0
Test time: 5.0
Accumulative iteration time: 236.0
Weighted Recall: 0.9872746553552492
Weighted FalsePositiveRate: 0.03816379930266078
Kappa statistic: 0.9126718770800332
Training time: 7.0
		
Iteration: 35
Labeled set size: 1057
Unlabelled set size: 829
	
Mean region size: 27.160657476139978
Incorrectly Classified Instances: 1.2195121951219512
Correctly Classified Instances: 98.78048780487805
Weighted Precision: 0.989311853644036
Weighted AreaUnderROC: 0.9914713140168884
Root mean squared error: 0.06511994134952166
Relative absolute error: 2.3652567971995713
Root relative squared error: 15.03880626710359
Weighted TruePositiveRate: 0.9878048780487805
Weighted MatthewsCorrelation: 0.9530607661343782
Weighted FMeasure: 0.9879267565397817
Iteration time: 8.0
Weighted AreaUnderPRC: 0.9927344836264045
Mean absolute error: 0.008869712989498393
Coverage of cases: 99.6288441145281
Instances selection time: 1.0
Test time: 5.0
Accumulative iteration time: 244.0
Weighted Recall: 0.9878048780487805
Weighted FalsePositiveRate: 0.03814995235527802
Kappa statistic: 0.9160364594322037
Training time: 7.0
		
Iteration: 36
Labeled set size: 1077
Unlabelled set size: 809
	
Mean region size: 27.160657476139978
Incorrectly Classified Instances: 1.2195121951219512
Correctly Classified Instances: 98.78048780487805
Weighted Precision: 0.989311853644036
Weighted AreaUnderROC: 0.9899823324802595
Root mean squared error: 0.06512719747091102
Relative absolute error: 2.3648892749420156
Root relative squared error: 15.040481996558556
Weighted TruePositiveRate: 0.9878048780487805
Weighted MatthewsCorrelation: 0.9530607661343782
Weighted FMeasure: 0.9879267565397817
Iteration time: 8.0
Weighted AreaUnderPRC: 0.9924837634503489
Mean absolute error: 0.008868334781032558
Coverage of cases: 99.6288441145281
Instances selection time: 1.0
Test time: 5.0
Accumulative iteration time: 252.0
Weighted Recall: 0.9878048780487805
Weighted FalsePositiveRate: 0.03814995235527802
Kappa statistic: 0.9160364594322037
Training time: 7.0
		
Iteration: 37
Labeled set size: 1097
Unlabelled set size: 789
	
Mean region size: 27.160657476139978
Incorrectly Classified Instances: 1.2195121951219512
Correctly Classified Instances: 98.78048780487805
Weighted Precision: 0.989311853644036
Weighted AreaUnderROC: 0.9899823324802595
Root mean squared error: 0.0651043058369825
Relative absolute error: 2.3639941234303894
Root relative squared error: 15.03519540015423
Weighted TruePositiveRate: 0.9878048780487805
Weighted MatthewsCorrelation: 0.9530607661343782
Weighted FMeasure: 0.9879267565397817
Iteration time: 8.0
Weighted AreaUnderPRC: 0.9924837634503489
Mean absolute error: 0.00886497796286396
Coverage of cases: 99.6288441145281
Instances selection time: 1.0
Test time: 5.0
Accumulative iteration time: 260.0
Weighted Recall: 0.9878048780487805
Weighted FalsePositiveRate: 0.03814995235527802
Kappa statistic: 0.9160364594322037
Training time: 7.0
		
Iteration: 38
Labeled set size: 1117
Unlabelled set size: 769
	
Mean region size: 27.160657476139978
Incorrectly Classified Instances: 1.2195121951219512
Correctly Classified Instances: 98.78048780487805
Weighted Precision: 0.989311853644036
Weighted AreaUnderROC: 0.9899823324802595
Root mean squared error: 0.06506228010965236
Relative absolute error: 2.362804987054816
Root relative squared error: 15.02548997415945
Weighted TruePositiveRate: 0.9878048780487805
Weighted MatthewsCorrelation: 0.9530607661343782
Weighted FMeasure: 0.9879267565397817
Iteration time: 8.0
Weighted AreaUnderPRC: 0.9924798565915034
Mean absolute error: 0.00886051870145556
Coverage of cases: 99.6288441145281
Instances selection time: 1.0
Test time: 5.0
Accumulative iteration time: 268.0
Weighted Recall: 0.9878048780487805
Weighted FalsePositiveRate: 0.03814995235527802
Kappa statistic: 0.9160364594322037
Training time: 7.0
		
Iteration: 39
Labeled set size: 1137
Unlabelled set size: 749
	
Mean region size: 27.160657476139978
Incorrectly Classified Instances: 1.2195121951219512
Correctly Classified Instances: 98.78048780487805
Weighted Precision: 0.989311853644036
Weighted AreaUnderROC: 0.9899823324802595
Root mean squared error: 0.06507056524506934
Relative absolute error: 2.36248355873406
Root relative squared error: 15.027403344224755
Weighted TruePositiveRate: 0.9878048780487805
Weighted MatthewsCorrelation: 0.9530607661343782
Weighted FMeasure: 0.9879267565397817
Iteration time: 9.0
Weighted AreaUnderPRC: 0.9924798565915034
Mean absolute error: 0.008859313345252725
Coverage of cases: 99.6288441145281
Instances selection time: 1.0
Test time: 5.0
Accumulative iteration time: 277.0
Weighted Recall: 0.9878048780487805
Weighted FalsePositiveRate: 0.03814995235527802
Kappa statistic: 0.9160364594322037
Training time: 8.0
		
Iteration: 40
Labeled set size: 1157
Unlabelled set size: 729
	
Mean region size: 27.160657476139978
Incorrectly Classified Instances: 1.2195121951219512
Correctly Classified Instances: 98.78048780487805
Weighted Precision: 0.989311853644036
Weighted AreaUnderROC: 0.9914713140168884
Root mean squared error: 0.06507857290699431
Relative absolute error: 2.3621742502640695
Root relative squared error: 15.029252634531941
Weighted TruePositiveRate: 0.9878048780487805
Weighted MatthewsCorrelation: 0.9530607661343782
Weighted FMeasure: 0.9879267565397817
Iteration time: 8.0
Weighted AreaUnderPRC: 0.9927344836264045
Mean absolute error: 0.00885815343849026
Coverage of cases: 99.6288441145281
Instances selection time: 1.0
Test time: 5.0
Accumulative iteration time: 285.0
Weighted Recall: 0.9878048780487805
Weighted FalsePositiveRate: 0.03814995235527802
Kappa statistic: 0.9160364594322037
Training time: 7.0
		
Iteration: 41
Labeled set size: 1177
Unlabelled set size: 709
	
Mean region size: 27.160657476139978
Incorrectly Classified Instances: 1.2195121951219512
Correctly Classified Instances: 98.78048780487805
Weighted Precision: 0.989311853644036
Weighted AreaUnderROC: 0.9914713140168884
Root mean squared error: 0.06495977456963536
Relative absolute error: 2.359666007908857
Root relative squared error: 15.001817333710553
Weighted TruePositiveRate: 0.9878048780487805
Weighted MatthewsCorrelation: 0.9530607661343782
Weighted FMeasure: 0.9879267565397817
Iteration time: 9.0
Weighted AreaUnderPRC: 0.9927344836264045
Mean absolute error: 0.008848747529658214
Coverage of cases: 99.6288441145281
Instances selection time: 1.0
Test time: 5.0
Accumulative iteration time: 294.0
Weighted Recall: 0.9878048780487805
Weighted FalsePositiveRate: 0.03814995235527802
Kappa statistic: 0.9160364594322037
Training time: 8.0
		
Iteration: 42
Labeled set size: 1197
Unlabelled set size: 689
	
Mean region size: 27.160657476139978
Incorrectly Classified Instances: 1.2195121951219512
Correctly Classified Instances: 98.78048780487805
Weighted Precision: 0.989311853644036
Weighted AreaUnderROC: 0.9899823324802595
Root mean squared error: 0.06484586487289003
Relative absolute error: 2.357217628287642
Root relative squared error: 14.975511016078864
Weighted TruePositiveRate: 0.9878048780487805
Weighted MatthewsCorrelation: 0.9530607661343782
Weighted FMeasure: 0.9879267565397817
Iteration time: 8.0
Weighted AreaUnderPRC: 0.9924798565915034
Mean absolute error: 0.008839566106078656
Coverage of cases: 99.6288441145281
Instances selection time: 1.0
Test time: 5.0
Accumulative iteration time: 302.0
Weighted Recall: 0.9878048780487805
Weighted FalsePositiveRate: 0.03814995235527802
Kappa statistic: 0.9160364594322037
Training time: 7.0
		
Iteration: 43
Labeled set size: 1217
Unlabelled set size: 669
	
Mean region size: 27.160657476139978
Incorrectly Classified Instances: 1.2195121951219512
Correctly Classified Instances: 98.78048780487805
Weighted Precision: 0.989311853644036
Weighted AreaUnderROC: 0.9899823324802595
Root mean squared error: 0.06484482703533415
Relative absolute error: 2.356786631584675
Root relative squared error: 14.975271337761956
Weighted TruePositiveRate: 0.9878048780487805
Weighted MatthewsCorrelation: 0.9530607661343782
Weighted FMeasure: 0.9879267565397817
Iteration time: 8.0
Weighted AreaUnderPRC: 0.9924798565915034
Mean absolute error: 0.008837949868442531
Coverage of cases: 99.6288441145281
Instances selection time: 1.0
Test time: 5.0
Accumulative iteration time: 310.0
Weighted Recall: 0.9878048780487805
Weighted FalsePositiveRate: 0.03814995235527802
Kappa statistic: 0.9160364594322037
Training time: 7.0
		
Iteration: 44
Labeled set size: 1237
Unlabelled set size: 649
	
Mean region size: 26.948568398727467
Incorrectly Classified Instances: 2.2269353128313893
Correctly Classified Instances: 97.77306468716861
Weighted Precision: 0.9791355878655964
Weighted AreaUnderROC: 0.9436707004318693
Root mean squared error: 0.09553289320562554
Relative absolute error: 3.4258414104404236
Root relative squared error: 22.06237664349267
Weighted TruePositiveRate: 0.9777306468716861
Weighted MatthewsCorrelation: 0.8787556667694768
Weighted FMeasure: 0.976818784078456
Iteration time: 9.0
Weighted AreaUnderPRC: 0.9781646662849368
Mean absolute error: 0.012846905289151589
Coverage of cases: 99.09862142099682
Instances selection time: 1.0
Test time: 5.0
Accumulative iteration time: 319.0
Weighted Recall: 0.9777306468716861
Weighted FalsePositiveRate: 0.13932677489989587
Kappa statistic: 0.8400788178931152
Training time: 8.0
		
Iteration: 45
Labeled set size: 1257
Unlabelled set size: 629
	
Mean region size: 27.160657476139978
Incorrectly Classified Instances: 1.2195121951219512
Correctly Classified Instances: 98.78048780487805
Weighted Precision: 0.989311853644036
Weighted AreaUnderROC: 0.9899823324802595
Root mean squared error: 0.06474232801394326
Relative absolute error: 2.354179994274673
Root relative squared error: 14.95160020272528
Weighted TruePositiveRate: 0.9878048780487805
Weighted MatthewsCorrelation: 0.9530607661343782
Weighted FMeasure: 0.9879267565397817
Iteration time: 9.0
Weighted AreaUnderPRC: 0.9924799207552435
Mean absolute error: 0.008828174978530024
Coverage of cases: 99.6288441145281
Instances selection time: 1.0
Test time: 5.0
Accumulative iteration time: 328.0
Weighted Recall: 0.9878048780487805
Weighted FalsePositiveRate: 0.03814995235527802
Kappa statistic: 0.9160364594322037
Training time: 8.0
		
Iteration: 46
Labeled set size: 1277
Unlabelled set size: 609
	
Mean region size: 26.948568398727467
Incorrectly Classified Instances: 2.2269353128313893
Correctly Classified Instances: 97.77306468716861
Weighted Precision: 0.9791355878655964
Weighted AreaUnderROC: 0.9436707004318693
Root mean squared error: 0.09547469046908585
Relative absolute error: 3.4225166740643367
Root relative squared error: 22.048935297249166
Weighted TruePositiveRate: 0.9777306468716861
Weighted MatthewsCorrelation: 0.8787556667694768
Weighted FMeasure: 0.976818784078456
Iteration time: 9.0
Weighted AreaUnderPRC: 0.9781913118864711
Mean absolute error: 0.012834437527741263
Coverage of cases: 99.09862142099682
Instances selection time: 0.0
Test time: 5.0
Accumulative iteration time: 337.0
Weighted Recall: 0.9777306468716861
Weighted FalsePositiveRate: 0.13932677489989587
Kappa statistic: 0.8400788178931152
Training time: 9.0
		
Time end:Tue Oct 31 12.14.18 EET 2017