Tue Oct 31 12.53.08 EET 2017
Dataset: hypothyroid
Test set size: 1886
Initial Labelled set size: 377
Initial Unlabelled set size: 1509
Batch mode: QBestBatchMode
Batch size: 20
Classifiers: IBk-1cores
Scenario: PoolBasedSamplingScenario
Query strategy: RandomSelectionQueryStrategy-1cores
Time begining: Tue Oct 31 12.53.08 EET 2017
		
Iteration: 1
Labeled set size: 377
Unlabelled set size: 1509
	
Mean region size: 25.0
Incorrectly Classified Instances: 10.233297985153765
Correctly Classified Instances: 89.76670201484623
Weighted Precision: 0.8868480644110428
Weighted AreaUnderROC: 0.6265530068304389
Root mean squared error: 0.22505540360048704
Relative absolute error: 14.549633497426052
Root relative squared error: 51.97431914052843
Weighted TruePositiveRate: 0.8976670201484623
Weighted MatthewsCorrelation: 0.2715879559192114
Weighted FMeasure: 0.8917804154770994
Iteration time: 5.0
Weighted AreaUnderPRC: 0.8759274204606391
Mean absolute error: 0.0545611256153477
Coverage of cases: 89.76670201484623
Instances selection time: 4.0
Test time: 459.0
Accumulative iteration time: 5.0
Weighted Recall: 0.8976670201484623
Weighted FalsePositiveRate: 0.6465823907380134
Kappa statistic: 0.23960032839418965
Training time: 1.0
		
Iteration: 2
Labeled set size: 397
Unlabelled set size: 1489
	
Mean region size: 25.0
Incorrectly Classified Instances: 10.180275715800637
Correctly Classified Instances: 89.81972428419937
Weighted Precision: 0.8838734472004017
Weighted AreaUnderROC: 0.6081273246482654
Root mean squared error: 0.22452671642614835
Relative absolute error: 14.434229927616807
Root relative squared error: 51.85222406755981
Weighted TruePositiveRate: 0.8981972428419936
Weighted MatthewsCorrelation: 0.24077820991908125
Weighted FMeasure: 0.8907683213213777
Iteration time: 4.0
Weighted AreaUnderPRC: 0.8739996191008177
Mean absolute error: 0.05412836222856303
Coverage of cases: 89.81972428419937
Instances selection time: 4.0
Test time: 488.0
Accumulative iteration time: 9.0
Weighted Recall: 0.8981972428419936
Weighted FalsePositiveRate: 0.6845043293168841
Kappa statistic: 0.21548950662619684
Training time: 0.0
		
Iteration: 3
Labeled set size: 417
Unlabelled set size: 1469
	
Mean region size: 25.0
Incorrectly Classified Instances: 11.452810180275716
Correctly Classified Instances: 88.54718981972428
Weighted Precision: 0.8842197943319681
Weighted AreaUnderROC: 0.6139475684453913
Root mean squared error: 0.23819500468652108
Relative absolute error: 16.07394116407666
Root relative squared error: 55.00878003015485
Weighted TruePositiveRate: 0.8854718981972428
Weighted MatthewsCorrelation: 0.2284926309955486
Weighted FMeasure: 0.8848327285942005
Iteration time: 4.0
Weighted AreaUnderPRC: 0.8752299853644189
Mean absolute error: 0.060277279365287484
Coverage of cases: 88.54718981972428
Instances selection time: 4.0
Test time: 505.0
Accumulative iteration time: 13.0
Weighted Recall: 0.8854718981972428
Weighted FalsePositiveRate: 0.6600478280384093
Kappa statistic: 0.20257914486549317
Training time: 0.0
		
Iteration: 4
Labeled set size: 437
Unlabelled set size: 1449
	
Mean region size: 25.0
Incorrectly Classified Instances: 11.134676564156946
Correctly Classified Instances: 88.86532343584305
Weighted Precision: 0.8854979304118454
Weighted AreaUnderROC: 0.6132839037279557
Root mean squared error: 0.23491226733032586
Relative absolute error: 15.616211482648348
Root relative squared error: 54.25066431164359
Weighted TruePositiveRate: 0.8886532343584306
Weighted MatthewsCorrelation: 0.23112081544791657
Weighted FMeasure: 0.8869651969195803
Iteration time: 4.0
Weighted AreaUnderPRC: 0.8757891760036625
Mean absolute error: 0.0585607930599313
Coverage of cases: 88.86532343584305
Instances selection time: 4.0
Test time: 527.0
Accumulative iteration time: 17.0
Weighted Recall: 0.8886532343584306
Weighted FalsePositiveRate: 0.6662401880786122
Kappa statistic: 0.20648500063110978
Training time: 0.0
		
Iteration: 5
Labeled set size: 457
Unlabelled set size: 1429
	
Mean region size: 25.0
Incorrectly Classified Instances: 11.983032873807
Correctly Classified Instances: 88.016967126193
Weighted Precision: 0.8834232194003554
Weighted AreaUnderROC: 0.6056866002085791
Root mean squared error: 0.24374034006390105
Relative absolute error: 16.704133491821427
Root relative squared error: 56.28942037930568
Weighted TruePositiveRate: 0.88016967126193
Weighted MatthewsCorrelation: 0.20631324502249182
Weighted FMeasure: 0.8816809751425664
Iteration time: 4.0
Weighted AreaUnderPRC: 0.8746268507998193
Mean absolute error: 0.06264050059433035
Coverage of cases: 88.016967126193
Instances selection time: 4.0
Test time: 549.0
Accumulative iteration time: 21.0
Weighted Recall: 0.88016967126193
Weighted FalsePositiveRate: 0.6729905124374131
Kappa statistic: 0.1836482974318312
Training time: 0.0
		
Iteration: 6
Labeled set size: 477
Unlabelled set size: 1409
	
Mean region size: 25.0
Incorrectly Classified Instances: 11.558854718981973
Correctly Classified Instances: 88.44114528101802
Weighted Precision: 0.8830791732941821
Weighted AreaUnderROC: 0.6045852884981893
Root mean squared error: 0.23942968989961247
Relative absolute error: 16.11326649770546
Root relative squared error: 55.293918366211955
Weighted TruePositiveRate: 0.8844114528101803
Weighted MatthewsCorrelation: 0.21077513566309453
Weighted FMeasure: 0.8836402089401945
Iteration time: 4.0
Weighted AreaUnderPRC: 0.8744567785437981
Mean absolute error: 0.060424749366395476
Coverage of cases: 88.44114528101802
Instances selection time: 4.0
Test time: 570.0
Accumulative iteration time: 25.0
Weighted Recall: 0.8844114528101803
Weighted FalsePositiveRate: 0.6790508656220715
Kappa statistic: 0.18696125910384354
Training time: 0.0
		
Iteration: 7
Labeled set size: 497
Unlabelled set size: 1389
	
Mean region size: 25.0
Incorrectly Classified Instances: 11.187698833510074
Correctly Classified Instances: 88.81230116648993
Weighted Precision: 0.8859981198096445
Weighted AreaUnderROC: 0.6127866682503693
Root mean squared error: 0.23559242119610566
Relative absolute error: 15.594340355445903
Root relative squared error: 54.40773911864292
Weighted TruePositiveRate: 0.8881230116648993
Weighted MatthewsCorrelation: 0.2281320518962297
Weighted FMeasure: 0.886995282159782
Iteration time: 4.0
Weighted AreaUnderPRC: 0.8769530241078551
Mean absolute error: 0.05847877633292214
Coverage of cases: 88.81230116648993
Instances selection time: 4.0
Test time: 596.0
Accumulative iteration time: 29.0
Weighted Recall: 0.8881230116648993
Weighted FalsePositiveRate: 0.6662838387290747
Kappa statistic: 0.2106563945508063
Training time: 0.0
		
Iteration: 8
Labeled set size: 517
Unlabelled set size: 1369
	
Mean region size: 25.0
Incorrectly Classified Instances: 10.551431601272535
Correctly Classified Instances: 89.44856839872746
Weighted Precision: 0.8869882547639705
Weighted AreaUnderROC: 0.6161404972050927
Root mean squared error: 0.22882990477452955
Relative absolute error: 14.726492887026462
Root relative squared error: 52.84600284808443
Weighted TruePositiveRate: 0.8944856839872747
Weighted MatthewsCorrelation: 0.24457922047644576
Weighted FMeasure: 0.8906243068813449
Iteration time: 3.0
Weighted AreaUnderPRC: 0.8774713160118767
Mean absolute error: 0.05522434832634923
Coverage of cases: 89.44856839872746
Instances selection time: 3.0
Test time: 619.0
Accumulative iteration time: 32.0
Weighted Recall: 0.8944856839872747
Weighted FalsePositiveRate: 0.6659388531420035
Kappa statistic: 0.2252493642038513
Training time: 0.0
		
Iteration: 9
Labeled set size: 537
Unlabelled set size: 1349
	
Mean region size: 25.0
Incorrectly Classified Instances: 10.922587486744433
Correctly Classified Instances: 89.07741251325557
Weighted Precision: 0.8873112455730618
Weighted AreaUnderROC: 0.6173115925820771
Root mean squared error: 0.2328505065352491
Relative absolute error: 15.193385916888717
Root relative squared error: 53.77452105162672
Weighted TruePositiveRate: 0.8907741251325557
Weighted MatthewsCorrelation: 0.2397358936217605
Weighted FMeasure: 0.8889712848387261
Iteration time: 4.0
Weighted AreaUnderPRC: 0.87765612071795
Mean absolute error: 0.056975197188332695
Coverage of cases: 89.07741251325557
Instances selection time: 4.0
Test time: 641.0
Accumulative iteration time: 36.0
Weighted Recall: 0.8907741251325557
Weighted FalsePositiveRate: 0.6598497511584224
Kappa statistic: 0.22175237721320712
Training time: 0.0
		
Iteration: 10
Labeled set size: 557
Unlabelled set size: 1329
	
Mean region size: 25.0
Incorrectly Classified Instances: 11.240721102863203
Correctly Classified Instances: 88.7592788971368
Weighted Precision: 0.8881253429284799
Weighted AreaUnderROC: 0.6187473074095979
Root mean squared error: 0.2362464074055018
Relative absolute error: 15.592081793612666
Root relative squared error: 54.55877076425939
Weighted TruePositiveRate: 0.887592788971368
Weighted MatthewsCorrelation: 0.23691581112178062
Weighted FMeasure: 0.8877664825638927
Iteration time: 4.0
Weighted AreaUnderPRC: 0.8786063788489213
Mean absolute error: 0.0584703067260475
Coverage of cases: 88.7592788971368
Instances selection time: 4.0
Test time: 665.0
Accumulative iteration time: 40.0
Weighted Recall: 0.887592788971368
Weighted FalsePositiveRate: 0.6537617040789985
Kappa statistic: 0.21955675620810683
Training time: 0.0
		
Iteration: 11
Labeled set size: 577
Unlabelled set size: 1309
	
Mean region size: 25.0
Incorrectly Classified Instances: 11.134676564156946
Correctly Classified Instances: 88.86532343584305
Weighted Precision: 0.8891588844034327
Weighted AreaUnderROC: 0.6222322090830731
Root mean squared error: 0.23515728434767075
Relative absolute error: 15.431036851636355
Root relative squared error: 54.30724856801163
Weighted TruePositiveRate: 0.8886532343584306
Weighted MatthewsCorrelation: 0.24437650315380563
Weighted FMeasure: 0.8888131490778992
Iteration time: 4.0
Weighted AreaUnderPRC: 0.8791514502619631
Mean absolute error: 0.05786638819363633
Coverage of cases: 88.86532343584305
Instances selection time: 4.0
Test time: 683.0
Accumulative iteration time: 44.0
Weighted Recall: 0.8886532343584306
Weighted FalsePositiveRate: 0.6474138629051139
Kappa statistic: 0.22691942831935152
Training time: 0.0
		
Iteration: 12
Labeled set size: 597
Unlabelled set size: 1289
	
Mean region size: 25.0
Incorrectly Classified Instances: 11.081654294803817
Correctly Classified Instances: 88.91834570519619
Weighted Precision: 0.8885757963361793
Weighted AreaUnderROC: 0.6193822036027002
Root mean squared error: 0.23462262653331095
Relative absolute error: 15.341349908368398
Root relative squared error: 54.18377463479365
Weighted TruePositiveRate: 0.8891834570519618
Weighted MatthewsCorrelation: 0.24091702849474633
Weighted FMeasure: 0.8887601542722405
Iteration time: 3.0
Weighted AreaUnderPRC: 0.8783386306549323
Mean absolute error: 0.05753006215638149
Coverage of cases: 88.91834570519619
Instances selection time: 3.0
Test time: 705.0
Accumulative iteration time: 47.0
Weighted Recall: 0.8891834570519618
Weighted FalsePositiveRate: 0.6536754576822306
Kappa statistic: 0.2230513900058342
Training time: 0.0
		
Iteration: 13
Labeled set size: 617
Unlabelled set size: 1269
	
Mean region size: 25.0
Incorrectly Classified Instances: 10.869565217391305
Correctly Classified Instances: 89.1304347826087
Weighted Precision: 0.888016735317962
Weighted AreaUnderROC: 0.6175761764767641
Root mean squared error: 0.23239085835773224
Relative absolute error: 15.041993024710187
Root relative squared error: 53.66836985201797
Weighted TruePositiveRate: 0.8913043478260869
Weighted MatthewsCorrelation: 0.24136797221159198
Weighted FMeasure: 0.88953337709322
Iteration time: 3.0
Weighted AreaUnderPRC: 0.8780538038391363
Mean absolute error: 0.0564074738426632
Coverage of cases: 89.1304347826087
Instances selection time: 3.0
Test time: 726.0
Accumulative iteration time: 50.0
Weighted Recall: 0.8913043478260869
Weighted FalsePositiveRate: 0.6598508060625795
Kappa statistic: 0.22281990359372675
Training time: 0.0
		
Iteration: 14
Labeled set size: 637
Unlabelled set size: 1249
	
Mean region size: 25.0
Incorrectly Classified Instances: 10.922587486744433
Correctly Classified Instances: 89.07741251325557
Weighted Precision: 0.888148728065335
Weighted AreaUnderROC: 0.620426818189594
Root mean squared error: 0.23297942909028602
Relative absolute error: 15.095111115543387
Root relative squared error: 53.804294440368786
Weighted TruePositiveRate: 0.8907741251325557
Weighted MatthewsCorrelation: 0.2466491107532305
Weighted FMeasure: 0.8893070843219494
Iteration time: 3.0
Weighted AreaUnderPRC: 0.8780814792876582
Mean absolute error: 0.0566066666832877
Coverage of cases: 89.07741251325557
Instances selection time: 3.0
Test time: 750.0
Accumulative iteration time: 53.0
Weighted Recall: 0.8907741251325557
Weighted FalsePositiveRate: 0.6535892112854629
Kappa statistic: 0.2215231469607593
Training time: 0.0
		
Iteration: 15
Labeled set size: 657
Unlabelled set size: 1229
	
Mean region size: 25.0
Incorrectly Classified Instances: 10.922587486744433
Correctly Classified Instances: 89.07741251325557
Weighted Precision: 0.888148728065335
Weighted AreaUnderROC: 0.620426818189594
Root mean squared error: 0.23300062414793057
Relative absolute error: 15.078863817102091
Root relative squared error: 53.80918922926342
Weighted TruePositiveRate: 0.8907741251325557
Weighted MatthewsCorrelation: 0.2466491107532305
Weighted FMeasure: 0.8893070843219494
Iteration time: 3.0
Weighted AreaUnderPRC: 0.8780814792876582
Mean absolute error: 0.05654573931413284
Coverage of cases: 89.07741251325557
Instances selection time: 3.0
Test time: 769.0
Accumulative iteration time: 56.0
Weighted Recall: 0.8907741251325557
Weighted FalsePositiveRate: 0.6535892112854629
Kappa statistic: 0.2215231469607593
Training time: 0.0
		
Iteration: 16
Labeled set size: 677
Unlabelled set size: 1209
	
Mean region size: 25.0
Incorrectly Classified Instances: 10.869565217391305
Correctly Classified Instances: 89.1304347826087
Weighted Precision: 0.8900040894212086
Weighted AreaUnderROC: 0.626961295136967
Root mean squared error: 0.2324543971326757
Relative absolute error: 14.993445617337976
Root relative squared error: 53.683043503545
Weighted TruePositiveRate: 0.8913043478260869
Weighted MatthewsCorrelation: 0.25773353030315455
Weighted FMeasure: 0.8905034689878517
Iteration time: 3.0
Weighted AreaUnderPRC: 0.8791235276626873
Mean absolute error: 0.05622542106501741
Coverage of cases: 89.1304347826087
Instances selection time: 3.0
Test time: 792.0
Accumulative iteration time: 59.0
Weighted Recall: 0.8913043478260869
Weighted FalsePositiveRate: 0.6409797753344617
Kappa statistic: 0.2328785061934396
Training time: 0.0
		
Iteration: 17
Labeled set size: 697
Unlabelled set size: 1189
	
Mean region size: 25.0
Incorrectly Classified Instances: 10.816542948038176
Correctly Classified Instances: 89.18345705196182
Weighted Precision: 0.8892113656804816
Weighted AreaUnderROC: 0.6241132852826209
Root mean squared error: 0.23190556989629546
Relative absolute error: 14.908867472254144
Root relative squared error: 53.5562972824799
Weighted TruePositiveRate: 0.8918345705196182
Weighted MatthewsCorrelation: 0.25431131771597226
Weighted FMeasure: 0.8903686062665622
Iteration time: 4.0
Weighted AreaUnderPRC: 0.8786654851696153
Mean absolute error: 0.05590825302095304
Coverage of cases: 89.18345705196182
Instances selection time: 4.0
Test time: 815.0
Accumulative iteration time: 63.0
Weighted Recall: 0.8918345705196182
Weighted FalsePositiveRate: 0.6472413701115783
Kappa statistic: 0.22908117466016906
Training time: 0.0
		
Iteration: 18
Labeled set size: 717
Unlabelled set size: 1169
	
Mean region size: 25.0
Incorrectly Classified Instances: 10.286320254506894
Correctly Classified Instances: 89.71367974549311
Weighted Precision: 0.8913344946795122
Weighted AreaUnderROC: 0.6300269248242256
Root mean squared error: 0.22616811347283203
Relative absolute error: 14.192322156901866
Root relative squared error: 52.23128847825976
Weighted TruePositiveRate: 0.897136797454931
Weighted MatthewsCorrelation: 0.27284375745673145
Weighted FMeasure: 0.8940788054815946
Iteration time: 3.0
Weighted AreaUnderPRC: 0.8805623097218448
Mean absolute error: 0.053221208088381995
Coverage of cases: 89.71367974549311
Instances selection time: 3.0
Test time: 836.0
Accumulative iteration time: 66.0
Weighted Recall: 0.897136797454931
Weighted FalsePositiveRate: 0.6406784403978528
Kappa statistic: 0.24965341864566615
Training time: 0.0
		
Iteration: 19
Labeled set size: 737
Unlabelled set size: 1149
	
Mean region size: 25.0
Incorrectly Classified Instances: 10.127253446447508
Correctly Classified Instances: 89.87274655355249
Weighted Precision: 0.8931805152292681
Weighted AreaUnderROC: 0.6277054153449207
Root mean squared error: 0.22442898654577947
Relative absolute error: 13.968497205533426
Root relative squared error: 51.82965431846428
Weighted TruePositiveRate: 0.898727465535525
Weighted MatthewsCorrelation: 0.2713747588664585
Weighted FMeasure: 0.8955956468921841
Iteration time: 3.0
Weighted AreaUnderPRC: 0.8811837651461111
Mean absolute error: 0.052381864520750346
Coverage of cases: 89.87274655355249
Instances selection time: 3.0
Test time: 852.0
Accumulative iteration time: 69.0
Weighted Recall: 0.898727465535525
Weighted FalsePositiveRate: 0.6469421449832837
Kappa statistic: 0.2534098798951285
Training time: 0.0
		
Iteration: 20
Labeled set size: 757
Unlabelled set size: 1129
	
Mean region size: 25.0
Incorrectly Classified Instances: 9.862142099681867
Correctly Classified Instances: 90.13785790031814
Weighted Precision: 0.893710187189799
Weighted AreaUnderROC: 0.6291028440760553
Root mean squared error: 0.22148743099657156
Relative absolute error: 13.604639600910547
Root relative squared error: 51.15033116319571
Weighted TruePositiveRate: 0.9013785790031813
Weighted MatthewsCorrelation: 0.27937834669416395
Weighted FMeasure: 0.8971481947131816
Iteration time: 3.0
Weighted AreaUnderPRC: 0.8814222514607891
Mean absolute error: 0.05101739850341455
Coverage of cases: 90.13785790031814
Instances selection time: 3.0
Test time: 876.0
Accumulative iteration time: 72.0
Weighted Recall: 0.9013785790031813
Weighted FalsePositiveRate: 0.6467984009886707
Kappa statistic: 0.26036096820443616
Training time: 0.0
		
Iteration: 21
Labeled set size: 777
Unlabelled set size: 1109
	
Mean region size: 25.0
Incorrectly Classified Instances: 9.862142099681867
Correctly Classified Instances: 90.13785790031814
Weighted Precision: 0.8927856963655743
Weighted AreaUnderROC: 0.6259753484754823
Root mean squared error: 0.22150182511228372
Relative absolute error: 13.592984801633198
Root relative squared error: 51.15365534182817
Weighted TruePositiveRate: 0.9013785790031813
Weighted MatthewsCorrelation: 0.27454159824983265
Weighted FMeasure: 0.8966700920896217
Iteration time: 3.0
Weighted AreaUnderPRC: 0.880903648638887
Mean absolute error: 0.05097369300612449
Coverage of cases: 90.13785790031814
Instances selection time: 3.0
Test time: 899.0
Accumulative iteration time: 75.0
Weighted Recall: 0.9013785790031813
Weighted FalsePositiveRate: 0.6530887445647101
Kappa statistic: 0.25520070319367105
Training time: 0.0
		
Iteration: 22
Labeled set size: 797
Unlabelled set size: 1089
	
Mean region size: 25.0
Incorrectly Classified Instances: 9.809119830328738
Correctly Classified Instances: 90.19088016967126
Weighted Precision: 0.8928935135553937
Weighted AreaUnderROC: 0.6262548342217094
Root mean squared error: 0.22091929605135188
Relative absolute error: 13.5115687000508
Root relative squared error: 51.01912601777226
Weighted TruePositiveRate: 0.9019088016967126
Weighted MatthewsCorrelation: 0.27619976440927047
Weighted FMeasure: 0.8969786372930013
Iteration time: 3.0
Weighted AreaUnderPRC: 0.8809507216816893
Mean absolute error: 0.050668382625190495
Coverage of cases: 90.19088016967126
Instances selection time: 3.0
Test time: 925.0
Accumulative iteration time: 78.0
Weighted Recall: 0.9019088016967126
Weighted FalsePositiveRate: 0.6530599957657874
Kappa statistic: 0.25661178947099317
Training time: 0.0
		
Iteration: 23
Labeled set size: 817
Unlabelled set size: 1069
	
Mean region size: 25.0
Incorrectly Classified Instances: 9.75609756097561
Correctly Classified Instances: 90.2439024390244
Weighted Precision: 0.8930175793822113
Weighted AreaUnderROC: 0.6233980397344268
Root mean squared error: 0.22033442290609903
Relative absolute error: 13.430674879326373
Root relative squared error: 50.884055350630845
Weighted TruePositiveRate: 0.9024390243902439
Weighted MatthewsCorrelation: 0.27209641558932696
Weighted FMeasure: 0.8972203159799426
Iteration time: 3.0
Weighted AreaUnderPRC: 0.8807934984178997
Mean absolute error: 0.0503650307974739
Coverage of cases: 90.2439024390244
Instances selection time: 3.0
Test time: 963.0
Accumulative iteration time: 81.0
Weighted Recall: 0.9024390243902439
Weighted FalsePositiveRate: 0.6593364923944438
Kappa statistic: 0.25533887248506504
Training time: 0.0
		
Iteration: 24
Labeled set size: 837
Unlabelled set size: 1049
	
Mean region size: 25.0
Incorrectly Classified Instances: 9.75609756097561
Correctly Classified Instances: 90.2439024390244
Weighted Precision: 0.8947268071879098
Weighted AreaUnderROC: 0.6265180488533806
Root mean squared error: 0.22034677549495188
Relative absolute error: 13.42062618790298
Root relative squared error: 50.886908058830606
Weighted TruePositiveRate: 0.9024390243902439
Weighted MatthewsCorrelation: 0.27729752927290136
Weighted FMeasure: 0.8979521356607426
Iteration time: 3.0
Weighted AreaUnderPRC: 0.8812133772803618
Mean absolute error: 0.05032734820463618
Coverage of cases: 90.2439024390244
Instances selection time: 3.0
Test time: 965.0
Accumulative iteration time: 84.0
Weighted Recall: 0.9024390243902439
Weighted FalsePositiveRate: 0.6530610506699446
Kappa statistic: 0.26039846207619705
Training time: 0.0
		
Iteration: 25
Labeled set size: 857
Unlabelled set size: 1029
	
Mean region size: 25.0
Incorrectly Classified Instances: 9.915164369034995
Correctly Classified Instances: 90.084835630965
Weighted Precision: 0.8952626645477065
Weighted AreaUnderROC: 0.6288070872152727
Root mean squared error: 0.22214755436405906
Relative absolute error: 13.622148099839201
Root relative squared error: 51.30278012476261
Weighted TruePositiveRate: 0.9008483563096501
Weighted MatthewsCorrelation: 0.27719056273171694
Weighted FMeasure: 0.8974655475002943
Iteration time: 3.0
Weighted AreaUnderPRC: 0.8815953663349909
Mean absolute error: 0.051083055374397
Coverage of cases: 90.084835630965
Instances selection time: 3.0
Test time: 985.0
Accumulative iteration time: 87.0
Weighted Recall: 0.9008483563096501
Weighted FalsePositiveRate: 0.6468569534906731
Kappa statistic: 0.2612736401358138
Training time: 0.0
		
Iteration: 26
Labeled set size: 877
Unlabelled set size: 1009
	
Mean region size: 25.0
Incorrectly Classified Instances: 9.809119830328738
Correctly Classified Instances: 90.19088016967126
Weighted Precision: 0.8954957807724819
Weighted AreaUnderROC: 0.6295673237972582
Root mean squared error: 0.2209677954605454
Relative absolute error: 13.472152816394937
Root relative squared error: 51.030326476553626
Weighted TruePositiveRate: 0.9019088016967126
Weighted MatthewsCorrelation: 0.28045266128676954
Weighted FMeasure: 0.8980970188719979
Iteration time: 3.0
Weighted AreaUnderPRC: 0.8817287743800077
Mean absolute error: 0.050520573061481014
Coverage of cases: 90.19088016967126
Instances selection time: 3.0
Test time: 1042.0
Accumulative iteration time: 90.0
Weighted Recall: 0.9019088016967126
Weighted FalsePositiveRate: 0.6467994558928278
Kappa statistic: 0.2641094376472427
Training time: 0.0
		
Iteration: 27
Labeled set size: 897
Unlabelled set size: 989
	
Mean region size: 25.0
Incorrectly Classified Instances: 9.490986214209968
Correctly Classified Instances: 90.50901378579003
Weighted Precision: 0.8962454817601488
Weighted AreaUnderROC: 0.6312442382746198
Root mean squared error: 0.2173658996840968
Relative absolute error: 13.041126862668106
Root relative squared error: 50.1985042781034
Weighted TruePositiveRate: 0.9050901378579003
Weighted MatthewsCorrelation: 0.2906916931779094
Weighted FMeasure: 0.8999981881543612
Iteration time: 3.0
Weighted AreaUnderPRC: 0.882039730117433
Mean absolute error: 0.04890422573500539
Coverage of cases: 90.50901378579003
Instances selection time: 3.0
Test time: 1026.0
Accumulative iteration time: 93.0
Weighted Recall: 0.9050901378579003
Weighted FalsePositiveRate: 0.6466269630992922
Kappa statistic: 0.27285768133110705
Training time: 0.0
		
Iteration: 28
Labeled set size: 917
Unlabelled set size: 969
	
Mean region size: 25.0
Incorrectly Classified Instances: 9.650053022269352
Correctly Classified Instances: 90.34994697773065
Weighted Precision: 0.8958355196915896
Weighted AreaUnderROC: 0.6368692134662947
Root mean squared error: 0.21918993961110633
Relative absolute error: 13.243787285077724
Root relative squared error: 50.61974825525203
Weighted TruePositiveRate: 0.9034994697773064
Weighted MatthewsCorrelation: 0.29418615825011657
Weighted FMeasure: 0.8993621297102875
Iteration time: 3.0
Weighted AreaUnderPRC: 0.883530026669783
Mean absolute error: 0.04966420231904147
Coverage of cases: 90.34994697773065
Instances selection time: 3.0
Test time: 1045.0
Accumulative iteration time: 96.0
Weighted Recall: 0.9034994697773064
Weighted FalsePositiveRate: 0.6341027186409017
Kappa statistic: 0.2789141655515193
Training time: 0.0
		
Iteration: 29
Labeled set size: 937
Unlabelled set size: 949
	
Mean region size: 25.0
Incorrectly Classified Instances: 9.75609756097561
Correctly Classified Instances: 90.2439024390244
Weighted Precision: 0.8956012594094628
Weighted AreaUnderROC: 0.6359155441741876
Root mean squared error: 0.22040078829924328
Relative absolute error: 13.37686519128559
Root relative squared error: 50.89938178166954
Weighted TruePositiveRate: 0.9024390243902439
Weighted MatthewsCorrelation: 0.2908445731108818
Weighted FMeasure: 0.8987337311986301
Iteration time: 3.0
Weighted AreaUnderPRC: 0.8833671344924957
Mean absolute error: 0.05016324446732097
Coverage of cases: 90.2439024390244
Instances selection time: 3.0
Test time: 1063.0
Accumulative iteration time: 99.0
Weighted Recall: 0.9024390243902439
Weighted FalsePositiveRate: 0.6341602162387469
Kappa statistic: 0.2759880410676248
Training time: 0.0
		
Iteration: 30
Labeled set size: 957
Unlabelled set size: 929
	
Mean region size: 25.0
Incorrectly Classified Instances: 10.180275715800637
Correctly Classified Instances: 89.81972428419937
Weighted Precision: 0.8947381193238886
Weighted AreaUnderROC: 0.6336796582043721
Root mean squared error: 0.22515049807875864
Relative absolute error: 13.93240793996488
Root relative squared error: 51.996280269579856
Weighted TruePositiveRate: 0.8981972428419936
Weighted MatthewsCorrelation: 0.27817021284855203
Weighted FMeasure: 0.8962296724129494
Iteration time: 2.0
Weighted AreaUnderPRC: 0.8829764411376262
Mean absolute error: 0.0522465297748683
Coverage of cases: 89.81972428419937
Instances selection time: 2.0
Test time: 1087.0
Accumulative iteration time: 101.0
Weighted Recall: 0.8981972428419936
Weighted FalsePositiveRate: 0.6343902066301278
Kappa statistic: 0.26467404878861045
Training time: 0.0
		
Iteration: 31
Labeled set size: 977
Unlabelled set size: 909
	
Mean region size: 25.0
Incorrectly Classified Instances: 10.286320254506894
Correctly Classified Instances: 89.71367974549311
Weighted Precision: 0.8941891122836594
Weighted AreaUnderROC: 0.6331232830145525
Root mean squared error: 0.22632939782853287
Relative absolute error: 14.065911004060018
Root relative squared error: 52.268535504731744
Weighted TruePositiveRate: 0.897136797454931
Weighted MatthewsCorrelation: 0.2772765570415326
Weighted FMeasure: 0.8953305537007332
Iteration time: 2.0
Weighted AreaUnderPRC: 0.8820196269311384
Mean absolute error: 0.05274716626522507
Coverage of cases: 89.71367974549311
Instances selection time: 2.0
Test time: 1103.0
Accumulative iteration time: 103.0
Weighted Recall: 0.897136797454931
Weighted FalsePositiveRate: 0.6344477042279729
Kappa statistic: 0.25686651650340286
Training time: 0.0
		
Iteration: 32
Labeled set size: 997
Unlabelled set size: 889
	
Mean region size: 25.0
Incorrectly Classified Instances: 10.286320254506894
Correctly Classified Instances: 89.71367974549311
Weighted Precision: 0.8941891122836594
Weighted AreaUnderROC: 0.6331232830145525
Root mean squared error: 0.22633838268162249
Relative absolute error: 14.058901628251258
Root relative squared error: 52.27061046767171
Weighted TruePositiveRate: 0.897136797454931
Weighted MatthewsCorrelation: 0.2772765570415326
Weighted FMeasure: 0.8953305537007332
Iteration time: 2.0
Weighted AreaUnderPRC: 0.8820196269311384
Mean absolute error: 0.05272088110594222
Coverage of cases: 89.71367974549311
Instances selection time: 2.0
Test time: 1160.0
Accumulative iteration time: 105.0
Weighted Recall: 0.897136797454931
Weighted FalsePositiveRate: 0.6344477042279729
Kappa statistic: 0.25686651650340286
Training time: 0.0
		
Iteration: 33
Labeled set size: 1017
Unlabelled set size: 869
	
Mean region size: 25.0
Incorrectly Classified Instances: 10.33934252386002
Correctly Classified Instances: 89.66065747613997
Weighted Precision: 0.8934714690571327
Weighted AreaUnderROC: 0.629716266111903
Root mean squared error: 0.22692960656806319
Relative absolute error: 14.12258625223478
Root relative squared error: 52.40714777566686
Weighted TruePositiveRate: 0.8966065747613998
Weighted MatthewsCorrelation: 0.27111879350974644
Weighted FMeasure: 0.8946498756284179
Iteration time: 2.0
Weighted AreaUnderPRC: 0.8810851929590839
Mean absolute error: 0.05295969844588042
Coverage of cases: 89.66065747613997
Instances selection time: 2.0
Test time: 1191.0
Accumulative iteration time: 107.0
Weighted Recall: 0.8966065747613998
Weighted FalsePositiveRate: 0.6407667966029348
Kappa statistic: 0.2504600936287992
Training time: 0.0
		
Iteration: 34
Labeled set size: 1037
Unlabelled set size: 849
	
Mean region size: 25.0
Incorrectly Classified Instances: 10.286320254506894
Correctly Classified Instances: 89.71367974549311
Weighted Precision: 0.8944349964133899
Weighted AreaUnderROC: 0.6333208808859503
Root mean squared error: 0.22635532771113387
Relative absolute error: 14.045555228597982
Root relative squared error: 52.274523754611636
Weighted TruePositiveRate: 0.897136797454931
Weighted MatthewsCorrelation: 0.2773805770893626
Weighted FMeasure: 0.8953994641387517
Iteration time: 2.0
Weighted AreaUnderPRC: 0.8816878002601761
Mean absolute error: 0.05267083210724243
Coverage of cases: 89.71367974549311
Instances selection time: 2.0
Test time: 1164.0
Accumulative iteration time: 109.0
Weighted Recall: 0.897136797454931
Weighted FalsePositiveRate: 0.6344477042279729
Kappa statistic: 0.2567925509441317
Training time: 0.0
		
Iteration: 35
Labeled set size: 1057
Unlabelled set size: 829
	
Mean region size: 25.0
Incorrectly Classified Instances: 10.233297985153765
Correctly Classified Instances: 89.76670201484623
Weighted Precision: 0.8936997847825635
Weighted AreaUnderROC: 0.6273463396789826
Root mean squared error: 0.22577919477407515
Relative absolute error: 13.968896114149677
Root relative squared error: 52.1414715520917
Weighted TruePositiveRate: 0.8976670201484623
Weighted MatthewsCorrelation: 0.2674573048035903
Weighted FMeasure: 0.8952869986912921
Iteration time: 2.0
Weighted AreaUnderPRC: 0.880820720406102
Mean absolute error: 0.05238336042806129
Coverage of cases: 89.76670201484623
Instances selection time: 2.0
Test time: 1184.0
Accumulative iteration time: 111.0
Weighted Recall: 0.8976670201484623
Weighted FalsePositiveRate: 0.646999642581129
Kappa statistic: 0.25314593485509096
Training time: 0.0
		
Iteration: 36
Labeled set size: 1077
Unlabelled set size: 809
	
Mean region size: 25.0
Incorrectly Classified Instances: 10.07423117709438
Correctly Classified Instances: 89.92576882290562
Weighted Precision: 0.8940306209806572
Weighted AreaUnderROC: 0.6279835318281318
Root mean squared error: 0.22402528056832055
Relative absolute error: 13.751686030233827
Root relative squared error: 51.73642241656052
Weighted TruePositiveRate: 0.8992576882290562
Weighted MatthewsCorrelation: 0.2720745605815993
Weighted FMeasure: 0.8962325081380073
Iteration time: 2.0
Weighted AreaUnderPRC: 0.8809379938124008
Mean absolute error: 0.051568822613376857
Coverage of cases: 89.92576882290562
Instances selection time: 2.0
Test time: 1203.0
Accumulative iteration time: 113.0
Weighted Recall: 0.8992576882290562
Weighted FalsePositiveRate: 0.6469133961843612
Kappa statistic: 0.2572432976954932
Training time: 0.0
		
Iteration: 37
Labeled set size: 1097
Unlabelled set size: 789
	
Mean region size: 25.0
Incorrectly Classified Instances: 10.233297985153765
Correctly Classified Instances: 89.76670201484623
Weighted Precision: 0.8936997847825635
Weighted AreaUnderROC: 0.627145074589451
Root mean squared error: 0.22579429704737525
Relative absolute error: 13.95720295178971
Root relative squared error: 52.14495927271377
Weighted TruePositiveRate: 0.8976670201484623
Weighted MatthewsCorrelation: 0.2674573048035903
Weighted FMeasure: 0.8952869986912921
Iteration time: 2.0
Weighted AreaUnderPRC: 0.880788556107127
Mean absolute error: 0.05233951106921142
Coverage of cases: 89.76670201484623
Instances selection time: 2.0
Test time: 1226.0
Accumulative iteration time: 115.0
Weighted Recall: 0.8976670201484623
Weighted FalsePositiveRate: 0.646999642581129
Kappa statistic: 0.25314593485509096
Training time: 0.0
		
Iteration: 38
Labeled set size: 1117
Unlabelled set size: 769
	
Mean region size: 25.0
Incorrectly Classified Instances: 10.127253446447508
Correctly Classified Instances: 89.87274655355249
Weighted Precision: 0.8939186211455563
Weighted AreaUnderROC: 0.6277040460819049
Root mean squared error: 0.22462850036103615
Relative absolute error: 13.810733897943003
Root relative squared error: 51.87573006044247
Weighted TruePositiveRate: 0.898727465535525
Weighted MatthewsCorrelation: 0.2705193144682832
Weighted FMeasure: 0.895917096525617
Iteration time: 2.0
Weighted AreaUnderPRC: 0.880887943747896
Mean absolute error: 0.05179025211728626
Coverage of cases: 89.87274655355249
Instances selection time: 2.0
Test time: 1245.0
Accumulative iteration time: 117.0
Weighted Recall: 0.898727465535525
Weighted FalsePositiveRate: 0.6469421449832837
Kappa statistic: 0.2558682391047929
Training time: 0.0
		
Iteration: 39
Labeled set size: 1137
Unlabelled set size: 749
	
Mean region size: 25.0
Incorrectly Classified Instances: 10.180275715800637
Correctly Classified Instances: 89.81972428419937
Weighted Precision: 0.8938083615155865
Weighted AreaUnderROC: 0.627424560335678
Root mean squared error: 0.2252226222237629
Relative absolute error: 13.875788363381885
Root relative squared error: 52.01293662739317
Weighted TruePositiveRate: 0.8981972428419936
Weighted MatthewsCorrelation: 0.2689803351362864
Weighted FMeasure: 0.8956019288738213
Iteration time: 2.0
Weighted AreaUnderPRC: 0.8808381337357464
Mean absolute error: 0.052034206362682064
Coverage of cases: 89.81972428419937
Instances selection time: 2.0
Test time: 1268.0
Accumulative iteration time: 119.0
Weighted Recall: 0.8981972428419936
Weighted FalsePositiveRate: 0.6469708937822063
Kappa statistic: 0.2545024828506258
Training time: 0.0
		
Iteration: 40
Labeled set size: 1157
Unlabelled set size: 729
	
Mean region size: 25.0
Incorrectly Classified Instances: 10.127253446447508
Correctly Classified Instances: 89.87274655355249
Weighted Precision: 0.8939186211455563
Weighted AreaUnderROC: 0.628106576260968
Root mean squared error: 0.22464199349357739
Relative absolute error: 13.799918806600388
Root relative squared error: 51.87884616592443
Weighted TruePositiveRate: 0.898727465535525
Weighted MatthewsCorrelation: 0.2705193144682832
Weighted FMeasure: 0.895917096525617
Iteration time: 1.0
Weighted AreaUnderPRC: 0.8809522039220711
Mean absolute error: 0.051749695524751456
Coverage of cases: 89.87274655355249
Instances selection time: 1.0
Test time: 1309.0
Accumulative iteration time: 120.0
Weighted Recall: 0.898727465535525
Weighted FalsePositiveRate: 0.6469421449832837
Kappa statistic: 0.2558682391047929
Training time: 0.0
		
Iteration: 41
Labeled set size: 1177
Unlabelled set size: 709
	
Mean region size: 25.0
Incorrectly Classified Instances: 9.862142099681867
Correctly Classified Instances: 90.13785790031814
Weighted Precision: 0.8944972617278679
Weighted AreaUnderROC: 0.6295040049921027
Root mean squared error: 0.22168860619343425
Relative absolute error: 13.44260602855462
Root relative squared error: 51.19679058482089
Weighted TruePositiveRate: 0.9013785790031813
Weighted MatthewsCorrelation: 0.2784648929049214
Weighted FMeasure: 0.8974967288766642
Iteration time: 1.0
Weighted AreaUnderPRC: 0.8812048465342515
Mean absolute error: 0.05040977260707982
Coverage of cases: 90.13785790031814
Instances selection time: 1.0
Test time: 1317.0
Accumulative iteration time: 121.0
Weighted Recall: 0.9013785790031813
Weighted FalsePositiveRate: 0.6467984009886707
Kappa statistic: 0.26283848245543945
Training time: 0.0
		
Iteration: 42
Labeled set size: 1197
Unlabelled set size: 689
	
Mean region size: 25.0
Incorrectly Classified Instances: 9.915164369034995
Correctly Classified Instances: 90.084835630965
Weighted Precision: 0.8943776742788387
Weighted AreaUnderROC: 0.6300295796040021
Root mean squared error: 0.22228984167943802
Relative absolute error: 13.50783365111132
Root relative squared error: 51.33563997269714
Weighted TruePositiveRate: 0.9008483563096501
Weighted MatthewsCorrelation: 0.27684121541502477
Weighted FMeasure: 0.8971802737220961
Iteration time: 2.0
Weighted AreaUnderPRC: 0.8812820467178885
Mean absolute error: 0.05065437619166745
Coverage of cases: 90.084835630965
Instances selection time: 2.0
Test time: 1332.0
Accumulative iteration time: 123.0
Weighted Recall: 0.9008483563096501
Weighted FalsePositiveRate: 0.6468271497875933
Kappa statistic: 0.26142524768751746
Training time: 0.0
		
Iteration: 43
Labeled set size: 1217
Unlabelled set size: 669
	
Mean region size: 25.0
Incorrectly Classified Instances: 9.862142099681867
Correctly Classified Instances: 90.13785790031814
Weighted Precision: 0.8944972617278679
Weighted AreaUnderROC: 0.6303090653502289
Root mean squared error: 0.22170062765021736
Relative absolute error: 13.432657728513265
Root relative squared error: 51.199566821344796
Weighted TruePositiveRate: 0.9013785790031813
Weighted MatthewsCorrelation: 0.2784648929049214
Weighted FMeasure: 0.8974967288766642
Iteration time: 1.0
Weighted AreaUnderPRC: 0.8813330366553555
Mean absolute error: 0.05037246648192474
Coverage of cases: 90.13785790031814
Instances selection time: 1.0
Test time: 1364.0
Accumulative iteration time: 124.0
Weighted Recall: 0.9013785790031813
Weighted FalsePositiveRate: 0.6467984009886707
Kappa statistic: 0.26283848245543945
Training time: 0.0
		
Iteration: 44
Labeled set size: 1237
Unlabelled set size: 649
	
Mean region size: 25.0
Incorrectly Classified Instances: 9.703075291622481
Correctly Classified Instances: 90.29692470837752
Weighted Precision: 0.8948687388197284
Weighted AreaUnderROC: 0.6319525829470363
Root mean squared error: 0.2199111960964896
Relative absolute error: 13.216347960598958
Root relative squared error: 50.78631530564834
Weighted TruePositiveRate: 0.9029692470837752
Weighted MatthewsCorrelation: 0.2834454389735702
Weighted FMeasure: 0.898447795218709
Iteration time: 2.0
Weighted AreaUnderPRC: 0.881615758033706
Mean absolute error: 0.04956130485224609
Coverage of cases: 90.29692470837752
Instances selection time: 2.0
Test time: 1378.0
Accumulative iteration time: 126.0
Weighted Recall: 0.9029692470837752
Weighted FalsePositiveRate: 0.6467121545919029
Kappa statistic: 0.26713735149539786
Training time: 0.0
		
Iteration: 45
Labeled set size: 1257
Unlabelled set size: 629
	
Mean region size: 25.0
Incorrectly Classified Instances: 9.650053022269352
Correctly Classified Instances: 90.34994697773065
Weighted Precision: 0.8949970655579611
Weighted AreaUnderROC: 0.6322320686932631
Root mean squared error: 0.2193150315880285
Relative absolute error: 13.141438082377318
Root relative squared error: 50.64863700987182
Weighted TruePositiveRate: 0.9034994697773064
Weighted MatthewsCorrelation: 0.28514342242121526
Weighted FMeasure: 0.8987654093930575
Iteration time: 1.0
Weighted AreaUnderPRC: 0.8816678775341339
Mean absolute error: 0.04928039280891494
Coverage of cases: 90.34994697773065
Instances selection time: 1.0
Test time: 1399.0
Accumulative iteration time: 127.0
Weighted Recall: 0.9034994697773064
Weighted FalsePositiveRate: 0.6466834057929802
Kappa statistic: 0.26859037464148877
Training time: 0.0
		
Iteration: 46
Labeled set size: 1277
Unlabelled set size: 609
	
Mean region size: 25.0
Incorrectly Classified Instances: 9.597030752916226
Correctly Classified Instances: 90.40296924708377
Weighted Precision: 0.8951277839385874
Weighted AreaUnderROC: 0.6329140846185534
Root mean squared error: 0.21871700704941038
Relative absolute error: 13.066397850246325
Root relative squared error: 50.510529158530545
Weighted TruePositiveRate: 0.9040296924708378
Weighted MatthewsCorrelation: 0.2868609847861429
Weighted FMeasure: 0.899083332563102
Iteration time: 1.0
Weighted AreaUnderPRC: 0.8817842675590356
Mean absolute error: 0.04899899193842372
Coverage of cases: 90.40296924708377
Instances selection time: 1.0
Test time: 1424.0
Accumulative iteration time: 128.0
Weighted Recall: 0.9040296924708378
Weighted FalsePositiveRate: 0.6466546569940578
Kappa statistic: 0.2700536074361872
Training time: 0.0
		
Time end:Tue Oct 31 12.53.55 EET 2017