Tue Oct 31 13.11.56 EET 2017
Dataset: hypothyroid
Test set size: 1886
Initial Labelled set size: 377
Initial Unlabelled set size: 1509
Batch mode: QBestBatchMode
Batch size: 20
Classifiers: IBk-1cores
Scenario: PoolBasedSamplingScenario
Query strategy: VoteEntropyQueryStrategy-1cores
Time begining: Tue Oct 31 13.11.56 EET 2017
		
Iteration: 1
Labeled set size: 377
Unlabelled set size: 1509
	
Mean region size: 25.0
Incorrectly Classified Instances: 11.346765641569458
Correctly Classified Instances: 88.65323435843054
Weighted Precision: 0.8836738078678535
Weighted AreaUnderROC: 0.5606784718116671
Root mean squared error: 0.23697856359821096
Relative absolute error: 16.019224167151666
Root relative squared error: 54.72785499423918
Weighted TruePositiveRate: 0.8865323435843054
Weighted MatthewsCorrelation: 0.13646277782184466
Weighted FMeasure: 0.8813640973176148
Iteration time: 311.0
Weighted AreaUnderPRC: 0.8667497844881473
Mean absolute error: 0.060072090626818744
Coverage of cases: 88.65323435843054
Instances selection time: 311.0
Test time: 405.0
Accumulative iteration time: 311.0
Weighted Recall: 0.8865323435843054
Weighted FalsePositiveRate: 0.76660107996212
Kappa statistic: 0.12852978645304772
Training time: 0.0
		
Iteration: 2
Labeled set size: 397
Unlabelled set size: 1489
	
Mean region size: 25.0
Incorrectly Classified Instances: 11.240721102863203
Correctly Classified Instances: 88.7592788971368
Weighted Precision: 0.8830374631865229
Weighted AreaUnderROC: 0.5583141726970069
Root mean squared error: 0.23592710329400246
Relative absolute error: 15.834579347881231
Root relative squared error: 54.48503063836839
Weighted TruePositiveRate: 0.887592788971368
Weighted MatthewsCorrelation: 0.13276954338502586
Weighted FMeasure: 0.8815636277913104
Iteration time: 325.0
Weighted AreaUnderPRC: 0.8663710069834116
Mean absolute error: 0.05937967255455462
Coverage of cases: 88.7592788971368
Instances selection time: 324.0
Test time: 424.0
Accumulative iteration time: 636.0
Weighted Recall: 0.887592788971368
Weighted FalsePositiveRate: 0.7728811625959588
Kappa statistic: 0.12423941089115426
Training time: 1.0
		
Iteration: 3
Labeled set size: 417
Unlabelled set size: 1469
	
Mean region size: 25.0
Incorrectly Classified Instances: 11.134676564156946
Correctly Classified Instances: 88.86532343584305
Weighted Precision: 0.8823811615505298
Weighted AreaUnderROC: 0.5557122602488219
Root mean squared error: 0.23486446907079447
Relative absolute error: 15.654294575375905
Root relative squared error: 54.23962577644069
Weighted TruePositiveRate: 0.8886532343584306
Weighted MatthewsCorrelation: 0.12899452121843083
Weighted FMeasure: 0.8817456404365744
Iteration time: 332.0
Weighted AreaUnderPRC: 0.8659579683962071
Mean absolute error: 0.05870360465765964
Coverage of cases: 88.86532343584305
Instances selection time: 331.0
Test time: 444.0
Accumulative iteration time: 968.0
Weighted Recall: 0.8886532343584306
Weighted FalsePositiveRate: 0.7791612452297977
Kappa statistic: 0.11982363582219607
Training time: 1.0
		
Iteration: 4
Labeled set size: 437
Unlabelled set size: 1449
	
Mean region size: 25.0
Incorrectly Classified Instances: 11.081654294803817
Correctly Classified Instances: 88.91834570519619
Weighted Precision: 0.881604866343674
Weighted AreaUnderROC: 0.5528308620544099
Root mean squared error: 0.23435251935325693
Relative absolute error: 15.547592570125426
Root relative squared error: 54.12139605354795
Weighted TruePositiveRate: 0.8891834570519618
Weighted MatthewsCorrelation: 0.12395017536058692
Weighted FMeasure: 0.8816029630788479
Iteration time: 342.0
Weighted AreaUnderPRC: 0.8655039713806948
Mean absolute error: 0.058303472137970346
Coverage of cases: 88.91834570519619
Instances selection time: 341.0
Test time: 475.0
Accumulative iteration time: 1310.0
Weighted Recall: 0.8891834570519618
Weighted FalsePositiveRate: 0.7854700766625591
Kappa statistic: 0.11430728508963107
Training time: 1.0
		
Iteration: 5
Labeled set size: 457
Unlabelled set size: 1429
	
Mean region size: 25.0
Incorrectly Classified Instances: 10.922587486744433
Correctly Classified Instances: 89.07741251325557
Weighted Precision: 0.8819003936961489
Weighted AreaUnderROC: 0.5536693192930907
Root mean squared error: 0.2327083288796781
Relative absolute error: 15.303848833056213
Root relative squared error: 53.74168652854005
Weighted TruePositiveRate: 0.8907741251325557
Weighted MatthewsCorrelation: 0.12753585799953485
Weighted FMeasure: 0.8825218567932293
Iteration time: 352.0
Weighted AreaUnderPRC: 0.8656378807623349
Mean absolute error: 0.0573894331239608
Coverage of cases: 89.07741251325557
Instances selection time: 351.0
Test time: 487.0
Accumulative iteration time: 1662.0
Weighted Recall: 0.8907741251325557
Weighted FalsePositiveRate: 0.7853838302657913
Kappa statistic: 0.11723780656829824
Training time: 1.0
		
Iteration: 6
Labeled set size: 477
Unlabelled set size: 1409
	
Mean region size: 25.0
Incorrectly Classified Instances: 10.975609756097562
Correctly Classified Instances: 89.02439024390245
Weighted Precision: 0.8809003647883191
Weighted AreaUnderROC: 0.5502289496062249
Root mean squared error: 0.23331229854239569
Relative absolute error: 15.34317130524313
Root relative squared error: 53.881167347481
Weighted TruePositiveRate: 0.8902439024390244
Weighted MatthewsCorrelation: 0.11997541043527456
Weighted FMeasure: 0.8817489981299841
Iteration time: 360.0
Weighted AreaUnderPRC: 0.8650991944133747
Mean absolute error: 0.05753689239466173
Coverage of cases: 89.02439024390245
Instances selection time: 360.0
Test time: 503.0
Accumulative iteration time: 2022.0
Weighted Recall: 0.8902439024390244
Weighted FalsePositiveRate: 0.791750159296398
Kappa statistic: 0.10962665632768502
Training time: 0.0
		
Iteration: 7
Labeled set size: 497
Unlabelled set size: 1389
	
Mean region size: 25.0
Incorrectly Classified Instances: 10.975609756097562
Correctly Classified Instances: 89.02439024390245
Weighted Precision: 0.8809003647883191
Weighted AreaUnderROC: 0.5502289496062249
Root mean squared error: 0.23334916727740201
Relative absolute error: 15.314866773783434
Root relative squared error: 53.88968181711323
Weighted TruePositiveRate: 0.8902439024390244
Weighted MatthewsCorrelation: 0.11997541043527456
Weighted FMeasure: 0.8817489981299841
Iteration time: 370.0
Weighted AreaUnderPRC: 0.8650991944133747
Mean absolute error: 0.05743075040168787
Coverage of cases: 89.02439024390245
Instances selection time: 369.0
Test time: 522.0
Accumulative iteration time: 2392.0
Weighted Recall: 0.8902439024390244
Weighted FalsePositiveRate: 0.791750159296398
Kappa statistic: 0.10962665632768502
Training time: 1.0
		
Iteration: 8
Labeled set size: 517
Unlabelled set size: 1369
	
Mean region size: 25.0
Incorrectly Classified Instances: 10.975609756097562
Correctly Classified Instances: 89.02439024390245
Weighted Precision: 0.8809003647883191
Weighted AreaUnderROC: 0.5502289496062249
Root mean squared error: 0.23338327871014816
Relative absolute error: 15.2887353454504
Root relative squared error: 53.8975595150646
Weighted TruePositiveRate: 0.8902439024390244
Weighted MatthewsCorrelation: 0.11997541043527456
Weighted FMeasure: 0.8817489981299841
Iteration time: 376.0
Weighted AreaUnderPRC: 0.8650991944133747
Mean absolute error: 0.057332757545439
Coverage of cases: 89.02439024390245
Instances selection time: 375.0
Test time: 541.0
Accumulative iteration time: 2768.0
Weighted Recall: 0.8902439024390244
Weighted FalsePositiveRate: 0.791750159296398
Kappa statistic: 0.10962665632768502
Training time: 1.0
		
Iteration: 9
Labeled set size: 537
Unlabelled set size: 1349
	
Mean region size: 25.0
Incorrectly Classified Instances: 10.922587486744433
Correctly Classified Instances: 89.07741251325557
Weighted Precision: 0.8809966902936673
Weighted AreaUnderROC: 0.550508435352452
Root mean squared error: 0.23285055018999062
Relative absolute error: 15.19436235914813
Root relative squared error: 53.774531133257426
Weighted TruePositiveRate: 0.8907741251325557
Weighted MatthewsCorrelation: 0.12117249867471114
Weighted FMeasure: 0.8820529091042859
Iteration time: 386.0
Weighted AreaUnderPRC: 0.8651429320303161
Mean absolute error: 0.05697885884680549
Coverage of cases: 89.07741251325557
Instances selection time: 385.0
Test time: 561.0
Accumulative iteration time: 3154.0
Weighted Recall: 0.8907741251325557
Weighted FalsePositiveRate: 0.7917214104974754
Kappa statistic: 0.11059323391922712
Training time: 1.0
		
Iteration: 10
Labeled set size: 557
Unlabelled set size: 1329
	
Mean region size: 25.0
Incorrectly Classified Instances: 10.869565217391305
Correctly Classified Instances: 89.1304347826087
Weighted Precision: 0.8810943817359537
Weighted AreaUnderROC: 0.5515244796248626
Root mean squared error: 0.2323140656239565
Relative absolute error: 15.10111249946705
Root relative squared error: 53.650635329811074
Weighted TruePositiveRate: 0.8913043478260869
Weighted MatthewsCorrelation: 0.12238437301465169
Weighted FMeasure: 0.8823569604849187
Iteration time: 392.0
Weighted AreaUnderPRC: 0.8653017824173178
Mean absolute error: 0.056629171873001434
Coverage of cases: 89.1304347826087
Instances selection time: 391.0
Test time: 584.0
Accumulative iteration time: 3546.0
Weighted Recall: 0.8913043478260869
Weighted FalsePositiveRate: 0.7916926616985528
Kappa statistic: 0.11156711444866703
Training time: 1.0
		
Iteration: 11
Labeled set size: 577
Unlabelled set size: 1309
	
Mean region size: 25.0
Incorrectly Classified Instances: 10.763520678685047
Correctly Classified Instances: 89.23647932131495
Weighted Precision: 0.8812940635652236
Weighted AreaUnderROC: 0.5520834511173166
Root mean squared error: 0.2312054258249236
Relative absolute error: 14.939751281378149
Root relative squared error: 53.39460593524868
Weighted TruePositiveRate: 0.8923647932131495
Weighted MatthewsCorrelation: 0.12485397120523135
Weighted FMeasure: 0.8829655047039586
Iteration time: 400.0
Weighted AreaUnderPRC: 0.8653898200524223
Mean absolute error: 0.056024067305168054
Coverage of cases: 89.23647932131495
Instances selection time: 399.0
Test time: 599.0
Accumulative iteration time: 3946.0
Weighted Recall: 0.8923647932131495
Weighted FalsePositiveRate: 0.7916351641007076
Kappa statistic: 0.11353711790393006
Training time: 1.0
		
Iteration: 12
Labeled set size: 597
Unlabelled set size: 1289
	
Mean region size: 25.0
Incorrectly Classified Instances: 10.710498409331919
Correctly Classified Instances: 89.28950159066808
Weighted Precision: 0.880455349625448
Weighted AreaUnderROC: 0.5492079825543071
Root mean squared error: 0.23066068591531944
Relative absolute error: 14.849944926057608
Root relative squared error: 53.26880364186936
Weighted TruePositiveRate: 0.8928950159066809
Weighted MatthewsCorrelation: 0.11958434743959681
Weighted FMeasure: 0.8827791994259244
Iteration time: 406.0
Weighted AreaUnderPRC: 0.8649438068922923
Mean absolute error: 0.05568729347271603
Coverage of cases: 89.28950159066808
Instances selection time: 406.0
Test time: 616.0
Accumulative iteration time: 4352.0
Weighted Recall: 0.8928950159066809
Weighted FalsePositiveRate: 0.797943995533469
Kappa statistic: 0.10771450386685506
Training time: 0.0
		
Iteration: 13
Labeled set size: 617
Unlabelled set size: 1269
	
Mean region size: 25.0
Incorrectly Classified Instances: 10.710498409331919
Correctly Classified Instances: 89.28950159066808
Weighted Precision: 0.8793211135509024
Weighted AreaUnderROC: 0.5460530000414873
Root mean squared error: 0.23068442970057454
Relative absolute error: 14.831610485338615
Root relative squared error: 53.27428703419281
Weighted TruePositiveRate: 0.8928950159066809
Weighted MatthewsCorrelation: 0.11278211659154663
Weighted FMeasure: 0.8820917640488771
Iteration time: 412.0
Weighted AreaUnderPRC: 0.8640776687267757
Mean absolute error: 0.055618539320019804
Coverage of cases: 89.28950159066808
Instances selection time: 411.0
Test time: 635.0
Accumulative iteration time: 4764.0
Weighted Recall: 0.8928950159066809
Weighted FalsePositiveRate: 0.8042815757651531
Kappa statistic: 0.10068362510150518
Training time: 1.0
		
Iteration: 14
Labeled set size: 637
Unlabelled set size: 1249
	
Mean region size: 25.0
Incorrectly Classified Instances: 10.65747613997879
Correctly Classified Instances: 89.3425238600212
Weighted Precision: 0.8794222960389516
Weighted AreaUnderROC: 0.5465819543549605
Root mean squared error: 0.23013503068361735
Relative absolute error: 14.744000052794606
Root relative squared error: 53.14740876605971
Weighted TruePositiveRate: 0.8934252386002121
Weighted MatthewsCorrelation: 0.11403214815705424
Weighted FMeasure: 0.8823937829572791
Iteration time: 419.0
Weighted AreaUnderPRC: 0.8641598246700422
Mean absolute error: 0.05529000019797978
Coverage of cases: 89.3425238600212
Instances selection time: 418.0
Test time: 654.0
Accumulative iteration time: 5183.0
Weighted Recall: 0.8934252386002121
Weighted FalsePositiveRate: 0.8042528269662305
Kappa statistic: 0.10164936726859067
Training time: 1.0
		
Iteration: 15
Labeled set size: 657
Unlabelled set size: 1229
	
Mean region size: 25.0
Incorrectly Classified Instances: 10.710498409331919
Correctly Classified Instances: 89.28950159066808
Weighted Precision: 0.8783520288463132
Weighted AreaUnderROC: 0.5434009359543448
Root mean squared error: 0.23072768409668543
Relative absolute error: 14.797950230316097
Root relative squared error: 53.284276209088105
Weighted TruePositiveRate: 0.8928950159066809
Weighted MatthewsCorrelation: 0.10601456757186627
Weighted FMeasure: 0.8815863279875457
Iteration time: 422.0
Weighted AreaUnderPRC: 0.863673834969175
Mean absolute error: 0.05549231336368536
Coverage of cases: 89.28950159066808
Instances selection time: 421.0
Test time: 671.0
Accumulative iteration time: 5605.0
Weighted Recall: 0.8928950159066809
Weighted FalsePositiveRate: 0.8106191559968371
Kappa statistic: 0.09364889041148113
Training time: 1.0
		
Iteration: 16
Labeled set size: 677
Unlabelled set size: 1209
	
Mean region size: 25.0
Incorrectly Classified Instances: 10.710498409331919
Correctly Classified Instances: 89.28950159066808
Weighted Precision: 0.8783520288463132
Weighted AreaUnderROC: 0.5431494908432978
Root mean squared error: 0.2307474556182522
Relative absolute error: 14.782913421469859
Root relative squared error: 53.28884224640765
Weighted TruePositiveRate: 0.8928950159066809
Weighted MatthewsCorrelation: 0.10601456757186627
Weighted FMeasure: 0.8815863279875457
Iteration time: 428.0
Weighted AreaUnderPRC: 0.863634766277709
Mean absolute error: 0.05543592533051197
Coverage of cases: 89.28950159066808
Instances selection time: 428.0
Test time: 692.0
Accumulative iteration time: 6033.0
Weighted Recall: 0.8928950159066809
Weighted FalsePositiveRate: 0.8106191559968371
Kappa statistic: 0.09364889041148113
Training time: 0.0
		
Iteration: 17
Labeled set size: 697
Unlabelled set size: 1189
	
Mean region size: 25.0
Incorrectly Classified Instances: 10.392364793213149
Correctly Classified Instances: 89.60763520678685
Weighted Precision: 0.880471121790951
Weighted AreaUnderROC: 0.5480875929130952
Root mean squared error: 0.2273133892646016
Relative absolute error: 14.344865122617312
Root relative squared error: 52.495778592929575
Weighted TruePositiveRate: 0.8960763520678685
Weighted MatthewsCorrelation: 0.11402990337154156
Weighted FMeasure: 0.8834631777213775
Iteration time: 434.0
Weighted AreaUnderPRC: 0.8646279298528807
Mean absolute error: 0.05379324420981492
Coverage of cases: 89.60763520678685
Instances selection time: 433.0
Test time: 710.0
Accumulative iteration time: 6467.0
Weighted Recall: 0.8960763520678685
Weighted FalsePositiveRate: 0.8104618609056521
Kappa statistic: 0.09932703412585075
Training time: 1.0
		
Iteration: 18
Labeled set size: 717
Unlabelled set size: 1169
	
Mean region size: 25.0
Incorrectly Classified Instances: 10.33934252386002
Correctly Classified Instances: 89.66065747613997
Weighted Precision: 0.8805756626085494
Weighted AreaUnderROC: 0.5483670786593221
Root mean squared error: 0.22675014860562348
Relative absolute error: 14.261013470225187
Root relative squared error: 52.36570373449775
Weighted TruePositiveRate: 0.8966065747613998
Weighted MatthewsCorrelation: 0.11537313975041845
Weighted FMeasure: 0.8837627474725512
Iteration time: 436.0
Weighted AreaUnderPRC: 0.8646705736647148
Mean absolute error: 0.05347880051334445
Coverage of cases: 89.66065747613997
Instances selection time: 435.0
Test time: 729.0
Accumulative iteration time: 6903.0
Weighted Recall: 0.8966065747613998
Weighted FalsePositiveRate: 0.8104331121067295
Kappa statistic: 0.10031851029165018
Training time: 1.0
		
Iteration: 19
Labeled set size: 737
Unlabelled set size: 1149
	
Mean region size: 25.0
Incorrectly Classified Instances: 10.33934252386002
Correctly Classified Instances: 89.66065747613997
Weighted Precision: 0.8805756626085494
Weighted AreaUnderROC: 0.5476127433261812
Root mean squared error: 0.22676655988075967
Relative absolute error: 14.248614868629014
Root relative squared error: 52.3694937561448
Weighted TruePositiveRate: 0.8966065747613998
Weighted MatthewsCorrelation: 0.11537313975041845
Weighted FMeasure: 0.8837627474725512
Iteration time: 446.0
Weighted AreaUnderPRC: 0.8645537471944483
Mean absolute error: 0.0534323057573588
Coverage of cases: 89.66065747613997
Instances selection time: 445.0
Test time: 749.0
Accumulative iteration time: 7349.0
Weighted Recall: 0.8966065747613998
Weighted FalsePositiveRate: 0.8104331121067295
Kappa statistic: 0.10031851029165018
Training time: 1.0
		
Iteration: 20
Labeled set size: 757
Unlabelled set size: 1129
	
Mean region size: 25.0
Incorrectly Classified Instances: 10.286320254506894
Correctly Classified Instances: 89.71367974549311
Weighted Precision: 0.880682092986799
Weighted AreaUnderROC: 0.5476407839613611
Root mean squared error: 0.2261999329057708
Relative absolute error: 14.166265313279686
Root relative squared error: 52.23863686152883
Weighted TruePositiveRate: 0.897136797454931
Weighted MatthewsCorrelation: 0.11673660406002712
Weighted FMeasure: 0.8840624607590035
Iteration time: 445.0
Weighted AreaUnderPRC: 0.8645576776625583
Mean absolute error: 0.05312349492479882
Coverage of cases: 89.71367974549311
Instances selection time: 444.0
Test time: 807.0
Accumulative iteration time: 7794.0
Weighted Recall: 0.897136797454931
Weighted FalsePositiveRate: 0.810404363307807
Kappa statistic: 0.10131799358442105
Training time: 1.0
		
Iteration: 21
Labeled set size: 777
Unlabelled set size: 1109
	
Mean region size: 25.0
Incorrectly Classified Instances: 10.233297985153765
Correctly Classified Instances: 89.76670201484623
Weighted Precision: 0.8807904956848212
Weighted AreaUnderROC: 0.5481717148186349
Root mean squared error: 0.2256309305954074
Relative absolute error: 14.08424175616993
Root relative squared error: 52.107231406705694
Weighted TruePositiveRate: 0.8976670201484623
Weighted MatthewsCorrelation: 0.11812090792137686
Weighted FMeasure: 0.8843623230714762
Iteration time: 450.0
Weighted AreaUnderPRC: 0.8646395927021713
Mean absolute error: 0.052815906585637236
Coverage of cases: 89.76670201484623
Instances selection time: 449.0
Test time: 836.0
Accumulative iteration time: 8244.0
Weighted Recall: 0.8976670201484623
Weighted FalsePositiveRate: 0.8103756145088844
Kappa statistic: 0.10232558139534867
Training time: 1.0
		
Iteration: 22
Labeled set size: 797
Unlabelled set size: 1089
	
Mean region size: 25.0
Incorrectly Classified Instances: 10.127253446447508
Correctly Classified Instances: 89.87274655355249
Weighted Precision: 0.8810135733973392
Weighted AreaUnderROC: 0.5487306863110888
Root mean squared error: 0.22447281431684363
Relative absolute error: 13.932572582652798
Root relative squared error: 51.83977590863302
Weighted TruePositiveRate: 0.898727465535525
Weighted MatthewsCorrelation: 0.12095461576731702
Weighted FMeasure: 0.8849625173863865
Iteration time: 456.0
Weighted AreaUnderPRC: 0.8647260579344858
Mean absolute error: 0.052247147184947995
Coverage of cases: 89.87274655355249
Instances selection time: 456.0
Test time: 846.0
Accumulative iteration time: 8700.0
Weighted Recall: 0.898727465535525
Weighted FalsePositiveRate: 0.810318116911039
Kappa statistic: 0.10436546809812007
Training time: 0.0
		
Iteration: 23
Labeled set size: 817
Unlabelled set size: 1069
	
Mean region size: 25.0
Incorrectly Classified Instances: 9.809119830328738
Correctly Classified Instances: 90.19088016967126
Weighted Precision: 0.8813626088671013
Weighted AreaUnderROC: 0.5472717210466898
Root mean squared error: 0.22093225816230308
Relative absolute error: 13.49999642075475
Root relative squared error: 51.02211948907104
Weighted TruePositiveRate: 0.9019088016967126
Weighted MatthewsCorrelation: 0.1219801924669451
Weighted FMeasure: 0.8865495743082635
Iteration time: 456.0
Weighted AreaUnderPRC: 0.8645431922498441
Mean absolute error: 0.050624986577830315
Coverage of cases: 90.19088016967126
Instances selection time: 455.0
Test time: 863.0
Accumulative iteration time: 9156.0
Weighted Recall: 0.9019088016967126
Weighted FalsePositiveRate: 0.8164832043491875
Kappa statistic: 0.10694814867901713
Training time: 1.0
		
Iteration: 24
Labeled set size: 837
Unlabelled set size: 1049
	
Mean region size: 25.0
Incorrectly Classified Instances: 9.809119830328738
Correctly Classified Instances: 90.19088016967126
Weighted Precision: 0.8813626088671013
Weighted AreaUnderROC: 0.5482848149073403
Root mean squared error: 0.22094463247169344
Relative absolute error: 13.489435120144455
Root relative squared error: 51.024977213414054
Weighted TruePositiveRate: 0.9019088016967126
Weighted MatthewsCorrelation: 0.1219801924669451
Weighted FMeasure: 0.8865495743082635
Iteration time: 456.0
Weighted AreaUnderPRC: 0.8646992279752876
Mean absolute error: 0.0505853817005417
Coverage of cases: 90.19088016967126
Instances selection time: 455.0
Test time: 843.0
Accumulative iteration time: 9612.0
Weighted Recall: 0.9019088016967126
Weighted FalsePositiveRate: 0.8164832043491875
Kappa statistic: 0.10694814867901713
Training time: 1.0
		
Iteration: 25
Labeled set size: 857
Unlabelled set size: 1029
	
Mean region size: 25.0
Incorrectly Classified Instances: 9.809119830328738
Correctly Classified Instances: 90.19088016967126
Weighted Precision: 0.8813626088671013
Weighted AreaUnderROC: 0.5482848149073403
Root mean squared error: 0.22095645773313502
Relative absolute error: 13.47989702208131
Root relative squared error: 51.02770814056468
Weighted TruePositiveRate: 0.9019088016967126
Weighted MatthewsCorrelation: 0.1219801924669451
Weighted FMeasure: 0.8865495743082635
Iteration time: 460.0
Weighted AreaUnderPRC: 0.8646992279752876
Mean absolute error: 0.050549613832804915
Coverage of cases: 90.19088016967126
Instances selection time: 459.0
Test time: 870.0
Accumulative iteration time: 10072.0
Weighted Recall: 0.9019088016967126
Weighted FalsePositiveRate: 0.8164832043491875
Kappa statistic: 0.10694814867901713
Training time: 1.0
		
Iteration: 26
Labeled set size: 877
Unlabelled set size: 1009
	
Mean region size: 25.0
Incorrectly Classified Instances: 9.809119830328738
Correctly Classified Instances: 90.19088016967126
Weighted Precision: 0.8813626088671013
Weighted AreaUnderROC: 0.5495511822331534
Root mean squared error: 0.22096773771671174
Relative absolute error: 13.470191515975735
Root relative squared error: 51.03031314118646
Weighted TruePositiveRate: 0.9019088016967126
Weighted MatthewsCorrelation: 0.1219801924669451
Weighted FMeasure: 0.8865495743082635
Iteration time: 458.0
Weighted AreaUnderPRC: 0.8648943117454385
Mean absolute error: 0.050513218184909
Coverage of cases: 90.19088016967126
Instances selection time: 457.0
Test time: 883.0
Accumulative iteration time: 10530.0
Weighted Recall: 0.9019088016967126
Weighted FalsePositiveRate: 0.8164832043491875
Kappa statistic: 0.10694814867901713
Training time: 1.0
		
Iteration: 27
Labeled set size: 897
Unlabelled set size: 989
	
Mean region size: 25.0
Incorrectly Classified Instances: 9.809119830328738
Correctly Classified Instances: 90.19088016967126
Weighted Precision: 0.8813626088671013
Weighted AreaUnderROC: 0.549804455698316
Root mean squared error: 0.22097853977850188
Relative absolute error: 13.461425833136254
Root relative squared error: 51.0328077704994
Weighted TruePositiveRate: 0.9019088016967126
Weighted MatthewsCorrelation: 0.1219801924669451
Weighted FMeasure: 0.8865495743082635
Iteration time: 459.0
Weighted AreaUnderPRC: 0.8649333337426499
Mean absolute error: 0.05048034687426095
Coverage of cases: 90.19088016967126
Instances selection time: 458.0
Test time: 900.0
Accumulative iteration time: 10989.0
Weighted Recall: 0.9019088016967126
Weighted FalsePositiveRate: 0.8164832043491875
Kappa statistic: 0.10694814867901713
Training time: 1.0
		
Iteration: 28
Labeled set size: 917
Unlabelled set size: 969
	
Mean region size: 25.0
Incorrectly Classified Instances: 9.809119830328738
Correctly Classified Instances: 90.19088016967126
Weighted Precision: 0.8802545673326337
Weighted AreaUnderROC: 0.5466910088088963
Root mean squared error: 0.22098888288009347
Relative absolute error: 13.453117329757875
Root relative squared error: 51.03519640749467
Weighted TruePositiveRate: 0.9019088016967126
Weighted MatthewsCorrelation: 0.11464713195701813
Weighted FMeasure: 0.8859751785556562
Iteration time: 461.0
Weighted AreaUnderPRC: 0.8644459117021915
Mean absolute error: 0.050449189986592036
Coverage of cases: 90.19088016967126
Instances selection time: 461.0
Test time: 924.0
Accumulative iteration time: 11450.0
Weighted Recall: 0.9019088016967126
Weighted FalsePositiveRate: 0.8228207845808716
Kappa statistic: 0.09936862103323094
Training time: 0.0
		
Iteration: 29
Labeled set size: 937
Unlabelled set size: 949
	
Mean region size: 25.0
Incorrectly Classified Instances: 9.75609756097561
Correctly Classified Instances: 90.2439024390244
Weighted Precision: 0.8803807948718227
Weighted AreaUnderROC: 0.5469704945551231
Root mean squared error: 0.22040073087685957
Relative absolute error: 13.374766167236837
Root relative squared error: 50.89936852053806
Weighted TruePositiveRate: 0.9024390243902439
Weighted MatthewsCorrelation: 0.11619685525723805
Weighted FMeasure: 0.8862733461754857
Iteration time: 461.0
Weighted AreaUnderPRC: 0.8644890036023823
Mean absolute error: 0.05015537312713814
Coverage of cases: 90.2439024390244
Instances selection time: 460.0
Test time: 939.0
Accumulative iteration time: 11911.0
Weighted Recall: 0.9024390243902439
Weighted FalsePositiveRate: 0.822792035781949
Kappa statistic: 0.10041942959648727
Training time: 1.0
		
Iteration: 30
Labeled set size: 957
Unlabelled set size: 929
	
Mean region size: 25.0
Incorrectly Classified Instances: 9.75609756097561
Correctly Classified Instances: 90.2439024390244
Weighted Precision: 0.8803807948718227
Weighted AreaUnderROC: 0.5469704945551231
Root mean squared error: 0.22041020754535479
Relative absolute error: 13.367135726434064
Root relative squared error: 50.90155706338075
Weighted TruePositiveRate: 0.9024390243902439
Weighted MatthewsCorrelation: 0.11619685525723805
Weighted FMeasure: 0.8862733461754857
Iteration time: 460.0
Weighted AreaUnderPRC: 0.8644890036023823
Mean absolute error: 0.050126758974127744
Coverage of cases: 90.2439024390244
Instances selection time: 460.0
Test time: 962.0
Accumulative iteration time: 12371.0
Weighted Recall: 0.9024390243902439
Weighted FalsePositiveRate: 0.822792035781949
Kappa statistic: 0.10041942959648727
Training time: 0.0
		
Iteration: 31
Labeled set size: 977
Unlabelled set size: 909
	
Mean region size: 25.0
Incorrectly Classified Instances: 9.75609756097561
Correctly Classified Instances: 90.2439024390244
Weighted Precision: 0.8803807948718227
Weighted AreaUnderROC: 0.5469704945551231
Root mean squared error: 0.22041930360889464
Relative absolute error: 13.359816420208569
Root relative squared error: 50.90365770927407
Weighted TruePositiveRate: 0.9024390243902439
Weighted MatthewsCorrelation: 0.11619685525723805
Weighted FMeasure: 0.8862733461754857
Iteration time: 461.0
Weighted AreaUnderPRC: 0.8644890036023823
Mean absolute error: 0.05009931157578214
Coverage of cases: 90.2439024390244
Instances selection time: 460.0
Test time: 978.0
Accumulative iteration time: 12832.0
Weighted Recall: 0.9024390243902439
Weighted FalsePositiveRate: 0.822792035781949
Kappa statistic: 0.10041942959648727
Training time: 1.0
		
Iteration: 32
Labeled set size: 997
Unlabelled set size: 889
	
Mean region size: 25.0
Incorrectly Classified Instances: 9.597030752916226
Correctly Classified Instances: 90.40296924708377
Weighted Precision: 0.8807789151629397
Weighted AreaUnderROC: 0.5475537017848404
Root mean squared error: 0.21862380099467146
Relative absolute error: 13.14158308409963
Root relative squared error: 50.4890041422131
Weighted TruePositiveRate: 0.9040296924708378
Weighted MatthewsCorrelation: 0.1210220578617415
Weighted FMeasure: 0.8871689456104658
Iteration time: 459.0
Weighted AreaUnderPRC: 0.8645803128976574
Mean absolute error: 0.049280936565373606
Coverage of cases: 90.40296924708377
Instances selection time: 458.0
Test time: 998.0
Accumulative iteration time: 13291.0
Weighted Recall: 0.9040296924708378
Weighted FalsePositiveRate: 0.8227057893851811
Kappa statistic: 0.10362628994564539
Training time: 1.0
		
Iteration: 33
Labeled set size: 1017
Unlabelled set size: 869
	
Mean region size: 25.0
Incorrectly Classified Instances: 9.490986214209968
Correctly Classified Instances: 90.50901378579003
Weighted Precision: 0.8810623835571008
Weighted AreaUnderROC: 0.5481126732772944
Root mean squared error: 0.21742093309689395
Relative absolute error: 12.993975495775226
Root relative squared error: 50.21121370038053
Weighted TruePositiveRate: 0.9050901378579003
Weighted MatthewsCorrelation: 0.1243967834127787
Weighted FMeasure: 0.8877669941713402
Iteration time: 456.0
Weighted AreaUnderPRC: 0.8646685103315936
Mean absolute error: 0.0487274081091571
Coverage of cases: 90.50901378579003
Instances selection time: 455.0
Test time: 1018.0
Accumulative iteration time: 13747.0
Weighted Recall: 0.9050901378579003
Weighted FalsePositiveRate: 0.822648291787336
Kappa statistic: 0.1058107442350782
Training time: 1.0
		
Iteration: 34
Labeled set size: 1037
Unlabelled set size: 849
	
Mean region size: 25.0
Incorrectly Classified Instances: 9.490986214209968
Correctly Classified Instances: 90.50901378579003
Weighted Precision: 0.8810623835571008
Weighted AreaUnderROC: 0.5481126732772944
Root mean squared error: 0.2174288979959524
Relative absolute error: 12.987456137950327
Root relative squared error: 50.213053115026725
Weighted TruePositiveRate: 0.9050901378579003
Weighted MatthewsCorrelation: 0.1243967834127787
Weighted FMeasure: 0.8877669941713402
Iteration time: 454.0
Weighted AreaUnderPRC: 0.8646685103315936
Mean absolute error: 0.04870296051731373
Coverage of cases: 90.50901378579003
Instances selection time: 453.0
Test time: 1284.0
Accumulative iteration time: 14201.0
Weighted Recall: 0.9050901378579003
Weighted FalsePositiveRate: 0.822648291787336
Kappa statistic: 0.1058107442350782
Training time: 1.0
		
Iteration: 35
Labeled set size: 1057
Unlabelled set size: 829
	
Mean region size: 25.0
Incorrectly Classified Instances: 9.490986214209968
Correctly Classified Instances: 90.50901378579003
Weighted Precision: 0.8810623835571008
Weighted AreaUnderROC: 0.5476021732593676
Root mean squared error: 0.21743657177089468
Relative absolute error: 12.981382083515369
Root relative squared error: 50.214825297438175
Weighted TruePositiveRate: 0.9050901378579003
Weighted MatthewsCorrelation: 0.1243967834127787
Weighted FMeasure: 0.8877669941713402
Iteration time: 468.0
Weighted AreaUnderPRC: 0.8645901883423746
Mean absolute error: 0.04868018281318263
Coverage of cases: 90.50901378579003
Instances selection time: 468.0
Test time: 1101.0
Accumulative iteration time: 14669.0
Weighted Recall: 0.9050901378579003
Weighted FalsePositiveRate: 0.822648291787336
Kappa statistic: 0.1058107442350782
Training time: 0.0
		
Iteration: 36
Labeled set size: 1077
Unlabelled set size: 809
	
Mean region size: 25.0
Incorrectly Classified Instances: 9.490986214209968
Correctly Classified Instances: 90.50901378579003
Weighted Precision: 0.8810623835571008
Weighted AreaUnderROC: 0.5476021732593676
Root mean squared error: 0.2174439607024947
Relative absolute error: 12.975336969781806
Root relative squared error: 50.21653169809749
Weighted TruePositiveRate: 0.9050901378579003
Weighted MatthewsCorrelation: 0.1243967834127787
Weighted FMeasure: 0.8877669941713402
Iteration time: 468.0
Weighted AreaUnderPRC: 0.8645901883423746
Mean absolute error: 0.04865751363668177
Coverage of cases: 90.50901378579003
Instances selection time: 467.0
Test time: 1127.0
Accumulative iteration time: 15137.0
Weighted Recall: 0.9050901378579003
Weighted FalsePositiveRate: 0.822648291787336
Kappa statistic: 0.1058107442350782
Training time: 1.0
		
Iteration: 37
Labeled set size: 1097
Unlabelled set size: 789
	
Mean region size: 25.0
Incorrectly Classified Instances: 9.43796394485684
Correctly Classified Instances: 90.56203605514315
Weighted Precision: 0.8812101662151546
Weighted AreaUnderROC: 0.5478816590055945
Root mean squared error: 0.21684286046585563
Relative absolute error: 12.899071966786872
Root relative squared error: 50.077713544724084
Weighted TruePositiveRate: 0.9056203605514316
Weighted MatthewsCorrelation: 0.1261352201041819
Weighted FMeasure: 0.8880663346163608
Iteration time: 465.0
Weighted AreaUnderPRC: 0.8646347112671504
Mean absolute error: 0.04837151987545077
Coverage of cases: 90.56203605514315
Instances selection time: 464.0
Test time: 1142.0
Accumulative iteration time: 15602.0
Weighted Recall: 0.9056203605514316
Weighted FalsePositiveRate: 0.8226195429884134
Kappa statistic: 0.10691730203406188
Training time: 1.0
		
Iteration: 38
Labeled set size: 1117
Unlabelled set size: 769
	
Mean region size: 25.0
Incorrectly Classified Instances: 9.43796394485684
Correctly Classified Instances: 90.56203605514315
Weighted Precision: 0.8812101662151546
Weighted AreaUnderROC: 0.5478816590055945
Root mean squared error: 0.21684971352494972
Relative absolute error: 12.893449766717808
Root relative squared error: 50.079296190929185
Weighted TruePositiveRate: 0.9056203605514316
Weighted MatthewsCorrelation: 0.1261352201041819
Weighted FMeasure: 0.8880663346163608
Iteration time: 459.0
Weighted AreaUnderPRC: 0.8646347112671504
Mean absolute error: 0.048350436625191784
Coverage of cases: 90.56203605514315
Instances selection time: 458.0
Test time: 1152.0
Accumulative iteration time: 16061.0
Weighted Recall: 0.9056203605514316
Weighted FalsePositiveRate: 0.8226195429884134
Kappa statistic: 0.10691730203406188
Training time: 1.0
		
Iteration: 39
Labeled set size: 1137
Unlabelled set size: 749
	
Mean region size: 25.0
Incorrectly Classified Instances: 9.331919406150583
Correctly Classified Instances: 90.66808059384941
Weighted Precision: 0.8815190502683636
Weighted AreaUnderROC: 0.5484406304980483
Root mean squared error: 0.21563465344934635
Relative absolute error: 12.747127628283849
Root relative squared error: 49.79869008623671
Weighted TruePositiveRate: 0.9066808059384942
Weighted MatthewsCorrelation: 0.12972111071728154
Weighted FMeasure: 0.8886656855532602
Iteration time: 707.0
Weighted AreaUnderPRC: 0.8647245986439713
Mean absolute error: 0.04780172860606443
Coverage of cases: 90.66808059384941
Instances selection time: 706.0
Test time: 1138.0
Accumulative iteration time: 16768.0
Weighted Recall: 0.9066808059384942
Weighted FalsePositiveRate: 0.8225620453905681
Kappa statistic: 0.1091597112262159
Training time: 1.0
		
Iteration: 40
Labeled set size: 1157
Unlabelled set size: 729
	
Mean region size: 25.0
Incorrectly Classified Instances: 9.225874867444327
Correctly Classified Instances: 90.77412513255567
Weighted Precision: 0.8818475592352727
Weighted AreaUnderROC: 0.5489996019905024
Root mean squared error: 0.2144123311693866
Relative absolute error: 12.60097532589874
Root relative squared error: 49.516406847288216
Weighted TruePositiveRate: 0.9077412513255567
Weighted MatthewsCorrelation: 0.13346247034106642
Weighted FMeasure: 0.8892659825610562
Iteration time: 436.0
Weighted AreaUnderPRC: 0.8648157234522877
Mean absolute error: 0.04725365747212027
Coverage of cases: 90.77412513255567
Instances selection time: 435.0
Test time: 1150.0
Accumulative iteration time: 17204.0
Weighted Recall: 0.9077412513255567
Weighted FalsePositiveRate: 0.822504547792723
Kappa statistic: 0.1114420478606746
Training time: 1.0
		
Iteration: 41
Labeled set size: 1177
Unlabelled set size: 709
	
Mean region size: 25.0
Incorrectly Classified Instances: 9.225874867444327
Correctly Classified Instances: 90.77412513255567
Weighted Precision: 0.8818475592352727
Weighted AreaUnderROC: 0.5502758520353194
Root mean squared error: 0.21441842453628152
Relative absolute error: 12.59541991102426
Root relative squared error: 49.51781405009504
Weighted TruePositiveRate: 0.9077412513255567
Weighted MatthewsCorrelation: 0.13346247034106642
Weighted FMeasure: 0.8892659825610562
Iteration time: 616.0
Weighted AreaUnderPRC: 0.8650110285613563
Mean absolute error: 0.047232824666340975
Coverage of cases: 90.77412513255567
Instances selection time: 615.0
Test time: 1171.0
Accumulative iteration time: 17820.0
Weighted Recall: 0.9077412513255567
Weighted FalsePositiveRate: 0.822504547792723
Kappa statistic: 0.1114420478606746
Training time: 1.0
		
Iteration: 42
Labeled set size: 1197
Unlabelled set size: 689
	
Mean region size: 25.0
Incorrectly Classified Instances: 9.066808059384941
Correctly Classified Instances: 90.93319194061506
Weighted Precision: 0.8823828900911004
Weighted AreaUnderROC: 0.5495828092202197
Root mean squared error: 0.21256790064003298
Relative absolute error: 12.379695340279739
Root relative squared error: 49.09045386223867
Weighted TruePositiveRate: 0.9093319194061505
Weighted MatthewsCorrelation: 0.13939588527480098
Weighted FMeasure: 0.8901683478864771
Iteration time: 428.0
Weighted AreaUnderPRC: 0.8649160932115016
Mean absolute error: 0.04642385752604902
Coverage of cases: 90.93319194061506
Instances selection time: 427.0
Test time: 1191.0
Accumulative iteration time: 18248.0
Weighted Recall: 0.9093319194061505
Weighted FalsePositiveRate: 0.8224183013959553
Kappa statistic: 0.11494278108619811
Training time: 1.0
		
Iteration: 43
Labeled set size: 1217
Unlabelled set size: 669
	
Mean region size: 25.0
Incorrectly Classified Instances: 9.066808059384941
Correctly Classified Instances: 90.93319194061506
Weighted Precision: 0.8823828900911004
Weighted AreaUnderROC: 0.5495828092202197
Root mean squared error: 0.21257356053392615
Relative absolute error: 12.37493495734064
Root relative squared error: 49.09176095874379
Weighted TruePositiveRate: 0.9093319194061505
Weighted MatthewsCorrelation: 0.13939588527480098
Weighted FMeasure: 0.8901683478864771
Iteration time: 422.0
Weighted AreaUnderPRC: 0.8649160932115016
Mean absolute error: 0.046406006090027395
Coverage of cases: 90.93319194061506
Instances selection time: 421.0
Test time: 1209.0
Accumulative iteration time: 18670.0
Weighted Recall: 0.9093319194061505
Weighted FalsePositiveRate: 0.8224183013959553
Kappa statistic: 0.11494278108619811
Training time: 1.0
		
Iteration: 44
Labeled set size: 1237
Unlabelled set size: 649
	
Mean region size: 25.0
Incorrectly Classified Instances: 9.11983032873807
Correctly Classified Instances: 90.88016967126192
Weighted Precision: 0.8810838230368253
Weighted AreaUnderROC: 0.5461818737113697
Root mean squared error: 0.21319968392437333
Relative absolute error: 12.440796503328839
Root relative squared error: 49.23635796195203
Weighted TruePositiveRate: 0.9088016967126193
Weighted MatthewsCorrelation: 0.12960000473429914
Weighted FMeasure: 0.889141423510217
Iteration time: 415.0
Weighted AreaUnderPRC: 0.8640008406825788
Mean absolute error: 0.04665298688748314
Coverage of cases: 90.88016967126192
Instances selection time: 414.0
Test time: 1225.0
Accumulative iteration time: 19085.0
Weighted Recall: 0.9088016967126193
Weighted FalsePositiveRate: 0.8287846304265619
Kappa statistic: 0.10560910514590754
Training time: 1.0
		
Iteration: 45
Labeled set size: 1257
Unlabelled set size: 629
	
Mean region size: 25.0
Incorrectly Classified Instances: 9.066808059384941
Correctly Classified Instances: 90.93319194061506
Weighted Precision: 0.8785427025059107
Weighted AreaUnderROC: 0.5404798289396331
Root mean squared error: 0.21258434660951556
Relative absolute error: 12.36576921048322
Root relative squared error: 49.094251896201804
Weighted TruePositiveRate: 0.9093319194061505
Weighted MatthewsCorrelation: 0.1154026206619587
Weighted FMeasure: 0.8881174099711798
Iteration time: 406.0
Weighted AreaUnderPRC: 0.8630949473431381
Mean absolute error: 0.046371634539312076
Coverage of cases: 90.93319194061506
Instances selection time: 405.0
Test time: 1247.0
Accumulative iteration time: 19491.0
Weighted Recall: 0.9093319194061505
Weighted FalsePositiveRate: 0.8414310420910073
Kappa statistic: 0.09018946275629333
Training time: 1.0
		
Iteration: 46
Labeled set size: 1277
Unlabelled set size: 609
	
Mean region size: 25.0
Incorrectly Classified Instances: 9.066808059384941
Correctly Classified Instances: 90.93319194061506
Weighted Precision: 0.8785427025059107
Weighted AreaUnderROC: 0.5404798289396331
Root mean squared error: 0.2125894907563196
Relative absolute error: 12.361413324387023
Root relative squared error: 49.09543988601864
Weighted TruePositiveRate: 0.9093319194061505
Weighted MatthewsCorrelation: 0.1154026206619587
Weighted FMeasure: 0.8881174099711798
Iteration time: 398.0
Weighted AreaUnderPRC: 0.8630949473431381
Mean absolute error: 0.04635529996645134
Coverage of cases: 90.93319194061506
Instances selection time: 397.0
Test time: 1283.0
Accumulative iteration time: 19889.0
Weighted Recall: 0.9093319194061505
Weighted FalsePositiveRate: 0.8414310420910073
Kappa statistic: 0.09018946275629333
Training time: 1.0
		
Time end:Tue Oct 31 13.12.59 EET 2017