Tue Oct 31 11.43.52 EET 2017
Dataset: hypothyroid
Test set size: 1886
Initial Labelled set size: 377
Initial Unlabelled set size: 1509
Batch mode: QBestBatchMode
Batch size: 20
Classifiers: SMO-1cores
Scenario: PoolBasedSamplingScenario
Query strategy: EntropySamplingQueryStrategy-1cores
Time begining: Tue Oct 31 11.43.52 EET 2017
		
Iteration: 1
Labeled set size: 377
Unlabelled set size: 1509
	
Mean region size: 75.0
Incorrectly Classified Instances: 6.6277836691410394
Correctly Classified Instances: 93.37221633085896
Weighted Precision: 0.8850250865707499
Weighted AreaUnderROC: 0.5819268979015766
Root mean squared error: 0.3229995033376361
Relative absolute error: 68.56368563685622
Root relative squared error: 74.59354008003986
Weighted TruePositiveRate: 0.9337221633085896
Weighted MatthewsCorrelation: 0.3538949705905552
Weighted FMeasure: 0.9065995156005946
Iteration time: 49.0
Weighted AreaUnderPRC: 0.877172588271792
Mean absolute error: 0.2571138211382108
Coverage of cases: 99.94697773064688
Instances selection time: 6.0
Test time: 13.0
Accumulative iteration time: 49.0
Weighted Recall: 0.9337221633085896
Weighted FalsePositiveRate: 0.7772760560150752
Kappa statistic: 0.257844964363966
Training time: 43.0
		
Iteration: 2
Labeled set size: 397
Unlabelled set size: 1489
	
Mean region size: 75.0
Incorrectly Classified Instances: 6.574761399787911
Correctly Classified Instances: 93.42523860021208
Weighted Precision: 0.8855666278099831
Weighted AreaUnderROC: 0.5866069939295765
Root mean squared error: 0.3226573306683964
Relative absolute error: 68.50477200424162
Root relative squared error: 74.51451868696192
Weighted TruePositiveRate: 0.9342523860021209
Weighted MatthewsCorrelation: 0.36231513601648957
Weighted FMeasure: 0.9073180285269364
Iteration time: 53.0
Weighted AreaUnderPRC: 0.8781156261848365
Mean absolute error: 0.25689289501590606
Coverage of cases: 99.94697773064688
Instances selection time: 6.0
Test time: 12.0
Accumulative iteration time: 102.0
Weighted Recall: 0.9342523860021209
Weighted FalsePositiveRate: 0.7709569636401133
Kappa statistic: 0.2676829039167305
Training time: 47.0
		
Iteration: 3
Labeled set size: 417
Unlabelled set size: 1469
	
Mean region size: 75.0
Incorrectly Classified Instances: 6.574761399787911
Correctly Classified Instances: 93.42523860021208
Weighted Precision: 0.8855666278099831
Weighted AreaUnderROC: 0.5866069939295765
Root mean squared error: 0.3226573306683964
Relative absolute error: 68.50477200424162
Root relative squared error: 74.51451868696192
Weighted TruePositiveRate: 0.9342523860021209
Weighted MatthewsCorrelation: 0.36231513601648957
Weighted FMeasure: 0.9073180285269364
Iteration time: 56.0
Weighted AreaUnderPRC: 0.8781156261848365
Mean absolute error: 0.25689289501590606
Coverage of cases: 99.94697773064688
Instances selection time: 6.0
Test time: 12.0
Accumulative iteration time: 158.0
Weighted Recall: 0.9342523860021209
Weighted FalsePositiveRate: 0.7709569636401133
Kappa statistic: 0.2676829039167305
Training time: 50.0
		
Iteration: 4
Labeled set size: 437
Unlabelled set size: 1449
	
Mean region size: 75.0
Incorrectly Classified Instances: 6.574761399787911
Correctly Classified Instances: 93.42523860021208
Weighted Precision: 0.8855666278099831
Weighted AreaUnderROC: 0.5866069939295765
Root mean squared error: 0.3226573306683964
Relative absolute error: 68.50477200424162
Root relative squared error: 74.51451868696192
Weighted TruePositiveRate: 0.9342523860021209
Weighted MatthewsCorrelation: 0.36231513601648957
Weighted FMeasure: 0.9073180285269364
Iteration time: 64.0
Weighted AreaUnderPRC: 0.8781156261848365
Mean absolute error: 0.25689289501590606
Coverage of cases: 99.94697773064688
Instances selection time: 6.0
Test time: 12.0
Accumulative iteration time: 222.0
Weighted Recall: 0.9342523860021209
Weighted FalsePositiveRate: 0.7709569636401133
Kappa statistic: 0.2676829039167305
Training time: 58.0
		
Iteration: 5
Labeled set size: 457
Unlabelled set size: 1429
	
Mean region size: 75.0
Incorrectly Classified Instances: 6.574761399787911
Correctly Classified Instances: 93.42523860021208
Weighted Precision: 0.8855666278099831
Weighted AreaUnderROC: 0.5866069939295765
Root mean squared error: 0.3226573306683964
Relative absolute error: 68.50477200424162
Root relative squared error: 74.51451868696192
Weighted TruePositiveRate: 0.9342523860021209
Weighted MatthewsCorrelation: 0.36231513601648957
Weighted FMeasure: 0.9073180285269364
Iteration time: 61.0
Weighted AreaUnderPRC: 0.8781156261848365
Mean absolute error: 0.25689289501590606
Coverage of cases: 99.94697773064688
Instances selection time: 7.0
Test time: 10.0
Accumulative iteration time: 283.0
Weighted Recall: 0.9342523860021209
Weighted FalsePositiveRate: 0.7709569636401133
Kappa statistic: 0.2676829039167305
Training time: 54.0
		
Iteration: 6
Labeled set size: 477
Unlabelled set size: 1409
	
Mean region size: 75.0
Incorrectly Classified Instances: 6.6277836691410394
Correctly Classified Instances: 93.37221633085896
Weighted Precision: 0.8850250865707499
Weighted AreaUnderROC: 0.5834041760315245
Root mean squared error: 0.32272579422555586
Relative absolute error: 68.51655473076453
Root relative squared error: 74.53032966822418
Weighted TruePositiveRate: 0.9337221633085896
Weighted MatthewsCorrelation: 0.3538949705905552
Weighted FMeasure: 0.9065995156005946
Iteration time: 79.0
Weighted AreaUnderPRC: 0.877193288812388
Mean absolute error: 0.256937080240367
Coverage of cases: 99.94697773064688
Instances selection time: 8.0
Test time: 9.0
Accumulative iteration time: 362.0
Weighted Recall: 0.9337221633085896
Weighted FalsePositiveRate: 0.7772760560150752
Kappa statistic: 0.257844964363966
Training time: 71.0
		
Iteration: 7
Labeled set size: 497
Unlabelled set size: 1389
	
Mean region size: 75.0
Incorrectly Classified Instances: 6.574761399787911
Correctly Classified Instances: 93.42523860021208
Weighted Precision: 0.8855666278099831
Weighted AreaUnderROC: 0.5866069939295765
Root mean squared error: 0.3226573306683964
Relative absolute error: 68.50477200424162
Root relative squared error: 74.51451868696192
Weighted TruePositiveRate: 0.9342523860021209
Weighted MatthewsCorrelation: 0.36231513601648957
Weighted FMeasure: 0.9073180285269364
Iteration time: 63.0
Weighted AreaUnderPRC: 0.8781156261848365
Mean absolute error: 0.25689289501590606
Coverage of cases: 99.94697773064688
Instances selection time: 8.0
Test time: 9.0
Accumulative iteration time: 425.0
Weighted Recall: 0.9342523860021209
Weighted FalsePositiveRate: 0.7709569636401133
Kappa statistic: 0.2676829039167305
Training time: 55.0
		
Iteration: 8
Labeled set size: 517
Unlabelled set size: 1369
	
Mean region size: 75.0
Incorrectly Classified Instances: 6.6277836691410394
Correctly Classified Instances: 93.37221633085896
Weighted Precision: 0.8850250865707499
Weighted AreaUnderROC: 0.5821702467215467
Root mean squared error: 0.32334131390631843
Relative absolute error: 68.62259926947084
Root relative squared error: 74.6724778495761
Weighted TruePositiveRate: 0.9337221633085896
Weighted MatthewsCorrelation: 0.3538949705905552
Weighted FMeasure: 0.9065995156005946
Iteration time: 72.0
Weighted AreaUnderPRC: 0.8767731391968798
Mean absolute error: 0.25733474726051564
Coverage of cases: 99.94697773064688
Instances selection time: 7.0
Test time: 10.0
Accumulative iteration time: 497.0
Weighted Recall: 0.9337221633085896
Weighted FalsePositiveRate: 0.7772760560150752
Kappa statistic: 0.257844964363966
Training time: 65.0
		
Iteration: 9
Labeled set size: 537
Unlabelled set size: 1349
	
Mean region size: 75.0
Incorrectly Classified Instances: 6.680805938494167
Correctly Classified Instances: 93.31919406150583
Weighted Precision: 0.8844775170770435
Weighted AreaUnderROC: 0.5789503829309331
Root mean squared error: 0.32340963266904293
Relative absolute error: 68.63438199599375
Root relative squared error: 74.68825539199598
Weighted TruePositiveRate: 0.9331919406150583
Weighted MatthewsCorrelation: 0.3452841105698577
Weighted FMeasure: 0.9058680529590706
Iteration time: 79.0
Weighted AreaUnderPRC: 0.8758360149935359
Mean absolute error: 0.25737893248497656
Coverage of cases: 99.94697773064688
Instances selection time: 7.0
Test time: 9.0
Accumulative iteration time: 576.0
Weighted Recall: 0.9331919406150583
Weighted FalsePositiveRate: 0.783595148390037
Kappa statistic: 0.24790165968274833
Training time: 72.0
		
Iteration: 10
Labeled set size: 557
Unlabelled set size: 1329
	
Mean region size: 75.0
Incorrectly Classified Instances: 6.6277836691410394
Correctly Classified Instances: 93.37221633085896
Weighted Precision: 0.8850250865707499
Weighted AreaUnderROC: 0.5824389383577897
Root mean squared error: 0.3232729807054765
Relative absolute error: 68.61081654294792
Root relative squared error: 74.65669697281582
Weighted TruePositiveRate: 0.9337221633085896
Weighted MatthewsCorrelation: 0.3538949705905552
Weighted FMeasure: 0.9065995156005946
Iteration time: 72.0
Weighted AreaUnderPRC: 0.8767950692104515
Mean absolute error: 0.2572905620360547
Coverage of cases: 99.94697773064688
Instances selection time: 7.0
Test time: 10.0
Accumulative iteration time: 648.0
Weighted Recall: 0.9337221633085896
Weighted FalsePositiveRate: 0.7772760560150752
Kappa statistic: 0.257844964363966
Training time: 65.0
		
Iteration: 11
Labeled set size: 577
Unlabelled set size: 1309
	
Mean region size: 75.0
Incorrectly Classified Instances: 6.6277836691410394
Correctly Classified Instances: 93.37221633085896
Weighted Precision: 0.8850250865707499
Weighted AreaUnderROC: 0.5824389383577897
Root mean squared error: 0.3232729807054765
Relative absolute error: 68.61081654294792
Root relative squared error: 74.65669697281582
Weighted TruePositiveRate: 0.9337221633085896
Weighted MatthewsCorrelation: 0.3538949705905552
Weighted FMeasure: 0.9065995156005946
Iteration time: 65.0
Weighted AreaUnderPRC: 0.8767950692104515
Mean absolute error: 0.2572905620360547
Coverage of cases: 99.94697773064688
Instances selection time: 7.0
Test time: 10.0
Accumulative iteration time: 713.0
Weighted Recall: 0.9337221633085896
Weighted FalsePositiveRate: 0.7772760560150752
Kappa statistic: 0.257844964363966
Training time: 58.0
		
Iteration: 12
Labeled set size: 597
Unlabelled set size: 1289
	
Mean region size: 75.0
Incorrectly Classified Instances: 6.680805938494167
Correctly Classified Instances: 93.31919406150583
Weighted Precision: 0.8844775170770435
Weighted AreaUnderROC: 0.5789503829309331
Root mean squared error: 0.32340963266904293
Relative absolute error: 68.63438199599375
Root relative squared error: 74.68825539199598
Weighted TruePositiveRate: 0.9331919406150583
Weighted MatthewsCorrelation: 0.3452841105698577
Weighted FMeasure: 0.9058680529590706
Iteration time: 80.0
Weighted AreaUnderPRC: 0.8758360149935359
Mean absolute error: 0.25737893248497656
Coverage of cases: 99.94697773064688
Instances selection time: 7.0
Test time: 10.0
Accumulative iteration time: 793.0
Weighted Recall: 0.9331919406150583
Weighted FalsePositiveRate: 0.783595148390037
Kappa statistic: 0.24790165968274833
Training time: 73.0
		
Iteration: 13
Labeled set size: 617
Unlabelled set size: 1269
	
Mean region size: 75.0
Incorrectly Classified Instances: 6.680805938494167
Correctly Classified Instances: 93.31919406150583
Weighted Precision: 0.8844775170770435
Weighted AreaUnderROC: 0.5789503829309331
Root mean squared error: 0.32340963266904293
Relative absolute error: 68.63438199599375
Root relative squared error: 74.68825539199598
Weighted TruePositiveRate: 0.9331919406150583
Weighted MatthewsCorrelation: 0.3452841105698577
Weighted FMeasure: 0.9058680529590706
Iteration time: 86.0
Weighted AreaUnderPRC: 0.8758360149935359
Mean absolute error: 0.25737893248497656
Coverage of cases: 99.94697773064688
Instances selection time: 7.0
Test time: 10.0
Accumulative iteration time: 879.0
Weighted Recall: 0.9331919406150583
Weighted FalsePositiveRate: 0.783595148390037
Kappa statistic: 0.24790165968274833
Training time: 79.0
		
Iteration: 14
Labeled set size: 637
Unlabelled set size: 1249
	
Mean region size: 75.0
Incorrectly Classified Instances: 6.6277836691410394
Correctly Classified Instances: 93.37221633085896
Weighted Precision: 0.8850250865707499
Weighted AreaUnderROC: 0.5821809894587235
Root mean squared error: 0.32334131390631843
Relative absolute error: 68.62259926947084
Root relative squared error: 74.6724778495761
Weighted TruePositiveRate: 0.9337221633085896
Weighted MatthewsCorrelation: 0.3538949705905552
Weighted FMeasure: 0.9065995156005946
Iteration time: 87.0
Weighted AreaUnderPRC: 0.8767736031559897
Mean absolute error: 0.25733474726051564
Coverage of cases: 99.94697773064688
Instances selection time: 7.0
Test time: 10.0
Accumulative iteration time: 966.0
Weighted Recall: 0.9337221633085896
Weighted FalsePositiveRate: 0.7772760560150752
Kappa statistic: 0.257844964363966
Training time: 80.0
		
Iteration: 15
Labeled set size: 657
Unlabelled set size: 1229
	
Mean region size: 75.0
Incorrectly Classified Instances: 6.680805938494167
Correctly Classified Instances: 93.31919406150583
Weighted Precision: 0.8844775170770435
Weighted AreaUnderROC: 0.5789503829309331
Root mean squared error: 0.32340963266904293
Relative absolute error: 68.63438199599375
Root relative squared error: 74.68825539199598
Weighted TruePositiveRate: 0.9331919406150583
Weighted MatthewsCorrelation: 0.3452841105698577
Weighted FMeasure: 0.9058680529590706
Iteration time: 72.0
Weighted AreaUnderPRC: 0.8758360149935359
Mean absolute error: 0.25737893248497656
Coverage of cases: 99.94697773064688
Instances selection time: 7.0
Test time: 10.0
Accumulative iteration time: 1038.0
Weighted Recall: 0.9331919406150583
Weighted FalsePositiveRate: 0.783595148390037
Kappa statistic: 0.24790165968274833
Training time: 65.0
		
Iteration: 16
Labeled set size: 677
Unlabelled set size: 1209
	
Mean region size: 75.0
Incorrectly Classified Instances: 6.6277836691410394
Correctly Classified Instances: 93.37221633085896
Weighted Precision: 0.8850250865707499
Weighted AreaUnderROC: 0.5821594526115628
Root mean squared error: 0.32334131390631843
Relative absolute error: 68.62259926947084
Root relative squared error: 74.6724778495761
Weighted TruePositiveRate: 0.9337221633085896
Weighted MatthewsCorrelation: 0.3538949705905552
Weighted FMeasure: 0.9065995156005946
Iteration time: 89.0
Weighted AreaUnderPRC: 0.8767762170488729
Mean absolute error: 0.25733474726051564
Coverage of cases: 99.94697773064688
Instances selection time: 6.0
Test time: 10.0
Accumulative iteration time: 1127.0
Weighted Recall: 0.9337221633085896
Weighted FalsePositiveRate: 0.7772760560150752
Kappa statistic: 0.257844964363966
Training time: 83.0
		
Iteration: 17
Labeled set size: 697
Unlabelled set size: 1189
	
Mean region size: 75.0
Incorrectly Classified Instances: 6.6277836691410394
Correctly Classified Instances: 93.37221633085896
Weighted Precision: 0.8850250865707499
Weighted AreaUnderROC: 0.5824281699342093
Root mean squared error: 0.3232729807054765
Relative absolute error: 68.61081654294792
Root relative squared error: 74.65669697281582
Weighted TruePositiveRate: 0.9337221633085896
Weighted MatthewsCorrelation: 0.3538949705905552
Weighted FMeasure: 0.9065995156005946
Iteration time: 78.0
Weighted AreaUnderPRC: 0.8767963611146136
Mean absolute error: 0.2572905620360547
Coverage of cases: 99.94697773064688
Instances selection time: 7.0
Test time: 9.0
Accumulative iteration time: 1205.0
Weighted Recall: 0.9337221633085896
Weighted FalsePositiveRate: 0.7772760560150752
Kappa statistic: 0.257844964363966
Training time: 71.0
		
Iteration: 18
Labeled set size: 717
Unlabelled set size: 1169
	
Mean region size: 75.0
Incorrectly Classified Instances: 6.733828207847296
Correctly Classified Instances: 93.2661717921527
Weighted Precision: 0.883923067334013
Weighted AreaUnderROC: 0.5757200648812132
Root mean squared error: 0.3234779370027981
Relative absolute error: 68.64616472251667
Root relative squared error: 74.70402960218811
Weighted TruePositiveRate: 0.9326617179215271
Weighted MatthewsCorrelation: 0.33646858823778253
Weighted FMeasure: 0.9051230875131525
Iteration time: 75.0
Weighted AreaUnderPRC: 0.8748994615887631
Mean absolute error: 0.2574231177094375
Coverage of cases: 99.94697773064688
Instances selection time: 7.0
Test time: 10.0
Accumulative iteration time: 1280.0
Weighted Recall: 0.9326617179215271
Weighted FalsePositiveRate: 0.7899142407649989
Kappa statistic: 0.23785128805620673
Training time: 68.0
		
Iteration: 19
Labeled set size: 737
Unlabelled set size: 1149
	
Mean region size: 75.0
Incorrectly Classified Instances: 6.733828207847296
Correctly Classified Instances: 93.2661717921527
Weighted Precision: 0.883923067334013
Weighted AreaUnderROC: 0.5757200648812132
Root mean squared error: 0.3234779370027981
Relative absolute error: 68.64616472251667
Root relative squared error: 74.70402960218811
Weighted TruePositiveRate: 0.9326617179215271
Weighted MatthewsCorrelation: 0.33646858823778253
Weighted FMeasure: 0.9051230875131525
Iteration time: 72.0
Weighted AreaUnderPRC: 0.8748994615887631
Mean absolute error: 0.2574231177094375
Coverage of cases: 99.94697773064688
Instances selection time: 5.0
Test time: 12.0
Accumulative iteration time: 1352.0
Weighted Recall: 0.9326617179215271
Weighted FalsePositiveRate: 0.7899142407649989
Kappa statistic: 0.23785128805620673
Training time: 67.0
		
Iteration: 20
Labeled set size: 757
Unlabelled set size: 1129
	
Mean region size: 75.0
Incorrectly Classified Instances: 6.6277836691410394
Correctly Classified Instances: 93.37221633085896
Weighted Precision: 0.8850250865707499
Weighted AreaUnderROC: 0.5821594526115628
Root mean squared error: 0.32334131390631843
Relative absolute error: 68.62259926947084
Root relative squared error: 74.6724778495761
Weighted TruePositiveRate: 0.9337221633085896
Weighted MatthewsCorrelation: 0.3538949705905552
Weighted FMeasure: 0.9065995156005946
Iteration time: 83.0
Weighted AreaUnderPRC: 0.8767762170488729
Mean absolute error: 0.25733474726051564
Coverage of cases: 99.94697773064688
Instances selection time: 4.0
Test time: 12.0
Accumulative iteration time: 1435.0
Weighted Recall: 0.9337221633085896
Weighted FalsePositiveRate: 0.7772760560150752
Kappa statistic: 0.257844964363966
Training time: 79.0
		
Iteration: 21
Labeled set size: 777
Unlabelled set size: 1109
	
Mean region size: 75.0
Incorrectly Classified Instances: 6.680805938494167
Correctly Classified Instances: 93.31919406150583
Weighted Precision: 0.8844775170770435
Weighted AreaUnderROC: 0.578939758746388
Root mean squared error: 0.32340963266904293
Relative absolute error: 68.63438199599375
Root relative squared error: 74.68825539199598
Weighted TruePositiveRate: 0.9331919406150583
Weighted MatthewsCorrelation: 0.3452841105698577
Weighted FMeasure: 0.9058680529590706
Iteration time: 90.0
Weighted AreaUnderPRC: 0.8758374371353899
Mean absolute error: 0.25737893248497656
Coverage of cases: 99.94697773064688
Instances selection time: 4.0
Test time: 12.0
Accumulative iteration time: 1525.0
Weighted Recall: 0.9331919406150583
Weighted FalsePositiveRate: 0.783595148390037
Kappa statistic: 0.24790165968274833
Training time: 86.0
		
Iteration: 22
Labeled set size: 797
Unlabelled set size: 1089
	
Mean region size: 75.0
Incorrectly Classified Instances: 6.680805938494167
Correctly Classified Instances: 93.31919406150583
Weighted Precision: 0.8844775170770435
Weighted AreaUnderROC: 0.578939758746388
Root mean squared error: 0.32340963266904293
Relative absolute error: 68.63438199599375
Root relative squared error: 74.68825539199598
Weighted TruePositiveRate: 0.9331919406150583
Weighted MatthewsCorrelation: 0.3452841105698577
Weighted FMeasure: 0.9058680529590706
Iteration time: 109.0
Weighted AreaUnderPRC: 0.8758374371353899
Mean absolute error: 0.25737893248497656
Coverage of cases: 99.94697773064688
Instances selection time: 5.0
Test time: 9.0
Accumulative iteration time: 1634.0
Weighted Recall: 0.9331919406150583
Weighted FalsePositiveRate: 0.783595148390037
Kappa statistic: 0.24790165968274833
Training time: 104.0
		
Iteration: 23
Labeled set size: 817
Unlabelled set size: 1069
	
Mean region size: 75.0
Incorrectly Classified Instances: 6.680805938494167
Correctly Classified Instances: 93.31919406150583
Weighted Precision: 0.8844775170770435
Weighted AreaUnderROC: 0.578939758746388
Root mean squared error: 0.32340963266904293
Relative absolute error: 68.63438199599375
Root relative squared error: 74.68825539199598
Weighted TruePositiveRate: 0.9331919406150583
Weighted MatthewsCorrelation: 0.3452841105698577
Weighted FMeasure: 0.9058680529590706
Iteration time: 114.0
Weighted AreaUnderPRC: 0.8758374371353899
Mean absolute error: 0.25737893248497656
Coverage of cases: 99.94697773064688
Instances selection time: 5.0
Test time: 11.0
Accumulative iteration time: 1748.0
Weighted Recall: 0.9331919406150583
Weighted FalsePositiveRate: 0.783595148390037
Kappa statistic: 0.24790165968274833
Training time: 109.0
		
Iteration: 24
Labeled set size: 837
Unlabelled set size: 1049
	
Mean region size: 75.0
Incorrectly Classified Instances: 6.680805938494167
Correctly Classified Instances: 93.31919406150583
Weighted Precision: 0.8844775170770435
Weighted AreaUnderROC: 0.578939758746388
Root mean squared error: 0.32340963266904293
Relative absolute error: 68.63438199599375
Root relative squared error: 74.68825539199598
Weighted TruePositiveRate: 0.9331919406150583
Weighted MatthewsCorrelation: 0.3452841105698577
Weighted FMeasure: 0.9058680529590706
Iteration time: 102.0
Weighted AreaUnderPRC: 0.8758374371353899
Mean absolute error: 0.25737893248497656
Coverage of cases: 99.94697773064688
Instances selection time: 5.0
Test time: 11.0
Accumulative iteration time: 1850.0
Weighted Recall: 0.9331919406150583
Weighted FalsePositiveRate: 0.783595148390037
Kappa statistic: 0.24790165968274833
Training time: 97.0
		
Iteration: 25
Labeled set size: 857
Unlabelled set size: 1029
	
Mean region size: 75.0
Incorrectly Classified Instances: 6.680805938494167
Correctly Classified Instances: 93.31919406150583
Weighted Precision: 0.8844775170770435
Weighted AreaUnderROC: 0.578939758746388
Root mean squared error: 0.32340963266904293
Relative absolute error: 68.63438199599375
Root relative squared error: 74.68825539199598
Weighted TruePositiveRate: 0.9331919406150583
Weighted MatthewsCorrelation: 0.3452841105698577
Weighted FMeasure: 0.9058680529590706
Iteration time: 114.0
Weighted AreaUnderPRC: 0.8758374371353899
Mean absolute error: 0.25737893248497656
Coverage of cases: 99.94697773064688
Instances selection time: 4.0
Test time: 9.0
Accumulative iteration time: 1964.0
Weighted Recall: 0.9331919406150583
Weighted FalsePositiveRate: 0.783595148390037
Kappa statistic: 0.24790165968274833
Training time: 110.0
		
Iteration: 26
Labeled set size: 877
Unlabelled set size: 1009
	
Mean region size: 75.0
Incorrectly Classified Instances: 6.680805938494167
Correctly Classified Instances: 93.31919406150583
Weighted Precision: 0.8844775170770435
Weighted AreaUnderROC: 0.5797374259276584
Root mean squared error: 0.32361450241994427
Relative absolute error: 68.66973017556252
Root relative squared error: 74.73556803432865
Weighted TruePositiveRate: 0.9331919406150583
Weighted MatthewsCorrelation: 0.3452841105698577
Weighted FMeasure: 0.9058680529590706
Iteration time: 137.0
Weighted AreaUnderPRC: 0.8756606875694155
Mean absolute error: 0.25751148815835945
Coverage of cases: 99.94697773064688
Instances selection time: 4.0
Test time: 9.0
Accumulative iteration time: 2101.0
Weighted Recall: 0.9331919406150583
Weighted FalsePositiveRate: 0.783595148390037
Kappa statistic: 0.24790165968274833
Training time: 133.0
		
Iteration: 27
Labeled set size: 897
Unlabelled set size: 989
	
Mean region size: 75.0
Incorrectly Classified Instances: 6.945917285259809
Correctly Classified Instances: 93.05408271474019
Weighted Precision: 0.882369662390675
Weighted AreaUnderROC: 0.5572036660908098
Root mean squared error: 0.32403521680112257
Relative absolute error: 68.7404265347
Root relative squared error: 74.83272785881874
Weighted TruePositiveRate: 0.9305408271474019
Weighted MatthewsCorrelation: 0.29850263768656676
Weighted FMeasure: 0.901628843843297
Iteration time: 144.0
Weighted AreaUnderPRC: 0.8699519377159521
Mean absolute error: 0.25777659950512505
Coverage of cases: 99.94697773064688
Instances selection time: 5.0
Test time: 10.0
Accumulative iteration time: 2245.0
Weighted Recall: 0.9305408271474019
Weighted FalsePositiveRate: 0.8214958556924256
Kappa statistic: 0.18760357753518342
Training time: 139.0
		
Iteration: 28
Labeled set size: 917
Unlabelled set size: 969
	
Mean region size: 75.0
Incorrectly Classified Instances: 6.945917285259809
Correctly Classified Instances: 93.05408271474019
Weighted Precision: 0.882369662390675
Weighted AreaUnderROC: 0.5572036660908098
Root mean squared error: 0.32403521680112257
Relative absolute error: 68.7404265347
Root relative squared error: 74.83272785881874
Weighted TruePositiveRate: 0.9305408271474019
Weighted MatthewsCorrelation: 0.29850263768656676
Weighted FMeasure: 0.901628843843297
Iteration time: 138.0
Weighted AreaUnderPRC: 0.8699519377159521
Mean absolute error: 0.25777659950512505
Coverage of cases: 99.94697773064688
Instances selection time: 4.0
Test time: 9.0
Accumulative iteration time: 2383.0
Weighted Recall: 0.9305408271474019
Weighted FalsePositiveRate: 0.8214958556924256
Kappa statistic: 0.18760357753518342
Training time: 134.0
		
Iteration: 29
Labeled set size: 937
Unlabelled set size: 949
	
Mean region size: 75.0
Incorrectly Classified Instances: 6.945917285259809
Correctly Classified Instances: 93.05408271474019
Weighted Precision: 0.882369662390675
Weighted AreaUnderROC: 0.5572036660908098
Root mean squared error: 0.32403521680112257
Relative absolute error: 68.7404265347
Root relative squared error: 74.83272785881874
Weighted TruePositiveRate: 0.9305408271474019
Weighted MatthewsCorrelation: 0.29850263768656676
Weighted FMeasure: 0.901628843843297
Iteration time: 140.0
Weighted AreaUnderPRC: 0.8699519377159521
Mean absolute error: 0.25777659950512505
Coverage of cases: 99.94697773064688
Instances selection time: 4.0
Test time: 10.0
Accumulative iteration time: 2523.0
Weighted Recall: 0.9305408271474019
Weighted FalsePositiveRate: 0.8214958556924256
Kappa statistic: 0.18760357753518342
Training time: 136.0
		
Iteration: 30
Labeled set size: 957
Unlabelled set size: 929
	
Mean region size: 75.0
Incorrectly Classified Instances: 6.945917285259809
Correctly Classified Instances: 93.05408271474019
Weighted Precision: 0.882369662390675
Weighted AreaUnderROC: 0.5572134248411436
Root mean squared error: 0.32403521680112257
Relative absolute error: 68.7404265347
Root relative squared error: 74.83272785881874
Weighted TruePositiveRate: 0.9305408271474019
Weighted MatthewsCorrelation: 0.29850263768656676
Weighted FMeasure: 0.901628843843297
Iteration time: 149.0
Weighted AreaUnderPRC: 0.8699514366661093
Mean absolute error: 0.25777659950512505
Coverage of cases: 99.94697773064688
Instances selection time: 4.0
Test time: 16.0
Accumulative iteration time: 2672.0
Weighted Recall: 0.9305408271474019
Weighted FalsePositiveRate: 0.8214958556924256
Kappa statistic: 0.18760357753518342
Training time: 145.0
		
Iteration: 31
Labeled set size: 977
Unlabelled set size: 909
	
Mean region size: 75.0
Incorrectly Classified Instances: 6.945917285259809
Correctly Classified Instances: 93.05408271474019
Weighted Precision: 0.882369662390675
Weighted AreaUnderROC: 0.5572134248411436
Root mean squared error: 0.32403521680112257
Relative absolute error: 68.7404265347
Root relative squared error: 74.83272785881874
Weighted TruePositiveRate: 0.9305408271474019
Weighted MatthewsCorrelation: 0.29850263768656676
Weighted FMeasure: 0.901628843843297
Iteration time: 141.0
Weighted AreaUnderPRC: 0.8699514366661093
Mean absolute error: 0.25777659950512505
Coverage of cases: 99.94697773064688
Instances selection time: 3.0
Test time: 10.0
Accumulative iteration time: 2813.0
Weighted Recall: 0.9305408271474019
Weighted FalsePositiveRate: 0.8214958556924256
Kappa statistic: 0.18760357753518342
Training time: 138.0
		
Iteration: 32
Labeled set size: 997
Unlabelled set size: 889
	
Mean region size: 75.0
Incorrectly Classified Instances: 6.945917285259809
Correctly Classified Instances: 93.05408271474019
Weighted Precision: 0.882369662390675
Weighted AreaUnderROC: 0.5572036660908098
Root mean squared error: 0.32403521680112257
Relative absolute error: 68.7404265347
Root relative squared error: 74.83272785881874
Weighted TruePositiveRate: 0.9305408271474019
Weighted MatthewsCorrelation: 0.29850263768656676
Weighted FMeasure: 0.901628843843297
Iteration time: 158.0
Weighted AreaUnderPRC: 0.8699519377159521
Mean absolute error: 0.25777659950512505
Coverage of cases: 99.94697773064688
Instances selection time: 4.0
Test time: 9.0
Accumulative iteration time: 2971.0
Weighted Recall: 0.9305408271474019
Weighted FalsePositiveRate: 0.8214958556924256
Kappa statistic: 0.18760357753518342
Training time: 154.0
		
Iteration: 33
Labeled set size: 1017
Unlabelled set size: 869
	
Mean region size: 75.0
Incorrectly Classified Instances: 6.945917285259809
Correctly Classified Instances: 93.05408271474019
Weighted Precision: 0.882369662390675
Weighted AreaUnderROC: 0.5572036660908098
Root mean squared error: 0.32403521680112257
Relative absolute error: 68.7404265347
Root relative squared error: 74.83272785881874
Weighted TruePositiveRate: 0.9305408271474019
Weighted MatthewsCorrelation: 0.29850263768656676
Weighted FMeasure: 0.901628843843297
Iteration time: 180.0
Weighted AreaUnderPRC: 0.8699519377159521
Mean absolute error: 0.25777659950512505
Coverage of cases: 99.94697773064688
Instances selection time: 3.0
Test time: 10.0
Accumulative iteration time: 3151.0
Weighted Recall: 0.9305408271474019
Weighted FalsePositiveRate: 0.8214958556924256
Kappa statistic: 0.18760357753518342
Training time: 177.0
		
Iteration: 34
Labeled set size: 1037
Unlabelled set size: 849
	
Mean region size: 75.0
Incorrectly Classified Instances: 6.945917285259809
Correctly Classified Instances: 93.05408271474019
Weighted Precision: 0.882369662390675
Weighted AreaUnderROC: 0.5572134248411436
Root mean squared error: 0.32403521680112257
Relative absolute error: 68.7404265347
Root relative squared error: 74.83272785881874
Weighted TruePositiveRate: 0.9305408271474019
Weighted MatthewsCorrelation: 0.29850263768656676
Weighted FMeasure: 0.901628843843297
Iteration time: 165.0
Weighted AreaUnderPRC: 0.8699514366661093
Mean absolute error: 0.25777659950512505
Coverage of cases: 99.94697773064688
Instances selection time: 3.0
Test time: 9.0
Accumulative iteration time: 3316.0
Weighted Recall: 0.9305408271474019
Weighted FalsePositiveRate: 0.8214958556924256
Kappa statistic: 0.18760357753518342
Training time: 162.0
		
Iteration: 35
Labeled set size: 1057
Unlabelled set size: 829
	
Mean region size: 75.0
Incorrectly Classified Instances: 6.945917285259809
Correctly Classified Instances: 93.05408271474019
Weighted Precision: 0.882369662390675
Weighted AreaUnderROC: 0.5572134248411436
Root mean squared error: 0.32403521680112257
Relative absolute error: 68.7404265347
Root relative squared error: 74.83272785881874
Weighted TruePositiveRate: 0.9305408271474019
Weighted MatthewsCorrelation: 0.29850263768656676
Weighted FMeasure: 0.901628843843297
Iteration time: 173.0
Weighted AreaUnderPRC: 0.8699514366661093
Mean absolute error: 0.25777659950512505
Coverage of cases: 99.94697773064688
Instances selection time: 3.0
Test time: 10.0
Accumulative iteration time: 3489.0
Weighted Recall: 0.9305408271474019
Weighted FalsePositiveRate: 0.8214958556924256
Kappa statistic: 0.18760357753518342
Training time: 170.0
		
Iteration: 36
Labeled set size: 1077
Unlabelled set size: 809
	
Mean region size: 75.0
Incorrectly Classified Instances: 6.945917285259809
Correctly Classified Instances: 93.05408271474019
Weighted Precision: 0.882369662390675
Weighted AreaUnderROC: 0.5572036660908098
Root mean squared error: 0.32403521680112257
Relative absolute error: 68.7404265347
Root relative squared error: 74.83272785881874
Weighted TruePositiveRate: 0.9305408271474019
Weighted MatthewsCorrelation: 0.29850263768656676
Weighted FMeasure: 0.901628843843297
Iteration time: 169.0
Weighted AreaUnderPRC: 0.8699519377159521
Mean absolute error: 0.25777659950512505
Coverage of cases: 99.94697773064688
Instances selection time: 3.0
Test time: 9.0
Accumulative iteration time: 3658.0
Weighted Recall: 0.9305408271474019
Weighted FalsePositiveRate: 0.8214958556924256
Kappa statistic: 0.18760357753518342
Training time: 166.0
		
Iteration: 37
Labeled set size: 1097
Unlabelled set size: 789
	
Mean region size: 75.0
Incorrectly Classified Instances: 6.945917285259809
Correctly Classified Instances: 93.05408271474019
Weighted Precision: 0.882369662390675
Weighted AreaUnderROC: 0.5572231835914773
Root mean squared error: 0.32403521680112257
Relative absolute error: 68.7404265347
Root relative squared error: 74.83272785881874
Weighted TruePositiveRate: 0.9305408271474019
Weighted MatthewsCorrelation: 0.29850263768656676
Weighted FMeasure: 0.901628843843297
Iteration time: 160.0
Weighted AreaUnderPRC: 0.8699509427160944
Mean absolute error: 0.25777659950512505
Coverage of cases: 99.94697773064688
Instances selection time: 3.0
Test time: 10.0
Accumulative iteration time: 3818.0
Weighted Recall: 0.9305408271474019
Weighted FalsePositiveRate: 0.8214958556924256
Kappa statistic: 0.18760357753518342
Training time: 157.0
		
Iteration: 38
Labeled set size: 1117
Unlabelled set size: 769
	
Mean region size: 75.0
Incorrectly Classified Instances: 6.945917285259809
Correctly Classified Instances: 93.05408271474019
Weighted Precision: 0.882369662390675
Weighted AreaUnderROC: 0.557232942341811
Root mean squared error: 0.32403521680112257
Relative absolute error: 68.7404265347
Root relative squared error: 74.83272785881874
Weighted TruePositiveRate: 0.9305408271474019
Weighted MatthewsCorrelation: 0.29850263768656676
Weighted FMeasure: 0.901628843843297
Iteration time: 162.0
Weighted AreaUnderPRC: 0.8699504558442014
Mean absolute error: 0.25777659950512505
Coverage of cases: 99.94697773064688
Instances selection time: 3.0
Test time: 10.0
Accumulative iteration time: 3980.0
Weighted Recall: 0.9305408271474019
Weighted FalsePositiveRate: 0.8214958556924256
Kappa statistic: 0.18760357753518342
Training time: 159.0
		
Iteration: 39
Labeled set size: 1137
Unlabelled set size: 749
	
Mean region size: 75.0
Incorrectly Classified Instances: 6.945917285259809
Correctly Classified Instances: 93.05408271474019
Weighted Precision: 0.882369662390675
Weighted AreaUnderROC: 0.5572231835914773
Root mean squared error: 0.32403521680112257
Relative absolute error: 68.7404265347
Root relative squared error: 74.83272785881874
Weighted TruePositiveRate: 0.9305408271474019
Weighted MatthewsCorrelation: 0.29850263768656676
Weighted FMeasure: 0.901628843843297
Iteration time: 154.0
Weighted AreaUnderPRC: 0.8699509427160944
Mean absolute error: 0.25777659950512505
Coverage of cases: 99.94697773064688
Instances selection time: 3.0
Test time: 9.0
Accumulative iteration time: 4134.0
Weighted Recall: 0.9305408271474019
Weighted FalsePositiveRate: 0.8214958556924256
Kappa statistic: 0.18760357753518342
Training time: 151.0
		
Iteration: 40
Labeled set size: 1157
Unlabelled set size: 729
	
Mean region size: 75.0
Incorrectly Classified Instances: 6.945917285259809
Correctly Classified Instances: 93.05408271474019
Weighted Precision: 0.882369662390675
Weighted AreaUnderROC: 0.5572231835914773
Root mean squared error: 0.32403521680112257
Relative absolute error: 68.7404265347
Root relative squared error: 74.83272785881874
Weighted TruePositiveRate: 0.9305408271474019
Weighted MatthewsCorrelation: 0.29850263768656676
Weighted FMeasure: 0.901628843843297
Iteration time: 156.0
Weighted AreaUnderPRC: 0.8699509427160944
Mean absolute error: 0.25777659950512505
Coverage of cases: 99.94697773064688
Instances selection time: 3.0
Test time: 9.0
Accumulative iteration time: 4290.0
Weighted Recall: 0.9305408271474019
Weighted FalsePositiveRate: 0.8214958556924256
Kappa statistic: 0.18760357753518342
Training time: 153.0
		
Iteration: 41
Labeled set size: 1177
Unlabelled set size: 709
	
Mean region size: 75.0
Incorrectly Classified Instances: 6.945917285259809
Correctly Classified Instances: 93.05408271474019
Weighted Precision: 0.882369662390675
Weighted AreaUnderROC: 0.5572134248411436
Root mean squared error: 0.32403521680112257
Relative absolute error: 68.7404265347
Root relative squared error: 74.83272785881874
Weighted TruePositiveRate: 0.9305408271474019
Weighted MatthewsCorrelation: 0.29850263768656676
Weighted FMeasure: 0.901628843843297
Iteration time: 162.0
Weighted AreaUnderPRC: 0.8699514366661093
Mean absolute error: 0.25777659950512505
Coverage of cases: 99.94697773064688
Instances selection time: 3.0
Test time: 9.0
Accumulative iteration time: 4452.0
Weighted Recall: 0.9305408271474019
Weighted FalsePositiveRate: 0.8214958556924256
Kappa statistic: 0.18760357753518342
Training time: 159.0
		
Iteration: 42
Labeled set size: 1197
Unlabelled set size: 689
	
Mean region size: 75.0
Incorrectly Classified Instances: 6.945917285259809
Correctly Classified Instances: 93.05408271474019
Weighted Precision: 0.882369662390675
Weighted AreaUnderROC: 0.5572134248411436
Root mean squared error: 0.32403521680112257
Relative absolute error: 68.7404265347
Root relative squared error: 74.83272785881874
Weighted TruePositiveRate: 0.9305408271474019
Weighted MatthewsCorrelation: 0.29850263768656676
Weighted FMeasure: 0.901628843843297
Iteration time: 177.0
Weighted AreaUnderPRC: 0.8699514366661093
Mean absolute error: 0.25777659950512505
Coverage of cases: 99.94697773064688
Instances selection time: 3.0
Test time: 20.0
Accumulative iteration time: 4629.0
Weighted Recall: 0.9305408271474019
Weighted FalsePositiveRate: 0.8214958556924256
Kappa statistic: 0.18760357753518342
Training time: 174.0
		
Iteration: 43
Labeled set size: 1217
Unlabelled set size: 669
	
Mean region size: 75.0
Incorrectly Classified Instances: 6.945917285259809
Correctly Classified Instances: 93.05408271474019
Weighted Precision: 0.882369662390675
Weighted AreaUnderROC: 0.5572134248411436
Root mean squared error: 0.32403521680112257
Relative absolute error: 68.7404265347
Root relative squared error: 74.83272785881874
Weighted TruePositiveRate: 0.9305408271474019
Weighted MatthewsCorrelation: 0.29850263768656676
Weighted FMeasure: 0.901628843843297
Iteration time: 191.0
Weighted AreaUnderPRC: 0.8699514366661093
Mean absolute error: 0.25777659950512505
Coverage of cases: 99.94697773064688
Instances selection time: 2.0
Test time: 10.0
Accumulative iteration time: 4820.0
Weighted Recall: 0.9305408271474019
Weighted FalsePositiveRate: 0.8214958556924256
Kappa statistic: 0.18760357753518342
Training time: 189.0
		
Iteration: 44
Labeled set size: 1237
Unlabelled set size: 649
	
Mean region size: 75.0
Incorrectly Classified Instances: 6.945917285259809
Correctly Classified Instances: 93.05408271474019
Weighted Precision: 0.882369662390675
Weighted AreaUnderROC: 0.5572134248411436
Root mean squared error: 0.32403521680112257
Relative absolute error: 68.7404265347
Root relative squared error: 74.83272785881874
Weighted TruePositiveRate: 0.9305408271474019
Weighted MatthewsCorrelation: 0.29850263768656676
Weighted FMeasure: 0.901628843843297
Iteration time: 202.0
Weighted AreaUnderPRC: 0.8699514366661093
Mean absolute error: 0.25777659950512505
Coverage of cases: 99.94697773064688
Instances selection time: 3.0
Test time: 9.0
Accumulative iteration time: 5022.0
Weighted Recall: 0.9305408271474019
Weighted FalsePositiveRate: 0.8214958556924256
Kappa statistic: 0.18760357753518342
Training time: 199.0
		
Iteration: 45
Labeled set size: 1257
Unlabelled set size: 629
	
Mean region size: 75.0
Incorrectly Classified Instances: 6.945917285259809
Correctly Classified Instances: 93.05408271474019
Weighted Precision: 0.882369662390675
Weighted AreaUnderROC: 0.5572134248411436
Root mean squared error: 0.32403521680112257
Relative absolute error: 68.7404265347
Root relative squared error: 74.83272785881874
Weighted TruePositiveRate: 0.9305408271474019
Weighted MatthewsCorrelation: 0.29850263768656676
Weighted FMeasure: 0.901628843843297
Iteration time: 201.0
Weighted AreaUnderPRC: 0.8699514366661093
Mean absolute error: 0.25777659950512505
Coverage of cases: 99.94697773064688
Instances selection time: 2.0
Test time: 10.0
Accumulative iteration time: 5223.0
Weighted Recall: 0.9305408271474019
Weighted FalsePositiveRate: 0.8214958556924256
Kappa statistic: 0.18760357753518342
Training time: 199.0
		
Iteration: 46
Labeled set size: 1277
Unlabelled set size: 609
	
Mean region size: 75.0
Incorrectly Classified Instances: 6.945917285259809
Correctly Classified Instances: 93.05408271474019
Weighted Precision: 0.882369662390675
Weighted AreaUnderROC: 0.5547441241533376
Root mean squared error: 0.32478432720256206
Relative absolute error: 68.87003652645218
Root relative squared error: 75.00572749558829
Weighted TruePositiveRate: 0.9305408271474019
Weighted MatthewsCorrelation: 0.29850263768656676
Weighted FMeasure: 0.901628843843297
Iteration time: 267.0
Weighted AreaUnderPRC: 0.8697189608423687
Mean absolute error: 0.25826263697419566
Coverage of cases: 99.94697773064688
Instances selection time: 3.0
Test time: 9.0
Accumulative iteration time: 5490.0
Weighted Recall: 0.9305408271474019
Weighted FalsePositiveRate: 0.8214958556924256
Kappa statistic: 0.18760357753518342
Training time: 264.0
		
Time end:Tue Oct 31 11.44.01 EET 2017