Tue Oct 31 12.36.06 EET 2017
Dataset: hypothyroid
Test set size: 1886
Initial Labelled set size: 377
Initial Unlabelled set size: 1509
Batch mode: QBestBatchMode
Batch size: 20
Classifiers: IBk-1cores
Scenario: PoolBasedSamplingScenario
Query strategy: MarginSamplingQueryStrategy-1cores
Time begining: Tue Oct 31 12.36.06 EET 2017
		
Iteration: 1
Labeled set size: 377
Unlabelled set size: 1509
	
Mean region size: 25.0
Incorrectly Classified Instances: 10.33934252386002
Correctly Classified Instances: 89.66065747613997
Weighted Precision: 0.8959262034869853
Weighted AreaUnderROC: 0.6330457603922208
Root mean squared error: 0.22621799785025665
Relative absolute error: 14.689264914362434
Root relative squared error: 52.242808781753546
Weighted TruePositiveRate: 0.8966065747613998
Weighted MatthewsCorrelation: 0.2739036813606409
Weighted FMeasure: 0.8959249869185092
Iteration time: 360.0
Weighted AreaUnderPRC: 0.8832153793071559
Mean absolute error: 0.055084743428859134
Coverage of cases: 89.66065747613997
Instances selection time: 360.0
Test time: 450.0
Accumulative iteration time: 360.0
Weighted Recall: 0.8966065747613998
Weighted FalsePositiveRate: 0.6328744817031222
Kappa statistic: 0.26025826695631205
Training time: 0.0
		
Iteration: 2
Labeled set size: 397
Unlabelled set size: 1489
	
Mean region size: 25.0
Incorrectly Classified Instances: 10.127253446447508
Correctly Classified Instances: 89.87274655355249
Weighted Precision: 0.8963451778868003
Weighted AreaUnderROC: 0.6341637033771288
Root mean squared error: 0.22394146454945468
Relative absolute error: 14.36423876906917
Root relative squared error: 51.71706593613868
Weighted TruePositiveRate: 0.898727465535525
Weighted MatthewsCorrelation: 0.27988959217591475
Weighted FMeasure: 0.8971895527561512
Iteration time: 371.0
Weighted AreaUnderPRC: 0.8834145654679308
Mean absolute error: 0.05386589538400939
Coverage of cases: 89.87274655355249
Instances selection time: 371.0
Test time: 474.0
Accumulative iteration time: 731.0
Weighted Recall: 0.898727465535525
Weighted FalsePositiveRate: 0.6327594865074319
Kappa statistic: 0.2657200397893124
Training time: 0.0
		
Iteration: 3
Labeled set size: 417
Unlabelled set size: 1469
	
Mean region size: 25.0
Incorrectly Classified Instances: 9.75609756097561
Correctly Classified Instances: 90.2439024390244
Weighted Precision: 0.8962722886109625
Weighted AreaUnderROC: 0.6331617682686613
Root mean squared error: 0.21984970861143938
Relative absolute error: 13.832901366712216
Root relative squared error: 50.77211537923013
Weighted TruePositiveRate: 0.9024390243902439
Weighted MatthewsCorrelation: 0.2862352965318247
Weighted FMeasure: 0.8989638388769505
Iteration time: 385.0
Weighted AreaUnderPRC: 0.8832622846688363
Mean absolute error: 0.051873380125170815
Coverage of cases: 90.2439024390244
Instances selection time: 385.0
Test time: 497.0
Accumulative iteration time: 1116.0
Weighted Recall: 0.9024390243902439
Weighted FalsePositiveRate: 0.6388958251466577
Kappa statistic: 0.27063313912919246
Training time: 0.0
		
Iteration: 4
Labeled set size: 437
Unlabelled set size: 1449
	
Mean region size: 25.0
Incorrectly Classified Instances: 9.384941675503711
Correctly Classified Instances: 90.61505832449629
Weighted Precision: 0.8949246752812501
Weighted AreaUnderROC: 0.6256522682367444
Root mean squared error: 0.21567213612797959
Relative absolute error: 13.305110550989134
Root relative squared error: 49.80734634007625
Weighted TruePositiveRate: 0.9061505832449629
Weighted MatthewsCorrelation: 0.28263272297285025
Weighted FMeasure: 0.9000086853371844
Iteration time: 406.0
Weighted AreaUnderPRC: 0.8820850505690162
Mean absolute error: 0.04989416456620925
Coverage of cases: 90.61505832449629
Instances selection time: 405.0
Test time: 517.0
Accumulative iteration time: 1522.0
Weighted Recall: 0.9061505832449629
Weighted FalsePositiveRate: 0.6577073242492516
Kappa statistic: 0.26803052229969715
Training time: 1.0
		
Iteration: 5
Labeled set size: 457
Unlabelled set size: 1429
	
Mean region size: 25.0
Incorrectly Classified Instances: 9.384941675503711
Correctly Classified Instances: 90.61505832449629
Weighted Precision: 0.8940028249281893
Weighted AreaUnderROC: 0.6195419052999146
Root mean squared error: 0.2157119005309857
Relative absolute error: 13.270527406736711
Root relative squared error: 49.81652953558816
Weighted TruePositiveRate: 0.9061505832449629
Weighted MatthewsCorrelation: 0.2717340061239719
Weighted FMeasure: 0.8994446020550393
Iteration time: 405.0
Weighted AreaUnderPRC: 0.8813973001888254
Mean absolute error: 0.04976447777526267
Coverage of cases: 90.61505832449629
Instances selection time: 405.0
Test time: 543.0
Accumulative iteration time: 1927.0
Weighted Recall: 0.9061505832449629
Weighted FalsePositiveRate: 0.6703976824149703
Kappa statistic: 0.25994617338908105
Training time: 0.0
		
Iteration: 6
Labeled set size: 477
Unlabelled set size: 1409
	
Mean region size: 25.0
Incorrectly Classified Instances: 9.331919406150583
Correctly Classified Instances: 90.66808059384941
Weighted Precision: 0.8945887028826564
Weighted AreaUnderROC: 0.6198137921949664
Root mean squared error: 0.21513833002567515
Relative absolute error: 13.168931243658356
Root relative squared error: 49.68406910133204
Weighted TruePositiveRate: 0.9066808059384942
Weighted MatthewsCorrelation: 0.2737069157885439
Weighted FMeasure: 0.8999118752911124
Iteration time: 417.0
Weighted AreaUnderPRC: 0.8817314340125035
Mean absolute error: 0.04938349216371884
Coverage of cases: 90.66808059384941
Instances selection time: 417.0
Test time: 560.0
Accumulative iteration time: 2344.0
Weighted Recall: 0.9066808059384942
Weighted FalsePositiveRate: 0.6703841313183981
Kappa statistic: 0.26135331921029686
Training time: 0.0
		
Iteration: 7
Labeled set size: 497
Unlabelled set size: 1389
	
Mean region size: 25.0
Incorrectly Classified Instances: 8.642629904559914
Correctly Classified Instances: 91.35737009544009
Weighted Precision: 0.896510022776214
Weighted AreaUnderROC: 0.6234471068959166
Root mean squared error: 0.20707498298583105
Relative absolute error: 12.228219149709664
Root relative squared error: 47.821918867722694
Weighted TruePositiveRate: 0.9135737009544008
Weighted MatthewsCorrelation: 0.2992469022122887
Weighted FMeasure: 0.903973547233607
Iteration time: 432.0
Weighted AreaUnderPRC: 0.8823931222930442
Mean absolute error: 0.04585582181141124
Coverage of cases: 91.35737009544009
Instances selection time: 432.0
Test time: 583.0
Accumulative iteration time: 2776.0
Weighted Recall: 0.9135737009544008
Weighted FalsePositiveRate: 0.6700103969324044
Kappa statistic: 0.281753782604226
Training time: 0.0
		
Iteration: 8
Labeled set size: 517
Unlabelled set size: 1369
	
Mean region size: 25.0
Incorrectly Classified Instances: 8.377518557794273
Correctly Classified Instances: 91.62248144220572
Weighted Precision: 0.8963691427167088
Weighted AreaUnderROC: 0.6219017162660312
Root mean squared error: 0.203904417946499
Relative absolute error: 11.85019591075455
Root relative squared error: 47.08970823614606
Weighted TruePositiveRate: 0.9162248144220573
Weighted MatthewsCorrelation: 0.3055613161190995
Weighted FMeasure: 0.9049786001761518
Iteration time: 437.0
Weighted AreaUnderPRC: 0.8821450396030789
Mean absolute error: 0.04443823466532956
Coverage of cases: 91.62248144220572
Instances selection time: 437.0
Test time: 604.0
Accumulative iteration time: 3213.0
Weighted Recall: 0.9162248144220573
Weighted FalsePositiveRate: 0.6762042331694753
Kappa statistic: 0.28454948812016234
Training time: 0.0
		
Iteration: 9
Labeled set size: 537
Unlabelled set size: 1349
	
Mean region size: 25.0
Incorrectly Classified Instances: 8.16542948038176
Correctly Classified Instances: 91.83457051961824
Weighted Precision: 0.8972026304202508
Weighted AreaUnderROC: 0.6230196592509389
Root mean squared error: 0.20133429059444108
Relative absolute error: 11.544356097007364
Root relative squared error: 46.49616274872116
Weighted TruePositiveRate: 0.9183457051961824
Weighted MatthewsCorrelation: 0.3152241401303615
Weighted FMeasure: 0.9062342956217355
Iteration time: 447.0
Weighted AreaUnderPRC: 0.8823662869446213
Mean absolute error: 0.04329133536377761
Coverage of cases: 91.83457051961824
Instances selection time: 447.0
Test time: 629.0
Accumulative iteration time: 3660.0
Weighted Recall: 0.9183457051961824
Weighted FalsePositiveRate: 0.676089237973785
Kappa statistic: 0.2914755761987472
Training time: 0.0
		
Iteration: 10
Labeled set size: 557
Unlabelled set size: 1329
	
Mean region size: 25.0
Incorrectly Classified Instances: 8.059384941675503
Correctly Classified Instances: 91.9406150583245
Weighted Precision: 0.8976646816538978
Weighted AreaUnderROC: 0.6235786307433928
Root mean squared error: 0.20004774636322226
Relative absolute error: 11.380544677079234
Root relative squared error: 46.19904808543374
Weighted TruePositiveRate: 0.9194061505832449
Weighted MatthewsCorrelation: 0.32030459669137057
Weighted FMeasure: 0.906864747022337
Iteration time: 456.0
Weighted AreaUnderPRC: 0.8824811461962649
Mean absolute error: 0.042677042539047125
Coverage of cases: 91.9406150583245
Instances selection time: 456.0
Test time: 650.0
Accumulative iteration time: 4116.0
Weighted Recall: 0.9194061505832449
Weighted FalsePositiveRate: 0.6760317403759398
Kappa statistic: 0.2950226244343887
Training time: 0.0
		
Iteration: 11
Labeled set size: 577
Unlabelled set size: 1309
	
Mean region size: 25.0
Incorrectly Classified Instances: 8.059384941675503
Correctly Classified Instances: 91.9406150583245
Weighted Precision: 0.8976646816538978
Weighted AreaUnderROC: 0.6235786307433928
Root mean squared error: 0.20007085935068772
Relative absolute error: 11.358696002872314
Root relative squared error: 46.20438580124773
Weighted TruePositiveRate: 0.9194061505832449
Weighted MatthewsCorrelation: 0.32030459669137057
Weighted FMeasure: 0.906864747022337
Iteration time: 469.0
Weighted AreaUnderPRC: 0.8824811461962649
Mean absolute error: 0.04259511001077118
Coverage of cases: 91.9406150583245
Instances selection time: 469.0
Test time: 670.0
Accumulative iteration time: 4585.0
Weighted Recall: 0.9194061505832449
Weighted FalsePositiveRate: 0.6760317403759398
Kappa statistic: 0.2950226244343887
Training time: 0.0
		
Iteration: 12
Labeled set size: 597
Unlabelled set size: 1289
	
Mean region size: 25.0
Incorrectly Classified Instances: 7.953340402969247
Correctly Classified Instances: 92.04665959703075
Weighted Precision: 0.8982719308928435
Weighted AreaUnderROC: 0.62097766845587
Root mean squared error: 0.19877199941238263
Relative absolute error: 11.197849827890934
Root relative squared error: 45.9044269472397
Weighted TruePositiveRate: 0.9204665959703076
Weighted MatthewsCorrelation: 0.3191357082582821
Weighted FMeasure: 0.9074448143955888
Iteration time: 471.0
Weighted AreaUnderPRC: 0.8824460149928447
Mean absolute error: 0.041991936854591
Coverage of cases: 92.04665959703075
Instances selection time: 471.0
Test time: 694.0
Accumulative iteration time: 5056.0
Weighted Recall: 0.9204665959703076
Weighted FalsePositiveRate: 0.6823270207121294
Kappa statistic: 0.2956694501292145
Training time: 0.0
		
Iteration: 13
Labeled set size: 617
Unlabelled set size: 1269
	
Mean region size: 25.0
Incorrectly Classified Instances: 8.006362672322375
Correctly Classified Instances: 91.99363732767762
Weighted Precision: 0.8976162374581214
Weighted AreaUnderROC: 0.6175471452262582
Root mean squared error: 0.19945353084177633
Relative absolute error: 11.248979669245612
Root relative squared error: 46.061819888928355
Weighted TruePositiveRate: 0.9199363732767762
Weighted MatthewsCorrelation: 0.3119813923188428
Weighted FMeasure: 0.9067587703146506
Iteration time: 494.0
Weighted AreaUnderPRC: 0.8814886455757034
Mean absolute error: 0.042183673759671046
Coverage of cases: 91.99363732767762
Instances selection time: 494.0
Test time: 722.0
Accumulative iteration time: 5550.0
Weighted Recall: 0.9199363732767762
Weighted FalsePositiveRate: 0.688693349742736
Kappa statistic: 0.28797091738256436
Training time: 0.0
		
Iteration: 14
Labeled set size: 637
Unlabelled set size: 1249
	
Mean region size: 25.0
Incorrectly Classified Instances: 7.953340402969247
Correctly Classified Instances: 92.04665959703075
Weighted Precision: 0.8978804321832295
Weighted AreaUnderROC: 0.6178266309724851
Root mean squared error: 0.19881102377670354
Relative absolute error: 11.160820127785293
Root relative squared error: 45.91343923813795
Weighted TruePositiveRate: 0.9204665959703076
Weighted MatthewsCorrelation: 0.31465919505468065
Weighted FMeasure: 0.9070756531137898
Iteration time: 518.0
Weighted AreaUnderPRC: 0.8815490572862689
Mean absolute error: 0.04185307547919485
Coverage of cases: 92.04665959703075
Instances selection time: 518.0
Test time: 741.0
Accumulative iteration time: 6068.0
Weighted Recall: 0.9204665959703076
Weighted FalsePositiveRate: 0.6886646009438134
Kappa statistic: 0.28976702149025957
Training time: 0.0
		
Iteration: 15
Labeled set size: 657
Unlabelled set size: 1229
	
Mean region size: 25.0
Incorrectly Classified Instances: 7.953340402969247
Correctly Classified Instances: 92.04665959703075
Weighted Precision: 0.8967083903237272
Weighted AreaUnderROC: 0.6146756297508503
Root mean squared error: 0.19882881586847892
Relative absolute error: 11.143985913260481
Root relative squared error: 45.91754814572833
Weighted TruePositiveRate: 0.9204665959703076
Weighted MatthewsCorrelation: 0.3098063420384706
Weighted FMeasure: 0.9064514536407323
Iteration time: 524.0
Weighted AreaUnderPRC: 0.8809808808110343
Mean absolute error: 0.04178994717472681
Coverage of cases: 92.04665959703075
Instances selection time: 524.0
Test time: 759.0
Accumulative iteration time: 6592.0
Weighted Recall: 0.9204665959703076
Weighted FalsePositiveRate: 0.6950021811754974
Kappa statistic: 0.28385548512525605
Training time: 0.0
		
Iteration: 16
Labeled set size: 677
Unlabelled set size: 1209
	
Mean region size: 25.0
Incorrectly Classified Instances: 8.006362672322375
Correctly Classified Instances: 91.99363732767762
Weighted Precision: 0.895214609624122
Weighted AreaUnderROC: 0.6112451427829884
Root mean squared error: 0.1995072019671233
Relative absolute error: 11.198421609246262
Root relative squared error: 46.07421470439507
Weighted TruePositiveRate: 0.9199363732767762
Weighted MatthewsCorrelation: 0.30213294211041747
Weighted FMeasure: 0.9054999678333212
Iteration time: 533.0
Weighted AreaUnderPRC: 0.8803683510400209
Mean absolute error: 0.04199408103467349
Coverage of cases: 91.99363732767762
Instances selection time: 533.0
Test time: 783.0
Accumulative iteration time: 7125.0
Weighted Recall: 0.9199363732767762
Weighted FalsePositiveRate: 0.701368510206104
Kappa statistic: 0.2760684108310367
Training time: 0.0
		
Iteration: 17
Labeled set size: 697
Unlabelled set size: 1189
	
Mean region size: 25.0
Incorrectly Classified Instances: 8.006362672322375
Correctly Classified Instances: 91.99363732767762
Weighted Precision: 0.895214609624122
Weighted AreaUnderROC: 0.6112451427829884
Root mean squared error: 0.19952310555964664
Relative absolute error: 11.183492211208524
Root relative squared error: 46.07788748176485
Weighted TruePositiveRate: 0.9199363732767762
Weighted MatthewsCorrelation: 0.30213294211041747
Weighted FMeasure: 0.9054999678333212
Iteration time: 537.0
Weighted AreaUnderPRC: 0.8803683510400209
Mean absolute error: 0.04193809579203196
Coverage of cases: 91.99363732767762
Instances selection time: 537.0
Test time: 804.0
Accumulative iteration time: 7662.0
Weighted Recall: 0.9199363732767762
Weighted FalsePositiveRate: 0.701368510206104
Kappa statistic: 0.2760684108310367
Training time: 0.0
		
Iteration: 18
Labeled set size: 717
Unlabelled set size: 1169
	
Mean region size: 25.0
Incorrectly Classified Instances: 7.953340402969247
Correctly Classified Instances: 92.04665959703075
Weighted Precision: 0.8954649762773288
Weighted AreaUnderROC: 0.6117425408900656
Root mean squared error: 0.1988764199130545
Relative absolute error: 11.098940263009965
Root relative squared error: 45.92854182890843
Weighted TruePositiveRate: 0.9204665959703076
Weighted MatthewsCorrelation: 0.3048735898528791
Weighted FMeasure: 0.9058083819150979
Iteration time: 509.0
Weighted AreaUnderPRC: 0.8804564619084227
Mean absolute error: 0.04162102598628736
Coverage of cases: 92.04665959703075
Instances selection time: 509.0
Test time: 827.0
Accumulative iteration time: 8171.0
Weighted Recall: 0.9204665959703076
Weighted FalsePositiveRate: 0.7013397614071814
Kappa statistic: 0.2778447149158637
Training time: 0.0
		
Iteration: 19
Labeled set size: 737
Unlabelled set size: 1149
	
Mean region size: 25.0
Incorrectly Classified Instances: 8.006362672322375
Correctly Classified Instances: 91.99363732767762
Weighted Precision: 0.894799885702362
Weighted AreaUnderROC: 0.6083139901751712
Root mean squared error: 0.19955239710385506
Relative absolute error: 11.15590842630945
Root relative squared error: 46.084652074138326
Weighted TruePositiveRate: 0.9199363732767762
Weighted MatthewsCorrelation: 0.29744369454330544
Weighted FMeasure: 0.9051113954780625
Iteration time: 515.0
Weighted AreaUnderPRC: 0.8795025591058523
Mean absolute error: 0.04183465659866044
Coverage of cases: 91.99363732767762
Instances selection time: 515.0
Test time: 848.0
Accumulative iteration time: 8686.0
Weighted Recall: 0.9199363732767762
Weighted FalsePositiveRate: 0.707706090437788
Kappa statistic: 0.2698730931931805
Training time: 0.0
		
Iteration: 20
Labeled set size: 757
Unlabelled set size: 1129
	
Mean region size: 25.0
Incorrectly Classified Instances: 8.006362672322375
Correctly Classified Instances: 91.99363732767762
Weighted Precision: 0.894799885702362
Weighted AreaUnderROC: 0.6087537599263066
Root mean squared error: 0.1995659081012071
Relative absolute error: 11.142948966680743
Root relative squared error: 46.08777230532162
Weighted TruePositiveRate: 0.9199363732767762
Weighted MatthewsCorrelation: 0.29744369454330544
Weighted FMeasure: 0.9051113954780625
Iteration time: 518.0
Weighted AreaUnderPRC: 0.8795703509262054
Mean absolute error: 0.04178605862505279
Coverage of cases: 91.99363732767762
Instances selection time: 518.0
Test time: 871.0
Accumulative iteration time: 9204.0
Weighted Recall: 0.9199363732767762
Weighted FalsePositiveRate: 0.707706090437788
Kappa statistic: 0.2698730931931805
Training time: 0.0
		
Iteration: 21
Labeled set size: 777
Unlabelled set size: 1109
	
Mean region size: 25.0
Incorrectly Classified Instances: 8.006362672322375
Correctly Classified Instances: 91.99363732767762
Weighted Precision: 0.894799885702362
Weighted AreaUnderROC: 0.6089736448018744
Root mean squared error: 0.1995787500439311
Relative absolute error: 11.130833944500838
Root relative squared error: 46.09073802495706
Weighted TruePositiveRate: 0.9199363732767762
Weighted MatthewsCorrelation: 0.29744369454330544
Weighted FMeasure: 0.9051113954780625
Iteration time: 521.0
Weighted AreaUnderPRC: 0.8796042492180008
Mean absolute error: 0.04174062729187814
Coverage of cases: 91.99363732767762
Instances selection time: 521.0
Test time: 887.0
Accumulative iteration time: 9725.0
Weighted Recall: 0.9199363732767762
Weighted FalsePositiveRate: 0.707706090437788
Kappa statistic: 0.2698730931931805
Training time: 0.0
		
Iteration: 22
Labeled set size: 797
Unlabelled set size: 1089
	
Mean region size: 25.0
Incorrectly Classified Instances: 7.900318133616119
Correctly Classified Instances: 92.09968186638388
Weighted Precision: 0.8953356704761285
Weighted AreaUnderROC: 0.6095326162943283
Root mean squared error: 0.1982649244608636
Relative absolute error: 10.978725160376266
Root relative squared error: 45.78732300333617
Weighted TruePositiveRate: 0.9209968186638389
Weighted MatthewsCorrelation: 0.303062409517688
Weighted FMeasure: 0.9057294485265394
Iteration time: 524.0
Weighted AreaUnderPRC: 0.8797155430710544
Mean absolute error: 0.041170219351411
Coverage of cases: 92.09968186638388
Instances selection time: 524.0
Test time: 914.0
Accumulative iteration time: 10249.0
Weighted Recall: 0.9209968186638389
Weighted FalsePositiveRate: 0.7076485928399429
Kappa statistic: 0.2734187950212281
Training time: 0.0
		
Iteration: 23
Labeled set size: 817
Unlabelled set size: 1069
	
Mean region size: 25.0
Incorrectly Classified Instances: 7.900318133616119
Correctly Classified Instances: 92.09968186638388
Weighted Precision: 0.8953356704761285
Weighted AreaUnderROC: 0.6095326162943283
Root mean squared error: 0.19827647823877204
Relative absolute error: 10.967885409068076
Root relative squared error: 45.789991234050405
Weighted TruePositiveRate: 0.9209968186638389
Weighted MatthewsCorrelation: 0.303062409517688
Weighted FMeasure: 0.9057294485265394
Iteration time: 529.0
Weighted AreaUnderPRC: 0.8797155430710544
Mean absolute error: 0.04112957028400529
Coverage of cases: 92.09968186638388
Instances selection time: 528.0
Test time: 933.0
Accumulative iteration time: 10778.0
Weighted Recall: 0.9209968186638389
Weighted FalsePositiveRate: 0.7076485928399429
Kappa statistic: 0.2734187950212281
Training time: 1.0
		
Iteration: 24
Labeled set size: 837
Unlabelled set size: 1049
	
Mean region size: 25.0
Incorrectly Classified Instances: 7.900318133616119
Correctly Classified Instances: 92.09968186638388
Weighted Precision: 0.8953356704761285
Weighted AreaUnderROC: 0.6095326162943283
Root mean squared error: 0.19828749480738697
Relative absolute error: 10.957561227323106
Root relative squared error: 45.79253540159256
Weighted TruePositiveRate: 0.9209968186638389
Weighted MatthewsCorrelation: 0.303062409517688
Weighted FMeasure: 0.9057294485265394
Iteration time: 528.0
Weighted AreaUnderPRC: 0.8797155430710544
Mean absolute error: 0.04109085460246165
Coverage of cases: 92.09968186638388
Instances selection time: 528.0
Test time: 953.0
Accumulative iteration time: 11306.0
Weighted Recall: 0.9209968186638389
Weighted FalsePositiveRate: 0.7076485928399429
Kappa statistic: 0.2734187950212281
Training time: 0.0
		
Iteration: 25
Labeled set size: 857
Unlabelled set size: 1029
	
Mean region size: 25.0
Incorrectly Classified Instances: 7.847295864262991
Correctly Classified Instances: 92.15270413573701
Weighted Precision: 0.8956227162213868
Weighted AreaUnderROC: 0.6098121020405552
Root mean squared error: 0.19763152929013267
Relative absolute error: 10.877348765860418
Root relative squared error: 45.6410466544062
Weighted TruePositiveRate: 0.9215270413573701
Weighted MatthewsCorrelation: 0.3059593027665764
Weighted FMeasure: 0.9060391190487903
Iteration time: 531.0
Weighted AreaUnderPRC: 0.879772579538309
Mean absolute error: 0.040790057871976565
Coverage of cases: 92.15270413573701
Instances selection time: 531.0
Test time: 976.0
Accumulative iteration time: 11837.0
Weighted Recall: 0.9215270413573701
Weighted FalsePositiveRate: 0.7076198440410203
Kappa statistic: 0.2752143498875663
Training time: 0.0
		
Iteration: 26
Labeled set size: 877
Unlabelled set size: 1009
	
Mean region size: 25.0
Incorrectly Classified Instances: 7.688229056203605
Correctly Classified Instances: 92.31177094379639
Weighted Precision: 0.8965740237145269
Weighted AreaUnderROC: 0.6106505592792361
Root mean squared error: 0.19562836141942389
Relative absolute error: 10.656817613806817
Root relative squared error: 45.17843485065191
Weighted TruePositiveRate: 0.9231177094379639
Weighted MatthewsCorrelation: 0.31502811895121324
Weighted FMeasure: 0.9069708678242765
Iteration time: 532.0
Weighted AreaUnderPRC: 0.8799502253337996
Mean absolute error: 0.03996306605177556
Coverage of cases: 92.31177094379639
Instances selection time: 532.0
Test time: 997.0
Accumulative iteration time: 12369.0
Weighted Recall: 0.9231177094379639
Weighted FalsePositiveRate: 0.7075335976442525
Kappa statistic: 0.2806941865297506
Training time: 0.0
		
Iteration: 27
Labeled set size: 897
Unlabelled set size: 989
	
Mean region size: 25.0
Incorrectly Classified Instances: 7.52916224814422
Correctly Classified Instances: 92.47083775185578
Weighted Precision: 0.8983520368657426
Weighted AreaUnderROC: 0.6114738188155662
Root mean squared error: 0.19360361073028584
Relative absolute error: 10.436661252186566
Root relative squared error: 44.710838708485625
Weighted TruePositiveRate: 0.9247083775185578
Weighted MatthewsCorrelation: 0.3250199422138514
Weighted FMeasure: 0.9082174819966227
Iteration time: 532.0
Weighted AreaUnderPRC: 0.8807569191880243
Mean absolute error: 0.03913747969569962
Coverage of cases: 92.47083775185578
Instances selection time: 532.0
Test time: 1027.0
Accumulative iteration time: 12901.0
Weighted Recall: 0.9247083775185578
Weighted FalsePositiveRate: 0.7074777466521858
Kappa statistic: 0.28612783017107646
Training time: 0.0
		
Iteration: 28
Labeled set size: 917
Unlabelled set size: 969
	
Mean region size: 25.0
Incorrectly Classified Instances: 7.4761399787910925
Correctly Classified Instances: 92.5238600212089
Weighted Precision: 0.8987237140087806
Weighted AreaUnderROC: 0.6124129591884963
Root mean squared error: 0.19292969008202326
Relative absolute error: 10.35728922905056
Root relative squared error: 44.555203401410886
Weighted TruePositiveRate: 0.925238600212089
Weighted MatthewsCorrelation: 0.3283921033391458
Weighted FMeasure: 0.9085292272171124
Iteration time: 538.0
Weighted AreaUnderPRC: 0.8809212690573959
Mean absolute error: 0.0388398346089396
Coverage of cases: 92.5238600212089
Instances selection time: 538.0
Test time: 1037.0
Accumulative iteration time: 13439.0
Weighted Recall: 0.925238600212089
Weighted FalsePositiveRate: 0.7074489978532632
Kappa statistic: 0.2880351262349063
Training time: 0.0
		
Iteration: 29
Labeled set size: 937
Unlabelled set size: 949
	
Mean region size: 25.0
Incorrectly Classified Instances: 7.4761399787910925
Correctly Classified Instances: 92.5238600212089
Weighted Precision: 0.8987237140087806
Weighted AreaUnderROC: 0.6124129591884963
Root mean squared error: 0.1929382494183664
Relative absolute error: 10.349019165945965
Root relative squared error: 44.5571800954676
Weighted TruePositiveRate: 0.925238600212089
Weighted MatthewsCorrelation: 0.3283921033391458
Weighted FMeasure: 0.9085292272171124
Iteration time: 532.0
Weighted AreaUnderPRC: 0.8809212690573959
Mean absolute error: 0.03880882187229737
Coverage of cases: 92.5238600212089
Instances selection time: 532.0
Test time: 1054.0
Accumulative iteration time: 13971.0
Weighted Recall: 0.925238600212089
Weighted FalsePositiveRate: 0.7074489978532632
Kappa statistic: 0.2880351262349063
Training time: 0.0
		
Iteration: 30
Labeled set size: 957
Unlabelled set size: 929
	
Mean region size: 25.0
Incorrectly Classified Instances: 7.4761399787910925
Correctly Classified Instances: 92.5238600212089
Weighted Precision: 0.8987237140087806
Weighted AreaUnderROC: 0.6128527289396318
Root mean squared error: 0.19294645316480455
Relative absolute error: 10.340873097633807
Root relative squared error: 44.559074669553375
Weighted TruePositiveRate: 0.925238600212089
Weighted MatthewsCorrelation: 0.3283921033391458
Weighted FMeasure: 0.9085292272171124
Iteration time: 533.0
Weighted AreaUnderPRC: 0.8809887250296623
Mean absolute error: 0.038778274116126776
Coverage of cases: 92.5238600212089
Instances selection time: 533.0
Test time: 1080.0
Accumulative iteration time: 14504.0
Weighted Recall: 0.925238600212089
Weighted FalsePositiveRate: 0.7074489978532632
Kappa statistic: 0.2880351262349063
Training time: 0.0
		
Iteration: 31
Labeled set size: 977
Unlabelled set size: 909
	
Mean region size: 25.0
Incorrectly Classified Instances: 7.423117709437964
Correctly Classified Instances: 92.57688229056204
Weighted Precision: 0.8991173529229541
Weighted AreaUnderROC: 0.6131322146858589
Root mean squared error: 0.19226894019748814
Relative absolute error: 10.26286682608092
Root relative squared error: 44.40260975192953
Weighted TruePositiveRate: 0.9257688229056203
Weighted MatthewsCorrelation: 0.3318452306425073
Weighted FMeasure: 0.908841492640287
Iteration time: 531.0
Weighted AreaUnderPRC: 0.8810534044129601
Mean absolute error: 0.03848575059780345
Coverage of cases: 92.57688229056204
Instances selection time: 531.0
Test time: 1102.0
Accumulative iteration time: 15035.0
Weighted Recall: 0.9257688229056203
Weighted FalsePositiveRate: 0.7074202490543405
Kappa statistic: 0.2899592864096209
Training time: 0.0
		
Iteration: 32
Labeled set size: 997
Unlabelled set size: 889
	
Mean region size: 25.0
Incorrectly Classified Instances: 7.370095440084835
Correctly Classified Instances: 92.62990455991516
Weighted Precision: 0.8995351532065684
Weighted AreaUnderROC: 0.6134117004320857
Root mean squared error: 0.19158860798726307
Relative absolute error: 10.185152662133506
Root relative squared error: 44.245493758044816
Weighted TruePositiveRate: 0.9262990455991517
Weighted MatthewsCorrelation: 0.33538294956302567
Weighted FMeasure: 0.9091542942403685
Iteration time: 530.0
Weighted AreaUnderPRC: 0.8811198323152095
Mean absolute error: 0.03819432248300065
Coverage of cases: 92.62990455991516
Instances selection time: 530.0
Test time: 1122.0
Accumulative iteration time: 15565.0
Weighted Recall: 0.9262990455991517
Weighted FalsePositiveRate: 0.7073915002554179
Kappa statistic: 0.29190053535446303
Training time: 0.0
		
Iteration: 33
Labeled set size: 1017
Unlabelled set size: 869
	
Mean region size: 25.0
Incorrectly Classified Instances: 7.370095440084835
Correctly Classified Instances: 92.62990455991516
Weighted Precision: 0.8998192509995401
Weighted AreaUnderROC: 0.6102682218391497
Root mean squared error: 0.19159583483819137
Relative absolute error: 10.178132829687272
Root relative squared error: 44.24716272777635
Weighted TruePositiveRate: 0.9262990455991517
Weighted MatthewsCorrelation: 0.32843551903362045
Weighted FMeasure: 0.9091120467010783
Iteration time: 529.0
Weighted AreaUnderPRC: 0.8810282197443748
Mean absolute error: 0.03816799811132727
Coverage of cases: 92.62990455991516
Instances selection time: 529.0
Test time: 1144.0
Accumulative iteration time: 16094.0
Weighted Recall: 0.9262990455991517
Weighted FalsePositiveRate: 0.7137442781894524
Kappa statistic: 0.28864563886597505
Training time: 0.0
		
Iteration: 34
Labeled set size: 1037
Unlabelled set size: 849
	
Mean region size: 25.0
Incorrectly Classified Instances: 7.370095440084835
Correctly Classified Instances: 92.62990455991516
Weighted Precision: 0.8998192509995401
Weighted AreaUnderROC: 0.6102682218391497
Root mean squared error: 0.19160278935690545
Relative absolute error: 10.171382734176925
Root relative squared error: 44.24876880507701
Weighted TruePositiveRate: 0.9262990455991517
Weighted MatthewsCorrelation: 0.32843551903362045
Weighted FMeasure: 0.9091120467010783
Iteration time: 530.0
Weighted AreaUnderPRC: 0.8810282197443748
Mean absolute error: 0.03814268525316347
Coverage of cases: 92.62990455991516
Instances selection time: 530.0
Test time: 1160.0
Accumulative iteration time: 16624.0
Weighted Recall: 0.9262990455991517
Weighted FalsePositiveRate: 0.7137442781894524
Kappa statistic: 0.28864563886597505
Training time: 0.0
		
Iteration: 35
Labeled set size: 1057
Unlabelled set size: 829
	
Mean region size: 25.0
Incorrectly Classified Instances: 7.370095440084835
Correctly Classified Instances: 92.62990455991516
Weighted Precision: 0.8983971862208001
Weighted AreaUnderROC: 0.607135009511722
Root mean squared error: 0.19160948664615596
Relative absolute error: 10.164887121712004
Root relative squared error: 44.25031547777766
Weighted TruePositiveRate: 0.9262990455991517
Weighted MatthewsCorrelation: 0.3238287630663953
Weighted FMeasure: 0.9083995451135085
Iteration time: 526.0
Weighted AreaUnderPRC: 0.8804477369269973
Mean absolute error: 0.038118326706420014
Coverage of cases: 92.62990455991516
Instances selection time: 526.0
Test time: 1185.0
Accumulative iteration time: 17150.0
Weighted Recall: 0.9262990455991517
Weighted FalsePositiveRate: 0.7200818584211366
Kappa statistic: 0.28224181360201517
Training time: 0.0
		
Iteration: 36
Labeled set size: 1077
Unlabelled set size: 809
	
Mean region size: 25.0
Incorrectly Classified Instances: 7.370095440084835
Correctly Classified Instances: 92.62990455991516
Weighted Precision: 0.8983971862208001
Weighted AreaUnderROC: 0.6080297686056584
Root mean squared error: 0.19161593007001265
Relative absolute error: 10.158240200392394
Root relative squared error: 44.251803522776925
Weighted TruePositiveRate: 0.9262990455991517
Weighted MatthewsCorrelation: 0.3238287630663953
Weighted FMeasure: 0.9083995451135085
Iteration time: 520.0
Weighted AreaUnderPRC: 0.8805846918062751
Mean absolute error: 0.038093400751471475
Coverage of cases: 92.62990455991516
Instances selection time: 520.0
Test time: 1204.0
Accumulative iteration time: 17670.0
Weighted Recall: 0.9262990455991517
Weighted FalsePositiveRate: 0.7200818584211366
Kappa statistic: 0.28224181360201517
Training time: 0.0
		
Iteration: 37
Labeled set size: 1097
Unlabelled set size: 789
	
Mean region size: 25.0
Incorrectly Classified Instances: 7.370095440084835
Correctly Classified Instances: 92.62990455991516
Weighted Precision: 0.8983971862208001
Weighted AreaUnderROC: 0.6080297686056584
Root mean squared error: 0.191622154305367
Relative absolute error: 10.152219307100443
Root relative squared error: 44.25324094835986
Weighted TruePositiveRate: 0.9262990455991517
Weighted MatthewsCorrelation: 0.3238287630663953
Weighted FMeasure: 0.9083995451135085
Iteration time: 518.0
Weighted AreaUnderPRC: 0.8805846918062751
Mean absolute error: 0.03807082240162666
Coverage of cases: 92.62990455991516
Instances selection time: 518.0
Test time: 1225.0
Accumulative iteration time: 18188.0
Weighted Recall: 0.9262990455991517
Weighted FalsePositiveRate: 0.7200818584211366
Kappa statistic: 0.28224181360201517
Training time: 0.0
		
Iteration: 38
Labeled set size: 1117
Unlabelled set size: 769
	
Mean region size: 25.0
Incorrectly Classified Instances: 7.317073170731708
Correctly Classified Instances: 92.6829268292683
Weighted Precision: 0.8988035100825877
Weighted AreaUnderROC: 0.6058572424093863
Root mean squared error: 0.19093764335433683
Relative absolute error: 10.07568587174563
Root relative squared error: 44.095159915623654
Weighted TruePositiveRate: 0.926829268292683
Weighted MatthewsCorrelation: 0.3202030101503762
Weighted FMeasure: 0.9084994965790987
Iteration time: 512.0
Weighted AreaUnderPRC: 0.8803183743537107
Mean absolute error: 0.037783822019046114
Coverage of cases: 92.6829268292683
Instances selection time: 512.0
Test time: 1253.0
Accumulative iteration time: 18700.0
Weighted Recall: 0.926829268292683
Weighted FalsePositiveRate: 0.726390689853898
Kappa statistic: 0.2809322783131467
Training time: 0.0
		
Iteration: 39
Labeled set size: 1137
Unlabelled set size: 749
	
Mean region size: 25.0
Incorrectly Classified Instances: 7.317073170731708
Correctly Classified Instances: 92.6829268292683
Weighted Precision: 0.8988035100825877
Weighted AreaUnderROC: 0.6060827605369862
Root mean squared error: 0.19094341799444287
Relative absolute error: 10.069991124140685
Root relative squared error: 44.09649351163153
Weighted TruePositiveRate: 0.926829268292683
Weighted MatthewsCorrelation: 0.3202030101503762
Weighted FMeasure: 0.9084994965790987
Iteration time: 508.0
Weighted AreaUnderPRC: 0.8803528756098059
Mean absolute error: 0.03776246671552757
Coverage of cases: 92.6829268292683
Instances selection time: 508.0
Test time: 1287.0
Accumulative iteration time: 19208.0
Weighted Recall: 0.926829268292683
Weighted FalsePositiveRate: 0.726390689853898
Kappa statistic: 0.2809322783131467
Training time: 0.0
		
Iteration: 40
Labeled set size: 1157
Unlabelled set size: 729
	
Mean region size: 25.0
Incorrectly Classified Instances: 7.317073170731708
Correctly Classified Instances: 92.6829268292683
Weighted Precision: 0.8988035100825877
Weighted AreaUnderROC: 0.6060827605369862
Root mean squared error: 0.1909489995192042
Relative absolute error: 10.064583756268393
Root relative squared error: 44.0977825095609
Weighted TruePositiveRate: 0.926829268292683
Weighted MatthewsCorrelation: 0.3202030101503762
Weighted FMeasure: 0.9084994965790987
Iteration time: 509.0
Weighted AreaUnderPRC: 0.8803528756098059
Mean absolute error: 0.03774218908600647
Coverage of cases: 92.6829268292683
Instances selection time: 509.0
Test time: 1298.0
Accumulative iteration time: 19717.0
Weighted Recall: 0.926829268292683
Weighted FalsePositiveRate: 0.726390689853898
Kappa statistic: 0.2809322783131467
Training time: 0.0
		
Iteration: 41
Labeled set size: 1177
Unlabelled set size: 709
	
Mean region size: 25.0
Incorrectly Classified Instances: 7.317073170731708
Correctly Classified Instances: 92.6829268292683
Weighted Precision: 0.8988035100825877
Weighted AreaUnderROC: 0.6060827605369862
Root mean squared error: 0.19095439521065533
Relative absolute error: 10.059359536173696
Root relative squared error: 44.09902859112562
Weighted TruePositiveRate: 0.926829268292683
Weighted MatthewsCorrelation: 0.3202030101503762
Weighted FMeasure: 0.9084994965790987
Iteration time: 506.0
Weighted AreaUnderPRC: 0.8803528756098059
Mean absolute error: 0.03772259826065136
Coverage of cases: 92.6829268292683
Instances selection time: 506.0
Test time: 1312.0
Accumulative iteration time: 20223.0
Weighted Recall: 0.926829268292683
Weighted FalsePositiveRate: 0.726390689853898
Kappa statistic: 0.2809322783131467
Training time: 0.0
		
Iteration: 42
Labeled set size: 1197
Unlabelled set size: 689
	
Mean region size: 25.0
Incorrectly Classified Instances: 7.317073170731708
Correctly Classified Instances: 92.6829268292683
Weighted Precision: 0.8988035100825877
Weighted AreaUnderROC: 0.6063082786645859
Root mean squared error: 0.19095961042343457
Relative absolute error: 10.054103370065633
Root relative squared error: 44.10023299292641
Weighted TruePositiveRate: 0.926829268292683
Weighted MatthewsCorrelation: 0.3202030101503762
Weighted FMeasure: 0.9084994965790987
Iteration time: 495.0
Weighted AreaUnderPRC: 0.8803873785066213
Mean absolute error: 0.037702887637746124
Coverage of cases: 92.6829268292683
Instances selection time: 494.0
Test time: 1337.0
Accumulative iteration time: 20718.0
Weighted Recall: 0.926829268292683
Weighted FalsePositiveRate: 0.726390689853898
Kappa statistic: 0.2809322783131467
Training time: 1.0
		
Iteration: 43
Labeled set size: 1217
Unlabelled set size: 669
	
Mean region size: 25.0
Incorrectly Classified Instances: 7.264050901378579
Correctly Classified Instances: 92.73594909862142
Weighted Precision: 0.8993095673469338
Weighted AreaUnderROC: 0.6068132825384125
Root mean squared error: 0.19027153806127015
Relative absolute error: 9.97865600685676
Root relative squared error: 43.941329487519376
Weighted TruePositiveRate: 0.9273594909862142
Weighted MatthewsCorrelation: 0.32399972176582204
Weighted FMeasure: 0.9088086658953964
Iteration time: 487.0
Weighted AreaUnderPRC: 0.8804894607332803
Mean absolute error: 0.03741996002571285
Coverage of cases: 92.73594909862142
Instances selection time: 487.0
Test time: 1359.0
Accumulative iteration time: 21205.0
Weighted Recall: 0.9273594909862142
Weighted FalsePositiveRate: 0.7263619410549753
Kappa statistic: 0.28288575329995425
Training time: 0.0
		
Iteration: 44
Labeled set size: 1237
Unlabelled set size: 649
	
Mean region size: 25.0
Incorrectly Classified Instances: 7.21102863202545
Correctly Classified Instances: 92.78897136797455
Weighted Precision: 0.9001573197737389
Weighted AreaUnderROC: 0.6070851694334642
Root mean squared error: 0.18958073566941236
Relative absolute error: 9.90346135033301
Root relative squared error: 43.781795508761014
Weighted TruePositiveRate: 0.9278897136797455
Weighted MatthewsCorrelation: 0.32806039342735493
Weighted FMeasure: 0.9092887633324752
Iteration time: 483.0
Weighted AreaUnderPRC: 0.8809272303002197
Mean absolute error: 0.03713798006374879
Coverage of cases: 92.78897136797455
Instances selection time: 483.0
Test time: 1383.0
Accumulative iteration time: 21688.0
Weighted Recall: 0.9278897136797455
Weighted FalsePositiveRate: 0.7263483899584033
Kappa statistic: 0.28475742720585384
Training time: 0.0
		
Iteration: 45
Labeled set size: 1257
Unlabelled set size: 629
	
Mean region size: 25.0
Incorrectly Classified Instances: 7.158006362672323
Correctly Classified Instances: 92.84199363732768
Weighted Precision: 0.9007028716263948
Weighted AreaUnderROC: 0.6073646551796914
Root mean squared error: 0.18888718206040558
Relative absolute error: 9.82840938558008
Root relative squared error: 43.621626163618004
Weighted TruePositiveRate: 0.9284199363732768
Weighted MatthewsCorrelation: 0.3320675217037752
Weighted FMeasure: 0.9095983127682917
Iteration time: 478.0
Weighted AreaUnderPRC: 0.8809972607294306
Mean absolute error: 0.0368565351959253
Coverage of cases: 92.84199363732768
Instances selection time: 478.0
Test time: 1402.0
Accumulative iteration time: 22166.0
Weighted Recall: 0.9284199363732768
Weighted FalsePositiveRate: 0.7263196411594809
Kappa statistic: 0.286746785444155
Training time: 0.0
		
Iteration: 46
Labeled set size: 1277
Unlabelled set size: 609
	
Mean region size: 25.0
Incorrectly Classified Instances: 7.158006362672323
Correctly Classified Instances: 92.84199363732768
Weighted Precision: 0.9007028716263948
Weighted AreaUnderROC: 0.6073646551796914
Root mean squared error: 0.1888917210432463
Relative absolute error: 9.823969034532558
Root relative squared error: 43.62267439680398
Weighted TruePositiveRate: 0.9284199363732768
Weighted MatthewsCorrelation: 0.3320675217037752
Weighted FMeasure: 0.9095983127682917
Iteration time: 491.0
Weighted AreaUnderPRC: 0.8809972607294306
Mean absolute error: 0.03683988387949709
Coverage of cases: 92.84199363732768
Instances selection time: 491.0
Test time: 1429.0
Accumulative iteration time: 22657.0
Weighted Recall: 0.9284199363732768
Weighted FalsePositiveRate: 0.7263196411594809
Kappa statistic: 0.286746785444155
Training time: 0.0
		
Time end:Tue Oct 31 12.37.16 EET 2017