Tue Oct 31 12.30.32 EET 2017
Dataset: hypothyroid
Test set size: 1886
Initial Labelled set size: 377
Initial Unlabelled set size: 1509
Batch mode: QBestBatchMode
Batch size: 20
Classifiers: RandomForest-1cores
Scenario: PoolBasedSamplingScenario
Query strategy: LeastConfidentSamplingQueryStrategy-1cores
Time begining: Tue Oct 31 12.30.32 EET 2017
		
Iteration: 1
Labeled set size: 377
Unlabelled set size: 1509
	
Mean region size: 31.548250265111346
Incorrectly Classified Instances: 4.40084835630965
Correctly Classified Instances: 95.59915164369035
Weighted Precision: 0.9516777954227057
Weighted AreaUnderROC: 0.989748060919497
Root mean squared error: 0.1169835016447581
Relative absolute error: 8.878650390123958
Root relative squared error: 27.01618246613845
Weighted TruePositiveRate: 0.9559915164369035
Weighted MatthewsCorrelation: 0.6864377374013807
Weighted FMeasure: 0.9518814314188173
Iteration time: 20.0
Weighted AreaUnderPRC: 0.9822504042325831
Mean absolute error: 0.03329493896296484
Coverage of cases: 99.68186638388123
Instances selection time: 7.0
Test time: 11.0
Accumulative iteration time: 20.0
Weighted Recall: 0.9559915164369035
Weighted FalsePositiveRate: 0.3762729885752335
Kappa statistic: 0.6449693137437231
Training time: 13.0
		
Iteration: 2
Labeled set size: 397
Unlabelled set size: 1489
	
Mean region size: 31.95917285259809
Incorrectly Classified Instances: 3.022269353128314
Correctly Classified Instances: 96.97773064687169
Weighted Precision: 0.9672289382917617
Weighted AreaUnderROC: 0.9965441812393308
Root mean squared error: 0.10026544530126238
Relative absolute error: 7.874592048994148
Root relative squared error: 23.155312734040617
Weighted TruePositiveRate: 0.9697773064687168
Weighted MatthewsCorrelation: 0.7956559894067791
Weighted FMeasure: 0.9677032886006085
Iteration time: 21.0
Weighted AreaUnderPRC: 0.9928000618415863
Mean absolute error: 0.029529720183728052
Coverage of cases: 99.94697773064688
Instances selection time: 7.0
Test time: 11.0
Accumulative iteration time: 41.0
Weighted Recall: 0.9697773064687168
Weighted FalsePositiveRate: 0.25509629769889847
Kappa statistic: 0.7685540819841543
Training time: 14.0
		
Iteration: 3
Labeled set size: 417
Unlabelled set size: 1469
	
Mean region size: 32.979851537645814
Incorrectly Classified Instances: 1.378579003181336
Correctly Classified Instances: 98.62142099681867
Weighted Precision: 0.9861689512122248
Weighted AreaUnderROC: 0.9956602295878006
Root mean squared error: 0.09241788448493972
Relative absolute error: 7.708245009513404
Root relative squared error: 21.342996194126275
Weighted TruePositiveRate: 0.9862142099681867
Weighted MatthewsCorrelation: 0.9174055089361604
Weighted FMeasure: 0.986132918504782
Iteration time: 22.0
Weighted AreaUnderPRC: 0.9924034131509828
Mean absolute error: 0.028905918785675264
Coverage of cases: 99.94697773064688
Instances selection time: 7.0
Test time: 12.0
Accumulative iteration time: 63.0
Weighted Recall: 0.9862142099681867
Weighted FalsePositiveRate: 0.051387319816057736
Kappa statistic: 0.9064312755693962
Training time: 15.0
		
Iteration: 4
Labeled set size: 437
Unlabelled set size: 1449
	
Mean region size: 31.786850477200424
Incorrectly Classified Instances: 1.5906680805938493
Correctly Classified Instances: 98.40933191940616
Weighted Precision: 0.9848139250310491
Weighted AreaUnderROC: 0.9957515770852764
Root mean squared error: 0.08790445045170468
Relative absolute error: 6.5481268614728405
Root relative squared error: 20.300663252503128
Weighted TruePositiveRate: 0.9840933191940615
Weighted MatthewsCorrelation: 0.9106057723960694
Weighted FMeasure: 0.9841677331667015
Iteration time: 24.0
Weighted AreaUnderPRC: 0.9927358728141363
Mean absolute error: 0.02455547573052315
Coverage of cases: 99.78791092258749
Instances selection time: 7.0
Test time: 12.0
Accumulative iteration time: 87.0
Weighted Recall: 0.9840933191940615
Weighted FalsePositiveRate: 0.04517993248241466
Kappa statistic: 0.893333836060629
Training time: 17.0
		
Iteration: 5
Labeled set size: 457
Unlabelled set size: 1429
	
Mean region size: 33.98727465535525
Incorrectly Classified Instances: 1.0604453870625663
Correctly Classified Instances: 98.93955461293743
Weighted Precision: 0.9890693757892244
Weighted AreaUnderROC: 0.9972044065103438
Root mean squared error: 0.0937865949660468
Relative absolute error: 8.874227319460749
Root relative squared error: 21.65908634001021
Weighted TruePositiveRate: 0.9893955461293743
Weighted MatthewsCorrelation: 0.9262908666749964
Weighted FMeasure: 0.9892099596548297
Iteration time: 29.0
Weighted AreaUnderPRC: 0.9969144050431856
Mean absolute error: 0.03327835244797781
Coverage of cases: 99.89395546129374
Instances selection time: 8.0
Test time: 13.0
Accumulative iteration time: 116.0
Weighted Recall: 0.9893955461293743
Weighted FalsePositiveRate: 0.05121482702252213
Kappa statistic: 0.9275835323570291
Training time: 21.0
		
Iteration: 6
Labeled set size: 477
Unlabelled set size: 1409
	
Mean region size: 33.04612937433722
Incorrectly Classified Instances: 1.007423117709438
Correctly Classified Instances: 98.99257688229056
Weighted Precision: 0.9899897735282469
Weighted AreaUnderROC: 0.997344858711637
Root mean squared error: 0.08397902215390134
Relative absolute error: 7.141793894062265
Root relative squared error: 19.394124418734595
Weighted TruePositiveRate: 0.9899257688229056
Weighted MatthewsCorrelation: 0.9410050584948053
Weighted FMeasure: 0.989845423753224
Iteration time: 28.0
Weighted AreaUnderPRC: 0.9959668492475686
Mean absolute error: 0.026781727102733494
Coverage of cases: 99.89395546129374
Instances selection time: 7.0
Test time: 12.0
Accumulative iteration time: 144.0
Weighted Recall: 0.9899257688229056
Weighted FalsePositiveRate: 0.019482979362828733
Kappa statistic: 0.9324829483362852
Training time: 21.0
		
Iteration: 7
Labeled set size: 497
Unlabelled set size: 1389
	
Mean region size: 33.48356309650053
Incorrectly Classified Instances: 1.325556733828208
Correctly Classified Instances: 98.67444326617179
Weighted Precision: 0.9865092658491719
Weighted AreaUnderROC: 0.9980876728550248
Root mean squared error: 0.08698073662262289
Relative absolute error: 7.539490949713464
Root relative squared error: 20.087340681353307
Weighted TruePositiveRate: 0.986744432661718
Weighted MatthewsCorrelation: 0.9235722097692444
Weighted FMeasure: 0.9866051621711894
Iteration time: 29.0
Weighted AreaUnderPRC: 0.996507059970569
Mean absolute error: 0.02827309106142549
Coverage of cases: 100.0
Instances selection time: 7.0
Test time: 12.0
Accumulative iteration time: 173.0
Weighted Recall: 0.986744432661718
Weighted FalsePositiveRate: 0.051328175612434
Kappa statistic: 0.909479415446287
Training time: 22.0
		
Iteration: 8
Labeled set size: 517
Unlabelled set size: 1369
	
Mean region size: 32.70148462354189
Incorrectly Classified Instances: 1.1664899257688228
Correctly Classified Instances: 98.83351007423117
Weighted Precision: 0.9881759822585191
Weighted AreaUnderROC: 0.9977119548631554
Root mean squared error: 0.08235165437039328
Relative absolute error: 6.894518498657781
Root relative squared error: 19.018299927583033
Weighted TruePositiveRate: 0.9883351007423118
Weighted MatthewsCorrelation: 0.9257915760332697
Weighted FMeasure: 0.9882076250718296
Iteration time: 28.0
Weighted AreaUnderPRC: 0.9975929744931896
Mean absolute error: 0.02585444436996668
Coverage of cases: 99.94697773064688
Instances selection time: 6.0
Test time: 12.0
Accumulative iteration time: 201.0
Weighted Recall: 0.9883351007423118
Weighted FalsePositiveRate: 0.044934744388683286
Kappa statistic: 0.9208340170268302
Training time: 22.0
		
Iteration: 9
Labeled set size: 537
Unlabelled set size: 1349
	
Mean region size: 32.436373276776244
Incorrectly Classified Instances: 0.7953340402969247
Correctly Classified Instances: 99.20466595970308
Weighted Precision: 0.9915211550227483
Weighted AreaUnderROC: 0.9981837455175893
Root mean squared error: 0.08164526564340015
Relative absolute error: 6.859471570789144
Root relative squared error: 18.855166438910235
Weighted TruePositiveRate: 0.9920466595970308
Weighted MatthewsCorrelation: 0.9434076669398545
Weighted FMeasure: 0.9917512511928975
Iteration time: 31.0
Weighted AreaUnderPRC: 0.9979757908279796
Mean absolute error: 0.02572301839045929
Coverage of cases: 99.94697773064688
Instances selection time: 6.0
Test time: 14.0
Accumulative iteration time: 232.0
Weighted Recall: 0.9920466595970308
Weighted FalsePositiveRate: 0.05742386096194373
Kappa statistic: 0.9444605864522311
Training time: 25.0
		
Iteration: 10
Labeled set size: 557
Unlabelled set size: 1329
	
Mean region size: 32.74125132555673
Incorrectly Classified Instances: 1.007423117709438
Correctly Classified Instances: 98.99257688229056
Weighted Precision: 0.9897285085031595
Weighted AreaUnderROC: 0.9968905206477359
Root mean squared error: 0.08290220367000128
Relative absolute error: 7.081073972460832
Root relative squared error: 19.14544384211537
Weighted TruePositiveRate: 0.9899257688229056
Weighted MatthewsCorrelation: 0.939878887160742
Weighted FMeasure: 0.9897841150267304
Iteration time: 34.0
Weighted AreaUnderPRC: 0.9968390405717958
Mean absolute error: 0.02655402739672812
Coverage of cases: 99.94697773064688
Instances selection time: 7.0
Test time: 15.0
Accumulative iteration time: 266.0
Weighted Recall: 0.9899257688229056
Weighted FalsePositiveRate: 0.03215813982619683
Kappa statistic: 0.9316359002144367
Training time: 27.0
		
Iteration: 11
Labeled set size: 577
Unlabelled set size: 1309
	
Mean region size: 34.04029692470838
Incorrectly Classified Instances: 1.325556733828208
Correctly Classified Instances: 98.67444326617179
Weighted Precision: 0.9862329072465702
Weighted AreaUnderROC: 0.9974202286349975
Root mean squared error: 0.08806729220483239
Relative absolute error: 8.008414161955992
Root relative squared error: 20.338269944504567
Weighted TruePositiveRate: 0.986744432661718
Weighted MatthewsCorrelation: 0.9156750229043359
Weighted FMeasure: 0.9864671120860047
Iteration time: 37.0
Weighted AreaUnderPRC: 0.996685582607155
Mean absolute error: 0.03003155310733497
Coverage of cases: 99.94697773064688
Instances selection time: 7.0
Test time: 15.0
Accumulative iteration time: 303.0
Weighted Recall: 0.986744432661718
Weighted FalsePositiveRate: 0.0766784965391702
Kappa statistic: 0.9077321080522573
Training time: 30.0
		
Iteration: 12
Labeled set size: 597
Unlabelled set size: 1289
	
Mean region size: 32.34358430540827
Incorrectly Classified Instances: 1.325556733828208
Correctly Classified Instances: 98.67444326617179
Weighted Precision: 0.9861160775260117
Weighted AreaUnderROC: 0.997059676010856
Root mean squared error: 0.08624762677837586
Relative absolute error: 7.154438323431247
Root relative squared error: 19.91803621498467
Weighted TruePositiveRate: 0.986744432661718
Weighted MatthewsCorrelation: 0.9087295348687068
Weighted FMeasure: 0.9863865040359725
Iteration time: 38.0
Weighted AreaUnderPRC: 0.9961922698030088
Mean absolute error: 0.026829143712867178
Coverage of cases: 99.89395546129374
Instances selection time: 8.0
Test time: 16.0
Accumulative iteration time: 341.0
Weighted Recall: 0.986744432661718
Weighted FalsePositiveRate: 0.08938405240723941
Kappa statistic: 0.9071345849319712
Training time: 30.0
		
Iteration: 13
Labeled set size: 617
Unlabelled set size: 1269
	
Mean region size: 33.03287380699894
Incorrectly Classified Instances: 1.4846235418875928
Correctly Classified Instances: 98.51537645811241
Weighted Precision: 0.9845112762279801
Weighted AreaUnderROC: 0.9961919242671089
Root mean squared error: 0.08801045527551195
Relative absolute error: 7.388673690548967
Root relative squared error: 20.325144017927336
Weighted TruePositiveRate: 0.985153764581124
Weighted MatthewsCorrelation: 0.9040912729776179
Weighted FMeasure: 0.9848181199547895
Iteration time: 37.0
Weighted AreaUnderPRC: 0.996008106670099
Mean absolute error: 0.027707526339558627
Coverage of cases: 99.94697773064688
Instances selection time: 8.0
Test time: 14.0
Accumulative iteration time: 378.0
Weighted Recall: 0.985153764581124
Weighted FalsePositiveRate: 0.08947029880400723
Kappa statistic: 0.896316250358322
Training time: 29.0
		
Iteration: 14
Labeled set size: 637
Unlabelled set size: 1249
	
Mean region size: 30.275715800636267
Incorrectly Classified Instances: 1.0604453870625663
Correctly Classified Instances: 98.93955461293743
Weighted Precision: 0.9889902954767401
Weighted AreaUnderROC: 0.9977848085261192
Root mean squared error: 0.07484927231200955
Relative absolute error: 5.300342936609579
Root relative squared error: 17.285699007194527
Weighted TruePositiveRate: 0.9893955461293743
Weighted MatthewsCorrelation: 0.9320503854410978
Weighted FMeasure: 0.9891812243503014
Iteration time: 34.0
Weighted AreaUnderPRC: 0.9975035347221488
Mean absolute error: 0.01987628601228592
Coverage of cases: 99.89395546129374
Instances selection time: 6.0
Test time: 13.0
Accumulative iteration time: 412.0
Weighted Recall: 0.9893955461293743
Weighted FalsePositiveRate: 0.05121482702252213
Kappa statistic: 0.9271235036360964
Training time: 28.0
		
Iteration: 15
Labeled set size: 657
Unlabelled set size: 1229
	
Mean region size: 33.16542948038176
Incorrectly Classified Instances: 1.696712619300106
Correctly Classified Instances: 98.3032873806999
Weighted Precision: 0.9825072167508976
Weighted AreaUnderROC: 0.9961850672736714
Root mean squared error: 0.09357095832873083
Relative absolute error: 8.04347429017632
Root relative squared error: 21.609287191769603
Weighted TruePositiveRate: 0.9830328738069989
Weighted MatthewsCorrelation: 0.8897167189594545
Weighted FMeasure: 0.9827699698185612
Iteration time: 39.0
Weighted AreaUnderPRC: 0.9950633380109679
Mean absolute error: 0.030163028588161202
Coverage of cases: 99.94697773064688
Instances selection time: 7.0
Test time: 16.0
Accumulative iteration time: 451.0
Weighted Recall: 0.9830328738069989
Weighted FalsePositiveRate: 0.09592287423138167
Kappa statistic: 0.882252866028297
Training time: 32.0
		
Iteration: 16
Labeled set size: 677
Unlabelled set size: 1209
	
Mean region size: 30.951749734888654
Incorrectly Classified Instances: 1.1134676564156947
Correctly Classified Instances: 98.8865323435843
Weighted Precision: 0.9883028173965837
Weighted AreaUnderROC: 0.9971358428613796
Root mean squared error: 0.083718678368804
Relative absolute error: 6.223195297414705
Root relative squared error: 19.33400059697148
Weighted TruePositiveRate: 0.9888653234358431
Weighted MatthewsCorrelation: 0.9229692714886338
Weighted FMeasure: 0.9884332153801492
Iteration time: 40.0
Weighted AreaUnderPRC: 0.996073117187321
Mean absolute error: 0.023336982365305143
Coverage of cases: 99.94697773064688
Instances selection time: 10.0
Test time: 14.0
Accumulative iteration time: 491.0
Weighted Recall: 0.9888653234358431
Weighted FalsePositiveRate: 0.09560663744323306
Kappa statistic: 0.920439525120026
Training time: 30.0
		
Iteration: 17
Labeled set size: 697
Unlabelled set size: 1189
	
Mean region size: 29.931071049840934
Incorrectly Classified Instances: 0.848356309650053
Correctly Classified Instances: 99.15164369034994
Weighted Precision: 0.9912830389418733
Weighted AreaUnderROC: 0.9982130200622987
Root mean squared error: 0.07136562824470817
Relative absolute error: 4.879574251659275
Root relative squared error: 16.48118587118761
Weighted TruePositiveRate: 0.9915164369034994
Weighted MatthewsCorrelation: 0.9539627084104677
Weighted FMeasure: 0.991350483398291
Iteration time: 37.0
Weighted AreaUnderPRC: 0.9973797663134196
Mean absolute error: 0.01829840344372228
Coverage of cases: 99.94697773064688
Instances selection time: 6.0
Test time: 15.0
Accumulative iteration time: 528.0
Weighted Recall: 0.9915164369034994
Weighted FalsePositiveRate: 0.01939673296606093
Kappa statistic: 0.9424247396558763
Training time: 31.0
		
Iteration: 18
Labeled set size: 717
Unlabelled set size: 1169
	
Mean region size: 32.06521739130435
Incorrectly Classified Instances: 1.5376458112407212
Correctly Classified Instances: 98.46235418875928
Weighted Precision: 0.9838631075876887
Weighted AreaUnderROC: 0.9953301234989026
Root mean squared error: 0.08738238352039202
Relative absolute error: 6.9281824858459755
Root relative squared error: 20.180097059171782
Weighted TruePositiveRate: 0.9846235418875928
Weighted MatthewsCorrelation: 0.8995519539354562
Weighted FMeasure: 0.984208976448085
Iteration time: 40.0
Weighted AreaUnderPRC: 0.9956744023474225
Mean absolute error: 0.025980684321922406
Coverage of cases: 99.89395546129374
Instances selection time: 6.0
Test time: 14.0
Accumulative iteration time: 568.0
Weighted Recall: 0.9846235418875928
Weighted FalsePositiveRate: 0.10217420806629791
Kappa statistic: 0.8915524570920976
Training time: 34.0
		
Iteration: 19
Labeled set size: 737
Unlabelled set size: 1149
	
Mean region size: 29.811770943796393
Incorrectly Classified Instances: 1.0604453870625663
Correctly Classified Instances: 98.93955461293743
Weighted Precision: 0.9896004536998227
Weighted AreaUnderROC: 0.996736027147353
Root mean squared error: 0.07733749326211241
Relative absolute error: 5.026727019741821
Root relative squared error: 17.86032902133259
Weighted TruePositiveRate: 0.9893955461293743
Weighted MatthewsCorrelation: 0.939941698708148
Weighted FMeasure: 0.9893065812483807
Iteration time: 36.0
Weighted AreaUnderPRC: 0.99534244920766
Mean absolute error: 0.018850226324031827
Coverage of cases: 99.94697773064688
Instances selection time: 5.0
Test time: 13.0
Accumulative iteration time: 604.0
Weighted Recall: 0.9893955461293743
Weighted FalsePositiveRate: 0.025894901500487084
Kappa statistic: 0.928452471728104
Training time: 31.0
		
Iteration: 20
Labeled set size: 757
Unlabelled set size: 1129
	
Mean region size: 29.308059384941675
Incorrectly Classified Instances: 1.1134676564156947
Correctly Classified Instances: 98.8865323435843
Weighted Precision: 0.9890367594075895
Weighted AreaUnderROC: 0.9986621194413802
Root mean squared error: 0.07032171071467501
Relative absolute error: 4.347126359139901
Root relative squared error: 16.240103444397043
Weighted TruePositiveRate: 0.9888653234358431
Weighted MatthewsCorrelation: 0.9512835278501888
Weighted FMeasure: 0.9886608530138674
Iteration time: 38.0
Weighted AreaUnderPRC: 0.9972897110194089
Mean absolute error: 0.01630172384677463
Coverage of cases: 99.94697773064688
Instances selection time: 6.0
Test time: 13.0
Accumulative iteration time: 642.0
Weighted Recall: 0.9888653234358431
Weighted FalsePositiveRate: 0.01957087236537507
Kappa statistic: 0.9243819735606116
Training time: 32.0
		
Iteration: 21
Labeled set size: 777
Unlabelled set size: 1109
	
Mean region size: 30.090137857900316
Incorrectly Classified Instances: 0.7953340402969247
Correctly Classified Instances: 99.20466595970308
Weighted Precision: 0.9915802100816191
Weighted AreaUnderROC: 0.9980083499745325
Root mean squared error: 0.07232412494159628
Relative absolute error: 4.980454135689155
Root relative squared error: 16.702541201573897
Weighted TruePositiveRate: 0.9920466595970308
Weighted MatthewsCorrelation: 0.9503867057970081
Weighted FMeasure: 0.9918094664041154
Iteration time: 36.0
Weighted AreaUnderPRC: 0.9982646240922336
Mean absolute error: 0.018676703008834332
Coverage of cases: 99.89395546129374
Instances selection time: 6.0
Test time: 13.0
Accumulative iteration time: 678.0
Weighted Recall: 0.9920466595970308
Weighted FalsePositiveRate: 0.0384111202668916
Kappa statistic: 0.945163153671103
Training time: 30.0
		
Iteration: 22
Labeled set size: 797
Unlabelled set size: 1089
	
Mean region size: 29.48038176033934
Incorrectly Classified Instances: 1.1134676564156947
Correctly Classified Instances: 98.8865323435843
Weighted Precision: 0.9884957702583956
Weighted AreaUnderROC: 0.9976405568794028
Root mean squared error: 0.07571535692308297
Relative absolute error: 4.86642320887042
Root relative squared error: 17.48571268053222
Weighted TruePositiveRate: 0.9888653234358431
Weighted MatthewsCorrelation: 0.9286233004113817
Weighted FMeasure: 0.9886601379172927
Iteration time: 39.0
Weighted AreaUnderPRC: 0.9974533430953261
Mean absolute error: 0.018249087033264073
Coverage of cases: 99.94697773064688
Instances selection time: 5.0
Test time: 14.0
Accumulative iteration time: 717.0
Weighted Recall: 0.9888653234358431
Weighted FalsePositiveRate: 0.05122837811909416
Kappa statistic: 0.9237072652042259
Training time: 34.0
		
Iteration: 23
Labeled set size: 817
Unlabelled set size: 1069
	
Mean region size: 30.249204665959702
Incorrectly Classified Instances: 0.848356309650053
Correctly Classified Instances: 99.15164369034994
Weighted Precision: 0.9910848705809798
Weighted AreaUnderROC: 0.9979633034567738
Root mean squared error: 0.07334518024058312
Relative absolute error: 5.190641288499678
Root relative squared error: 16.938343822264915
Weighted TruePositiveRate: 0.9915164369034994
Weighted MatthewsCorrelation: 0.9401607447282742
Weighted FMeasure: 0.991248804463683
Iteration time: 47.0
Weighted AreaUnderPRC: 0.998066032513171
Mean absolute error: 0.01946490483187379
Coverage of cases: 99.94697773064688
Instances selection time: 7.0
Test time: 15.0
Accumulative iteration time: 764.0
Weighted Recall: 0.9915164369034994
Weighted FalsePositiveRate: 0.051099831826831726
Kappa statistic: 0.9413374805598754
Training time: 40.0
		
Iteration: 24
Labeled set size: 837
Unlabelled set size: 1049
	
Mean region size: 31.071049840933192
Incorrectly Classified Instances: 1.0604453870625663
Correctly Classified Instances: 98.93955461293743
Weighted Precision: 0.9889903228021727
Weighted AreaUnderROC: 0.9959804297413685
Root mean squared error: 0.08200524532284227
Relative absolute error: 6.1735926610678975
Root relative squared error: 18.938300184841715
Weighted TruePositiveRate: 0.9893955461293743
Weighted MatthewsCorrelation: 0.9320598964182678
Weighted FMeasure: 0.9891850998212613
Iteration time: 44.0
Weighted AreaUnderPRC: 0.996324898438681
Mean absolute error: 0.023150972479004616
Coverage of cases: 99.78791092258749
Instances selection time: 7.0
Test time: 14.0
Accumulative iteration time: 808.0
Weighted Recall: 0.9893955461293743
Weighted FalsePositiveRate: 0.05121482702252213
Kappa statistic: 0.9271164629457158
Training time: 37.0
		
Iteration: 25
Labeled set size: 857
Unlabelled set size: 1029
	
Mean region size: 29.546659597030754
Incorrectly Classified Instances: 0.9544008483563097
Correctly Classified Instances: 99.04559915164369
Weighted Precision: 0.9899582314367953
Weighted AreaUnderROC: 0.9979334907608899
Root mean squared error: 0.07464114298855917
Relative absolute error: 4.839957284350768
Root relative squared error: 17.237633598826395
Weighted TruePositiveRate: 0.9904559915164369
Weighted MatthewsCorrelation: 0.9390635476360664
Weighted FMeasure: 0.9902058351687196
Iteration time: 39.0
Weighted AreaUnderPRC: 0.9973430923927811
Mean absolute error: 0.01814983981631538
Coverage of cases: 99.89395546129374
Instances selection time: 5.0
Test time: 14.0
Accumulative iteration time: 847.0
Weighted Recall: 0.9904559915164369
Weighted FalsePositiveRate: 0.05115732942467693
Kappa statistic: 0.9339789964994167
Training time: 34.0
		
Iteration: 26
Labeled set size: 877
Unlabelled set size: 1009
	
Mean region size: 30.196182396606574
Incorrectly Classified Instances: 1.007423117709438
Correctly Classified Instances: 98.99257688229056
Weighted Precision: 0.9894428768950724
Weighted AreaUnderROC: 0.9981460709096485
Root mean squared error: 0.0802151470963692
Relative absolute error: 5.503098368523598
Root relative squared error: 18.524894707669674
Weighted TruePositiveRate: 0.9899257688229056
Weighted MatthewsCorrelation: 0.9478452726327691
Weighted FMeasure: 0.9895401777827156
Iteration time: 45.0
Weighted AreaUnderPRC: 0.996634989670804
Mean absolute error: 0.02063661888196349
Coverage of cases: 99.94697773064688
Instances selection time: 7.0
Test time: 13.0
Accumulative iteration time: 892.0
Weighted Recall: 0.9899257688229056
Weighted FalsePositiveRate: 0.04486369569426604
Kappa statistic: 0.9300466954022988
Training time: 38.0
		
Iteration: 27
Labeled set size: 897
Unlabelled set size: 989
	
Mean region size: 30.182926829268293
Incorrectly Classified Instances: 1.4316012725344645
Correctly Classified Instances: 98.56839872746554
Weighted Precision: 0.9851512298664783
Weighted AreaUnderROC: 0.9978022107812388
Root mean squared error: 0.08498781057377168
Relative absolute error: 5.976405324610894
Root relative squared error: 19.6270941250416
Weighted TruePositiveRate: 0.9856839872746553
Weighted MatthewsCorrelation: 0.9111082181727705
Weighted FMeasure: 0.9853369993935844
Iteration time: 52.0
Weighted AreaUnderPRC: 0.9963753836326907
Mean absolute error: 0.022411519967290853
Coverage of cases: 99.94697773064688
Instances selection time: 7.0
Test time: 17.0
Accumulative iteration time: 944.0
Weighted Recall: 0.9856839872746553
Weighted FalsePositiveRate: 0.08311916747575114
Kappa statistic: 0.8999603157452191
Training time: 45.0
		
Iteration: 28
Labeled set size: 917
Unlabelled set size: 969
	
Mean region size: 29.71898197242842
Incorrectly Classified Instances: 1.1664899257688228
Correctly Classified Instances: 98.83351007423117
Weighted Precision: 0.9877841576012535
Weighted AreaUnderROC: 0.99747513407469
Root mean squared error: 0.07641659051153137
Relative absolute error: 5.111560728979246
Root relative squared error: 17.647655640954415
Weighted TruePositiveRate: 0.9883351007423118
Weighted MatthewsCorrelation: 0.9237028396120426
Weighted FMeasure: 0.9880473200131765
Iteration time: 51.0
Weighted AreaUnderPRC: 0.9973234925836321
Mean absolute error: 0.01916835273367217
Coverage of cases: 99.84093319194062
Instances selection time: 7.0
Test time: 18.0
Accumulative iteration time: 995.0
Weighted Recall: 0.9883351007423118
Weighted FalsePositiveRate: 0.07030026301777004
Kappa statistic: 0.9187724642334167
Training time: 44.0
		
Iteration: 29
Labeled set size: 937
Unlabelled set size: 949
	
Mean region size: 29.71898197242842
Incorrectly Classified Instances: 0.848356309650053
Correctly Classified Instances: 99.15164369034994
Weighted Precision: 0.9912701590126103
Weighted AreaUnderROC: 0.9982300784776266
Root mean squared error: 0.07358937609445527
Relative absolute error: 4.929404290928139
Root relative squared error: 16.99473843905215
Weighted TruePositiveRate: 0.9915164369034994
Weighted MatthewsCorrelation: 0.9477311136594747
Weighted FMeasure: 0.991343986877735
Iteration time: 41.0
Weighted AreaUnderPRC: 0.9984824079774107
Mean absolute error: 0.018485266090980522
Coverage of cases: 99.89395546129374
Instances selection time: 5.0
Test time: 12.0
Accumulative iteration time: 1036.0
Weighted Recall: 0.9915164369034994
Weighted FalsePositiveRate: 0.02574951090009554
Kappa statistic: 0.9424247396558763
Training time: 36.0
		
Iteration: 30
Labeled set size: 957
Unlabelled set size: 929
	
Mean region size: 31.5084835630965
Incorrectly Classified Instances: 1.9618239660657477
Correctly Classified Instances: 98.03817603393425
Weighted Precision: 0.9792946167074617
Weighted AreaUnderROC: 0.9960261525841343
Root mean squared error: 0.09070367294809943
Relative absolute error: 6.907079446870648
Root relative squared error: 20.947115997229194
Weighted TruePositiveRate: 0.9803817603393425
Weighted MatthewsCorrelation: 0.8606342836882203
Weighted FMeasure: 0.9796972261205739
Iteration time: 50.0
Weighted AreaUnderPRC: 0.9942781737420199
Mean absolute error: 0.02590154792576493
Coverage of cases: 99.94697773064688
Instances selection time: 5.0
Test time: 15.0
Accumulative iteration time: 1086.0
Weighted Recall: 0.9803817603393425
Weighted FalsePositiveRate: 0.15312003801350166
Kappa statistic: 0.858861458430248
Training time: 45.0
		
Iteration: 31
Labeled set size: 977
Unlabelled set size: 909
	
Mean region size: 29.122481442205725
Incorrectly Classified Instances: 1.2725344644750796
Correctly Classified Instances: 98.72746553552491
Weighted Precision: 0.9869166381741961
Weighted AreaUnderROC: 0.9971351663907273
Root mean squared error: 0.0767186035665788
Relative absolute error: 4.6655738500213415
Root relative squared error: 17.71740256840658
Weighted TruePositiveRate: 0.9872746553552492
Weighted MatthewsCorrelation: 0.9143662072088957
Weighted FMeasure: 0.9870711139414812
Iteration time: 41.0
Weighted AreaUnderPRC: 0.996057858269677
Mean absolute error: 0.017495901937580032
Coverage of cases: 99.94697773064688
Instances selection time: 5.0
Test time: 14.0
Accumulative iteration time: 1127.0
Weighted Recall: 0.9872746553552492
Weighted FalsePositiveRate: 0.06400498268158063
Kappa statistic: 0.9128334893179426
Training time: 36.0
		
Iteration: 32
Labeled set size: 997
Unlabelled set size: 889
	
Mean region size: 29.559915164369034
Incorrectly Classified Instances: 0.9544008483563097
Correctly Classified Instances: 99.04559915164369
Weighted Precision: 0.989842673087033
Weighted AreaUnderROC: 0.9972137605184549
Root mean squared error: 0.07789772626969776
Relative absolute error: 5.145513289137294
Root relative squared error: 17.989709292427918
Weighted TruePositiveRate: 0.9904559915164369
Weighted MatthewsCorrelation: 0.9381189188367388
Weighted FMeasure: 0.9901158150682957
Iteration time: 44.0
Weighted AreaUnderPRC: 0.9979338849804865
Mean absolute error: 0.019295674834264854
Coverage of cases: 99.94697773064688
Instances selection time: 4.0
Test time: 13.0
Accumulative iteration time: 1171.0
Weighted Recall: 0.9904559915164369
Weighted FalsePositiveRate: 0.07021566322678076
Kappa statistic: 0.9326677059656557
Training time: 40.0
		
Iteration: 33
Labeled set size: 1017
Unlabelled set size: 869
	
Mean region size: 30.262460233297986
Incorrectly Classified Instances: 1.325556733828208
Correctly Classified Instances: 98.67444326617179
Weighted Precision: 0.9865488640697072
Weighted AreaUnderROC: 0.9983593471393883
Root mean squared error: 0.08098685702958061
Relative absolute error: 5.559246734913029
Root relative squared error: 18.703113482740044
Weighted TruePositiveRate: 0.986744432661718
Weighted MatthewsCorrelation: 0.9196427459877936
Weighted FMeasure: 0.9865190988376328
Iteration time: 42.0
Weighted AreaUnderPRC: 0.9969407770864954
Mean absolute error: 0.02084717525592386
Coverage of cases: 99.94697773064688
Instances selection time: 5.0
Test time: 14.0
Accumulative iteration time: 1213.0
Weighted Recall: 0.986744432661718
Weighted FalsePositiveRate: 0.06406412688520437
Kappa statistic: 0.9085520777976472
Training time: 37.0
		
Iteration: 34
Labeled set size: 1037
Unlabelled set size: 849
	
Mean region size: 28.817603393425237
Incorrectly Classified Instances: 1.007423117709438
Correctly Classified Instances: 98.99257688229056
Weighted Precision: 0.9894334191789124
Weighted AreaUnderROC: 0.9982020609591677
Root mean squared error: 0.06868376071512078
Relative absolute error: 4.080388669918005
Root relative squared error: 15.86183509513233
Weighted TruePositiveRate: 0.9899257688229056
Weighted MatthewsCorrelation: 0.9385072798609365
Weighted FMeasure: 0.9896783315659243
Iteration time: 48.0
Weighted AreaUnderPRC: 0.9973065199358446
Mean absolute error: 0.015301457512192519
Coverage of cases: 99.94697773064688
Instances selection time: 5.0
Test time: 15.0
Accumulative iteration time: 1261.0
Weighted Recall: 0.9899257688229056
Weighted FalsePositiveRate: 0.051186078223599524
Kappa statistic: 0.9303111629716063
Training time: 43.0
		
Iteration: 35
Labeled set size: 1057
Unlabelled set size: 829
	
Mean region size: 31.150583244962885
Incorrectly Classified Instances: 1.8027571580063626
Correctly Classified Instances: 98.19724284199364
Weighted Precision: 0.9810352258957392
Weighted AreaUnderROC: 0.9954766714860365
Root mean squared error: 0.09034749831602226
Relative absolute error: 6.6385723843981586
Root relative squared error: 20.86486098934589
Weighted TruePositiveRate: 0.9819724284199364
Weighted MatthewsCorrelation: 0.8740995196051949
Weighted FMeasure: 0.9810877020093616
Iteration time: 55.0
Weighted AreaUnderPRC: 0.9958502889839194
Mean absolute error: 0.024894646441493095
Coverage of cases: 99.89395546129374
Instances selection time: 6.0
Test time: 15.0
Accumulative iteration time: 1316.0
Weighted Recall: 0.9819724284199364
Weighted FalsePositiveRate: 0.16569375437775138
Kappa statistic: 0.8667331712284639
Training time: 49.0
		
Iteration: 36
Labeled set size: 1077
Unlabelled set size: 809
	
Mean region size: 30.03711558854719
Incorrectly Classified Instances: 1.0604453870625663
Correctly Classified Instances: 98.93955461293743
Weighted Precision: 0.9893063506133081
Weighted AreaUnderROC: 0.9961292358349491
Root mean squared error: 0.08385087101957413
Relative absolute error: 5.632374301608812
Root relative squared error: 19.364529181974287
Weighted TruePositiveRate: 0.9893955461293743
Weighted MatthewsCorrelation: 0.9393502440750394
Weighted FMeasure: 0.989271149681194
Iteration time: 44.0
Weighted AreaUnderPRC: 0.9938377899200405
Mean absolute error: 0.021121403631033046
Coverage of cases: 99.89395546129374
Instances selection time: 4.0
Test time: 13.0
Accumulative iteration time: 1360.0
Weighted Recall: 0.9893955461293743
Weighted FalsePositiveRate: 0.03221728402982056
Kappa statistic: 0.9280171903804094
Training time: 40.0
		
Iteration: 37
Labeled set size: 1097
Unlabelled set size: 789
	
Mean region size: 29.347826086956523
Incorrectly Classified Instances: 1.0604453870625663
Correctly Classified Instances: 98.93955461293743
Weighted Precision: 0.989558188256386
Weighted AreaUnderROC: 0.9981213314032922
Root mean squared error: 0.07178112045335137
Relative absolute error: 4.458082457722949
Root relative squared error: 16.577139686590147
Weighted TruePositiveRate: 0.9893955461293743
Weighted MatthewsCorrelation: 0.9404811945710082
Weighted FMeasure: 0.989331599973349
Iteration time: 45.0
Weighted AreaUnderPRC: 0.998141161945615
Mean absolute error: 0.01671780921646106
Coverage of cases: 100.0
Instances selection time: 4.0
Test time: 13.0
Accumulative iteration time: 1405.0
Weighted Recall: 0.9893955461293743
Weighted FalsePositiveRate: 0.019526925864101898
Kappa statistic: 0.9289160259309511
Training time: 41.0
		
Iteration: 38
Labeled set size: 1117
Unlabelled set size: 769
	
Mean region size: 30.209437963944858
Incorrectly Classified Instances: 1.5906680805938493
Correctly Classified Instances: 98.40933191940616
Weighted Precision: 0.9831909588905207
Weighted AreaUnderROC: 0.9971373986344774
Root mean squared error: 0.08445592912668415
Relative absolute error: 5.865170071058106
Root relative squared error: 19.504261366380423
Weighted TruePositiveRate: 0.9840933191940615
Weighted MatthewsCorrelation: 0.891162038765455
Weighted FMeasure: 0.9835237543940026
Iteration time: 51.0
Weighted AreaUnderPRC: 0.9966336892366794
Mean absolute error: 0.021994387766467897
Coverage of cases: 99.89395546129374
Instances selection time: 5.0
Test time: 14.0
Accumulative iteration time: 1456.0
Weighted Recall: 0.9840933191940615
Weighted FalsePositiveRate: 0.1275532777919567
Kappa statistic: 0.8855286158228668
Training time: 46.0
		
Iteration: 39
Labeled set size: 1137
Unlabelled set size: 749
	
Mean region size: 29.86479321314952
Incorrectly Classified Instances: 1.2195121951219512
Correctly Classified Instances: 98.78048780487805
Weighted Precision: 0.987115821808123
Weighted AreaUnderROC: 0.9971228481761293
Root mean squared error: 0.08312273409726459
Relative absolute error: 5.7095587191735495
Root relative squared error: 19.19637316273336
Weighted TruePositiveRate: 0.9878048780487805
Weighted MatthewsCorrelation: 0.9223507578806255
Weighted FMeasure: 0.987435190765574
Iteration time: 58.0
Weighted AreaUnderPRC: 0.9969694939245335
Mean absolute error: 0.02141084519690081
Coverage of cases: 99.94697773064688
Instances selection time: 6.0
Test time: 16.0
Accumulative iteration time: 1514.0
Weighted Recall: 0.9878048780487805
Weighted FalsePositiveRate: 0.0830193699824113
Kappa statistic: 0.9139728222498987
Training time: 52.0
		
Iteration: 40
Labeled set size: 1157
Unlabelled set size: 729
	
Mean region size: 30.68663838812301
Incorrectly Classified Instances: 1.2725344644750796
Correctly Classified Instances: 98.72746553552491
Weighted Precision: 0.9869662684753784
Weighted AreaUnderROC: 0.9963582657362523
Root mean squared error: 0.08307740176138009
Relative absolute error: 6.070321384055336
Root relative squared error: 19.185904108202998
Weighted TruePositiveRate: 0.9872746553552492
Weighted MatthewsCorrelation: 0.9144012641803649
Weighted FMeasure: 0.98710069010557
Iteration time: 59.0
Weighted AreaUnderPRC: 0.9962800478935094
Mean absolute error: 0.022763705190207508
Coverage of cases: 99.94697773064688
Instances selection time: 6.0
Test time: 17.0
Accumulative iteration time: 1573.0
Weighted Recall: 0.9872746553552492
Weighted FalsePositiveRate: 0.0640201803839312
Kappa statistic: 0.9128083030905432
Training time: 53.0
		
Iteration: 41
Labeled set size: 1177
Unlabelled set size: 709
	
Mean region size: 29.52014846235419
Incorrectly Classified Instances: 1.696712619300106
Correctly Classified Instances: 98.3032873806999
Weighted Precision: 0.9822462741757846
Weighted AreaUnderROC: 0.9960698296778965
Root mean squared error: 0.08817160603906488
Relative absolute error: 5.677221055699426
Root relative squared error: 20.362360192614297
Weighted TruePositiveRate: 0.9830328738069989
Weighted MatthewsCorrelation: 0.8879030548618848
Weighted FMeasure: 0.9826004266719637
Iteration time: 51.0
Weighted AreaUnderPRC: 0.9945768899197344
Mean absolute error: 0.021289578958872846
Coverage of cases: 99.89395546129374
Instances selection time: 4.0
Test time: 15.0
Accumulative iteration time: 1624.0
Weighted Recall: 0.9830328738069989
Weighted FalsePositiveRate: 0.11495081262878439
Kappa statistic: 0.8799065550740034
Training time: 47.0
		
Iteration: 42
Labeled set size: 1197
Unlabelled set size: 689
	
Mean region size: 29.09597030752916
Incorrectly Classified Instances: 1.1664899257688228
Correctly Classified Instances: 98.83351007423117
Weighted Precision: 0.9878490207582488
Weighted AreaUnderROC: 0.9977012040391381
Root mean squared error: 0.07314903085657591
Relative absolute error: 4.525698933431953
Root relative squared error: 16.89304506240174
Weighted TruePositiveRate: 0.9883351007423118
Weighted MatthewsCorrelation: 0.9263890025883905
Weighted FMeasure: 0.9880021466698268
Iteration time: 53.0
Weighted AreaUnderPRC: 0.9974804247536263
Mean absolute error: 0.016971371000369825
Coverage of cases: 99.94697773064688
Instances selection time: 4.0
Test time: 13.0
Accumulative iteration time: 1677.0
Weighted Recall: 0.9883351007423118
Weighted FalsePositiveRate: 0.07659225014240237
Kappa statistic: 0.918021061782546
Training time: 49.0
		
Iteration: 43
Labeled set size: 1217
Unlabelled set size: 669
	
Mean region size: 29.109225874867445
Incorrectly Classified Instances: 1.0604453870625663
Correctly Classified Instances: 98.93955461293743
Weighted Precision: 0.9890259929519268
Weighted AreaUnderROC: 0.9983051552047845
Root mean squared error: 0.07372259057433556
Relative absolute error: 4.508328213607812
Root relative squared error: 17.02550300537968
Weighted TruePositiveRate: 0.9893955461293743
Weighted MatthewsCorrelation: 0.9291670742014851
Weighted FMeasure: 0.989190360610824
Iteration time: 48.0
Weighted AreaUnderPRC: 0.9975717303784218
Mean absolute error: 0.016906230801029296
Coverage of cases: 99.94697773064688
Instances selection time: 3.0
Test time: 13.0
Accumulative iteration time: 1725.0
Weighted Recall: 0.9893955461293743
Weighted FalsePositiveRate: 0.05121482702252213
Kappa statistic: 0.9273402525754527
Training time: 45.0
		
Iteration: 44
Labeled set size: 1237
Unlabelled set size: 649
	
Mean region size: 28.976670201484623
Incorrectly Classified Instances: 1.007423117709438
Correctly Classified Instances: 98.99257688229056
Weighted Precision: 0.9894745601748436
Weighted AreaUnderROC: 0.998019048702139
Root mean squared error: 0.07157160533909103
Relative absolute error: 4.260787084684638
Root relative squared error: 16.528754243543148
Weighted TruePositiveRate: 0.9899257688229056
Weighted MatthewsCorrelation: 0.9418686571313636
Weighted FMeasure: 0.9896863431185103
Iteration time: 48.0
Weighted AreaUnderPRC: 0.9974109539921702
Mean absolute error: 0.015977951567567393
Coverage of cases: 99.94697773064688
Instances selection time: 4.0
Test time: 12.0
Accumulative iteration time: 1773.0
Weighted Recall: 0.9899257688229056
Weighted FalsePositiveRate: 0.04484849799191548
Kappa statistic: 0.9305265280325091
Training time: 44.0
		
Iteration: 45
Labeled set size: 1257
Unlabelled set size: 629
	
Mean region size: 28.406680805938493
Incorrectly Classified Instances: 1.007423117709438
Correctly Classified Instances: 98.99257688229056
Weighted Precision: 0.9902576728667357
Weighted AreaUnderROC: 0.9986710516737188
Root mean squared error: 0.06878584070458255
Relative absolute error: 3.8275953671005323
Root relative squared error: 15.88540945889018
Weighted TruePositiveRate: 0.9899257688229056
Weighted MatthewsCorrelation: 0.9500372563997874
Weighted FMeasure: 0.9898735883260037
Iteration time: 45.0
Weighted AreaUnderPRC: 0.9972390085818656
Mean absolute error: 0.014353482626626998
Coverage of cases: 99.89395546129374
Instances selection time: 3.0
Test time: 13.0
Accumulative iteration time: 1818.0
Weighted Recall: 0.9899257688229056
Weighted FalsePositiveRate: 0.013190992238196388
Kappa statistic: 0.9322411439246964
Training time: 42.0
		
Iteration: 46
Labeled set size: 1277
Unlabelled set size: 609
	
Mean region size: 29.811770943796393
Incorrectly Classified Instances: 1.325556733828208
Correctly Classified Instances: 98.67444326617179
Weighted Precision: 0.9862415532793309
Weighted AreaUnderROC: 0.9974834803526724
Root mean squared error: 0.07942623973568722
Relative absolute error: 5.282577217013793
Root relative squared error: 18.342704356847506
Weighted TruePositiveRate: 0.986744432661718
Weighted MatthewsCorrelation: 0.9126969388129459
Weighted FMeasure: 0.9864593502197022
Iteration time: 55.0
Weighted AreaUnderPRC: 0.9967338439415331
Mean absolute error: 0.01980966456380172
Coverage of cases: 99.89395546129374
Instances selection time: 3.0
Test time: 14.0
Accumulative iteration time: 1873.0
Weighted Recall: 0.986744432661718
Weighted FalsePositiveRate: 0.07669369424152075
Kappa statistic: 0.9080369646542076
Training time: 52.0
		
Time end:Tue Oct 31 12.30.38 EET 2017