Tue Oct 31 11.49.51 EET 2017
Dataset: hypothyroid
Test set size: 1886
Initial Labelled set size: 377
Initial Unlabelled set size: 1509
Batch mode: QBestBatchMode
Batch size: 20
Classifiers: IBk-1cores
Scenario: PoolBasedSamplingScenario
Query strategy: EntropySamplingQueryStrategy-1cores
Time begining: Tue Oct 31 11.49.51 EET 2017
		
Iteration: 1
Labeled set size: 377
Unlabelled set size: 1509
	
Mean region size: 25.0
Incorrectly Classified Instances: 10.445387062566278
Correctly Classified Instances: 89.55461293743372
Weighted Precision: 0.884643612910567
Weighted AreaUnderROC: 0.5992239049542719
Root mean squared error: 0.22737449013100033
Relative absolute error: 14.826309671405214
Root relative squared error: 52.509889233594784
Weighted TruePositiveRate: 0.8955461293743372
Weighted MatthewsCorrelation: 0.21242386097845584
Weighted FMeasure: 0.8898642293447109
Iteration time: 341.0
Weighted AreaUnderPRC: 0.8753323972712983
Mean absolute error: 0.05559866126776956
Coverage of cases: 89.55461293743372
Instances selection time: 340.0
Test time: 463.0
Accumulative iteration time: 341.0
Weighted Recall: 0.8955461293743372
Weighted FalsePositiveRate: 0.7036532207034735
Kappa statistic: 0.20872244950984634
Training time: 1.0
		
Iteration: 2
Labeled set size: 397
Unlabelled set size: 1489
	
Mean region size: 25.0
Incorrectly Classified Instances: 10.445387062566278
Correctly Classified Instances: 89.55461293743372
Weighted Precision: 0.8848988455798293
Weighted AreaUnderROC: 0.5960910687818459
Root mean squared error: 0.2274302278228158
Relative absolute error: 14.78146441690218
Root relative squared error: 52.522761302144254
Weighted TruePositiveRate: 0.8955461293743372
Weighted MatthewsCorrelation: 0.2065207161176088
Weighted FMeasure: 0.8899150357918761
Iteration time: 379.0
Weighted AreaUnderPRC: 0.8752686288447404
Mean absolute error: 0.05543049156338317
Coverage of cases: 89.55461293743372
Instances selection time: 379.0
Test time: 487.0
Accumulative iteration time: 720.0
Weighted Recall: 0.8955461293743372
Weighted FalsePositiveRate: 0.7099733679825925
Kappa statistic: 0.20577760866684064
Training time: 0.0
		
Iteration: 3
Labeled set size: 417
Unlabelled set size: 1469
	
Mean region size: 25.0
Incorrectly Classified Instances: 10.392364793213149
Correctly Classified Instances: 89.60763520678685
Weighted Precision: 0.8849917527042239
Weighted AreaUnderROC: 0.5963705545280727
Root mean squared error: 0.22690294261919847
Relative absolute error: 14.670855427114143
Root relative squared error: 52.40099000044498
Weighted TruePositiveRate: 0.8960763520678685
Weighted MatthewsCorrelation: 0.20792939628025398
Weighted FMeasure: 0.8902159765813458
Iteration time: 391.0
Weighted AreaUnderPRC: 0.875311594583173
Mean absolute error: 0.05501570785167804
Coverage of cases: 89.60763520678685
Instances selection time: 391.0
Test time: 511.0
Accumulative iteration time: 1111.0
Weighted Recall: 0.8960763520678685
Weighted FalsePositiveRate: 0.7099446191836698
Kappa statistic: 0.20702415249601525
Training time: 0.0
		
Iteration: 4
Labeled set size: 437
Unlabelled set size: 1449
	
Mean region size: 25.0
Incorrectly Classified Instances: 10.180275715800637
Correctly Classified Instances: 89.81972428419937
Weighted Precision: 0.8853794326834163
Weighted AreaUnderROC: 0.5970478724348507
Root mean squared error: 0.2246219705741549
Relative absolute error: 14.354180076614453
Root relative squared error: 51.874222070757014
Weighted TruePositiveRate: 0.8981972428419936
Weighted MatthewsCorrelation: 0.21372677657120398
Weighted FMeasure: 0.8914209439298033
Iteration time: 402.0
Weighted AreaUnderPRC: 0.8754147665441752
Mean absolute error: 0.05382817528730419
Coverage of cases: 89.81972428419937
Instances selection time: 402.0
Test time: 527.0
Accumulative iteration time: 1513.0
Weighted Recall: 0.8981972428419936
Weighted FalsePositiveRate: 0.7098296239879794
Kappa statistic: 0.2120994536446539
Training time: 0.0
		
Iteration: 5
Labeled set size: 457
Unlabelled set size: 1429
	
Mean region size: 25.0
Incorrectly Classified Instances: 10.233297985153765
Correctly Classified Instances: 89.76670201484623
Weighted Precision: 0.8833232502357431
Weighted AreaUnderROC: 0.5883140850598754
Root mean squared error: 0.22524774122509042
Relative absolute error: 14.38940927476141
Root relative squared error: 52.01873761226445
Weighted TruePositiveRate: 0.8976670201484623
Weighted MatthewsCorrelation: 0.19609888947320017
Weighted FMeasure: 0.8899533591804796
Iteration time: 414.0
Weighted AreaUnderPRC: 0.8729465499762087
Mean absolute error: 0.053960284780355285
Coverage of cases: 89.76670201484623
Instances selection time: 414.0
Test time: 564.0
Accumulative iteration time: 1927.0
Weighted Recall: 0.8976670201484623
Weighted FalsePositiveRate: 0.7287294035150198
Kappa statistic: 0.19331869183939865
Training time: 0.0
		
Iteration: 6
Labeled set size: 477
Unlabelled set size: 1409
	
Mean region size: 25.0
Incorrectly Classified Instances: 10.233297985153765
Correctly Classified Instances: 89.76670201484623
Weighted Precision: 0.8833232502357431
Weighted AreaUnderROC: 0.5883140850598754
Root mean squared error: 0.2252861813342595
Relative absolute error: 14.358430986337694
Root relative squared error: 52.02761497521503
Weighted TruePositiveRate: 0.8976670201484623
Weighted MatthewsCorrelation: 0.19609888947320017
Weighted FMeasure: 0.8899533591804796
Iteration time: 429.0
Weighted AreaUnderPRC: 0.8729465499762087
Mean absolute error: 0.053844116198766355
Coverage of cases: 89.76670201484623
Instances selection time: 429.0
Test time: 572.0
Accumulative iteration time: 2356.0
Weighted Recall: 0.8976670201484623
Weighted FalsePositiveRate: 0.7287294035150198
Kappa statistic: 0.19331869183939865
Training time: 0.0
		
Iteration: 7
Labeled set size: 497
Unlabelled set size: 1389
	
Mean region size: 25.0
Incorrectly Classified Instances: 10.127253446447508
Correctly Classified Instances: 89.87274655355249
Weighted Precision: 0.8824748429009884
Weighted AreaUnderROC: 0.5857612731183752
Root mean squared error: 0.2241514059518338
Relative absolute error: 14.189662230878424
Root relative squared error: 51.765549826209735
Weighted TruePositiveRate: 0.898727465535525
Weighted MatthewsCorrelation: 0.193354487746345
Weighted FMeasure: 0.8900108080012856
Iteration time: 440.0
Weighted AreaUnderPRC: 0.8725495201321589
Mean absolute error: 0.053211233365794086
Coverage of cases: 89.87274655355249
Instances selection time: 440.0
Test time: 596.0
Accumulative iteration time: 2796.0
Weighted Recall: 0.898727465535525
Weighted FalsePositiveRate: 0.7349622494932138
Kappa statistic: 0.18987894039675537
Training time: 0.0
		
Iteration: 8
Labeled set size: 517
Unlabelled set size: 1369
	
Mean region size: 25.0
Incorrectly Classified Instances: 10.02120890774125
Correctly Classified Instances: 89.97879109225875
Weighted Precision: 0.8804118478913997
Weighted AreaUnderROC: 0.5800966777429215
Root mean squared error: 0.22300745890461665
Relative absolute error: 14.022995325713405
Root relative squared error: 51.50136657194994
Weighted TruePositiveRate: 0.8997879109225875
Weighted MatthewsCorrelation: 0.18466133992566938
Weighted FMeasure: 0.8894580219961967
Iteration time: 442.0
Weighted AreaUnderPRC: 0.8716958031666527
Mean absolute error: 0.05258623247142527
Coverage of cases: 89.97879109225875
Instances selection time: 442.0
Test time: 615.0
Accumulative iteration time: 3238.0
Weighted Recall: 0.8997879109225875
Weighted FalsePositiveRate: 0.7474854390474471
Kappa statistic: 0.1801867069611474
Training time: 0.0
		
Iteration: 9
Labeled set size: 537
Unlabelled set size: 1349
	
Mean region size: 25.0
Incorrectly Classified Instances: 9.915164369034995
Correctly Classified Instances: 90.084835630965
Weighted Precision: 0.8793675519391441
Weighted AreaUnderROC: 0.5775438658014215
Root mean squared error: 0.22185456831262926
Relative absolute error: 13.858197158967371
Root relative squared error: 51.23511789449789
Weighted TruePositiveRate: 0.9008483563096501
Weighted MatthewsCorrelation: 0.18173128507412614
Weighted FMeasure: 0.8894348620898634
Iteration time: 452.0
Weighted AreaUnderPRC: 0.8713254304106312
Mean absolute error: 0.05196823934612765
Coverage of cases: 90.084835630965
Instances selection time: 452.0
Test time: 634.0
Accumulative iteration time: 3690.0
Weighted Recall: 0.9008483563096501
Weighted FalsePositiveRate: 0.7537182850256413
Kappa statistic: 0.17641344427138014
Training time: 0.0
		
Iteration: 10
Labeled set size: 557
Unlabelled set size: 1329
	
Mean region size: 25.0
Incorrectly Classified Instances: 9.43796394485684
Correctly Classified Instances: 90.56203605514315
Weighted Precision: 0.8801805778809795
Weighted AreaUnderROC: 0.5800592375174639
Root mean squared error: 0.21647820873764362
Relative absolute error: 13.203721864810303
Root relative squared error: 49.99350083534662
Weighted TruePositiveRate: 0.9056203605514316
Weighted MatthewsCorrelation: 0.1967939019880449
Weighted FMeasure: 0.8920248327536094
Iteration time: 460.0
Weighted AreaUnderPRC: 0.8716866642522548
Mean absolute error: 0.049513956993038635
Coverage of cases: 90.56203605514315
Instances selection time: 460.0
Test time: 657.0
Accumulative iteration time: 4150.0
Weighted Recall: 0.9056203605514316
Weighted FalsePositiveRate: 0.7534595458353378
Kappa statistic: 0.18801277089783242
Training time: 0.0
		
Iteration: 11
Labeled set size: 577
Unlabelled set size: 1309
	
Mean region size: 25.0
Incorrectly Classified Instances: 9.225874867444327
Correctly Classified Instances: 90.77412513255567
Weighted Precision: 0.8806075938068965
Weighted AreaUnderROC: 0.5811771805023718
Root mean squared error: 0.2140574977300592
Relative absolute error: 12.901548351372101
Root relative squared error: 49.434461574602956
Weighted TruePositiveRate: 0.9077412513255567
Weighted MatthewsCorrelation: 0.2041920405577991
Weighted FMeasure: 0.8931770111262837
Iteration time: 470.0
Weighted AreaUnderPRC: 0.8718493502420918
Mean absolute error: 0.04838080631764538
Coverage of cases: 90.77412513255567
Instances selection time: 470.0
Test time: 680.0
Accumulative iteration time: 4620.0
Weighted Recall: 0.9077412513255567
Weighted FalsePositiveRate: 0.7533445506396474
Kappa statistic: 0.19343865823805267
Training time: 0.0
		
Iteration: 12
Labeled set size: 597
Unlabelled set size: 1289
	
Mean region size: 25.0
Incorrectly Classified Instances: 9.11983032873807
Correctly Classified Instances: 90.88016967126192
Weighted Precision: 0.8808417514507952
Weighted AreaUnderROC: 0.5817361519948256
Root mean squared error: 0.2128471508891551
Relative absolute error: 12.741116918284568
Root relative squared error: 49.15494394483943
Weighted TruePositiveRate: 0.9088016967126193
Weighted MatthewsCorrelation: 0.20807950524338792
Weighted FMeasure: 0.893753480450199
Iteration time: 476.0
Weighted AreaUnderPRC: 0.8719313562719669
Mean absolute error: 0.04777918844356713
Coverage of cases: 90.88016967126192
Instances selection time: 476.0
Test time: 703.0
Accumulative iteration time: 5096.0
Weighted Recall: 0.9088016967126193
Weighted FalsePositiveRate: 0.7532870530418023
Kappa statistic: 0.1962178689832553
Training time: 0.0
		
Iteration: 13
Labeled set size: 617
Unlabelled set size: 1269
	
Mean region size: 25.0
Incorrectly Classified Instances: 9.11983032873807
Correctly Classified Instances: 90.88016967126192
Weighted Precision: 0.8808417514507952
Weighted AreaUnderROC: 0.5822042496606394
Root mean squared error: 0.21286886815254738
Relative absolute error: 12.722053383687566
Root relative squared error: 49.15995933198568
Weighted TruePositiveRate: 0.9088016967126193
Weighted MatthewsCorrelation: 0.20807950524338792
Weighted FMeasure: 0.893753480450199
Iteration time: 496.0
Weighted AreaUnderPRC: 0.8720042798501885
Mean absolute error: 0.047707700188828375
Coverage of cases: 90.88016967126192
Instances selection time: 495.0
Test time: 728.0
Accumulative iteration time: 5592.0
Weighted Recall: 0.9088016967126193
Weighted FalsePositiveRate: 0.7532870530418023
Kappa statistic: 0.1962178689832553
Training time: 1.0
		
Iteration: 14
Labeled set size: 637
Unlabelled set size: 1249
	
Mean region size: 25.0
Incorrectly Classified Instances: 9.172852598091199
Correctly Classified Instances: 90.8271474019088
Weighted Precision: 0.8800661450286951
Weighted AreaUnderROC: 0.5788168334597649
Root mean squared error: 0.21350714782638358
Relative absolute error: 12.774764445513853
Root relative squared error: 49.30736370858872
Weighted TruePositiveRate: 0.908271474019088
Weighted MatthewsCorrelation: 0.2002694520712006
Weighted FMeasure: 0.8930422804051336
Iteration time: 490.0
Weighted AreaUnderPRC: 0.8711177165283713
Mean absolute error: 0.04790536667067695
Coverage of cases: 90.8271474019088
Instances selection time: 490.0
Test time: 746.0
Accumulative iteration time: 6082.0
Weighted Recall: 0.908271474019088
Weighted FalsePositiveRate: 0.7596061454167641
Kappa statistic: 0.18814103361616377
Training time: 0.0
		
Iteration: 15
Labeled set size: 657
Unlabelled set size: 1229
	
Mean region size: 25.0
Incorrectly Classified Instances: 8.907741251325557
Correctly Classified Instances: 91.09225874867444
Weighted Precision: 0.8818671365967308
Weighted AreaUnderROC: 0.5811359450259271
Root mean squared error: 0.21041859133845522
Relative absolute error: 12.4062593223506
Root relative squared error: 48.594092140703594
Weighted TruePositiveRate: 0.9109225874867445
Weighted MatthewsCorrelation: 0.21093428880407752
Weighted FMeasure: 0.8949058743265905
Iteration time: 496.0
Weighted AreaUnderPRC: 0.8720654393307573
Mean absolute error: 0.04652347245881475
Coverage of cases: 91.09225874867444
Instances selection time: 496.0
Test time: 763.0
Accumulative iteration time: 6578.0
Weighted Recall: 0.9109225874867445
Weighted FalsePositiveRate: 0.7595071069767705
Kappa statistic: 0.19485271696042
Training time: 0.0
		
Iteration: 16
Labeled set size: 677
Unlabelled set size: 1209
	
Mean region size: 25.0
Incorrectly Classified Instances: 8.907741251325557
Correctly Classified Instances: 91.09225874867444
Weighted Precision: 0.8818671365967308
Weighted AreaUnderROC: 0.5811359450259271
Root mean squared error: 0.21043646431343604
Relative absolute error: 12.390715076302738
Root relative squared error: 48.59821972747015
Weighted TruePositiveRate: 0.9109225874867445
Weighted MatthewsCorrelation: 0.21093428880407752
Weighted FMeasure: 0.8949058743265905
Iteration time: 499.0
Weighted AreaUnderPRC: 0.8720654393307573
Mean absolute error: 0.04646518153613527
Coverage of cases: 91.09225874867444
Instances selection time: 499.0
Test time: 782.0
Accumulative iteration time: 7077.0
Weighted Recall: 0.9109225874867445
Weighted FalsePositiveRate: 0.7595071069767705
Kappa statistic: 0.19485271696042
Training time: 0.0
		
Iteration: 17
Labeled set size: 697
Unlabelled set size: 1189
	
Mean region size: 25.0
Incorrectly Classified Instances: 8.854718981972429
Correctly Classified Instances: 91.14528101802757
Weighted Precision: 0.8819996324648678
Weighted AreaUnderROC: 0.5809434129659854
Root mean squared error: 0.20982615695575205
Relative absolute error: 12.306167499525833
Root relative squared error: 48.457275280571245
Weighted TruePositiveRate: 0.9114528101802757
Weighted MatthewsCorrelation: 0.2130872848894912
Weighted FMeasure: 0.8951939237363168
Iteration time: 506.0
Weighted AreaUnderPRC: 0.8720335168283544
Mean absolute error: 0.046148128123221874
Coverage of cases: 91.14528101802757
Instances selection time: 506.0
Test time: 803.0
Accumulative iteration time: 7583.0
Weighted Recall: 0.9114528101802757
Weighted FalsePositiveRate: 0.7594783581778479
Kappa statistic: 0.19628972785383464
Training time: 0.0
		
Iteration: 18
Labeled set size: 717
Unlabelled set size: 1169
	
Mean region size: 25.0
Incorrectly Classified Instances: 8.907741251325557
Correctly Classified Instances: 91.09225874867444
Weighted Precision: 0.8796085678214173
Weighted AreaUnderROC: 0.5744559895548214
Root mean squared error: 0.21046931693291074
Relative absolute error: 12.362605232514966
Root relative squared error: 48.605806714949075
Weighted TruePositiveRate: 0.9109225874867445
Weighted MatthewsCorrelation: 0.19861764991871722
Weighted FMeasure: 0.8937494223765224
Iteration time: 513.0
Weighted AreaUnderPRC: 0.8706742434175306
Mean absolute error: 0.04635976962193112
Coverage of cases: 91.09225874867444
Instances selection time: 513.0
Test time: 830.0
Accumulative iteration time: 8096.0
Weighted Recall: 0.9109225874867445
Weighted FalsePositiveRate: 0.7720877941288492
Kappa statistic: 0.18107452178430533
Training time: 0.0
		
Iteration: 19
Labeled set size: 737
Unlabelled set size: 1149
	
Mean region size: 25.0
Incorrectly Classified Instances: 8.854718981972429
Correctly Classified Instances: 91.14528101802757
Weighted Precision: 0.8797197912256237
Weighted AreaUnderROC: 0.5747354753010484
Root mean squared error: 0.2098571363079206
Relative absolute error: 12.279183209865698
Root relative squared error: 48.46442965549678
Weighted TruePositiveRate: 0.9114528101802757
Weighted MatthewsCorrelation: 0.20078891449162478
Weighted FMeasure: 0.8940321342772596
Iteration time: 515.0
Weighted AreaUnderPRC: 0.8707140873967452
Mean absolute error: 0.04604693703699636
Coverage of cases: 91.14528101802757
Instances selection time: 515.0
Test time: 865.0
Accumulative iteration time: 8611.0
Weighted Recall: 0.9114528101802757
Weighted FalsePositiveRate: 0.7720590453299265
Kappa statistic: 0.18247746999460124
Training time: 0.0
		
Iteration: 20
Labeled set size: 757
Unlabelled set size: 1129
	
Mean region size: 25.0
Incorrectly Classified Instances: 8.8016967126193
Correctly Classified Instances: 91.1983032873807
Weighted Precision: 0.8798353901248551
Weighted AreaUnderROC: 0.5754948270354537
Root mean squared error: 0.20924219404416713
Relative absolute error: 12.196152126743316
Root relative squared error: 48.322414822891126
Weighted TruePositiveRate: 0.911983032873807
Weighted MatthewsCorrelation: 0.20300444363930678
Weighted FMeasure: 0.8943148687788616
Iteration time: 524.0
Weighted AreaUnderPRC: 0.8708283088473192
Mean absolute error: 0.04573557047528744
Coverage of cases: 91.1983032873807
Instances selection time: 524.0
Test time: 872.0
Accumulative iteration time: 9135.0
Weighted Recall: 0.911983032873807
Weighted FalsePositiveRate: 0.7720302965310039
Kappa statistic: 0.18389243550274867
Training time: 0.0
		
Iteration: 21
Labeled set size: 777
Unlabelled set size: 1109
	
Mean region size: 25.0
Incorrectly Classified Instances: 8.748674443266172
Correctly Classified Instances: 91.25132555673383
Weighted Precision: 0.8799557539484593
Weighted AreaUnderROC: 0.5757743127816806
Root mean squared error: 0.20862455858242143
Relative absolute error: 12.114023620841914
Root relative squared error: 48.179778022851146
Weighted TruePositiveRate: 0.9125132555673383
Weighted MatthewsCorrelation: 0.2052659601952168
Weighted FMeasure: 0.89459763001494
Iteration time: 527.0
Weighted AreaUnderPRC: 0.8708683099666319
Mean absolute error: 0.04542758857815718
Coverage of cases: 91.25132555673383
Instances selection time: 527.0
Test time: 891.0
Accumulative iteration time: 9662.0
Weighted Recall: 0.9125132555673383
Weighted FalsePositiveRate: 0.7720015477320813
Kappa statistic: 0.185319573378572
Training time: 0.0
		
Iteration: 22
Labeled set size: 797
Unlabelled set size: 1089
	
Mean region size: 25.0
Incorrectly Classified Instances: 8.006362672322375
Correctly Classified Instances: 91.99363732767762
Weighted Precision: 0.8870815779670074
Weighted AreaUnderROC: 0.5858351370963442
Root mean squared error: 0.19959092140433787
Relative absolute error: 11.118002876427695
Root relative squared error: 46.09354888023997
Weighted TruePositiveRate: 0.9199363732767762
Weighted MatthewsCorrelation: 0.25525721708768323
Weighted FMeasure: 0.9006371890169254
Iteration time: 524.0
Weighted AreaUnderPRC: 0.8751960259637834
Mean absolute error: 0.04169251078660386
Coverage of cases: 91.99363732767762
Instances selection time: 524.0
Test time: 917.0
Accumulative iteration time: 10186.0
Weighted Recall: 0.9199363732767762
Weighted FalsePositiveRate: 0.7591226903558653
Kappa statistic: 0.2204115487691043
Training time: 0.0
		
Iteration: 23
Labeled set size: 817
Unlabelled set size: 1069
	
Mean region size: 25.0
Incorrectly Classified Instances: 7.900318133616119
Correctly Classified Instances: 92.09968186638388
Weighted Precision: 0.8874102205280108
Weighted AreaUnderROC: 0.5863941085887979
Root mean squared error: 0.1982764320198193
Relative absolute error: 10.966510732688343
Root relative squared error: 45.78998056024048
Weighted TruePositiveRate: 0.9209968186638389
Weighted MatthewsCorrelation: 0.2615421883434794
Weighted FMeasure: 0.9012011920627494
Iteration time: 528.0
Weighted AreaUnderPRC: 0.875278119025276
Mean absolute error: 0.041124415247581286
Coverage of cases: 92.09968186638388
Instances selection time: 528.0
Test time: 934.0
Accumulative iteration time: 10714.0
Weighted Recall: 0.9209968186638389
Weighted FalsePositiveRate: 0.7590651927580201
Kappa statistic: 0.22375468555344152
Training time: 0.0
		
Iteration: 24
Labeled set size: 837
Unlabelled set size: 1049
	
Mean region size: 25.0
Incorrectly Classified Instances: 7.900318133616119
Correctly Classified Instances: 92.09968186638388
Weighted Precision: 0.8874102205280108
Weighted AreaUnderROC: 0.5863941085887979
Root mean squared error: 0.19828745076150872
Relative absolute error: 10.956219170623266
Root relative squared error: 45.792525229632695
Weighted TruePositiveRate: 0.9209968186638389
Weighted MatthewsCorrelation: 0.2615421883434794
Weighted FMeasure: 0.9012011920627494
Iteration time: 529.0
Weighted AreaUnderPRC: 0.875278119025276
Mean absolute error: 0.04108582188983725
Coverage of cases: 92.09968186638388
Instances selection time: 529.0
Test time: 958.0
Accumulative iteration time: 11243.0
Weighted Recall: 0.9209968186638389
Weighted FalsePositiveRate: 0.7590651927580201
Kappa statistic: 0.22375468555344152
Training time: 0.0
		
Iteration: 25
Labeled set size: 857
Unlabelled set size: 1029
	
Mean region size: 25.0
Incorrectly Classified Instances: 7.741251325556734
Correctly Classified Instances: 92.25874867444327
Weighted Precision: 0.8879850219545483
Weighted AreaUnderROC: 0.5872325658274787
Root mean squared error: 0.19629173517454182
Relative absolute error: 10.735301975139073
Root relative squared error: 45.33163445708818
Weighted TruePositiveRate: 0.9225874867444327
Weighted MatthewsCorrelation: 0.271623874275419
Weighted FMeasure: 0.9020477016005073
Iteration time: 531.0
Weighted AreaUnderPRC: 0.87540297365024
Mean absolute error: 0.04025738240677152
Coverage of cases: 92.25874867444327
Instances selection time: 531.0
Test time: 981.0
Accumulative iteration time: 11774.0
Weighted Recall: 0.9225874867444327
Weighted FalsePositiveRate: 0.7589789463612523
Kappa statistic: 0.22888475669862943
Training time: 0.0
		
Iteration: 26
Labeled set size: 877
Unlabelled set size: 1009
	
Mean region size: 25.0
Incorrectly Classified Instances: 7.741251325556734
Correctly Classified Instances: 92.25874867444327
Weighted Precision: 0.8875655614211789
Weighted AreaUnderROC: 0.584132475653541
Root mean squared error: 0.19630167481783875
Relative absolute error: 10.725911739538041
Root relative squared error: 45.33392991938144
Weighted TruePositiveRate: 0.9225874867444327
Weighted MatthewsCorrelation: 0.26657876902478217
Weighted FMeasure: 0.9015788902923471
Iteration time: 534.0
Weighted AreaUnderPRC: 0.8744859469299615
Mean absolute error: 0.040222169023267654
Coverage of cases: 92.25874867444327
Instances selection time: 534.0
Test time: 1002.0
Accumulative iteration time: 12308.0
Weighted Recall: 0.9225874867444327
Weighted FalsePositiveRate: 0.7652692899372916
Kappa statistic: 0.22161508170955443
Training time: 0.0
		
Iteration: 27
Labeled set size: 897
Unlabelled set size: 989
	
Mean region size: 25.0
Incorrectly Classified Instances: 7.688229056203605
Correctly Classified Instances: 92.31177094379639
Weighted Precision: 0.8878018392230665
Weighted AreaUnderROC: 0.5844119613997679
Root mean squared error: 0.19563779290665248
Relative absolute error: 10.646555888973166
Root relative squared error: 45.18061295932803
Weighted TruePositiveRate: 0.9231177094379639
Weighted MatthewsCorrelation: 0.27021982946462847
Weighted FMeasure: 0.9018612996245021
Iteration time: 531.0
Weighted AreaUnderPRC: 0.8745284540085545
Mean absolute error: 0.03992458458364937
Coverage of cases: 92.31177094379639
Instances selection time: 531.0
Test time: 1034.0
Accumulative iteration time: 12839.0
Weighted Recall: 0.9231177094379639
Weighted FalsePositiveRate: 0.7652405411383689
Kappa statistic: 0.22333929737865962
Training time: 0.0
		
Iteration: 28
Labeled set size: 917
Unlabelled set size: 969
	
Mean region size: 25.0
Incorrectly Classified Instances: 7.582184517497349
Correctly Classified Instances: 92.41781548250265
Weighted Precision: 0.8883352734532869
Weighted AreaUnderROC: 0.5849709328922217
Root mean squared error: 0.19429301284997602
Relative absolute error: 10.497186817561083
Root relative squared error: 44.87004930823883
Weighted TruePositiveRate: 0.9241781548250265
Weighted MatthewsCorrelation: 0.27784573867581785
Weighted FMeasure: 0.9024264081735957
Iteration time: 539.0
Weighted AreaUnderPRC: 0.8746147345042723
Mean absolute error: 0.03936445056585406
Coverage of cases: 92.41781548250265
Instances selection time: 539.0
Test time: 1052.0
Accumulative iteration time: 13378.0
Weighted Recall: 0.9241781548250265
Weighted FalsePositiveRate: 0.7651830435405238
Kappa statistic: 0.2268364562071416
Training time: 0.0
		
Iteration: 29
Labeled set size: 937
Unlabelled set size: 949
	
Mean region size: 25.0
Incorrectly Classified Instances: 7.52916224814422
Correctly Classified Instances: 92.47083775185578
Weighted Precision: 0.8886388495864953
Weighted AreaUnderROC: 0.5852504186384487
Root mean squared error: 0.1936211315499308
Relative absolute error: 10.418552653239473
Root relative squared error: 44.71488496846099
Weighted TruePositiveRate: 0.9247083775185578
Weighted MatthewsCorrelation: 0.28184416779363713
Weighted FMeasure: 0.9027091203790563
Iteration time: 798.0
Weighted AreaUnderPRC: 0.8746586402743906
Mean absolute error: 0.039069572449648024
Coverage of cases: 92.47083775185578
Instances selection time: 797.0
Test time: 1068.0
Accumulative iteration time: 14176.0
Weighted Recall: 0.9247083775185578
Weighted FalsePositiveRate: 0.7651542947416012
Kappa statistic: 0.22860986056264654
Training time: 1.0
		
Iteration: 30
Labeled set size: 957
Unlabelled set size: 929
	
Mean region size: 25.0
Incorrectly Classified Instances: 7.52916224814422
Correctly Classified Instances: 92.47083775185578
Weighted Precision: 0.8886388495864953
Weighted AreaUnderROC: 0.5852504186384487
Root mean squared error: 0.19362937464288218
Relative absolute error: 10.410650988947033
Root relative squared error: 44.71678862923478
Weighted TruePositiveRate: 0.9247083775185578
Weighted MatthewsCorrelation: 0.28184416779363713
Weighted FMeasure: 0.9027091203790563
Iteration time: 530.0
Weighted AreaUnderPRC: 0.8746586402743906
Mean absolute error: 0.03903994120855137
Coverage of cases: 92.47083775185578
Instances selection time: 530.0
Test time: 1090.0
Accumulative iteration time: 14706.0
Weighted Recall: 0.9247083775185578
Weighted FalsePositiveRate: 0.7651542947416012
Kappa statistic: 0.22860986056264654
Training time: 0.0
		
Iteration: 31
Labeled set size: 977
Unlabelled set size: 909
	
Mean region size: 25.0
Incorrectly Classified Instances: 7.52916224814422
Correctly Classified Instances: 92.47083775185578
Weighted Precision: 0.8886388495864953
Weighted AreaUnderROC: 0.5852504186384487
Root mean squared error: 0.19363728835032154
Relative absolute error: 10.40307151722766
Root relative squared error: 44.718616221682936
Weighted TruePositiveRate: 0.9247083775185578
Weighted MatthewsCorrelation: 0.28184416779363713
Weighted FMeasure: 0.9027091203790563
Iteration time: 532.0
Weighted AreaUnderPRC: 0.8746586402743906
Mean absolute error: 0.03901151818960373
Coverage of cases: 92.47083775185578
Instances selection time: 532.0
Test time: 1110.0
Accumulative iteration time: 15238.0
Weighted Recall: 0.9247083775185578
Weighted FalsePositiveRate: 0.7651542947416012
Kappa statistic: 0.22860986056264654
Training time: 0.0
		
Iteration: 32
Labeled set size: 997
Unlabelled set size: 889
	
Mean region size: 25.0
Incorrectly Classified Instances: 7.52916224814422
Correctly Classified Instances: 92.47083775185578
Weighted Precision: 0.8886388495864953
Weighted AreaUnderROC: 0.5869162291058311
Root mean squared error: 0.19364487052899543
Relative absolute error: 10.39505484000282
Root relative squared error: 44.720367250842294
Weighted TruePositiveRate: 0.9247083775185578
Weighted MatthewsCorrelation: 0.28184416779363713
Weighted FMeasure: 0.9027091203790563
Iteration time: 541.0
Weighted AreaUnderPRC: 0.8749136535176478
Mean absolute error: 0.03898145565001057
Coverage of cases: 92.47083775185578
Instances selection time: 541.0
Test time: 1138.0
Accumulative iteration time: 15779.0
Weighted Recall: 0.9247083775185578
Weighted FalsePositiveRate: 0.7651542947416012
Kappa statistic: 0.22860986056264654
Training time: 0.0
		
Iteration: 33
Labeled set size: 1017
Unlabelled set size: 869
	
Mean region size: 25.0
Incorrectly Classified Instances: 7.4761399787910925
Correctly Classified Instances: 92.5238600212089
Weighted Precision: 0.8889724670141166
Weighted AreaUnderROC: 0.5871957148520581
Root mean squared error: 0.19296915611691023
Relative absolute error: 10.317658407813086
Root relative squared error: 44.56431769175722
Weighted TruePositiveRate: 0.925238600212089
Weighted MatthewsCorrelation: 0.2859763212835132
Weighted FMeasure: 0.902991946899789
Iteration time: 557.0
Weighted AreaUnderPRC: 0.8749580502364457
Mean absolute error: 0.038691219029299076
Coverage of cases: 92.5238600212089
Instances selection time: 557.0
Test time: 1152.0
Accumulative iteration time: 16336.0
Weighted Recall: 0.925238600212089
Weighted FalsePositiveRate: 0.7651255459426786
Kappa statistic: 0.23040012965288825
Training time: 0.0
		
Iteration: 34
Labeled set size: 1037
Unlabelled set size: 849
	
Mean region size: 25.0
Incorrectly Classified Instances: 7.4761399787910925
Correctly Classified Instances: 92.5238600212089
Weighted Precision: 0.8889724670141166
Weighted AreaUnderROC: 0.5871957148520581
Root mean squared error: 0.19297616594120964
Relative absolute error: 10.31094413901432
Root relative squared error: 44.56593654133571
Weighted TruePositiveRate: 0.925238600212089
Weighted MatthewsCorrelation: 0.2859763212835132
Weighted FMeasure: 0.902991946899789
Iteration time: 549.0
Weighted AreaUnderPRC: 0.8749580502364457
Mean absolute error: 0.0386660405213037
Coverage of cases: 92.5238600212089
Instances selection time: 549.0
Test time: 1176.0
Accumulative iteration time: 16885.0
Weighted Recall: 0.925238600212089
Weighted FalsePositiveRate: 0.7651255459426786
Kappa statistic: 0.23040012965288825
Training time: 0.0
		
Iteration: 35
Labeled set size: 1057
Unlabelled set size: 829
	
Mean region size: 25.0
Incorrectly Classified Instances: 7.4761399787910925
Correctly Classified Instances: 92.5238600212089
Weighted Precision: 0.8889724670141166
Weighted AreaUnderROC: 0.5871957148520581
Root mean squared error: 0.19298291638647055
Relative absolute error: 10.304483004264208
Root relative squared error: 44.56749548989113
Weighted TruePositiveRate: 0.925238600212089
Weighted MatthewsCorrelation: 0.2859763212835132
Weighted FMeasure: 0.902991946899789
Iteration time: 548.0
Weighted AreaUnderPRC: 0.8749580502364457
Mean absolute error: 0.038641811265990776
Coverage of cases: 92.5238600212089
Instances selection time: 547.0
Test time: 1195.0
Accumulative iteration time: 17433.0
Weighted Recall: 0.925238600212089
Weighted FalsePositiveRate: 0.7651255459426786
Kappa statistic: 0.23040012965288825
Training time: 1.0
		
Iteration: 36
Labeled set size: 1077
Unlabelled set size: 809
	
Mean region size: 25.0
Incorrectly Classified Instances: 7.4761399787910925
Correctly Classified Instances: 92.5238600212089
Weighted Precision: 0.8889724670141166
Weighted AreaUnderROC: 0.5879096336237932
Root mean squared error: 0.19298941365706573
Relative absolute error: 10.297967203169089
Root relative squared error: 44.56899597026197
Weighted TruePositiveRate: 0.925238600212089
Weighted MatthewsCorrelation: 0.2859763212835132
Weighted FMeasure: 0.902991946899789
Iteration time: 545.0
Weighted AreaUnderPRC: 0.8750673112088766
Mean absolute error: 0.038617377011884085
Coverage of cases: 92.5238600212089
Instances selection time: 545.0
Test time: 1218.0
Accumulative iteration time: 17978.0
Weighted Recall: 0.925238600212089
Weighted FalsePositiveRate: 0.7651255459426786
Kappa statistic: 0.23040012965288825
Training time: 0.0
		
Iteration: 37
Labeled set size: 1097
Unlabelled set size: 789
	
Mean region size: 25.0
Incorrectly Classified Instances: 7.4761399787910925
Correctly Classified Instances: 92.5238600212089
Weighted Precision: 0.8889724670141166
Weighted AreaUnderROC: 0.5874336877759698
Root mean squared error: 0.19299569210394035
Relative absolute error: 10.292168815653065
Root relative squared error: 44.570445915459246
Weighted TruePositiveRate: 0.925238600212089
Weighted MatthewsCorrelation: 0.2859763212835132
Weighted FMeasure: 0.902991946899789
Iteration time: 514.0
Weighted AreaUnderPRC: 0.874994468805275
Mean absolute error: 0.038595633058698994
Coverage of cases: 92.5238600212089
Instances selection time: 514.0
Test time: 1240.0
Accumulative iteration time: 18492.0
Weighted Recall: 0.925238600212089
Weighted FalsePositiveRate: 0.7651255459426786
Kappa statistic: 0.23040012965288825
Training time: 0.0
		
Iteration: 38
Labeled set size: 1117
Unlabelled set size: 769
	
Mean region size: 25.0
Incorrectly Classified Instances: 7.423117709437964
Correctly Classified Instances: 92.57688229056204
Weighted Precision: 0.8893414334929326
Weighted AreaUnderROC: 0.5877131735221967
Root mean squared error: 0.1923161676462244
Relative absolute error: 10.215944389150463
Root relative squared error: 44.41351646402594
Weighted TruePositiveRate: 0.9257688229056203
Weighted MatthewsCorrelation: 0.290250642567134
Weighted FMeasure: 0.903274894798104
Iteration time: 514.0
Weighted AreaUnderPRC: 0.875039579337131
Mean absolute error: 0.038309791459314235
Coverage of cases: 92.57688229056204
Instances selection time: 514.0
Test time: 1257.0
Accumulative iteration time: 19006.0
Weighted Recall: 0.9257688229056203
Weighted FalsePositiveRate: 0.7650967971437559
Kappa statistic: 0.23220750519780722
Training time: 0.0
		
Iteration: 39
Labeled set size: 1137
Unlabelled set size: 749
	
Mean region size: 25.0
Incorrectly Classified Instances: 7.423117709437964
Correctly Classified Instances: 92.57688229056204
Weighted Precision: 0.8893414334929326
Weighted AreaUnderROC: 0.58818911937002
Root mean squared error: 0.19232198527893438
Relative absolute error: 10.210176728705111
Root relative squared error: 44.41485998875041
Weighted TruePositiveRate: 0.9257688229056203
Weighted MatthewsCorrelation: 0.290250642567134
Weighted FMeasure: 0.903274894798104
Iteration time: 510.0
Weighted AreaUnderPRC: 0.8751123840255348
Mean absolute error: 0.03828816273264417
Coverage of cases: 92.57688229056204
Instances selection time: 510.0
Test time: 1281.0
Accumulative iteration time: 19516.0
Weighted Recall: 0.9257688229056203
Weighted FalsePositiveRate: 0.7650967971437559
Kappa statistic: 0.23220750519780722
Training time: 0.0
		
Iteration: 40
Labeled set size: 1157
Unlabelled set size: 729
	
Mean region size: 25.0
Incorrectly Classified Instances: 7.423117709437964
Correctly Classified Instances: 92.57688229056204
Weighted Precision: 0.8893414334929326
Weighted AreaUnderROC: 0.58818911937002
Root mean squared error: 0.19232761064038442
Relative absolute error: 10.204790136447869
Root relative squared error: 44.416159110329396
Weighted TruePositiveRate: 0.9257688229056203
Weighted MatthewsCorrelation: 0.290250642567134
Weighted FMeasure: 0.903274894798104
Iteration time: 517.0
Weighted AreaUnderPRC: 0.8751123840255348
Mean absolute error: 0.03826796301167951
Coverage of cases: 92.57688229056204
Instances selection time: 517.0
Test time: 1309.0
Accumulative iteration time: 20033.0
Weighted Recall: 0.9257688229056203
Weighted FalsePositiveRate: 0.7650967971437559
Kappa statistic: 0.23220750519780722
Training time: 0.0
		
Iteration: 41
Labeled set size: 1177
Unlabelled set size: 709
	
Mean region size: 25.0
Incorrectly Classified Instances: 7.423117709437964
Correctly Classified Instances: 92.57688229056204
Weighted Precision: 0.8893414334929326
Weighted AreaUnderROC: 0.58818911937002
Root mean squared error: 0.19233304864848447
Relative absolute error: 10.199585988932345
Root relative squared error: 44.41741496450556
Weighted TruePositiveRate: 0.9257688229056203
Weighted MatthewsCorrelation: 0.290250642567134
Weighted FMeasure: 0.903274894798104
Iteration time: 503.0
Weighted AreaUnderPRC: 0.8751123840255348
Mean absolute error: 0.038248447458496294
Coverage of cases: 92.57688229056204
Instances selection time: 503.0
Test time: 1323.0
Accumulative iteration time: 20536.0
Weighted Recall: 0.9257688229056203
Weighted FalsePositiveRate: 0.7650967971437559
Kappa statistic: 0.23220750519780722
Training time: 0.0
		
Iteration: 42
Labeled set size: 1197
Unlabelled set size: 689
	
Mean region size: 25.0
Incorrectly Classified Instances: 7.264050901378579
Correctly Classified Instances: 92.73594909862142
Weighted Precision: 0.8917459131536545
Weighted AreaUnderROC: 0.5894886206049849
Root mean squared error: 0.19026649240651788
Relative absolute error: 9.98299616973416
Root relative squared error: 43.9401642434676
Weighted TruePositiveRate: 0.9273594909862142
Weighted MatthewsCorrelation: 0.3044592107196858
Weighted FMeasure: 0.9044957169433627
Iteration time: 499.0
Weighted AreaUnderPRC: 0.8761106922242656
Mean absolute error: 0.0374362356365031
Coverage of cases: 92.73594909862142
Instances selection time: 499.0
Test time: 1349.0
Accumulative iteration time: 21035.0
Weighted Recall: 0.9273594909862142
Weighted FalsePositiveRate: 0.7650403544500679
Kappa statistic: 0.23751431235761414
Training time: 0.0
		
Iteration: 43
Labeled set size: 1217
Unlabelled set size: 669
	
Mean region size: 25.0
Incorrectly Classified Instances: 7.264050901378579
Correctly Classified Instances: 92.73594909862142
Weighted Precision: 0.8917459131536545
Weighted AreaUnderROC: 0.5894886206049849
Root mean squared error: 0.19027152427501978
Relative absolute error: 9.97812147714123
Root relative squared error: 43.94132630372123
Weighted TruePositiveRate: 0.9273594909862142
Weighted MatthewsCorrelation: 0.3044592107196858
Weighted FMeasure: 0.9044957169433627
Iteration time: 489.0
Weighted AreaUnderPRC: 0.8761106922242656
Mean absolute error: 0.03741795553927961
Coverage of cases: 92.73594909862142
Instances selection time: 488.0
Test time: 1371.0
Accumulative iteration time: 21524.0
Weighted Recall: 0.9273594909862142
Weighted FalsePositiveRate: 0.7650403544500679
Kappa statistic: 0.23751431235761414
Training time: 1.0
		
Iteration: 44
Labeled set size: 1237
Unlabelled set size: 649
	
Mean region size: 25.0
Incorrectly Classified Instances: 7.264050901378579
Correctly Classified Instances: 92.73594909862142
Weighted Precision: 0.8917459131536545
Weighted AreaUnderROC: 0.5894886206049849
Root mean squared error: 0.190276396582214
Relative absolute error: 9.973403908594955
Root relative squared error: 43.9424515148693
Weighted TruePositiveRate: 0.9273594909862142
Weighted MatthewsCorrelation: 0.3044592107196858
Weighted FMeasure: 0.9044957169433627
Iteration time: 484.0
Weighted AreaUnderPRC: 0.8761106922242656
Mean absolute error: 0.03740026465723108
Coverage of cases: 92.73594909862142
Instances selection time: 484.0
Test time: 1397.0
Accumulative iteration time: 22008.0
Weighted Recall: 0.9273594909862142
Weighted FalsePositiveRate: 0.7650403544500679
Kappa statistic: 0.23751431235761414
Training time: 0.0
		
Iteration: 45
Labeled set size: 1257
Unlabelled set size: 629
	
Mean region size: 25.0
Incorrectly Classified Instances: 7.264050901378579
Correctly Classified Instances: 92.73594909862142
Weighted Precision: 0.8917459131536545
Weighted AreaUnderROC: 0.5894886206049849
Root mean squared error: 0.19028111679706397
Relative absolute error: 9.968835987808951
Root relative squared error: 43.943541601795005
Weighted TruePositiveRate: 0.9273594909862142
Weighted MatthewsCorrelation: 0.3044592107196858
Weighted FMeasure: 0.9044957169433627
Iteration time: 495.0
Weighted AreaUnderPRC: 0.8761106922242656
Mean absolute error: 0.03738313495428357
Coverage of cases: 92.73594909862142
Instances selection time: 495.0
Test time: 1407.0
Accumulative iteration time: 22503.0
Weighted Recall: 0.9273594909862142
Weighted FalsePositiveRate: 0.7650403544500679
Kappa statistic: 0.23751431235761414
Training time: 0.0
		
Iteration: 46
Labeled set size: 1277
Unlabelled set size: 609
	
Mean region size: 25.0
Incorrectly Classified Instances: 7.264050901378579
Correctly Classified Instances: 92.73594909862142
Weighted Precision: 0.8917459131536545
Weighted AreaUnderROC: 0.5894886206049849
Root mean squared error: 0.19028569192967115
Relative absolute error: 9.964410705407587
Root relative squared error: 43.94459818341194
Weighted TruePositiveRate: 0.9273594909862142
Weighted MatthewsCorrelation: 0.3044592107196858
Weighted FMeasure: 0.9044957169433627
Iteration time: 524.0
Weighted AreaUnderPRC: 0.8761106922242656
Mean absolute error: 0.03736654014527845
Coverage of cases: 92.73594909862142
Instances selection time: 524.0
Test time: 1431.0
Accumulative iteration time: 23027.0
Weighted Recall: 0.9273594909862142
Weighted FalsePositiveRate: 0.7650403544500679
Kappa statistic: 0.23751431235761414
Training time: 0.0
		
Time end:Tue Oct 31 11.51.01 EET 2017