Tue Oct 31 12.50.50 EET 2017
Dataset: hypothyroid
Test set size: 1886
Initial Labelled set size: 377
Initial Unlabelled set size: 1509
Batch mode: QBestBatchMode
Batch size: 20
Classifiers: IBk-1cores
Scenario: PoolBasedSamplingScenario
Query strategy: RandomSelectionQueryStrategy-1cores
Time begining: Tue Oct 31 12.50.50 EET 2017
		
Iteration: 1
Labeled set size: 377
Unlabelled set size: 1509
	
Mean region size: 25.0
Incorrectly Classified Instances: 9.650053022269352
Correctly Classified Instances: 90.34994697773065
Weighted Precision: 0.882510889247031
Weighted AreaUnderROC: 0.5897853650003655
Root mean squared error: 0.2185504560516925
Relative absolute error: 13.779307365788306
Root relative squared error: 50.472065853184056
Weighted TruePositiveRate: 0.9034994697773064
Weighted MatthewsCorrelation: 0.2268723817957758
Weighted FMeasure: 0.891018955810584
Iteration time: 5.0
Weighted AreaUnderPRC: 0.8697873179275586
Mean absolute error: 0.051672402621706144
Coverage of cases: 90.34994697773065
Instances selection time: 5.0
Test time: 412.0
Accumulative iteration time: 5.0
Weighted Recall: 0.9034994697773064
Weighted FalsePositiveRate: 0.7275644507923891
Kappa statistic: 0.17100903250736554
Training time: 0.0
		
Iteration: 2
Labeled set size: 397
Unlabelled set size: 1489
	
Mean region size: 25.0
Incorrectly Classified Instances: 9.597030752916226
Correctly Classified Instances: 90.40296924708377
Weighted Precision: 0.8854210872885058
Weighted AreaUnderROC: 0.5868738787252805
Root mean squared error: 0.21800251445911942
Relative absolute error: 13.663800934280964
Root relative squared error: 50.34552416279516
Weighted TruePositiveRate: 0.9040296924708378
Weighted MatthewsCorrelation: 0.22415100707148253
Weighted FMeasure: 0.891087780068269
Iteration time: 4.0
Weighted AreaUnderPRC: 0.86989945097143
Mean absolute error: 0.051239253503553614
Coverage of cases: 90.40296924708377
Instances selection time: 4.0
Test time: 476.0
Accumulative iteration time: 9.0
Weighted Recall: 0.9040296924708378
Weighted FalsePositiveRate: 0.7339492707369034
Kappa statistic: 0.16511526665655743
Training time: 0.0
		
Iteration: 3
Labeled set size: 417
Unlabelled set size: 1469
	
Mean region size: 25.0
Incorrectly Classified Instances: 9.809119830328738
Correctly Classified Instances: 90.19088016967126
Weighted Precision: 0.8859095939222447
Weighted AreaUnderROC: 0.597962419829209
Root mean squared error: 0.22044612393991203
Relative absolute error: 13.90317671141482
Root relative squared error: 50.909851599407126
Weighted TruePositiveRate: 0.9019088016967126
Weighted MatthewsCorrelation: 0.23663736210849368
Weighted FMeasure: 0.892181478278927
Iteration time: 5.0
Weighted AreaUnderPRC: 0.8719711218705741
Mean absolute error: 0.052136912667805575
Coverage of cases: 90.19088016967126
Instances selection time: 5.0
Test time: 496.0
Accumulative iteration time: 14.0
Weighted Recall: 0.9019088016967126
Weighted FalsePositiveRate: 0.7086379564941048
Kappa statistic: 0.1898061070474864
Training time: 0.0
		
Iteration: 4
Labeled set size: 437
Unlabelled set size: 1449
	
Mean region size: 25.0
Incorrectly Classified Instances: 9.703075291622481
Correctly Classified Instances: 90.29692470837752
Weighted Precision: 0.8852233993438294
Weighted AreaUnderROC: 0.5953644604686255
Root mean squared error: 0.2192959568022437
Relative absolute error: 13.725680653208235
Root relative squared error: 50.64423187678878
Weighted TruePositiveRate: 0.9029692470837752
Weighted MatthewsCorrelation: 0.23492583580967002
Weighted FMeasure: 0.8922988052581998
Iteration time: 4.0
Weighted AreaUnderPRC: 0.8715409934509344
Mean absolute error: 0.05147130244953088
Coverage of cases: 90.29692470837752
Instances selection time: 4.0
Test time: 520.0
Accumulative iteration time: 18.0
Weighted Recall: 0.9029692470837752
Weighted FalsePositiveRate: 0.7149180391279435
Kappa statistic: 0.1861373250894894
Training time: 0.0
		
Iteration: 5
Labeled set size: 457
Unlabelled set size: 1429
	
Mean region size: 25.0
Incorrectly Classified Instances: 9.809119830328738
Correctly Classified Instances: 90.19088016967126
Weighted Precision: 0.8845761252799382
Weighted AreaUnderROC: 0.5909727556773217
Root mean squared error: 0.22053149495697388
Relative absolute error: 13.832336086480185
Root relative squared error: 50.929567191279794
Weighted TruePositiveRate: 0.9019088016967126
Weighted MatthewsCorrelation: 0.22452696334831618
Weighted FMeasure: 0.8914666113188504
Iteration time: 4.0
Weighted AreaUnderPRC: 0.8708845516776613
Mean absolute error: 0.05187126032430069
Coverage of cases: 90.19088016967126
Instances selection time: 4.0
Test time: 539.0
Accumulative iteration time: 22.0
Weighted Recall: 0.9019088016967126
Weighted FalsePositiveRate: 0.7213131169574728
Kappa statistic: 0.18041990237669095
Training time: 0.0
		
Iteration: 6
Labeled set size: 477
Unlabelled set size: 1409
	
Mean region size: 25.0
Incorrectly Classified Instances: 9.650053022269352
Correctly Classified Instances: 90.34994697773065
Weighted Precision: 0.8839889920389921
Weighted AreaUnderROC: 0.5886483403443127
Root mean squared error: 0.21877378002898187
Relative absolute error: 13.590679660855132
Root relative squared error: 50.523640316545865
Weighted TruePositiveRate: 0.9034994697773064
Weighted MatthewsCorrelation: 0.22447893989492823
Weighted FMeasure: 0.8918178223451692
Iteration time: 4.0
Weighted AreaUnderPRC: 0.8702402717454324
Mean absolute error: 0.05096504872820675
Coverage of cases: 90.34994697773065
Instances selection time: 4.0
Test time: 562.0
Accumulative iteration time: 26.0
Weighted Recall: 0.9034994697773064
Weighted FalsePositiveRate: 0.7275644507923891
Kappa statistic: 0.17773710737624804
Training time: 0.0
		
Iteration: 7
Labeled set size: 497
Unlabelled set size: 1389
	
Mean region size: 25.0
Incorrectly Classified Instances: 9.650053022269352
Correctly Classified Instances: 90.34994697773065
Weighted Precision: 0.8889383047620817
Weighted AreaUnderROC: 0.6044694250030752
Root mean squared error: 0.21880806972468816
Relative absolute error: 13.561779662460046
Root relative squared error: 50.53155918256445
Weighted TruePositiveRate: 0.9034994697773064
Weighted MatthewsCorrelation: 0.24894414729809988
Weighted FMeasure: 0.8950102464805754
Iteration time: 4.0
Weighted AreaUnderPRC: 0.8746175919975498
Mean absolute error: 0.050856673734225165
Coverage of cases: 90.34994697773065
Instances selection time: 4.0
Test time: 583.0
Accumulative iteration time: 30.0
Weighted Recall: 0.9034994697773064
Weighted FalsePositiveRate: 0.6958613519316184
Kappa statistic: 0.21547062346009124
Training time: 0.0
		
Iteration: 8
Labeled set size: 517
Unlabelled set size: 1369
	
Mean region size: 25.0
Incorrectly Classified Instances: 9.544008483563097
Correctly Classified Instances: 90.45599151643691
Weighted Precision: 0.8892406585032195
Weighted AreaUnderROC: 0.602725399257584
Root mean squared error: 0.21763430605155942
Relative absolute error: 13.393980288121975
Root relative squared error: 50.2604900735061
Weighted TruePositiveRate: 0.9045599151643691
Weighted MatthewsCorrelation: 0.2476713913806309
Weighted FMeasure: 0.8953393734015945
Iteration time: 4.0
Weighted AreaUnderPRC: 0.8746811344689677
Mean absolute error: 0.05022742608045741
Coverage of cases: 90.45599151643691
Instances selection time: 4.0
Test time: 606.0
Accumulative iteration time: 34.0
Weighted Recall: 0.9045599151643691
Weighted FalsePositiveRate: 0.7021718299701583
Kappa statistic: 0.2120691656028784
Training time: 0.0
		
Iteration: 9
Labeled set size: 537
Unlabelled set size: 1349
	
Mean region size: 25.0
Incorrectly Classified Instances: 9.703075291622481
Correctly Classified Instances: 90.29692470837752
Weighted Precision: 0.8907217475803446
Weighted AreaUnderROC: 0.608196850637376
Root mean squared error: 0.21946956322066402
Relative absolute error: 13.579782534998808
Root relative squared error: 50.684324561751986
Weighted TruePositiveRate: 0.9029692470837752
Weighted MatthewsCorrelation: 0.25269588640886376
Weighted FMeasure: 0.8953961767642625
Iteration time: 3.0
Weighted AreaUnderPRC: 0.8755962983296703
Mean absolute error: 0.05092418450624553
Coverage of cases: 90.29692470837752
Instances selection time: 3.0
Test time: 630.0
Accumulative iteration time: 37.0
Weighted Recall: 0.9029692470837752
Weighted FalsePositiveRate: 0.6895829159035581
Kappa statistic: 0.21977674191492014
Training time: 0.0
		
Iteration: 10
Labeled set size: 557
Unlabelled set size: 1329
	
Mean region size: 25.0
Incorrectly Classified Instances: 9.75609756097561
Correctly Classified Instances: 90.2439024390244
Weighted Precision: 0.8916781143332237
Weighted AreaUnderROC: 0.6079087287121776
Root mean squared error: 0.2200958487143306
Relative absolute error: 13.627074508680344
Root relative squared error: 50.82895900109517
Weighted TruePositiveRate: 0.9024390243902439
Weighted MatthewsCorrelation: 0.2499783158131073
Weighted FMeasure: 0.8954558349568957
Iteration time: 3.0
Weighted AreaUnderPRC: 0.8758350578096566
Mean absolute error: 0.05110152940755129
Coverage of cases: 90.2439024390244
Instances selection time: 3.0
Test time: 650.0
Accumulative iteration time: 40.0
Weighted Recall: 0.9024390243902439
Weighted FalsePositiveRate: 0.6896268624048313
Kappa statistic: 0.22121383495363536
Training time: 0.0
		
Iteration: 11
Labeled set size: 577
Unlabelled set size: 1309
	
Mean region size: 25.0
Incorrectly Classified Instances: 9.490986214209968
Correctly Classified Instances: 90.50901378579003
Weighted Precision: 0.890680797080044
Weighted AreaUnderROC: 0.6061588301888343
Root mean squared error: 0.21711075878792369
Relative absolute error: 13.254719988200803
Root relative squared error: 50.13958201206866
Weighted TruePositiveRate: 0.9050901378579003
Weighted MatthewsCorrelation: 0.2535171768540691
Weighted FMeasure: 0.8964326167493316
Iteration time: 3.0
Weighted AreaUnderPRC: 0.8756701545932161
Mean absolute error: 0.04970519995575301
Coverage of cases: 90.50901378579003
Instances selection time: 3.0
Test time: 672.0
Accumulative iteration time: 43.0
Weighted Recall: 0.9050901378579003
Weighted FalsePositiveRate: 0.6958055009395516
Kappa statistic: 0.2224704505882237
Training time: 0.0
		
Iteration: 12
Labeled set size: 597
Unlabelled set size: 1289
	
Mean region size: 25.0
Incorrectly Classified Instances: 9.225874867444327
Correctly Classified Instances: 90.77412513255567
Weighted Precision: 0.894001876365461
Weighted AreaUnderROC: 0.6201761889712485
Root mean squared error: 0.21408091794233952
Relative absolute error: 12.883621566086878
Root relative squared error: 49.43987024094877
Weighted TruePositiveRate: 0.9077412513255567
Weighted MatthewsCorrelation: 0.28297919480907896
Weighted FMeasure: 0.8997835722854703
Iteration time: 4.0
Weighted AreaUnderPRC: 0.8794191011666915
Mean absolute error: 0.04831358087282579
Coverage of cases: 90.77412513255567
Instances selection time: 3.0
Test time: 696.0
Accumulative iteration time: 47.0
Weighted Recall: 0.9077412513255567
Weighted FalsePositiveRate: 0.6703114360182025
Kappa statistic: 0.25301830101065287
Training time: 1.0
		
Iteration: 13
Labeled set size: 617
Unlabelled set size: 1269
	
Mean region size: 25.0
Incorrectly Classified Instances: 9.066808059384941
Correctly Classified Instances: 90.93319194061506
Weighted Precision: 0.8944444251834592
Weighted AreaUnderROC: 0.6210146462099295
Root mean squared error: 0.21224936099743866
Relative absolute error: 12.654139855349621
Root relative squared error: 49.016890282878904
Weighted TruePositiveRate: 0.9093319194061505
Weighted MatthewsCorrelation: 0.28893997357121026
Weighted FMeasure: 0.9007272491353083
Iteration time: 3.0
Weighted AreaUnderPRC: 0.8795754063432413
Mean absolute error: 0.04745302445756108
Coverage of cases: 90.93319194061506
Instances selection time: 3.0
Test time: 714.0
Accumulative iteration time: 50.0
Weighted Recall: 0.9093319194061505
Weighted FalsePositiveRate: 0.6702251896214346
Kappa statistic: 0.2575623636012038
Training time: 0.0
		
Iteration: 14
Labeled set size: 637
Unlabelled set size: 1249
	
Mean region size: 25.0
Incorrectly Classified Instances: 9.013785790031813
Correctly Classified Instances: 90.98621420996818
Weighted Precision: 0.894598869519488
Weighted AreaUnderROC: 0.6212941319561563
Root mean squared error: 0.21164821918880405
Relative absolute error: 12.566253888586715
Root relative squared error: 48.87806252886438
Weighted TruePositiveRate: 0.9098621420996819
Weighted MatthewsCorrelation: 0.2909826846327446
Weighted FMeasure: 0.9010424935646933
Iteration time: 4.0
Weighted AreaUnderPRC: 0.879628305773828
Mean absolute error: 0.04712345208220018
Coverage of cases: 90.98621420996818
Instances selection time: 4.0
Test time: 734.0
Accumulative iteration time: 54.0
Weighted Recall: 0.9098621420996819
Weighted FalsePositiveRate: 0.6701964408225121
Kappa statistic: 0.2591000684007172
Training time: 0.0
		
Iteration: 15
Labeled set size: 657
Unlabelled set size: 1229
	
Mean region size: 25.0
Incorrectly Classified Instances: 9.066808059384941
Correctly Classified Instances: 90.93319194061506
Weighted Precision: 0.8951512244602624
Weighted AreaUnderROC: 0.6241706096433786
Root mean squared error: 0.2122888394465059
Relative absolute error: 12.619945236147325
Root relative squared error: 49.02600744015737
Weighted TruePositiveRate: 0.9093319194061505
Weighted MatthewsCorrelation: 0.2953372060723622
Weighted FMeasure: 0.9010209808275536
Iteration time: 3.0
Weighted AreaUnderPRC: 0.8796993437641343
Mean absolute error: 0.04732479463555247
Coverage of cases: 90.93319194061506
Instances selection time: 3.0
Test time: 756.0
Accumulative iteration time: 57.0
Weighted Recall: 0.9093319194061505
Weighted FalsePositiveRate: 0.6638876093897506
Kappa statistic: 0.2602768004183655
Training time: 0.0
		
Iteration: 16
Labeled set size: 677
Unlabelled set size: 1209
	
Mean region size: 25.0
Incorrectly Classified Instances: 9.066808059384941
Correctly Classified Instances: 90.93319194061506
Weighted Precision: 0.8951512244602624
Weighted AreaUnderROC: 0.6243775317341186
Root mean squared error: 0.21230687546310728
Relative absolute error: 12.604199046699241
Root relative squared error: 49.030172679773344
Weighted TruePositiveRate: 0.9093319194061505
Weighted MatthewsCorrelation: 0.2953372060723622
Weighted FMeasure: 0.9010209808275536
Iteration time: 3.0
Weighted AreaUnderPRC: 0.879731621219221
Mean absolute error: 0.04726574642512216
Coverage of cases: 90.93319194061506
Instances selection time: 3.0
Test time: 774.0
Accumulative iteration time: 60.0
Weighted Recall: 0.9093319194061505
Weighted FalsePositiveRate: 0.6638876093897506
Kappa statistic: 0.2602768004183655
Training time: 0.0
		
Iteration: 17
Labeled set size: 697
Unlabelled set size: 1189
	
Mean region size: 25.0
Incorrectly Classified Instances: 9.066808059384941
Correctly Classified Instances: 90.93319194061506
Weighted Precision: 0.8951512244602624
Weighted AreaUnderROC: 0.6247913759155982
Root mean squared error: 0.21232390102499235
Relative absolute error: 12.589200492600748
Root relative squared error: 49.034104564868315
Weighted TruePositiveRate: 0.9093319194061505
Weighted MatthewsCorrelation: 0.2953372060723622
Weighted FMeasure: 0.9010209808275536
Iteration time: 3.0
Weighted AreaUnderPRC: 0.8797961807245803
Mean absolute error: 0.04720950184725281
Coverage of cases: 90.93319194061506
Instances selection time: 3.0
Test time: 797.0
Accumulative iteration time: 63.0
Weighted Recall: 0.9093319194061505
Weighted FalsePositiveRate: 0.6638876093897506
Kappa statistic: 0.2602768004183655
Training time: 0.0
		
Iteration: 18
Labeled set size: 717
Unlabelled set size: 1169
	
Mean region size: 25.0
Incorrectly Classified Instances: 8.907741251325557
Correctly Classified Instances: 91.09225874867444
Weighted Precision: 0.8967407570137631
Weighted AreaUnderROC: 0.6350860685174751
Root mean squared error: 0.21046938084787875
Relative absolute error: 12.364414896891603
Root relative squared error: 48.60582147547867
Weighted TruePositiveRate: 0.9109225874867445
Weighted MatthewsCorrelation: 0.31677225728762554
Weighted FMeasure: 0.9028808844603166
Iteration time: 3.0
Weighted AreaUnderPRC: 0.8819360650437635
Mean absolute error: 0.04636655586334351
Coverage of cases: 91.09225874867444
Instances selection time: 3.0
Test time: 821.0
Accumulative iteration time: 66.0
Weighted Recall: 0.9109225874867445
Weighted FalsePositiveRate: 0.64477342459558
Kappa statistic: 0.2789404214646582
Training time: 0.0
		
Iteration: 19
Labeled set size: 737
Unlabelled set size: 1149
	
Mean region size: 25.0
Incorrectly Classified Instances: 8.960763520678684
Correctly Classified Instances: 91.03923647932132
Weighted Precision: 0.8953900943041425
Weighted AreaUnderROC: 0.6316589996994324
Root mean squared error: 0.21110993255814034
Relative absolute error: 12.42157360892491
Root relative squared error: 48.75375055641843
Weighted TruePositiveRate: 0.9103923647932132
Weighted MatthewsCorrelation: 0.31159126483710514
Weighted FMeasure: 0.901852809148968
Iteration time: 3.0
Weighted AreaUnderPRC: 0.8809104709647361
Mean absolute error: 0.04658090103346841
Coverage of cases: 91.03923647932132
Instances selection time: 3.0
Test time: 840.0
Accumulative iteration time: 69.0
Weighted Recall: 0.9103923647932132
Weighted FalsePositiveRate: 0.6511397536261866
Kappa statistic: 0.26909617915896594
Training time: 0.0
		
Iteration: 20
Labeled set size: 757
Unlabelled set size: 1129
	
Mean region size: 25.0
Incorrectly Classified Instances: 8.8016967126193
Correctly Classified Instances: 91.1983032873807
Weighted Precision: 0.8958622954072099
Weighted AreaUnderROC: 0.6324974569381132
Root mean squared error: 0.2092422615854879
Relative absolute error: 12.198144850029628
Root relative squared error: 48.32243042089102
Weighted TruePositiveRate: 0.911983032873807
Weighted MatthewsCorrelation: 0.31809202169370826
Weighted FMeasure: 0.9027987581637552
Iteration time: 3.0
Weighted AreaUnderPRC: 0.8810706360164535
Mean absolute error: 0.045743043187611104
Coverage of cases: 91.1983032873807
Instances selection time: 3.0
Test time: 1043.0
Accumulative iteration time: 72.0
Weighted Recall: 0.911983032873807
Weighted FalsePositiveRate: 0.6510535072294189
Kappa statistic: 0.2738582859793573
Training time: 0.0
		
Iteration: 21
Labeled set size: 777
Unlabelled set size: 1109
	
Mean region size: 25.0
Incorrectly Classified Instances: 8.8016967126193
Correctly Classified Instances: 91.1983032873807
Weighted Precision: 0.8958622954072099
Weighted AreaUnderROC: 0.6320909181149293
Root mean squared error: 0.20925580213655126
Relative absolute error: 12.186570571099699
Root relative squared error: 48.32555747721158
Weighted TruePositiveRate: 0.911983032873807
Weighted MatthewsCorrelation: 0.31809202169370826
Weighted FMeasure: 0.9027987581637552
Iteration time: 3.0
Weighted AreaUnderPRC: 0.88100734897385
Mean absolute error: 0.04569963964162387
Coverage of cases: 91.1983032873807
Instances selection time: 3.0
Test time: 885.0
Accumulative iteration time: 75.0
Weighted Recall: 0.911983032873807
Weighted FalsePositiveRate: 0.6510535072294189
Kappa statistic: 0.2738582859793573
Training time: 0.0
		
Iteration: 22
Labeled set size: 797
Unlabelled set size: 1089
	
Mean region size: 25.0
Incorrectly Classified Instances: 8.8016967126193
Correctly Classified Instances: 91.1983032873807
Weighted Precision: 0.8958622954072099
Weighted AreaUnderROC: 0.6320909181149293
Root mean squared error: 0.209268671347756
Relative absolute error: 12.175310204551382
Root relative squared error: 48.32852949423291
Weighted TruePositiveRate: 0.911983032873807
Weighted MatthewsCorrelation: 0.31809202169370826
Weighted FMeasure: 0.9027987581637552
Iteration time: 3.0
Weighted AreaUnderPRC: 0.88100734897385
Mean absolute error: 0.04565741326706768
Coverage of cases: 91.1983032873807
Instances selection time: 3.0
Test time: 906.0
Accumulative iteration time: 78.0
Weighted Recall: 0.911983032873807
Weighted FalsePositiveRate: 0.6510535072294189
Kappa statistic: 0.2738582859793573
Training time: 0.0
		
Iteration: 23
Labeled set size: 817
Unlabelled set size: 1069
	
Mean region size: 25.0
Incorrectly Classified Instances: 8.907741251325557
Correctly Classified Instances: 91.09225874867444
Weighted Precision: 0.8974331297497415
Weighted AreaUnderROC: 0.638037218477337
Root mean squared error: 0.2105377490387135
Relative absolute error: 12.305173446501776
Root relative squared error: 48.621610432831645
Weighted TruePositiveRate: 0.9109225874867445
Weighted MatthewsCorrelation: 0.32297579159240264
Weighted FMeasure: 0.9031817762850948
Iteration time: 3.0
Weighted AreaUnderPRC: 0.8820425400719517
Mean absolute error: 0.046144400424381664
Coverage of cases: 91.09225874867444
Instances selection time: 3.0
Test time: 921.0
Accumulative iteration time: 81.0
Weighted Recall: 0.9109225874867445
Weighted FalsePositiveRate: 0.6384358443638961
Kappa statistic: 0.2815466175676967
Training time: 0.0
		
Iteration: 24
Labeled set size: 837
Unlabelled set size: 1049
	
Mean region size: 25.0
Incorrectly Classified Instances: 8.854718981972429
Correctly Classified Instances: 91.14528101802757
Weighted Precision: 0.8975966150117288
Weighted AreaUnderROC: 0.6385160205475544
Root mean squared error: 0.20992199434108808
Relative absolute error: 12.224504716258679
Root relative squared error: 48.47940797666013
Weighted TruePositiveRate: 0.9114528101802757
Weighted MatthewsCorrelation: 0.3251112940172139
Weighted FMeasure: 0.9035027473506018
Iteration time: 2.0
Weighted AreaUnderPRC: 0.8821306275121512
Mean absolute error: 0.04584189268597005
Coverage of cases: 91.14528101802757
Instances selection time: 2.0
Test time: 945.0
Accumulative iteration time: 83.0
Weighted Recall: 0.9114528101802757
Weighted FalsePositiveRate: 0.6384070955649734
Kappa statistic: 0.2831508751166437
Training time: 0.0
		
Iteration: 25
Labeled set size: 857
Unlabelled set size: 1029
	
Mean region size: 25.0
Incorrectly Classified Instances: 8.960763520678684
Correctly Classified Instances: 91.03923647932132
Weighted Precision: 0.8976348518629813
Weighted AreaUnderROC: 0.6411075556297862
Root mean squared error: 0.21118641184611406
Relative absolute error: 12.35552590777945
Root relative squared error: 48.77141269141805
Weighted TruePositiveRate: 0.9103923647932132
Weighted MatthewsCorrelation: 0.32687614179151014
Weighted FMeasure: 0.9030649543790477
Iteration time: 3.0
Weighted AreaUnderPRC: 0.8824700564210477
Mean absolute error: 0.04633322215417293
Coverage of cases: 91.03923647932132
Instances selection time: 3.0
Test time: 967.0
Accumulative iteration time: 86.0
Weighted Recall: 0.9103923647932132
Weighted FalsePositiveRate: 0.6321270129311347
Kappa statistic: 0.28261857925465145
Training time: 0.0
		
Iteration: 26
Labeled set size: 877
Unlabelled set size: 1009
	
Mean region size: 25.0
Incorrectly Classified Instances: 8.907741251325557
Correctly Classified Instances: 91.09225874867444
Weighted Precision: 0.8991385099106849
Weighted AreaUnderROC: 0.644528467202672
Root mean squared error: 0.21057145394440027
Relative absolute error: 12.275891869853835
Root relative squared error: 48.629394247380155
Weighted TruePositiveRate: 0.9109225874867445
Weighted MatthewsCorrelation: 0.3336355872377931
Weighted FMeasure: 0.9039922958392521
Iteration time: 2.0
Weighted AreaUnderPRC: 0.8833150001408149
Mean absolute error: 0.04603459451195188
Coverage of cases: 91.09225874867444
Instances selection time: 2.0
Test time: 989.0
Accumulative iteration time: 88.0
Weighted Recall: 0.9109225874867445
Weighted FalsePositiveRate: 0.6257758816028784
Kappa statistic: 0.2894127778674849
Training time: 0.0
		
Iteration: 27
Labeled set size: 897
Unlabelled set size: 989
	
Mean region size: 25.0
Incorrectly Classified Instances: 8.854718981972429
Correctly Classified Instances: 91.14528101802757
Weighted Precision: 0.8980745445699267
Weighted AreaUnderROC: 0.638509823011564
Root mean squared error: 0.20995409636952408
Relative absolute error: 12.196654623993853
Root relative squared error: 48.48682162256375
Weighted TruePositiveRate: 0.9114528101802757
Weighted MatthewsCorrelation: 0.3270160139284556
Weighted FMeasure: 0.9034675710689251
Iteration time: 2.0
Weighted AreaUnderPRC: 0.8816250282287044
Mean absolute error: 0.04573745483997695
Coverage of cases: 91.14528101802757
Instances selection time: 2.0
Test time: 1010.0
Accumulative iteration time: 90.0
Weighted Recall: 0.9114528101802757
Weighted FalsePositiveRate: 0.6384222932673241
Kappa statistic: 0.28021189461944884
Training time: 0.0
		
Iteration: 28
Labeled set size: 917
Unlabelled set size: 969
	
Mean region size: 25.0
Incorrectly Classified Instances: 8.854718981972429
Correctly Classified Instances: 91.14528101802757
Weighted Precision: 0.8990192861911643
Weighted AreaUnderROC: 0.6351478016234956
Root mean squared error: 0.20996388702371632
Relative absolute error: 12.188254119955443
Root relative squared error: 48.48908267729712
Weighted TruePositiveRate: 0.9114528101802757
Weighted MatthewsCorrelation: 0.31800513499221084
Weighted FMeasure: 0.9038994388085265
Iteration time: 3.0
Weighted AreaUnderPRC: 0.8819231300992555
Mean absolute error: 0.045705952949832915
Coverage of cases: 91.14528101802757
Instances selection time: 3.0
Test time: 1035.0
Accumulative iteration time: 93.0
Weighted Recall: 0.9114528101802757
Weighted FalsePositiveRate: 0.6447750712013586
Kappa statistic: 0.28290606074404584
Training time: 0.0
		
Iteration: 29
Labeled set size: 937
Unlabelled set size: 949
	
Mean region size: 25.0
Incorrectly Classified Instances: 8.748674443266172
Correctly Classified Instances: 91.25132555673383
Weighted Precision: 0.8993753730226811
Weighted AreaUnderROC: 0.6357067731159494
Root mean squared error: 0.20871225083913128
Relative absolute error: 12.039344169261193
Root relative squared error: 48.20002968205806
Weighted TruePositiveRate: 0.9125132555673383
Weighted MatthewsCorrelation: 0.3222958121820299
Weighted FMeasure: 0.9045539373235104
Iteration time: 2.0
Weighted AreaUnderPRC: 0.8820470053452791
Mean absolute error: 0.04514754063472948
Coverage of cases: 91.25132555673383
Instances selection time: 2.0
Test time: 1051.0
Accumulative iteration time: 95.0
Weighted Recall: 0.9125132555673383
Weighted FalsePositiveRate: 0.6447175736035134
Kappa statistic: 0.2861501335070607
Training time: 0.0
		
Iteration: 30
Labeled set size: 957
Unlabelled set size: 929
	
Mean region size: 25.0
Incorrectly Classified Instances: 9.013785790031813
Correctly Classified Instances: 90.98621420996818
Weighted Precision: 0.8997289209002772
Weighted AreaUnderROC: 0.640612680535251
Root mean squared error: 0.2118597973698947
Relative absolute error: 12.383561795031339
Root relative squared error: 48.926924416787315
Weighted TruePositiveRate: 0.9098621420996819
Weighted MatthewsCorrelation: 0.322376540395173
Weighted FMeasure: 0.9035801020531031
Iteration time: 2.0
Weighted AreaUnderPRC: 0.8827636624671881
Mean absolute error: 0.04643835673136752
Coverage of cases: 90.98621420996818
Instances selection time: 2.0
Test time: 1077.0
Accumulative iteration time: 97.0
Weighted Recall: 0.9098621420996819
Weighted FalsePositiveRate: 0.6321861571347585
Kappa statistic: 0.2860578421854264
Training time: 0.0
		
Iteration: 31
Labeled set size: 977
Unlabelled set size: 909
	
Mean region size: 25.0
Incorrectly Classified Instances: 9.066808059384941
Correctly Classified Instances: 90.93319194061506
Weighted Precision: 0.8992103154455368
Weighted AreaUnderROC: 0.6371808598602227
Root mean squared error: 0.21249070092539216
Relative absolute error: 12.44652477961683
Root relative squared error: 49.07262535182697
Weighted TruePositiveRate: 0.9093319194061505
Weighted MatthewsCorrelation: 0.3143993042084383
Weighted FMeasure: 0.9030557523175516
Iteration time: 2.0
Weighted AreaUnderPRC: 0.8822546336453546
Mean absolute error: 0.04667446792356311
Coverage of cases: 90.93319194061506
Instances selection time: 2.0
Test time: 1098.0
Accumulative iteration time: 99.0
Weighted Recall: 0.9093319194061505
Weighted FalsePositiveRate: 0.6385524861653651
Kappa statistic: 0.28185818243357574
Training time: 0.0
		
Iteration: 32
Labeled set size: 997
Unlabelled set size: 889
	
Mean region size: 25.0
Incorrectly Classified Instances: 8.907741251325557
Correctly Classified Instances: 91.09225874867444
Weighted Precision: 0.8997087524856767
Weighted AreaUnderROC: 0.6380193170989035
Root mean squared error: 0.2106269510177971
Relative absolute error: 12.22814136695007
Root relative squared error: 48.64221074748611
Weighted TruePositiveRate: 0.9109225874867445
Weighted MatthewsCorrelation: 0.32049803159247914
Weighted FMeasure: 0.9040397006189118
Iteration time: 2.0
Weighted AreaUnderPRC: 0.8824392880959039
Mean absolute error: 0.04585553012606276
Coverage of cases: 91.09225874867444
Instances selection time: 2.0
Test time: 1118.0
Accumulative iteration time: 101.0
Weighted Recall: 0.9109225874867445
Weighted FalsePositiveRate: 0.6384662397685973
Kappa statistic: 0.2866225976692671
Training time: 0.0
		
Iteration: 33
Labeled set size: 1017
Unlabelled set size: 869
	
Mean region size: 25.0
Incorrectly Classified Instances: 8.854718981972429
Correctly Classified Instances: 91.14528101802757
Weighted Precision: 0.9004614310608618
Weighted AreaUnderROC: 0.6414498403285153
Root mean squared error: 0.21000716745316386
Relative absolute error: 12.15084333078576
Root relative squared error: 48.49907786433399
Weighted TruePositiveRate: 0.9114528101802757
Weighted MatthewsCorrelation: 0.3270182330014693
Weighted FMeasure: 0.9047838977626154
Iteration time: 2.0
Weighted AreaUnderPRC: 0.8833815000544483
Mean absolute error: 0.04556566249044659
Coverage of cases: 91.14528101802757
Instances selection time: 2.0
Test time: 1141.0
Accumulative iteration time: 103.0
Weighted Recall: 0.9114528101802757
Weighted FalsePositiveRate: 0.6320999107379907
Kappa statistic: 0.29356324829649694
Training time: 0.0
		
Iteration: 34
Labeled set size: 1037
Unlabelled set size: 849
	
Mean region size: 25.0
Incorrectly Classified Instances: 9.066808059384941
Correctly Classified Instances: 90.93319194061506
Weighted Precision: 0.9006428902308037
Weighted AreaUnderROC: 0.6434828985652423
Root mean squared error: 0.21251495086374722
Relative absolute error: 12.425922519055433
Root relative squared error: 49.07822563520182
Weighted TruePositiveRate: 0.9093319194061505
Weighted MatthewsCorrelation: 0.3234315992877965
Weighted FMeasure: 0.9039195952130878
Iteration time: 2.0
Weighted AreaUnderPRC: 0.8837124432187274
Mean absolute error: 0.04659720944645788
Coverage of cases: 90.93319194061506
Instances selection time: 2.0
Test time: 1161.0
Accumulative iteration time: 105.0
Weighted Recall: 0.9093319194061505
Weighted FalsePositiveRate: 0.6258773257019968
Kappa statistic: 0.2922999275855255
Training time: 0.0
		
Iteration: 35
Labeled set size: 1057
Unlabelled set size: 829
	
Mean region size: 25.0
Incorrectly Classified Instances: 8.854718981972429
Correctly Classified Instances: 91.14528101802757
Weighted Precision: 0.9013041597156364
Weighted AreaUnderROC: 0.6444057746931319
Root mean squared error: 0.21002223334611414
Relative absolute error: 12.137953340383746
Root relative squared error: 48.50255718327416
Weighted TruePositiveRate: 0.9114528101802757
Weighted MatthewsCorrelation: 0.3315019233370126
Weighted FMeasure: 0.9052395961051346
Iteration time: 2.0
Weighted AreaUnderPRC: 0.8839337482042032
Mean absolute error: 0.04551732502643905
Coverage of cases: 91.14528101802757
Instances selection time: 2.0
Test time: 1187.0
Accumulative iteration time: 107.0
Weighted Recall: 0.9114528101802757
Weighted FalsePositiveRate: 0.6257623305063064
Kappa statistic: 0.29873489871619613
Training time: 0.0
		
Iteration: 36
Labeled set size: 1077
Unlabelled set size: 809
	
Mean region size: 25.0
Incorrectly Classified Instances: 9.066808059384941
Correctly Classified Instances: 90.93319194061506
Weighted Precision: 0.9006428902308037
Weighted AreaUnderROC: 0.643287831708224
Root mean squared error: 0.21252964659071324
Relative absolute error: 12.413556169788906
Root relative squared error: 49.08161946796973
Weighted TruePositiveRate: 0.9093319194061505
Weighted MatthewsCorrelation: 0.3234315992877965
Weighted FMeasure: 0.9039195952130878
Iteration time: 1.0
Weighted AreaUnderPRC: 0.8836818271646726
Mean absolute error: 0.0465508356367084
Coverage of cases: 90.93319194061506
Instances selection time: 1.0
Test time: 1206.0
Accumulative iteration time: 108.0
Weighted Recall: 0.9093319194061505
Weighted FalsePositiveRate: 0.6258773257019968
Kappa statistic: 0.2922999275855255
Training time: 0.0
		
Iteration: 37
Labeled set size: 1097
Unlabelled set size: 789
	
Mean region size: 25.0
Incorrectly Classified Instances: 9.066808059384941
Correctly Classified Instances: 90.93319194061506
Weighted Precision: 0.9006428902308037
Weighted AreaUnderROC: 0.643287831708224
Root mean squared error: 0.2125365986375192
Relative absolute error: 12.407661888799995
Root relative squared error: 49.08322497440767
Weighted TruePositiveRate: 0.9093319194061505
Weighted MatthewsCorrelation: 0.3234315992877965
Weighted FMeasure: 0.9039195952130878
Iteration time: 2.0
Weighted AreaUnderPRC: 0.8836818271646726
Mean absolute error: 0.046528732082999985
Coverage of cases: 90.93319194061506
Instances selection time: 2.0
Test time: 1229.0
Accumulative iteration time: 110.0
Weighted Recall: 0.9093319194061505
Weighted FalsePositiveRate: 0.6258773257019968
Kappa statistic: 0.2922999275855255
Training time: 0.0
		
Iteration: 38
Labeled set size: 1117
Unlabelled set size: 769
	
Mean region size: 25.0
Incorrectly Classified Instances: 9.066808059384941
Correctly Classified Instances: 90.93319194061506
Weighted Precision: 0.9006428902308037
Weighted AreaUnderROC: 0.643287831708224
Root mean squared error: 0.21254330533642526
Relative absolute error: 12.401914828124868
Root relative squared error: 49.08477382017519
Weighted TruePositiveRate: 0.9093319194061505
Weighted MatthewsCorrelation: 0.3234315992877965
Weighted FMeasure: 0.9039195952130878
Iteration time: 1.0
Weighted AreaUnderPRC: 0.8836818271646726
Mean absolute error: 0.046507180605468254
Coverage of cases: 90.93319194061506
Instances selection time: 1.0
Test time: 1259.0
Accumulative iteration time: 111.0
Weighted Recall: 0.9093319194061505
Weighted FalsePositiveRate: 0.6258773257019968
Kappa statistic: 0.2922999275855255
Training time: 0.0
		
Iteration: 39
Labeled set size: 1137
Unlabelled set size: 749
	
Mean region size: 25.0
Incorrectly Classified Instances: 9.11983032873807
Correctly Classified Instances: 90.88016967126192
Weighted Precision: 0.900851950050728
Weighted AreaUnderROC: 0.6461625092449141
Root mean squared error: 0.2131703341719197
Relative absolute error: 12.466879759326657
Root relative squared error: 49.22957992696013
Weighted TruePositiveRate: 0.9088016967126193
Weighted MatthewsCorrelation: 0.32731871076807456
Weighted FMeasure: 0.9037876045418806
Iteration time: 2.0
Weighted AreaUnderPRC: 0.8840696146726866
Mean absolute error: 0.04675079909747496
Coverage of cases: 90.88016967126192
Instances selection time: 2.0
Test time: 1278.0
Accumulative iteration time: 113.0
Weighted Recall: 0.9088016967126193
Weighted FalsePositiveRate: 0.6195684942692354
Kappa statistic: 0.2932605370829505
Training time: 0.0
		
Iteration: 40
Labeled set size: 1157
Unlabelled set size: 729
	
Mean region size: 25.0
Incorrectly Classified Instances: 9.331919406150583
Correctly Classified Instances: 90.66808059384941
Weighted Precision: 0.9032300523722064
Weighted AreaUnderROC: 0.6577300171408968
Root mean squared error: 0.21564104093660652
Relative absolute error: 12.743400522194918
Root relative squared error: 49.80016521323236
Weighted TruePositiveRate: 0.9066808059384942
Weighted MatthewsCorrelation: 0.34027475798239976
Weighted FMeasure: 0.9039865739054699
Iteration time: 2.0
Weighted AreaUnderPRC: 0.8859968022155033
Mean absolute error: 0.04778775195823094
Coverage of cases: 90.66808059384941
Instances selection time: 2.0
Test time: 1298.0
Accumulative iteration time: 115.0
Weighted Recall: 0.9066808059384942
Weighted FalsePositiveRate: 0.5941908309698194
Kappa statistic: 0.30253531070478573
Training time: 0.0
		
Iteration: 41
Labeled set size: 1177
Unlabelled set size: 709
	
Mean region size: 25.0
Incorrectly Classified Instances: 9.278897136797456
Correctly Classified Instances: 90.72110286320255
Weighted Precision: 0.9039715753104443
Weighted AreaUnderROC: 0.6611625128852262
Root mean squared error: 0.21503370201455516
Relative absolute error: 12.66784890086283
Root relative squared error: 49.659906297178075
Weighted TruePositiveRate: 0.9072110286320254
Weighted MatthewsCorrelation: 0.34637692789264385
Weighted FMeasure: 0.9047186904323632
Iteration time: 2.0
Weighted AreaUnderPRC: 0.8869457436127153
Mean absolute error: 0.04750443337823562
Coverage of cases: 90.72110286320255
Instances selection time: 1.0
Test time: 1404.0
Accumulative iteration time: 117.0
Weighted Recall: 0.9072110286320254
Weighted FalsePositiveRate: 0.5878245019392129
Kappa statistic: 0.30895789888026237
Training time: 1.0
		
Iteration: 42
Labeled set size: 1197
Unlabelled set size: 689
	
Mean region size: 25.0
Incorrectly Classified Instances: 9.331919406150583
Correctly Classified Instances: 90.66808059384941
Weighted Precision: 0.9032300523722064
Weighted AreaUnderROC: 0.6577300171408968
Root mean squared error: 0.21565311808124407
Relative absolute error: 12.733380789154033
Root relative squared error: 49.802954310315364
Weighted TruePositiveRate: 0.9066808059384942
Weighted MatthewsCorrelation: 0.34027475798239976
Weighted FMeasure: 0.9039865739054699
Iteration time: 2.0
Weighted AreaUnderPRC: 0.8859968022155033
Mean absolute error: 0.04775017795932762
Coverage of cases: 90.66808059384941
Instances selection time: 2.0
Test time: 1431.0
Accumulative iteration time: 119.0
Weighted Recall: 0.9066808059384942
Weighted FalsePositiveRate: 0.5941908309698194
Kappa statistic: 0.30253531070478573
Training time: 0.0
		
Iteration: 43
Labeled set size: 1217
Unlabelled set size: 669
	
Mean region size: 25.0
Incorrectly Classified Instances: 9.172852598091199
Correctly Classified Instances: 90.8271474019088
Weighted Precision: 0.9036956957487803
Weighted AreaUnderROC: 0.6585684743795776
Root mean squared error: 0.21381304207480512
Relative absolute error: 12.517222835764327
Root relative squared error: 49.37800695925661
Weighted TruePositiveRate: 0.908271474019088
Weighted MatthewsCorrelation: 0.34596113806951634
Weighted FMeasure: 0.9049849807073684
Iteration time: 1.0
Weighted AreaUnderPRC: 0.8861893266358217
Mean absolute error: 0.046939585634116224
Coverage of cases: 90.8271474019088
Instances selection time: 1.0
Test time: 1449.0
Accumulative iteration time: 120.0
Weighted Recall: 0.908271474019088
Weighted FalsePositiveRate: 0.5941045845730516
Kappa statistic: 0.30724480133167426
Training time: 0.0
		
Iteration: 44
Labeled set size: 1237
Unlabelled set size: 649
	
Mean region size: 25.0
Incorrectly Classified Instances: 9.331919406150583
Correctly Classified Instances: 90.66808059384941
Weighted Precision: 0.9032300523722064
Weighted AreaUnderROC: 0.6577300171408968
Root mean squared error: 0.21566442640002004
Relative absolute error: 12.724006972041458
Root relative squared error: 49.80556585467112
Weighted TruePositiveRate: 0.9066808059384942
Weighted MatthewsCorrelation: 0.34027475798239976
Weighted FMeasure: 0.9039865739054699
Iteration time: 1.0
Weighted AreaUnderPRC: 0.8859968022155033
Mean absolute error: 0.04771502614515547
Coverage of cases: 90.66808059384941
Instances selection time: 1.0
Test time: 1476.0
Accumulative iteration time: 121.0
Weighted Recall: 0.9066808059384942
Weighted FalsePositiveRate: 0.5941908309698194
Kappa statistic: 0.30253531070478573
Training time: 0.0
		
Iteration: 45
Labeled set size: 1257
Unlabelled set size: 629
	
Mean region size: 25.0
Incorrectly Classified Instances: 9.331919406150583
Correctly Classified Instances: 90.66808059384941
Weighted Precision: 0.9032300523722064
Weighted AreaUnderROC: 0.6582869032621066
Root mean squared error: 0.21566980961589052
Relative absolute error: 12.719291187447489
Root relative squared error: 49.8068090551239
Weighted TruePositiveRate: 0.9066808059384942
Weighted MatthewsCorrelation: 0.34027475798239976
Weighted FMeasure: 0.9039865739054699
Iteration time: 1.0
Weighted AreaUnderPRC: 0.8860846554890057
Mean absolute error: 0.04769734195292808
Coverage of cases: 90.66808059384941
Instances selection time: 1.0
Test time: 1401.0
Accumulative iteration time: 122.0
Weighted Recall: 0.9066808059384942
Weighted FalsePositiveRate: 0.5941908309698194
Kappa statistic: 0.30253531070478573
Training time: 0.0
		
Iteration: 46
Labeled set size: 1277
Unlabelled set size: 609
	
Mean region size: 25.0
Incorrectly Classified Instances: 9.331919406150583
Correctly Classified Instances: 90.66808059384941
Weighted Precision: 0.902536129141661
Weighted AreaUnderROC: 0.6583005151978372
Root mean squared error: 0.21567503197987922
Relative absolute error: 12.714970603769787
Root relative squared error: 49.808015108425764
Weighted TruePositiveRate: 0.9066808059384942
Weighted MatthewsCorrelation: 0.3386035634792377
Weighted FMeasure: 0.9039528850402934
Iteration time: 2.0
Weighted AreaUnderPRC: 0.8860499252432963
Mean absolute error: 0.0476811397641367
Coverage of cases: 90.66808059384941
Instances selection time: 2.0
Test time: 1424.0
Accumulative iteration time: 124.0
Weighted Recall: 0.9066808059384942
Weighted FalsePositiveRate: 0.5941604355651183
Kappa statistic: 0.3051545701175604
Training time: 0.0
		
Time end:Tue Oct 31 12.51.36 EET 2017