Wed Nov 01 09.16.40 EET 2017
Dataset: sick
Test set size: 1886
Initial Labelled set size: 377
Initial Unlabelled set size: 1509
Batch mode: QBestBatchMode
Batch size: 20
Classifiers: RandomForest-1cores
Scenario: PoolBasedSamplingScenario
Query strategy: VoteEntropyQueryStrategy-1cores
Time begining: Wed Nov 01 09.16.40 EET 2017
		
Iteration: 1
Labeled set size: 377
Unlabelled set size: 1509
	
Mean region size: 59.623541887592786
Incorrectly Classified Instances: 3.9289501590668072
Correctly Classified Instances: 96.07104984093318
Weighted Precision: 0.9590156584462676
Weighted AreaUnderROC: 0.9348102006893242
Root mean squared error: 0.1652021380699725
Relative absolute error: 11.237669585069956
Root relative squared error: 33.0404276139945
Weighted TruePositiveRate: 0.9607104984093319
Weighted MatthewsCorrelation: 0.5818403183396887
Weighted FMeasure: 0.9528592561952808
Iteration time: 16.9
Weighted AreaUnderPRC: 0.9778248589893295
Mean absolute error: 0.05618834792534977
Coverage of cases: 99.47507953340403
Instances selection time: 4.9
Test time: 9.3
Accumulative iteration time: 16.9
Weighted Recall: 0.9607104984093319
Weighted FalsePositiveRate: 0.5649802351016285
Kappa statistic: 0.5286354082664502
Training time: 12.0
		
Iteration: 2
Labeled set size: 397
Unlabelled set size: 1489
	
Mean region size: 59.87274655355249
Incorrectly Classified Instances: 4.4114528101802755
Correctly Classified Instances: 95.58854718981972
Weighted Precision: 0.952267786642621
Weighted AreaUnderROC: 0.9302723774614691
Root mean squared error: 0.17479982278445969
Relative absolute error: 11.93084743891212
Root relative squared error: 34.95996455689194
Weighted TruePositiveRate: 0.9558854718981973
Weighted MatthewsCorrelation: 0.5099464137269389
Weighted FMeasure: 0.9456836641570904
Iteration time: 20.2
Weighted AreaUnderPRC: 0.973874780083008
Mean absolute error: 0.05965423719456059
Coverage of cases: 99.44326617179215
Instances selection time: 5.7
Test time: 8.9
Accumulative iteration time: 37.1
Weighted Recall: 0.9558854718981973
Weighted FalsePositiveRate: 0.6266770098734314
Kappa statistic: 0.4491730932516201
Training time: 14.5
		
Iteration: 3
Labeled set size: 417
Unlabelled set size: 1469
	
Mean region size: 59.04029692470838
Incorrectly Classified Instances: 3.9501590668080597
Correctly Classified Instances: 96.04984093319194
Weighted Precision: 0.9580659950322776
Weighted AreaUnderROC: 0.9334245998931154
Root mean squared error: 0.16563706658197228
Relative absolute error: 10.81906991912398
Root relative squared error: 33.12741331639445
Weighted TruePositiveRate: 0.9604984093319194
Weighted MatthewsCorrelation: 0.5750110831004267
Weighted FMeasure: 0.9525038061513982
Iteration time: 18.4
Weighted AreaUnderPRC: 0.9772755378724091
Mean absolute error: 0.05409534959561989
Coverage of cases: 99.4220572640509
Instances selection time: 5.0
Test time: 9.2
Accumulative iteration time: 55.5
Weighted Recall: 0.9604984093319194
Weighted FalsePositiveRate: 0.5574287632172703
Kappa statistic: 0.5251513373747622
Training time: 13.4
		
Iteration: 4
Labeled set size: 437
Unlabelled set size: 1449
	
Mean region size: 58.94485683987275
Incorrectly Classified Instances: 4.0774125132555685
Correctly Classified Instances: 95.92258748674443
Weighted Precision: 0.9577191045670428
Weighted AreaUnderROC: 0.9343045646400064
Root mean squared error: 0.16735640878766736
Relative absolute error: 10.951157625830296
Root relative squared error: 33.47128175753347
Weighted TruePositiveRate: 0.9592258748674445
Weighted MatthewsCorrelation: 0.5631366042927615
Weighted FMeasure: 0.9506846162037625
Iteration time: 19.2
Weighted AreaUnderPRC: 0.9778231716666994
Mean absolute error: 0.05475578812915148
Coverage of cases: 99.45917285259809
Instances selection time: 5.9
Test time: 9.1
Accumulative iteration time: 74.7
Weighted Recall: 0.9592258748674445
Weighted FalsePositiveRate: 0.5876182948801982
Kappa statistic: 0.5046663436726855
Training time: 13.3
		
Iteration: 5
Labeled set size: 457
Unlabelled set size: 1429
	
Mean region size: 58.71155885471899
Incorrectly Classified Instances: 4.262990455991517
Correctly Classified Instances: 95.73700954400849
Weighted Precision: 0.9542081922744765
Weighted AreaUnderROC: 0.9404745342784242
Root mean squared error: 0.17027721414590238
Relative absolute error: 10.956214646317958
Root relative squared error: 34.05544282918048
Weighted TruePositiveRate: 0.9573700954400849
Weighted MatthewsCorrelation: 0.5313136920335414
Weighted FMeasure: 0.9478592357038977
Iteration time: 17.7
Weighted AreaUnderPRC: 0.9772197877876018
Mean absolute error: 0.054781073231589796
Coverage of cases: 99.54400848356309
Instances selection time: 4.9
Test time: 8.1
Accumulative iteration time: 92.4
Weighted Recall: 0.9573700954400849
Weighted FalsePositiveRate: 0.607953982453215
Kappa statistic: 0.47311864722827635
Training time: 12.8
		
Iteration: 6
Labeled set size: 477
Unlabelled set size: 1409
	
Mean region size: 58.74867444326617
Incorrectly Classified Instances: 4.215270413573701
Correctly Classified Instances: 95.7847295864263
Weighted Precision: 0.9542204321562986
Weighted AreaUnderROC: 0.936310259345016
Root mean squared error: 0.17067113689709043
Relative absolute error: 11.098842736886965
Root relative squared error: 34.134227379418085
Weighted TruePositiveRate: 0.957847295864263
Weighted MatthewsCorrelation: 0.5258571186053419
Weighted FMeasure: 0.9476318076563658
Iteration time: 19.0
Weighted AreaUnderPRC: 0.9766067335786974
Mean absolute error: 0.055494213684434836
Coverage of cases: 99.4644750795334
Instances selection time: 4.7
Test time: 8.8
Accumulative iteration time: 111.4
Weighted Recall: 0.957847295864263
Weighted FalsePositiveRate: 0.6031569671347251
Kappa statistic: 0.4666613981003834
Training time: 14.3
		
Iteration: 7
Labeled set size: 497
Unlabelled set size: 1389
	
Mean region size: 58.16542948038176
Incorrectly Classified Instances: 3.9660657476139973
Correctly Classified Instances: 96.033934252386
Weighted Precision: 0.9577049988864224
Weighted AreaUnderROC: 0.938826697963879
Root mean squared error: 0.16433268479186547
Relative absolute error: 10.448766134391024
Root relative squared error: 32.8665369583731
Weighted TruePositiveRate: 0.96033934252386
Weighted MatthewsCorrelation: 0.5729995401093609
Weighted FMeasure: 0.9523563980102493
Iteration time: 18.4
Weighted AreaUnderPRC: 0.978260197659887
Mean absolute error: 0.05224383067195513
Coverage of cases: 99.48038176033933
Instances selection time: 4.5
Test time: 8.4
Accumulative iteration time: 129.8
Weighted Recall: 0.96033934252386
Weighted FalsePositiveRate: 0.560493276122766
Kappa statistic: 0.5230998351120035
Training time: 13.9
		
Iteration: 8
Labeled set size: 517
Unlabelled set size: 1369
	
Mean region size: 57.84199363732769
Incorrectly Classified Instances: 3.812301166489926
Correctly Classified Instances: 96.18769883351008
Weighted Precision: 0.9607501285521266
Weighted AreaUnderROC: 0.9425356336025686
Root mean squared error: 0.16158936464969953
Relative absolute error: 10.145781066773164
Root relative squared error: 32.3178729299399
Weighted TruePositiveRate: 0.9618769883351007
Weighted MatthewsCorrelation: 0.6009894755346921
Weighted FMeasure: 0.9547077804752508
Iteration time: 19.6
Weighted AreaUnderPRC: 0.9804886925998438
Mean absolute error: 0.05072890533386583
Coverage of cases: 99.51219512195122
Instances selection time: 4.8
Test time: 8.2
Accumulative iteration time: 149.4
Weighted Recall: 0.9618769883351007
Weighted FalsePositiveRate: 0.5478367907363434
Kappa statistic: 0.5496991859036036
Training time: 14.8
		
Iteration: 9
Labeled set size: 537
Unlabelled set size: 1349
	
Mean region size: 58.343054082714744
Incorrectly Classified Instances: 4.586426299045599
Correctly Classified Instances: 95.4135737009544
Weighted Precision: 0.9509512627179406
Weighted AreaUnderROC: 0.9307204052583868
Root mean squared error: 0.1743782189483027
Relative absolute error: 11.092352560419645
Root relative squared error: 34.875643789660536
Weighted TruePositiveRate: 0.9541357370095438
Weighted MatthewsCorrelation: 0.47696547375767084
Weighted FMeasure: 0.9419142884066518
Iteration time: 19.6
Weighted AreaUnderPRC: 0.9756066936930743
Mean absolute error: 0.05546176280209823
Coverage of cases: 99.40084835630964
Instances selection time: 4.6
Test time: 8.4
Accumulative iteration time: 169.0
Weighted Recall: 0.9541357370095438
Weighted FalsePositiveRate: 0.6756062597274939
Kappa statistic: 0.4015620042367366
Training time: 15.0
		
Iteration: 10
Labeled set size: 557
Unlabelled set size: 1329
	
Mean region size: 57.667020148462356
Incorrectly Classified Instances: 4.384941675503711
Correctly Classified Instances: 95.61505832449629
Weighted Precision: 0.9545731932563347
Weighted AreaUnderROC: 0.9285497249994009
Root mean squared error: 0.17058862987940457
Relative absolute error: 10.499899181384084
Root relative squared error: 34.11772597588091
Weighted TruePositiveRate: 0.9561505832449629
Weighted MatthewsCorrelation: 0.514220331562545
Weighted FMeasure: 0.9452889417483025
Iteration time: 19.5
Weighted AreaUnderPRC: 0.9766475012991126
Mean absolute error: 0.052499495906920435
Coverage of cases: 99.35843054082716
Instances selection time: 4.0
Test time: 8.4
Accumulative iteration time: 188.5
Weighted Recall: 0.9561505832449629
Weighted FalsePositiveRate: 0.6470019031276145
Kappa statistic: 0.4407172249657223
Training time: 15.5
		
Iteration: 11
Labeled set size: 577
Unlabelled set size: 1309
	
Mean region size: 57.68557794273594
Incorrectly Classified Instances: 4.538706256627783
Correctly Classified Instances: 95.46129374337221
Weighted Precision: 0.9526339245902269
Weighted AreaUnderROC: 0.9413000582529218
Root mean squared error: 0.17254723435991562
Relative absolute error: 10.600646974638078
Root relative squared error: 34.509446871983116
Weighted TruePositiveRate: 0.9546129374337221
Weighted MatthewsCorrelation: 0.4932740825598252
Weighted FMeasure: 0.9431383454768338
Iteration time: 20.1
Weighted AreaUnderPRC: 0.978056352849278
Mean absolute error: 0.053003234873190384
Coverage of cases: 99.49098621420998
Instances selection time: 4.5
Test time: 8.0
Accumulative iteration time: 208.6
Weighted Recall: 0.9546129374337221
Weighted FalsePositiveRate: 0.6639518339110833
Kappa statistic: 0.4177008043097614
Training time: 15.6
		
Iteration: 12
Labeled set size: 597
Unlabelled set size: 1289
	
Mean region size: 57.6219512195122
Incorrectly Classified Instances: 4.485683987274655
Correctly Classified Instances: 95.51431601272535
Weighted Precision: 0.9516940556830253
Weighted AreaUnderROC: 0.9215203498851606
Root mean squared error: 0.17251133658614684
Relative absolute error: 10.655202373598812
Root relative squared error: 34.50226731722937
Weighted TruePositiveRate: 0.9551431601272535
Weighted MatthewsCorrelation: 0.4980584678926938
Weighted FMeasure: 0.9441964252114208
Iteration time: 20.0
Weighted AreaUnderPRC: 0.9743857277652065
Mean absolute error: 0.053276011867994064
Coverage of cases: 99.30540827147402
Instances selection time: 4.1
Test time: 8.0
Accumulative iteration time: 228.6
Weighted Recall: 0.9551431601272535
Weighted FalsePositiveRate: 0.652088603870273
Kappa statistic: 0.4302336740145233
Training time: 15.9
		
Iteration: 13
Labeled set size: 617
Unlabelled set size: 1269
	
Mean region size: 57.34888653234359
Incorrectly Classified Instances: 4.215270413573701
Correctly Classified Instances: 95.78472958642631
Weighted Precision: 0.9565392881316923
Weighted AreaUnderROC: 0.926813734764868
Root mean squared error: 0.16893271047054884
Relative absolute error: 10.23440941960795
Root relative squared error: 33.78654209410976
Weighted TruePositiveRate: 0.957847295864263
Weighted MatthewsCorrelation: 0.532542182950422
Weighted FMeasure: 0.9474471370832479
Iteration time: 20.5
Weighted AreaUnderPRC: 0.97623286037965
Mean absolute error: 0.051172047098039755
Coverage of cases: 99.33191940615058
Instances selection time: 4.1
Test time: 8.2
Accumulative iteration time: 249.1
Weighted Recall: 0.957847295864263
Weighted FalsePositiveRate: 0.622611108653004
Kappa statistic: 0.4633796703465773
Training time: 16.4
		
Iteration: 14
Labeled set size: 637
Unlabelled set size: 1249
	
Mean region size: 57.21367974549311
Incorrectly Classified Instances: 4.2205726405090145
Correctly Classified Instances: 95.779427359491
Weighted Precision: 0.9559954790986565
Weighted AreaUnderROC: 0.9327476874737515
Root mean squared error: 0.16745488647790677
Relative absolute error: 10.106687291723707
Root relative squared error: 33.49097729558135
Weighted TruePositiveRate: 0.9577942735949098
Weighted MatthewsCorrelation: 0.5425473298282134
Weighted FMeasure: 0.9484041580027471
Iteration time: 20.4
Weighted AreaUnderPRC: 0.9776620793439224
Mean absolute error: 0.05053343645861853
Coverage of cases: 99.36903499469778
Instances selection time: 3.9
Test time: 8.2
Accumulative iteration time: 269.5
Weighted Recall: 0.9577942735949098
Weighted FalsePositiveRate: 0.6154840903638311
Kappa statistic: 0.47807935847945265
Training time: 16.5
		
Iteration: 15
Labeled set size: 657
Unlabelled set size: 1229
	
Mean region size: 56.736479321314945
Incorrectly Classified Instances: 4.83032873806999
Correctly Classified Instances: 95.16967126193
Weighted Precision: 0.9515984837121527
Weighted AreaUnderROC: 0.9229732573936928
Root mean squared error: 0.1775007012236345
Relative absolute error: 10.425467078621832
Root relative squared error: 35.5001402447269
Weighted TruePositiveRate: 0.9516967126193002
Weighted MatthewsCorrelation: 0.4361136022762405
Weighted FMeasure: 0.9368357054641064
Iteration time: 22.1
Weighted AreaUnderPRC: 0.974900119448493
Mean absolute error: 0.05212733539310917
Coverage of cases: 99.3001060445387
Instances selection time: 4.2
Test time: 8.2
Accumulative iteration time: 291.6
Weighted Recall: 0.9516967126193002
Weighted FalsePositiveRate: 0.7216162311783124
Kappa statistic: 0.3396161206741658
Training time: 17.9
		
Iteration: 16
Labeled set size: 677
Unlabelled set size: 1209
	
Mean region size: 56.54825026511135
Incorrectly Classified Instances: 5.307529162248144
Correctly Classified Instances: 94.69247083775187
Weighted Precision: 0.9436319802011663
Weighted AreaUnderROC: 0.9095973846885237
Root mean squared error: 0.18824271261041986
Relative absolute error: 10.996341603559458
Root relative squared error: 37.648542522083964
Weighted TruePositiveRate: 0.9469247083775185
Weighted MatthewsCorrelation: 0.3389072335604365
Weighted FMeasure: 0.9282980617172683
Iteration time: 21.8
Weighted AreaUnderPRC: 0.97032001785668
Mean absolute error: 0.0549817080177973
Coverage of cases: 99.1304347826087
Instances selection time: 3.8
Test time: 8.2
Accumulative iteration time: 313.4
Weighted Recall: 0.9469247083775185
Weighted FalsePositiveRate: 0.794677873947496
Kappa statistic: 0.23924789363734877
Training time: 18.0
		
Iteration: 17
Labeled set size: 697
Unlabelled set size: 1189
	
Mean region size: 56.39713679745493
Incorrectly Classified Instances: 4.729586426299046
Correctly Classified Instances: 95.27041357370096
Weighted Precision: 0.9531754230669524
Weighted AreaUnderROC: 0.9203409819302024
Root mean squared error: 0.1772901151547593
Relative absolute error: 10.299428260983282
Root relative squared error: 35.458023030951864
Weighted TruePositiveRate: 0.9527041357370096
Weighted MatthewsCorrelation: 0.45266130142263156
Weighted FMeasure: 0.9384091349549415
Iteration time: 22.1
Weighted AreaUnderPRC: 0.9754698511705936
Mean absolute error: 0.051497141304916415
Coverage of cases: 99.26299045599153
Instances selection time: 3.8
Test time: 8.3
Accumulative iteration time: 335.5
Weighted Recall: 0.9527041357370096
Weighted FalsePositiveRate: 0.7077581000601529
Kappa statistic: 0.3574203235215794
Training time: 18.3
		
Iteration: 18
Labeled set size: 717
Unlabelled set size: 1169
	
Mean region size: 56.9459172852598
Incorrectly Classified Instances: 4.538706256627783
Correctly Classified Instances: 95.46129374337222
Weighted Precision: 0.9537642074105394
Weighted AreaUnderROC: 0.9221826320297322
Root mean squared error: 0.17662487350310102
Relative absolute error: 10.452134974208102
Root relative squared error: 35.3249747006202
Weighted TruePositiveRate: 0.9546129374337221
Weighted MatthewsCorrelation: 0.4906975357220012
Weighted FMeasure: 0.9424266177640452
Iteration time: 23.6
Weighted AreaUnderPRC: 0.9744655899833706
Mean absolute error: 0.052260674871040504
Coverage of cases: 99.28950159066808
Instances selection time: 3.9
Test time: 8.3
Accumulative iteration time: 359.1
Weighted Recall: 0.9546129374337221
Weighted FalsePositiveRate: 0.6720902019931659
Kappa statistic: 0.40656457929365447
Training time: 19.7
		
Iteration: 19
Labeled set size: 737
Unlabelled set size: 1149
	
Mean region size: 56.66755037115589
Incorrectly Classified Instances: 4.718981972428421
Correctly Classified Instances: 95.28101802757156
Weighted Precision: 0.951884152862557
Weighted AreaUnderROC: 0.9311593858685591
Root mean squared error: 0.1745948093545666
Relative absolute error: 10.246650072444753
Root relative squared error: 34.91896187091332
Weighted TruePositiveRate: 0.9528101802757158
Weighted MatthewsCorrelation: 0.4550035188452729
Weighted FMeasure: 0.9389260196533075
Iteration time: 23.4
Weighted AreaUnderPRC: 0.9774917328695363
Mean absolute error: 0.05123325036222376
Coverage of cases: 99.35843054082713
Instances selection time: 3.6
Test time: 8.5
Accumulative iteration time: 382.5
Weighted Recall: 0.9528101802757158
Weighted FalsePositiveRate: 0.7078861784861638
Kappa statistic: 0.36423611100428566
Training time: 19.8
		
Iteration: 20
Labeled set size: 757
Unlabelled set size: 1129
	
Mean region size: 56.69406150583245
Incorrectly Classified Instances: 4.9469777306468705
Correctly Classified Instances: 95.05302226935314
Weighted Precision: 0.9507294234586714
Weighted AreaUnderROC: 0.9150067249671295
Root mean squared error: 0.18018863871998755
Relative absolute error: 10.626480125599352
Root relative squared error: 36.03772774399751
Weighted TruePositiveRate: 0.9505302226935314
Weighted MatthewsCorrelation: 0.42369968692484683
Weighted FMeasure: 0.9349111476992489
Iteration time: 23.5
Weighted AreaUnderPRC: 0.9738552364315544
Mean absolute error: 0.053132400627996755
Coverage of cases: 99.20466595970308
Instances selection time: 3.8
Test time: 8.1
Accumulative iteration time: 406.0
Weighted Recall: 0.9505302226935314
Weighted FalsePositiveRate: 0.7477336004235524
Kappa statistic: 0.31677481432879356
Training time: 19.7
		
Iteration: 21
Labeled set size: 777
Unlabelled set size: 1109
	
Mean region size: 56.163838812301165
Incorrectly Classified Instances: 4.697773064687168
Correctly Classified Instances: 95.30222693531283
Weighted Precision: 0.9512397964972596
Weighted AreaUnderROC: 0.9117563609802606
Root mean squared error: 0.177539874174758
Relative absolute error: 10.206068345827259
Root relative squared error: 35.5079748349516
Weighted TruePositiveRate: 0.9530222693531284
Weighted MatthewsCorrelation: 0.45755262828203663
Weighted FMeasure: 0.9393791123516305
Iteration time: 23.3
Weighted AreaUnderPRC: 0.9733241019367288
Mean absolute error: 0.051030341729136286
Coverage of cases: 99.17285259809118
Instances selection time: 3.7
Test time: 7.9
Accumulative iteration time: 429.3
Weighted Recall: 0.9530222693531284
Weighted FalsePositiveRate: 0.7021808663698301
Kappa statistic: 0.36985835341098666
Training time: 19.6
		
Iteration: 22
Labeled set size: 797
Unlabelled set size: 1089
	
Mean region size: 56.89289501590669
Incorrectly Classified Instances: 4.766702014846235
Correctly Classified Instances: 95.23329798515377
Weighted Precision: 0.9526669143176477
Weighted AreaUnderROC: 0.9311601850552625
Root mean squared error: 0.17639907388017162
Relative absolute error: 10.469289282503981
Root relative squared error: 35.27981477603432
Weighted TruePositiveRate: 0.9523329798515376
Weighted MatthewsCorrelation: 0.4518215410062788
Weighted FMeasure: 0.9379762857116631
Iteration time: 25.2
Weighted AreaUnderPRC: 0.9769845329532372
Mean absolute error: 0.0523464464125199
Coverage of cases: 99.39554612937434
Instances selection time: 3.7
Test time: 8.2
Accumulative iteration time: 454.5
Weighted Recall: 0.9523329798515376
Weighted FalsePositiveRate: 0.718389949715714
Kappa statistic: 0.3526462491781783
Training time: 21.5
		
Iteration: 23
Labeled set size: 817
Unlabelled set size: 1069
	
Mean region size: 56.11346765641569
Incorrectly Classified Instances: 4.936373276776246
Correctly Classified Instances: 95.06362672322373
Weighted Precision: 0.9499444560205716
Weighted AreaUnderROC: 0.9242714822750779
Root mean squared error: 0.17788413073114834
Relative absolute error: 10.136739883577537
Root relative squared error: 35.57682614622966
Weighted TruePositiveRate: 0.9506362672322375
Weighted MatthewsCorrelation: 0.4225489789224728
Weighted FMeasure: 0.9351580647895037
Iteration time: 24.4
Weighted AreaUnderPRC: 0.9757331419756321
Mean absolute error: 0.05068369941788768
Coverage of cases: 99.25238600212087
Instances selection time: 3.5
Test time: 7.9
Accumulative iteration time: 478.9
Weighted Recall: 0.9506362672322375
Weighted FalsePositiveRate: 0.7444294328330161
Kappa statistic: 0.3200216487204956
Training time: 20.9
		
Iteration: 24
Labeled set size: 837
Unlabelled set size: 1049
	
Mean region size: 56.16914103923648
Incorrectly Classified Instances: 4.846235418875929
Correctly Classified Instances: 95.15376458112408
Weighted Precision: 0.9515776589879545
Weighted AreaUnderROC: 0.9193256539298871
Root mean squared error: 0.17854682906609443
Relative absolute error: 10.259675028130356
Root relative squared error: 35.70936581321889
Weighted TruePositiveRate: 0.9515376458112407
Weighted MatthewsCorrelation: 0.42825991886737097
Weighted FMeasure: 0.9361506206325272
Iteration time: 25.6
Weighted AreaUnderPRC: 0.9747458631465081
Mean absolute error: 0.05129837514065179
Coverage of cases: 99.24178154825029
Instances selection time: 3.7
Test time: 8.0
Accumulative iteration time: 504.5
Weighted Recall: 0.9515376458112407
Weighted FalsePositiveRate: 0.7341004844667534
Kappa statistic: 0.32960930892117724
Training time: 21.9
		
Iteration: 25
Labeled set size: 857
Unlabelled set size: 1029
	
Mean region size: 56.19300106044538
Incorrectly Classified Instances: 4.893955461293744
Correctly Classified Instances: 95.10604453870624
Weighted Precision: 0.9498731809236807
Weighted AreaUnderROC: 0.9225303357206915
Root mean squared error: 0.17726780292692054
Relative absolute error: 10.162534090029958
Root relative squared error: 35.45356058538411
Weighted TruePositiveRate: 0.9510604453870626
Weighted MatthewsCorrelation: 0.4167554960581996
Weighted FMeasure: 0.9353198236127422
Iteration time: 29.3
Weighted AreaUnderPRC: 0.975996571011903
Mean absolute error: 0.05081267045014979
Coverage of cases: 99.26829268292683
Instances selection time: 4.0
Test time: 9.4
Accumulative iteration time: 533.8
Weighted Recall: 0.9510604453870626
Weighted FalsePositiveRate: 0.7376871303936678
Kappa statistic: 0.32062000804236623
Training time: 25.3
		
Iteration: 26
Labeled set size: 877
Unlabelled set size: 1009
	
Mean region size: 55.95174973488865
Incorrectly Classified Instances: 4.71898197242842
Correctly Classified Instances: 95.28101802757158
Weighted Precision: 0.9519492567378155
Weighted AreaUnderROC: 0.9195381431749519
Root mean squared error: 0.17626368153909774
Relative absolute error: 9.988944754213328
Root relative squared error: 35.252736307819546
Weighted TruePositiveRate: 0.9528101802757156
Weighted MatthewsCorrelation: 0.449015975246588
Weighted FMeasure: 0.9383962728972763
Iteration time: 30.9
Weighted AreaUnderPRC: 0.9753487405501946
Mean absolute error: 0.04994472377106664
Coverage of cases: 99.220572640509
Instances selection time: 4.0
Test time: 10.1
Accumulative iteration time: 564.7
Weighted Recall: 0.9528101802757156
Weighted FalsePositiveRate: 0.7111460426108922
Kappa statistic: 0.3561800067419581
Training time: 26.9
		
Iteration: 27
Labeled set size: 897
Unlabelled set size: 989
	
Mean region size: 56.089607635206775
Incorrectly Classified Instances: 5.005302226935313
Correctly Classified Instances: 94.99469777306467
Weighted Precision: 0.9491413612961406
Weighted AreaUnderROC: 0.9109223963278004
Root mean squared error: 0.18140389498886164
Relative absolute error: 10.378678140813793
Root relative squared error: 36.28077899777233
Weighted TruePositiveRate: 0.9499469777306467
Weighted MatthewsCorrelation: 0.4055895982869614
Weighted FMeasure: 0.9339181271273675
Iteration time: 27.0
Weighted AreaUnderPRC: 0.9729192969884612
Mean absolute error: 0.05189339070406897
Coverage of cases: 99.135737009544
Instances selection time: 3.3
Test time: 9.0
Accumulative iteration time: 591.7
Weighted Recall: 0.9499469777306467
Weighted FalsePositiveRate: 0.7500608482662134
Kappa statistic: 0.30580438688030986
Training time: 23.7
		
Iteration: 28
Labeled set size: 917
Unlabelled set size: 969
	
Mean region size: 55.48515376458113
Incorrectly Classified Instances: 4.809119830328738
Correctly Classified Instances: 95.19088016967126
Weighted Precision: 0.9525869360983164
Weighted AreaUnderROC: 0.9269570506987268
Root mean squared error: 0.17799685808725094
Relative absolute error: 9.843228532350548
Root relative squared error: 35.599371617450196
Weighted TruePositiveRate: 0.9519088016967127
Weighted MatthewsCorrelation: 0.4319351919035864
Weighted FMeasure: 0.9365766472326689
Iteration time: 26.0
Weighted AreaUnderPRC: 0.9768332303663906
Mean absolute error: 0.04921614266175275
Coverage of cases: 99.2576882290562
Instances selection time: 3.3
Test time: 8.2
Accumulative iteration time: 617.7
Weighted Recall: 0.9519088016967127
Weighted FalsePositiveRate: 0.7265409650339303
Kappa statistic: 0.3342393083593557
Training time: 22.7
		
Iteration: 29
Labeled set size: 937
Unlabelled set size: 949
	
Mean region size: 55.36055143160128
Incorrectly Classified Instances: 4.591728525980912
Correctly Classified Instances: 95.40827147401907
Weighted Precision: 0.9545371102948177
Weighted AreaUnderROC: 0.932944263102657
Root mean squared error: 0.17090857890705083
Relative absolute error: 9.398134390940125
Root relative squared error: 34.18171578141017
Weighted TruePositiveRate: 0.9540827147401909
Weighted MatthewsCorrelation: 0.4827194879866008
Weighted FMeasure: 0.9411622114229026
Iteration time: 26.8
Weighted AreaUnderPRC: 0.9799423871813764
Mean absolute error: 0.04699067195470062
Coverage of cases: 99.33722163308589
Instances selection time: 3.2
Test time: 8.3
Accumulative iteration time: 644.5
Weighted Recall: 0.9540827147401909
Weighted FalsePositiveRate: 0.6926845144346647
Kappa statistic: 0.3899785772086889
Training time: 23.6
		
Iteration: 30
Labeled set size: 957
Unlabelled set size: 929
	
Mean region size: 55.93849416755037
Incorrectly Classified Instances: 5.074231177094379
Correctly Classified Instances: 94.92576882290561
Weighted Precision: 0.9491372420949944
Weighted AreaUnderROC: 0.9033787636759761
Root mean squared error: 0.18414469369103176
Relative absolute error: 10.40295241044637
Root relative squared error: 36.82893873820634
Weighted TruePositiveRate: 0.949257688229056
Weighted MatthewsCorrelation: 0.37301293720163003
Weighted FMeasure: 0.931501732071547
Iteration time: 27.2
Weighted AreaUnderPRC: 0.9711004725710038
Mean absolute error: 0.05201476205223184
Coverage of cases: 99.05090137857901
Instances selection time: 3.1
Test time: 8.3
Accumulative iteration time: 671.7
Weighted Recall: 0.949257688229056
Weighted FalsePositiveRate: 0.7662476342641831
Kappa statistic: 0.2738492319407429
Training time: 24.1
		
Iteration: 31
Labeled set size: 977
Unlabelled set size: 909
	
Mean region size: 55.49575821845175
Incorrectly Classified Instances: 5.0
Correctly Classified Instances: 94.99999999999999
Weighted Precision: 0.9499808871653508
Weighted AreaUnderROC: 0.9098404618597046
Root mean squared error: 0.1824843946117213
Relative absolute error: 10.160981269402853
Root relative squared error: 36.496878922344266
Weighted TruePositiveRate: 0.9499999999999998
Weighted MatthewsCorrelation: 0.40776030368253985
Weighted FMeasure: 0.933567933916474
Iteration time: 27.1
Weighted AreaUnderPRC: 0.9735605357990398
Mean absolute error: 0.05080490634701427
Coverage of cases: 99.10922587486745
Instances selection time: 3.2
Test time: 8.2
Accumulative iteration time: 698.8
Weighted Recall: 0.9499999999999998
Weighted FalsePositiveRate: 0.7591139803199876
Kappa statistic: 0.2996827775128824
Training time: 23.9
		
Iteration: 32
Labeled set size: 997
Unlabelled set size: 889
	
Mean region size: 55.40296924708379
Incorrectly Classified Instances: 4.798515376458113
Correctly Classified Instances: 95.20148462354189
Weighted Precision: 0.9525296822347125
Weighted AreaUnderROC: 0.9236751694075425
Root mean squared error: 0.17754614435662358
Relative absolute error: 9.775722024286408
Root relative squared error: 35.50922887132472
Weighted TruePositiveRate: 0.952014846235419
Weighted MatthewsCorrelation: 0.44554838637775535
Weighted FMeasure: 0.9373948432263092
Iteration time: 27.8
Weighted AreaUnderPRC: 0.97660549263573
Mean absolute error: 0.048878610121432034
Coverage of cases: 99.1728525980912
Instances selection time: 3.1
Test time: 8.1
Accumulative iteration time: 726.6
Weighted Recall: 0.952014846235419
Weighted FalsePositiveRate: 0.7248178922140804
Kappa statistic: 0.34584411464318265
Training time: 24.7
		
Iteration: 33
Labeled set size: 1017
Unlabelled set size: 869
	
Mean region size: 55.34729586426299
Incorrectly Classified Instances: 4.878048780487806
Correctly Classified Instances: 95.12195121951221
Weighted Precision: 0.952185565727121
Weighted AreaUnderROC: 0.9172556444377973
Root mean squared error: 0.1785089780431333
Relative absolute error: 9.731283546510507
Root relative squared error: 35.701795608626654
Weighted TruePositiveRate: 0.9512195121951219
Weighted MatthewsCorrelation: 0.4018423816289044
Weighted FMeasure: 0.9343864382287682
Iteration time: 27.5
Weighted AreaUnderPRC: 0.9760739390042256
Mean absolute error: 0.04865641773255254
Coverage of cases: 99.15164369034994
Instances selection time: 2.8
Test time: 8.1
Accumulative iteration time: 754.1
Weighted Recall: 0.9512195121951219
Weighted FalsePositiveRate: 0.735357377776969
Kappa statistic: 0.30593557526094944
Training time: 24.7
		
Iteration: 34
Labeled set size: 1037
Unlabelled set size: 849
	
Mean region size: 55.59650053022269
Incorrectly Classified Instances: 5.159066808059385
Correctly Classified Instances: 94.84093319194064
Weighted Precision: 0.9480449201729358
Weighted AreaUnderROC: 0.9171997946836375
Root mean squared error: 0.18466669700910807
Relative absolute error: 10.314412879625626
Root relative squared error: 36.93333940182161
Weighted TruePositiveRate: 0.9484093319194061
Weighted MatthewsCorrelation: 0.3701892894698514
Weighted FMeasure: 0.9304312582765014
Iteration time: 32.7
Weighted AreaUnderPRC: 0.9739508628690183
Mean absolute error: 0.051572064398128135
Coverage of cases: 99.16755037115588
Instances selection time: 3.1
Test time: 9.2
Accumulative iteration time: 786.8
Weighted Recall: 0.9484093319194061
Weighted FalsePositiveRate: 0.7800131371046409
Kappa statistic: 0.2624610222158932
Training time: 29.6
		
Iteration: 35
Labeled set size: 1057
Unlabelled set size: 829
	
Mean region size: 55.54347826086956
Incorrectly Classified Instances: 5.0
Correctly Classified Instances: 94.99999999999999
Weighted Precision: 0.9490299924033705
Weighted AreaUnderROC: 0.9179613095180134
Root mean squared error: 0.1812004766276038
Relative absolute error: 10.046354149350737
Root relative squared error: 36.240095325520755
Weighted TruePositiveRate: 0.9500000000000002
Weighted MatthewsCorrelation: 0.39359070175801614
Weighted FMeasure: 0.9330652938980017
Iteration time: 35.1
Weighted AreaUnderPRC: 0.9745937673104785
Mean absolute error: 0.05023177074675369
Coverage of cases: 99.18875927889715
Instances selection time: 3.4
Test time: 9.5
Accumulative iteration time: 821.9
Weighted Recall: 0.9500000000000002
Weighted FalsePositiveRate: 0.7548461137029989
Kappa statistic: 0.2928564556805814
Training time: 31.7
		
Iteration: 36
Labeled set size: 1077
Unlabelled set size: 809
	
Mean region size: 55.365853658536594
Incorrectly Classified Instances: 4.761399787910923
Correctly Classified Instances: 95.23860021208908
Weighted Precision: 0.9511056781440962
Weighted AreaUnderROC: 0.910972576902761
Root mean squared error: 0.176725030786607
Relative absolute error: 9.654350259419447
Root relative squared error: 35.3450061573214
Weighted TruePositiveRate: 0.9523860021208908
Weighted MatthewsCorrelation: 0.43848492912764864
Weighted FMeasure: 0.9375231758754132
Iteration time: 33.4
Weighted AreaUnderPRC: 0.9743013356517174
Mean absolute error: 0.04827175129709723
Coverage of cases: 99.09862142099682
Instances selection time: 3.1
Test time: 9.2
Accumulative iteration time: 855.3
Weighted Recall: 0.9523860021208908
Weighted FalsePositiveRate: 0.7209756996780115
Kappa statistic: 0.34542833002381756
Training time: 30.3
		
Iteration: 37
Labeled set size: 1097
Unlabelled set size: 789
	
Mean region size: 55.20148462354189
Incorrectly Classified Instances: 4.92576882290562
Correctly Classified Instances: 95.07423117709439
Weighted Precision: 0.9521178054547107
Weighted AreaUnderROC: 0.9076241226411945
Root mean squared error: 0.18128099430577002
Relative absolute error: 9.94713837656959
Root relative squared error: 36.256198861154004
Weighted TruePositiveRate: 0.9507423117709438
Weighted MatthewsCorrelation: 0.4097668558446571
Weighted FMeasure: 0.9340313451184862
Iteration time: 30.6
Weighted AreaUnderPRC: 0.972978139217567
Mean absolute error: 0.04973569188284795
Coverage of cases: 99.06150583244964
Instances selection time: 2.9
Test time: 7.9
Accumulative iteration time: 885.9
Weighted Recall: 0.9507423117709438
Weighted FalsePositiveRate: 0.7491135806819429
Kappa statistic: 0.30289651125949657
Training time: 27.7
		
Iteration: 38
Labeled set size: 1117
Unlabelled set size: 769
	
Mean region size: 55.307529162248144
Incorrectly Classified Instances: 5.312831389183457
Correctly Classified Instances: 94.68716861081654
Weighted Precision: 0.9472434942369106
Weighted AreaUnderROC: 0.9217554494417636
Root mean squared error: 0.18566725601699632
Relative absolute error: 10.221120777932146
Root relative squared error: 37.133451203399275
Weighted TruePositiveRate: 0.9468716861081656
Weighted MatthewsCorrelation: 0.3372717835900171
Weighted FMeasure: 0.9271156728732821
Iteration time: 30.0
Weighted AreaUnderPRC: 0.9744583673866412
Mean absolute error: 0.05110560388966072
Coverage of cases: 99.19936373276775
Instances selection time: 2.9
Test time: 8.0
Accumulative iteration time: 915.9
Weighted Recall: 0.9468716861081656
Weighted FalsePositiveRate: 0.8068626321935642
Kappa statistic: 0.22158956675006336
Training time: 27.1
		
Iteration: 39
Labeled set size: 1137
Unlabelled set size: 749
	
Mean region size: 55.20148462354189
Incorrectly Classified Instances: 5.2598091198303285
Correctly Classified Instances: 94.74019088016966
Weighted Precision: 0.9448769648940079
Weighted AreaUnderROC: 0.9073929315660451
Root mean squared error: 0.18747858551352622
Relative absolute error: 10.279123788059895
Root relative squared error: 37.49571710270525
Weighted TruePositiveRate: 0.9474019088016966
Weighted MatthewsCorrelation: 0.3450934576445282
Weighted FMeasure: 0.928521101664215
Iteration time: 31.0
Weighted AreaUnderPRC: 0.9717426508082878
Mean absolute error: 0.05139561894029946
Coverage of cases: 99.0562036055143
Instances selection time: 2.7
Test time: 8.2
Accumulative iteration time: 946.9
Weighted Recall: 0.9474019088016966
Weighted FalsePositiveRate: 0.7971910704612367
Kappa statistic: 0.23946426490281833
Training time: 28.3
		
Iteration: 40
Labeled set size: 1157
Unlabelled set size: 729
	
Mean region size: 55.52492046659596
Incorrectly Classified Instances: 4.8992576882290555
Correctly Classified Instances: 95.10074231177096
Weighted Precision: 0.9521047731924686
Weighted AreaUnderROC: 0.9153262670609246
Root mean squared error: 0.17986854713466777
Relative absolute error: 9.95623696264457
Root relative squared error: 35.97370942693355
Weighted TruePositiveRate: 0.9510074231177092
Weighted MatthewsCorrelation: 0.42125849565384643
Weighted FMeasure: 0.9350390011535208
Iteration time: 32.3
Weighted AreaUnderPRC: 0.9753125466277066
Mean absolute error: 0.04978118481322287
Coverage of cases: 99.11452810180276
Instances selection time: 2.6
Test time: 8.3
Accumulative iteration time: 979.2
Weighted Recall: 0.9510074231177092
Weighted FalsePositiveRate: 0.7444652061126307
Kappa statistic: 0.3161234145962768
Training time: 29.7
		
Iteration: 41
Labeled set size: 1177
Unlabelled set size: 709
	
Mean region size: 55.36320254506893
Incorrectly Classified Instances: 4.68186638388123
Correctly Classified Instances: 95.31813361611877
Weighted Precision: 0.9526834891475409
Weighted AreaUnderROC: 0.9344246914824188
Root mean squared error: 0.17450999595141922
Relative absolute error: 9.595677783334143
Root relative squared error: 34.901999190283846
Weighted TruePositiveRate: 0.9531813361611878
Weighted MatthewsCorrelation: 0.4607489995949998
Weighted FMeasure: 0.9393272505294428
Iteration time: 31.8
Weighted AreaUnderPRC: 0.979185097984679
Mean absolute error: 0.04797838891667072
Coverage of cases: 99.31071049840934
Instances selection time: 2.6
Test time: 8.4
Accumulative iteration time: 1011.0
Weighted Recall: 0.9531813361611878
Weighted FalsePositiveRate: 0.7054452663796577
Kappa statistic: 0.36799862241763936
Training time: 29.2
		
Iteration: 42
Labeled set size: 1197
Unlabelled set size: 689
	
Mean region size: 55.326086956521735
Incorrectly Classified Instances: 4.612937433722164
Correctly Classified Instances: 95.38706256627783
Weighted Precision: 0.9544967017399116
Weighted AreaUnderROC: 0.9116198318512145
Root mean squared error: 0.17631332792018312
Relative absolute error: 9.72105389138694
Root relative squared error: 35.26266558403661
Weighted TruePositiveRate: 0.9538706256627781
Weighted MatthewsCorrelation: 0.46868564143864944
Weighted FMeasure: 0.9404482668422496
Iteration time: 33.8
Weighted AreaUnderPRC: 0.974855166514357
Mean absolute error: 0.048605269456934705
Coverage of cases: 99.10392364793213
Instances selection time: 2.7
Test time: 8.3
Accumulative iteration time: 1044.8
Weighted Recall: 0.9538706256627781
Weighted FalsePositiveRate: 0.6947627098870102
Kappa statistic: 0.3812235184224525
Training time: 31.1
		
Iteration: 43
Labeled set size: 1217
Unlabelled set size: 669
	
Mean region size: 55.19353128313892
Incorrectly Classified Instances: 4.899257688229056
Correctly Classified Instances: 95.10074231177094
Weighted Precision: 0.9506437104036587
Weighted AreaUnderROC: 0.9048534058192266
Root mean squared error: 0.18051413379697961
Relative absolute error: 9.831571961754749
Root relative squared error: 36.102826759395924
Weighted TruePositiveRate: 0.9510074231177097
Weighted MatthewsCorrelation: 0.4163262233086685
Weighted FMeasure: 0.9350177938056149
Iteration time: 37.8
Weighted AreaUnderPRC: 0.973159256711878
Mean absolute error: 0.049157859808773754
Coverage of cases: 99.05620360551431
Instances selection time: 2.4
Test time: 9.1
Accumulative iteration time: 1082.6
Weighted Recall: 0.9510074231177097
Weighted FalsePositiveRate: 0.7423782939226768
Kappa statistic: 0.3154169457764981
Training time: 35.4
		
Iteration: 44
Labeled set size: 1237
Unlabelled set size: 649
	
Mean region size: 55.06627783669141
Incorrectly Classified Instances: 4.96288441145281
Correctly Classified Instances: 95.0371155885472
Weighted Precision: 0.9504477549017416
Weighted AreaUnderROC: 0.9137058337771128
Root mean squared error: 0.17934152846160117
Relative absolute error: 9.710251298493004
Root relative squared error: 35.86830569232023
Weighted TruePositiveRate: 0.9503711558854719
Weighted MatthewsCorrelation: 0.41371650222963885
Weighted FMeasure: 0.9342119688612838
Iteration time: 33.7
Weighted AreaUnderPRC: 0.9750608892326416
Mean absolute error: 0.04855125649246503
Coverage of cases: 99.12513255567337
Instances selection time: 2.5
Test time: 8.3
Accumulative iteration time: 1116.3
Weighted Recall: 0.9503711558854719
Weighted FalsePositiveRate: 0.7534956628593676
Kappa statistic: 0.3071317327902551
Training time: 31.2
		
Iteration: 45
Labeled set size: 1257
Unlabelled set size: 629
	
Mean region size: 55.21474019088017
Incorrectly Classified Instances: 4.931071049840933
Correctly Classified Instances: 95.06892895015906
Weighted Precision: 0.9516549020646152
Weighted AreaUnderROC: 0.9094993630126122
Root mean squared error: 0.18253249382211917
Relative absolute error: 10.000093115906527
Root relative squared error: 36.50649876442383
Weighted TruePositiveRate: 0.9506892895015906
Weighted MatthewsCorrelation: 0.3921797137370219
Weighted FMeasure: 0.9334490361834323
Iteration time: 32.7
Weighted AreaUnderPRC: 0.9729021700080566
Mean absolute error: 0.050000465579532624
Coverage of cases: 99.06680805938494
Instances selection time: 2.2
Test time: 8.1
Accumulative iteration time: 1149.0
Weighted Recall: 0.9506892895015906
Weighted FalsePositiveRate: 0.7474158931819209
Kappa statistic: 0.29481143379381514
Training time: 30.5
		
Iteration: 46
Labeled set size: 1277
Unlabelled set size: 609
	
Mean region size: 55.10339342523861
Incorrectly Classified Instances: 5.047720042417816
Correctly Classified Instances: 94.95227995758218
Weighted Precision: 0.9482146649933687
Weighted AreaUnderROC: 0.9075704117710865
Root mean squared error: 0.18183129479223178
Relative absolute error: 9.891498975110471
Root relative squared error: 36.36625895844635
Weighted TruePositiveRate: 0.9495227995758218
Weighted MatthewsCorrelation: 0.3821778829284891
Weighted FMeasure: 0.9320153463365047
Iteration time: 35.1
Weighted AreaUnderPRC: 0.9731084738029938
Mean absolute error: 0.04945749487555236
Coverage of cases: 99.07741251325557
Instances selection time: 2.5
Test time: 8.4
Accumulative iteration time: 1184.1
Weighted Recall: 0.9495227995758218
Weighted FalsePositiveRate: 0.7654024863008063
Kappa statistic: 0.27970658027523665
Training time: 32.6
		
Time end:Wed Nov 01 09.17.22 EET 2017