Wed Nov 01 08.34.00 EET 2017
Dataset: sick
Test set size: 1886
Initial Labelled set size: 377
Initial Unlabelled set size: 1509
Batch mode: QBestBatchMode
Batch size: 20
Classifiers: J48-1cores
Scenario: PoolBasedSamplingScenario
Query strategy: KullbackLeiblerDivergenceQueryStrategy-1cores
Time begining: Wed Nov 01 08.34.00 EET 2017
		
Iteration: 1
Labeled set size: 377
Unlabelled set size: 1509
	
Mean region size: 51.72322375397667
Incorrectly Classified Instances: 2.9692470837751856
Correctly Classified Instances: 97.03075291622481
Weighted Precision: 0.9682685125470023
Weighted AreaUnderROC: 0.7953403874008789
Root mean squared error: 0.1682535722188629
Relative absolute error: 9.166561108032099
Root relative squared error: 33.65071444377258
Weighted TruePositiveRate: 0.9703075291622482
Weighted MatthewsCorrelation: 0.7123428922478012
Weighted FMeasure: 0.9680410641416278
Iteration time: 24.0
Weighted AreaUnderPRC: 0.950687893573493
Mean absolute error: 0.04583280554016049
Coverage of cases: 97.5609756097561
Instances selection time: 2.0
Test time: 5.0
Accumulative iteration time: 24.0
Weighted Recall: 0.9703075291622482
Weighted FalsePositiveRate: 0.3596920576772114
Kappa statistic: 0.7019343113072832
Training time: 22.0
		
Iteration: 2
Labeled set size: 397
Unlabelled set size: 1489
	
Mean region size: 51.72322375397667
Incorrectly Classified Instances: 2.9692470837751856
Correctly Classified Instances: 97.03075291622481
Weighted Precision: 0.9682685125470023
Weighted AreaUnderROC: 0.7953403874008789
Root mean squared error: 0.168264850000552
Relative absolute error: 9.005883178179301
Root relative squared error: 33.6529700001104
Weighted TruePositiveRate: 0.9703075291622482
Weighted MatthewsCorrelation: 0.7123428922478012
Weighted FMeasure: 0.9680410641416278
Iteration time: 10.0
Weighted AreaUnderPRC: 0.950687893573493
Mean absolute error: 0.045029415890896506
Coverage of cases: 97.5609756097561
Instances selection time: 2.0
Test time: 3.0
Accumulative iteration time: 34.0
Weighted Recall: 0.9703075291622482
Weighted FalsePositiveRate: 0.3596920576772114
Kappa statistic: 0.7019343113072832
Training time: 8.0
		
Iteration: 3
Labeled set size: 417
Unlabelled set size: 1469
	
Mean region size: 51.72322375397667
Incorrectly Classified Instances: 2.9692470837751856
Correctly Classified Instances: 97.03075291622481
Weighted Precision: 0.9682685125470023
Weighted AreaUnderROC: 0.7953403874008789
Root mean squared error: 0.1681234081620033
Relative absolute error: 8.89422696120894
Root relative squared error: 33.62468163240066
Weighted TruePositiveRate: 0.9703075291622482
Weighted MatthewsCorrelation: 0.7123428922478012
Weighted FMeasure: 0.9680410641416278
Iteration time: 14.0
Weighted AreaUnderPRC: 0.950687893573493
Mean absolute error: 0.0444711348060447
Coverage of cases: 97.5609756097561
Instances selection time: 2.0
Test time: 4.0
Accumulative iteration time: 48.0
Weighted Recall: 0.9703075291622482
Weighted FalsePositiveRate: 0.3596920576772114
Kappa statistic: 0.7019343113072832
Training time: 12.0
		
Iteration: 4
Labeled set size: 437
Unlabelled set size: 1449
	
Mean region size: 51.72322375397667
Incorrectly Classified Instances: 2.9692470837751856
Correctly Classified Instances: 97.03075291622481
Weighted Precision: 0.9682685125470023
Weighted AreaUnderROC: 0.7953403874008789
Root mean squared error: 0.16816839921065513
Relative absolute error: 8.757659496149147
Root relative squared error: 33.63367984213102
Weighted TruePositiveRate: 0.9703075291622482
Weighted MatthewsCorrelation: 0.7123428922478012
Weighted FMeasure: 0.9680410641416278
Iteration time: 10.0
Weighted AreaUnderPRC: 0.950687893573493
Mean absolute error: 0.04378829748074573
Coverage of cases: 97.5609756097561
Instances selection time: 1.0
Test time: 4.0
Accumulative iteration time: 58.0
Weighted Recall: 0.9703075291622482
Weighted FalsePositiveRate: 0.3596920576772114
Kappa statistic: 0.7019343113072832
Training time: 9.0
		
Iteration: 5
Labeled set size: 457
Unlabelled set size: 1429
	
Mean region size: 51.72322375397667
Incorrectly Classified Instances: 2.9692470837751856
Correctly Classified Instances: 97.03075291622481
Weighted Precision: 0.9682685125470023
Weighted AreaUnderROC: 0.7953403874008789
Root mean squared error: 0.16832852522266395
Relative absolute error: 8.612557662336698
Root relative squared error: 33.66570504453279
Weighted TruePositiveRate: 0.9703075291622482
Weighted MatthewsCorrelation: 0.7123428922478012
Weighted FMeasure: 0.9680410641416278
Iteration time: 10.0
Weighted AreaUnderPRC: 0.950687893573493
Mean absolute error: 0.04306278831168349
Coverage of cases: 97.5609756097561
Instances selection time: 1.0
Test time: 4.0
Accumulative iteration time: 68.0
Weighted Recall: 0.9703075291622482
Weighted FalsePositiveRate: 0.3596920576772114
Kappa statistic: 0.7019343113072832
Training time: 9.0
		
Iteration: 6
Labeled set size: 477
Unlabelled set size: 1409
	
Mean region size: 52.17391304347826
Incorrectly Classified Instances: 3.1283138918345705
Correctly Classified Instances: 96.87168610816543
Weighted Precision: 0.9664161467196069
Weighted AreaUnderROC: 0.8137726167971915
Root mean squared error: 0.1646701745282979
Relative absolute error: 8.145823025090824
Root relative squared error: 32.93403490565958
Weighted TruePositiveRate: 0.9687168610816543
Weighted MatthewsCorrelation: 0.6940009044122081
Weighted FMeasure: 0.9660624485215198
Iteration time: 11.0
Weighted AreaUnderPRC: 0.9569677911301142
Mean absolute error: 0.040729115125454116
Coverage of cases: 97.98515376458113
Instances selection time: 2.0
Test time: 3.0
Accumulative iteration time: 79.0
Weighted Recall: 0.9687168610816543
Weighted FalsePositiveRate: 0.3841883461183567
Kappa statistic: 0.6815009874917712
Training time: 9.0
		
Iteration: 7
Labeled set size: 497
Unlabelled set size: 1389
	
Mean region size: 51.72322375397667
Incorrectly Classified Instances: 2.9692470837751856
Correctly Classified Instances: 97.03075291622481
Weighted Precision: 0.9682685125470023
Weighted AreaUnderROC: 0.7953403874008789
Root mean squared error: 0.16848063841209526
Relative absolute error: 8.390611375118244
Root relative squared error: 33.69612768241905
Weighted TruePositiveRate: 0.9703075291622482
Weighted MatthewsCorrelation: 0.7123428922478012
Weighted FMeasure: 0.9680410641416278
Iteration time: 11.0
Weighted AreaUnderPRC: 0.950687893573493
Mean absolute error: 0.04195305687559122
Coverage of cases: 97.5609756097561
Instances selection time: 2.0
Test time: 3.0
Accumulative iteration time: 90.0
Weighted Recall: 0.9703075291622482
Weighted FalsePositiveRate: 0.3596920576772114
Kappa statistic: 0.7019343113072832
Training time: 9.0
		
Iteration: 8
Labeled set size: 517
Unlabelled set size: 1369
	
Mean region size: 51.56415694591728
Incorrectly Classified Instances: 2.9692470837751856
Correctly Classified Instances: 97.03075291622481
Weighted Precision: 0.9682685125470023
Weighted AreaUnderROC: 0.7953403874008789
Root mean squared error: 0.16849957261214457
Relative absolute error: 8.300242591876911
Root relative squared error: 33.69991452242891
Weighted TruePositiveRate: 0.9703075291622482
Weighted MatthewsCorrelation: 0.7123428922478012
Weighted FMeasure: 0.9680410641416278
Iteration time: 11.0
Weighted AreaUnderPRC: 0.950687893573493
Mean absolute error: 0.041501212959384554
Coverage of cases: 97.5609756097561
Instances selection time: 1.0
Test time: 4.0
Accumulative iteration time: 101.0
Weighted Recall: 0.9703075291622482
Weighted FalsePositiveRate: 0.3596920576772114
Kappa statistic: 0.7019343113072832
Training time: 10.0
		
Iteration: 9
Labeled set size: 537
Unlabelled set size: 1349
	
Mean region size: 51.56415694591728
Incorrectly Classified Instances: 2.9692470837751856
Correctly Classified Instances: 97.03075291622481
Weighted Precision: 0.9682685125470023
Weighted AreaUnderROC: 0.7961652714015663
Root mean squared error: 0.1684915590959006
Relative absolute error: 8.194355174280926
Root relative squared error: 33.69831181918012
Weighted TruePositiveRate: 0.9703075291622482
Weighted MatthewsCorrelation: 0.7123428922478012
Weighted FMeasure: 0.9680410641416278
Iteration time: 11.0
Weighted AreaUnderPRC: 0.9504500371343734
Mean absolute error: 0.040971775871404624
Coverage of cases: 97.5609756097561
Instances selection time: 1.0
Test time: 4.0
Accumulative iteration time: 112.0
Weighted Recall: 0.9703075291622482
Weighted FalsePositiveRate: 0.3596920576772114
Kappa statistic: 0.7019343113072832
Training time: 10.0
		
Iteration: 10
Labeled set size: 557
Unlabelled set size: 1329
	
Mean region size: 51.56415694591728
Incorrectly Classified Instances: 2.9692470837751856
Correctly Classified Instances: 97.03075291622481
Weighted Precision: 0.9682685125470023
Weighted AreaUnderROC: 0.7961652714015663
Root mean squared error: 0.16852831714023553
Relative absolute error: 8.115816692115558
Root relative squared error: 33.7056634280471
Weighted TruePositiveRate: 0.9703075291622482
Weighted MatthewsCorrelation: 0.7123428922478012
Weighted FMeasure: 0.9680410641416278
Iteration time: 13.0
Weighted AreaUnderPRC: 0.9504500371343734
Mean absolute error: 0.04057908346057779
Coverage of cases: 97.5609756097561
Instances selection time: 2.0
Test time: 3.0
Accumulative iteration time: 125.0
Weighted Recall: 0.9703075291622482
Weighted FalsePositiveRate: 0.3596920576772114
Kappa statistic: 0.7019343113072832
Training time: 11.0
		
Iteration: 11
Labeled set size: 577
Unlabelled set size: 1309
	
Mean region size: 51.56415694591728
Incorrectly Classified Instances: 2.9692470837751856
Correctly Classified Instances: 97.03075291622481
Weighted Precision: 0.9682685125470023
Weighted AreaUnderROC: 0.7961652714015663
Root mean squared error: 0.1685714202582868
Relative absolute error: 8.041936862620155
Root relative squared error: 33.71428405165736
Weighted TruePositiveRate: 0.9703075291622482
Weighted MatthewsCorrelation: 0.7123428922478012
Weighted FMeasure: 0.9680410641416278
Iteration time: 13.0
Weighted AreaUnderPRC: 0.9504500371343734
Mean absolute error: 0.04020968431310077
Coverage of cases: 97.5609756097561
Instances selection time: 2.0
Test time: 3.0
Accumulative iteration time: 138.0
Weighted Recall: 0.9703075291622482
Weighted FalsePositiveRate: 0.3596920576772114
Kappa statistic: 0.7019343113072832
Training time: 11.0
		
Iteration: 12
Labeled set size: 597
Unlabelled set size: 1289
	
Mean region size: 53.76458112407211
Incorrectly Classified Instances: 2.9692470837751856
Correctly Classified Instances: 97.03075291622481
Weighted Precision: 0.9682685125470023
Weighted AreaUnderROC: 0.7961652714015663
Root mean squared error: 0.16735263854579027
Relative absolute error: 8.29677560934834
Root relative squared error: 33.470527709158056
Weighted TruePositiveRate: 0.9703075291622482
Weighted MatthewsCorrelation: 0.7123428922478012
Weighted FMeasure: 0.9680410641416278
Iteration time: 14.0
Weighted AreaUnderPRC: 0.9504500371343734
Mean absolute error: 0.041483878046741696
Coverage of cases: 98.19724284199364
Instances selection time: 2.0
Test time: 3.0
Accumulative iteration time: 152.0
Weighted Recall: 0.9703075291622482
Weighted FalsePositiveRate: 0.3596920576772114
Kappa statistic: 0.7019343113072832
Training time: 12.0
		
Iteration: 13
Labeled set size: 617
Unlabelled set size: 1269
	
Mean region size: 53.76458112407211
Incorrectly Classified Instances: 2.9692470837751856
Correctly Classified Instances: 97.03075291622481
Weighted Precision: 0.9682685125470023
Weighted AreaUnderROC: 0.7961652714015663
Root mean squared error: 0.16737027208172647
Relative absolute error: 8.233890730476833
Root relative squared error: 33.4740544163453
Weighted TruePositiveRate: 0.9703075291622482
Weighted MatthewsCorrelation: 0.7123428922478012
Weighted FMeasure: 0.9680410641416278
Iteration time: 14.0
Weighted AreaUnderPRC: 0.9504500371343734
Mean absolute error: 0.04116945365238417
Coverage of cases: 98.19724284199364
Instances selection time: 1.0
Test time: 4.0
Accumulative iteration time: 166.0
Weighted Recall: 0.9703075291622482
Weighted FalsePositiveRate: 0.3596920576772114
Kappa statistic: 0.7019343113072832
Training time: 13.0
		
Iteration: 14
Labeled set size: 637
Unlabelled set size: 1249
	
Mean region size: 53.76458112407211
Incorrectly Classified Instances: 2.9692470837751856
Correctly Classified Instances: 97.03075291622481
Weighted Precision: 0.9682685125470023
Weighted AreaUnderROC: 0.7961652714015663
Root mean squared error: 0.16739648018385597
Relative absolute error: 8.174883236328984
Root relative squared error: 33.479296036771196
Weighted TruePositiveRate: 0.9703075291622482
Weighted MatthewsCorrelation: 0.7123428922478012
Weighted FMeasure: 0.9680410641416278
Iteration time: 14.0
Weighted AreaUnderPRC: 0.9504500371343734
Mean absolute error: 0.04087441618164492
Coverage of cases: 98.19724284199364
Instances selection time: 1.0
Test time: 7.0
Accumulative iteration time: 180.0
Weighted Recall: 0.9703075291622482
Weighted FalsePositiveRate: 0.3596920576772114
Kappa statistic: 0.7019343113072832
Training time: 13.0
		
Iteration: 15
Labeled set size: 657
Unlabelled set size: 1229
	
Mean region size: 53.76458112407211
Incorrectly Classified Instances: 2.9692470837751856
Correctly Classified Instances: 97.03075291622481
Weighted Precision: 0.9682685125470023
Weighted AreaUnderROC: 0.7961652714015663
Root mean squared error: 0.16739952676871786
Relative absolute error: 8.122514458345995
Root relative squared error: 33.479905353743575
Weighted TruePositiveRate: 0.9703075291622482
Weighted MatthewsCorrelation: 0.7123428922478012
Weighted FMeasure: 0.9680410641416278
Iteration time: 33.0
Weighted AreaUnderPRC: 0.9504500371343734
Mean absolute error: 0.04061257229172997
Coverage of cases: 98.19724284199364
Instances selection time: 4.0
Test time: 6.0
Accumulative iteration time: 213.0
Weighted Recall: 0.9703075291622482
Weighted FalsePositiveRate: 0.3596920576772114
Kappa statistic: 0.7019343113072832
Training time: 29.0
		
Iteration: 16
Labeled set size: 677
Unlabelled set size: 1209
	
Mean region size: 51.98833510074231
Incorrectly Classified Instances: 2.1739130434782608
Correctly Classified Instances: 97.82608695652173
Weighted Precision: 0.9777662105889352
Weighted AreaUnderROC: 0.8167554562639628
Root mean squared error: 0.14481044299591342
Relative absolute error: 6.189409081436286
Root relative squared error: 28.962088599182685
Weighted TruePositiveRate: 0.9782608695652174
Weighted MatthewsCorrelation: 0.7931971680128247
Weighted FMeasure: 0.9765404139008198
Iteration time: 33.0
Weighted AreaUnderPRC: 0.9605207303635745
Mean absolute error: 0.03094704540718143
Coverage of cases: 98.40933191940616
Instances selection time: 1.0
Test time: 8.0
Accumulative iteration time: 246.0
Weighted Recall: 0.9782608695652174
Weighted FalsePositiveRate: 0.3022586109542631
Kappa statistic: 0.7807486631016043
Training time: 32.0
		
Iteration: 17
Labeled set size: 697
Unlabelled set size: 1189
	
Mean region size: 51.98833510074231
Incorrectly Classified Instances: 2.1739130434782608
Correctly Classified Instances: 97.82608695652173
Weighted Precision: 0.9777662105889352
Weighted AreaUnderROC: 0.8167554562639628
Root mean squared error: 0.14489221781922376
Relative absolute error: 6.141694709074618
Root relative squared error: 28.978443563844753
Weighted TruePositiveRate: 0.9782608695652174
Weighted MatthewsCorrelation: 0.7931971680128247
Weighted FMeasure: 0.9765404139008198
Iteration time: 33.0
Weighted AreaUnderPRC: 0.9605207303635745
Mean absolute error: 0.03070847354537309
Coverage of cases: 98.40933191940616
Instances selection time: 3.0
Test time: 6.0
Accumulative iteration time: 279.0
Weighted Recall: 0.9782608695652174
Weighted FalsePositiveRate: 0.3022586109542631
Kappa statistic: 0.7807486631016043
Training time: 30.0
		
Iteration: 18
Labeled set size: 717
Unlabelled set size: 1169
	
Mean region size: 51.98833510074231
Incorrectly Classified Instances: 2.1739130434782608
Correctly Classified Instances: 97.82608695652173
Weighted Precision: 0.9777662105889352
Weighted AreaUnderROC: 0.8167554562639628
Root mean squared error: 0.14488480614906035
Relative absolute error: 6.099728870567389
Root relative squared error: 28.97696122981207
Weighted TruePositiveRate: 0.9782608695652174
Weighted MatthewsCorrelation: 0.7931971680128247
Weighted FMeasure: 0.9765404139008198
Iteration time: 33.0
Weighted AreaUnderPRC: 0.9605207303635745
Mean absolute error: 0.030498644352836942
Coverage of cases: 98.40933191940616
Instances selection time: 1.0
Test time: 8.0
Accumulative iteration time: 312.0
Weighted Recall: 0.9782608695652174
Weighted FalsePositiveRate: 0.3022586109542631
Kappa statistic: 0.7807486631016043
Training time: 32.0
		
Iteration: 19
Labeled set size: 737
Unlabelled set size: 1149
	
Mean region size: 51.98833510074231
Incorrectly Classified Instances: 2.1739130434782608
Correctly Classified Instances: 97.82608695652173
Weighted Precision: 0.9777662105889352
Weighted AreaUnderROC: 0.8167554562639628
Root mean squared error: 0.14487109116530916
Relative absolute error: 6.060377554734636
Root relative squared error: 28.974218233061833
Weighted TruePositiveRate: 0.9782608695652174
Weighted MatthewsCorrelation: 0.7931971680128247
Weighted FMeasure: 0.9765404139008198
Iteration time: 33.0
Weighted AreaUnderPRC: 0.9605207303635745
Mean absolute error: 0.03030188777367318
Coverage of cases: 98.40933191940616
Instances selection time: 1.0
Test time: 6.0
Accumulative iteration time: 345.0
Weighted Recall: 0.9782608695652174
Weighted FalsePositiveRate: 0.3022586109542631
Kappa statistic: 0.7807486631016043
Training time: 32.0
		
Iteration: 20
Labeled set size: 757
Unlabelled set size: 1129
	
Mean region size: 51.98833510074231
Incorrectly Classified Instances: 2.1739130434782608
Correctly Classified Instances: 97.82608695652173
Weighted Precision: 0.9777662105889352
Weighted AreaUnderROC: 0.8167554562639628
Root mean squared error: 0.14485553198936604
Relative absolute error: 6.049837929226594
Root relative squared error: 28.971106397873207
Weighted TruePositiveRate: 0.9782608695652174
Weighted MatthewsCorrelation: 0.7931971680128247
Weighted FMeasure: 0.9765404139008198
Iteration time: 37.0
Weighted AreaUnderPRC: 0.9605207303635745
Mean absolute error: 0.030249189646132966
Coverage of cases: 98.40933191940616
Instances selection time: 4.0
Test time: 6.0
Accumulative iteration time: 382.0
Weighted Recall: 0.9782608695652174
Weighted FalsePositiveRate: 0.3022586109542631
Kappa statistic: 0.7807486631016043
Training time: 33.0
		
Iteration: 21
Labeled set size: 777
Unlabelled set size: 1109
	
Mean region size: 51.98833510074231
Incorrectly Classified Instances: 2.1739130434782608
Correctly Classified Instances: 97.82608695652173
Weighted Precision: 0.9777662105889352
Weighted AreaUnderROC: 0.8167554562639628
Root mean squared error: 0.14494158587935815
Relative absolute error: 6.011317927577566
Root relative squared error: 28.988317175871632
Weighted TruePositiveRate: 0.9782608695652174
Weighted MatthewsCorrelation: 0.7931971680128247
Weighted FMeasure: 0.9765404139008198
Iteration time: 37.0
Weighted AreaUnderPRC: 0.9605207303635745
Mean absolute error: 0.03005658963788783
Coverage of cases: 98.40933191940616
Instances selection time: 4.0
Test time: 6.0
Accumulative iteration time: 419.0
Weighted Recall: 0.9782608695652174
Weighted FalsePositiveRate: 0.3022586109542631
Kappa statistic: 0.7807486631016043
Training time: 33.0
		
Iteration: 22
Labeled set size: 797
Unlabelled set size: 1089
	
Mean region size: 51.98833510074231
Incorrectly Classified Instances: 2.1739130434782608
Correctly Classified Instances: 97.82608695652173
Weighted Precision: 0.9777662105889352
Weighted AreaUnderROC: 0.8167554562639628
Root mean squared error: 0.14499561283048779
Relative absolute error: 6.002270038699213
Root relative squared error: 28.999122566097558
Weighted TruePositiveRate: 0.9782608695652174
Weighted MatthewsCorrelation: 0.7931971680128247
Weighted FMeasure: 0.9765404139008198
Iteration time: 18.0
Weighted AreaUnderPRC: 0.9605207303635745
Mean absolute error: 0.030011350193496066
Coverage of cases: 98.40933191940616
Instances selection time: 1.0
Test time: 4.0
Accumulative iteration time: 437.0
Weighted Recall: 0.9782608695652174
Weighted FalsePositiveRate: 0.3022586109542631
Kappa statistic: 0.7807486631016043
Training time: 17.0
		
Iteration: 23
Labeled set size: 817
Unlabelled set size: 1069
	
Mean region size: 51.98833510074231
Incorrectly Classified Instances: 2.1739130434782608
Correctly Classified Instances: 97.82608695652173
Weighted Precision: 0.9777662105889352
Weighted AreaUnderROC: 0.8167554562639628
Root mean squared error: 0.14503183237311507
Relative absolute error: 5.979177117575124
Root relative squared error: 29.006366474623015
Weighted TruePositiveRate: 0.9782608695652174
Weighted MatthewsCorrelation: 0.7931971680128247
Weighted FMeasure: 0.9765404139008198
Iteration time: 18.0
Weighted AreaUnderPRC: 0.9605207303635745
Mean absolute error: 0.02989588558787562
Coverage of cases: 98.40933191940616
Instances selection time: 1.0
Test time: 3.0
Accumulative iteration time: 455.0
Weighted Recall: 0.9782608695652174
Weighted FalsePositiveRate: 0.3022586109542631
Kappa statistic: 0.7807486631016043
Training time: 17.0
		
Iteration: 24
Labeled set size: 837
Unlabelled set size: 1049
	
Mean region size: 51.98833510074231
Incorrectly Classified Instances: 2.1739130434782608
Correctly Classified Instances: 97.82608695652173
Weighted Precision: 0.9777662105889352
Weighted AreaUnderROC: 0.8167554562639628
Root mean squared error: 0.14502894967640798
Relative absolute error: 5.947897298456716
Root relative squared error: 29.005789935281594
Weighted TruePositiveRate: 0.9782608695652174
Weighted MatthewsCorrelation: 0.7931971680128247
Weighted FMeasure: 0.9765404139008198
Iteration time: 18.0
Weighted AreaUnderPRC: 0.9605207303635745
Mean absolute error: 0.02973948649228358
Coverage of cases: 98.40933191940616
Instances selection time: 1.0
Test time: 4.0
Accumulative iteration time: 473.0
Weighted Recall: 0.9782608695652174
Weighted FalsePositiveRate: 0.3022586109542631
Kappa statistic: 0.7807486631016043
Training time: 17.0
		
Iteration: 25
Labeled set size: 857
Unlabelled set size: 1029
	
Mean region size: 51.98833510074231
Incorrectly Classified Instances: 2.1739130434782608
Correctly Classified Instances: 97.82608695652173
Weighted Precision: 0.9777662105889352
Weighted AreaUnderROC: 0.8167554562639628
Root mean squared error: 0.14499674000743054
Relative absolute error: 5.9605038384151685
Root relative squared error: 28.99934800148611
Weighted TruePositiveRate: 0.9782608695652174
Weighted MatthewsCorrelation: 0.7931971680128247
Weighted FMeasure: 0.9765404139008198
Iteration time: 19.0
Weighted AreaUnderPRC: 0.9605207303635745
Mean absolute error: 0.029802519192075844
Coverage of cases: 98.40933191940616
Instances selection time: 1.0
Test time: 3.0
Accumulative iteration time: 492.0
Weighted Recall: 0.9782608695652174
Weighted FalsePositiveRate: 0.3022586109542631
Kappa statistic: 0.7807486631016043
Training time: 18.0
		
Iteration: 26
Labeled set size: 877
Unlabelled set size: 1009
	
Mean region size: 51.98833510074231
Incorrectly Classified Instances: 2.1739130434782608
Correctly Classified Instances: 97.82608695652173
Weighted Precision: 0.9777662105889352
Weighted AreaUnderROC: 0.8167554562639628
Root mean squared error: 0.1450044322041424
Relative absolute error: 5.930452503798581
Root relative squared error: 29.000886440828484
Weighted TruePositiveRate: 0.9782608695652174
Weighted MatthewsCorrelation: 0.7931971680128247
Weighted FMeasure: 0.9765404139008198
Iteration time: 20.0
Weighted AreaUnderPRC: 0.9605207303635745
Mean absolute error: 0.029652262518992906
Coverage of cases: 98.40933191940616
Instances selection time: 2.0
Test time: 3.0
Accumulative iteration time: 512.0
Weighted Recall: 0.9782608695652174
Weighted FalsePositiveRate: 0.3022586109542631
Kappa statistic: 0.7807486631016043
Training time: 18.0
		
Iteration: 27
Labeled set size: 897
Unlabelled set size: 989
	
Mean region size: 51.98833510074231
Incorrectly Classified Instances: 2.1739130434782608
Correctly Classified Instances: 97.82608695652173
Weighted Precision: 0.9777662105889352
Weighted AreaUnderROC: 0.8167554562639628
Root mean squared error: 0.14500109199439484
Relative absolute error: 5.901799222301609
Root relative squared error: 29.000218398878967
Weighted TruePositiveRate: 0.9782608695652174
Weighted MatthewsCorrelation: 0.7931971680128247
Weighted FMeasure: 0.9765404139008198
Iteration time: 19.0
Weighted AreaUnderPRC: 0.9605207303635745
Mean absolute error: 0.029508996111508045
Coverage of cases: 98.40933191940616
Instances selection time: 1.0
Test time: 3.0
Accumulative iteration time: 531.0
Weighted Recall: 0.9782608695652174
Weighted FalsePositiveRate: 0.3022586109542631
Kappa statistic: 0.7807486631016043
Training time: 18.0
		
Iteration: 28
Labeled set size: 917
Unlabelled set size: 969
	
Mean region size: 51.98833510074231
Incorrectly Classified Instances: 2.1739130434782608
Correctly Classified Instances: 97.82608695652173
Weighted Precision: 0.9777662105889352
Weighted AreaUnderROC: 0.8167554562639628
Root mean squared error: 0.14498759524929478
Relative absolute error: 5.874494711584367
Root relative squared error: 28.997519049858955
Weighted TruePositiveRate: 0.9782608695652174
Weighted MatthewsCorrelation: 0.7931971680128247
Weighted FMeasure: 0.9765404139008198
Iteration time: 20.0
Weighted AreaUnderPRC: 0.9605207303635745
Mean absolute error: 0.029372473557921833
Coverage of cases: 98.40933191940616
Instances selection time: 1.0
Test time: 3.0
Accumulative iteration time: 551.0
Weighted Recall: 0.9782608695652174
Weighted FalsePositiveRate: 0.3022586109542631
Kappa statistic: 0.7807486631016043
Training time: 19.0
		
Iteration: 29
Labeled set size: 937
Unlabelled set size: 949
	
Mean region size: 51.98833510074231
Incorrectly Classified Instances: 2.1739130434782608
Correctly Classified Instances: 97.82608695652173
Weighted Precision: 0.9777662105889352
Weighted AreaUnderROC: 0.8167554562639628
Root mean squared error: 0.14498266919319175
Relative absolute error: 5.87156155691256
Root relative squared error: 28.99653383863835
Weighted TruePositiveRate: 0.9782608695652174
Weighted MatthewsCorrelation: 0.7931971680128247
Weighted FMeasure: 0.9765404139008198
Iteration time: 20.0
Weighted AreaUnderPRC: 0.9605207303635745
Mean absolute error: 0.0293578077845628
Coverage of cases: 98.40933191940616
Instances selection time: 1.0
Test time: 3.0
Accumulative iteration time: 571.0
Weighted Recall: 0.9782608695652174
Weighted FalsePositiveRate: 0.3022586109542631
Kappa statistic: 0.7807486631016043
Training time: 19.0
		
Iteration: 30
Labeled set size: 957
Unlabelled set size: 929
	
Mean region size: 51.98833510074231
Incorrectly Classified Instances: 2.1739130434782608
Correctly Classified Instances: 97.82608695652173
Weighted Precision: 0.9777662105889352
Weighted AreaUnderROC: 0.8167554562639628
Root mean squared error: 0.14500071463584915
Relative absolute error: 5.855397793285077
Root relative squared error: 29.00014292716983
Weighted TruePositiveRate: 0.9782608695652174
Weighted MatthewsCorrelation: 0.7931971680128247
Weighted FMeasure: 0.9765404139008198
Iteration time: 20.0
Weighted AreaUnderPRC: 0.9605207303635745
Mean absolute error: 0.029276988966425384
Coverage of cases: 98.40933191940616
Instances selection time: 1.0
Test time: 4.0
Accumulative iteration time: 591.0
Weighted Recall: 0.9782608695652174
Weighted FalsePositiveRate: 0.3022586109542631
Kappa statistic: 0.7807486631016043
Training time: 19.0
		
Iteration: 31
Labeled set size: 977
Unlabelled set size: 909
	
Mean region size: 51.98833510074231
Incorrectly Classified Instances: 2.1739130434782608
Correctly Classified Instances: 97.82608695652173
Weighted Precision: 0.9777662105889352
Weighted AreaUnderROC: 0.8167554562639628
Root mean squared error: 0.14497738964121146
Relative absolute error: 5.8534773564525935
Root relative squared error: 28.99547792824229
Weighted TruePositiveRate: 0.9782608695652174
Weighted MatthewsCorrelation: 0.7931971680128247
Weighted FMeasure: 0.9765404139008198
Iteration time: 21.0
Weighted AreaUnderPRC: 0.9605207303635745
Mean absolute error: 0.02926738678226297
Coverage of cases: 98.40933191940616
Instances selection time: 1.0
Test time: 8.0
Accumulative iteration time: 612.0
Weighted Recall: 0.9782608695652174
Weighted FalsePositiveRate: 0.3022586109542631
Kappa statistic: 0.7807486631016043
Training time: 20.0
		
Iteration: 32
Labeled set size: 997
Unlabelled set size: 889
	
Mean region size: 51.98833510074231
Incorrectly Classified Instances: 2.1739130434782608
Correctly Classified Instances: 97.82608695652173
Weighted Precision: 0.9777662105889352
Weighted AreaUnderROC: 0.8167554562639628
Root mean squared error: 0.14498543041029566
Relative absolute error: 5.82938287388844
Root relative squared error: 28.99708608205913
Weighted TruePositiveRate: 0.9782608695652174
Weighted MatthewsCorrelation: 0.7931971680128247
Weighted FMeasure: 0.9765404139008198
Iteration time: 47.0
Weighted AreaUnderPRC: 0.9605207303635745
Mean absolute error: 0.0291469143694422
Coverage of cases: 98.40933191940616
Instances selection time: 6.0
Test time: 3.0
Accumulative iteration time: 659.0
Weighted Recall: 0.9782608695652174
Weighted FalsePositiveRate: 0.3022586109542631
Kappa statistic: 0.7807486631016043
Training time: 41.0
		
Iteration: 33
Labeled set size: 1017
Unlabelled set size: 869
	
Mean region size: 51.98833510074231
Incorrectly Classified Instances: 2.1739130434782608
Correctly Classified Instances: 97.82608695652173
Weighted Precision: 0.9777662105889352
Weighted AreaUnderROC: 0.8167554562639628
Root mean squared error: 0.14508822034018767
Relative absolute error: 5.81557997642003
Root relative squared error: 29.017644068037534
Weighted TruePositiveRate: 0.9782608695652174
Weighted MatthewsCorrelation: 0.7931971680128247
Weighted FMeasure: 0.9765404139008198
Iteration time: 22.0
Weighted AreaUnderPRC: 0.9605207303635745
Mean absolute error: 0.029077899882100147
Coverage of cases: 98.40933191940616
Instances selection time: 1.0
Test time: 4.0
Accumulative iteration time: 681.0
Weighted Recall: 0.9782608695652174
Weighted FalsePositiveRate: 0.3022586109542631
Kappa statistic: 0.7807486631016043
Training time: 21.0
		
Iteration: 34
Labeled set size: 1037
Unlabelled set size: 849
	
Mean region size: 51.98833510074231
Incorrectly Classified Instances: 2.1739130434782608
Correctly Classified Instances: 97.82608695652173
Weighted Precision: 0.9777662105889352
Weighted AreaUnderROC: 0.8167554562639628
Root mean squared error: 0.14508602898023873
Relative absolute error: 5.793055031144848
Root relative squared error: 29.017205796047747
Weighted TruePositiveRate: 0.9782608695652174
Weighted MatthewsCorrelation: 0.7931971680128247
Weighted FMeasure: 0.9765404139008198
Iteration time: 22.0
Weighted AreaUnderPRC: 0.9605207303635745
Mean absolute error: 0.02896527515572424
Coverage of cases: 98.40933191940616
Instances selection time: 1.0
Test time: 3.0
Accumulative iteration time: 703.0
Weighted Recall: 0.9782608695652174
Weighted FalsePositiveRate: 0.3022586109542631
Kappa statistic: 0.7807486631016043
Training time: 21.0
		
Iteration: 35
Labeled set size: 1057
Unlabelled set size: 829
	
Mean region size: 51.98833510074231
Incorrectly Classified Instances: 2.1739130434782608
Correctly Classified Instances: 97.82608695652173
Weighted Precision: 0.9781810188336736
Weighted AreaUnderROC: 0.8001792158691969
Root mean squared error: 0.1453700215587317
Relative absolute error: 5.780189727744994
Root relative squared error: 29.074004311746336
Weighted TruePositiveRate: 0.9782608695652174
Weighted MatthewsCorrelation: 0.7928383946078806
Weighted FMeasure: 0.9762894373772163
Iteration time: 23.0
Weighted AreaUnderPRC: 0.9587860833693813
Mean absolute error: 0.02890094863872497
Coverage of cases: 98.40933191940616
Instances selection time: 1.0
Test time: 3.0
Accumulative iteration time: 726.0
Weighted Recall: 0.9782608695652174
Weighted FalsePositiveRate: 0.31852060982495767
Kappa statistic: 0.7765519074837167
Training time: 22.0
		
Iteration: 36
Labeled set size: 1077
Unlabelled set size: 809
	
Mean region size: 51.98833510074231
Incorrectly Classified Instances: 2.1739130434782608
Correctly Classified Instances: 97.82608695652173
Weighted Precision: 0.9781810188336736
Weighted AreaUnderROC: 0.8001792158691969
Root mean squared error: 0.14539496548631223
Relative absolute error: 5.767758476581932
Root relative squared error: 29.078993097262444
Weighted TruePositiveRate: 0.9782608695652174
Weighted MatthewsCorrelation: 0.7928383946078806
Weighted FMeasure: 0.9762894373772163
Iteration time: 23.0
Weighted AreaUnderPRC: 0.9587860833693813
Mean absolute error: 0.028838792382909657
Coverage of cases: 98.40933191940616
Instances selection time: 1.0
Test time: 3.0
Accumulative iteration time: 749.0
Weighted Recall: 0.9782608695652174
Weighted FalsePositiveRate: 0.31852060982495767
Kappa statistic: 0.7765519074837167
Training time: 22.0
		
Iteration: 37
Labeled set size: 1097
Unlabelled set size: 789
	
Mean region size: 51.98833510074231
Incorrectly Classified Instances: 2.1739130434782608
Correctly Classified Instances: 97.82608695652173
Weighted Precision: 0.9781810188336736
Weighted AreaUnderROC: 0.8001792158691969
Root mean squared error: 0.1453929780381102
Relative absolute error: 5.747329985651974
Root relative squared error: 29.078595607622038
Weighted TruePositiveRate: 0.9782608695652174
Weighted MatthewsCorrelation: 0.7928383946078806
Weighted FMeasure: 0.9762894373772163
Iteration time: 24.0
Weighted AreaUnderPRC: 0.9587860833693813
Mean absolute error: 0.028736649928259868
Coverage of cases: 98.40933191940616
Instances selection time: 1.0
Test time: 4.0
Accumulative iteration time: 773.0
Weighted Recall: 0.9782608695652174
Weighted FalsePositiveRate: 0.31852060982495767
Kappa statistic: 0.7765519074837167
Training time: 23.0
		
Iteration: 38
Labeled set size: 1117
Unlabelled set size: 769
	
Mean region size: 51.98833510074231
Incorrectly Classified Instances: 2.1739130434782608
Correctly Classified Instances: 97.82608695652173
Weighted Precision: 0.9781810188336736
Weighted AreaUnderROC: 0.8001792158691969
Root mean squared error: 0.14539123755998418
Relative absolute error: 5.727637275473995
Root relative squared error: 29.078247511996835
Weighted TruePositiveRate: 0.9782608695652174
Weighted MatthewsCorrelation: 0.7928383946078806
Weighted FMeasure: 0.9762894373772163
Iteration time: 24.0
Weighted AreaUnderPRC: 0.9587860833693813
Mean absolute error: 0.028638186377369975
Coverage of cases: 98.40933191940616
Instances selection time: 1.0
Test time: 3.0
Accumulative iteration time: 797.0
Weighted Recall: 0.9782608695652174
Weighted FalsePositiveRate: 0.31852060982495767
Kappa statistic: 0.7765519074837167
Training time: 23.0
		
Iteration: 39
Labeled set size: 1137
Unlabelled set size: 749
	
Mean region size: 51.98833510074231
Incorrectly Classified Instances: 2.1739130434782608
Correctly Classified Instances: 97.82608695652173
Weighted Precision: 0.9781810188336736
Weighted AreaUnderROC: 0.8001792158691969
Root mean squared error: 0.14538096628922623
Relative absolute error: 5.708617964666927
Root relative squared error: 29.076193257845244
Weighted TruePositiveRate: 0.9782608695652174
Weighted MatthewsCorrelation: 0.7928383946078806
Weighted FMeasure: 0.9762894373772163
Iteration time: 25.0
Weighted AreaUnderPRC: 0.9587860833693813
Mean absolute error: 0.028543089823334634
Coverage of cases: 98.40933191940616
Instances selection time: 1.0
Test time: 3.0
Accumulative iteration time: 822.0
Weighted Recall: 0.9782608695652174
Weighted FalsePositiveRate: 0.31852060982495767
Kappa statistic: 0.7765519074837167
Training time: 24.0
		
Iteration: 40
Labeled set size: 1157
Unlabelled set size: 729
	
Mean region size: 51.98833510074231
Incorrectly Classified Instances: 2.1739130434782608
Correctly Classified Instances: 97.82608695652173
Weighted Precision: 0.9781810188336736
Weighted AreaUnderROC: 0.8001792158691969
Root mean squared error: 0.14552018097672878
Relative absolute error: 5.712946662853325
Root relative squared error: 29.104036195345756
Weighted TruePositiveRate: 0.9782608695652174
Weighted MatthewsCorrelation: 0.7928383946078806
Weighted FMeasure: 0.9762894373772163
Iteration time: 19.0
Weighted AreaUnderPRC: 0.9587860833693813
Mean absolute error: 0.02856473331426662
Coverage of cases: 98.40933191940616
Instances selection time: 1.0
Test time: 3.0
Accumulative iteration time: 841.0
Weighted Recall: 0.9782608695652174
Weighted FalsePositiveRate: 0.31852060982495767
Kappa statistic: 0.7765519074837167
Training time: 18.0
		
Iteration: 41
Labeled set size: 1177
Unlabelled set size: 709
	
Mean region size: 51.98833510074231
Incorrectly Classified Instances: 2.1739130434782608
Correctly Classified Instances: 97.82608695652173
Weighted Precision: 0.9781810188336736
Weighted AreaUnderROC: 0.8001792158691969
Root mean squared error: 0.14552209462524826
Relative absolute error: 5.694905701669862
Root relative squared error: 29.104418925049654
Weighted TruePositiveRate: 0.9782608695652174
Weighted MatthewsCorrelation: 0.7928383946078806
Weighted FMeasure: 0.9762894373772163
Iteration time: 25.0
Weighted AreaUnderPRC: 0.9587860833693813
Mean absolute error: 0.02847452850834931
Coverage of cases: 98.40933191940616
Instances selection time: 1.0
Test time: 3.0
Accumulative iteration time: 866.0
Weighted Recall: 0.9782608695652174
Weighted FalsePositiveRate: 0.31852060982495767
Kappa statistic: 0.7765519074837167
Training time: 24.0
		
Iteration: 42
Labeled set size: 1197
Unlabelled set size: 689
	
Mean region size: 51.98833510074231
Incorrectly Classified Instances: 2.1739130434782608
Correctly Classified Instances: 97.82608695652173
Weighted Precision: 0.9781810188336736
Weighted AreaUnderROC: 0.8001792158691969
Root mean squared error: 0.1455174281878241
Relative absolute error: 5.677796791328647
Root relative squared error: 29.10348563756482
Weighted TruePositiveRate: 0.9782608695652174
Weighted MatthewsCorrelation: 0.7928383946078806
Weighted FMeasure: 0.9762894373772163
Iteration time: 19.0
Weighted AreaUnderPRC: 0.9587860833693813
Mean absolute error: 0.028388983956643233
Coverage of cases: 98.40933191940616
Instances selection time: 0.0
Test time: 4.0
Accumulative iteration time: 885.0
Weighted Recall: 0.9782608695652174
Weighted FalsePositiveRate: 0.31852060982495767
Kappa statistic: 0.7765519074837167
Training time: 19.0
		
Iteration: 43
Labeled set size: 1217
Unlabelled set size: 669
	
Mean region size: 51.98833510074231
Incorrectly Classified Instances: 2.1739130434782608
Correctly Classified Instances: 97.82608695652173
Weighted Precision: 0.9781810188336736
Weighted AreaUnderROC: 0.8001792158691969
Root mean squared error: 0.1455904665195781
Relative absolute error: 5.66254040115677
Root relative squared error: 29.11809330391562
Weighted TruePositiveRate: 0.9782608695652174
Weighted MatthewsCorrelation: 0.7928383946078806
Weighted FMeasure: 0.9762894373772163
Iteration time: 20.0
Weighted AreaUnderPRC: 0.9587860833693813
Mean absolute error: 0.02831270200578385
Coverage of cases: 98.40933191940616
Instances selection time: 1.0
Test time: 4.0
Accumulative iteration time: 905.0
Weighted Recall: 0.9782608695652174
Weighted FalsePositiveRate: 0.31852060982495767
Kappa statistic: 0.7765519074837167
Training time: 19.0
		
Iteration: 44
Labeled set size: 1237
Unlabelled set size: 649
	
Mean region size: 51.98833510074231
Incorrectly Classified Instances: 2.1739130434782608
Correctly Classified Instances: 97.82608695652173
Weighted Precision: 0.9781810188336736
Weighted AreaUnderROC: 0.8001792158691969
Root mean squared error: 0.14560338321085564
Relative absolute error: 5.653657149570355
Root relative squared error: 29.120676642171127
Weighted TruePositiveRate: 0.9782608695652174
Weighted MatthewsCorrelation: 0.7928383946078806
Weighted FMeasure: 0.9762894373772163
Iteration time: 26.0
Weighted AreaUnderPRC: 0.9587860833693813
Mean absolute error: 0.028268285747851778
Coverage of cases: 98.40933191940616
Instances selection time: 1.0
Test time: 4.0
Accumulative iteration time: 931.0
Weighted Recall: 0.9782608695652174
Weighted FalsePositiveRate: 0.31852060982495767
Kappa statistic: 0.7765519074837167
Training time: 25.0
		
Iteration: 45
Labeled set size: 1257
Unlabelled set size: 629
	
Mean region size: 51.98833510074231
Incorrectly Classified Instances: 2.1739130434782608
Correctly Classified Instances: 97.82608695652173
Weighted Precision: 0.9781810188336736
Weighted AreaUnderROC: 0.7990008101539292
Root mean squared error: 0.14575580151648163
Relative absolute error: 5.668434223018863
Root relative squared error: 29.151160303296326
Weighted TruePositiveRate: 0.9782608695652174
Weighted MatthewsCorrelation: 0.7928383946078806
Weighted FMeasure: 0.9762894373772163
Iteration time: 27.0
Weighted AreaUnderPRC: 0.9581031596973479
Mean absolute error: 0.028342171115094315
Coverage of cases: 98.40933191940616
Instances selection time: 1.0
Test time: 3.0
Accumulative iteration time: 958.0
Weighted Recall: 0.9782608695652174
Weighted FalsePositiveRate: 0.31852060982495767
Kappa statistic: 0.7765519074837167
Training time: 26.0
		
Iteration: 46
Labeled set size: 1277
Unlabelled set size: 609
	
Mean region size: 51.98833510074231
Incorrectly Classified Instances: 2.1739130434782608
Correctly Classified Instances: 97.82608695652173
Weighted Precision: 0.9781810188336736
Weighted AreaUnderROC: 0.7990008101539292
Root mean squared error: 0.1457606427650756
Relative absolute error: 5.659768072190869
Root relative squared error: 29.15212855301512
Weighted TruePositiveRate: 0.9782608695652174
Weighted MatthewsCorrelation: 0.7928383946078806
Weighted FMeasure: 0.9762894373772163
Iteration time: 27.0
Weighted AreaUnderPRC: 0.9581031596973479
Mean absolute error: 0.028298840360954345
Coverage of cases: 98.40933191940616
Instances selection time: 1.0
Test time: 3.0
Accumulative iteration time: 985.0
Weighted Recall: 0.9782608695652174
Weighted FalsePositiveRate: 0.31852060982495767
Kappa statistic: 0.7765519074837167
Training time: 26.0
		
Time end:Wed Nov 01 08.34.04 EET 2017