Wed Nov 01 08.35.17 EET 2017
Dataset: sick
Test set size: 1886
Initial Labelled set size: 377
Initial Unlabelled set size: 1509
Batch mode: QBestBatchMode
Batch size: 20
Classifiers: NaiveBayes-1cores
Scenario: PoolBasedSamplingScenario
Query strategy: LeastConfidentSamplingQueryStrategy-1cores
Time begining: Wed Nov 01 08.35.17 EET 2017
		
Iteration: 1
Labeled set size: 377
Unlabelled set size: 1509
	
Mean region size: 61.34676564156946
Incorrectly Classified Instances: 8.854718981972429
Correctly Classified Instances: 91.14528101802757
Weighted Precision: 0.9452837642982903
Weighted AreaUnderROC: 0.8968753040800808
Root mean squared error: 0.25001404020597906
Relative absolute error: 20.30678589623753
Root relative squared error: 50.00280804119581
Weighted TruePositiveRate: 0.9114528101802757
Weighted MatthewsCorrelation: 0.49404997256281097
Weighted FMeasure: 0.9240471489928498
Iteration time: 38.0
Weighted AreaUnderPRC: 0.9620817093987771
Mean absolute error: 0.10153392948118764
Coverage of cases: 98.56839872746554
Instances selection time: 37.0
Test time: 39.0
Accumulative iteration time: 38.0
Weighted Recall: 0.9114528101802757
Weighted FalsePositiveRate: 0.247474629778951
Kappa statistic: 0.4640021238287459
Training time: 1.0
		
Iteration: 2
Labeled set size: 397
Unlabelled set size: 1489
	
Mean region size: 61.320254506892894
Incorrectly Classified Instances: 8.642629904559914
Correctly Classified Instances: 91.35737009544009
Weighted Precision: 0.9487758120448311
Weighted AreaUnderROC: 0.9028656532626618
Root mean squared error: 0.24848166862536772
Relative absolute error: 20.02467076125584
Root relative squared error: 49.69633372507354
Weighted TruePositiveRate: 0.9135737009544008
Weighted MatthewsCorrelation: 0.5197075639564017
Weighted FMeasure: 0.9263026866576249
Iteration time: 19.0
Weighted AreaUnderPRC: 0.9643558847137034
Mean absolute error: 0.10012335380627921
Coverage of cases: 98.83351007423117
Instances selection time: 18.0
Test time: 26.0
Accumulative iteration time: 57.0
Weighted Recall: 0.9135737009544008
Weighted FalsePositiveRate: 0.20705704402862646
Kappa statistic: 0.485529050677609
Training time: 1.0
		
Iteration: 3
Labeled set size: 417
Unlabelled set size: 1469
	
Mean region size: 61.638388123011666
Incorrectly Classified Instances: 8.8016967126193
Correctly Classified Instances: 91.1983032873807
Weighted Precision: 0.947826855395208
Weighted AreaUnderROC: 0.9007510145299406
Root mean squared error: 0.2536495462153855
Relative absolute error: 20.771962063114966
Root relative squared error: 50.729909243077095
Weighted TruePositiveRate: 0.911983032873807
Weighted MatthewsCorrelation: 0.5115740526480286
Weighted FMeasure: 0.9250185574990585
Iteration time: 19.0
Weighted AreaUnderPRC: 0.9649860000618934
Mean absolute error: 0.10385981031557483
Coverage of cases: 98.78048780487805
Instances selection time: 18.0
Test time: 26.0
Accumulative iteration time: 76.0
Weighted Recall: 0.911983032873807
Weighted FalsePositiveRate: 0.21521700910602987
Kappa statistic: 0.4775065254107169
Training time: 1.0
		
Iteration: 4
Labeled set size: 437
Unlabelled set size: 1449
	
Mean region size: 61.691410392364794
Incorrectly Classified Instances: 8.430540827147402
Correctly Classified Instances: 91.5694591728526
Weighted Precision: 0.9486443601065837
Weighted AreaUnderROC: 0.9006903173051753
Root mean squared error: 0.24505115772934222
Relative absolute error: 19.842168169612943
Root relative squared error: 49.01023154586844
Weighted TruePositiveRate: 0.915694591728526
Weighted MatthewsCorrelation: 0.5213892791837095
Weighted FMeasure: 0.9276856089213359
Iteration time: 19.0
Weighted AreaUnderPRC: 0.9658123983897196
Mean absolute error: 0.09921084084806471
Coverage of cases: 99.04559915164369
Instances selection time: 18.0
Test time: 25.0
Accumulative iteration time: 95.0
Weighted Recall: 0.915694591728526
Weighted FalsePositiveRate: 0.21497376570086185
Kappa statistic: 0.4896786687950336
Training time: 1.0
		
Iteration: 5
Labeled set size: 457
Unlabelled set size: 1429
	
Mean region size: 63.97136797454931
Incorrectly Classified Instances: 10.233297985153765
Correctly Classified Instances: 89.76670201484623
Weighted Precision: 0.9437957451008787
Weighted AreaUnderROC: 0.8808965349900495
Root mean squared error: 0.2738387641826782
Relative absolute error: 24.03105021574568
Root relative squared error: 54.76775283653564
Weighted TruePositiveRate: 0.8976670201484623
Weighted MatthewsCorrelation: 0.4690782543168689
Weighted FMeasure: 0.914603901817168
Iteration time: 18.0
Weighted AreaUnderPRC: 0.9588053194267061
Mean absolute error: 0.12015525107872839
Coverage of cases: 98.8865323435843
Instances selection time: 17.0
Test time: 26.0
Accumulative iteration time: 113.0
Weighted Recall: 0.8976670201484623
Weighted FalsePositiveRate: 0.23226666947634078
Kappa statistic: 0.42878798816140906
Training time: 1.0
		
Iteration: 6
Labeled set size: 477
Unlabelled set size: 1409
	
Mean region size: 63.62672322375398
Incorrectly Classified Instances: 10.127253446447508
Correctly Classified Instances: 89.87274655355249
Weighted Precision: 0.9433584205741031
Weighted AreaUnderROC: 0.8811560553952045
Root mean squared error: 0.2644574277570473
Relative absolute error: 22.943730137017297
Root relative squared error: 52.89148555140946
Weighted TruePositiveRate: 0.898727465535525
Weighted MatthewsCorrelation: 0.4673374946667775
Weighted FMeasure: 0.915201786988474
Iteration time: 19.0
Weighted AreaUnderPRC: 0.9586708372118166
Mean absolute error: 0.11471865068508649
Coverage of cases: 98.93955461293743
Instances selection time: 17.0
Test time: 25.0
Accumulative iteration time: 132.0
Weighted Recall: 0.898727465535525
Weighted FalsePositiveRate: 0.24025288926433847
Kappa statistic: 0.4287766681149725
Training time: 2.0
		
Iteration: 7
Labeled set size: 497
Unlabelled set size: 1389
	
Mean region size: 63.41463414634146
Incorrectly Classified Instances: 9.968186638388122
Correctly Classified Instances: 90.03181336161188
Weighted Precision: 0.9449016482277081
Weighted AreaUnderROC: 0.8897455364917789
Root mean squared error: 0.2587910731966854
Relative absolute error: 22.26812882745336
Root relative squared error: 51.758214639337076
Weighted TruePositiveRate: 0.9003181336161188
Weighted MatthewsCorrelation: 0.4791606145976885
Weighted FMeasure: 0.9166050481779088
Iteration time: 19.0
Weighted AreaUnderPRC: 0.9610486648365856
Mean absolute error: 0.1113406441372668
Coverage of cases: 99.09862142099682
Instances selection time: 17.0
Test time: 25.0
Accumulative iteration time: 151.0
Weighted Recall: 0.9003181336161188
Weighted FalsePositiveRate: 0.22403720628317508
Kappa statistic: 0.439219581322081
Training time: 2.0
		
Iteration: 8
Labeled set size: 517
Unlabelled set size: 1369
	
Mean region size: 62.910922587486745
Incorrectly Classified Instances: 9.278897136797456
Correctly Classified Instances: 90.72110286320255
Weighted Precision: 0.94684002977953
Weighted AreaUnderROC: 0.899686117048958
Root mean squared error: 0.25325100514984816
Relative absolute error: 21.275711446020544
Root relative squared error: 50.65020102996963
Weighted TruePositiveRate: 0.9072110286320254
Weighted MatthewsCorrelation: 0.49954647454006346
Weighted FMeasure: 0.9216156992023038
Iteration time: 18.0
Weighted AreaUnderPRC: 0.9632812547041458
Mean absolute error: 0.10637855723010273
Coverage of cases: 99.31071049840934
Instances selection time: 16.0
Test time: 30.0
Accumulative iteration time: 169.0
Weighted Recall: 0.9072110286320254
Weighted FalsePositiveRate: 0.21552975062696017
Kappa statistic: 0.46253106262681504
Training time: 2.0
		
Iteration: 9
Labeled set size: 537
Unlabelled set size: 1349
	
Mean region size: 63.04347826086956
Incorrectly Classified Instances: 8.960763520678684
Correctly Classified Instances: 91.03923647932132
Weighted Precision: 0.9474902314802038
Weighted AreaUnderROC: 0.9005527904712382
Root mean squared error: 0.250304918687356
Relative absolute error: 20.898146400204325
Root relative squared error: 50.0609837374712
Weighted TruePositiveRate: 0.9103923647932132
Weighted MatthewsCorrelation: 0.5074934920986364
Weighted FMeasure: 0.9238811369636071
Iteration time: 18.0
Weighted AreaUnderPRC: 0.9632317791034577
Mean absolute error: 0.10449073200102163
Coverage of cases: 99.20466595970308
Instances selection time: 16.0
Test time: 26.0
Accumulative iteration time: 187.0
Weighted Recall: 0.9103923647932132
Weighted FalsePositiveRate: 0.2153212562796733
Kappa statistic: 0.47243270800022513
Training time: 2.0
		
Iteration: 10
Labeled set size: 557
Unlabelled set size: 1329
	
Mean region size: 62.460233297985155
Incorrectly Classified Instances: 8.430540827147402
Correctly Classified Instances: 91.5694591728526
Weighted Precision: 0.949244420779679
Weighted AreaUnderROC: 0.9036977119129563
Root mean squared error: 0.2429996283666952
Relative absolute error: 20.094536222863955
Root relative squared error: 48.59992567333904
Weighted TruePositiveRate: 0.915694591728526
Weighted MatthewsCorrelation: 0.5253501846023676
Weighted FMeasure: 0.9278294671057427
Iteration time: 17.0
Weighted AreaUnderPRC: 0.9636747525648378
Mean absolute error: 0.10047268111431977
Coverage of cases: 99.31071049840934
Instances selection time: 16.0
Test time: 26.0
Accumulative iteration time: 204.0
Weighted Recall: 0.915694591728526
Weighted FalsePositiveRate: 0.20691804779710185
Kappa statistic: 0.49253544437036084
Training time: 1.0
		
Iteration: 11
Labeled set size: 577
Unlabelled set size: 1309
	
Mean region size: 62.30116648992577
Incorrectly Classified Instances: 8.430540827147402
Correctly Classified Instances: 91.5694591728526
Weighted Precision: 0.9486443601065837
Weighted AreaUnderROC: 0.9012052417363042
Root mean squared error: 0.24190055052320508
Relative absolute error: 19.974994696624858
Root relative squared error: 48.38011010464102
Weighted TruePositiveRate: 0.915694591728526
Weighted MatthewsCorrelation: 0.5213892791837095
Weighted FMeasure: 0.9276856089213359
Iteration time: 17.0
Weighted AreaUnderPRC: 0.963686160225447
Mean absolute error: 0.0998749734831243
Coverage of cases: 99.2576882290562
Instances selection time: 16.0
Test time: 26.0
Accumulative iteration time: 221.0
Weighted Recall: 0.915694591728526
Weighted FalsePositiveRate: 0.21497376570086185
Kappa statistic: 0.4896786687950336
Training time: 1.0
		
Iteration: 12
Labeled set size: 597
Unlabelled set size: 1289
	
Mean region size: 62.11558854718982
Incorrectly Classified Instances: 8.271474019088018
Correctly Classified Instances: 91.72852598091198
Weighted Precision: 0.9490092769007727
Weighted AreaUnderROC: 0.9017761711331188
Root mean squared error: 0.2388263109715529
Relative absolute error: 19.568917870708283
Root relative squared error: 47.76526219431058
Weighted TruePositiveRate: 0.9172852598091198
Weighted MatthewsCorrelation: 0.5257278989825662
Weighted FMeasure: 0.9288345558818389
Iteration time: 17.0
Weighted AreaUnderPRC: 0.9632612052913568
Mean absolute error: 0.09784458935354141
Coverage of cases: 99.2576882290562
Instances selection time: 15.0
Test time: 26.0
Accumulative iteration time: 238.0
Weighted Recall: 0.9172852598091198
Weighted FalsePositiveRate: 0.21486951852721842
Kappa statistic: 0.49504338752196825
Training time: 2.0
		
Iteration: 13
Labeled set size: 617
Unlabelled set size: 1269
	
Mean region size: 62.40721102863203
Incorrectly Classified Instances: 8.589607635206788
Correctly Classified Instances: 91.41039236479321
Weighted Precision: 0.9488915503443154
Weighted AreaUnderROC: 0.9002840172513991
Root mean squared error: 0.24675302839389848
Relative absolute error: 20.384226317543636
Root relative squared error: 49.350605678779694
Weighted TruePositiveRate: 0.9141039236479321
Weighted MatthewsCorrelation: 0.5211053054225765
Weighted FMeasure: 0.9266838027305109
Iteration time: 17.0
Weighted AreaUnderPRC: 0.9633672393811731
Mean absolute error: 0.10192113158771818
Coverage of cases: 99.09862142099682
Instances selection time: 16.0
Test time: 26.0
Accumulative iteration time: 255.0
Weighted Recall: 0.9141039236479321
Weighted FalsePositiveRate: 0.2070222949707453
Kappa statistic: 0.48726606342131396
Training time: 1.0
		
Iteration: 14
Labeled set size: 637
Unlabelled set size: 1249
	
Mean region size: 62.168610816542945
Incorrectly Classified Instances: 8.21845174973489
Correctly Classified Instances: 91.78154825026512
Weighted Precision: 0.949728594541769
Weighted AreaUnderROC: 0.9023462018474021
Root mean squared error: 0.2416148380184346
Relative absolute error: 19.77651291674987
Root relative squared error: 48.32296760368692
Weighted TruePositiveRate: 0.9178154825026511
Weighted MatthewsCorrelation: 0.5311341489395116
Weighted FMeasure: 0.9293626132766752
Iteration time: 16.0
Weighted AreaUnderPRC: 0.9639494057517204
Mean absolute error: 0.09888256458374935
Coverage of cases: 99.15164369034994
Instances selection time: 15.0
Test time: 26.0
Accumulative iteration time: 271.0
Weighted Recall: 0.9178154825026511
Weighted FalsePositiveRate: 0.20677905156557727
Kappa statistic: 0.49970050144615025
Training time: 1.0
		
Iteration: 15
Labeled set size: 657
Unlabelled set size: 1229
	
Mean region size: 61.93001060445387
Incorrectly Classified Instances: 8.059384941675503
Correctly Classified Instances: 91.9406150583245
Weighted Precision: 0.9501024609598127
Weighted AreaUnderROC: 0.9029547080531665
Root mean squared error: 0.23922947360690086
Relative absolute error: 19.41477770115704
Root relative squared error: 47.84589472138017
Weighted TruePositiveRate: 0.9194061505832449
Weighted MatthewsCorrelation: 0.5355687366097202
Weighted FMeasure: 0.9305168512918365
Iteration time: 16.0
Weighted AreaUnderPRC: 0.9644429553444156
Mean absolute error: 0.0970738885057852
Coverage of cases: 99.2576882290562
Instances selection time: 15.0
Test time: 26.0
Accumulative iteration time: 287.0
Weighted Recall: 0.9194061505832449
Weighted FalsePositiveRate: 0.20667480439193384
Kappa statistic: 0.5051816869998688
Training time: 1.0
		
Iteration: 16
Labeled set size: 677
Unlabelled set size: 1209
	
Mean region size: 61.05514316012725
Incorrectly Classified Instances: 8.324496288441145
Correctly Classified Instances: 91.67550371155886
Weighted Precision: 0.9494845090586572
Weighted AreaUnderROC: 0.9033346028515301
Root mean squared error: 0.2436359144504085
Relative absolute error: 19.412406590073154
Root relative squared error: 48.7271828900817
Weighted TruePositiveRate: 0.9167550371155886
Weighted MatthewsCorrelation: 0.5282241058389341
Weighted FMeasure: 0.9285952239034575
Iteration time: 17.0
Weighted AreaUnderPRC: 0.9648613902191107
Mean absolute error: 0.09706203295036576
Coverage of cases: 99.09862142099682
Instances selection time: 15.0
Test time: 25.0
Accumulative iteration time: 304.0
Weighted Recall: 0.9167550371155886
Weighted FalsePositiveRate: 0.20684854968133956
Kappa statistic: 0.49609780503660583
Training time: 2.0
		
Iteration: 17
Labeled set size: 697
Unlabelled set size: 1189
	
Mean region size: 61.21420996818664
Incorrectly Classified Instances: 8.21845174973489
Correctly Classified Instances: 91.78154825026512
Weighted Precision: 0.9503246580107306
Weighted AreaUnderROC: 0.9036657157159329
Root mean squared error: 0.240517991408548
Relative absolute error: 19.267168500706422
Root relative squared error: 48.103598281709594
Weighted TruePositiveRate: 0.9178154825026511
Weighted MatthewsCorrelation: 0.5350589324941587
Weighted FMeasure: 0.9295048388855791
Iteration time: 16.0
Weighted AreaUnderPRC: 0.9655835017639288
Mean absolute error: 0.09633584250353211
Coverage of cases: 99.15164369034994
Instances selection time: 15.0
Test time: 27.0
Accumulative iteration time: 320.0
Weighted Recall: 0.9178154825026511
Weighted FalsePositiveRate: 0.1987233336618173
Kappa statistic: 0.5025169412781774
Training time: 1.0
		
Iteration: 18
Labeled set size: 717
Unlabelled set size: 1169
	
Mean region size: 60.73700954400849
Incorrectly Classified Instances: 8.430540827147402
Correctly Classified Instances: 91.5694591728526
Weighted Precision: 0.949244420779679
Weighted AreaUnderROC: 0.9042340601092591
Root mean squared error: 0.2406318070510703
Relative absolute error: 18.977142095718456
Root relative squared error: 48.12636141021406
Weighted TruePositiveRate: 0.915694591728526
Weighted MatthewsCorrelation: 0.5253501846023676
Weighted FMeasure: 0.9278294671057427
Iteration time: 16.0
Weighted AreaUnderPRC: 0.9659202743284995
Mean absolute error: 0.09488571047859229
Coverage of cases: 99.04559915164369
Instances selection time: 14.0
Test time: 26.0
Accumulative iteration time: 336.0
Weighted Recall: 0.915694591728526
Weighted FalsePositiveRate: 0.20691804779710185
Kappa statistic: 0.49253544437036084
Training time: 2.0
		
Iteration: 19
Labeled set size: 737
Unlabelled set size: 1149
	
Mean region size: 60.471898197242844
Incorrectly Classified Instances: 8.16542948038176
Correctly Classified Instances: 91.83457051961824
Weighted Precision: 0.9504470975176172
Weighted AreaUnderROC: 0.9049577707012555
Root mean squared error: 0.23856669385888535
Relative absolute error: 18.569681920350472
Root relative squared error: 47.71333877177707
Weighted TruePositiveRate: 0.9183457051961824
Weighted MatthewsCorrelation: 0.5365227061372682
Weighted FMeasure: 0.9298892412296597
Iteration time: 16.0
Weighted AreaUnderPRC: 0.9656484521182108
Mean absolute error: 0.09284840960175236
Coverage of cases: 99.04559915164369
Instances selection time: 14.0
Test time: 26.0
Accumulative iteration time: 352.0
Weighted Recall: 0.9183457051961824
Weighted FalsePositiveRate: 0.19868858460393615
Kappa statistic: 0.5043313241086486
Training time: 2.0
		
Iteration: 20
Labeled set size: 757
Unlabelled set size: 1129
	
Mean region size: 60.100742311770944
Incorrectly Classified Instances: 7.953340402969247
Correctly Classified Instances: 92.04665959703075
Weighted Precision: 0.9509472441893353
Weighted AreaUnderROC: 0.9049950479493614
Root mean squared error: 0.23730416083967049
Relative absolute error: 18.207097816783197
Root relative squared error: 47.4608321679341
Weighted TruePositiveRate: 0.9204665959703076
Weighted MatthewsCorrelation: 0.5424711313209089
Weighted FMeasure: 0.9314311032485226
Iteration time: 16.0
Weighted AreaUnderPRC: 0.965764885634574
Mean absolute error: 0.09103548908391598
Coverage of cases: 98.93955461293743
Instances selection time: 14.0
Test time: 26.0
Accumulative iteration time: 368.0
Weighted Recall: 0.9204665959703076
Weighted FalsePositiveRate: 0.19854958837241155
Kappa statistic: 0.5116924542761866
Training time: 2.0
		
Iteration: 21
Labeled set size: 777
Unlabelled set size: 1109
	
Mean region size: 59.38494167550371
Incorrectly Classified Instances: 8.16542948038176
Correctly Classified Instances: 91.83457051961824
Weighted Precision: 0.9498521706957149
Weighted AreaUnderROC: 0.9039570773728473
Root mean squared error: 0.23923826316243185
Relative absolute error: 18.0387585202844
Root relative squared error: 47.84765263248637
Weighted TruePositiveRate: 0.9183457051961824
Weighted MatthewsCorrelation: 0.5326029705224437
Weighted FMeasure: 0.9297469333705334
Iteration time: 16.0
Weighted AreaUnderPRC: 0.966107922972463
Mean absolute error: 0.090193792601422
Coverage of cases: 98.78048780487805
Instances selection time: 14.0
Test time: 26.0
Accumulative iteration time: 384.0
Weighted Recall: 0.9183457051961824
Weighted FalsePositiveRate: 0.20674430250769613
Kappa statistic: 0.5015171902460459
Training time: 2.0
		
Iteration: 22
Labeled set size: 797
Unlabelled set size: 1089
	
Mean region size: 58.430540827147404
Incorrectly Classified Instances: 7.52916224814422
Correctly Classified Instances: 92.47083775185578
Weighted Precision: 0.9508413332490075
Weighted AreaUnderROC: 0.9060890570630352
Root mean squared error: 0.23381569216166406
Relative absolute error: 16.802900677197353
Root relative squared error: 46.76313843233281
Weighted TruePositiveRate: 0.9247083775185578
Weighted MatthewsCorrelation: 0.5471226423529307
Weighted FMeasure: 0.9342484340317343
Iteration time: 16.0
Weighted AreaUnderPRC: 0.9665052843077646
Mean absolute error: 0.08401450338598677
Coverage of cases: 98.72746553552491
Instances selection time: 14.0
Test time: 28.0
Accumulative iteration time: 400.0
Weighted Recall: 0.9247083775185578
Weighted FalsePositiveRate: 0.21438303171688236
Kappa statistic: 0.5213369079535302
Training time: 2.0
		
Iteration: 23
Labeled set size: 817
Unlabelled set size: 1069
	
Mean region size: 57.953340402969246
Incorrectly Classified Instances: 7.423117709437964
Correctly Classified Instances: 92.57688229056204
Weighted Precision: 0.9505461564335138
Weighted AreaUnderROC: 0.9053300551047337
Root mean squared error: 0.23335405956790983
Relative absolute error: 16.496328181602124
Root relative squared error: 46.670811913581964
Weighted TruePositiveRate: 0.9257688229056203
Weighted MatthewsCorrelation: 0.5464758809369541
Weighted FMeasure: 0.9348822432848934
Iteration time: 16.0
Weighted AreaUnderPRC: 0.9663029808621358
Mean absolute error: 0.08248164090801062
Coverage of cases: 98.46235418875928
Instances selection time: 14.0
Test time: 26.0
Accumulative iteration time: 416.0
Weighted Recall: 0.9257688229056203
Weighted FalsePositiveRate: 0.22236925150488004
Kappa statistic: 0.5224314684454604
Training time: 2.0
		
Iteration: 24
Labeled set size: 837
Unlabelled set size: 1049
	
Mean region size: 57.926829268292686
Incorrectly Classified Instances: 7.52916224814422
Correctly Classified Instances: 92.47083775185578
Weighted Precision: 0.9496843715399013
Weighted AreaUnderROC: 0.905377860883531
Root mean squared error: 0.23542050791155852
Relative absolute error: 16.63470609287364
Root relative squared error: 47.0841015823117
Weighted TruePositiveRate: 0.9247083775185578
Weighted MatthewsCorrelation: 0.53933947850902
Weighted FMeasure: 0.9339519896175347
Iteration time: 15.0
Weighted AreaUnderPRC: 0.9662339632752208
Mean absolute error: 0.08317353046436819
Coverage of cases: 98.3032873806999
Instances selection time: 13.0
Test time: 26.0
Accumulative iteration time: 431.0
Weighted Recall: 0.9247083775185578
Weighted FalsePositiveRate: 0.23049446752440234
Kappa statistic: 0.5156090608518245
Training time: 2.0
		
Iteration: 25
Labeled set size: 857
Unlabelled set size: 1029
	
Mean region size: 57.74125132555673
Incorrectly Classified Instances: 7.423117709437964
Correctly Classified Instances: 92.57688229056204
Weighted Precision: 0.9499708283172883
Weighted AreaUnderROC: 0.9055014194019154
Root mean squared error: 0.2332136508141898
Relative absolute error: 16.33227810000496
Root relative squared error: 46.64273016283796
Weighted TruePositiveRate: 0.9257688229056203
Weighted MatthewsCorrelation: 0.5425895995456997
Weighted FMeasure: 0.9347328770136905
Iteration time: 15.0
Weighted AreaUnderPRC: 0.9663743867586045
Mean absolute error: 0.0816613905000248
Coverage of cases: 98.35630965005302
Instances selection time: 13.0
Test time: 25.0
Accumulative iteration time: 446.0
Weighted Recall: 0.9257688229056203
Weighted FalsePositiveRate: 0.23042496940864005
Kappa statistic: 0.5195568947697861
Training time: 2.0
		
Iteration: 26
Labeled set size: 877
Unlabelled set size: 1009
	
Mean region size: 57.6882290562036
Incorrectly Classified Instances: 7.52916224814422
Correctly Classified Instances: 92.47083775185578
Weighted Precision: 0.9491066596725073
Weighted AreaUnderROC: 0.9057254599240272
Root mean squared error: 0.23192691140157062
Relative absolute error: 16.137363874411495
Root relative squared error: 46.385382280314126
Weighted TruePositiveRate: 0.9247083775185578
Weighted MatthewsCorrelation: 0.5354218589823859
Weighted FMeasure: 0.9338004895424574
Iteration time: 15.0
Weighted AreaUnderPRC: 0.9661984257587334
Mean absolute error: 0.08068681937205748
Coverage of cases: 98.46235418875928
Instances selection time: 13.0
Test time: 26.0
Accumulative iteration time: 461.0
Weighted Recall: 0.9247083775185578
Weighted FalsePositiveRate: 0.2385501854281623
Kappa statistic: 0.5126934218379262
Training time: 2.0
		
Iteration: 27
Labeled set size: 897
Unlabelled set size: 989
	
Mean region size: 57.635206786850475
Incorrectly Classified Instances: 7.264050901378579
Correctly Classified Instances: 92.73594909862142
Weighted Precision: 0.9504106322846939
Weighted AreaUnderROC: 0.904008777442614
Root mean squared error: 0.23085243008149822
Relative absolute error: 16.01979667654833
Root relative squared error: 46.17048601629964
Weighted TruePositiveRate: 0.9273594909862142
Weighted MatthewsCorrelation: 0.5475510597116447
Weighted FMeasure: 0.9359081446119122
Iteration time: 15.0
Weighted AreaUnderPRC: 0.9660296294049837
Mean absolute error: 0.08009898338274166
Coverage of cases: 98.46235418875928
Instances selection time: 13.0
Test time: 25.0
Accumulative iteration time: 476.0
Weighted Recall: 0.9273594909862142
Weighted FalsePositiveRate: 0.2303207222349966
Kappa statistic: 0.525568567829692
Training time: 2.0
		
Iteration: 28
Labeled set size: 917
Unlabelled set size: 969
	
Mean region size: 57.582184517497346
Incorrectly Classified Instances: 7.264050901378579
Correctly Classified Instances: 92.73594909862142
Weighted Precision: 0.9498404170310144
Weighted AreaUnderROC: 0.9040900772226537
Root mean squared error: 0.231076397016733
Relative absolute error: 15.999083038895645
Root relative squared error: 46.2152794033466
Weighted TruePositiveRate: 0.9273594909862142
Weighted MatthewsCorrelation: 0.5436696088481894
Weighted FMeasure: 0.9357564984622985
Iteration time: 15.0
Weighted AreaUnderPRC: 0.9659664824400778
Mean absolute error: 0.07999541519447823
Coverage of cases: 98.40933191940616
Instances selection time: 12.0
Test time: 53.0
Accumulative iteration time: 491.0
Weighted Recall: 0.9273594909862142
Weighted FalsePositiveRate: 0.23837644013875658
Kappa statistic: 0.5226692480777967
Training time: 3.0
		
Iteration: 29
Labeled set size: 937
Unlabelled set size: 949
	
Mean region size: 57.555673382820785
Incorrectly Classified Instances: 7.158006362672323
Correctly Classified Instances: 92.84199363732768
Weighted Precision: 0.9501437937513966
Weighted AreaUnderROC: 0.9045719518289635
Root mean squared error: 0.22961054631311636
Relative absolute error: 15.825829485594166
Root relative squared error: 45.92210926262327
Weighted TruePositiveRate: 0.9284199363732768
Weighted MatthewsCorrelation: 0.5470521121681581
Weighted FMeasure: 0.9365426946175076
Iteration time: 15.0
Weighted AreaUnderPRC: 0.965984295786059
Mean absolute error: 0.07912914742797084
Coverage of cases: 98.46235418875928
Instances selection time: 12.0
Test time: 26.0
Accumulative iteration time: 506.0
Weighted Recall: 0.9284199363732768
Weighted FalsePositiveRate: 0.23830694202299427
Kappa statistic: 0.5267454525853257
Training time: 3.0
		
Iteration: 30
Labeled set size: 957
Unlabelled set size: 929
	
Mean region size: 57.555673382820785
Incorrectly Classified Instances: 7.104984093319194
Correctly Classified Instances: 92.89501590668081
Weighted Precision: 0.9508630840716792
Weighted AreaUnderROC: 0.9048375409236266
Root mean squared error: 0.22892633838892149
Relative absolute error: 15.731318458177002
Root relative squared error: 45.7852676777843
Weighted TruePositiveRate: 0.9289501590668081
Weighted MatthewsCorrelation: 0.552619573532154
Weighted FMeasure: 0.937088299286181
Iteration time: 15.0
Weighted AreaUnderPRC: 0.9658217955875789
Mean absolute error: 0.07865659229088501
Coverage of cases: 98.51537645811241
Instances selection time: 12.0
Test time: 26.0
Accumulative iteration time: 521.0
Weighted Recall: 0.9289501590668081
Weighted FalsePositiveRate: 0.23021647506135315
Kappa statistic: 0.5316907933260696
Training time: 3.0
		
Iteration: 31
Labeled set size: 977
Unlabelled set size: 909
	
Mean region size: 57.555673382820785
Incorrectly Classified Instances: 7.0519618239660655
Correctly Classified Instances: 92.94803817603393
Weighted Precision: 0.9510168147818343
Weighted AreaUnderROC: 0.905475569367032
Root mean squared error: 0.22709120225755985
Relative absolute error: 15.522244333175648
Root relative squared error: 45.41824045151197
Weighted TruePositiveRate: 0.9294803817603393
Weighted MatthewsCorrelation: 0.5543335798629733
Weighted FMeasure: 0.9374828028453964
Iteration time: 14.0
Weighted AreaUnderPRC: 0.9658860585753014
Mean absolute error: 0.07761122166587824
Coverage of cases: 98.62142099681867
Instances selection time: 11.0
Test time: 46.0
Accumulative iteration time: 535.0
Weighted Recall: 0.9294803817603393
Weighted FalsePositiveRate: 0.23018172600347203
Kappa statistic: 0.5337566310655427
Training time: 3.0
		
Iteration: 32
Labeled set size: 997
Unlabelled set size: 889
	
Mean region size: 57.79427359490986
Incorrectly Classified Instances: 7.104984093319194
Correctly Classified Instances: 92.89501590668081
Weighted Precision: 0.949168780953409
Weighted AreaUnderROC: 0.9026801553749788
Root mean squared error: 0.22987796422816614
Relative absolute error: 16.00480599658977
Root relative squared error: 45.97559284563323
Weighted TruePositiveRate: 0.9289501590668081
Weighted MatthewsCorrelation: 0.5409942502210949
Weighted FMeasure: 0.9366264144180402
Iteration time: 13.0
Weighted AreaUnderPRC: 0.965094459847703
Mean absolute error: 0.08002402998294884
Coverage of cases: 98.56839872746554
Instances selection time: 11.0
Test time: 27.0
Accumulative iteration time: 548.0
Weighted Recall: 0.9289501590668081
Weighted FalsePositiveRate: 0.2543836287726331
Kappa statistic: 0.5229174217711733
Training time: 2.0
		
Iteration: 33
Labeled set size: 1017
Unlabelled set size: 869
	
Mean region size: 57.82078472958643
Incorrectly Classified Instances: 6.945917285259809
Correctly Classified Instances: 93.05408271474019
Weighted Precision: 0.9496499478825389
Weighted AreaUnderROC: 0.9033181838183844
Root mean squared error: 0.2275083693642119
Relative absolute error: 15.743138290239802
Root relative squared error: 45.50167387284238
Weighted TruePositiveRate: 0.9305408271474019
Weighted MatthewsCorrelation: 0.5462509877482074
Weighted FMeasure: 0.9378117051091986
Iteration time: 13.0
Weighted AreaUnderPRC: 0.965187835380406
Mean absolute error: 0.07871569145119901
Coverage of cases: 98.67444326617179
Instances selection time: 11.0
Test time: 26.0
Accumulative iteration time: 561.0
Weighted Recall: 0.9305408271474019
Weighted FalsePositiveRate: 0.25427938159898966
Kappa statistic: 0.5291882477142194
Training time: 2.0
		
Iteration: 34
Labeled set size: 1037
Unlabelled set size: 849
	
Mean region size: 57.79427359490986
Incorrectly Classified Instances: 6.892895015906681
Correctly Classified Instances: 93.10710498409333
Weighted Precision: 0.9498135809284318
Weighted AreaUnderROC: 0.9034795076624564
Root mean squared error: 0.22702199769471307
Relative absolute error: 15.67362841554136
Root relative squared error: 45.40439953894261
Weighted TruePositiveRate: 0.9310710498409331
Weighted MatthewsCorrelation: 0.5480298822691915
Weighted FMeasure: 0.9382080020459592
Iteration time: 14.0
Weighted AreaUnderPRC: 0.965195808258863
Mean absolute error: 0.0783681420777068
Coverage of cases: 98.67444326617179
Instances selection time: 11.0
Test time: 25.0
Accumulative iteration time: 575.0
Weighted Recall: 0.9310710498409331
Weighted FalsePositiveRate: 0.2542446325411085
Kappa statistic: 0.5313049595497712
Training time: 3.0
		
Iteration: 35
Labeled set size: 1057
Unlabelled set size: 829
	
Mean region size: 58.27147401908802
Incorrectly Classified Instances: 7.104984093319194
Correctly Classified Instances: 92.89501590668081
Weighted Precision: 0.9502976868643744
Weighted AreaUnderROC: 0.9009641159164113
Root mean squared error: 0.23418593618146236
Relative absolute error: 16.667964666479783
Root relative squared error: 46.83718723629247
Weighted TruePositiveRate: 0.9289501590668081
Weighted MatthewsCorrelation: 0.5487618504342169
Weighted FMeasure: 0.9369366334184283
Iteration time: 14.0
Weighted AreaUnderPRC: 0.9638179228091086
Mean absolute error: 0.08333982333239892
Coverage of cases: 98.62142099681867
Instances selection time: 11.0
Test time: 26.0
Accumulative iteration time: 589.0
Weighted Recall: 0.9289501590668081
Weighted FalsePositiveRate: 0.23827219296511315
Kappa statistic: 0.5288024103933299
Training time: 3.0
		
Iteration: 36
Labeled set size: 1077
Unlabelled set size: 809
	
Mean region size: 58.72216330858961
Incorrectly Classified Instances: 7.317073170731708
Correctly Classified Instances: 92.6829268292683
Weighted Precision: 0.9502626542853106
Weighted AreaUnderROC: 0.8995064321910975
Root mean squared error: 0.23794178437071412
Relative absolute error: 17.37539772860571
Root relative squared error: 47.588356874142825
Weighted TruePositiveRate: 0.926829268292683
Weighted MatthewsCorrelation: 0.5458855437626726
Weighted FMeasure: 0.9355158549209391
Iteration time: 14.0
Weighted AreaUnderPRC: 0.9627616007478833
Mean absolute error: 0.08687698864302854
Coverage of cases: 98.67444326617179
Instances selection time: 11.0
Test time: 26.0
Accumulative iteration time: 603.0
Weighted Recall: 0.926829268292683
Weighted FalsePositiveRate: 0.23035547129287773
Kappa statistic: 0.5235525419757338
Training time: 3.0
		
Iteration: 37
Labeled set size: 1097
Unlabelled set size: 789
	
Mean region size: 59.199363732767765
Incorrectly Classified Instances: 7.582184517497349
Correctly Classified Instances: 92.41781548250265
Weighted Precision: 0.949543106551403
Weighted AreaUnderROC: 0.8986634008336881
Root mean squared error: 0.24043828418540897
Relative absolute error: 17.919922492550477
Root relative squared error: 48.087656837081795
Weighted TruePositiveRate: 0.9241781548250265
Weighted MatthewsCorrelation: 0.5377312508218519
Weighted FMeasure: 0.9335623133740496
Iteration time: 12.0
Weighted AreaUnderPRC: 0.9616154601214967
Mean absolute error: 0.08959961246275239
Coverage of cases: 98.51537645811241
Instances selection time: 9.0
Test time: 26.0
Accumulative iteration time: 615.0
Weighted Recall: 0.9241781548250265
Weighted FalsePositiveRate: 0.23052921658228348
Kappa statistic: 0.5136528064803495
Training time: 3.0
		
Iteration: 38
Labeled set size: 1117
Unlabelled set size: 769
	
Mean region size: 59.06680805938494
Incorrectly Classified Instances: 7.4761399787910925
Correctly Classified Instances: 92.5238600212089
Weighted Precision: 0.9498269388885099
Weighted AreaUnderROC: 0.8990513502033605
Root mean squared error: 0.23891130083643147
Relative absolute error: 17.717875052740037
Root relative squared error: 47.782260167286296
Weighted TruePositiveRate: 0.925238600212089
Weighted MatthewsCorrelation: 0.5409588819101423
Weighted FMeasure: 0.9343421753194541
Iteration time: 13.0
Weighted AreaUnderPRC: 0.9617347954625739
Mean absolute error: 0.08858937526370018
Coverage of cases: 98.67444326617179
Instances selection time: 10.0
Test time: 26.0
Accumulative iteration time: 628.0
Weighted Recall: 0.925238600212089
Weighted FalsePositiveRate: 0.23045971846652116
Kappa statistic: 0.5175770549498392
Training time: 3.0
		
Iteration: 39
Labeled set size: 1137
Unlabelled set size: 749
	
Mean region size: 59.4644750795334
Incorrectly Classified Instances: 7.52916224814422
Correctly Classified Instances: 92.47083775185578
Weighted Precision: 0.9502625870066006
Weighted AreaUnderROC: 0.9003619108180511
Root mean squared error: 0.23986718890728173
Relative absolute error: 18.060685425335805
Root relative squared error: 47.97343778145635
Weighted TruePositiveRate: 0.9247083775185578
Weighted MatthewsCorrelation: 0.5432396172991191
Weighted FMeasure: 0.9341012909663078
Iteration time: 12.0
Weighted AreaUnderPRC: 0.961216170378289
Mean absolute error: 0.09030342712667903
Coverage of cases: 98.72746553552491
Instances selection time: 9.0
Test time: 26.0
Accumulative iteration time: 640.0
Weighted Recall: 0.9247083775185578
Weighted FalsePositiveRate: 0.22243874962064236
Kappa statistic: 0.5184900178355678
Training time: 3.0
		
Iteration: 40
Labeled set size: 1157
Unlabelled set size: 729
	
Mean region size: 60.39236479321315
Incorrectly Classified Instances: 7.953340402969247
Correctly Classified Instances: 92.04665959703075
Weighted Precision: 0.9491780096027428
Weighted AreaUnderROC: 0.8985176205820199
Root mean squared error: 0.24656308504940483
Relative absolute error: 19.299049807020964
Root relative squared error: 49.31261700988097
Weighted TruePositiveRate: 0.9204665959703076
Weighted MatthewsCorrelation: 0.5307252187480392
Weighted FMeasure: 0.9309971512076883
Iteration time: 12.0
Weighted AreaUnderPRC: 0.9598143097187116
Mean absolute error: 0.09649524903510483
Coverage of cases: 98.62142099681867
Instances selection time: 9.0
Test time: 26.0
Accumulative iteration time: 652.0
Weighted Recall: 0.9204665959703076
Weighted FalsePositiveRate: 0.2227167420836915
Kappa statistic: 0.5031821630279021
Training time: 3.0
		
Iteration: 41
Labeled set size: 1177
Unlabelled set size: 709
	
Mean region size: 61.717921527041355
Incorrectly Classified Instances: 9.013785790031813
Correctly Classified Instances: 90.98621420996818
Weighted Precision: 0.9461585750073002
Weighted AreaUnderROC: 0.892489694590489
Root mean squared error: 0.2565801789426705
Relative absolute error: 21.245320705227655
Root relative squared error: 51.316035788534094
Weighted TruePositiveRate: 0.9098621420996819
Weighted MatthewsCorrelation: 0.4980856049576303
Weighted FMeasure: 0.9232117757520477
Iteration time: 12.0
Weighted AreaUnderPRC: 0.9564579926227829
Mean absolute error: 0.10622660352613827
Coverage of cases: 98.62142099681867
Instances selection time: 9.0
Test time: 26.0
Accumulative iteration time: 664.0
Weighted Recall: 0.9098621420996819
Weighted FalsePositiveRate: 0.23146744114507442
Kappa statistic: 0.4649163212037462
Training time: 3.0
		
Iteration: 42
Labeled set size: 1197
Unlabelled set size: 689
	
Mean region size: 61.638388123011666
Incorrectly Classified Instances: 8.8016967126193
Correctly Classified Instances: 91.1983032873807
Weighted Precision: 0.947219945682162
Weighted AreaUnderROC: 0.8933517635560062
Root mean squared error: 0.254445800937221
Relative absolute error: 20.954616215544224
Root relative squared error: 50.889160187444205
Weighted TruePositiveRate: 0.911983032873807
Weighted MatthewsCorrelation: 0.5075660004861953
Weighted FMeasure: 0.9248735262547211
Iteration time: 15.0
Weighted AreaUnderPRC: 0.9566038308688812
Mean absolute error: 0.10477308107772111
Coverage of cases: 98.62142099681867
Instances selection time: 12.0
Test time: 27.0
Accumulative iteration time: 679.0
Weighted Recall: 0.911983032873807
Weighted FalsePositiveRate: 0.22327272700978984
Kappa statistic: 0.4746059662218402
Training time: 3.0
		
Iteration: 43
Labeled set size: 1217
Unlabelled set size: 669
	
Mean region size: 62.03605514316013
Incorrectly Classified Instances: 8.960763520678684
Correctly Classified Instances: 91.03923647932132
Weighted Precision: 0.9462709142413767
Weighted AreaUnderROC: 0.8928790307202744
Root mean squared error: 0.25709735751862783
Relative absolute error: 21.490663388356744
Root relative squared error: 51.41947150372557
Weighted TruePositiveRate: 0.9103923647932132
Weighted MatthewsCorrelation: 0.4994368838550291
Weighted FMeasure: 0.9235899021174149
Iteration time: 12.0
Weighted AreaUnderPRC: 0.9561234744192637
Mean absolute error: 0.10745331694178373
Coverage of cases: 98.62142099681867
Instances selection time: 9.0
Test time: 29.0
Accumulative iteration time: 691.0
Weighted Recall: 0.9103923647932132
Weighted FalsePositiveRate: 0.23143269208719328
Kappa statistic: 0.46659146972095683
Training time: 3.0
		
Iteration: 44
Labeled set size: 1237
Unlabelled set size: 649
	
Mean region size: 62.486744432661716
Incorrectly Classified Instances: 9.225874867444327
Correctly Classified Instances: 90.77412513255567
Weighted Precision: 0.9457178852724982
Weighted AreaUnderROC: 0.8946066523373286
Root mean squared error: 0.25834211792501405
Relative absolute error: 21.90052660837861
Root relative squared error: 51.66842358500281
Weighted TruePositiveRate: 0.9077412513255567
Weighted MatthewsCorrelation: 0.49276060047882114
Weighted FMeasure: 0.9217027723072262
Iteration time: 11.0
Weighted AreaUnderPRC: 0.9556120259812014
Mean absolute error: 0.10950263304189305
Coverage of cases: 98.51537645811241
Instances selection time: 8.0
Test time: 26.0
Accumulative iteration time: 702.0
Weighted Recall: 0.9077412513255567
Weighted FalsePositiveRate: 0.231606437376599
Kappa statistic: 0.45830719761246047
Training time: 3.0
		
Iteration: 45
Labeled set size: 1257
Unlabelled set size: 629
	
Mean region size: 62.460233297985155
Incorrectly Classified Instances: 9.225874867444327
Correctly Classified Instances: 90.77412513255567
Weighted Precision: 0.9444902946193924
Weighted AreaUnderROC: 0.8938572027545548
Root mean squared error: 0.25828272997767937
Relative absolute error: 21.83649222431406
Root relative squared error: 51.65654599553587
Weighted TruePositiveRate: 0.9077412513255567
Weighted MatthewsCorrelation: 0.4845971572672323
Weighted FMeasure: 0.9214049940050371
Iteration time: 11.0
Weighted AreaUnderPRC: 0.9556952548827746
Mean absolute error: 0.1091824611215703
Coverage of cases: 98.56839872746554
Instances selection time: 8.0
Test time: 27.0
Accumulative iteration time: 713.0
Weighted Recall: 0.9077412513255567
Weighted FalsePositiveRate: 0.24771787318411903
Kappa statistic: 0.4523261169967755
Training time: 3.0
		
Iteration: 46
Labeled set size: 1277
Unlabelled set size: 609
	
Mean region size: 62.30116648992577
Incorrectly Classified Instances: 9.490986214209968
Correctly Classified Instances: 90.50901378579003
Weighted Precision: 0.9433316034936523
Weighted AreaUnderROC: 0.8936540307770877
Root mean squared error: 0.26008279291295766
Relative absolute error: 22.009762830950475
Root relative squared error: 52.01655858259153
Weighted TruePositiveRate: 0.9050901378579003
Weighted MatthewsCorrelation: 0.47395977643008613
Weighted FMeasure: 0.919377062227726
Iteration time: 12.0
Weighted AreaUnderPRC: 0.9557264748633595
Mean absolute error: 0.11004881415475237
Coverage of cases: 98.62142099681867
Instances selection time: 8.0
Test time: 26.0
Accumulative iteration time: 725.0
Weighted Recall: 0.9050901378579003
Weighted FalsePositiveRate: 0.2559473363772847
Kappa statistic: 0.4412157084736108
Training time: 4.0
		
Time end:Wed Nov 01 08.35.21 EET 2017