Wed Nov 01 08.28.44 EET 2017
Dataset: sick
Test set size: 1886
Initial Labelled set size: 377
Initial Unlabelled set size: 1509
Batch mode: QBestBatchMode
Batch size: 20
Classifiers: IBk-1cores
Scenario: PoolBasedSamplingScenario
Query strategy: KullbackLeiblerDivergenceQueryStrategy-1cores
Time begining: Wed Nov 01 08.28.44 EET 2017
		
Iteration: 1
Labeled set size: 377
Unlabelled set size: 1509
	
Mean region size: 50.0
Incorrectly Classified Instances: 5.726405090137858
Correctly Classified Instances: 94.27359490986214
Weighted Precision: 0.9378229911369007
Weighted AreaUnderROC: 0.7116379310344828
Root mean squared error: 0.23868128771032385
Relative absolute error: 11.9164493912872
Root relative squared error: 47.73625754206477
Weighted TruePositiveRate: 0.9427359490986215
Weighted MatthewsCorrelation: 0.45857335776535607
Weighted FMeasure: 0.9399132437099479
Iteration time: 478.0
Weighted AreaUnderPRC: 0.9211779194424489
Mean absolute error: 0.059582246956436
Coverage of cases: 94.27359490986214
Instances selection time: 478.0
Test time: 317.0
Accumulative iteration time: 478.0
Weighted Recall: 0.9427359490986215
Weighted FalsePositiveRate: 0.5273745619955628
Kappa statistic: 0.455746395476845
Training time: 0.0
		
Iteration: 2
Labeled set size: 397
Unlabelled set size: 1489
	
Mean region size: 50.0
Incorrectly Classified Instances: 5.726405090137858
Correctly Classified Instances: 94.27359490986214
Weighted Precision: 0.9378229911369007
Weighted AreaUnderROC: 0.709738457042665
Root mean squared error: 0.23871166446520736
Relative absolute error: 11.894622211529786
Root relative squared error: 47.74233289304147
Weighted TruePositiveRate: 0.9427359490986215
Weighted MatthewsCorrelation: 0.45857335776535607
Weighted FMeasure: 0.9399132437099479
Iteration time: 486.0
Weighted AreaUnderPRC: 0.9209333671144628
Mean absolute error: 0.05947311105764893
Coverage of cases: 94.27359490986214
Instances selection time: 486.0
Test time: 332.0
Accumulative iteration time: 964.0
Weighted Recall: 0.9427359490986215
Weighted FalsePositiveRate: 0.5273745619955628
Kappa statistic: 0.455746395476845
Training time: 0.0
		
Iteration: 3
Labeled set size: 417
Unlabelled set size: 1469
	
Mean region size: 50.0
Incorrectly Classified Instances: 5.779427359490986
Correctly Classified Instances: 94.22057264050902
Weighted Precision: 0.9370160218264689
Weighted AreaUnderROC: 0.7054597701149425
Root mean squared error: 0.23984175954215042
Relative absolute error: 11.979071505188605
Root relative squared error: 47.96835190843009
Weighted TruePositiveRate: 0.9422057264050901
Weighted MatthewsCorrelation: 0.4513377273328864
Weighted FMeasure: 0.9392121965094062
Iteration time: 499.0
Weighted AreaUnderPRC: 0.9200596527884223
Mean absolute error: 0.05989535752594302
Coverage of cases: 94.22057264050902
Instances selection time: 498.0
Test time: 349.0
Accumulative iteration time: 1463.0
Weighted Recall: 0.9422057264050901
Weighted FalsePositiveRate: 0.5354650289572039
Kappa statistic: 0.4482686434173025
Training time: 1.0
		
Iteration: 4
Labeled set size: 437
Unlabelled set size: 1449
	
Mean region size: 50.0
Incorrectly Classified Instances: 5.779427359490986
Correctly Classified Instances: 94.22057264050902
Weighted Precision: 0.935302946321624
Weighted AreaUnderROC: 0.6894749659068771
Root mean squared error: 0.23986690752079032
Relative absolute error: 11.959927071081587
Root relative squared error: 47.97338150415806
Weighted TruePositiveRate: 0.9422057264050901
Weighted MatthewsCorrelation: 0.4337323367961405
Weighted FMeasure: 0.9379998113134661
Iteration time: 518.0
Weighted AreaUnderPRC: 0.9173153057911673
Mean absolute error: 0.059799635355407936
Coverage of cases: 94.22057264050902
Instances selection time: 517.0
Test time: 365.0
Accumulative iteration time: 1981.0
Weighted Recall: 0.9422057264050901
Weighted FalsePositiveRate: 0.5676879005722438
Kappa statistic: 0.42795367397026995
Training time: 1.0
		
Iteration: 5
Labeled set size: 457
Unlabelled set size: 1429
	
Mean region size: 50.0
Incorrectly Classified Instances: 5.779427359490986
Correctly Classified Instances: 94.22057264050902
Weighted Precision: 0.935302946321624
Weighted AreaUnderROC: 0.6894749659068771
Root mean squared error: 0.23988990443624272
Relative absolute error: 11.942451010730956
Root relative squared error: 47.97798088724854
Weighted TruePositiveRate: 0.9422057264050901
Weighted MatthewsCorrelation: 0.4337323367961405
Weighted FMeasure: 0.9379998113134661
Iteration time: 529.0
Weighted AreaUnderPRC: 0.9173153057911673
Mean absolute error: 0.05971225505365478
Coverage of cases: 94.22057264050902
Instances selection time: 528.0
Test time: 379.0
Accumulative iteration time: 2510.0
Weighted Recall: 0.9422057264050901
Weighted FalsePositiveRate: 0.5676879005722438
Kappa statistic: 0.42795367397026995
Training time: 1.0
		
Iteration: 6
Labeled set size: 477
Unlabelled set size: 1409
	
Mean region size: 50.0
Incorrectly Classified Instances: 5.779427359490986
Correctly Classified Instances: 94.22057264050902
Weighted Precision: 0.935302946321624
Weighted AreaUnderROC: 0.6894749659068771
Root mean squared error: 0.23991101486386052
Relative absolute error: 11.926434340415398
Root relative squared error: 47.9822029727721
Weighted TruePositiveRate: 0.9422057264050901
Weighted MatthewsCorrelation: 0.4337323367961405
Weighted FMeasure: 0.9379998113134661
Iteration time: 541.0
Weighted AreaUnderPRC: 0.9173153057911673
Mean absolute error: 0.05963217170207699
Coverage of cases: 94.22057264050902
Instances selection time: 541.0
Test time: 394.0
Accumulative iteration time: 3051.0
Weighted Recall: 0.9422057264050901
Weighted FalsePositiveRate: 0.5676879005722438
Kappa statistic: 0.42795367397026995
Training time: 0.0
		
Iteration: 7
Labeled set size: 497
Unlabelled set size: 1389
	
Mean region size: 50.0
Incorrectly Classified Instances: 5.885471898197243
Correctly Classified Instances: 94.11452810180276
Weighted Precision: 0.9336223645621315
Weighted AreaUnderROC: 0.6809175920514319
Root mean squared error: 0.24212150165296467
Relative absolute error: 12.122940602057811
Root relative squared error: 48.424300330592935
Weighted TruePositiveRate: 0.9411452810180275
Weighted MatthewsCorrelation: 0.4184880917654239
Weighted FMeasure: 0.93653715634703
Iteration time: 558.0
Weighted AreaUnderPRC: 0.9155779814076758
Mean absolute error: 0.06061470301028905
Coverage of cases: 94.11452810180276
Instances selection time: 557.0
Test time: 408.0
Accumulative iteration time: 3609.0
Weighted Recall: 0.9411452810180275
Weighted FalsePositiveRate: 0.5838688344955262
Kappa statistic: 0.41204522858635334
Training time: 1.0
		
Iteration: 8
Labeled set size: 517
Unlabelled set size: 1369
	
Mean region size: 50.0
Incorrectly Classified Instances: 5.885471898197243
Correctly Classified Instances: 94.11452810180276
Weighted Precision: 0.9336223645621315
Weighted AreaUnderROC: 0.6814436002337814
Root mean squared error: 0.24213964106989297
Relative absolute error: 12.109104261566154
Root relative squared error: 48.427928213978596
Weighted TruePositiveRate: 0.9411452810180275
Weighted MatthewsCorrelation: 0.4184880917654239
Weighted FMeasure: 0.93653715634703
Iteration time: 564.0
Weighted AreaUnderPRC: 0.9156452953311526
Mean absolute error: 0.060545521307830766
Coverage of cases: 94.11452810180276
Instances selection time: 563.0
Test time: 425.0
Accumulative iteration time: 4173.0
Weighted Recall: 0.9411452810180275
Weighted FalsePositiveRate: 0.5838688344955262
Kappa statistic: 0.41204522858635334
Training time: 1.0
		
Iteration: 9
Labeled set size: 537
Unlabelled set size: 1349
	
Mean region size: 50.0
Incorrectly Classified Instances: 5.832449628844114
Correctly Classified Instances: 94.16755037115588
Weighted Precision: 0.9336188491525244
Weighted AreaUnderROC: 0.6770261055912723
Root mean squared error: 0.24106327703007302
Relative absolute error: 11.991363778952408
Root relative squared error: 48.212655406014605
Weighted TruePositiveRate: 0.9416755037115588
Weighted MatthewsCorrelation: 0.416978643690426
Weighted FMeasure: 0.9366127520990675
Iteration time: 580.0
Weighted AreaUnderPRC: 0.9150536746996809
Mean absolute error: 0.05995681889476204
Coverage of cases: 94.16755037115588
Instances selection time: 579.0
Test time: 442.0
Accumulative iteration time: 4753.0
Weighted Recall: 0.9416755037115588
Weighted FalsePositiveRate: 0.5918898033414048
Kappa statistic: 0.40910748057511304
Training time: 1.0
		
Iteration: 10
Labeled set size: 557
Unlabelled set size: 1329
	
Mean region size: 50.0
Incorrectly Classified Instances: 5.832449628844114
Correctly Classified Instances: 94.16755037115588
Weighted Precision: 0.9336188491525244
Weighted AreaUnderROC: 0.6770261055912723
Root mean squared error: 0.24107883747740147
Relative absolute error: 11.979683401028364
Root relative squared error: 48.21576749548029
Weighted TruePositiveRate: 0.9416755037115588
Weighted MatthewsCorrelation: 0.416978643690426
Weighted FMeasure: 0.9366127520990675
Iteration time: 592.0
Weighted AreaUnderPRC: 0.9150536746996809
Mean absolute error: 0.05989841700514182
Coverage of cases: 94.16755037115588
Instances selection time: 591.0
Test time: 455.0
Accumulative iteration time: 5345.0
Weighted Recall: 0.9416755037115588
Weighted FalsePositiveRate: 0.5918898033414048
Kappa statistic: 0.40910748057511304
Training time: 1.0
		
Iteration: 11
Labeled set size: 577
Unlabelled set size: 1309
	
Mean region size: 50.0
Incorrectly Classified Instances: 5.726405090137858
Correctly Classified Instances: 94.27359490986214
Weighted Precision: 0.9345084888569015
Weighted AreaUnderROC: 0.6775910773426848
Root mean squared error: 0.23889163954902964
Relative absolute error: 11.757453489902726
Root relative squared error: 47.77832790980593
Weighted TruePositiveRate: 0.9427359490986215
Weighted MatthewsCorrelation: 0.42342046322640575
Weighted FMeasure: 0.9374316994504924
Iteration time: 598.0
Weighted AreaUnderPRC: 0.9154311080188093
Mean absolute error: 0.05878726744951363
Coverage of cases: 94.27359490986214
Instances selection time: 597.0
Test time: 465.0
Accumulative iteration time: 5943.0
Weighted Recall: 0.9427359490986215
Weighted FalsePositiveRate: 0.5918203052256426
Kappa statistic: 0.41433286944920494
Training time: 1.0
		
Iteration: 12
Labeled set size: 597
Unlabelled set size: 1289
	
Mean region size: 50.0
Incorrectly Classified Instances: 5.779427359490986
Correctly Classified Instances: 94.22057264050902
Weighted Precision: 0.9336522183580634
Weighted AreaUnderROC: 0.6734901616988116
Root mean squared error: 0.24000849202907856
Relative absolute error: 11.852883797659802
Root relative squared error: 48.00169840581571
Weighted TruePositiveRate: 0.9422057264050901
Weighted MatthewsCorrelation: 0.4155769764378583
Weighted FMeasure: 0.9366812977754311
Iteration time: 605.0
Weighted AreaUnderPRC: 0.9145802126026038
Mean absolute error: 0.05926441898829901
Coverage of cases: 94.22057264050902
Instances selection time: 605.0
Test time: 490.0
Accumulative iteration time: 6548.0
Weighted Recall: 0.9422057264050901
Weighted FalsePositiveRate: 0.5999107721872837
Kappa statistic: 0.40608550445781105
Training time: 0.0
		
Iteration: 13
Labeled set size: 617
Unlabelled set size: 1269
	
Mean region size: 50.0
Incorrectly Classified Instances: 5.673382820784729
Correctly Classified Instances: 94.32661717921528
Weighted Precision: 0.9342150077240029
Weighted AreaUnderROC: 0.6700589323982077
Root mean squared error: 0.23780899020319918
Relative absolute error: 11.631979793821627
Root relative squared error: 47.561798040639836
Weighted TruePositiveRate: 0.9432661717921527
Weighted MatthewsCorrelation: 0.41771343562972313
Weighted FMeasure: 0.937152758247364
Iteration time: 615.0
Weighted AreaUnderPRC: 0.9142866067386489
Mean absolute error: 0.058159898969108136
Coverage of cases: 94.32661717921528
Instances selection time: 614.0
Test time: 498.0
Accumulative iteration time: 7163.0
Weighted Recall: 0.9432661717921527
Weighted FalsePositiveRate: 0.6078969919752816
Kappa statistic: 0.4056220877832685
Training time: 1.0
		
Iteration: 14
Labeled set size: 637
Unlabelled set size: 1249
	
Mean region size: 50.0
Incorrectly Classified Instances: 5.567338282078473
Correctly Classified Instances: 94.43266171792153
Weighted Precision: 0.9352308693664841
Weighted AreaUnderROC: 0.6706239041496201
Root mean squared error: 0.23558770535469845
Relative absolute error: 11.411627588601501
Root relative squared error: 47.11754107093969
Weighted TruePositiveRate: 0.9443266171792153
Weighted MatthewsCorrelation: 0.4247487171319263
Weighted FMeasure: 0.9379773626597706
Iteration time: 629.0
Weighted AreaUnderPRC: 0.9146936371257489
Mean absolute error: 0.05705813794300751
Coverage of cases: 94.43266171792153
Instances selection time: 627.0
Test time: 511.0
Accumulative iteration time: 7792.0
Weighted Recall: 0.9443266171792153
Weighted FalsePositiveRate: 0.6078274938595192
Kappa statistic: 0.410993129294191
Training time: 2.0
		
Iteration: 15
Labeled set size: 657
Unlabelled set size: 1229
	
Mean region size: 50.0
Incorrectly Classified Instances: 5.567338282078473
Correctly Classified Instances: 94.43266171792153
Weighted Precision: 0.9348951509184398
Weighted AreaUnderROC: 0.6666277030976038
Root mean squared error: 0.235598619860337
Relative absolute error: 11.403222350036971
Root relative squared error: 47.1197239720674
Weighted TruePositiveRate: 0.9443266171792153
Weighted MatthewsCorrelation: 0.4203142993001868
Weighted FMeasure: 0.9376193334649419
Iteration time: 647.0
Weighted AreaUnderPRC: 0.9140160358989248
Mean absolute error: 0.05701611175018485
Coverage of cases: 94.43266171792153
Instances selection time: 646.0
Test time: 527.0
Accumulative iteration time: 8439.0
Weighted Recall: 0.9443266171792153
Weighted FalsePositiveRate: 0.6158832117632792
Kappa statistic: 0.405140251485422
Training time: 1.0
		
Iteration: 16
Labeled set size: 677
Unlabelled set size: 1209
	
Mean region size: 50.0
Incorrectly Classified Instances: 5.408271474019088
Correctly Classified Instances: 94.59172852598091
Weighted Precision: 0.936580563303787
Weighted AreaUnderROC: 0.6674751607247223
Root mean squared error: 0.23221879760985778
Relative absolute error: 11.077959424775075
Root relative squared error: 46.44375952197156
Weighted TruePositiveRate: 0.9459172852598091
Weighted MatthewsCorrelation: 0.4316223290111286
Weighted FMeasure: 0.9388649615035505
Iteration time: 642.0
Weighted AreaUnderPRC: 0.9146694822172431
Mean absolute error: 0.05538979712387538
Coverage of cases: 94.59172852598091
Instances selection time: 640.0
Test time: 540.0
Accumulative iteration time: 9081.0
Weighted Recall: 0.9459172852598091
Weighted FalsePositiveRate: 0.6157789645896357
Kappa statistic: 0.41339269378544885
Training time: 2.0
		
Iteration: 17
Labeled set size: 697
Unlabelled set size: 1189
	
Mean region size: 50.0
Incorrectly Classified Instances: 5.461293743372217
Correctly Classified Instances: 94.53870625662779
Weighted Precision: 0.9357139487876507
Weighted AreaUnderROC: 0.6631964737969998
Root mean squared error: 0.23336390447132652
Relative absolute error: 11.176220781044409
Root relative squared error: 46.6727808942653
Weighted TruePositiveRate: 0.9453870625662778
Weighted MatthewsCorrelation: 0.42345646705906304
Weighted FMeasure: 0.9380807858638568
Iteration time: 652.0
Weighted AreaUnderPRC: 0.9137726774915235
Mean absolute error: 0.055881103905222045
Coverage of cases: 94.53870625662779
Instances selection time: 651.0
Test time: 564.0
Accumulative iteration time: 9733.0
Weighted Recall: 0.9453870625662778
Weighted FalsePositiveRate: 0.6238694315512769
Kappa statistic: 0.4046388750973072
Training time: 1.0
		
Iteration: 18
Labeled set size: 717
Unlabelled set size: 1169
	
Mean region size: 50.0
Incorrectly Classified Instances: 5.461293743372217
Correctly Classified Instances: 94.53870625662779
Weighted Precision: 0.9357139487876507
Weighted AreaUnderROC: 0.6631964737969998
Root mean squared error: 0.23337297775227944
Relative absolute error: 11.169140986026786
Root relative squared error: 46.67459555045589
Weighted TruePositiveRate: 0.9453870625662778
Weighted MatthewsCorrelation: 0.42345646705906304
Weighted FMeasure: 0.9380807858638568
Iteration time: 653.0
Weighted AreaUnderPRC: 0.9137726774915235
Mean absolute error: 0.05584570493013393
Coverage of cases: 94.53870625662779
Instances selection time: 652.0
Test time: 570.0
Accumulative iteration time: 10386.0
Weighted Recall: 0.9453870625662778
Weighted FalsePositiveRate: 0.6238694315512769
Kappa statistic: 0.4046388750973072
Training time: 1.0
		
Iteration: 19
Labeled set size: 737
Unlabelled set size: 1149
	
Mean region size: 50.0
Incorrectly Classified Instances: 5.355249204665959
Correctly Classified Instances: 94.64475079533403
Weighted Precision: 0.9366982926900711
Weighted AreaUnderROC: 0.6597652444963958
Root mean squared error: 0.23110469480353635
Relative absolute error: 10.950953241833796
Root relative squared error: 46.22093896070727
Weighted TruePositiveRate: 0.9464475079533404
Weighted MatthewsCorrelation: 0.4272349297257592
Weighted FMeasure: 0.9385368560122016
Iteration time: 689.0
Weighted AreaUnderPRC: 0.9135618053407648
Mean absolute error: 0.05475476620916898
Coverage of cases: 94.64475079533403
Instances selection time: 688.0
Test time: 590.0
Accumulative iteration time: 11075.0
Weighted Recall: 0.9464475079533404
Weighted FalsePositiveRate: 0.6318556513392746
Kappa statistic: 0.40411674539368775
Training time: 1.0
		
Iteration: 20
Labeled set size: 757
Unlabelled set size: 1129
	
Mean region size: 50.0
Incorrectly Classified Instances: 5.355249204665959
Correctly Classified Instances: 94.64475079533403
Weighted Precision: 0.9366982926900711
Weighted AreaUnderROC: 0.6597652444963958
Root mean squared error: 0.23111275241634824
Relative absolute error: 10.94461711751222
Root relative squared error: 46.22255048326965
Weighted TruePositiveRate: 0.9464475079533404
Weighted MatthewsCorrelation: 0.4272349297257592
Weighted FMeasure: 0.9385368560122016
Iteration time: 675.0
Weighted AreaUnderPRC: 0.9135618053407648
Mean absolute error: 0.0547230855875611
Coverage of cases: 94.64475079533403
Instances selection time: 674.0
Test time: 615.0
Accumulative iteration time: 11750.0
Weighted Recall: 0.9464475079533404
Weighted FalsePositiveRate: 0.6318556513392746
Kappa statistic: 0.40411674539368775
Training time: 1.0
		
Iteration: 21
Labeled set size: 777
Unlabelled set size: 1109
	
Mean region size: 50.0
Incorrectly Classified Instances: 5.249204665959703
Correctly Classified Instances: 94.75079533404029
Weighted Precision: 0.9380410190581789
Weighted AreaUnderROC: 0.6607101110461718
Root mean squared error: 0.22882070640850175
Relative absolute error: 10.72692582593168
Root relative squared error: 45.76414128170035
Weighted TruePositiveRate: 0.9475079533404029
Weighted MatthewsCorrelation: 0.4357374811884743
Weighted FMeasure: 0.9393751572252744
Iteration time: 670.0
Weighted AreaUnderPRC: 0.9140982575618374
Mean absolute error: 0.0536346291296584
Coverage of cases: 94.75079533404029
Instances selection time: 670.0
Test time: 622.0
Accumulative iteration time: 12420.0
Weighted Recall: 0.9475079533404029
Weighted FalsePositiveRate: 0.6317861532235123
Kappa statistic: 0.4098090162535322
Training time: 0.0
		
Iteration: 22
Labeled set size: 797
Unlabelled set size: 1089
	
Mean region size: 50.0
Incorrectly Classified Instances: 5.355249204665959
Correctly Classified Instances: 94.64475079533403
Weighted Precision: 0.9362904576118913
Weighted AreaUnderROC: 0.6521624780829924
Root mean squared error: 0.23112766846754865
Relative absolute error: 10.932763925857232
Root relative squared error: 46.22553369350973
Weighted TruePositiveRate: 0.9464475079533404
Weighted MatthewsCorrelation: 0.4188776568950532
Weighted FMeasure: 0.9377546794803066
Iteration time: 676.0
Weighted AreaUnderPRC: 0.9122801750876014
Mean absolute error: 0.05466381962928616
Coverage of cases: 94.64475079533403
Instances selection time: 676.0
Test time: 646.0
Accumulative iteration time: 13096.0
Weighted Recall: 0.9464475079533404
Weighted FalsePositiveRate: 0.6479670871467945
Kappa statistic: 0.3915235071265665
Training time: 0.0
		
Iteration: 23
Labeled set size: 817
Unlabelled set size: 1069
	
Mean region size: 50.0
Incorrectly Classified Instances: 5.355249204665959
Correctly Classified Instances: 94.64475079533403
Weighted Precision: 0.9362904576118913
Weighted AreaUnderROC: 0.6521624780829924
Root mean squared error: 0.2311345875126706
Relative absolute error: 10.927336169833293
Root relative squared error: 46.22691750253412
Weighted TruePositiveRate: 0.9464475079533404
Weighted MatthewsCorrelation: 0.4188776568950532
Weighted FMeasure: 0.9377546794803066
Iteration time: 683.0
Weighted AreaUnderPRC: 0.9122801750876014
Mean absolute error: 0.05463668084916646
Coverage of cases: 94.64475079533403
Instances selection time: 682.0
Test time: 643.0
Accumulative iteration time: 13779.0
Weighted Recall: 0.9464475079533404
Weighted FalsePositiveRate: 0.6479670871467945
Kappa statistic: 0.3915235071265665
Training time: 1.0
		
Iteration: 24
Labeled set size: 837
Unlabelled set size: 1049
	
Mean region size: 50.0
Incorrectly Classified Instances: 5.408271474019088
Correctly Classified Instances: 94.59172852598091
Weighted Precision: 0.9350539692067867
Weighted AreaUnderROC: 0.6399060003896359
Root mean squared error: 0.23228259502178472
Relative absolute error: 11.027958938459504
Root relative squared error: 46.45651900435694
Weighted TruePositiveRate: 0.9459172852598091
Weighted MatthewsCorrelation: 0.40166659414112177
Weighted FMeasure: 0.9360960174701948
Iteration time: 682.0
Weighted AreaUnderPRC: 0.910050224102319
Mean absolute error: 0.05513979469229752
Coverage of cases: 94.59172852598091
Instances selection time: 682.0
Test time: 660.0
Accumulative iteration time: 14461.0
Weighted Recall: 0.9459172852598091
Weighted FalsePositiveRate: 0.6721689899159556
Kappa statistic: 0.36882513517769966
Training time: 0.0
		
Iteration: 25
Labeled set size: 857
Unlabelled set size: 1029
	
Mean region size: 50.0
Incorrectly Classified Instances: 5.355249204665959
Correctly Classified Instances: 94.64475079533403
Weighted Precision: 0.9358424591862803
Weighted AreaUnderROC: 0.640188486265342
Root mean squared error: 0.23114746915920692
Relative absolute error: 10.917238904327963
Root relative squared error: 46.22949383184138
Weighted TruePositiveRate: 0.9464475079533404
Weighted MatthewsCorrelation: 0.40631169047957827
Weighted FMeasure: 0.9365084052453025
Iteration time: 703.0
Weighted AreaUnderPRC: 0.9102992815575042
Mean absolute error: 0.05458619452163981
Coverage of cases: 94.64475079533403
Instances selection time: 702.0
Test time: 679.0
Accumulative iteration time: 15164.0
Weighted Recall: 0.9464475079533404
Weighted FalsePositiveRate: 0.6721342408580745
Kappa statistic: 0.37160294263187443
Training time: 1.0
		
Iteration: 26
Labeled set size: 877
Unlabelled set size: 1009
	
Mean region size: 50.0
Incorrectly Classified Instances: 5.302226935312832
Correctly Classified Instances: 94.69777306468717
Weighted Precision: 0.9366615377151213
Weighted AreaUnderROC: 0.6404709721410481
Root mean squared error: 0.23000633177535365
Relative absolute error: 10.806731635521773
Root relative squared error: 46.00126635507073
Weighted TruePositiveRate: 0.9469777306468717
Weighted MatthewsCorrelation: 0.41108785542811693
Weighted FMeasure: 0.9369223877829583
Iteration time: 691.0
Weighted AreaUnderPRC: 0.9105570494963674
Mean absolute error: 0.05403365817760886
Coverage of cases: 94.69777306468717
Instances selection time: 690.0
Test time: 692.0
Accumulative iteration time: 15855.0
Weighted Recall: 0.9469777306468717
Weighted FalsePositiveRate: 0.6720994918001933
Kappa statistic: 0.37441123008133387
Training time: 1.0
		
Iteration: 27
Labeled set size: 897
Unlabelled set size: 989
	
Mean region size: 50.0
Incorrectly Classified Instances: 5.302226935312832
Correctly Classified Instances: 94.69777306468717
Weighted Precision: 0.9366071363320435
Weighted AreaUnderROC: 0.6364796415351647
Root mean squared error: 0.23001204319480623
Relative absolute error: 10.802231553887086
Root relative squared error: 46.00240863896124
Weighted TruePositiveRate: 0.9469777306468717
Weighted MatthewsCorrelation: 0.40704716906448096
Weighted FMeasure: 0.9364849644833092
Iteration time: 692.0
Weighted AreaUnderPRC: 0.9099054259578074
Mean absolute error: 0.054011157769435436
Coverage of cases: 94.69777306468717
Instances selection time: 691.0
Test time: 705.0
Accumulative iteration time: 16547.0
Weighted Recall: 0.9469777306468717
Weighted FalsePositiveRate: 0.6801552097039533
Kappa statistic: 0.36747068766601443
Training time: 1.0
		
Iteration: 28
Labeled set size: 917
Unlabelled set size: 969
	
Mean region size: 50.0
Incorrectly Classified Instances: 5.302226935312832
Correctly Classified Instances: 94.69777306468717
Weighted Precision: 0.9366071363320435
Weighted AreaUnderROC: 0.636684200272745
Root mean squared error: 0.23001750745414978
Relative absolute error: 10.797869708969591
Root relative squared error: 46.003501490829954
Weighted TruePositiveRate: 0.9469777306468717
Weighted MatthewsCorrelation: 0.40704716906448096
Weighted FMeasure: 0.9364849644833092
Iteration time: 699.0
Weighted AreaUnderPRC: 0.9099311347746463
Mean absolute error: 0.05398934854484795
Coverage of cases: 94.69777306468717
Instances selection time: 695.0
Test time: 720.0
Accumulative iteration time: 17246.0
Weighted Recall: 0.9469777306468717
Weighted FalsePositiveRate: 0.6801552097039533
Kappa statistic: 0.36747068766601443
Training time: 4.0
		
Iteration: 29
Labeled set size: 937
Unlabelled set size: 949
	
Mean region size: 50.0
Incorrectly Classified Instances: 5.302226935312832
Correctly Classified Instances: 94.69777306468717
Weighted Precision: 0.9366071363320435
Weighted AreaUnderROC: 0.636684200272745
Root mean squared error: 0.23002274221596072
Relative absolute error: 10.793750076846614
Root relative squared error: 46.00454844319214
Weighted TruePositiveRate: 0.9469777306468717
Weighted MatthewsCorrelation: 0.40704716906448096
Weighted FMeasure: 0.9364849644833092
Iteration time: 704.0
Weighted AreaUnderPRC: 0.9099311347746463
Mean absolute error: 0.05396875038423307
Coverage of cases: 94.69777306468717
Instances selection time: 703.0
Test time: 735.0
Accumulative iteration time: 17950.0
Weighted Recall: 0.9469777306468717
Weighted FalsePositiveRate: 0.6801552097039533
Kappa statistic: 0.36747068766601443
Training time: 1.0
		
Iteration: 30
Labeled set size: 957
Unlabelled set size: 929
	
Mean region size: 50.0
Incorrectly Classified Instances: 5.355249204665959
Correctly Classified Instances: 94.64475079533403
Weighted Precision: 0.9356574809401118
Weighted AreaUnderROC: 0.6284239236314048
Root mean squared error: 0.23117501509300023
Relative absolute error: 10.895625658039613
Root relative squared error: 46.23500301860005
Weighted TruePositiveRate: 0.9464475079533404
Weighted MatthewsCorrelation: 0.3938004754358682
Weighted FMeasure: 0.9351658281595174
Iteration time: 693.0
Weighted AreaUnderPRC: 0.908365309443123
Mean absolute error: 0.05447812829019806
Coverage of cases: 94.64475079533403
Instances selection time: 692.0
Test time: 751.0
Accumulative iteration time: 18643.0
Weighted Recall: 0.9464475079533404
Weighted FalsePositiveRate: 0.6963013945693545
Kappa statistic: 0.3503338949407586
Training time: 1.0
		
Iteration: 31
Labeled set size: 977
Unlabelled set size: 909
	
Mean region size: 50.0
Incorrectly Classified Instances: 5.355249204665959
Correctly Classified Instances: 94.64475079533403
Weighted Precision: 0.9356574809401118
Weighted AreaUnderROC: 0.6284239236314048
Root mean squared error: 0.23117985538982716
Relative absolute error: 10.891843675067348
Root relative squared error: 46.23597107796543
Weighted TruePositiveRate: 0.9464475079533404
Weighted MatthewsCorrelation: 0.3938004754358682
Weighted FMeasure: 0.9351658281595174
Iteration time: 695.0
Weighted AreaUnderPRC: 0.908365309443123
Mean absolute error: 0.05445921837533674
Coverage of cases: 94.64475079533403
Instances selection time: 694.0
Test time: 764.0
Accumulative iteration time: 19338.0
Weighted Recall: 0.9464475079533404
Weighted FalsePositiveRate: 0.6963013945693545
Kappa statistic: 0.3503338949407586
Training time: 1.0
		
Iteration: 32
Labeled set size: 997
Unlabelled set size: 889
	
Mean region size: 50.0
Incorrectly Classified Instances: 5.355249204665959
Correctly Classified Instances: 94.64475079533403
Weighted Precision: 0.9356574809401118
Weighted AreaUnderROC: 0.6286333528151179
Root mean squared error: 0.2311845027578664
Relative absolute error: 10.888160101338016
Root relative squared error: 46.23690055157328
Weighted TruePositiveRate: 0.9464475079533404
Weighted MatthewsCorrelation: 0.3938004754358682
Weighted FMeasure: 0.9351658281595174
Iteration time: 694.0
Weighted AreaUnderPRC: 0.9083915915647597
Mean absolute error: 0.05444080050669008
Coverage of cases: 94.64475079533403
Instances selection time: 693.0
Test time: 778.0
Accumulative iteration time: 20032.0
Weighted Recall: 0.9464475079533404
Weighted FalsePositiveRate: 0.6963013945693545
Kappa statistic: 0.3503338949407586
Training time: 1.0
		
Iteration: 33
Labeled set size: 1017
Unlabelled set size: 869
	
Mean region size: 50.0
Incorrectly Classified Instances: 5.355249204665959
Correctly Classified Instances: 94.64475079533403
Weighted Precision: 0.9356574809401118
Weighted AreaUnderROC: 0.6286333528151179
Root mean squared error: 0.23118897016176987
Relative absolute error: 10.884673104314507
Root relative squared error: 46.237794032353975
Weighted TruePositiveRate: 0.9464475079533404
Weighted MatthewsCorrelation: 0.3938004754358682
Weighted FMeasure: 0.9351658281595174
Iteration time: 686.0
Weighted AreaUnderPRC: 0.9083915915647597
Mean absolute error: 0.05442336552157253
Coverage of cases: 94.64475079533403
Instances selection time: 686.0
Test time: 798.0
Accumulative iteration time: 20718.0
Weighted Recall: 0.9464475079533404
Weighted FalsePositiveRate: 0.6963013945693545
Kappa statistic: 0.3503338949407586
Training time: 0.0
		
Iteration: 34
Labeled set size: 1037
Unlabelled set size: 849
	
Mean region size: 50.0
Incorrectly Classified Instances: 5.355249204665959
Correctly Classified Instances: 94.64475079533403
Weighted Precision: 0.9356574809401118
Weighted AreaUnderROC: 0.6286333528151179
Root mean squared error: 0.23119326705823018
Relative absolute error: 10.881320352240484
Root relative squared error: 46.238653411646034
Weighted TruePositiveRate: 0.9464475079533404
Weighted MatthewsCorrelation: 0.3938004754358682
Weighted FMeasure: 0.9351658281595174
Iteration time: 682.0
Weighted AreaUnderPRC: 0.9083915915647597
Mean absolute error: 0.054406601761202426
Coverage of cases: 94.64475079533403
Instances selection time: 681.0
Test time: 807.0
Accumulative iteration time: 21400.0
Weighted Recall: 0.9464475079533404
Weighted FalsePositiveRate: 0.6963013945693545
Kappa statistic: 0.3503338949407586
Training time: 1.0
		
Iteration: 35
Labeled set size: 1057
Unlabelled set size: 829
	
Mean region size: 50.0
Incorrectly Classified Instances: 5.355249204665959
Correctly Classified Instances: 94.64475079533403
Weighted Precision: 0.9356574809401118
Weighted AreaUnderROC: 0.6284239236314048
Root mean squared error: 0.23119740393389848
Relative absolute error: 10.878160954715323
Root relative squared error: 46.239480786779694
Weighted TruePositiveRate: 0.9464475079533404
Weighted MatthewsCorrelation: 0.3938004754358682
Weighted FMeasure: 0.9351658281595174
Iteration time: 682.0
Weighted AreaUnderPRC: 0.908365309443123
Mean absolute error: 0.05439080477357661
Coverage of cases: 94.64475079533403
Instances selection time: 681.0
Test time: 820.0
Accumulative iteration time: 22082.0
Weighted Recall: 0.9464475079533404
Weighted FalsePositiveRate: 0.6963013945693545
Kappa statistic: 0.3503338949407586
Training time: 1.0
		
Iteration: 36
Labeled set size: 1077
Unlabelled set size: 809
	
Mean region size: 50.0
Incorrectly Classified Instances: 5.355249204665959
Correctly Classified Instances: 94.64475079533403
Weighted Precision: 0.9356574809401118
Weighted AreaUnderROC: 0.6284239236314048
Root mean squared error: 0.23120138781215793
Relative absolute error: 10.875053202680174
Root relative squared error: 46.24027756243159
Weighted TruePositiveRate: 0.9464475079533404
Weighted MatthewsCorrelation: 0.3938004754358682
Weighted FMeasure: 0.9351658281595174
Iteration time: 677.0
Weighted AreaUnderPRC: 0.908365309443123
Mean absolute error: 0.05437526601340087
Coverage of cases: 94.64475079533403
Instances selection time: 676.0
Test time: 838.0
Accumulative iteration time: 22759.0
Weighted Recall: 0.9464475079533404
Weighted FalsePositiveRate: 0.6963013945693545
Kappa statistic: 0.3503338949407586
Training time: 1.0
		
Iteration: 37
Labeled set size: 1097
Unlabelled set size: 789
	
Mean region size: 50.0
Incorrectly Classified Instances: 5.355249204665959
Correctly Classified Instances: 94.64475079533403
Weighted Precision: 0.9356574809401118
Weighted AreaUnderROC: 0.6284239236314048
Root mean squared error: 0.23120522787009518
Relative absolute error: 10.872058563087847
Root relative squared error: 46.24104557401903
Weighted TruePositiveRate: 0.9464475079533404
Weighted MatthewsCorrelation: 0.3938004754358682
Weighted FMeasure: 0.9351658281595174
Iteration time: 672.0
Weighted AreaUnderPRC: 0.908365309443123
Mean absolute error: 0.05436029281543924
Coverage of cases: 94.64475079533403
Instances selection time: 672.0
Test time: 858.0
Accumulative iteration time: 23431.0
Weighted Recall: 0.9464475079533404
Weighted FalsePositiveRate: 0.6963013945693545
Kappa statistic: 0.3503338949407586
Training time: 0.0
		
Iteration: 38
Labeled set size: 1117
Unlabelled set size: 769
	
Mean region size: 50.0
Incorrectly Classified Instances: 5.355249204665959
Correctly Classified Instances: 94.64475079533403
Weighted Precision: 0.9356574809401118
Weighted AreaUnderROC: 0.6284239236314048
Root mean squared error: 0.23120893175707094
Relative absolute error: 10.869170970904364
Root relative squared error: 46.24178635141419
Weighted TruePositiveRate: 0.9464475079533404
Weighted MatthewsCorrelation: 0.3938004754358682
Weighted FMeasure: 0.9351658281595174
Iteration time: 668.0
Weighted AreaUnderPRC: 0.908365309443123
Mean absolute error: 0.05434585485452182
Coverage of cases: 94.64475079533403
Instances selection time: 668.0
Test time: 868.0
Accumulative iteration time: 24099.0
Weighted Recall: 0.9464475079533404
Weighted FalsePositiveRate: 0.6963013945693545
Kappa statistic: 0.3503338949407586
Training time: 0.0
		
Iteration: 39
Labeled set size: 1137
Unlabelled set size: 749
	
Mean region size: 50.0
Incorrectly Classified Instances: 5.355249204665959
Correctly Classified Instances: 94.64475079533403
Weighted Precision: 0.9356574809401118
Weighted AreaUnderROC: 0.6284239236314048
Root mean squared error: 0.23121250658947406
Relative absolute error: 10.866384787087513
Root relative squared error: 46.24250131789481
Weighted TruePositiveRate: 0.9464475079533404
Weighted MatthewsCorrelation: 0.3938004754358682
Weighted FMeasure: 0.9351658281595174
Iteration time: 662.0
Weighted AreaUnderPRC: 0.908365309443123
Mean absolute error: 0.054331923935437565
Coverage of cases: 94.64475079533403
Instances selection time: 661.0
Test time: 885.0
Accumulative iteration time: 24761.0
Weighted Recall: 0.9464475079533404
Weighted FalsePositiveRate: 0.6963013945693545
Kappa statistic: 0.3503338949407586
Training time: 1.0
		
Iteration: 40
Labeled set size: 1157
Unlabelled set size: 729
	
Mean region size: 50.0
Incorrectly Classified Instances: 5.355249204665959
Correctly Classified Instances: 94.64475079533403
Weighted Precision: 0.9356574809401118
Weighted AreaUnderROC: 0.6284239236314048
Root mean squared error: 0.23121595899633762
Relative absolute error: 10.863694761831418
Root relative squared error: 46.24319179926752
Weighted TruePositiveRate: 0.9464475079533404
Weighted MatthewsCorrelation: 0.3938004754358682
Weighted FMeasure: 0.9351658281595174
Iteration time: 664.0
Weighted AreaUnderPRC: 0.908365309443123
Mean absolute error: 0.054318473809157095
Coverage of cases: 94.64475079533403
Instances selection time: 663.0
Test time: 895.0
Accumulative iteration time: 25425.0
Weighted Recall: 0.9464475079533404
Weighted FalsePositiveRate: 0.6963013945693545
Kappa statistic: 0.3503338949407586
Training time: 1.0
		
Iteration: 41
Labeled set size: 1177
Unlabelled set size: 709
	
Mean region size: 50.0
Incorrectly Classified Instances: 5.355249204665959
Correctly Classified Instances: 94.64475079533403
Weighted Precision: 0.9356574809401118
Weighted AreaUnderROC: 0.6284239236314048
Root mean squared error: 0.231219295160359
Relative absolute error: 10.861096001552555
Root relative squared error: 46.243859032071796
Weighted TruePositiveRate: 0.9464475079533404
Weighted MatthewsCorrelation: 0.3938004754358682
Weighted FMeasure: 0.9351658281595174
Iteration time: 650.0
Weighted AreaUnderPRC: 0.908365309443123
Mean absolute error: 0.05430548000776277
Coverage of cases: 94.64475079533403
Instances selection time: 649.0
Test time: 927.0
Accumulative iteration time: 26075.0
Weighted Recall: 0.9464475079533404
Weighted FalsePositiveRate: 0.6963013945693545
Kappa statistic: 0.3503338949407586
Training time: 1.0
		
Iteration: 42
Labeled set size: 1197
Unlabelled set size: 689
	
Mean region size: 50.0
Incorrectly Classified Instances: 5.461293743372217
Correctly Classified Instances: 94.53870625662779
Weighted Precision: 0.9337330355199359
Weighted AreaUnderROC: 0.619881161114358
Root mean squared error: 0.2335006009724169
Relative absolute error: 11.070319239982512
Root relative squared error: 46.70012019448338
Weighted TruePositiveRate: 0.9453870625662778
Weighted MatthewsCorrelation: 0.3748841237837133
Weighted FMeasure: 0.9334018525625583
Iteration time: 656.0
Weighted AreaUnderPRC: 0.906540090554383
Mean absolute error: 0.055351596199912555
Coverage of cases: 94.53870625662779
Instances selection time: 651.0
Test time: 926.0
Accumulative iteration time: 26731.0
Weighted Recall: 0.9453870625662778
Weighted FalsePositiveRate: 0.7124823284926367
Kappa statistic: 0.3299091404562979
Training time: 5.0
		
Iteration: 43
Labeled set size: 1217
Unlabelled set size: 669
	
Mean region size: 50.0
Incorrectly Classified Instances: 5.461293743372217
Correctly Classified Instances: 94.53870625662779
Weighted Precision: 0.9337330355199359
Weighted AreaUnderROC: 0.619881161114358
Root mean squared error: 0.2335037532938998
Relative absolute error: 11.06789541254503
Root relative squared error: 46.70075065877996
Weighted TruePositiveRate: 0.9453870625662778
Weighted MatthewsCorrelation: 0.3748841237837133
Weighted FMeasure: 0.9334018525625583
Iteration time: 642.0
Weighted AreaUnderPRC: 0.906540090554383
Mean absolute error: 0.05533947706272514
Coverage of cases: 94.53870625662779
Instances selection time: 641.0
Test time: 950.0
Accumulative iteration time: 27373.0
Weighted Recall: 0.9453870625662778
Weighted FalsePositiveRate: 0.7124823284926367
Kappa statistic: 0.3299091404562979
Training time: 1.0
		
Iteration: 44
Labeled set size: 1237
Unlabelled set size: 649
	
Mean region size: 50.0
Incorrectly Classified Instances: 5.461293743372217
Correctly Classified Instances: 94.53870625662779
Weighted Precision: 0.9337330355199359
Weighted AreaUnderROC: 0.6194525618546658
Root mean squared error: 0.23350680591357173
Relative absolute error: 11.065671030618047
Root relative squared error: 46.701361182714344
Weighted TruePositiveRate: 0.9453870625662778
Weighted MatthewsCorrelation: 0.3748841237837133
Weighted FMeasure: 0.9334018525625583
Iteration time: 624.0
Weighted AreaUnderPRC: 0.9064863638579025
Mean absolute error: 0.05532835515309024
Coverage of cases: 94.53870625662779
Instances selection time: 623.0
Test time: 964.0
Accumulative iteration time: 27997.0
Weighted Recall: 0.9453870625662778
Weighted FalsePositiveRate: 0.7124823284926367
Kappa statistic: 0.3299091404562979
Training time: 1.0
		
Iteration: 45
Labeled set size: 1257
Unlabelled set size: 629
	
Mean region size: 50.0
Incorrectly Classified Instances: 5.461293743372217
Correctly Classified Instances: 94.53870625662779
Weighted Precision: 0.9337330355199359
Weighted AreaUnderROC: 0.6194525618546658
Root mean squared error: 0.23350976087006164
Relative absolute error: 11.063398052322121
Root relative squared error: 46.70195217401233
Weighted TruePositiveRate: 0.9453870625662778
Weighted MatthewsCorrelation: 0.3748841237837133
Weighted FMeasure: 0.9334018525625583
Iteration time: 617.0
Weighted AreaUnderPRC: 0.9064863638579025
Mean absolute error: 0.055316990261610605
Coverage of cases: 94.53870625662779
Instances selection time: 616.0
Test time: 979.0
Accumulative iteration time: 28614.0
Weighted Recall: 0.9453870625662778
Weighted FalsePositiveRate: 0.7124823284926367
Kappa statistic: 0.3299091404562979
Training time: 1.0
		
Iteration: 46
Labeled set size: 1277
Unlabelled set size: 609
	
Mean region size: 50.0
Incorrectly Classified Instances: 5.514316012725344
Correctly Classified Instances: 94.48568398727465
Weighted Precision: 0.9327375461747235
Weighted AreaUnderROC: 0.6151763101500097
Root mean squared error: 0.23464342982600386
Relative absolute error: 11.167074874913517
Root relative squared error: 46.92868596520077
Weighted TruePositiveRate: 0.9448568398727466
Weighted MatthewsCorrelation: 0.3651816135221545
Weighted FMeasure: 0.9325081218566766
Iteration time: 605.0
Weighted AreaUnderPRC: 0.9055783514156128
Mean absolute error: 0.055835374374567585
Coverage of cases: 94.48568398727465
Instances selection time: 604.0
Test time: 989.0
Accumulative iteration time: 29219.0
Weighted Recall: 0.9448568398727466
Weighted FalsePositiveRate: 0.7205727954542779
Kappa statistic: 0.3195209614076967
Training time: 1.0
		
Time end:Wed Nov 01 08.29.46 EET 2017