Wed Nov 01 08.11.29 EET 2017
Dataset: sick
Test set size: 1886
Initial Labelled set size: 377
Initial Unlabelled set size: 1509
Batch mode: QBestBatchMode
Batch size: 20
Classifiers: NaiveBayes-1cores
Scenario: PoolBasedSamplingScenario
Query strategy: EntropySamplingQueryStrategy-1cores
Time begining: Wed Nov 01 08.11.29 EET 2017
		
Iteration: 1
Labeled set size: 377
Unlabelled set size: 1509
	
Mean region size: 62.67232237539767
Incorrectly Classified Instances: 7.688229056203605
Correctly Classified Instances: 92.31177094379639
Weighted Precision: 0.9540819653803871
Weighted AreaUnderROC: 0.9124812206558715
Root mean squared error: 0.24029837962754744
Relative absolute error: 19.9704946171881
Root relative squared error: 48.05967592550949
Weighted TruePositiveRate: 0.9231177094379639
Weighted MatthewsCorrelation: 0.5631795987745428
Weighted FMeasure: 0.9339920535418381
Iteration time: 39.0
Weighted AreaUnderPRC: 0.9692624553403512
Mean absolute error: 0.09985247308594049
Coverage of cases: 99.04559915164369
Instances selection time: 38.0
Test time: 32.0
Accumulative iteration time: 39.0
Weighted Recall: 0.9231177094379639
Weighted FalsePositiveRate: 0.16761234523694757
Kappa statistic: 0.529481598733676
Training time: 1.0
		
Iteration: 2
Labeled set size: 397
Unlabelled set size: 1489
	
Mean region size: 64.02439024390245
Incorrectly Classified Instances: 7.794273594909862
Correctly Classified Instances: 92.20572640509013
Weighted Precision: 0.9532411634276772
Weighted AreaUnderROC: 0.9099323195132131
Root mean squared error: 0.24047850026333747
Relative absolute error: 20.946937479798336
Root relative squared error: 48.095700052667496
Weighted TruePositiveRate: 0.9220572640509014
Weighted MatthewsCorrelation: 0.5562766500302212
Weighted FMeasure: 0.9330815991079325
Iteration time: 26.0
Weighted AreaUnderPRC: 0.9676783851893803
Mean absolute error: 0.10473468739899168
Coverage of cases: 99.20466595970308
Instances selection time: 25.0
Test time: 27.0
Accumulative iteration time: 65.0
Weighted Recall: 0.9220572640509014
Weighted FalsePositiveRate: 0.1758122047623638
Kappa statistic: 0.5229916897506925
Training time: 1.0
		
Iteration: 3
Labeled set size: 417
Unlabelled set size: 1469
	
Mean region size: 63.308589607635206
Incorrectly Classified Instances: 6.362672322375397
Correctly Classified Instances: 93.6373276776246
Weighted Precision: 0.9565261578576032
Weighted AreaUnderROC: 0.916563156977653
Root mean squared error: 0.22005430326208283
Relative absolute error: 18.44847470817515
Root relative squared error: 44.01086065241657
Weighted TruePositiveRate: 0.936373276776246
Weighted MatthewsCorrelation: 0.5975290731521715
Weighted FMeasure: 0.9435770536382259
Iteration time: 20.0
Weighted AreaUnderPRC: 0.9689817831445584
Mean absolute error: 0.09224237354087576
Coverage of cases: 99.36373276776246
Instances selection time: 19.0
Test time: 27.0
Accumulative iteration time: 85.0
Weighted Recall: 0.936373276776246
Weighted FalsePositiveRate: 0.18301359298177963
Kappa statistic: 0.5755327409196793
Training time: 1.0
		
Iteration: 4
Labeled set size: 437
Unlabelled set size: 1449
	
Mean region size: 63.62672322375398
Incorrectly Classified Instances: 6.786850477200424
Correctly Classified Instances: 93.21314952279958
Weighted Precision: 0.9552748053596594
Weighted AreaUnderROC: 0.9135391810918576
Root mean squared error: 0.22072138587495857
Relative absolute error: 18.800435111370778
Root relative squared error: 44.144277174991714
Weighted TruePositiveRate: 0.9321314952279958
Weighted MatthewsCorrelation: 0.5832632099865712
Weighted FMeasure: 0.9403851342724469
Iteration time: 36.0
Weighted AreaUnderPRC: 0.9693634233597713
Mean absolute error: 0.09400217555685389
Coverage of cases: 99.31071049840934
Instances selection time: 35.0
Test time: 41.0
Accumulative iteration time: 121.0
Weighted Recall: 0.9321314952279958
Weighted FalsePositiveRate: 0.18328903334205562
Kappa statistic: 0.5582119707046047
Training time: 1.0
		
Iteration: 5
Labeled set size: 457
Unlabelled set size: 1429
	
Mean region size: 64.5015906680806
Incorrectly Classified Instances: 7.423117709437964
Correctly Classified Instances: 92.57688229056204
Weighted Precision: 0.9529866397944136
Weighted AreaUnderROC: 0.9011625978337213
Root mean squared error: 0.23581458591789614
Relative absolute error: 20.799993375937188
Root relative squared error: 47.162917183579225
Weighted TruePositiveRate: 0.9257688229056203
Weighted MatthewsCorrelation: 0.5594696060365372
Weighted FMeasure: 0.9355250738637833
Iteration time: 20.0
Weighted AreaUnderPRC: 0.9654415433935603
Mean absolute error: 0.10399996687968593
Coverage of cases: 99.20466595970308
Instances selection time: 19.0
Test time: 27.0
Accumulative iteration time: 141.0
Weighted Recall: 0.9257688229056203
Weighted FalsePositiveRate: 0.1918331933178169
Kappa statistic: 0.5310074352479777
Training time: 1.0
		
Iteration: 6
Labeled set size: 477
Unlabelled set size: 1409
	
Mean region size: 64.15694591728526
Incorrectly Classified Instances: 7.0519618239660655
Correctly Classified Instances: 92.94803817603393
Weighted Precision: 0.9551104072933934
Weighted AreaUnderROC: 0.9053297110930012
Root mean squared error: 0.2285430491445275
Relative absolute error: 19.988756135114187
Root relative squared error: 45.7086098289055
Weighted TruePositiveRate: 0.9294803817603393
Weighted MatthewsCorrelation: 0.5785325502845512
Weighted FMeasure: 0.9385463813501475
Iteration time: 20.0
Weighted AreaUnderPRC: 0.9664364856024169
Mean absolute error: 0.09994378067557094
Coverage of cases: 99.2576882290562
Instances selection time: 19.0
Test time: 26.0
Accumulative iteration time: 161.0
Weighted Recall: 0.9294803817603393
Weighted FalsePositiveRate: 0.1753301841318808
Kappa statistic: 0.5504904789382572
Training time: 1.0
		
Iteration: 7
Labeled set size: 497
Unlabelled set size: 1389
	
Mean region size: 65.27041357370095
Incorrectly Classified Instances: 7.370095440084835
Correctly Classified Instances: 92.62990455991516
Weighted Precision: 0.9554411502198854
Weighted AreaUnderROC: 0.9033761203985742
Root mean squared error: 0.23052199533326706
Relative absolute error: 20.795728882677988
Root relative squared error: 46.104399066653414
Weighted TruePositiveRate: 0.9262990455991517
Weighted MatthewsCorrelation: 0.5763445640278337
Weighted FMeasure: 0.9364618183066439
Iteration time: 19.0
Weighted AreaUnderPRC: 0.9661751482488643
Mean absolute error: 0.10397864441338994
Coverage of cases: 99.31071049840934
Instances selection time: 18.0
Test time: 27.0
Accumulative iteration time: 180.0
Weighted Recall: 0.9262990455991517
Weighted FalsePositiveRate: 0.1592747655313933
Kappa statistic: 0.5437515010807783
Training time: 1.0
		
Iteration: 8
Labeled set size: 517
Unlabelled set size: 1369
	
Mean region size: 65.27041357370095
Incorrectly Classified Instances: 7.370095440084835
Correctly Classified Instances: 92.62990455991516
Weighted Precision: 0.9542808696498407
Weighted AreaUnderROC: 0.9039950827907857
Root mean squared error: 0.22802229047591296
Relative absolute error: 20.536803933401217
Root relative squared error: 45.60445809518259
Weighted TruePositiveRate: 0.9262990455991517
Weighted MatthewsCorrelation: 0.5687415912342632
Weighted FMeasure: 0.9361926372755692
Iteration time: 22.0
Weighted AreaUnderPRC: 0.9667699067616851
Mean absolute error: 0.10268401966700609
Coverage of cases: 99.36373276776246
Instances selection time: 21.0
Test time: 52.0
Accumulative iteration time: 202.0
Weighted Recall: 0.9262990455991517
Weighted FalsePositiveRate: 0.17553676440208785
Kappa statistic: 0.5384303879484895
Training time: 1.0
		
Iteration: 9
Labeled set size: 537
Unlabelled set size: 1349
	
Mean region size: 65.21739130434783
Incorrectly Classified Instances: 7.104984093319194
Correctly Classified Instances: 92.89501590668081
Weighted Precision: 0.9538258813477732
Weighted AreaUnderROC: 0.9027742832113711
Root mean squared error: 0.22260685316941267
Relative absolute error: 20.11864469065505
Root relative squared error: 44.52137063388253
Weighted TruePositiveRate: 0.9289501590668081
Weighted MatthewsCorrelation: 0.5692803939026794
Weighted FMeasure: 0.9378758611525546
Iteration time: 22.0
Weighted AreaUnderPRC: 0.9667885791460512
Mean absolute error: 0.10059322345327525
Coverage of cases: 99.31071049840934
Instances selection time: 21.0
Test time: 39.0
Accumulative iteration time: 224.0
Weighted Recall: 0.9289501590668081
Weighted FalsePositiveRate: 0.1916266130476099
Kappa statistic: 0.5430425018714136
Training time: 1.0
		
Iteration: 10
Labeled set size: 557
Unlabelled set size: 1329
	
Mean region size: 66.99363732767762
Incorrectly Classified Instances: 7.794273594909862
Correctly Classified Instances: 92.20572640509013
Weighted Precision: 0.9532411634276772
Weighted AreaUnderROC: 0.8917298433043741
Root mean squared error: 0.24011850319121433
Relative absolute error: 22.55449778070139
Root relative squared error: 48.023700638242865
Weighted TruePositiveRate: 0.9220572640509014
Weighted MatthewsCorrelation: 0.5562766500302212
Weighted FMeasure: 0.9330815991079325
Iteration time: 19.0
Weighted AreaUnderPRC: 0.9635103264532885
Mean absolute error: 0.11277248890350694
Coverage of cases: 99.2576882290562
Instances selection time: 18.0
Test time: 27.0
Accumulative iteration time: 243.0
Weighted Recall: 0.9220572640509014
Weighted FalsePositiveRate: 0.1758122047623638
Kappa statistic: 0.5229916897506925
Training time: 1.0
		
Iteration: 11
Labeled set size: 577
Unlabelled set size: 1309
	
Mean region size: 66.67550371155886
Incorrectly Classified Instances: 7.4761399787910925
Correctly Classified Instances: 92.5238600212089
Weighted Precision: 0.9534323023794247
Weighted AreaUnderROC: 0.8913194970459021
Root mean squared error: 0.23398263390599164
Relative absolute error: 21.80568421845763
Root relative squared error: 46.79652678119833
Weighted TruePositiveRate: 0.925238600212089
Weighted MatthewsCorrelation: 0.5617264272027936
Weighted FMeasure: 0.9352745457255773
Iteration time: 19.0
Weighted AreaUnderPRC: 0.9634608640012512
Mean absolute error: 0.10902842109228815
Coverage of cases: 99.2576882290562
Instances selection time: 17.0
Test time: 34.0
Accumulative iteration time: 262.0
Weighted Recall: 0.925238600212089
Weighted FalsePositiveRate: 0.18373662392750412
Kappa statistic: 0.531789098566453
Training time: 2.0
		
Iteration: 12
Labeled set size: 597
Unlabelled set size: 1289
	
Mean region size: 66.118769883351
Incorrectly Classified Instances: 7.264050901378579
Correctly Classified Instances: 92.73594909862142
Weighted Precision: 0.9545524158787446
Weighted AreaUnderROC: 0.8970753622789217
Root mean squared error: 0.2271887688175132
Relative absolute error: 21.006183446893388
Root relative squared error: 45.43775376350264
Weighted TruePositiveRate: 0.9273594909862142
Weighted MatthewsCorrelation: 0.5719614672101578
Weighted FMeasure: 0.9369751873859368
Iteration time: 18.0
Weighted AreaUnderPRC: 0.9645380093231227
Mean absolute error: 0.10503091723446693
Coverage of cases: 99.31071049840934
Instances selection time: 16.0
Test time: 28.0
Accumulative iteration time: 280.0
Weighted Recall: 0.9273594909862142
Weighted FalsePositiveRate: 0.17546790431201884
Kappa statistic: 0.5424032586558042
Training time: 2.0
		
Iteration: 13
Labeled set size: 617
Unlabelled set size: 1269
	
Mean region size: 67.20572640509013
Incorrectly Classified Instances: 8.21845174973489
Correctly Classified Instances: 91.78154825026512
Weighted Precision: 0.9528690939083304
Weighted AreaUnderROC: 0.8926646639358151
Root mean squared error: 0.24611099992722588
Relative absolute error: 23.234377965226287
Root relative squared error: 49.22219998544517
Weighted TruePositiveRate: 0.9178154825026511
Weighted MatthewsCorrelation: 0.548332049052171
Weighted FMeasure: 0.9301339672282045
Iteration time: 37.0
Weighted AreaUnderPRC: 0.9650194215010248
Mean absolute error: 0.11617188982613143
Coverage of cases: 99.31071049840934
Instances selection time: 35.0
Test time: 36.0
Accumulative iteration time: 317.0
Weighted Recall: 0.9178154825026511
Weighted FalsePositiveRate: 0.16795664568729257
Kappa statistic: 0.510965756060023
Training time: 2.0
		
Iteration: 14
Labeled set size: 637
Unlabelled set size: 1249
	
Mean region size: 66.27783669141039
Incorrectly Classified Instances: 7.317073170731708
Correctly Classified Instances: 92.6829268292683
Weighted Precision: 0.9555735914755498
Weighted AreaUnderROC: 0.9006192019055683
Root mean squared error: 0.23300873326326874
Relative absolute error: 21.501793982629067
Root relative squared error: 46.601746652653745
Weighted TruePositiveRate: 0.926829268292683
Weighted MatthewsCorrelation: 0.5779356040707595
Weighted FMeasure: 0.9368528326876424
Iteration time: 18.0
Weighted AreaUnderPRC: 0.9679710762736838
Mean absolute error: 0.10750896991314533
Coverage of cases: 99.31071049840934
Instances selection time: 16.0
Test time: 27.0
Accumulative iteration time: 335.0
Weighted Recall: 0.926829268292683
Weighted FalsePositiveRate: 0.1592403354863588
Kappa statistic: 0.5457246085909278
Training time: 2.0
		
Iteration: 15
Labeled set size: 657
Unlabelled set size: 1229
	
Mean region size: 66.38388123011664
Incorrectly Classified Instances: 7.4761399787910925
Correctly Classified Instances: 92.5238600212089
Weighted Precision: 0.9540141026717693
Weighted AreaUnderROC: 0.9001649648244696
Root mean squared error: 0.22896487082503608
Relative absolute error: 21.024631534420404
Root relative squared error: 45.792974165007216
Weighted TruePositiveRate: 0.925238600212089
Weighted MatthewsCorrelation: 0.5655641337278019
Weighted FMeasure: 0.9354120515189633
Iteration time: 19.0
Weighted AreaUnderPRC: 0.9675886224342142
Mean absolute error: 0.10512315767210202
Coverage of cases: 99.36373276776246
Instances selection time: 17.0
Test time: 27.0
Accumulative iteration time: 354.0
Weighted Recall: 0.925238600212089
Weighted FalsePositiveRate: 0.17560562449215683
Kappa statistic: 0.5345035832192607
Training time: 2.0
		
Iteration: 16
Labeled set size: 677
Unlabelled set size: 1209
	
Mean region size: 65.80063626723224
Incorrectly Classified Instances: 7.370095440084835
Correctly Classified Instances: 92.62990455991516
Weighted Precision: 0.9548606528859188
Weighted AreaUnderROC: 0.9012667262655737
Root mean squared error: 0.22550936882499512
Relative absolute error: 20.39842235476654
Root relative squared error: 45.10187376499902
Weighted TruePositiveRate: 0.9262990455991517
Weighted MatthewsCorrelation: 0.5725506144397152
Weighted FMeasure: 0.9363281926321696
Iteration time: 17.0
Weighted AreaUnderPRC: 0.9685538223910188
Mean absolute error: 0.1019921117738327
Coverage of cases: 99.31071049840934
Instances selection time: 15.0
Test time: 28.0
Accumulative iteration time: 371.0
Weighted Recall: 0.9262990455991517
Weighted FalsePositiveRate: 0.1674057649667406
Kappa statistic: 0.5411063692728886
Training time: 2.0
		
Iteration: 17
Labeled set size: 697
Unlabelled set size: 1189
	
Mean region size: 66.03923647932132
Incorrectly Classified Instances: 7.423117709437964
Correctly Classified Instances: 92.57688229056204
Weighted Precision: 0.9547280304334086
Weighted AreaUnderROC: 0.9018545219822365
Root mean squared error: 0.2276579056524795
Relative absolute error: 20.606893842920094
Root relative squared error: 45.5315811304959
Weighted TruePositiveRate: 0.9257688229056203
Weighted MatthewsCorrelation: 0.5709633045954319
Weighted FMeasure: 0.9359376563497819
Iteration time: 17.0
Weighted AreaUnderPRC: 0.9671834148255105
Mean absolute error: 0.10303446921460047
Coverage of cases: 99.31071049840934
Instances selection time: 15.0
Test time: 27.0
Accumulative iteration time: 388.0
Weighted Recall: 0.9257688229056203
Weighted FalsePositiveRate: 0.1674401950117751
Kappa statistic: 0.5391409072661582
Training time: 2.0
		
Iteration: 18
Labeled set size: 717
Unlabelled set size: 1169
	
Mean region size: 65.3764581124072
Incorrectly Classified Instances: 7.370095440084835
Correctly Classified Instances: 92.62990455991516
Weighted Precision: 0.9548606528859188
Weighted AreaUnderROC: 0.9010530803513422
Root mean squared error: 0.2282110222302307
Relative absolute error: 20.375081672733472
Root relative squared error: 45.642204446046144
Weighted TruePositiveRate: 0.9262990455991517
Weighted MatthewsCorrelation: 0.5725506144397152
Weighted FMeasure: 0.9363281926321696
Iteration time: 17.0
Weighted AreaUnderPRC: 0.9680432564154314
Mean absolute error: 0.10187540836366736
Coverage of cases: 99.2576882290562
Instances selection time: 15.0
Test time: 27.0
Accumulative iteration time: 405.0
Weighted Recall: 0.9262990455991517
Weighted FalsePositiveRate: 0.1674057649667406
Kappa statistic: 0.5411063692728886
Training time: 2.0
		
Iteration: 19
Labeled set size: 737
Unlabelled set size: 1149
	
Mean region size: 64.7932131495228
Incorrectly Classified Instances: 7.423117709437964
Correctly Classified Instances: 92.57688229056204
Weighted Precision: 0.9553098630333853
Weighted AreaUnderROC: 0.8992938846850967
Root mean squared error: 0.23193680646358106
Relative absolute error: 20.312606220004
Root relative squared error: 46.387361292716214
Weighted TruePositiveRate: 0.9257688229056203
Weighted MatthewsCorrelation: 0.5747638552615244
Weighted FMeasure: 0.9360712845710693
Iteration time: 17.0
Weighted AreaUnderPRC: 0.9677416557581205
Mean absolute error: 0.10156303110001999
Coverage of cases: 99.2576882290562
Instances selection time: 15.0
Test time: 27.0
Accumulative iteration time: 422.0
Weighted Recall: 0.9257688229056203
Weighted FalsePositiveRate: 0.15930919557642778
Kappa statistic: 0.5417897341741837
Training time: 2.0
		
Iteration: 20
Labeled set size: 757
Unlabelled set size: 1129
	
Mean region size: 64.55461293743372
Incorrectly Classified Instances: 7.21102863202545
Correctly Classified Instances: 92.78897136797455
Weighted Precision: 0.9558420016989373
Weighted AreaUnderROC: 0.9002660694001927
Root mean squared error: 0.2280481240040427
Relative absolute error: 19.755690125756473
Root relative squared error: 45.60962480080854
Weighted TruePositiveRate: 0.9278897136797455
Weighted MatthewsCorrelation: 0.58114915898843
Weighted FMeasure: 0.9376363275827879
Iteration time: 18.0
Weighted AreaUnderPRC: 0.9680575982000796
Mean absolute error: 0.09877845062878236
Coverage of cases: 99.2576882290562
Instances selection time: 16.0
Test time: 27.0
Accumulative iteration time: 440.0
Weighted Recall: 0.9278897136797455
Weighted FalsePositiveRate: 0.1591714753962898
Kappa statistic: 0.5497052410562867
Training time: 2.0
		
Iteration: 21
Labeled set size: 777
Unlabelled set size: 1109
	
Mean region size: 64.10392364793213
Incorrectly Classified Instances: 7.158006362672323
Correctly Classified Instances: 92.84199363732768
Weighted Precision: 0.9559780041906729
Weighted AreaUnderROC: 0.900197628458498
Root mean squared error: 0.22927380961423144
Relative absolute error: 19.707151106272608
Root relative squared error: 45.854761922846286
Weighted TruePositiveRate: 0.9284199363732768
Weighted MatthewsCorrelation: 0.5827719192972023
Weighted FMeasure: 0.9380288203755529
Iteration time: 19.0
Weighted AreaUnderPRC: 0.9678733143826944
Mean absolute error: 0.09853575553136304
Coverage of cases: 99.20466595970308
Instances selection time: 17.0
Test time: 27.0
Accumulative iteration time: 459.0
Weighted Recall: 0.9284199363732768
Weighted FalsePositiveRate: 0.1591370453512553
Kappa statistic: 0.5517129667125618
Training time: 2.0
		
Iteration: 22
Labeled set size: 797
Unlabelled set size: 1089
	
Mean region size: 63.46765641569459
Incorrectly Classified Instances: 6.945917285259809
Correctly Classified Instances: 93.05408271474019
Weighted Precision: 0.9571043272655707
Weighted AreaUnderROC: 0.9021327766244545
Root mean squared error: 0.22614192754142556
Relative absolute error: 18.98770333526505
Root relative squared error: 45.228385508285115
Weighted TruePositiveRate: 0.9305408271474019
Weighted MatthewsCorrelation: 0.5930943180563126
Weighted FMeasure: 0.9397353981573559
Iteration time: 19.0
Weighted AreaUnderPRC: 0.9684564250882068
Mean absolute error: 0.09493851667632525
Coverage of cases: 99.20466595970308
Instances selection time: 17.0
Test time: 27.0
Accumulative iteration time: 478.0
Weighted Recall: 0.9305408271474019
Weighted FalsePositiveRate: 0.15086832573577008
Kappa statistic: 0.5624439918533606
Training time: 2.0
		
Iteration: 23
Labeled set size: 817
Unlabelled set size: 1069
	
Mean region size: 62.24814422057264
Incorrectly Classified Instances: 6.945917285259809
Correctly Classified Instances: 93.05408271474019
Weighted Precision: 0.9565344028337138
Weighted AreaUnderROC: 0.9027454218518813
Root mean squared error: 0.22508207818159906
Relative absolute error: 18.183222624641285
Root relative squared error: 45.01641563631981
Weighted TruePositiveRate: 0.9305408271474019
Weighted MatthewsCorrelation: 0.589372471913595
Weighted FMeasure: 0.9396039072223739
Iteration time: 16.0
Weighted AreaUnderPRC: 0.9685888510458908
Mean absolute error: 0.09091611312320642
Coverage of cases: 99.20466595970308
Instances selection time: 14.0
Test time: 27.0
Accumulative iteration time: 494.0
Weighted Recall: 0.9305408271474019
Weighted FalsePositiveRate: 0.15899932517111728
Kappa statistic: 0.5598623289355078
Training time: 2.0
		
Iteration: 24
Labeled set size: 837
Unlabelled set size: 1049
	
Mean region size: 61.717921527041355
Incorrectly Classified Instances: 6.786850477200424
Correctly Classified Instances: 93.21314952279958
Weighted Precision: 0.9569652210501879
Weighted AreaUnderROC: 0.9032289095016746
Root mean squared error: 0.22527812543862485
Relative absolute error: 17.905971107247762
Root relative squared error: 45.05562508772497
Weighted TruePositiveRate: 0.9321314952279958
Weighted MatthewsCorrelation: 0.5944415745520392
Weighted FMeasure: 0.9407907752310432
Iteration time: 17.0
Weighted AreaUnderPRC: 0.9686642009277576
Mean absolute error: 0.08952985553623881
Coverage of cases: 99.20466595970308
Instances selection time: 15.0
Test time: 27.0
Accumulative iteration time: 511.0
Weighted Recall: 0.9321314952279958
Weighted FalsePositiveRate: 0.15889603503601382
Kappa statistic: 0.5661016949152543
Training time: 2.0
		
Iteration: 25
Labeled set size: 857
Unlabelled set size: 1029
	
Mean region size: 61.320254506892894
Incorrectly Classified Instances: 6.733828207847296
Correctly Classified Instances: 93.2661717921527
Weighted Precision: 0.9571115038631676
Weighted AreaUnderROC: 0.9060250183676805
Root mean squared error: 0.22008702576545694
Relative absolute error: 17.093529364740366
Root relative squared error: 44.01740515309139
Weighted TruePositiveRate: 0.9326617179215271
Weighted MatthewsCorrelation: 0.5961546147205569
Weighted FMeasure: 0.9411874910972854
Iteration time: 16.0
Weighted AreaUnderPRC: 0.9691884141806983
Mean absolute error: 0.08546764682370182
Coverage of cases: 99.20466595970308
Instances selection time: 14.0
Test time: 27.0
Accumulative iteration time: 527.0
Weighted Recall: 0.9326617179215271
Weighted FalsePositiveRate: 0.15886160499097932
Kappa statistic: 0.5682063189319184
Training time: 2.0
		
Iteration: 26
Labeled set size: 877
Unlabelled set size: 1009
	
Mean region size: 60.816542948038176
Incorrectly Classified Instances: 6.521739130434782
Correctly Classified Instances: 93.47826086956522
Weighted Precision: 0.9582676794995414
Weighted AreaUnderROC: 0.9070676499488339
Root mean squared error: 0.21741864998721308
Relative absolute error: 16.635782476916
Root relative squared error: 43.483729997442616
Weighted TruePositiveRate: 0.9347826086956522
Weighted MatthewsCorrelation: 0.6067819022185731
Weighted FMeasure: 0.9429108821394495
Iteration time: 19.0
Weighted AreaUnderPRC: 0.9696107741436016
Mean absolute error: 0.08317891238458
Coverage of cases: 99.20466595970308
Instances selection time: 16.0
Test time: 28.0
Accumulative iteration time: 546.0
Weighted Recall: 0.9347826086956522
Weighted FalsePositiveRate: 0.1505928853754941
Kappa statistic: 0.5792942354217072
Training time: 3.0
		
Iteration: 27
Labeled set size: 897
Unlabelled set size: 989
	
Mean region size: 60.5779427359491
Incorrectly Classified Instances: 6.415694591728526
Correctly Classified Instances: 93.58430540827148
Weighted Precision: 0.9591271543874161
Weighted AreaUnderROC: 0.9055819186576715
Root mean squared error: 0.2165558361415937
Relative absolute error: 16.39043147250703
Root relative squared error: 43.311167228318745
Weighted TruePositiveRate: 0.9358430540827147
Weighted MatthewsCorrelation: 0.6139472415016841
Weighted FMeasure: 0.9438391604786456
Iteration time: 15.0
Weighted AreaUnderPRC: 0.9693045042794833
Mean absolute error: 0.08195215736253514
Coverage of cases: 99.20466595970308
Instances selection time: 13.0
Test time: 28.0
Accumulative iteration time: 561.0
Weighted Recall: 0.9358430540827147
Weighted FalsePositiveRate: 0.14239302585007782
Kappa statistic: 0.5861349795611913
Training time: 2.0
		
Iteration: 28
Labeled set size: 917
Unlabelled set size: 969
	
Mean region size: 60.31283138918346
Incorrectly Classified Instances: 6.2036055143160125
Correctly Classified Instances: 93.79639448568399
Weighted Precision: 0.9597472383060754
Weighted AreaUnderROC: 0.9062051922903046
Root mean squared error: 0.2145493061992878
Relative absolute error: 16.025101538863186
Root relative squared error: 42.90986123985756
Weighted TruePositiveRate: 0.9379639448568399
Weighted MatthewsCorrelation: 0.6211456638629671
Weighted FMeasure: 0.945444883431153
Iteration time: 15.0
Weighted AreaUnderPRC: 0.9693617722997204
Mean absolute error: 0.08012550769431594
Coverage of cases: 99.20466595970308
Instances selection time: 13.0
Test time: 27.0
Accumulative iteration time: 576.0
Weighted Recall: 0.9379639448568399
Weighted FalsePositiveRate: 0.14225530566993982
Kappa statistic: 0.5949506037321624
Training time: 2.0
		
Iteration: 29
Labeled set size: 937
Unlabelled set size: 949
	
Mean region size: 60.12725344644751
Incorrectly Classified Instances: 6.150583244962885
Correctly Classified Instances: 93.84941675503711
Weighted Precision: 0.9593603187089507
Weighted AreaUnderROC: 0.9065142243988664
Root mean squared error: 0.21329414556279222
Relative absolute error: 15.834713376251363
Root relative squared error: 42.65882911255844
Weighted TruePositiveRate: 0.9384941675503712
Weighted MatthewsCorrelation: 0.6194035984674826
Weighted FMeasure: 0.9457197646835304
Iteration time: 20.0
Weighted AreaUnderPRC: 0.9693483240370069
Mean absolute error: 0.07917356688125682
Coverage of cases: 99.20466595970308
Instances selection time: 17.0
Test time: 27.0
Accumulative iteration time: 596.0
Weighted Recall: 0.9384941675503712
Weighted FalsePositiveRate: 0.1503518750602526
Kappa statistic: 0.5947166595654029
Training time: 3.0
		
Iteration: 30
Labeled set size: 957
Unlabelled set size: 929
	
Mean region size: 59.94167550371156
Incorrectly Classified Instances: 6.256627783669141
Correctly Classified Instances: 93.74337221633085
Weighted Precision: 0.9584923161245441
Weighted AreaUnderROC: 0.9063518942213211
Root mean squared error: 0.21232001604169448
Relative absolute error: 15.546081926523831
Root relative squared error: 42.464003208338895
Weighted TruePositiveRate: 0.9374337221633086
Weighted MatthewsCorrelation: 0.6121258946310686
Weighted FMeasure: 0.9447838985573845
Iteration time: 15.0
Weighted AreaUnderPRC: 0.9693156637851812
Mean absolute error: 0.07773040963261915
Coverage of cases: 99.20466595970308
Instances selection time: 12.0
Test time: 27.0
Accumulative iteration time: 611.0
Weighted Recall: 0.9374337221633086
Weighted FalsePositiveRate: 0.15855173458566882
Kappa statistic: 0.587729015764806
Training time: 3.0
		
Iteration: 31
Labeled set size: 977
Unlabelled set size: 909
	
Mean region size: 59.88865323435843
Incorrectly Classified Instances: 5.938494167550371
Correctly Classified Instances: 94.06150583244963
Weighted Precision: 0.9600191207397873
Weighted AreaUnderROC: 0.9067669409294196
Root mean squared error: 0.21102295051926584
Relative absolute error: 15.354027959886285
Root relative squared error: 42.20459010385317
Weighted TruePositiveRate: 0.9406150583244963
Weighted MatthewsCorrelation: 0.6269084069842675
Weighted FMeasure: 0.9473385833956776
Iteration time: 17.0
Weighted AreaUnderPRC: 0.9693114749949492
Mean absolute error: 0.07677013979943142
Coverage of cases: 99.20466595970308
Instances selection time: 12.0
Test time: 27.0
Accumulative iteration time: 628.0
Weighted Recall: 0.9406150583244963
Weighted FalsePositiveRate: 0.1502141548801146
Kappa statistic: 0.6038305581917008
Training time: 5.0
		
Iteration: 32
Labeled set size: 997
Unlabelled set size: 889
	
Mean region size: 59.72958642629904
Incorrectly Classified Instances: 5.885471898197243
Correctly Classified Instances: 94.11452810180276
Weighted Precision: 0.960723854397635
Weighted AreaUnderROC: 0.9076212850729887
Root mean squared error: 0.20897464538090882
Relative absolute error: 15.097535440377511
Root relative squared error: 41.79492907618177
Weighted TruePositiveRate: 0.9411452810180275
Weighted MatthewsCorrelation: 0.6323392534118609
Weighted FMeasure: 0.9478721432165463
Iteration time: 26.0
Weighted AreaUnderPRC: 0.9696019653150469
Mean absolute error: 0.07548767720188755
Coverage of cases: 99.20466595970308
Instances selection time: 23.0
Test time: 28.0
Accumulative iteration time: 654.0
Weighted Recall: 0.9411452810180275
Weighted FalsePositiveRate: 0.14204872539973282
Kappa statistic: 0.6085834695106216
Training time: 3.0
		
Iteration: 33
Labeled set size: 1017
Unlabelled set size: 869
	
Mean region size: 59.70307529162248
Incorrectly Classified Instances: 5.938494167550371
Correctly Classified Instances: 94.06150583244963
Weighted Precision: 0.9600191207397873
Weighted AreaUnderROC: 0.9078445414606603
Root mean squared error: 0.20881933578203693
Relative absolute error: 15.046857957432557
Root relative squared error: 41.763867156407386
Weighted TruePositiveRate: 0.9406150583244963
Weighted MatthewsCorrelation: 0.6269084069842675
Weighted FMeasure: 0.9473385833956776
Iteration time: 15.0
Weighted AreaUnderPRC: 0.9694640762423123
Mean absolute error: 0.07523428978716279
Coverage of cases: 99.15164369034994
Instances selection time: 12.0
Test time: 27.0
Accumulative iteration time: 669.0
Weighted Recall: 0.9406150583244963
Weighted FalsePositiveRate: 0.1502141548801146
Kappa statistic: 0.6038305581917008
Training time: 3.0
		
Iteration: 34
Labeled set size: 1037
Unlabelled set size: 849
	
Mean region size: 59.51749734888653
Incorrectly Classified Instances: 5.938494167550371
Correctly Classified Instances: 94.06150583244963
Weighted Precision: 0.9600191207397873
Weighted AreaUnderROC: 0.9082486603718565
Root mean squared error: 0.20782715815925926
Relative absolute error: 14.888987943163992
Root relative squared error: 41.56543163185185
Weighted TruePositiveRate: 0.9406150583244963
Weighted MatthewsCorrelation: 0.6269084069842675
Weighted FMeasure: 0.9473385833956776
Iteration time: 14.0
Weighted AreaUnderPRC: 0.9694830780641582
Mean absolute error: 0.07444493971581996
Coverage of cases: 99.15164369034994
Instances selection time: 12.0
Test time: 27.0
Accumulative iteration time: 683.0
Weighted Recall: 0.9406150583244963
Weighted FalsePositiveRate: 0.1502141548801146
Kappa statistic: 0.6038305581917008
Training time: 2.0
		
Iteration: 35
Labeled set size: 1057
Unlabelled set size: 829
	
Mean region size: 59.41145281018028
Incorrectly Classified Instances: 5.726405090137858
Correctly Classified Instances: 94.27359490986214
Weighted Precision: 0.9612345288646366
Weighted AreaUnderROC: 0.9082313255926608
Root mean squared error: 0.2070289869303799
Relative absolute error: 14.766822983317429
Root relative squared error: 41.40579738607598
Weighted TruePositiveRate: 0.9427359490986215
Weighted MatthewsCorrelation: 0.6381243210840994
Weighted FMeasure: 0.9490946382328511
Iteration time: 14.0
Weighted AreaUnderPRC: 0.969330889840781
Mean absolute error: 0.07383411491658715
Coverage of cases: 99.15164369034994
Instances selection time: 11.0
Test time: 28.0
Accumulative iteration time: 697.0
Weighted Recall: 0.9427359490986215
Weighted FalsePositiveRate: 0.14194543526462935
Kappa statistic: 0.6155916312179878
Training time: 3.0
		
Iteration: 36
Labeled set size: 1077
Unlabelled set size: 809
	
Mean region size: 59.72958642629904
Incorrectly Classified Instances: 5.832449628844114
Correctly Classified Instances: 94.16755037115588
Weighted Precision: 0.9608923614603334
Weighted AreaUnderROC: 0.909493800496152
Root mean squared error: 0.208633526869724
Relative absolute error: 15.110750888188527
Root relative squared error: 41.7267053739448
Weighted TruePositiveRate: 0.9416755037115588
Weighted MatthewsCorrelation: 0.6342532404422916
Weighted FMeasure: 0.9482789658350405
Iteration time: 17.0
Weighted AreaUnderPRC: 0.9692737543846403
Mean absolute error: 0.07555375444094263
Coverage of cases: 99.20466595970308
Instances selection time: 11.0
Test time: 27.0
Accumulative iteration time: 714.0
Weighted Recall: 0.9416755037115588
Weighted FalsePositiveRate: 0.1420142953546983
Kappa statistic: 0.6109050125097057
Training time: 6.0
		
Iteration: 37
Labeled set size: 1097
Unlabelled set size: 789
	
Mean region size: 59.676564156945915
Incorrectly Classified Instances: 5.726405090137858
Correctly Classified Instances: 94.27359490986214
Weighted Precision: 0.9612345288646366
Weighted AreaUnderROC: 0.9097190628081863
Root mean squared error: 0.20748244394945262
Relative absolute error: 14.96271400840894
Root relative squared error: 41.49648878989052
Weighted TruePositiveRate: 0.9427359490986215
Weighted MatthewsCorrelation: 0.6381243210840994
Weighted FMeasure: 0.9490946382328511
Iteration time: 14.0
Weighted AreaUnderPRC: 0.9693278047813216
Mean absolute error: 0.0748135700420447
Coverage of cases: 99.20466595970308
Instances selection time: 11.0
Test time: 28.0
Accumulative iteration time: 728.0
Weighted Recall: 0.9427359490986215
Weighted FalsePositiveRate: 0.14194543526462935
Kappa statistic: 0.6155916312179878
Training time: 3.0
		
Iteration: 38
Labeled set size: 1117
Unlabelled set size: 769
	
Mean region size: 59.51749734888653
Incorrectly Classified Instances: 5.726405090137858
Correctly Classified Instances: 94.27359490986214
Weighted Precision: 0.9607049866219959
Weighted AreaUnderROC: 0.9068066103291332
Root mean squared error: 0.20786456565280662
Relative absolute error: 15.006434967604473
Root relative squared error: 41.572913130561325
Weighted TruePositiveRate: 0.9427359490986215
Weighted MatthewsCorrelation: 0.6346399176945972
Weighted FMeasure: 0.9489680334519246
Iteration time: 13.0
Weighted AreaUnderPRC: 0.9689325776136916
Mean absolute error: 0.07503217483802237
Coverage of cases: 99.09862142099682
Instances selection time: 10.0
Test time: 27.0
Accumulative iteration time: 741.0
Weighted Recall: 0.9427359490986215
Weighted FalsePositiveRate: 0.1500764346999766
Kappa statistic: 0.6131737573163276
Training time: 3.0
		
Iteration: 39
Labeled set size: 1137
Unlabelled set size: 749
	
Mean region size: 59.94167550371156
Incorrectly Classified Instances: 5.779427359490986
Correctly Classified Instances: 94.22057264050902
Weighted Precision: 0.9605308880131881
Weighted AreaUnderROC: 0.9076787084002724
Root mean squared error: 0.2121762689737976
Relative absolute error: 15.75635223717187
Root relative squared error: 42.43525379475952
Weighted TruePositiveRate: 0.9422057264050901
Weighted MatthewsCorrelation: 0.6326851326958169
Weighted FMeasure: 0.9485596451425301
Iteration time: 13.0
Weighted AreaUnderPRC: 0.9684307216511707
Mean absolute error: 0.07878176118585935
Coverage of cases: 99.09862142099682
Instances selection time: 10.0
Test time: 27.0
Accumulative iteration time: 754.0
Weighted Recall: 0.9422057264050901
Weighted FalsePositiveRate: 0.15011086474501112
Kappa statistic: 0.6108159888530872
Training time: 3.0
		
Iteration: 40
Labeled set size: 1157
Unlabelled set size: 729
	
Mean region size: 60.76352067868505
Incorrectly Classified Instances: 6.2036055143160125
Correctly Classified Instances: 93.79639448568399
Weighted Precision: 0.9591996518624768
Weighted AreaUnderROC: 0.9079678908393926
Root mean squared error: 0.21894710283615074
Relative absolute error: 16.983335687471524
Root relative squared error: 43.789420567230145
Weighted TruePositiveRate: 0.9379639448568399
Weighted MatthewsCorrelation: 0.617561467155275
Weighted FMeasure: 0.9453166603563178
Iteration time: 14.0
Weighted AreaUnderPRC: 0.9677572034925944
Mean absolute error: 0.08491667843735762
Coverage of cases: 99.09862142099682
Instances selection time: 10.0
Test time: 27.0
Accumulative iteration time: 768.0
Weighted Recall: 0.9379639448568399
Weighted FalsePositiveRate: 0.1503863051052871
Kappa statistic: 0.5924730269305921
Training time: 4.0
		
Iteration: 41
Labeled set size: 1177
Unlabelled set size: 709
	
Mean region size: 60.68398727465536
Incorrectly Classified Instances: 6.2036055143160125
Correctly Classified Instances: 93.79639448568399
Weighted Precision: 0.9591996518624768
Weighted AreaUnderROC: 0.9085227235303311
Root mean squared error: 0.21751569761858078
Relative absolute error: 16.775906676504082
Root relative squared error: 43.50313952371616
Weighted TruePositiveRate: 0.9379639448568399
Weighted MatthewsCorrelation: 0.617561467155275
Weighted FMeasure: 0.9453166603563178
Iteration time: 13.0
Weighted AreaUnderPRC: 0.9679660484338724
Mean absolute error: 0.08387953338252041
Coverage of cases: 99.09862142099682
Instances selection time: 10.0
Test time: 27.0
Accumulative iteration time: 781.0
Weighted Recall: 0.9379639448568399
Weighted FalsePositiveRate: 0.1503863051052871
Kappa statistic: 0.5924730269305921
Training time: 3.0
		
Iteration: 42
Labeled set size: 1197
Unlabelled set size: 689
	
Mean region size: 60.52492046659597
Incorrectly Classified Instances: 6.150583244962885
Correctly Classified Instances: 93.84941675503711
Weighted Precision: 0.9593603187089507
Weighted AreaUnderROC: 0.908434642493382
Root mean squared error: 0.21766759277197867
Relative absolute error: 16.751200409136132
Root relative squared error: 43.533518554395734
Weighted TruePositiveRate: 0.9384941675503712
Weighted MatthewsCorrelation: 0.6194035984674826
Weighted FMeasure: 0.9457197646835304
Iteration time: 12.0
Weighted AreaUnderPRC: 0.968322468902919
Mean absolute error: 0.08375600204568066
Coverage of cases: 99.09862142099682
Instances selection time: 9.0
Test time: 27.0
Accumulative iteration time: 793.0
Weighted Recall: 0.9384941675503712
Weighted FalsePositiveRate: 0.1503518750602526
Kappa statistic: 0.5947166595654029
Training time: 3.0
		
Iteration: 43
Labeled set size: 1217
Unlabelled set size: 669
	
Mean region size: 61.21420996818664
Incorrectly Classified Instances: 6.362672322375397
Correctly Classified Instances: 93.6373276776246
Weighted Precision: 0.9587269410507655
Weighted AreaUnderROC: 0.907921994092403
Root mean squared error: 0.22127227316761078
Relative absolute error: 17.43569037416127
Root relative squared error: 44.25445463352216
Weighted TruePositiveRate: 0.936373276776246
Weighted MatthewsCorrelation: 0.6121141122449932
Weighted FMeasure: 0.944111063380419
Iteration time: 13.0
Weighted AreaUnderPRC: 0.9679120726255291
Mean absolute error: 0.08717845187080633
Coverage of cases: 99.04559915164369
Instances selection time: 9.0
Test time: 27.0
Accumulative iteration time: 806.0
Weighted Recall: 0.936373276776246
Weighted FalsePositiveRate: 0.1504895952403906
Kappa statistic: 0.585823722535567
Training time: 4.0
		
Iteration: 44
Labeled set size: 1237
Unlabelled set size: 649
	
Mean region size: 61.10816542948038
Incorrectly Classified Instances: 6.415694591728526
Correctly Classified Instances: 93.58430540827148
Weighted Precision: 0.9580187349159144
Weighted AreaUnderROC: 0.9075563470141367
Root mean squared error: 0.22219106020729007
Relative absolute error: 17.442519469978553
Root relative squared error: 44.438212041458016
Weighted TruePositiveRate: 0.9358430540827147
Weighted MatthewsCorrelation: 0.6066881150588899
Weighted FMeasure: 0.9435797512407651
Iteration time: 12.0
Weighted AreaUnderPRC: 0.96775995890039
Mean absolute error: 0.08721259734989276
Coverage of cases: 99.04559915164369
Instances selection time: 9.0
Test time: 27.0
Accumulative iteration time: 818.0
Weighted Recall: 0.9358430540827147
Weighted FalsePositiveRate: 0.1586550247207723
Kappa statistic: 0.5811027611247149
Training time: 3.0
		
Iteration: 45
Labeled set size: 1257
Unlabelled set size: 629
	
Mean region size: 61.87698833510074
Incorrectly Classified Instances: 6.680805938494167
Correctly Classified Instances: 93.31919406150583
Weighted Precision: 0.9572591582189366
Weighted AreaUnderROC: 0.9082743182401996
Root mean squared error: 0.22672142543795987
Relative absolute error: 18.281070377221635
Root relative squared error: 45.34428508759197
Weighted TruePositiveRate: 0.9331919406150583
Weighted MatthewsCorrelation: 0.5978795621060917
Weighted FMeasure: 0.9415847649643424
Iteration time: 12.0
Weighted AreaUnderPRC: 0.966900261776846
Mean absolute error: 0.09140535188610818
Coverage of cases: 99.04559915164369
Instances selection time: 8.0
Test time: 27.0
Accumulative iteration time: 830.0
Weighted Recall: 0.9331919406150583
Weighted FalsePositiveRate: 0.1588271749459448
Kappa statistic: 0.5703235465358062
Training time: 4.0
		
Iteration: 46
Labeled set size: 1277
Unlabelled set size: 609
	
Mean region size: 61.770943796394484
Incorrectly Classified Instances: 6.680805938494167
Correctly Classified Instances: 93.31919406150583
Weighted Precision: 0.9572591582189366
Weighted AreaUnderROC: 0.9087456805263067
Root mean squared error: 0.22607653233391548
Relative absolute error: 18.14069147871402
Root relative squared error: 45.2153064667831
Weighted TruePositiveRate: 0.9331919406150583
Weighted MatthewsCorrelation: 0.5978795621060917
Weighted FMeasure: 0.9415847649643424
Iteration time: 11.0
Weighted AreaUnderPRC: 0.9668724997468051
Mean absolute error: 0.09070345739357011
Coverage of cases: 99.04559915164369
Instances selection time: 8.0
Test time: 28.0
Accumulative iteration time: 841.0
Weighted Recall: 0.9331919406150583
Weighted FalsePositiveRate: 0.1588271749459448
Kappa statistic: 0.5703235465358062
Training time: 3.0
		
Time end:Wed Nov 01 08.11.34 EET 2017