Wed Nov 01 08.34.46 EET 2017
Dataset: sick
Test set size: 1886
Initial Labelled set size: 377
Initial Unlabelled set size: 1509
Batch mode: QBestBatchMode
Batch size: 20
Classifiers: RandomForest-1cores
Scenario: PoolBasedSamplingScenario
Query strategy: KullbackLeiblerDivergenceQueryStrategy-1cores
Time begining: Wed Nov 01 08.34.46 EET 2017
		
Iteration: 1
Labeled set size: 377
Unlabelled set size: 1509
	
Mean region size: 60.2067868504772
Incorrectly Classified Instances: 3.1283138918345705
Correctly Classified Instances: 96.87168610816543
Weighted Precision: 0.9672445006337074
Weighted AreaUnderROC: 0.9682980719773564
Root mean squared error: 0.1495343954165787
Relative absolute error: 10.414728202141665
Root relative squared error: 29.90687908331574
Weighted TruePositiveRate: 0.9687168610816543
Weighted MatthewsCorrelation: 0.6876428312849644
Weighted FMeasure: 0.9649044626599996
Iteration time: 21.0
Weighted AreaUnderPRC: 0.9870630562997107
Mean absolute error: 0.05207364101070833
Coverage of cases: 99.78791092258749
Instances selection time: 9.0
Test time: 9.0
Accumulative iteration time: 21.0
Weighted Recall: 0.9687168610816543
Weighted FalsePositiveRate: 0.43297434273044033
Kappa statistic: 0.66229233561357
Training time: 12.0
		
Iteration: 2
Labeled set size: 397
Unlabelled set size: 1489
	
Mean region size: 62.30116648992577
Incorrectly Classified Instances: 3.658536585365854
Correctly Classified Instances: 96.34146341463415
Weighted Precision: 0.9605024380204011
Weighted AreaUnderROC: 0.9465473251447709
Root mean squared error: 0.16485364112096076
Relative absolute error: 12.610794627388058
Root relative squared error: 32.97072822419215
Weighted TruePositiveRate: 0.9634146341463414
Weighted MatthewsCorrelation: 0.6253447165463072
Weighted FMeasure: 0.9584624036374191
Iteration time: 21.0
Weighted AreaUnderPRC: 0.9785663535287705
Mean absolute error: 0.06305397313694029
Coverage of cases: 99.57582184517497
Instances selection time: 9.0
Test time: 9.0
Accumulative iteration time: 42.0
Weighted Recall: 0.9634146341463414
Weighted FalsePositiveRate: 0.4902356392282161
Kappa statistic: 0.5969511326399769
Training time: 12.0
		
Iteration: 3
Labeled set size: 417
Unlabelled set size: 1469
	
Mean region size: 61.42629904559915
Incorrectly Classified Instances: 3.2343584305408273
Correctly Classified Instances: 96.76564156945918
Weighted Precision: 0.9651800907543959
Weighted AreaUnderROC: 0.9380830428734896
Root mean squared error: 0.16525819950864365
Relative absolute error: 11.742375773321871
Root relative squared error: 33.05163990172873
Weighted TruePositiveRate: 0.9676564156945917
Weighted MatthewsCorrelation: 0.6878261424041466
Weighted FMeasure: 0.9654545027626347
Iteration time: 25.0
Weighted AreaUnderPRC: 0.9757818492955393
Mean absolute error: 0.058711878866609356
Coverage of cases: 99.52279957582185
Instances selection time: 8.0
Test time: 8.0
Accumulative iteration time: 67.0
Weighted Recall: 0.9676564156945917
Weighted FalsePositiveRate: 0.36799520733773117
Kappa statistic: 0.6798105236205351
Training time: 17.0
		
Iteration: 4
Labeled set size: 437
Unlabelled set size: 1449
	
Mean region size: 63.229056203605516
Incorrectly Classified Instances: 4.188759278897137
Correctly Classified Instances: 95.81124072110286
Weighted Precision: 0.9550827383953927
Weighted AreaUnderROC: 0.9261793188599405
Root mean squared error: 0.17777690016955547
Relative absolute error: 13.350578926308012
Root relative squared error: 35.55538003391109
Weighted TruePositiveRate: 0.9581124072110286
Weighted MatthewsCorrelation: 0.5497544715086894
Weighted FMeasure: 0.9498924227496333
Iteration time: 20.0
Weighted AreaUnderPRC: 0.9714355042585167
Mean absolute error: 0.06675289463154006
Coverage of cases: 99.6288441145281
Instances selection time: 8.0
Test time: 9.0
Accumulative iteration time: 87.0
Weighted Recall: 0.9581124072110286
Weighted FalsePositiveRate: 0.5962829323380755
Kappa statistic: 0.49728387397175267
Training time: 12.0
		
Iteration: 5
Labeled set size: 457
Unlabelled set size: 1429
	
Mean region size: 59.06680805938494
Incorrectly Classified Instances: 3.2343584305408273
Correctly Classified Instances: 96.76564156945918
Weighted Precision: 0.966721577498033
Weighted AreaUnderROC: 0.9443564365921321
Root mean squared error: 0.15428007182720316
Relative absolute error: 9.940528539678196
Root relative squared error: 30.856014365440632
Weighted TruePositiveRate: 0.9676564156945917
Weighted MatthewsCorrelation: 0.6737997288294133
Weighted FMeasure: 0.9630524305054465
Iteration time: 27.0
Weighted AreaUnderPRC: 0.9829662639035115
Mean absolute error: 0.04970264269839098
Coverage of cases: 99.57582184517497
Instances selection time: 8.0
Test time: 9.0
Accumulative iteration time: 114.0
Weighted Recall: 0.9676564156945917
Weighted FalsePositiveRate: 0.4655672005618984
Kappa statistic: 0.6399884842378004
Training time: 19.0
		
Iteration: 6
Labeled set size: 477
Unlabelled set size: 1409
	
Mean region size: 59.43796394485684
Incorrectly Classified Instances: 3.8176033934252387
Correctly Classified Instances: 96.18239660657476
Weighted Precision: 0.9604199651549329
Weighted AreaUnderROC: 0.9405368871526832
Root mean squared error: 0.1666750074184642
Relative absolute error: 11.165584762380416
Root relative squared error: 33.335001483692835
Weighted TruePositiveRate: 0.9618239660657476
Weighted MatthewsCorrelation: 0.5995816867462394
Weighted FMeasure: 0.954803508502579
Iteration time: 23.0
Weighted AreaUnderPRC: 0.9786490249665116
Mean absolute error: 0.05582792381190208
Coverage of cases: 99.46977730646871
Instances selection time: 9.0
Test time: 8.0
Accumulative iteration time: 137.0
Weighted Recall: 0.9618239660657476
Weighted FalsePositiveRate: 0.5553869248460978
Kappa statistic: 0.5493817737749962
Training time: 14.0
		
Iteration: 7
Labeled set size: 497
Unlabelled set size: 1389
	
Mean region size: 60.498409331919405
Incorrectly Classified Instances: 3.499469777306469
Correctly Classified Instances: 96.50053022269353
Weighted Precision: 0.9643646438946888
Weighted AreaUnderROC: 0.9615040660386227
Root mean squared error: 0.15861642021006164
Relative absolute error: 11.250231076822908
Root relative squared error: 31.723284042012327
Weighted TruePositiveRate: 0.9650053022269353
Weighted MatthewsCorrelation: 0.6406313015153501
Weighted FMeasure: 0.9591212278847157
Iteration time: 23.0
Weighted AreaUnderPRC: 0.9852423727482525
Mean absolute error: 0.05625115538411454
Coverage of cases: 99.68186638388123
Instances selection time: 8.0
Test time: 8.0
Accumulative iteration time: 160.0
Weighted Recall: 0.9650053022269353
Weighted FalsePositiveRate: 0.5145253473991543
Kappa statistic: 0.5958177744585504
Training time: 15.0
		
Iteration: 8
Labeled set size: 517
Unlabelled set size: 1369
	
Mean region size: 62.11558854718982
Incorrectly Classified Instances: 4.984093319194061
Correctly Classified Instances: 95.01590668080594
Weighted Precision: 0.9472587033562644
Weighted AreaUnderROC: 0.8784204453391599
Root mean squared error: 0.19572096746821901
Relative absolute error: 14.580581744306102
Root relative squared error: 39.144193493643805
Weighted TruePositiveRate: 0.9501590668080594
Weighted MatthewsCorrelation: 0.4169754857143734
Weighted FMeasure: 0.9353195298918419
Iteration time: 25.0
Weighted AreaUnderPRC: 0.9600635564481608
Mean absolute error: 0.0729029087215305
Coverage of cases: 99.20466595970308
Instances selection time: 8.0
Test time: 9.0
Accumulative iteration time: 185.0
Weighted Recall: 0.9501590668080594
Weighted FalsePositiveRate: 0.7431573728498436
Kappa statistic: 0.3223140495867772
Training time: 17.0
		
Iteration: 9
Labeled set size: 537
Unlabelled set size: 1349
	
Mean region size: 58.404029692470836
Incorrectly Classified Instances: 3.499469777306469
Correctly Classified Instances: 96.50053022269353
Weighted Precision: 0.9662625967577042
Weighted AreaUnderROC: 0.9560695379128686
Root mean squared error: 0.15761474151379376
Relative absolute error: 10.008586208896341
Root relative squared error: 31.522948302758753
Weighted TruePositiveRate: 0.9650053022269353
Weighted MatthewsCorrelation: 0.64091999743632
Weighted FMeasure: 0.9582837596668651
Iteration time: 25.0
Weighted AreaUnderPRC: 0.9851229657998936
Mean absolute error: 0.05004293104448171
Coverage of cases: 99.6288441145281
Instances selection time: 8.0
Test time: 9.0
Accumulative iteration time: 210.0
Weighted Recall: 0.9650053022269353
Weighted FalsePositiveRate: 0.5389183457051961
Kappa statistic: 0.582342954159592
Training time: 17.0
		
Iteration: 10
Labeled set size: 557
Unlabelled set size: 1329
	
Mean region size: 59.1728525980912
Incorrectly Classified Instances: 4.3478260869565215
Correctly Classified Instances: 95.65217391304348
Weighted Precision: 0.9560755996667301
Weighted AreaUnderROC: 0.960561161831391
Root mean squared error: 0.16873618080564232
Relative absolute error: 10.87070145111268
Root relative squared error: 33.74723616112846
Weighted TruePositiveRate: 0.9565217391304348
Weighted MatthewsCorrelation: 0.5231721385747803
Weighted FMeasure: 0.9458345449258505
Iteration time: 25.0
Weighted AreaUnderPRC: 0.9826522485847969
Mean absolute error: 0.0543535072555634
Coverage of cases: 99.6288441145281
Instances selection time: 9.0
Test time: 8.0
Accumulative iteration time: 235.0
Weighted Recall: 0.9565217391304348
Weighted FalsePositiveRate: 0.6533032185206098
Kappa statistic: 0.4440218290061194
Training time: 16.0
		
Iteration: 11
Labeled set size: 577
Unlabelled set size: 1309
	
Mean region size: 59.4644750795334
Incorrectly Classified Instances: 3.4464475079533403
Correctly Classified Instances: 96.55355249204666
Weighted Precision: 0.9649195083871215
Weighted AreaUnderROC: 0.9509273058998726
Root mean squared error: 0.16135769263930574
Relative absolute error: 11.110276701388802
Root relative squared error: 32.271538527861146
Weighted TruePositiveRate: 0.9655355249204666
Weighted MatthewsCorrelation: 0.6473176535291587
Weighted FMeasure: 0.9598722379015543
Iteration time: 25.0
Weighted AreaUnderPRC: 0.9823191174189355
Mean absolute error: 0.05555138350694401
Coverage of cases: 99.57582184517497
Instances selection time: 8.0
Test time: 8.0
Accumulative iteration time: 260.0
Weighted Recall: 0.9655355249204666
Weighted FalsePositiveRate: 0.5063599179187727
Kappa statistic: 0.604070717575397
Training time: 17.0
		
Iteration: 12
Labeled set size: 597
Unlabelled set size: 1289
	
Mean region size: 58.748674443266175
Incorrectly Classified Instances: 3.9766702014846236
Correctly Classified Instances: 96.02332979851538
Weighted Precision: 0.9586451781275158
Weighted AreaUnderROC: 0.9325232492621491
Root mean squared error: 0.16623548296548374
Relative absolute error: 10.864870356517159
Root relative squared error: 33.24709659309675
Weighted TruePositiveRate: 0.9602332979851538
Weighted MatthewsCorrelation: 0.5778942134960255
Weighted FMeasure: 0.9524295152686391
Iteration time: 25.0
Weighted AreaUnderPRC: 0.9775860314633062
Mean absolute error: 0.054324351782585795
Coverage of cases: 99.41675503711559
Instances selection time: 7.0
Test time: 9.0
Accumulative iteration time: 285.0
Weighted Recall: 0.9602332979851538
Weighted FalsePositiveRate: 0.579883213287243
Kappa statistic: 0.5227378550364741
Training time: 18.0
		
Iteration: 13
Labeled set size: 617
Unlabelled set size: 1269
	
Mean region size: 57.953340402969246
Incorrectly Classified Instances: 3.0752916224814424
Correctly Classified Instances: 96.92470837751856
Weighted Precision: 0.9691869005822328
Weighted AreaUnderROC: 0.9524636044484815
Root mean squared error: 0.14813824675587828
Relative absolute error: 9.119292617289881
Root relative squared error: 29.627649351175656
Weighted TruePositiveRate: 0.9692470837751855
Weighted MatthewsCorrelation: 0.692403098069089
Weighted FMeasure: 0.9647602102853873
Iteration time: 23.0
Weighted AreaUnderPRC: 0.9855942349655271
Mean absolute error: 0.04559646308644941
Coverage of cases: 99.52279957582185
Instances selection time: 7.0
Test time: 7.0
Accumulative iteration time: 308.0
Weighted Recall: 0.9692470837751855
Weighted FalsePositiveRate: 0.4573329109914476
Kappa statistic: 0.6559108667341915
Training time: 16.0
		
Iteration: 14
Labeled set size: 637
Unlabelled set size: 1249
	
Mean region size: 56.97242841993637
Incorrectly Classified Instances: 3.3404029692470836
Correctly Classified Instances: 96.65959703075292
Weighted Precision: 0.9665214866434378
Weighted AreaUnderROC: 0.968260677954532
Root mean squared error: 0.15292256390226747
Relative absolute error: 8.95910513369566
Root relative squared error: 30.584512780453494
Weighted TruePositiveRate: 0.9665959703075292
Weighted MatthewsCorrelation: 0.6603722643479956
Weighted FMeasure: 0.9611069382738142
Iteration time: 26.0
Weighted AreaUnderPRC: 0.9869833503627594
Mean absolute error: 0.0447955256684783
Coverage of cases: 99.6288441145281
Instances selection time: 7.0
Test time: 9.0
Accumulative iteration time: 334.0
Weighted Recall: 0.9665959703075292
Weighted FalsePositiveRate: 0.4981600583933564
Kappa statistic: 0.6162531570346163
Training time: 19.0
		
Iteration: 15
Labeled set size: 657
Unlabelled set size: 1229
	
Mean region size: 59.04029692470838
Incorrectly Classified Instances: 4.294803817603394
Correctly Classified Instances: 95.7051961823966
Weighted Precision: 0.9589303587420325
Weighted AreaUnderROC: 0.9332967875869808
Root mean squared error: 0.17600579053888377
Relative absolute error: 11.149275758541108
Root relative squared error: 35.201158107776756
Weighted TruePositiveRate: 0.957051961823966
Weighted MatthewsCorrelation: 0.5317155087915124
Weighted FMeasure: 0.9458582643481943
Iteration time: 26.0
Weighted AreaUnderPRC: 0.9762161840491944
Mean absolute error: 0.055746378792705546
Coverage of cases: 99.36373276776246
Instances selection time: 7.0
Test time: 8.0
Accumulative iteration time: 360.0
Weighted Recall: 0.957051961823966
Weighted FalsePositiveRate: 0.6613997879109227
Kappa statistic: 0.4408149520121223
Training time: 19.0
		
Iteration: 16
Labeled set size: 677
Unlabelled set size: 1209
	
Mean region size: 57.13149522799576
Incorrectly Classified Instances: 4.08271474019088
Correctly Classified Instances: 95.91728525980912
Weighted Precision: 0.955951119258697
Weighted AreaUnderROC: 0.9597585525728823
Root mean squared error: 0.15744170615435282
Relative absolute error: 9.541718683484795
Root relative squared error: 31.488341230870564
Weighted TruePositiveRate: 0.9591728525980912
Weighted MatthewsCorrelation: 0.5660599358355989
Weighted FMeasure: 0.9518286656618092
Iteration time: 25.0
Weighted AreaUnderPRC: 0.9833626420704094
Mean absolute error: 0.04770859341742398
Coverage of cases: 99.68186638388123
Instances selection time: 6.0
Test time: 9.0
Accumulative iteration time: 385.0
Weighted Recall: 0.9591728525980912
Weighted FalsePositiveRate: 0.5718210739419647
Kappa statistic: 0.5207226354941547
Training time: 19.0
		
Iteration: 17
Labeled set size: 697
Unlabelled set size: 1189
	
Mean region size: 56.83987274655355
Incorrectly Classified Instances: 3.605514316012725
Correctly Classified Instances: 96.39448568398727
Weighted Precision: 0.9627431486071973
Weighted AreaUnderROC: 0.9699035898860695
Root mean squared error: 0.14869651185697824
Relative absolute error: 8.717367591307287
Root relative squared error: 29.73930237139565
Weighted TruePositiveRate: 0.9639448568398727
Weighted MatthewsCorrelation: 0.6274621446529137
Weighted FMeasure: 0.9578824772145557
Iteration time: 26.0
Weighted AreaUnderPRC: 0.9877799009061645
Mean absolute error: 0.04358683795653644
Coverage of cases: 99.78791092258749
Instances selection time: 7.0
Test time: 9.0
Accumulative iteration time: 411.0
Weighted Recall: 0.9639448568398727
Weighted FalsePositiveRate: 0.5227252069245707
Kappa statistic: 0.5835698282300222
Training time: 19.0
		
Iteration: 18
Labeled set size: 717
Unlabelled set size: 1169
	
Mean region size: 59.04029692470838
Incorrectly Classified Instances: 3.711558854718982
Correctly Classified Instances: 96.28844114528101
Weighted Precision: 0.9615870416802552
Weighted AreaUnderROC: 0.9299791982649652
Root mean squared error: 0.1656934242775606
Relative absolute error: 11.059810237766214
Root relative squared error: 33.13868485551212
Weighted TruePositiveRate: 0.9628844114528102
Weighted MatthewsCorrelation: 0.6136617191294439
Weighted FMeasure: 0.956354953394151
Iteration time: 26.0
Weighted AreaUnderPRC: 0.9775286543787761
Mean absolute error: 0.05529905118883107
Coverage of cases: 99.36373276776246
Instances selection time: 7.0
Test time: 8.0
Accumulative iteration time: 437.0
Weighted Recall: 0.9628844114528102
Weighted FalsePositiveRate: 0.5390560658853342
Kappa statistic: 0.5666616337007404
Training time: 19.0
		
Iteration: 19
Labeled set size: 737
Unlabelled set size: 1149
	
Mean region size: 57.47613997879109
Incorrectly Classified Instances: 3.658536585365854
Correctly Classified Instances: 96.34146341463415
Weighted Precision: 0.9610025467724556
Weighted AreaUnderROC: 0.9365881202572613
Root mean squared error: 0.16499737184591523
Relative absolute error: 9.976875288347847
Root relative squared error: 32.99947436918305
Weighted TruePositiveRate: 0.9634146341463414
Weighted MatthewsCorrelation: 0.6229733979010256
Weighted FMeasure: 0.9579452098583895
Iteration time: 31.0
Weighted AreaUnderPRC: 0.9779584473542178
Mean absolute error: 0.04988437644173924
Coverage of cases: 99.36373276776246
Instances selection time: 8.0
Test time: 8.0
Accumulative iteration time: 468.0
Weighted Recall: 0.9634146341463414
Weighted FalsePositiveRate: 0.5064976380989107
Kappa statistic: 0.5885090909090908
Training time: 23.0
		
Iteration: 20
Labeled set size: 757
Unlabelled set size: 1129
	
Mean region size: 57.237539766702014
Incorrectly Classified Instances: 4.029692470837752
Correctly Classified Instances: 95.97030752916224
Weighted Precision: 0.957005304946462
Weighted AreaUnderROC: 0.9246160451195261
Root mean squared error: 0.16347119800976945
Relative absolute error: 9.683449243727516
Root relative squared error: 32.69423960195389
Weighted TruePositiveRate: 0.9597030752916225
Weighted MatthewsCorrelation: 0.5722598204982863
Weighted FMeasure: 0.9522925923082777
Iteration time: 29.0
Weighted AreaUnderPRC: 0.9774948236573964
Mean absolute error: 0.04841724621863758
Coverage of cases: 99.20466595970308
Instances selection time: 7.0
Test time: 8.0
Accumulative iteration time: 497.0
Weighted Recall: 0.9597030752916225
Weighted FalsePositiveRate: 0.5717866438969302
Kappa statistic: 0.524347427873607
Training time: 22.0
		
Iteration: 21
Labeled set size: 777
Unlabelled set size: 1109
	
Mean region size: 58.56309650053022
Incorrectly Classified Instances: 4.135737009544009
Correctly Classified Instances: 95.864262990456
Weighted Precision: 0.9592893230169235
Weighted AreaUnderROC: 0.9270065979941953
Root mean squared error: 0.17131805722025809
Relative absolute error: 10.766943031861656
Root relative squared error: 34.26361144405162
Weighted TruePositiveRate: 0.95864262990456
Weighted MatthewsCorrelation: 0.5546709755273702
Weighted FMeasure: 0.9488719426833733
Iteration time: 30.0
Weighted AreaUnderPRC: 0.9773644182321437
Mean absolute error: 0.05383471515930828
Coverage of cases: 99.31071049840934
Instances selection time: 7.0
Test time: 9.0
Accumulative iteration time: 527.0
Weighted Recall: 0.95864262990456
Weighted FalsePositiveRate: 0.62877250003443
Kappa statistic: 0.47736558261153844
Training time: 23.0
		
Iteration: 22
Labeled set size: 797
Unlabelled set size: 1089
	
Mean region size: 56.57476139978791
Incorrectly Classified Instances: 4.40084835630965
Correctly Classified Instances: 95.59915164369035
Weighted Precision: 0.9566299258469653
Weighted AreaUnderROC: 0.9289733319840746
Root mean squared error: 0.17043766687167222
Relative absolute error: 9.935862371341523
Root relative squared error: 34.08753337433444
Weighted TruePositiveRate: 0.9559915164369035
Weighted MatthewsCorrelation: 0.5150613179126339
Weighted FMeasure: 0.9445214313691375
Iteration time: 30.0
Weighted AreaUnderPRC: 0.9783011122947901
Mean absolute error: 0.04967931185670762
Coverage of cases: 99.2576882290562
Instances selection time: 6.0
Test time: 9.0
Accumulative iteration time: 557.0
Weighted Recall: 0.9559915164369035
Weighted FalsePositiveRate: 0.6695996474363388
Kappa statistic: 0.42700791379020003
Training time: 24.0
		
Iteration: 23
Labeled set size: 817
Unlabelled set size: 1069
	
Mean region size: 56.94591728525981
Incorrectly Classified Instances: 3.8176033934252387
Correctly Classified Instances: 96.18239660657476
Weighted Precision: 0.9633153792199886
Weighted AreaUnderROC: 0.9706786251693807
Root mean squared error: 0.15851201490260733
Relative absolute error: 9.255695857565312
Root relative squared error: 31.702402980521466
Weighted TruePositiveRate: 0.9618239660657476
Weighted MatthewsCorrelation: 0.5994209540843011
Weighted FMeasure: 0.9535059106869396
Iteration time: 29.0
Weighted AreaUnderPRC: 0.9868168740309083
Mean absolute error: 0.046278479287826566
Coverage of cases: 99.6288441145281
Instances selection time: 7.0
Test time: 8.0
Accumulative iteration time: 586.0
Weighted Recall: 0.9618239660657476
Weighted FalsePositiveRate: 0.5879109225874869
Kappa statistic: 0.5286603863962955
Training time: 22.0
		
Iteration: 24
Labeled set size: 837
Unlabelled set size: 1049
	
Mean region size: 58.8016967126193
Incorrectly Classified Instances: 4.665959703075291
Correctly Classified Instances: 95.33404029692471
Weighted Precision: 0.9539043276344412
Weighted AreaUnderROC: 0.9269362409456466
Root mean squared error: 0.1807370841875861
Relative absolute error: 11.634477210913271
Root relative squared error: 36.14741683751722
Weighted TruePositiveRate: 0.953340402969247
Weighted MatthewsCorrelation: 0.4723947852586477
Weighted FMeasure: 0.9399603505406608
Iteration time: 32.0
Weighted AreaUnderPRC: 0.9736104216088399
Mean absolute error: 0.05817238605456636
Coverage of cases: 99.41675503711559
Instances selection time: 7.0
Test time: 9.0
Accumulative iteration time: 618.0
Weighted Recall: 0.953340402969247
Weighted FalsePositiveRate: 0.7104267948382477
Kappa statistic: 0.37350234415697126
Training time: 25.0
		
Iteration: 25
Labeled set size: 857
Unlabelled set size: 1029
	
Mean region size: 55.77942735949099
Incorrectly Classified Instances: 2.1208907741251326
Correctly Classified Instances: 97.87910922587487
Weighted Precision: 0.9780477987256728
Weighted AreaUnderROC: 0.9590871966338793
Root mean squared error: 0.13367059315313407
Relative absolute error: 6.792684852548449
Root relative squared error: 26.734118630626813
Weighted TruePositiveRate: 0.9787910922587487
Weighted MatthewsCorrelation: 0.7996062363630658
Weighted FMeasure: 0.9774043401470706
Iteration time: 27.0
Weighted AreaUnderPRC: 0.9869905920641913
Mean absolute error: 0.033963424262742244
Coverage of cases: 99.46977730646871
Instances selection time: 5.0
Test time: 8.0
Accumulative iteration time: 645.0
Weighted Recall: 0.9787910922587487
Weighted FalsePositiveRate: 0.2778311826031869
Kappa statistic: 0.7910029310564551
Training time: 22.0
		
Iteration: 26
Labeled set size: 877
Unlabelled set size: 1009
	
Mean region size: 57.84729586426299
Incorrectly Classified Instances: 3.9766702014846236
Correctly Classified Instances: 96.02332979851538
Weighted Precision: 0.9592788971367975
Weighted AreaUnderROC: 0.9388612517087781
Root mean squared error: 0.16675851793334903
Relative absolute error: 10.2670144994101
Root relative squared error: 33.35170358666981
Weighted TruePositiveRate: 0.9602332979851538
Weighted MatthewsCorrelation: 0.5773896716147072
Weighted FMeasure: 0.9520917984825691
Iteration time: 30.0
Weighted AreaUnderPRC: 0.9797439139668361
Mean absolute error: 0.0513350724970505
Coverage of cases: 99.36373276776246
Instances selection time: 6.0
Test time: 9.0
Accumulative iteration time: 675.0
Weighted Recall: 0.9602332979851538
Weighted FalsePositiveRate: 0.5880142127225904
Kappa statistic: 0.5173442159786532
Training time: 24.0
		
Iteration: 27
Labeled set size: 897
Unlabelled set size: 989
	
Mean region size: 57.158006362672324
Incorrectly Classified Instances: 3.552492046659597
Correctly Classified Instances: 96.4475079533404
Weighted Precision: 0.964374203342738
Weighted AreaUnderROC: 0.933886409592989
Root mean squared error: 0.15408554379799055
Relative absolute error: 9.044066919588493
Root relative squared error: 30.81710875959811
Weighted TruePositiveRate: 0.9644750795334041
Weighted MatthewsCorrelation: 0.6337230768538482
Weighted FMeasure: 0.9580846831083275
Iteration time: 31.0
Weighted AreaUnderPRC: 0.9813136800818923
Mean absolute error: 0.04522033459794247
Coverage of cases: 99.36373276776246
Instances selection time: 6.0
Test time: 8.0
Accumulative iteration time: 706.0
Weighted Recall: 0.9644750795334041
Weighted FalsePositiveRate: 0.5308217763148834
Kappa statistic: 0.5829664490663432
Training time: 25.0
		
Iteration: 28
Labeled set size: 917
Unlabelled set size: 969
	
Mean region size: 55.965005302226935
Incorrectly Classified Instances: 3.8176033934252387
Correctly Classified Instances: 96.18239660657476
Weighted Precision: 0.9604199651549329
Weighted AreaUnderROC: 0.9471259594755375
Root mean squared error: 0.15837889383526668
Relative absolute error: 8.932450519934461
Root relative squared error: 31.675778767053338
Weighted TruePositiveRate: 0.9618239660657476
Weighted MatthewsCorrelation: 0.5995816867462394
Weighted FMeasure: 0.954803508502579
Iteration time: 32.0
Weighted AreaUnderPRC: 0.9821809754673025
Mean absolute error: 0.044662252599672304
Coverage of cases: 99.52279957582185
Instances selection time: 5.0
Test time: 9.0
Accumulative iteration time: 738.0
Weighted Recall: 0.9618239660657476
Weighted FalsePositiveRate: 0.5553869248460978
Kappa statistic: 0.5493817737749962
Training time: 27.0
		
Iteration: 29
Labeled set size: 937
Unlabelled set size: 949
	
Mean region size: 57.979851537645814
Incorrectly Classified Instances: 3.9236479321314954
Correctly Classified Instances: 96.0763520678685
Weighted Precision: 0.9598541433333532
Weighted AreaUnderROC: 0.9378891268720214
Root mean squared error: 0.1659436130664074
Relative absolute error: 10.13822683615641
Root relative squared error: 33.18872261328148
Weighted TruePositiveRate: 0.9607635206786851
Weighted MatthewsCorrelation: 0.5847176222822176
Weighted FMeasure: 0.9528982442794572
Iteration time: 30.0
Weighted AreaUnderPRC: 0.9791935610476298
Mean absolute error: 0.05069113418078205
Coverage of cases: 99.41675503711559
Instances selection time: 5.0
Test time: 9.0
Accumulative iteration time: 768.0
Weighted Recall: 0.9607635206786851
Weighted FalsePositiveRate: 0.5798487832422086
Kappa statistic: 0.5264554393631967
Training time: 25.0
		
Iteration: 30
Labeled set size: 957
Unlabelled set size: 929
	
Mean region size: 56.12407211028632
Incorrectly Classified Instances: 3.4464475079533403
Correctly Classified Instances: 96.55355249204666
Weighted Precision: 0.96445972655984
Weighted AreaUnderROC: 0.9365757254410488
Root mean squared error: 0.15918228895696665
Relative absolute error: 9.012798305869811
Root relative squared error: 31.83645779139333
Weighted TruePositiveRate: 0.9655355249204666
Weighted MatthewsCorrelation: 0.6476763352066682
Weighted FMeasure: 0.9601307708522352
Iteration time: 31.0
Weighted AreaUnderPRC: 0.9802204561225288
Mean absolute error: 0.045063991529349055
Coverage of cases: 99.41675503711559
Instances selection time: 6.0
Test time: 8.0
Accumulative iteration time: 799.0
Weighted Recall: 0.9655355249204666
Weighted FalsePositiveRate: 0.49822891848342543
Kappa statistic: 0.6082610612964864
Training time: 25.0
		
Iteration: 31
Labeled set size: 977
Unlabelled set size: 909
	
Mean region size: 56.54825026511135
Incorrectly Classified Instances: 3.499469777306469
Correctly Classified Instances: 96.50053022269353
Weighted Precision: 0.9643646438946888
Weighted AreaUnderROC: 0.9534542017528785
Root mean squared error: 0.15424758226873744
Relative absolute error: 8.99169864769236
Root relative squared error: 30.849516453747487
Weighted TruePositiveRate: 0.9650053022269353
Weighted MatthewsCorrelation: 0.6406313015153501
Weighted FMeasure: 0.9591212278847157
Iteration time: 30.0
Weighted AreaUnderPRC: 0.9843653789523087
Mean absolute error: 0.044958493238461794
Coverage of cases: 99.52279957582185
Instances selection time: 5.0
Test time: 9.0
Accumulative iteration time: 829.0
Weighted Recall: 0.9650053022269353
Weighted FalsePositiveRate: 0.5145253473991543
Kappa statistic: 0.5958177744585504
Training time: 25.0
		
Iteration: 32
Labeled set size: 997
Unlabelled set size: 889
	
Mean region size: 56.20360551431601
Incorrectly Classified Instances: 3.658536585365854
Correctly Classified Instances: 96.34146341463415
Weighted Precision: 0.9632937456825549
Weighted AreaUnderROC: 0.9466056466471422
Root mean squared error: 0.1572598769037945
Relative absolute error: 8.916536477336107
Root relative squared error: 31.451975380758903
Weighted TruePositiveRate: 0.9634146341463414
Weighted MatthewsCorrelation: 0.620017040143405
Weighted FMeasure: 0.9565380692998402
Iteration time: 30.0
Weighted AreaUnderPRC: 0.9832568195353292
Mean absolute error: 0.04458268238668054
Coverage of cases: 99.46977730646871
Instances selection time: 5.0
Test time: 9.0
Accumulative iteration time: 859.0
Weighted Recall: 0.9634146341463414
Weighted FalsePositiveRate: 0.547152635275647
Kappa statistic: 0.5657712970069069
Training time: 25.0
		
Iteration: 33
Labeled set size: 1017
Unlabelled set size: 869
	
Mean region size: 56.97242841993637
Incorrectly Classified Instances: 3.658536585365854
Correctly Classified Instances: 96.34146341463415
Weighted Precision: 0.9621663747569064
Weighted AreaUnderROC: 0.9504910622597008
Root mean squared error: 0.15528984856380657
Relative absolute error: 9.242613679284704
Root relative squared error: 31.057969712761313
Weighted TruePositiveRate: 0.9634146341463414
Weighted MatthewsCorrelation: 0.6205957464839151
Weighted FMeasure: 0.9571216510415083
Iteration time: 32.0
Weighted AreaUnderPRC: 0.9824939312860167
Mean absolute error: 0.046213068396423515
Coverage of cases: 99.52279957582185
Instances selection time: 5.0
Test time: 8.0
Accumulative iteration time: 891.0
Weighted Recall: 0.9634146341463414
Weighted FalsePositiveRate: 0.5308906364049524
Kappa statistic: 0.5751614356509982
Training time: 27.0
		
Iteration: 34
Labeled set size: 1037
Unlabelled set size: 849
	
Mean region size: 56.68080593849417
Incorrectly Classified Instances: 3.658536585365854
Correctly Classified Instances: 96.34146341463415
Weighted Precision: 0.9621663747569064
Weighted AreaUnderROC: 0.9599360619094124
Root mean squared error: 0.15272215888151985
Relative absolute error: 8.766498743598222
Root relative squared error: 30.54443177630397
Weighted TruePositiveRate: 0.9634146341463414
Weighted MatthewsCorrelation: 0.6205957464839151
Weighted FMeasure: 0.9571216510415083
Iteration time: 31.0
Weighted AreaUnderPRC: 0.9851382993000872
Mean absolute error: 0.043832493717991104
Coverage of cases: 99.57582184517497
Instances selection time: 5.0
Test time: 8.0
Accumulative iteration time: 922.0
Weighted Recall: 0.9634146341463414
Weighted FalsePositiveRate: 0.5308906364049524
Kappa statistic: 0.5751614356509982
Training time: 26.0
		
Iteration: 35
Labeled set size: 1057
Unlabelled set size: 829
	
Mean region size: 57.7677624602333
Incorrectly Classified Instances: 4.135737009544009
Correctly Classified Instances: 95.864262990456
Weighted Precision: 0.9592893230169235
Weighted AreaUnderROC: 0.9361914561992942
Root mean squared error: 0.16882736486826422
Relative absolute error: 10.303958057532375
Root relative squared error: 33.76547297365284
Weighted TruePositiveRate: 0.95864262990456
Weighted MatthewsCorrelation: 0.5546709755273702
Weighted FMeasure: 0.9488719426833733
Iteration time: 36.0
Weighted AreaUnderPRC: 0.9779491746433603
Mean absolute error: 0.051519790287661876
Coverage of cases: 99.41675503711559
Instances selection time: 6.0
Test time: 8.0
Accumulative iteration time: 958.0
Weighted Recall: 0.95864262990456
Weighted FalsePositiveRate: 0.62877250003443
Kappa statistic: 0.47736558261153844
Training time: 30.0
		
Iteration: 36
Labeled set size: 1077
Unlabelled set size: 809
	
Mean region size: 58.08589607635207
Incorrectly Classified Instances: 4.241781548250265
Correctly Classified Instances: 95.75821845174974
Weighted Precision: 0.955605194987457
Weighted AreaUnderROC: 0.9251080654326539
Root mean squared error: 0.17182663991537186
Relative absolute error: 10.796277907456982
Root relative squared error: 34.36532798307437
Weighted TruePositiveRate: 0.9575821845174973
Weighted MatthewsCorrelation: 0.5400400803483751
Weighted FMeasure: 0.9483399007632661
Iteration time: 35.0
Weighted AreaUnderPRC: 0.9744810945407981
Mean absolute error: 0.05398138953728491
Coverage of cases: 99.36373276776246
Instances selection time: 5.0
Test time: 9.0
Accumulative iteration time: 993.0
Weighted Recall: 0.9575821845174973
Weighted FalsePositiveRate: 0.6207103606891518
Kappa statistic: 0.47628931821810594
Training time: 30.0
		
Iteration: 37
Labeled set size: 1097
Unlabelled set size: 789
	
Mean region size: 55.911983032873806
Incorrectly Classified Instances: 3.022269353128314
Correctly Classified Instances: 96.97773064687169
Weighted Precision: 0.9689592927397805
Weighted AreaUnderROC: 0.9481660761664451
Root mean squared error: 0.1480843880803548
Relative absolute error: 7.976007985584492
Root relative squared error: 29.61687761607096
Weighted TruePositiveRate: 0.9697773064687168
Weighted MatthewsCorrelation: 0.6990707818601828
Weighted FMeasure: 0.9658925871026665
Iteration time: 32.0
Weighted AreaUnderPRC: 0.983925232206307
Mean absolute error: 0.03988003992792246
Coverage of cases: 99.41675503711559
Instances selection time: 4.0
Test time: 8.0
Accumulative iteration time: 1025.0
Weighted Recall: 0.9697773064687168
Weighted FalsePositiveRate: 0.4329054826403713
Kappa statistic: 0.670427302214074
Training time: 28.0
		
Iteration: 38
Labeled set size: 1117
Unlabelled set size: 769
	
Mean region size: 56.09756097560975
Incorrectly Classified Instances: 3.711558854718982
Correctly Classified Instances: 96.28844114528101
Weighted Precision: 0.9634700838348498
Weighted AreaUnderROC: 0.9549695129436012
Root mean squared error: 0.1552343877245608
Relative absolute error: 8.742816137559682
Root relative squared error: 31.04687754491216
Weighted TruePositiveRate: 0.9628844114528102
Weighted MatthewsCorrelation: 0.6131474147679229
Weighted FMeasure: 0.9554442851292163
Iteration time: 43.0
Weighted AreaUnderPRC: 0.9843247846372447
Mean absolute error: 0.04371408068779841
Coverage of cases: 99.52279957582185
Instances selection time: 4.0
Test time: 9.0
Accumulative iteration time: 1068.0
Weighted Recall: 0.9628844114528102
Weighted FalsePositiveRate: 0.563449064191376
Kappa statistic: 0.5520524426408618
Training time: 39.0
		
Iteration: 39
Labeled set size: 1137
Unlabelled set size: 749
	
Mean region size: 55.567338282078474
Incorrectly Classified Instances: 3.022269353128314
Correctly Classified Instances: 96.97773064687169
Weighted Precision: 0.9701856205309041
Weighted AreaUnderROC: 0.9387608057947862
Root mean squared error: 0.14788928769405116
Relative absolute error: 7.9014565511491925
Root relative squared error: 29.577857538810232
Weighted TruePositiveRate: 0.9697773064687168
Weighted MatthewsCorrelation: 0.698727948510839
Weighted FMeasure: 0.9652590864047567
Iteration time: 34.0
Weighted AreaUnderPRC: 0.9836471209218015
Mean absolute error: 0.039507282755745964
Coverage of cases: 99.31071049840934
Instances selection time: 5.0
Test time: 8.0
Accumulative iteration time: 1102.0
Weighted Recall: 0.9697773064687168
Weighted FalsePositiveRate: 0.4572984809464131
Kappa statistic: 0.6600727272727274
Training time: 29.0
		
Iteration: 40
Labeled set size: 1157
Unlabelled set size: 729
	
Mean region size: 56.336161187698835
Incorrectly Classified Instances: 3.711558854718982
Correctly Classified Instances: 96.28844114528101
Weighted Precision: 0.9642956505610684
Weighted AreaUnderROC: 0.9334772609013007
Root mean squared error: 0.15909638388294345
Relative absolute error: 9.061020212421406
Root relative squared error: 31.81927677658869
Weighted TruePositiveRate: 0.9628844114528102
Weighted MatthewsCorrelation: 0.6135355372863971
Weighted FMeasure: 0.9551250236339573
Iteration time: 34.0
Weighted AreaUnderPRC: 0.9807091558695235
Mean absolute error: 0.04530510106210703
Coverage of cases: 99.31071049840934
Instances selection time: 4.0
Test time: 11.0
Accumulative iteration time: 1136.0
Weighted Recall: 0.9628844114528102
Weighted FalsePositiveRate: 0.5715800636267232
Kappa statistic: 0.5469613259668512
Training time: 30.0
		
Iteration: 41
Labeled set size: 1177
Unlabelled set size: 709
	
Mean region size: 57.184517497348885
Incorrectly Classified Instances: 4.3478260869565215
Correctly Classified Instances: 95.65217391304348
Weighted Precision: 0.9551455582857857
Weighted AreaUnderROC: 0.9426493350809825
Root mean squared error: 0.1670968348464061
Relative absolute error: 9.894067253226325
Root relative squared error: 33.41936696928122
Weighted TruePositiveRate: 0.9565217391304348
Weighted MatthewsCorrelation: 0.5235288872060799
Weighted FMeasure: 0.9462499910261105
Iteration time: 38.0
Weighted AreaUnderPRC: 0.9809824871199133
Mean absolute error: 0.04947033626613163
Coverage of cases: 99.52279957582185
Instances selection time: 4.0
Test time: 9.0
Accumulative iteration time: 1174.0
Weighted Recall: 0.9565217391304348
Weighted FalsePositiveRate: 0.6451722190852627
Kappa statistic: 0.4505638176172582
Training time: 34.0
		
Iteration: 42
Labeled set size: 1197
Unlabelled set size: 689
	
Mean region size: 56.654294803817606
Incorrectly Classified Instances: 3.1813361611876987
Correctly Classified Instances: 96.8186638388123
Weighted Precision: 0.9681227320747784
Weighted AreaUnderROC: 0.9568297832464
Root mean squared error: 0.14692083070331133
Relative absolute error: 8.333233943045103
Root relative squared error: 29.384166140662266
Weighted TruePositiveRate: 0.968186638388123
Weighted MatthewsCorrelation: 0.6797501325412029
Weighted FMeasure: 0.9633148216629088
Iteration time: 33.0
Weighted AreaUnderPRC: 0.986228266917092
Mean absolute error: 0.041666169715225514
Coverage of cases: 99.46977730646871
Instances selection time: 4.0
Test time: 8.0
Accumulative iteration time: 1207.0
Weighted Recall: 0.968186638388123
Weighted FalsePositiveRate: 0.47366376995221104
Kappa statistic: 0.6402982892235706
Training time: 29.0
		
Iteration: 43
Labeled set size: 1217
Unlabelled set size: 669
	
Mean region size: 56.60127253446448
Incorrectly Classified Instances: 4.135737009544009
Correctly Classified Instances: 95.864262990456
Weighted Precision: 0.9583449005221759
Weighted AreaUnderROC: 0.948231014225297
Root mean squared error: 0.1708302848081725
Relative absolute error: 10.19185338940248
Root relative squared error: 34.1660569616345
Weighted TruePositiveRate: 0.95864262990456
Weighted MatthewsCorrelation: 0.5546081387702381
Weighted FMeasure: 0.9492566911288581
Iteration time: 43.0
Weighted AreaUnderPRC: 0.9792415761235036
Mean absolute error: 0.0509592669470124
Coverage of cases: 99.52279957582185
Instances selection time: 5.0
Test time: 9.0
Accumulative iteration time: 1250.0
Weighted Recall: 0.95864262990456
Weighted FalsePositiveRate: 0.6206415005990827
Kappa statistic: 0.483443708609272
Training time: 38.0
		
Iteration: 44
Labeled set size: 1237
Unlabelled set size: 649
	
Mean region size: 55.69989395546129
Incorrectly Classified Instances: 3.4464475079533403
Correctly Classified Instances: 96.55355249204666
Weighted Precision: 0.9660588201595462
Weighted AreaUnderROC: 0.9468902184541448
Root mean squared error: 0.1548789133390367
Relative absolute error: 8.475144171296819
Root relative squared error: 30.975782667807337
Weighted TruePositiveRate: 0.9655355249204666
Weighted MatthewsCorrelation: 0.6472557050574981
Weighted FMeasure: 0.9593358865976311
Iteration time: 36.0
Weighted AreaUnderPRC: 0.9841289507565805
Mean absolute error: 0.04237572085648409
Coverage of cases: 99.46977730646871
Instances selection time: 4.0
Test time: 9.0
Accumulative iteration time: 1286.0
Weighted Recall: 0.9655355249204666
Weighted FalsePositiveRate: 0.5226219167894671
Kappa statistic: 0.59541521178078
Training time: 32.0
		
Iteration: 45
Labeled set size: 1257
Unlabelled set size: 629
	
Mean region size: 57.07847295864263
Incorrectly Classified Instances: 3.2873806998939554
Correctly Classified Instances: 96.71261930010604
Weighted Precision: 0.9658000568721306
Weighted AreaUnderROC: 0.9609858190129296
Root mean squared error: 0.15673117521018426
Relative absolute error: 9.035109779267
Root relative squared error: 31.346235042036852
Weighted TruePositiveRate: 0.9671261930010604
Weighted MatthewsCorrelation: 0.6678621009987401
Weighted FMeasure: 0.962562219270783
Iteration time: 37.0
Weighted AreaUnderPRC: 0.9845029398010643
Mean absolute error: 0.045175548896335
Coverage of cases: 99.57582184517497
Instances selection time: 4.0
Test time: 8.0
Accumulative iteration time: 1323.0
Weighted Recall: 0.9671261930010604
Weighted FalsePositiveRate: 0.4656016306069329
Kappa statistic: 0.6359730774738647
Training time: 33.0
		
Iteration: 46
Labeled set size: 1277
Unlabelled set size: 609
	
Mean region size: 56.38918345705196
Incorrectly Classified Instances: 3.76458112407211
Correctly Classified Instances: 96.23541887592789
Weighted Precision: 0.9622076178596388
Weighted AreaUnderROC: 0.9448279785132566
Root mean squared error: 0.1540674795146104
Relative absolute error: 8.890767949509346
Root relative squared error: 30.813495902922078
Weighted TruePositiveRate: 0.9623541887592789
Weighted MatthewsCorrelation: 0.6060339554833617
Weighted FMeasure: 0.9549666077876453
Iteration time: 40.0
Weighted AreaUnderPRC: 0.9831660016090209
Mean absolute error: 0.04445383974754673
Coverage of cases: 99.52279957582185
Instances selection time: 4.0
Test time: 9.0
Accumulative iteration time: 1363.0
Weighted Recall: 0.9623541887592789
Weighted FalsePositiveRate: 0.5634834942364104
Kappa statistic: 0.5481918361011956
Training time: 36.0
		
Time end:Wed Nov 01 08.34.50 EET 2017