Wed Nov 01 08.31.49 EET 2017
Dataset: sick
Test set size: 1886
Initial Labelled set size: 377
Initial Unlabelled set size: 1509
Batch mode: QBestBatchMode
Batch size: 20
Classifiers: IBk-1cores
Scenario: PoolBasedSamplingScenario
Query strategy: KullbackLeiblerDivergenceQueryStrategy-1cores
Time begining: Wed Nov 01 08.31.49 EET 2017
		
Iteration: 1
Labeled set size: 377
Unlabelled set size: 1509
	
Mean region size: 50.0
Incorrectly Classified Instances: 6.256627783669141
Correctly Classified Instances: 93.74337221633085
Weighted Precision: 0.9278357447268987
Weighted AreaUnderROC: 0.6507254560184617
Root mean squared error: 0.24948558572899404
Relative absolute error: 12.97404318556285
Root relative squared error: 49.89711714579881
Weighted TruePositiveRate: 0.9374337221633086
Weighted MatthewsCorrelation: 0.36173201495127266
Weighted FMeasure: 0.9315743232502157
Iteration time: 498.0
Weighted AreaUnderPRC: 0.9102509880869486
Mean absolute error: 0.06487021592781425
Coverage of cases: 93.74337221633085
Instances selection time: 497.0
Test time: 330.0
Accumulative iteration time: 498.0
Weighted Recall: 0.9374337221633086
Weighted FalsePositiveRate: 0.6382807012711573
Kappa statistic: 0.3538132763456655
Training time: 1.0
		
Iteration: 2
Labeled set size: 397
Unlabelled set size: 1489
	
Mean region size: 50.0
Incorrectly Classified Instances: 6.256627783669141
Correctly Classified Instances: 93.74337221633085
Weighted Precision: 0.9278357447268987
Weighted AreaUnderROC: 0.6509169469471927
Root mean squared error: 0.2495173858798581
Relative absolute error: 12.950813403777687
Root relative squared error: 49.903477175971624
Weighted TruePositiveRate: 0.9374337221633086
Weighted MatthewsCorrelation: 0.36173201495127266
Weighted FMeasure: 0.9315743232502157
Iteration time: 516.0
Weighted AreaUnderPRC: 0.9102751964689028
Mean absolute error: 0.06475406701888843
Coverage of cases: 93.74337221633085
Instances selection time: 516.0
Test time: 344.0
Accumulative iteration time: 1014.0
Weighted Recall: 0.9374337221633086
Weighted FalsePositiveRate: 0.6382807012711573
Kappa statistic: 0.3538132763456655
Training time: 0.0
		
Iteration: 3
Labeled set size: 417
Unlabelled set size: 1469
	
Mean region size: 50.0
Incorrectly Classified Instances: 6.256627783669141
Correctly Classified Instances: 93.74337221633085
Weighted Precision: 0.9278357447268987
Weighted AreaUnderROC: 0.6539808018068888
Root mean squared error: 0.24954613944004544
Relative absolute error: 12.92790761046355
Root relative squared error: 49.90922788800909
Weighted TruePositiveRate: 0.9374337221633086
Weighted MatthewsCorrelation: 0.36173201495127266
Weighted FMeasure: 0.9315743232502157
Iteration time: 531.0
Weighted AreaUnderPRC: 0.910662727152402
Mean absolute error: 0.06463953805231774
Coverage of cases: 93.74337221633085
Instances selection time: 531.0
Test time: 350.0
Accumulative iteration time: 1545.0
Weighted Recall: 0.9374337221633086
Weighted FalsePositiveRate: 0.6382807012711573
Kappa statistic: 0.3538132763456655
Training time: 0.0
		
Iteration: 4
Labeled set size: 437
Unlabelled set size: 1449
	
Mean region size: 50.0
Incorrectly Classified Instances: 6.044538706256628
Correctly Classified Instances: 93.95546129374337
Weighted Precision: 0.9295305519829409
Weighted AreaUnderROC: 0.6547271254265583
Root mean squared error: 0.2453062466461487
Relative absolute error: 12.48701188227113
Root relative squared error: 49.06124932922974
Weighted TruePositiveRate: 0.9395546129374337
Weighted MatthewsCorrelation: 0.3739020763876565
Weighted FMeasure: 0.9331569067851584
Iteration time: 820.0
Weighted AreaUnderPRC: 0.911255139454673
Mean absolute error: 0.062435059411355645
Coverage of cases: 93.95546129374337
Instances selection time: 819.0
Test time: 368.0
Accumulative iteration time: 2365.0
Weighted Recall: 0.9395546129374337
Weighted FalsePositiveRate: 0.6381429810910193
Kappa statistic: 0.36347541876617184
Training time: 1.0
		
Iteration: 5
Labeled set size: 457
Unlabelled set size: 1429
	
Mean region size: 50.0
Incorrectly Classified Instances: 6.150583244962885
Correctly Classified Instances: 93.84941675503711
Weighted Precision: 0.9276932846153045
Weighted AreaUnderROC: 0.6453489799425527
Root mean squared error: 0.24747231623003293
Relative absolute error: 12.68129844992254
Root relative squared error: 49.49446324600659
Weighted TruePositiveRate: 0.9384941675503712
Weighted MatthewsCorrelation: 0.35705912435324816
Weighted FMeasure: 0.9315966205377469
Iteration time: 566.0
Weighted AreaUnderPRC: 0.9094678153100579
Mean absolute error: 0.0634064922496127
Coverage of cases: 93.84941675503711
Instances selection time: 566.0
Test time: 380.0
Accumulative iteration time: 2931.0
Weighted Recall: 0.9384941675503712
Weighted FalsePositiveRate: 0.6544738400517828
Kappa statistic: 0.34589464997937003
Training time: 0.0
		
Iteration: 6
Labeled set size: 477
Unlabelled set size: 1409
	
Mean region size: 50.0
Incorrectly Classified Instances: 6.150583244962885
Correctly Classified Instances: 93.84941675503711
Weighted Precision: 0.9276932846153045
Weighted AreaUnderROC: 0.6453489799425527
Root mean squared error: 0.24749414498544234
Relative absolute error: 12.665426380999566
Root relative squared error: 49.49882899708847
Weighted TruePositiveRate: 0.9384941675503712
Weighted MatthewsCorrelation: 0.35705912435324816
Weighted FMeasure: 0.9315966205377469
Iteration time: 584.0
Weighted AreaUnderPRC: 0.9094678153100579
Mean absolute error: 0.06332713190499784
Coverage of cases: 93.84941675503711
Instances selection time: 584.0
Test time: 398.0
Accumulative iteration time: 3515.0
Weighted Recall: 0.9384941675503712
Weighted FalsePositiveRate: 0.6544738400517828
Kappa statistic: 0.34589464997937003
Training time: 0.0
		
Iteration: 7
Labeled set size: 497
Unlabelled set size: 1389
	
Mean region size: 50.0
Incorrectly Classified Instances: 6.150583244962885
Correctly Classified Instances: 93.84941675503711
Weighted Precision: 0.9276932846153045
Weighted AreaUnderROC: 0.6451525789900081
Root mean squared error: 0.24751425358313187
Relative absolute error: 12.650861793869428
Root relative squared error: 49.50285071662638
Weighted TruePositiveRate: 0.9384941675503712
Weighted MatthewsCorrelation: 0.35705912435324816
Weighted FMeasure: 0.9315966205377469
Iteration time: 599.0
Weighted AreaUnderPRC: 0.909443048902691
Mean absolute error: 0.06325430896934714
Coverage of cases: 93.84941675503711
Instances selection time: 598.0
Test time: 415.0
Accumulative iteration time: 4114.0
Weighted Recall: 0.9384941675503712
Weighted FalsePositiveRate: 0.6544738400517828
Kappa statistic: 0.34589464997937003
Training time: 1.0
		
Iteration: 8
Labeled set size: 517
Unlabelled set size: 1369
	
Mean region size: 50.0
Incorrectly Classified Instances: 6.150583244962885
Correctly Classified Instances: 93.84941675503711
Weighted Precision: 0.9276932846153045
Weighted AreaUnderROC: 0.6439741732747404
Root mean squared error: 0.2475328528209668
Relative absolute error: 12.638065878207092
Root relative squared error: 49.50657056419336
Weighted TruePositiveRate: 0.9384941675503712
Weighted MatthewsCorrelation: 0.35705912435324816
Weighted FMeasure: 0.9315966205377469
Iteration time: 610.0
Weighted AreaUnderPRC: 0.9092944817057314
Mean absolute error: 0.06319032939103546
Coverage of cases: 93.84941675503711
Instances selection time: 609.0
Test time: 431.0
Accumulative iteration time: 4724.0
Weighted Recall: 0.9384941675503712
Weighted FalsePositiveRate: 0.6544738400517828
Kappa statistic: 0.34589464997937003
Training time: 1.0
		
Iteration: 9
Labeled set size: 537
Unlabelled set size: 1349
	
Mean region size: 50.0
Incorrectly Classified Instances: 6.150583244962885
Correctly Classified Instances: 93.84941675503711
Weighted Precision: 0.9276932846153045
Weighted AreaUnderROC: 0.6439741732747404
Root mean squared error: 0.24755007292169023
Relative absolute error: 12.625564903441045
Root relative squared error: 49.510014584338045
Weighted TruePositiveRate: 0.9384941675503712
Weighted MatthewsCorrelation: 0.35705912435324816
Weighted FMeasure: 0.9315966205377469
Iteration time: 631.0
Weighted AreaUnderPRC: 0.9092944817057314
Mean absolute error: 0.06312782451720522
Coverage of cases: 93.84941675503711
Instances selection time: 631.0
Test time: 444.0
Accumulative iteration time: 5355.0
Weighted Recall: 0.9384941675503712
Weighted FalsePositiveRate: 0.6544738400517828
Kappa statistic: 0.34589464997937003
Training time: 0.0
		
Iteration: 10
Labeled set size: 557
Unlabelled set size: 1329
	
Mean region size: 50.0
Incorrectly Classified Instances: 5.9915164369035
Correctly Classified Instances: 94.0084835630965
Weighted Precision: 0.9286443231565183
Weighted AreaUnderROC: 0.6413767706773378
Root mean squared error: 0.24434398399380775
Relative absolute error: 12.296710655625795
Root relative squared error: 48.86879679876155
Weighted TruePositiveRate: 0.940084835630965
Weighted MatthewsCorrelation: 0.3614463571334307
Weighted FMeasure: 0.9323835498701988
Iteration time: 637.0
Weighted AreaUnderPRC: 0.9091838564925708
Mean absolute error: 0.061483553278128975
Coverage of cases: 94.0084835630965
Instances selection time: 636.0
Test time: 464.0
Accumulative iteration time: 5992.0
Weighted Recall: 0.940084835630965
Weighted FalsePositiveRate: 0.6625015493520265
Kappa statistic: 0.3466365815822874
Training time: 1.0
		
Iteration: 11
Labeled set size: 577
Unlabelled set size: 1309
	
Mean region size: 50.0
Incorrectly Classified Instances: 5.9915164369035
Correctly Classified Instances: 94.0084835630965
Weighted Precision: 0.9286443231565183
Weighted AreaUnderROC: 0.6413767706773378
Root mean squared error: 0.24435869342151037
Relative absolute error: 12.285875425263391
Root relative squared error: 48.87173868430207
Weighted TruePositiveRate: 0.940084835630965
Weighted MatthewsCorrelation: 0.3614463571334307
Weighted FMeasure: 0.9323835498701988
Iteration time: 661.0
Weighted AreaUnderPRC: 0.9091838564925708
Mean absolute error: 0.06142937712631696
Coverage of cases: 94.0084835630965
Instances selection time: 661.0
Test time: 476.0
Accumulative iteration time: 6653.0
Weighted Recall: 0.940084835630965
Weighted FalsePositiveRate: 0.6625015493520265
Kappa statistic: 0.3466365815822874
Training time: 0.0
		
Iteration: 12
Labeled set size: 597
Unlabelled set size: 1289
	
Mean region size: 50.0
Incorrectly Classified Instances: 5.938494167550371
Correctly Classified Instances: 94.06150583244963
Weighted Precision: 0.9287259262373988
Weighted AreaUnderROC: 0.6376255124837356
Root mean squared error: 0.24328878739252385
Relative absolute error: 12.170073287498422
Root relative squared error: 48.65775747850477
Weighted TruePositiveRate: 0.9406150583244963
Weighted MatthewsCorrelation: 0.35957178191578193
Weighted FMeasure: 0.9323704606181888
Iteration time: 660.0
Weighted AreaUnderPRC: 0.9086767368824709
Mean absolute error: 0.06085036643749211
Coverage of cases: 94.06150583244963
Instances selection time: 660.0
Test time: 492.0
Accumulative iteration time: 7313.0
Weighted Recall: 0.9406150583244963
Weighted FalsePositiveRate: 0.6705981187423392
Kappa statistic: 0.3424029786624665
Training time: 0.0
		
Iteration: 13
Labeled set size: 617
Unlabelled set size: 1269
	
Mean region size: 50.0
Incorrectly Classified Instances: 5.938494167550371
Correctly Classified Instances: 94.06150583244963
Weighted Precision: 0.9287259262373988
Weighted AreaUnderROC: 0.6378268234600937
Root mean squared error: 0.24330158903769186
Relative absolute error: 12.160518080998237
Root relative squared error: 48.66031780753837
Weighted TruePositiveRate: 0.9406150583244963
Weighted MatthewsCorrelation: 0.35957178191578193
Weighted FMeasure: 0.9323704606181888
Iteration time: 669.0
Weighted AreaUnderPRC: 0.9087020127463846
Mean absolute error: 0.06080259040499119
Coverage of cases: 94.06150583244963
Instances selection time: 669.0
Test time: 510.0
Accumulative iteration time: 7982.0
Weighted Recall: 0.9406150583244963
Weighted FalsePositiveRate: 0.6705981187423392
Kappa statistic: 0.3424029786624665
Training time: 0.0
		
Iteration: 14
Labeled set size: 637
Unlabelled set size: 1249
	
Mean region size: 50.0
Incorrectly Classified Instances: 5.832449628844114
Correctly Classified Instances: 94.16755037115588
Weighted Precision: 0.9298194146998735
Weighted AreaUnderROC: 0.6383914761986595
Root mean squared error: 0.24113146297693244
Relative absolute error: 11.94021858978804
Root relative squared error: 48.22629259538649
Weighted TruePositiveRate: 0.9416755037115588
Weighted MatthewsCorrelation: 0.36674604863531496
Weighted FMeasure: 0.9331659160584932
Iteration time: 682.0
Weighted AreaUnderPRC: 0.9090646658341199
Mean absolute error: 0.0597010929489402
Coverage of cases: 94.16755037115588
Instances selection time: 681.0
Test time: 514.0
Accumulative iteration time: 8664.0
Weighted Recall: 0.9416755037115588
Weighted FalsePositiveRate: 0.6705292586522703
Kappa statistic: 0.34741716104760534
Training time: 1.0
		
Iteration: 15
Labeled set size: 657
Unlabelled set size: 1229
	
Mean region size: 50.0
Incorrectly Classified Instances: 5.832449628844114
Correctly Classified Instances: 94.16755037115588
Weighted Precision: 0.9298194146998735
Weighted AreaUnderROC: 0.6383914761986595
Root mean squared error: 0.2411426487473896
Relative absolute error: 11.931862865953988
Root relative squared error: 48.22852974947792
Weighted TruePositiveRate: 0.9416755037115588
Weighted MatthewsCorrelation: 0.36674604863531496
Weighted FMeasure: 0.9331659160584932
Iteration time: 711.0
Weighted AreaUnderPRC: 0.9090646658341199
Mean absolute error: 0.05965931432976994
Coverage of cases: 94.16755037115588
Instances selection time: 710.0
Test time: 529.0
Accumulative iteration time: 9375.0
Weighted Recall: 0.9416755037115588
Weighted FalsePositiveRate: 0.6705292586522703
Kappa statistic: 0.34741716104760534
Training time: 1.0
		
Iteration: 16
Labeled set size: 677
Unlabelled set size: 1209
	
Mean region size: 50.0
Incorrectly Classified Instances: 5.885471898197243
Correctly Classified Instances: 94.11452810180276
Weighted Precision: 0.9288617886178862
Weighted AreaUnderROC: 0.6346893182431934
Root mean squared error: 0.24224680795841882
Relative absolute error: 12.029445560467114
Root relative squared error: 48.44936159168377
Weighted TruePositiveRate: 0.9411452810180275
Weighted MatthewsCorrelation: 0.35783247076667907
Weighted FMeasure: 0.9323466419461051
Iteration time: 713.0
Weighted AreaUnderPRC: 0.9082777376642226
Mean absolute error: 0.060147227802335564
Coverage of cases: 94.11452810180276
Instances selection time: 713.0
Test time: 551.0
Accumulative iteration time: 10088.0
Weighted Recall: 0.9411452810180275
Weighted FalsePositiveRate: 0.6786946881326521
Kappa statistic: 0.33803636363636347
Training time: 0.0
		
Iteration: 17
Labeled set size: 697
Unlabelled set size: 1189
	
Mean region size: 50.0
Incorrectly Classified Instances: 5.6203605514316015
Correctly Classified Instances: 94.3796394485684
Weighted Precision: 0.9319347381448593
Weighted AreaUnderROC: 0.6361009500896079
Root mean squared error: 0.23673788583241615
Relative absolute error: 11.493343571522423
Root relative squared error: 47.34757716648323
Weighted TruePositiveRate: 0.943796394485684
Weighted MatthewsCorrelation: 0.37724816426662255
Weighted FMeasure: 0.9343462144815131
Iteration time: 705.0
Weighted AreaUnderPRC: 0.909255458082231
Mean absolute error: 0.05746671785761212
Coverage of cases: 94.3796394485684
Instances selection time: 704.0
Test time: 585.0
Accumulative iteration time: 10793.0
Weighted Recall: 0.943796394485684
Weighted FalsePositiveRate: 0.6785225379074795
Kappa statistic: 0.35085884988797583
Training time: 1.0
		
Iteration: 18
Labeled set size: 717
Unlabelled set size: 1169
	
Mean region size: 50.0
Incorrectly Classified Instances: 5.726405090137858
Correctly Classified Instances: 94.27359490986214
Weighted Precision: 0.9296880232786942
Weighted AreaUnderROC: 0.6234650038052685
Root mean squared error: 0.23897004810522196
Relative absolute error: 11.697815593256722
Root relative squared error: 47.794009621044395
Weighted TruePositiveRate: 0.9427359490986215
Weighted MatthewsCorrelation: 0.3536848905146614
Weighted FMeasure: 0.9322052627538684
Iteration time: 724.0
Weighted AreaUnderPRC: 0.9068226831421963
Mean absolute error: 0.05848907796628361
Coverage of cases: 94.27359490986214
Instances selection time: 723.0
Test time: 581.0
Accumulative iteration time: 11517.0
Weighted Recall: 0.9427359490986215
Weighted FalsePositiveRate: 0.7029843963035903
Kappa statistic: 0.3240726606624949
Training time: 1.0
		
Iteration: 19
Labeled set size: 737
Unlabelled set size: 1149
	
Mean region size: 50.0
Incorrectly Classified Instances: 5.726405090137858
Correctly Classified Instances: 94.27359490986214
Weighted Precision: 0.9296880232786942
Weighted AreaUnderROC: 0.6240983968772248
Root mean squared error: 0.23897884824438703
Relative absolute error: 11.690945938109126
Root relative squared error: 47.7957696488774
Weighted TruePositiveRate: 0.9427359490986215
Weighted MatthewsCorrelation: 0.3536848905146614
Weighted FMeasure: 0.9322052627538684
Iteration time: 739.0
Weighted AreaUnderPRC: 0.9069017429779307
Mean absolute error: 0.058454729690545625
Coverage of cases: 94.27359490986214
Instances selection time: 738.0
Test time: 602.0
Accumulative iteration time: 12256.0
Weighted Recall: 0.9427359490986215
Weighted FalsePositiveRate: 0.7029843963035903
Kappa statistic: 0.3240726606624949
Training time: 1.0
		
Iteration: 20
Labeled set size: 757
Unlabelled set size: 1129
	
Mean region size: 50.0
Incorrectly Classified Instances: 5.779427359490986
Correctly Classified Instances: 94.22057264050902
Weighted Precision: 0.9286744779212498
Weighted AreaUnderROC: 0.6191589129207276
Root mean squared error: 0.24009103905207593
Relative absolute error: 11.790691898563166
Root relative squared error: 48.018207810415184
Weighted TruePositiveRate: 0.9422057264050901
Weighted MatthewsCorrelation: 0.3441548736118847
Weighted FMeasure: 0.9313427471548199
Iteration time: 733.0
Weighted AreaUnderPRC: 0.9059489772940512
Mean absolute error: 0.05895345949281583
Coverage of cases: 94.22057264050902
Instances selection time: 732.0
Test time: 611.0
Accumulative iteration time: 12989.0
Weighted Recall: 0.9422057264050901
Weighted FalsePositiveRate: 0.711149825783972
Kappa statistic: 0.3140445126630856
Training time: 1.0
		
Iteration: 21
Labeled set size: 777
Unlabelled set size: 1109
	
Mean region size: 50.0
Incorrectly Classified Instances: 5.779427359490986
Correctly Classified Instances: 94.22057264050902
Weighted Precision: 0.9286744779212498
Weighted AreaUnderROC: 0.6191589129207276
Root mean squared error: 0.24009899946485191
Relative absolute error: 11.784739685517383
Root relative squared error: 48.01979989297038
Weighted TruePositiveRate: 0.9422057264050901
Weighted MatthewsCorrelation: 0.3441548736118847
Weighted FMeasure: 0.9313427471548199
Iteration time: 748.0
Weighted AreaUnderPRC: 0.9059489772940512
Mean absolute error: 0.05892369842758692
Coverage of cases: 94.22057264050902
Instances selection time: 747.0
Test time: 636.0
Accumulative iteration time: 13737.0
Weighted Recall: 0.9422057264050901
Weighted FalsePositiveRate: 0.711149825783972
Kappa statistic: 0.3140445126630856
Training time: 1.0
		
Iteration: 22
Labeled set size: 797
Unlabelled set size: 1089
	
Mean region size: 50.0
Incorrectly Classified Instances: 5.779427359490986
Correctly Classified Instances: 94.22057264050902
Weighted Precision: 0.9286744779212498
Weighted AreaUnderROC: 0.6191589129207276
Root mean squared error: 0.24010656549782652
Relative absolute error: 11.779085457508032
Root relative squared error: 48.021313099565305
Weighted TruePositiveRate: 0.9422057264050901
Weighted MatthewsCorrelation: 0.3441548736118847
Weighted FMeasure: 0.9313427471548199
Iteration time: 752.0
Weighted AreaUnderPRC: 0.9059489772940512
Mean absolute error: 0.05889542728754016
Coverage of cases: 94.22057264050902
Instances selection time: 752.0
Test time: 641.0
Accumulative iteration time: 14489.0
Weighted Recall: 0.9422057264050901
Weighted FalsePositiveRate: 0.711149825783972
Kappa statistic: 0.3140445126630856
Training time: 0.0
		
Iteration: 23
Labeled set size: 817
Unlabelled set size: 1069
	
Mean region size: 50.0
Incorrectly Classified Instances: 5.779427359490986
Correctly Classified Instances: 94.22057264050902
Weighted Precision: 0.9286744779212498
Weighted AreaUnderROC: 0.6191589129207276
Root mean squared error: 0.24011376574711663
Relative absolute error: 11.77370738399345
Root relative squared error: 48.02275314942332
Weighted TruePositiveRate: 0.9422057264050901
Weighted MatthewsCorrelation: 0.3441548736118847
Weighted FMeasure: 0.9313427471548199
Iteration time: 764.0
Weighted AreaUnderPRC: 0.9059489772940512
Mean absolute error: 0.058868536919967254
Coverage of cases: 94.22057264050902
Instances selection time: 763.0
Test time: 656.0
Accumulative iteration time: 15253.0
Weighted Recall: 0.9422057264050901
Weighted FalsePositiveRate: 0.711149825783972
Kappa statistic: 0.3140445126630856
Training time: 1.0
		
Iteration: 24
Labeled set size: 837
Unlabelled set size: 1049
	
Mean region size: 50.0
Incorrectly Classified Instances: 5.779427359490986
Correctly Classified Instances: 94.22057264050902
Weighted Precision: 0.9286744779212498
Weighted AreaUnderROC: 0.6191589129207276
Root mean squared error: 0.2401206261097586
Relative absolute error: 11.768585716021498
Root relative squared error: 48.02412522195172
Weighted TruePositiveRate: 0.9422057264050901
Weighted MatthewsCorrelation: 0.3441548736118847
Weighted FMeasure: 0.9313427471548199
Iteration time: 751.0
Weighted AreaUnderPRC: 0.9059489772940512
Mean absolute error: 0.058842928580107486
Coverage of cases: 94.22057264050902
Instances selection time: 750.0
Test time: 672.0
Accumulative iteration time: 16004.0
Weighted Recall: 0.9422057264050901
Weighted FalsePositiveRate: 0.711149825783972
Kappa statistic: 0.3140445126630856
Training time: 1.0
		
Iteration: 25
Labeled set size: 857
Unlabelled set size: 1029
	
Mean region size: 50.0
Incorrectly Classified Instances: 5.832449628844114
Correctly Classified Instances: 94.16755037115588
Weighted Precision: 0.9276399912966501
Weighted AreaUnderROC: 0.6146367809883878
Root mean squared error: 0.24122613154103853
Relative absolute error: 11.869561833940276
Root relative squared error: 48.245226308207705
Weighted TruePositiveRate: 0.9416755037115588
Weighted MatthewsCorrelation: 0.33447428437638854
Weighted FMeasure: 0.9304729327781084
Iteration time: 778.0
Weighted AreaUnderPRC: 0.9050529630115588
Mean absolute error: 0.05934780916970138
Coverage of cases: 94.16755037115588
Instances selection time: 778.0
Test time: 676.0
Accumulative iteration time: 16782.0
Weighted Recall: 0.9416755037115588
Weighted FalsePositiveRate: 0.7193152552643538
Kappa statistic: 0.303904923599321
Training time: 0.0
		
Iteration: 26
Labeled set size: 877
Unlabelled set size: 1009
	
Mean region size: 50.0
Incorrectly Classified Instances: 5.885471898197243
Correctly Classified Instances: 94.11452810180276
Weighted Precision: 0.9265832205384078
Weighted AreaUnderROC: 0.6094542508531167
Root mean squared error: 0.24232642051251727
Relative absolute error: 11.970949358480365
Root relative squared error: 48.46528410250345
Weighted TruePositiveRate: 0.9411452810180275
Weighted MatthewsCorrelation: 0.3246365356100001
Weighted FMeasure: 0.9295956825975861
Iteration time: 768.0
Weighted AreaUnderPRC: 0.9040795818822623
Mean absolute error: 0.059854746792401825
Coverage of cases: 94.11452810180276
Instances selection time: 767.0
Test time: 698.0
Accumulative iteration time: 17550.0
Weighted Recall: 0.9411452810180275
Weighted FalsePositiveRate: 0.7274806847447356
Kappa statistic: 0.2936520254539809
Training time: 1.0
		
Iteration: 27
Labeled set size: 897
Unlabelled set size: 989
	
Mean region size: 50.0
Incorrectly Classified Instances: 5.885471898197243
Correctly Classified Instances: 94.11452810180276
Weighted Precision: 0.9265832205384078
Weighted AreaUnderROC: 0.6094542508531167
Root mean squared error: 0.24233245048947458
Relative absolute error: 11.966499828744038
Root relative squared error: 48.46649009789491
Weighted TruePositiveRate: 0.9411452810180275
Weighted MatthewsCorrelation: 0.3246365356100001
Weighted FMeasure: 0.9295956825975861
Iteration time: 775.0
Weighted AreaUnderPRC: 0.9040795818822623
Mean absolute error: 0.059832499143720186
Coverage of cases: 94.11452810180276
Instances selection time: 775.0
Test time: 716.0
Accumulative iteration time: 18325.0
Weighted Recall: 0.9411452810180275
Weighted FalsePositiveRate: 0.7274806847447356
Kappa statistic: 0.2936520254539809
Training time: 0.0
		
Iteration: 28
Labeled set size: 917
Unlabelled set size: 969
	
Mean region size: 50.0
Incorrectly Classified Instances: 5.885471898197243
Correctly Classified Instances: 94.11452810180276
Weighted Precision: 0.9265832205384078
Weighted AreaUnderROC: 0.6094542508531167
Root mean squared error: 0.24233822032909208
Relative absolute error: 11.962243968089687
Root relative squared error: 48.46764406581842
Weighted TruePositiveRate: 0.9411452810180275
Weighted MatthewsCorrelation: 0.3246365356100001
Weighted FMeasure: 0.9295956825975861
Iteration time: 762.0
Weighted AreaUnderPRC: 0.9040795818822623
Mean absolute error: 0.05981121984044844
Coverage of cases: 94.11452810180276
Instances selection time: 762.0
Test time: 726.0
Accumulative iteration time: 19087.0
Weighted Recall: 0.9411452810180275
Weighted FalsePositiveRate: 0.7274806847447356
Kappa statistic: 0.2936520254539809
Training time: 0.0
		
Iteration: 29
Labeled set size: 937
Unlabelled set size: 949
	
Mean region size: 50.0
Incorrectly Classified Instances: 5.885471898197243
Correctly Classified Instances: 94.11452810180276
Weighted Precision: 0.9265832205384078
Weighted AreaUnderROC: 0.6092357547934109
Root mean squared error: 0.24234374743813009
Relative absolute error: 11.958225807989738
Root relative squared error: 48.46874948762602
Weighted TruePositiveRate: 0.9411452810180275
Weighted MatthewsCorrelation: 0.3246365356100001
Weighted FMeasure: 0.9295956825975861
Iteration time: 759.0
Weighted AreaUnderPRC: 0.9040523628788445
Mean absolute error: 0.05979112903994869
Coverage of cases: 94.11452810180276
Instances selection time: 758.0
Test time: 747.0
Accumulative iteration time: 19846.0
Weighted Recall: 0.9411452810180275
Weighted FalsePositiveRate: 0.7274806847447356
Kappa statistic: 0.2936520254539809
Training time: 1.0
		
Iteration: 30
Labeled set size: 957
Unlabelled set size: 929
	
Mean region size: 50.0
Incorrectly Classified Instances: 5.885471898197243
Correctly Classified Instances: 94.11452810180276
Weighted Precision: 0.9265832205384078
Weighted AreaUnderROC: 0.6096727469128225
Root mean squared error: 0.2423490430843566
Relative absolute error: 11.954191118573634
Root relative squared error: 48.46980861687132
Weighted TruePositiveRate: 0.9411452810180275
Weighted MatthewsCorrelation: 0.3246365356100001
Weighted FMeasure: 0.9295956825975861
Iteration time: 750.0
Weighted AreaUnderPRC: 0.9041068025348583
Mean absolute error: 0.05977095559286817
Coverage of cases: 94.11452810180276
Instances selection time: 750.0
Test time: 753.0
Accumulative iteration time: 20596.0
Weighted Recall: 0.9411452810180275
Weighted FalsePositiveRate: 0.7274806847447356
Kappa statistic: 0.2936520254539809
Training time: 0.0
		
Iteration: 31
Labeled set size: 977
Unlabelled set size: 909
	
Mean region size: 50.0
Incorrectly Classified Instances: 5.885471898197243
Correctly Classified Instances: 94.11452810180276
Weighted Precision: 0.9265832205384078
Weighted AreaUnderROC: 0.6096727469128225
Root mean squared error: 0.24235412610361007
Relative absolute error: 11.9504475425704
Root relative squared error: 48.47082522072201
Weighted TruePositiveRate: 0.9411452810180275
Weighted MatthewsCorrelation: 0.3246365356100001
Weighted FMeasure: 0.9295956825975861
Iteration time: 767.0
Weighted AreaUnderPRC: 0.9041068025348583
Mean absolute error: 0.059752237712852
Coverage of cases: 94.11452810180276
Instances selection time: 767.0
Test time: 773.0
Accumulative iteration time: 21363.0
Weighted Recall: 0.9411452810180275
Weighted FalsePositiveRate: 0.7274806847447356
Kappa statistic: 0.2936520254539809
Training time: 0.0
		
Iteration: 32
Labeled set size: 997
Unlabelled set size: 889
	
Mean region size: 50.0
Incorrectly Classified Instances: 5.885471898197243
Correctly Classified Instances: 94.11452810180276
Weighted Precision: 0.9265832205384078
Weighted AreaUnderROC: 0.6096727469128225
Root mean squared error: 0.24235900725037382
Relative absolute error: 11.946853860080253
Root relative squared error: 48.471801450074764
Weighted TruePositiveRate: 0.9411452810180275
Weighted MatthewsCorrelation: 0.3246365356100001
Weighted FMeasure: 0.9295956825975861
Iteration time: 758.0
Weighted AreaUnderPRC: 0.9041068025348583
Mean absolute error: 0.059734269300401266
Coverage of cases: 94.11452810180276
Instances selection time: 758.0
Test time: 785.0
Accumulative iteration time: 22121.0
Weighted Recall: 0.9411452810180275
Weighted FalsePositiveRate: 0.7274806847447356
Kappa statistic: 0.2936520254539809
Training time: 0.0
		
Iteration: 33
Labeled set size: 1017
Unlabelled set size: 869
	
Mean region size: 50.0
Incorrectly Classified Instances: 5.885471898197243
Correctly Classified Instances: 94.11452810180276
Weighted Precision: 0.9265832205384078
Weighted AreaUnderROC: 0.6096727469128225
Root mean squared error: 0.24236369831571355
Relative absolute error: 11.943401245151774
Root relative squared error: 48.47273966314271
Weighted TruePositiveRate: 0.9411452810180275
Weighted MatthewsCorrelation: 0.3246365356100001
Weighted FMeasure: 0.9295956825975861
Iteration time: 753.0
Weighted AreaUnderPRC: 0.9041068025348583
Mean absolute error: 0.05971700622575887
Coverage of cases: 94.11452810180276
Instances selection time: 752.0
Test time: 804.0
Accumulative iteration time: 22874.0
Weighted Recall: 0.9411452810180275
Weighted FalsePositiveRate: 0.7274806847447356
Kappa statistic: 0.2936520254539809
Training time: 1.0
		
Iteration: 34
Labeled set size: 1037
Unlabelled set size: 849
	
Mean region size: 50.0
Incorrectly Classified Instances: 5.885471898197243
Correctly Classified Instances: 94.11452810180276
Weighted Precision: 0.9265832205384078
Weighted AreaUnderROC: 0.6096727469128225
Root mean squared error: 0.2423682101900217
Relative absolute error: 11.940081551408316
Root relative squared error: 48.473642038004336
Weighted TruePositiveRate: 0.9411452810180275
Weighted MatthewsCorrelation: 0.3246365356100001
Weighted FMeasure: 0.9295956825975861
Iteration time: 746.0
Weighted AreaUnderPRC: 0.9041068025348583
Mean absolute error: 0.05970040775704158
Coverage of cases: 94.11452810180276
Instances selection time: 745.0
Test time: 830.0
Accumulative iteration time: 23620.0
Weighted Recall: 0.9411452810180275
Weighted FalsePositiveRate: 0.7274806847447356
Kappa statistic: 0.2936520254539809
Training time: 1.0
		
Iteration: 35
Labeled set size: 1057
Unlabelled set size: 829
	
Mean region size: 50.0
Incorrectly Classified Instances: 5.885471898197243
Correctly Classified Instances: 94.11452810180276
Weighted Precision: 0.9265832205384078
Weighted AreaUnderROC: 0.6096727469128225
Root mean squared error: 0.24237255294741644
Relative absolute error: 11.936887247876706
Root relative squared error: 48.47451058948329
Weighted TruePositiveRate: 0.9411452810180275
Weighted MatthewsCorrelation: 0.3246365356100001
Weighted FMeasure: 0.9295956825975861
Iteration time: 747.0
Weighted AreaUnderPRC: 0.9041068025348583
Mean absolute error: 0.05968443623938353
Coverage of cases: 94.11452810180276
Instances selection time: 746.0
Test time: 827.0
Accumulative iteration time: 24367.0
Weighted Recall: 0.9411452810180275
Weighted FalsePositiveRate: 0.7274806847447356
Kappa statistic: 0.2936520254539809
Training time: 1.0
		
Iteration: 36
Labeled set size: 1077
Unlabelled set size: 809
	
Mean region size: 50.0
Incorrectly Classified Instances: 5.885471898197243
Correctly Classified Instances: 94.11452810180276
Weighted Precision: 0.9265832205384078
Weighted AreaUnderROC: 0.6096727469128225
Root mean squared error: 0.2423767359207954
Relative absolute error: 11.933811361953355
Root relative squared error: 48.47534718415908
Weighted TruePositiveRate: 0.9411452810180275
Weighted MatthewsCorrelation: 0.3246365356100001
Weighted FMeasure: 0.9295956825975861
Iteration time: 734.0
Weighted AreaUnderPRC: 0.9041068025348583
Mean absolute error: 0.05966905680976677
Coverage of cases: 94.11452810180276
Instances selection time: 734.0
Test time: 859.0
Accumulative iteration time: 25101.0
Weighted Recall: 0.9411452810180275
Weighted FalsePositiveRate: 0.7274806847447356
Kappa statistic: 0.2936520254539809
Training time: 0.0
		
Iteration: 37
Labeled set size: 1097
Unlabelled set size: 789
	
Mean region size: 50.0
Incorrectly Classified Instances: 5.885471898197243
Correctly Classified Instances: 94.11452810180276
Weighted Precision: 0.9265832205384078
Weighted AreaUnderROC: 0.6096727469128225
Root mean squared error: 0.2423807677687773
Relative absolute error: 11.930847428595866
Root relative squared error: 48.47615355375546
Weighted TruePositiveRate: 0.9411452810180275
Weighted MatthewsCorrelation: 0.3246365356100001
Weighted FMeasure: 0.9295956825975861
Iteration time: 731.0
Weighted AreaUnderPRC: 0.9041068025348583
Mean absolute error: 0.059654237142979336
Coverage of cases: 94.11452810180276
Instances selection time: 730.0
Test time: 861.0
Accumulative iteration time: 25832.0
Weighted Recall: 0.9411452810180275
Weighted FalsePositiveRate: 0.7274806847447356
Kappa statistic: 0.2936520254539809
Training time: 1.0
		
Iteration: 38
Labeled set size: 1117
Unlabelled set size: 769
	
Mean region size: 50.0
Incorrectly Classified Instances: 5.885471898197243
Correctly Classified Instances: 94.11452810180276
Weighted Precision: 0.9265832205384078
Weighted AreaUnderROC: 0.6094542508531167
Root mean squared error: 0.24238465719024058
Relative absolute error: 11.92803678620089
Root relative squared error: 48.47693143804811
Weighted TruePositiveRate: 0.9411452810180275
Weighted MatthewsCorrelation: 0.3246365356100001
Weighted FMeasure: 0.9295956825975861
Iteration time: 724.0
Weighted AreaUnderPRC: 0.9040795818822623
Mean absolute error: 0.05964018393100445
Coverage of cases: 94.11452810180276
Instances selection time: 723.0
Test time: 872.0
Accumulative iteration time: 26556.0
Weighted Recall: 0.9411452810180275
Weighted FalsePositiveRate: 0.7274806847447356
Kappa statistic: 0.2936520254539809
Training time: 1.0
		
Iteration: 39
Labeled set size: 1137
Unlabelled set size: 749
	
Mean region size: 50.0
Incorrectly Classified Instances: 5.885471898197243
Correctly Classified Instances: 94.11452810180276
Weighted Precision: 0.9265832205384078
Weighted AreaUnderROC: 0.6098912429725284
Root mean squared error: 0.24238840907227502
Relative absolute error: 11.925185319153227
Root relative squared error: 48.477681814455
Weighted TruePositiveRate: 0.9411452810180275
Weighted MatthewsCorrelation: 0.3246365356100001
Weighted FMeasure: 0.9295956825975861
Iteration time: 715.0
Weighted AreaUnderPRC: 0.904134024839275
Mean absolute error: 0.059625926595766134
Coverage of cases: 94.11452810180276
Instances selection time: 714.0
Test time: 891.0
Accumulative iteration time: 27271.0
Weighted Recall: 0.9411452810180275
Weighted FalsePositiveRate: 0.7274806847447356
Kappa statistic: 0.2936520254539809
Training time: 1.0
		
Iteration: 40
Labeled set size: 1157
Unlabelled set size: 729
	
Mean region size: 50.0
Incorrectly Classified Instances: 5.938494167550371
Correctly Classified Instances: 94.06150583244963
Weighted Precision: 0.9255027085691356
Weighted AreaUnderROC: 0.6055777870522672
Root mean squared error: 0.24348142782848434
Relative absolute error: 12.028385224019521
Root relative squared error: 48.69628556569687
Weighted TruePositiveRate: 0.9406150583244963
Weighted MatthewsCorrelation: 0.31463459366801816
Weighted FMeasure: 0.9287108562067462
Iteration time: 708.0
Weighted AreaUnderPRC: 0.9032741133377543
Mean absolute error: 0.060141926120097604
Coverage of cases: 94.06150583244963
Instances selection time: 707.0
Test time: 900.0
Accumulative iteration time: 27979.0
Weighted Recall: 0.9406150583244963
Weighted FalsePositiveRate: 0.7356461142251174
Kappa statistic: 0.28328390822537847
Training time: 1.0
		
Iteration: 41
Labeled set size: 1177
Unlabelled set size: 709
	
Mean region size: 50.0
Incorrectly Classified Instances: 5.938494167550371
Correctly Classified Instances: 94.06150583244963
Weighted Precision: 0.9255027085691356
Weighted AreaUnderROC: 0.6055777870522672
Root mean squared error: 0.24348494646531024
Relative absolute error: 12.025816989507504
Root relative squared error: 48.696989293062046
Weighted TruePositiveRate: 0.9406150583244963
Weighted MatthewsCorrelation: 0.31463459366801816
Weighted FMeasure: 0.9287108562067462
Iteration time: 699.0
Weighted AreaUnderPRC: 0.9032741133377543
Mean absolute error: 0.06012908494753752
Coverage of cases: 94.06150583244963
Instances selection time: 698.0
Test time: 934.0
Accumulative iteration time: 28678.0
Weighted Recall: 0.9406150583244963
Weighted FalsePositiveRate: 0.7356461142251174
Kappa statistic: 0.28328390822537847
Training time: 1.0
		
Iteration: 42
Labeled set size: 1197
Unlabelled set size: 689
	
Mean region size: 50.0
Incorrectly Classified Instances: 6.097560975609756
Correctly Classified Instances: 93.90243902439025
Weighted Precision: 0.9221021689044252
Weighted AreaUnderROC: 0.5926374192914836
Root mean squared error: 0.24672776619399475
Relative absolute error: 12.340937385714604
Root relative squared error: 49.34555323879895
Weighted TruePositiveRate: 0.9390243902439024
Weighted MatthewsCorrelation: 0.2835656763209239
Weighted FMeasure: 0.9260094627694551
Iteration time: 693.0
Weighted AreaUnderPRC: 0.9007285035743902
Mean absolute error: 0.06170468692857302
Coverage of cases: 93.90243902439025
Instances selection time: 692.0
Test time: 928.0
Accumulative iteration time: 29371.0
Weighted Recall: 0.9390243902439024
Weighted FalsePositiveRate: 0.7601424026662627
Kappa statistic: 0.25146848706143743
Training time: 1.0
		
Iteration: 43
Labeled set size: 1217
Unlabelled set size: 669
	
Mean region size: 50.0
Incorrectly Classified Instances: 6.097560975609756
Correctly Classified Instances: 93.90243902439025
Weighted Precision: 0.9221021689044252
Weighted AreaUnderROC: 0.5928657353988166
Root mean squared error: 0.2467311017937198
Relative absolute error: 12.33850153875744
Root relative squared error: 49.346220358743956
Weighted TruePositiveRate: 0.9390243902439024
Weighted MatthewsCorrelation: 0.2835656763209239
Weighted FMeasure: 0.9260094627694551
Iteration time: 681.0
Weighted AreaUnderPRC: 0.9007568928225755
Mean absolute error: 0.061692507693787195
Coverage of cases: 93.90243902439025
Instances selection time: 680.0
Test time: 946.0
Accumulative iteration time: 30052.0
Weighted Recall: 0.9390243902439024
Weighted FalsePositiveRate: 0.7601424026662627
Kappa statistic: 0.25146848706143743
Training time: 1.0
		
Iteration: 44
Labeled set size: 1237
Unlabelled set size: 649
	
Mean region size: 50.0
Incorrectly Classified Instances: 6.097560975609756
Correctly Classified Instances: 93.90243902439025
Weighted Precision: 0.9221021689044252
Weighted AreaUnderROC: 0.5940073159354822
Root mean squared error: 0.2467343282033116
Relative absolute error: 12.335959022063033
Root relative squared error: 49.346865640662315
Weighted TruePositiveRate: 0.9390243902439024
Weighted MatthewsCorrelation: 0.2835656763209239
Weighted FMeasure: 0.9260094627694551
Iteration time: 674.0
Weighted AreaUnderPRC: 0.9008988650931969
Mean absolute error: 0.06167979511031516
Coverage of cases: 93.90243902439025
Instances selection time: 673.0
Test time: 971.0
Accumulative iteration time: 30726.0
Weighted Recall: 0.9390243902439024
Weighted FalsePositiveRate: 0.7601424026662627
Kappa statistic: 0.25146848706143743
Training time: 1.0
		
Iteration: 45
Labeled set size: 1257
Unlabelled set size: 629
	
Mean region size: 50.0
Incorrectly Classified Instances: 6.097560975609756
Correctly Classified Instances: 93.90243902439025
Weighted Precision: 0.9221021689044252
Weighted AreaUnderROC: 0.5940073159354822
Root mean squared error: 0.24673745545860282
Relative absolute error: 12.333721726742244
Root relative squared error: 49.34749109172056
Weighted TruePositiveRate: 0.9390243902439024
Weighted MatthewsCorrelation: 0.2835656763209239
Weighted FMeasure: 0.9260094627694551
Iteration time: 674.0
Weighted AreaUnderPRC: 0.9008988650931969
Mean absolute error: 0.06166860863371122
Coverage of cases: 93.90243902439025
Instances selection time: 674.0
Test time: 990.0
Accumulative iteration time: 31400.0
Weighted Recall: 0.9390243902439024
Weighted FalsePositiveRate: 0.7601424026662627
Kappa statistic: 0.25146848706143743
Training time: 0.0
		
Iteration: 46
Labeled set size: 1277
Unlabelled set size: 609
	
Mean region size: 50.0
Incorrectly Classified Instances: 6.097560975609756
Correctly Classified Instances: 93.90243902439025
Weighted Precision: 0.9221021689044252
Weighted AreaUnderROC: 0.5940073159354822
Root mean squared error: 0.24674048550308153
Relative absolute error: 12.33155440189195
Root relative squared error: 49.34809710061631
Weighted TruePositiveRate: 0.9390243902439024
Weighted MatthewsCorrelation: 0.2835656763209239
Weighted FMeasure: 0.9260094627694551
Iteration time: 653.0
Weighted AreaUnderPRC: 0.9008988650931969
Mean absolute error: 0.061657772009459745
Coverage of cases: 93.90243902439025
Instances selection time: 652.0
Test time: 993.0
Accumulative iteration time: 32053.0
Weighted Recall: 0.9390243902439024
Weighted FalsePositiveRate: 0.7601424026662627
Kappa statistic: 0.25146848706143743
Training time: 1.0
		
Time end:Wed Nov 01 08.32.54 EET 2017