Wed Nov 01 08.45.48 EET 2017
Dataset: sick
Test set size: 1886
Initial Labelled set size: 377
Initial Unlabelled set size: 1509
Batch mode: QBestBatchMode
Batch size: 20
Classifiers: RandomForest-1cores
Scenario: PoolBasedSamplingScenario
Query strategy: LeastConfidentSamplingQueryStrategy-1cores
Time begining: Wed Nov 01 08.45.48 EET 2017
		
Iteration: 1
Labeled set size: 377
Unlabelled set size: 1509
	
Mean region size: 61.240721102863205
Incorrectly Classified Instances: 3.9766702014846236
Correctly Classified Instances: 96.02332979851538
Weighted Precision: 0.9572411371857532
Weighted AreaUnderROC: 0.9187370999603007
Root mean squared error: 0.17075755704937864
Relative absolute error: 12.036687997682387
Root relative squared error: 34.15151140987573
Weighted TruePositiveRate: 0.9602332979851538
Weighted MatthewsCorrelation: 0.5807350275191518
Weighted FMeasure: 0.9533930989581613
Iteration time: 16.0
Weighted AreaUnderPRC: 0.973031765608471
Mean absolute error: 0.060183439988411934
Coverage of cases: 99.41675503711559
Instances selection time: 5.0
Test time: 8.0
Accumulative iteration time: 16.0
Weighted Recall: 0.9602332979851538
Weighted FalsePositiveRate: 0.5554902149812012
Kappa statistic: 0.5382189517945639
Training time: 11.0
		
Iteration: 2
Labeled set size: 397
Unlabelled set size: 1489
	
Mean region size: 60.36585365853659
Incorrectly Classified Instances: 4.029692470837752
Correctly Classified Instances: 95.97030752916224
Weighted Precision: 0.9587004235061363
Weighted AreaUnderROC: 0.9253138074061121
Root mean squared error: 0.17496864720623087
Relative absolute error: 11.770111688025843
Root relative squared error: 34.993729441246174
Weighted TruePositiveRate: 0.9597030752916225
Weighted MatthewsCorrelation: 0.5699771701370598
Weighted FMeasure: 0.9512785970882965
Iteration time: 18.0
Weighted AreaUnderPRC: 0.9744262776937798
Mean absolute error: 0.058850558440129215
Coverage of cases: 99.52279957582185
Instances selection time: 5.0
Test time: 9.0
Accumulative iteration time: 34.0
Weighted Recall: 0.9597030752916225
Weighted FalsePositiveRate: 0.596179642202972
Kappa statistic: 0.5081294396211519
Training time: 13.0
		
Iteration: 3
Labeled set size: 417
Unlabelled set size: 1469
	
Mean region size: 61.664899257688226
Incorrectly Classified Instances: 2.9692470837751856
Correctly Classified Instances: 97.03075291622481
Weighted Precision: 0.9687739861478585
Weighted AreaUnderROC: 0.9520070321121544
Root mean squared error: 0.15220802915570011
Relative absolute error: 11.018393297072999
Root relative squared error: 30.441605831140023
Weighted TruePositiveRate: 0.9703075291622482
Weighted MatthewsCorrelation: 0.7070377592838152
Weighted FMeasure: 0.9671647963155163
Iteration time: 20.0
Weighted AreaUnderPRC: 0.9835673699001511
Mean absolute error: 0.05509196648536499
Coverage of cases: 99.6288441145281
Instances selection time: 6.0
Test time: 9.0
Accumulative iteration time: 54.0
Weighted Recall: 0.9703075291622482
Weighted FalsePositiveRate: 0.4003470548539478
Kappa statistic: 0.6873212583412777
Training time: 14.0
		
Iteration: 4
Labeled set size: 437
Unlabelled set size: 1449
	
Mean region size: 61.47932131495228
Incorrectly Classified Instances: 2.545068928950159
Correctly Classified Instances: 97.45493107104984
Weighted Precision: 0.9739334599309548
Weighted AreaUnderROC: 0.9642070940263572
Root mean squared error: 0.14447038227719883
Relative absolute error: 10.543180479923898
Root relative squared error: 28.894076455439766
Weighted TruePositiveRate: 0.9745493107104984
Weighted MatthewsCorrelation: 0.7532465542669968
Weighted FMeasure: 0.9720123940197349
Iteration time: 21.0
Weighted AreaUnderPRC: 0.9873354384535015
Mean absolute error: 0.052715902399619485
Coverage of cases: 99.78791092258749
Instances selection time: 6.0
Test time: 9.0
Accumulative iteration time: 75.0
Weighted Recall: 0.9745493107104984
Weighted FalsePositiveRate: 0.35941661731693547
Kappa statistic: 0.7345920431557658
Training time: 15.0
		
Iteration: 5
Labeled set size: 457
Unlabelled set size: 1429
	
Mean region size: 65.19088016967126
Incorrectly Classified Instances: 2.757158006362672
Correctly Classified Instances: 97.24284199363733
Weighted Precision: 0.9707794287413034
Weighted AreaUnderROC: 0.9316495644150216
Root mean squared error: 0.15707169036217644
Relative absolute error: 12.99525402762761
Root relative squared error: 31.41433807243529
Weighted TruePositiveRate: 0.9724284199363733
Weighted MatthewsCorrelation: 0.7339490017962829
Weighted FMeasure: 0.9703238452743689
Iteration time: 24.0
Weighted AreaUnderPRC: 0.980112778170767
Mean absolute error: 0.06497627013813805
Coverage of cases: 99.46977730646871
Instances selection time: 6.0
Test time: 9.0
Accumulative iteration time: 99.0
Weighted Recall: 0.9724284199363733
Weighted FalsePositiveRate: 0.34329233862637887
Kappa statistic: 0.7232247176424773
Training time: 18.0
		
Iteration: 6
Labeled set size: 477
Unlabelled set size: 1409
	
Mean region size: 61.82396606574761
Incorrectly Classified Instances: 2.3329798515376456
Correctly Classified Instances: 97.66702014846236
Weighted Precision: 0.975520162501281
Weighted AreaUnderROC: 0.9598155866909612
Root mean squared error: 0.139334817984992
Relative absolute error: 9.858006868251444
Root relative squared error: 27.8669635969984
Weighted TruePositiveRate: 0.9766702014846236
Weighted MatthewsCorrelation: 0.7822261910212428
Weighted FMeasure: 0.975624755044374
Iteration time: 26.0
Weighted AreaUnderPRC: 0.9865649599141374
Mean absolute error: 0.04929003434125722
Coverage of cases: 99.73488865323436
Instances selection time: 6.0
Test time: 9.0
Accumulative iteration time: 125.0
Weighted Recall: 0.9766702014846236
Weighted FalsePositiveRate: 0.26170690391263035
Kappa statistic: 0.7782421634910883
Training time: 20.0
		
Iteration: 7
Labeled set size: 497
Unlabelled set size: 1389
	
Mean region size: 65.3764581124072
Incorrectly Classified Instances: 2.545068928950159
Correctly Classified Instances: 97.45493107104984
Weighted Precision: 0.9732903449356046
Weighted AreaUnderROC: 0.9525483023592664
Root mean squared error: 0.1484455241204212
Relative absolute error: 12.730424046694061
Root relative squared error: 29.68910482408424
Weighted TruePositiveRate: 0.9745493107104984
Weighted MatthewsCorrelation: 0.7555551113447642
Weighted FMeasure: 0.9726066264071097
Iteration time: 27.0
Weighted AreaUnderPRC: 0.9853416854165135
Mean absolute error: 0.0636521202334703
Coverage of cases: 99.6288441145281
Instances selection time: 6.0
Test time: 10.0
Accumulative iteration time: 152.0
Weighted Recall: 0.9745493107104984
Weighted FalsePositiveRate: 0.32689261957554644
Kappa statistic: 0.7445151239776715
Training time: 21.0
		
Iteration: 8
Labeled set size: 517
Unlabelled set size: 1369
	
Mean region size: 60.896076352067865
Incorrectly Classified Instances: 2.4920466595970305
Correctly Classified Instances: 97.50795334040296
Weighted Precision: 0.9737949832986703
Weighted AreaUnderROC: 0.9705035409055881
Root mean squared error: 0.13735986320724364
Relative absolute error: 9.334806289499985
Root relative squared error: 27.471972641448726
Weighted TruePositiveRate: 0.9750795334040296
Weighted MatthewsCorrelation: 0.7621787235227871
Weighted FMeasure: 0.9733829775384232
Iteration time: 25.0
Weighted AreaUnderPRC: 0.9887246678974299
Mean absolute error: 0.046674031447499924
Coverage of cases: 99.84093319194062
Instances selection time: 5.0
Test time: 10.0
Accumulative iteration time: 177.0
Weighted Recall: 0.9750795334040296
Weighted FalsePositiveRate: 0.31059619065981736
Kappa statistic: 0.7532966329535267
Training time: 20.0
		
Iteration: 9
Labeled set size: 537
Unlabelled set size: 1349
	
Mean region size: 61.34676564156946
Incorrectly Classified Instances: 2.4920466595970305
Correctly Classified Instances: 97.50795334040296
Weighted Precision: 0.9737473147054254
Weighted AreaUnderROC: 0.9616049610401586
Root mean squared error: 0.14118412828480353
Relative absolute error: 10.10591260146591
Root relative squared error: 28.236825656960708
Weighted TruePositiveRate: 0.9750795334040296
Weighted MatthewsCorrelation: 0.7631117568606706
Weighted FMeasure: 0.9735165244578255
Iteration time: 25.0
Weighted AreaUnderPRC: 0.9864615354631916
Mean absolute error: 0.05052956300732955
Coverage of cases: 99.73488865323436
Instances selection time: 5.0
Test time: 9.0
Accumulative iteration time: 202.0
Weighted Recall: 0.9750795334040296
Weighted FalsePositiveRate: 0.3024651912244701
Kappa statistic: 0.7555499175440817
Training time: 20.0
		
Iteration: 10
Labeled set size: 557
Unlabelled set size: 1329
	
Mean region size: 60.15376458112407
Incorrectly Classified Instances: 2.3860021208907742
Correctly Classified Instances: 97.61399787910922
Weighted Precision: 0.9749624798679981
Weighted AreaUnderROC: 0.9720701079546578
Root mean squared error: 0.13859009107765247
Relative absolute error: 9.322072509585292
Root relative squared error: 27.718018215530492
Weighted TruePositiveRate: 0.9761399787910923
Weighted MatthewsCorrelation: 0.7736179966294038
Weighted FMeasure: 0.9746434808638755
Iteration time: 28.0
Weighted AreaUnderPRC: 0.9888672805635946
Mean absolute error: 0.04661036254792646
Coverage of cases: 99.84093319194062
Instances selection time: 6.0
Test time: 10.0
Accumulative iteration time: 230.0
Weighted Recall: 0.9761399787910923
Weighted FalsePositiveRate: 0.29426533169905394
Kappa statistic: 0.7659520487124192
Training time: 22.0
		
Iteration: 11
Labeled set size: 577
Unlabelled set size: 1309
	
Mean region size: 64.36903499469777
Incorrectly Classified Instances: 2.545068928950159
Correctly Classified Instances: 97.45493107104984
Weighted Precision: 0.9732903449356046
Weighted AreaUnderROC: 0.960512121471594
Root mean squared error: 0.15071259386875574
Relative absolute error: 12.41193714600455
Root relative squared error: 30.14251877375115
Weighted TruePositiveRate: 0.9745493107104984
Weighted MatthewsCorrelation: 0.7555551113447642
Weighted FMeasure: 0.9726066264071097
Iteration time: 32.0
Weighted AreaUnderPRC: 0.9856171695743144
Mean absolute error: 0.062059685730022754
Coverage of cases: 99.78791092258749
Instances selection time: 6.0
Test time: 11.0
Accumulative iteration time: 262.0
Weighted Recall: 0.9745493107104984
Weighted FalsePositiveRate: 0.32689261957554644
Kappa statistic: 0.7445151239776715
Training time: 26.0
		
Iteration: 12
Labeled set size: 597
Unlabelled set size: 1289
	
Mean region size: 59.80911983032874
Incorrectly Classified Instances: 2.2799575821845175
Correctly Classified Instances: 97.72004241781548
Weighted Precision: 0.9760991924300514
Weighted AreaUnderROC: 0.9640706911696814
Root mean squared error: 0.1287450030979508
Relative absolute error: 8.315443256961656
Root relative squared error: 25.749000619590163
Weighted TruePositiveRate: 0.9772004241781548
Weighted MatthewsCorrelation: 0.7858076478755045
Weighted FMeasure: 0.9760073280957212
Iteration time: 29.0
Weighted AreaUnderPRC: 0.9886837195529711
Mean absolute error: 0.04157721628480828
Coverage of cases: 99.73488865323436
Instances selection time: 5.0
Test time: 10.0
Accumulative iteration time: 291.0
Weighted Recall: 0.9772004241781548
Weighted FalsePositiveRate: 0.2698034733029431
Kappa statistic: 0.7803662638594738
Training time: 24.0
		
Iteration: 13
Labeled set size: 617
Unlabelled set size: 1269
	
Mean region size: 59.915164369035
Incorrectly Classified Instances: 2.3860021208907742
Correctly Classified Instances: 97.61399787910922
Weighted Precision: 0.9749624798679981
Weighted AreaUnderROC: 0.9460889863974378
Root mean squared error: 0.13961706445294406
Relative absolute error: 9.491126853330089
Root relative squared error: 27.92341289058881
Weighted TruePositiveRate: 0.9761399787910923
Weighted MatthewsCorrelation: 0.7736179966294038
Weighted FMeasure: 0.9746434808638755
Iteration time: 31.0
Weighted AreaUnderPRC: 0.9839622438454918
Mean absolute error: 0.04745563426665044
Coverage of cases: 99.52279957582185
Instances selection time: 6.0
Test time: 10.0
Accumulative iteration time: 322.0
Weighted Recall: 0.9761399787910923
Weighted FalsePositiveRate: 0.29426533169905394
Kappa statistic: 0.7659520487124192
Training time: 25.0
		
Iteration: 14
Labeled set size: 637
Unlabelled set size: 1249
	
Mean region size: 58.72216330858961
Incorrectly Classified Instances: 2.014846235418876
Correctly Classified Instances: 97.98515376458113
Weighted Precision: 0.979077706909859
Weighted AreaUnderROC: 0.9720069662459814
Root mean squared error: 0.12631004630412734
Relative absolute error: 7.814767542758723
Root relative squared error: 25.26200926082547
Weighted TruePositiveRate: 0.9798515376458112
Weighted MatthewsCorrelation: 0.8153638501376715
Weighted FMeasure: 0.979238240545135
Iteration time: 31.0
Weighted AreaUnderPRC: 0.9893495931217038
Mean absolute error: 0.039073837713793615
Coverage of cases: 99.73488865323436
Instances selection time: 5.0
Test time: 10.0
Accumulative iteration time: 353.0
Weighted Recall: 0.9798515376458112
Weighted FalsePositiveRate: 0.21271432703033974
Kappa statistic: 0.8134355167045862
Training time: 26.0
		
Iteration: 15
Labeled set size: 657
Unlabelled set size: 1229
	
Mean region size: 63.44114528101803
Incorrectly Classified Instances: 3.1813361611876987
Correctly Classified Instances: 96.8186638388123
Weighted Precision: 0.9657575963527012
Weighted AreaUnderROC: 0.9513561246259848
Root mean squared error: 0.1586354535441925
Relative absolute error: 11.771936928787659
Root relative squared error: 31.727090708838503
Weighted TruePositiveRate: 0.968186638388123
Weighted MatthewsCorrelation: 0.6907367826993197
Weighted FMeasure: 0.965758283008887
Iteration time: 33.0
Weighted AreaUnderPRC: 0.9798957541177421
Mean absolute error: 0.058859684643938294
Coverage of cases: 99.73488865323436
Instances selection time: 5.0
Test time: 10.0
Accumulative iteration time: 386.0
Weighted Recall: 0.968186638388123
Weighted FalsePositiveRate: 0.376091776728044
Kappa statistic: 0.680643904972089
Training time: 28.0
		
Iteration: 16
Labeled set size: 677
Unlabelled set size: 1209
	
Mean region size: 60.445387062566276
Incorrectly Classified Instances: 2.4390243902439024
Correctly Classified Instances: 97.5609756097561
Weighted Precision: 0.974319654121271
Weighted AreaUnderROC: 0.9702643868188614
Root mean squared error: 0.13294309466882184
Relative absolute error: 9.393128249781826
Root relative squared error: 26.58861893376437
Weighted TruePositiveRate: 0.975609756097561
Weighted MatthewsCorrelation: 0.7698433823882253
Weighted FMeasure: 0.974271041165617
Iteration time: 36.0
Weighted AreaUnderPRC: 0.9890940263649532
Mean absolute error: 0.04696564124890913
Coverage of cases: 99.78791092258749
Instances selection time: 6.0
Test time: 11.0
Accumulative iteration time: 422.0
Weighted Recall: 0.975609756097561
Weighted FalsePositiveRate: 0.28616876230874105
Kappa statistic: 0.7639844825428604
Training time: 30.0
		
Iteration: 17
Labeled set size: 697
Unlabelled set size: 1189
	
Mean region size: 59.86214209968187
Incorrectly Classified Instances: 2.1208907741251326
Correctly Classified Instances: 97.87910922587487
Weighted Precision: 0.9780477987256728
Weighted AreaUnderROC: 0.9715868298790518
Root mean squared error: 0.135262103225482
Relative absolute error: 9.512519361836095
Root relative squared error: 27.052420645096397
Weighted TruePositiveRate: 0.9787910922587487
Weighted MatthewsCorrelation: 0.7996062363630658
Weighted FMeasure: 0.9774043401470706
Iteration time: 35.0
Weighted AreaUnderPRC: 0.9876858926689168
Mean absolute error: 0.04756259680918047
Coverage of cases: 99.73488865323436
Instances selection time: 5.0
Test time: 11.0
Accumulative iteration time: 457.0
Weighted Recall: 0.9787910922587487
Weighted FalsePositiveRate: 0.2778311826031869
Kappa statistic: 0.7910029310564551
Training time: 30.0
		
Iteration: 18
Labeled set size: 717
Unlabelled set size: 1169
	
Mean region size: 60.07423117709438
Incorrectly Classified Instances: 2.5980911983032873
Correctly Classified Instances: 97.4019088016967
Weighted Precision: 0.9728268576290413
Weighted AreaUnderROC: 0.9745052103136848
Root mean squared error: 0.1392856569212678
Relative absolute error: 9.64320451455153
Root relative squared error: 27.85713138425356
Weighted TruePositiveRate: 0.9740190880169671
Weighted MatthewsCorrelation: 0.7489739281388322
Weighted FMeasure: 0.9718145758907536
Iteration time: 37.0
Weighted AreaUnderPRC: 0.9893239556477015
Mean absolute error: 0.048216022572757644
Coverage of cases: 99.84093319194062
Instances selection time: 6.0
Test time: 11.0
Accumulative iteration time: 494.0
Weighted Recall: 0.9740190880169671
Weighted FalsePositiveRate: 0.3431890484912754
Kappa statistic: 0.7354838709677418
Training time: 31.0
		
Iteration: 19
Labeled set size: 737
Unlabelled set size: 1149
	
Mean region size: 58.11240721102863
Incorrectly Classified Instances: 2.1739130434782608
Correctly Classified Instances: 97.82608695652173
Weighted Precision: 0.9773261568918585
Weighted AreaUnderROC: 0.9758956751671953
Root mean squared error: 0.13114707600065795
Relative absolute error: 8.041254211088171
Root relative squared error: 26.22941520013159
Weighted TruePositiveRate: 0.9782608695652174
Weighted MatthewsCorrelation: 0.7953160167315002
Weighted FMeasure: 0.9770114942528736
Iteration time: 36.0
Weighted AreaUnderPRC: 0.988311561057265
Mean absolute error: 0.040206271055440855
Coverage of cases: 99.78791092258749
Instances selection time: 5.0
Test time: 10.0
Accumulative iteration time: 530.0
Weighted Recall: 0.9782608695652174
Weighted FalsePositiveRate: 0.26973461321287406
Kappa statistic: 0.7886863607793841
Training time: 31.0
		
Iteration: 20
Labeled set size: 757
Unlabelled set size: 1129
	
Mean region size: 60.498409331919405
Incorrectly Classified Instances: 2.3860021208907742
Correctly Classified Instances: 97.61399787910922
Weighted Precision: 0.9749558579733841
Weighted AreaUnderROC: 0.9745657772537757
Root mean squared error: 0.13507682692273904
Relative absolute error: 9.356015695803285
Root relative squared error: 27.015365384547806
Weighted TruePositiveRate: 0.9761399787910923
Weighted MatthewsCorrelation: 0.7777440383939292
Weighted FMeasure: 0.9751293659580532
Iteration time: 39.0
Weighted AreaUnderPRC: 0.9894401671591656
Mean absolute error: 0.04678007847901642
Coverage of cases: 99.84093319194062
Instances selection time: 6.0
Test time: 11.0
Accumulative iteration time: 569.0
Weighted Recall: 0.9761399787910923
Weighted FalsePositiveRate: 0.26174133395766486
Kappa statistic: 0.7742014441316853
Training time: 33.0
		
Iteration: 21
Labeled set size: 777
Unlabelled set size: 1109
	
Mean region size: 57.44962884411453
Incorrectly Classified Instances: 2.2799575821845175
Correctly Classified Instances: 97.72004241781548
Weighted Precision: 0.9761776450305709
Weighted AreaUnderROC: 0.9659227282008415
Root mean squared error: 0.13090753822433132
Relative absolute error: 7.731837829682596
Root relative squared error: 26.181507644866265
Weighted TruePositiveRate: 0.9772004241781548
Weighted MatthewsCorrelation: 0.7841242363981369
Weighted FMeasure: 0.9757704372699256
Iteration time: 33.0
Weighted AreaUnderPRC: 0.9888707131555743
Mean absolute error: 0.03865918914841298
Coverage of cases: 99.73488865323436
Instances selection time: 4.0
Test time: 10.0
Accumulative iteration time: 602.0
Weighted Recall: 0.9772004241781548
Weighted FalsePositiveRate: 0.28606547217363765
Kappa statistic: 0.7763541798807556
Training time: 29.0
		
Iteration: 22
Labeled set size: 797
Unlabelled set size: 1089
	
Mean region size: 59.650053022269354
Incorrectly Classified Instances: 2.4390243902439024
Correctly Classified Instances: 97.5609756097561
Weighted Precision: 0.9743792808919636
Weighted AreaUnderROC: 0.9829754504797154
Root mean squared error: 0.13531853347254186
Relative absolute error: 8.849492336217871
Root relative squared error: 27.063706694508372
Weighted TruePositiveRate: 0.975609756097561
Weighted MatthewsCorrelation: 0.7679157040374149
Weighted FMeasure: 0.9740149911691312
Iteration time: 40.0
Weighted AreaUnderPRC: 0.9906449916006516
Mean absolute error: 0.04424746168108935
Coverage of cases: 99.94697773064688
Instances selection time: 5.0
Test time: 11.0
Accumulative iteration time: 642.0
Weighted Recall: 0.975609756097561
Weighted FalsePositiveRate: 0.3024307611794356
Kappa statistic: 0.7596533707149228
Training time: 35.0
		
Iteration: 23
Labeled set size: 817
Unlabelled set size: 1069
	
Mean region size: 60.36585365853659
Incorrectly Classified Instances: 2.863202545068929
Correctly Classified Instances: 97.13679745493107
Weighted Precision: 0.9694932752966031
Weighted AreaUnderROC: 0.9495233983592137
Root mean squared error: 0.14477417143549984
Relative absolute error: 9.711129591798196
Root relative squared error: 28.954834287099967
Weighted TruePositiveRate: 0.9713679745493107
Weighted MatthewsCorrelation: 0.724362920494683
Weighted FMeasure: 0.9693408079097589
Iteration time: 40.0
Weighted AreaUnderPRC: 0.9840170322355009
Mean absolute error: 0.04855564795899098
Coverage of cases: 99.6288441145281
Instances selection time: 5.0
Test time: 11.0
Accumulative iteration time: 682.0
Weighted Recall: 0.9713679745493107
Weighted FalsePositiveRate: 0.3433611987164479
Kappa statistic: 0.7152411575562698
Training time: 35.0
		
Iteration: 24
Labeled set size: 837
Unlabelled set size: 1049
	
Mean region size: 59.06680805938494
Incorrectly Classified Instances: 2.9692470837751856
Correctly Classified Instances: 97.03075291622481
Weighted Precision: 0.9682685125470023
Weighted AreaUnderROC: 0.9677451853324416
Root mean squared error: 0.1424829223015418
Relative absolute error: 9.32796228177598
Root relative squared error: 28.496584460308362
Weighted TruePositiveRate: 0.9703075291622482
Weighted MatthewsCorrelation: 0.7123428922478012
Weighted FMeasure: 0.9680410641416278
Iteration time: 39.0
Weighted AreaUnderPRC: 0.9866995602684165
Mean absolute error: 0.0466398114088799
Coverage of cases: 99.78791092258749
Instances selection time: 5.0
Test time: 11.0
Accumulative iteration time: 721.0
Weighted Recall: 0.9703075291622482
Weighted FalsePositiveRate: 0.3596920576772114
Kappa statistic: 0.7019343113072832
Training time: 34.0
		
Iteration: 25
Labeled set size: 857
Unlabelled set size: 1029
	
Mean region size: 57.7677624602333
Incorrectly Classified Instances: 2.3329798515376456
Correctly Classified Instances: 97.66702014846236
Weighted Precision: 0.975520162501281
Weighted AreaUnderROC: 0.9908078066983502
Root mean squared error: 0.13237825973050013
Relative absolute error: 8.030489642389073
Root relative squared error: 26.475651946100026
Weighted TruePositiveRate: 0.9766702014846236
Weighted MatthewsCorrelation: 0.7822261910212428
Weighted FMeasure: 0.975624755044374
Iteration time: 41.0
Weighted AreaUnderPRC: 0.9913893956164694
Mean absolute error: 0.040152448211945364
Coverage of cases: 100.0
Instances selection time: 5.0
Test time: 11.0
Accumulative iteration time: 762.0
Weighted Recall: 0.9766702014846236
Weighted FalsePositiveRate: 0.26170690391263035
Kappa statistic: 0.7782421634910883
Training time: 36.0
		
Iteration: 26
Labeled set size: 877
Unlabelled set size: 1009
	
Mean region size: 57.87380699893956
Incorrectly Classified Instances: 2.3860021208907742
Correctly Classified Instances: 97.61399787910922
Weighted Precision: 0.9753911419928153
Weighted AreaUnderROC: 0.9798859078125065
Root mean squared error: 0.13530024317786207
Relative absolute error: 8.230674545142582
Root relative squared error: 27.060048635572414
Weighted TruePositiveRate: 0.9761399787910923
Weighted MatthewsCorrelation: 0.7709631376294817
Weighted FMeasure: 0.9741154268384473
Iteration time: 40.0
Weighted AreaUnderPRC: 0.9908351111159786
Mean absolute error: 0.04115337272571291
Coverage of cases: 99.84093319194062
Instances selection time: 5.0
Test time: 10.0
Accumulative iteration time: 802.0
Weighted Recall: 0.9761399787910923
Weighted FalsePositiveRate: 0.3267893294404429
Kappa statistic: 0.7570770243581304
Training time: 35.0
		
Iteration: 27
Labeled set size: 897
Unlabelled set size: 989
	
Mean region size: 57.42311770943797
Incorrectly Classified Instances: 2.4920466595970305
Correctly Classified Instances: 97.50795334040296
Weighted Precision: 0.9737508919304619
Weighted AreaUnderROC: 0.9865501573902146
Root mean squared error: 0.13103039908536648
Relative absolute error: 7.895376707197986
Root relative squared error: 26.206079817073295
Weighted TruePositiveRate: 0.9750795334040296
Weighted MatthewsCorrelation: 0.7664125773113558
Weighted FMeasure: 0.9739009877291034
Iteration time: 42.0
Weighted AreaUnderPRC: 0.9913028741857248
Mean absolute error: 0.03947688353598993
Coverage of cases: 99.89395546129374
Instances selection time: 5.0
Test time: 11.0
Accumulative iteration time: 844.0
Weighted Recall: 0.9750795334040296
Weighted FalsePositiveRate: 0.27807219291842833
Kappa statistic: 0.7620693912828739
Training time: 37.0
		
Iteration: 28
Labeled set size: 917
Unlabelled set size: 969
	
Mean region size: 59.915164369035
Incorrectly Classified Instances: 2.5980911983032873
Correctly Classified Instances: 97.4019088016967
Weighted Precision: 0.9729765768981721
Weighted AreaUnderROC: 0.9881427715168322
Root mean squared error: 0.13297170040171677
Relative absolute error: 9.209895220496074
Root relative squared error: 26.594340080343354
Weighted TruePositiveRate: 0.9740190880169671
Weighted MatthewsCorrelation: 0.7483243594433162
Weighted FMeasure: 0.9716629861337462
Iteration time: 43.0
Weighted AreaUnderPRC: 0.9929075989348484
Mean absolute error: 0.04604947610248037
Coverage of cases: 99.94697773064688
Instances selection time: 5.0
Test time: 11.0
Accumulative iteration time: 887.0
Weighted Recall: 0.9740190880169671
Weighted FalsePositiveRate: 0.35132004792662275
Kappa statistic: 0.7329522796756613
Training time: 38.0
		
Iteration: 29
Labeled set size: 937
Unlabelled set size: 949
	
Mean region size: 57.6882290562036
Incorrectly Classified Instances: 2.9692470837751856
Correctly Classified Instances: 97.03075291622481
Weighted Precision: 0.9682685125470023
Weighted AreaUnderROC: 0.9801275468503096
Root mean squared error: 0.139376649868668
Relative absolute error: 8.8277971328921
Root relative squared error: 27.8753299737336
Weighted TruePositiveRate: 0.9703075291622482
Weighted MatthewsCorrelation: 0.7123428922478012
Weighted FMeasure: 0.9680410641416278
Iteration time: 47.0
Weighted AreaUnderPRC: 0.9891626419317634
Mean absolute error: 0.0441389856644605
Coverage of cases: 99.89395546129374
Instances selection time: 4.0
Test time: 11.0
Accumulative iteration time: 934.0
Weighted Recall: 0.9703075291622482
Weighted FalsePositiveRate: 0.3596920576772114
Kappa statistic: 0.7019343113072832
Training time: 43.0
		
Iteration: 30
Labeled set size: 957
Unlabelled set size: 929
	
Mean region size: 55.3287380699894
Incorrectly Classified Instances: 1.696712619300106
Correctly Classified Instances: 98.3032873806999
Weighted Precision: 0.9824670558877983
Weighted AreaUnderROC: 0.9849423940437819
Root mean squared error: 0.11750657994011511
Relative absolute error: 6.130312242254852
Root relative squared error: 23.501315988023023
Weighted TruePositiveRate: 0.9830328738069989
Weighted MatthewsCorrelation: 0.8448912323154821
Weighted FMeasure: 0.9825164130906401
Iteration time: 39.0
Weighted AreaUnderPRC: 0.9934188652016654
Mean absolute error: 0.03065156121127426
Coverage of cases: 99.89395546129374
Instances selection time: 5.0
Test time: 10.0
Accumulative iteration time: 973.0
Weighted Recall: 0.9830328738069989
Weighted FalsePositiveRate: 0.188114748454091
Kappa statistic: 0.8428930666985984
Training time: 34.0
		
Iteration: 31
Labeled set size: 977
Unlabelled set size: 909
	
Mean region size: 58.24496288441145
Incorrectly Classified Instances: 2.757158006362672
Correctly Classified Instances: 97.24284199363733
Weighted Precision: 0.9707794287413034
Weighted AreaUnderROC: 0.975837413543163
Root mean squared error: 0.13480845524668153
Relative absolute error: 8.439176969028878
Root relative squared error: 26.961691049336306
Weighted TruePositiveRate: 0.9724284199363733
Weighted MatthewsCorrelation: 0.7339490017962829
Weighted FMeasure: 0.9703238452743689
Iteration time: 47.0
Weighted AreaUnderPRC: 0.9901607546847191
Mean absolute error: 0.042195884845144395
Coverage of cases: 99.84093319194062
Instances selection time: 6.0
Test time: 11.0
Accumulative iteration time: 1020.0
Weighted Recall: 0.9724284199363733
Weighted FalsePositiveRate: 0.34329233862637887
Kappa statistic: 0.7232247176424773
Training time: 41.0
		
Iteration: 32
Labeled set size: 997
Unlabelled set size: 889
	
Mean region size: 58.324496288441146
Incorrectly Classified Instances: 2.704135737009544
Correctly Classified Instances: 97.29586426299046
Weighted Precision: 0.9713758490050415
Weighted AreaUnderROC: 0.970209238868467
Root mean squared error: 0.13489885315406952
Relative absolute error: 8.294319885810454
Root relative squared error: 26.979770630813903
Weighted TruePositiveRate: 0.9729586426299046
Weighted MatthewsCorrelation: 0.7398561478512755
Weighted FMeasure: 0.9709697141273527
Iteration time: 41.0
Weighted AreaUnderPRC: 0.9888302834709807
Mean absolute error: 0.04147159942905227
Coverage of cases: 99.78791092258749
Instances selection time: 4.0
Test time: 10.0
Accumulative iteration time: 1061.0
Weighted Recall: 0.9729586426299046
Weighted FalsePositiveRate: 0.33512690914599713
Kappa statistic: 0.7298100529784216
Training time: 37.0
		
Iteration: 33
Labeled set size: 1017
Unlabelled set size: 869
	
Mean region size: 57.158006362672324
Incorrectly Classified Instances: 2.3329798515376456
Correctly Classified Instances: 97.66702014846236
Weighted Precision: 0.9755446373656774
Weighted AreaUnderROC: 0.9774173035227026
Root mean squared error: 0.1266303326206371
Relative absolute error: 7.13787426407253
Root relative squared error: 25.326066524127423
Weighted TruePositiveRate: 0.9766702014846236
Weighted MatthewsCorrelation: 0.7792863240690837
Weighted FMeasure: 0.9752685007066373
Iteration time: 44.0
Weighted AreaUnderPRC: 0.9910831736898935
Mean absolute error: 0.03568937132036265
Coverage of cases: 99.84093319194062
Instances selection time: 4.0
Test time: 11.0
Accumulative iteration time: 1105.0
Weighted Recall: 0.9766702014846236
Weighted FalsePositiveRate: 0.28609990221867215
Kappa statistic: 0.7721934587700471
Training time: 40.0
		
Iteration: 34
Labeled set size: 1037
Unlabelled set size: 849
	
Mean region size: 57.582184517497346
Incorrectly Classified Instances: 2.3860021208907742
Correctly Classified Instances: 97.61399787910922
Weighted Precision: 0.9750256822335666
Weighted AreaUnderROC: 0.9601677611429099
Root mean squared error: 0.1333076495812813
Relative absolute error: 7.926047085063724
Root relative squared error: 26.66152991625626
Weighted TruePositiveRate: 0.9761399787910923
Weighted MatthewsCorrelation: 0.7728005208254499
Weighted FMeasure: 0.9745156167921075
Iteration time: 42.0
Weighted AreaUnderPRC: 0.9874312192693276
Mean absolute error: 0.03963023542531862
Coverage of cases: 99.68186638388123
Instances selection time: 4.0
Test time: 10.0
Accumulative iteration time: 1147.0
Weighted Recall: 0.9761399787910923
Weighted FalsePositiveRate: 0.3023963311344011
Kappa statistic: 0.7637946485725261
Training time: 38.0
		
Iteration: 35
Labeled set size: 1057
Unlabelled set size: 829
	
Mean region size: 57.42311770943797
Incorrectly Classified Instances: 2.704135737009544
Correctly Classified Instances: 97.29586426299046
Weighted Precision: 0.9714455681142177
Weighted AreaUnderROC: 0.9729718158645265
Root mean squared error: 0.13500699348108916
Relative absolute error: 8.336920452394448
Root relative squared error: 27.001398696217834
Weighted TruePositiveRate: 0.9729586426299046
Weighted MatthewsCorrelation: 0.7388685948612616
Weighted FMeasure: 0.9708185636327273
Iteration time: 46.0
Weighted AreaUnderPRC: 0.9896360550537021
Mean absolute error: 0.04168460226197224
Coverage of cases: 99.78791092258749
Instances selection time: 4.0
Test time: 11.0
Accumulative iteration time: 1193.0
Weighted Recall: 0.9729586426299046
Weighted FalsePositiveRate: 0.3432579085813444
Kappa statistic: 0.7272727272727276
Training time: 42.0
		
Iteration: 36
Labeled set size: 1077
Unlabelled set size: 809
	
Mean region size: 57.21102863202545
Incorrectly Classified Instances: 2.4390243902439024
Correctly Classified Instances: 97.5609756097561
Weighted Precision: 0.9743258050035478
Weighted AreaUnderROC: 0.9753106039149656
Root mean squared error: 0.13493880860373836
Relative absolute error: 8.023373201136193
Root relative squared error: 26.98776172074767
Weighted TruePositiveRate: 0.975609756097561
Weighted MatthewsCorrelation: 0.7709311917767315
Weighted FMeasure: 0.9743951659602066
Iteration time: 46.0
Weighted AreaUnderPRC: 0.9894269327083516
Mean absolute error: 0.04011686600568097
Coverage of cases: 99.78791092258749
Instances selection time: 4.0
Test time: 10.0
Accumulative iteration time: 1239.0
Weighted Recall: 0.975609756097561
Weighted FalsePositiveRate: 0.2780377628733938
Kappa statistic: 0.7660920253007563
Training time: 42.0
		
Iteration: 37
Labeled set size: 1097
Unlabelled set size: 789
	
Mean region size: 57.74125132555673
Incorrectly Classified Instances: 2.5980911983032873
Correctly Classified Instances: 97.4019088016967
Weighted Precision: 0.972564284363774
Weighted AreaUnderROC: 0.9658421319562913
Root mean squared error: 0.13284071576632495
Relative absolute error: 7.820580151339914
Root relative squared error: 26.56814315326499
Weighted TruePositiveRate: 0.9740190880169671
Weighted MatthewsCorrelation: 0.7515569262201242
Weighted FMeasure: 0.9722503382847393
Iteration time: 47.0
Weighted AreaUnderPRC: 0.9886519151705736
Mean absolute error: 0.03910290075669957
Coverage of cases: 99.73488865323436
Instances selection time: 5.0
Test time: 11.0
Accumulative iteration time: 1286.0
Weighted Recall: 0.9740190880169671
Weighted FalsePositiveRate: 0.3187960501852336
Kappa statistic: 0.7427986173345283
Training time: 42.0
		
Iteration: 38
Labeled set size: 1117
Unlabelled set size: 769
	
Mean region size: 58.377518557794275
Incorrectly Classified Instances: 2.651113467656416
Correctly Classified Instances: 97.34888653234358
Weighted Precision: 0.9721278425465081
Weighted AreaUnderROC: 0.9813112517985957
Root mean squared error: 0.13661933138011817
Relative absolute error: 8.755995040140014
Root relative squared error: 27.323866276023633
Weighted TruePositiveRate: 0.9734888653234358
Weighted MatthewsCorrelation: 0.7438759967499877
Weighted FMeasure: 0.9713154618534269
Iteration time: 47.0
Weighted AreaUnderPRC: 0.9908816146440872
Mean absolute error: 0.04377997520070007
Coverage of cases: 99.89395546129374
Instances selection time: 4.0
Test time: 11.0
Accumulative iteration time: 1333.0
Weighted Recall: 0.9734888653234358
Weighted FalsePositiveRate: 0.3432234785363099
Kappa statistic: 0.7313589306774992
Training time: 43.0
		
Iteration: 39
Labeled set size: 1137
Unlabelled set size: 749
	
Mean region size: 56.20360551431601
Incorrectly Classified Instances: 2.2269353128313893
Correctly Classified Instances: 97.77306468716861
Weighted Precision: 0.9767060441426907
Weighted AreaUnderROC: 0.9838311418859162
Root mean squared error: 0.1284235596684247
Relative absolute error: 7.340427599003347
Root relative squared error: 25.68471193368494
Weighted TruePositiveRate: 0.9777306468716861
Weighted MatthewsCorrelation: 0.790523859818474
Weighted FMeasure: 0.9765083419338242
Iteration time: 44.0
Weighted AreaUnderPRC: 0.992209508201269
Mean absolute error: 0.03670213799501674
Coverage of cases: 99.89395546129374
Instances selection time: 4.0
Test time: 10.0
Accumulative iteration time: 1377.0
Weighted Recall: 0.9777306468716861
Weighted FalsePositiveRate: 0.26976904325790857
Kappa statistic: 0.7845075710173944
Training time: 40.0
		
Iteration: 40
Labeled set size: 1157
Unlabelled set size: 729
	
Mean region size: 57.158006362672324
Incorrectly Classified Instances: 2.3329798515376456
Correctly Classified Instances: 97.66702014846236
Weighted Precision: 0.9755564872527936
Weighted AreaUnderROC: 0.9870226573647662
Root mean squared error: 0.12878255648135561
Relative absolute error: 7.6731272887118145
Root relative squared error: 25.75651129627112
Weighted TruePositiveRate: 0.9766702014846236
Weighted MatthewsCorrelation: 0.783361276805101
Weighted FMeasure: 0.9757387653376215
Iteration time: 51.0
Weighted AreaUnderPRC: 0.992358758719943
Mean absolute error: 0.03836563644355907
Coverage of cases: 99.94697773064688
Instances selection time: 4.0
Test time: 11.0
Accumulative iteration time: 1428.0
Weighted Recall: 0.9766702014846236
Weighted FalsePositiveRate: 0.25357590447728307
Kappa statistic: 0.7801876446935547
Training time: 47.0
		
Iteration: 41
Labeled set size: 1177
Unlabelled set size: 709
	
Mean region size: 58.29798515376458
Incorrectly Classified Instances: 1.9618239660657477
Correctly Classified Instances: 98.03817603393425
Weighted Precision: 0.9796143211598339
Weighted AreaUnderROC: 0.9892402516566839
Root mean squared error: 0.1238664031829523
Relative absolute error: 7.733188124723666
Root relative squared error: 24.77328063659046
Weighted TruePositiveRate: 0.9803817603393425
Weighted MatthewsCorrelation: 0.8173246247348257
Weighted FMeasure: 0.9794539690633368
Iteration time: 52.0
Weighted AreaUnderPRC: 0.9938228854876832
Mean absolute error: 0.03866594062361833
Coverage of cases: 99.94697773064688
Instances selection time: 4.0
Test time: 12.0
Accumulative iteration time: 1480.0
Weighted Recall: 0.9803817603393425
Weighted FalsePositiveRate: 0.237072895291347
Kappa statistic: 0.8126929250524757
Training time: 48.0
		
Iteration: 42
Labeled set size: 1197
Unlabelled set size: 689
	
Mean region size: 57.29056203605514
Incorrectly Classified Instances: 2.3860021208907742
Correctly Classified Instances: 97.61399787910922
Weighted Precision: 0.9749254591655048
Weighted AreaUnderROC: 0.9674883072573146
Root mean squared error: 0.13190434509815524
Relative absolute error: 8.030748840583895
Root relative squared error: 26.38086901963105
Weighted TruePositiveRate: 0.9761399787910923
Weighted MatthewsCorrelation: 0.7745267552166826
Weighted FMeasure: 0.9747687132043735
Iteration time: 49.0
Weighted AreaUnderPRC: 0.988997690927697
Mean absolute error: 0.04015374420291947
Coverage of cases: 99.73488865323436
Instances selection time: 3.0
Test time: 11.0
Accumulative iteration time: 1529.0
Weighted Recall: 0.9761399787910923
Weighted FalsePositiveRate: 0.28613433226370655
Kappa statistic: 0.7680703959773728
Training time: 46.0
		
Iteration: 43
Labeled set size: 1217
Unlabelled set size: 669
	
Mean region size: 57.158006362672324
Incorrectly Classified Instances: 1.9088016967126193
Correctly Classified Instances: 98.09119830328738
Weighted Precision: 0.9801704968465266
Weighted AreaUnderROC: 0.9888213427957077
Root mean squared error: 0.1236588548812329
Relative absolute error: 7.277641754178527
Root relative squared error: 24.73177097624658
Weighted TruePositiveRate: 0.9809119830328739
Weighted MatthewsCorrelation: 0.8234897320279767
Weighted FMeasure: 0.9801498989125995
Iteration time: 50.0
Weighted AreaUnderPRC: 0.9933785148483976
Mean absolute error: 0.03638820877089263
Coverage of cases: 99.89395546129374
Instances selection time: 4.0
Test time: 11.0
Accumulative iteration time: 1579.0
Weighted Recall: 0.9809119830328739
Weighted FalsePositiveRate: 0.220776466375618
Kappa statistic: 0.8201535274765449
Training time: 46.0
		
Iteration: 44
Labeled set size: 1237
Unlabelled set size: 649
	
Mean region size: 55.911983032873806
Incorrectly Classified Instances: 2.1208907741251326
Correctly Classified Instances: 97.87910922587487
Weighted Precision: 0.9778957081426133
Weighted AreaUnderROC: 0.9941988068642132
Root mean squared error: 0.12426205828584413
Relative absolute error: 6.892897247502505
Root relative squared error: 24.852411657168826
Weighted TruePositiveRate: 0.9787910922587487
Weighted MatthewsCorrelation: 0.8044377272542685
Weighted FMeasure: 0.9780459231520181
Iteration time: 50.0
Weighted AreaUnderPRC: 0.9945031020146156
Mean absolute error: 0.034464486237512526
Coverage of cases: 100.0
Instances selection time: 3.0
Test time: 11.0
Accumulative iteration time: 1629.0
Weighted Recall: 0.9787910922587487
Weighted FalsePositiveRate: 0.2290451859911033
Kappa statistic: 0.8019084430486778
Training time: 47.0
		
Iteration: 45
Labeled set size: 1257
Unlabelled set size: 629
	
Mean region size: 55.938494167550374
Incorrectly Classified Instances: 2.3860021208907742
Correctly Classified Instances: 97.61399787910922
Weighted Precision: 0.9749254591655048
Weighted AreaUnderROC: 0.9935543662386762
Root mean squared error: 0.12460417083835364
Relative absolute error: 6.7668803843812295
Root relative squared error: 24.920834167670726
Weighted TruePositiveRate: 0.9761399787910923
Weighted MatthewsCorrelation: 0.7745267552166826
Weighted FMeasure: 0.9747687132043735
Iteration time: 46.0
Weighted AreaUnderPRC: 0.9944733000049004
Mean absolute error: 0.03383440192190615
Coverage of cases: 100.0
Instances selection time: 3.0
Test time: 10.0
Accumulative iteration time: 1675.0
Weighted Recall: 0.9761399787910923
Weighted FalsePositiveRate: 0.28613433226370655
Kappa statistic: 0.7680703959773728
Training time: 43.0
		
Iteration: 46
Labeled set size: 1277
Unlabelled set size: 609
	
Mean region size: 57.953340402969246
Incorrectly Classified Instances: 2.5980911983032873
Correctly Classified Instances: 97.4019088016967
Weighted Precision: 0.9731613344775496
Weighted AreaUnderROC: 0.988136723804574
Root mean squared error: 0.13421247230997047
Relative absolute error: 8.421321571104864
Root relative squared error: 26.842494461994093
Weighted TruePositiveRate: 0.9740190880169671
Weighted MatthewsCorrelation: 0.7477941943765242
Weighted FMeasure: 0.9715080631538686
Iteration time: 55.0
Weighted AreaUnderPRC: 0.9928684214640485
Mean absolute error: 0.04210660785552432
Coverage of cases: 99.94697773064688
Instances selection time: 4.0
Test time: 10.0
Accumulative iteration time: 1730.0
Weighted Recall: 0.9740190880169671
Weighted FalsePositiveRate: 0.35945104736197
Kappa statistic: 0.7303717621795732
Training time: 51.0
		
Time end:Wed Nov 01 08.45.53 EET 2017