Wed Nov 01 09.09.07 EET 2017
Dataset: sick
Test set size: 1886
Initial Labelled set size: 377
Initial Unlabelled set size: 1509
Batch mode: QBestBatchMode
Batch size: 20
Classifiers: IBk-1cores
Scenario: PoolBasedSamplingScenario
Query strategy: VoteEntropyQueryStrategy-1cores
Time begining: Wed Nov 01 09.09.07 EET 2017
		
Iteration: 1
Labeled set size: 377
Unlabelled set size: 1509
	
Mean region size: 50.0
Incorrectly Classified Instances: 4.984093319194061
Correctly Classified Instances: 95.01590668080594
Weighted Precision: 0.9420845358615983
Weighted AreaUnderROC: 0.6762857977790766
Root mean squared error: 0.22267660033000997
Relative absolute error: 10.442590904164431
Root relative squared error: 44.535320066001994
Weighted TruePositiveRate: 0.9501590668080594
Weighted MatthewsCorrelation: 0.4726386438395384
Weighted FMeasure: 0.9429733563071634
Iteration time: 255.0
Weighted AreaUnderPRC: 0.9178102174714191
Mean absolute error: 0.052212954520822155
Coverage of cases: 95.01590668080594
Instances selection time: 253.0
Test time: 323.0
Accumulative iteration time: 255.0
Weighted Recall: 0.9501590668080594
Weighted FalsePositiveRate: 0.5993895363190666
Kappa statistic: 0.44827028170942756
Training time: 2.0
		
Iteration: 2
Labeled set size: 397
Unlabelled set size: 1489
	
Mean region size: 50.0
Incorrectly Classified Instances: 5.090137857900318
Correctly Classified Instances: 94.90986214209968
Weighted Precision: 0.9404369623485749
Weighted AreaUnderROC: 0.6676894603545683
Root mean squared error: 0.22506110886442227
Relative absolute error: 10.629837127656534
Root relative squared error: 45.01222177288445
Weighted TruePositiveRate: 0.9490986214209968
Weighted MatthewsCorrelation: 0.4565854966402077
Weighted FMeasure: 0.9413970148178182
Iteration time: 434.0
Weighted AreaUnderPRC: 0.915956904612907
Mean absolute error: 0.05314918563828267
Coverage of cases: 94.90986214209968
Instances selection time: 433.0
Test time: 342.0
Accumulative iteration time: 689.0
Weighted Recall: 0.9490986214209968
Weighted FalsePositiveRate: 0.6155704702423488
Kappa statistic: 0.43067015496075634
Training time: 1.0
		
Iteration: 3
Labeled set size: 417
Unlabelled set size: 1469
	
Mean region size: 50.0
Incorrectly Classified Instances: 5.090137857900318
Correctly Classified Instances: 94.90986214209968
Weighted Precision: 0.9404369623485749
Weighted AreaUnderROC: 0.6676894603545683
Root mean squared error: 0.2250868660980143
Relative absolute error: 10.608378272982758
Root relative squared error: 45.01737321960286
Weighted TruePositiveRate: 0.9490986214209968
Weighted MatthewsCorrelation: 0.4565854966402077
Weighted FMeasure: 0.9413970148178182
Iteration time: 286.0
Weighted AreaUnderPRC: 0.915956904612907
Mean absolute error: 0.053041891364913794
Coverage of cases: 94.90986214209968
Instances selection time: 286.0
Test time: 360.0
Accumulative iteration time: 975.0
Weighted Recall: 0.9490986214209968
Weighted FalsePositiveRate: 0.6155704702423488
Kappa statistic: 0.43067015496075634
Training time: 0.0
		
Iteration: 4
Labeled set size: 437
Unlabelled set size: 1449
	
Mean region size: 50.0
Incorrectly Classified Instances: 5.090137857900318
Correctly Classified Instances: 94.90986214209968
Weighted Precision: 0.9404369623485749
Weighted AreaUnderROC: 0.6676894603545683
Root mean squared error: 0.2251103289157316
Relative absolute error: 10.588874673656367
Root relative squared error: 45.02206578314632
Weighted TruePositiveRate: 0.9490986214209968
Weighted MatthewsCorrelation: 0.4565854966402077
Weighted FMeasure: 0.9413970148178182
Iteration time: 292.0
Weighted AreaUnderPRC: 0.915956904612907
Mean absolute error: 0.05294437336828183
Coverage of cases: 94.90986214209968
Instances selection time: 292.0
Test time: 377.0
Accumulative iteration time: 1267.0
Weighted Recall: 0.9490986214209968
Weighted FalsePositiveRate: 0.6155704702423488
Kappa statistic: 0.43067015496075634
Training time: 0.0
		
Iteration: 5
Labeled set size: 457
Unlabelled set size: 1429
	
Mean region size: 50.0
Incorrectly Classified Instances: 5.090137857900318
Correctly Classified Instances: 94.90986214209968
Weighted Precision: 0.9404369623485749
Weighted AreaUnderROC: 0.6676894603545683
Root mean squared error: 0.22513179066569744
Relative absolute error: 10.571070739912518
Root relative squared error: 45.02635813313949
Weighted TruePositiveRate: 0.9490986214209968
Weighted MatthewsCorrelation: 0.4565854966402077
Weighted FMeasure: 0.9413970148178182
Iteration time: 299.0
Weighted AreaUnderPRC: 0.915956904612907
Mean absolute error: 0.05285535369956259
Coverage of cases: 94.90986214209968
Instances selection time: 298.0
Test time: 391.0
Accumulative iteration time: 1566.0
Weighted Recall: 0.9490986214209968
Weighted FalsePositiveRate: 0.6155704702423488
Kappa statistic: 0.43067015496075634
Training time: 1.0
		
Iteration: 6
Labeled set size: 477
Unlabelled set size: 1409
	
Mean region size: 50.0
Incorrectly Classified Instances: 5.090137857900318
Correctly Classified Instances: 94.90986214209968
Weighted Precision: 0.9404369623485749
Weighted AreaUnderROC: 0.6676894603545683
Root mean squared error: 0.2251514967570511
Relative absolute error: 10.554753569345285
Root relative squared error: 45.03029935141022
Weighted TruePositiveRate: 0.9490986214209968
Weighted MatthewsCorrelation: 0.4565854966402077
Weighted FMeasure: 0.9413970148178182
Iteration time: 305.0
Weighted AreaUnderPRC: 0.915956904612907
Mean absolute error: 0.05277376784672643
Coverage of cases: 94.90986214209968
Instances selection time: 305.0
Test time: 693.0
Accumulative iteration time: 1871.0
Weighted Recall: 0.9490986214209968
Weighted FalsePositiveRate: 0.6155704702423488
Kappa statistic: 0.43067015496075634
Training time: 0.0
		
Iteration: 7
Labeled set size: 497
Unlabelled set size: 1389
	
Mean region size: 50.0
Incorrectly Classified Instances: 5.090137857900318
Correctly Classified Instances: 94.90986214209968
Weighted Precision: 0.9404369623485749
Weighted AreaUnderROC: 0.6695402298850575
Root mean squared error: 0.22516961864800003
Relative absolute error: 10.538683955448763
Root relative squared error: 45.033923729600005
Weighted TruePositiveRate: 0.9490986214209968
Weighted MatthewsCorrelation: 0.4565854966402077
Weighted FMeasure: 0.9413970148178182
Iteration time: 302.0
Weighted AreaUnderPRC: 0.9161908708742438
Mean absolute error: 0.052693419777243816
Coverage of cases: 94.90986214209968
Instances selection time: 302.0
Test time: 409.0
Accumulative iteration time: 2173.0
Weighted Recall: 0.9490986214209968
Weighted FalsePositiveRate: 0.6155704702423488
Kappa statistic: 0.43067015496075634
Training time: 0.0
		
Iteration: 8
Labeled set size: 517
Unlabelled set size: 1369
	
Mean region size: 50.0
Incorrectly Classified Instances: 5.143160127253447
Correctly Classified Instances: 94.85683987274655
Weighted Precision: 0.9395971712366222
Weighted AreaUnderROC: 0.663766315994545
Root mean squared error: 0.2263561533778018
Relative absolute error: 10.631289878241397
Root relative squared error: 45.27123067556036
Weighted TruePositiveRate: 0.9485683987274656
Weighted MatthewsCorrelation: 0.44841489834140313
Weighted FMeasure: 0.9405999015237536
Iteration time: 310.0
Weighted AreaUnderPRC: 0.9150813184461098
Mean absolute error: 0.053156449391206985
Coverage of cases: 94.85683987274655
Instances selection time: 309.0
Test time: 565.0
Accumulative iteration time: 2483.0
Weighted Recall: 0.9485683987274656
Weighted FalsePositiveRate: 0.62366093720399
Kappa statistic: 0.4217320664302292
Training time: 1.0
		
Iteration: 9
Labeled set size: 537
Unlabelled set size: 1349
	
Mean region size: 50.0
Incorrectly Classified Instances: 5.143160127253447
Correctly Classified Instances: 94.85683987274655
Weighted Precision: 0.9395971712366222
Weighted AreaUnderROC: 0.663766315994545
Root mean squared error: 0.2263718019531531
Relative absolute error: 10.618489472503837
Root relative squared error: 45.27436039063062
Weighted TruePositiveRate: 0.9485683987274656
Weighted MatthewsCorrelation: 0.44841489834140313
Weighted FMeasure: 0.9405999015237536
Iteration time: 316.0
Weighted AreaUnderPRC: 0.9150813184461098
Mean absolute error: 0.05309244736251919
Coverage of cases: 94.85683987274655
Instances selection time: 315.0
Test time: 437.0
Accumulative iteration time: 2799.0
Weighted Recall: 0.9485683987274656
Weighted FalsePositiveRate: 0.62366093720399
Kappa statistic: 0.4217320664302292
Training time: 1.0
		
Iteration: 10
Labeled set size: 557
Unlabelled set size: 1329
	
Mean region size: 50.0
Incorrectly Classified Instances: 5.143160127253447
Correctly Classified Instances: 94.85683987274655
Weighted Precision: 0.9395971712366222
Weighted AreaUnderROC: 0.6639538281706604
Root mean squared error: 0.22638634715327235
Relative absolute error: 10.606510338433148
Root relative squared error: 45.27726943065447
Weighted TruePositiveRate: 0.9485683987274656
Weighted MatthewsCorrelation: 0.44841489834140313
Weighted FMeasure: 0.9405999015237536
Iteration time: 323.0
Weighted AreaUnderPRC: 0.9151050070957372
Mean absolute error: 0.053032551692165746
Coverage of cases: 94.85683987274655
Instances selection time: 322.0
Test time: 456.0
Accumulative iteration time: 3122.0
Weighted Recall: 0.9485683987274656
Weighted FalsePositiveRate: 0.62366093720399
Kappa statistic: 0.4217320664302292
Training time: 1.0
		
Iteration: 11
Labeled set size: 577
Unlabelled set size: 1309
	
Mean region size: 50.0
Incorrectly Classified Instances: 5.143160127253447
Correctly Classified Instances: 94.85683987274655
Weighted Precision: 0.9395971712366222
Weighted AreaUnderROC: 0.6639538281706604
Root mean squared error: 0.22639990690915082
Relative absolute error: 10.59545018710276
Root relative squared error: 45.27998138183016
Weighted TruePositiveRate: 0.9485683987274656
Weighted MatthewsCorrelation: 0.44841489834140313
Weighted FMeasure: 0.9405999015237536
Iteration time: 327.0
Weighted AreaUnderPRC: 0.9151050070957372
Mean absolute error: 0.052977250935513795
Coverage of cases: 94.85683987274655
Instances selection time: 326.0
Test time: 469.0
Accumulative iteration time: 3449.0
Weighted Recall: 0.9485683987274656
Weighted FalsePositiveRate: 0.62366093720399
Kappa statistic: 0.4217320664302292
Training time: 1.0
		
Iteration: 12
Labeled set size: 597
Unlabelled set size: 1289
	
Mean region size: 50.0
Incorrectly Classified Instances: 5.143160127253447
Correctly Classified Instances: 94.85683987274655
Weighted Precision: 0.9395971712366222
Weighted AreaUnderROC: 0.6639538281706604
Root mean squared error: 0.22641257560325628
Relative absolute error: 10.585128613048726
Root relative squared error: 45.282515120651254
Weighted TruePositiveRate: 0.9485683987274656
Weighted MatthewsCorrelation: 0.44841489834140313
Weighted FMeasure: 0.9405999015237536
Iteration time: 332.0
Weighted AreaUnderPRC: 0.9151050070957372
Mean absolute error: 0.05292564306524363
Coverage of cases: 94.85683987274655
Instances selection time: 331.0
Test time: 483.0
Accumulative iteration time: 3781.0
Weighted Recall: 0.9485683987274656
Weighted FalsePositiveRate: 0.62366093720399
Kappa statistic: 0.4217320664302292
Training time: 1.0
		
Iteration: 13
Labeled set size: 617
Unlabelled set size: 1269
	
Mean region size: 50.0
Incorrectly Classified Instances: 5.1961823966065745
Correctly Classified Instances: 94.80381760339343
Weighted Precision: 0.9386177206136179
Weighted AreaUnderROC: 0.6556545879602571
Root mean squared error: 0.2275885229352274
Relative absolute error: 10.681175932227033
Root relative squared error: 45.51770458704548
Weighted TruePositiveRate: 0.9480381760339343
Weighted MatthewsCorrelation: 0.4362871890521106
Weighted FMeasure: 0.9394080824023611
Iteration time: 336.0
Weighted AreaUnderPRC: 0.9135276854038873
Mean absolute error: 0.053405879661135164
Coverage of cases: 94.80381760339343
Instances selection time: 336.0
Test time: 498.0
Accumulative iteration time: 4117.0
Weighted Recall: 0.9480381760339343
Weighted FalsePositiveRate: 0.6398071220693912
Kappa statistic: 0.40646114322414917
Training time: 0.0
		
Iteration: 14
Labeled set size: 637
Unlabelled set size: 1249
	
Mean region size: 50.0
Incorrectly Classified Instances: 5.249204665959703
Correctly Classified Instances: 94.75079533404029
Weighted Precision: 0.9377478700927286
Weighted AreaUnderROC: 0.6517533606078315
Root mean squared error: 0.22875793198872219
Relative absolute error: 10.777683363887208
Root relative squared error: 45.75158639774444
Weighted TruePositiveRate: 0.9475079533404029
Weighted MatthewsCorrelation: 0.4278060712108585
Weighted FMeasure: 0.9385899376149245
Iteration time: 342.0
Weighted AreaUnderPRC: 0.9126585355710827
Mean absolute error: 0.05388841681943604
Coverage of cases: 94.75079533404029
Instances selection time: 342.0
Test time: 513.0
Accumulative iteration time: 4459.0
Weighted Recall: 0.9475079533404029
Weighted FalsePositiveRate: 0.6478975890310323
Kappa statistic: 0.39720286944787003
Training time: 0.0
		
Iteration: 15
Labeled set size: 657
Unlabelled set size: 1229
	
Mean region size: 50.0
Incorrectly Classified Instances: 5.302226935312832
Correctly Classified Instances: 94.69777306468717
Weighted Precision: 0.9367484935066067
Weighted AreaUnderROC: 0.6434638612896941
Root mean squared error: 0.22992095453537806
Relative absolute error: 10.874930338558709
Root relative squared error: 45.984190907075615
Weighted TruePositiveRate: 0.9469777306468717
Weighted MatthewsCorrelation: 0.4151445715198741
Weighted FMeasure: 0.937349036735485
Iteration time: 346.0
Weighted AreaUnderPRC: 0.9110855991645156
Mean absolute error: 0.05437465169279355
Coverage of cases: 94.69777306468717
Instances selection time: 345.0
Test time: 526.0
Accumulative iteration time: 4805.0
Weighted Recall: 0.9469777306468717
Weighted FalsePositiveRate: 0.6640437738964334
Kappa statistic: 0.3812011129193141
Training time: 1.0
		
Iteration: 16
Labeled set size: 677
Unlabelled set size: 1209
	
Mean region size: 50.0
Incorrectly Classified Instances: 5.302226935312832
Correctly Classified Instances: 94.69777306468717
Weighted Precision: 0.9367484935066067
Weighted AreaUnderROC: 0.6434638612896941
Root mean squared error: 0.22993097237377383
Relative absolute error: 10.866963397664959
Root relative squared error: 45.98619447475477
Weighted TruePositiveRate: 0.9469777306468717
Weighted MatthewsCorrelation: 0.4151445715198741
Weighted FMeasure: 0.937349036735485
Iteration time: 349.0
Weighted AreaUnderPRC: 0.9110855991645156
Mean absolute error: 0.05433481698832479
Coverage of cases: 94.69777306468717
Instances selection time: 348.0
Test time: 540.0
Accumulative iteration time: 5154.0
Weighted Recall: 0.9469777306468717
Weighted FalsePositiveRate: 0.6640437738964334
Kappa statistic: 0.3812011129193141
Training time: 1.0
		
Iteration: 17
Labeled set size: 697
Unlabelled set size: 1189
	
Mean region size: 50.0
Incorrectly Classified Instances: 5.302226935312832
Correctly Classified Instances: 94.69777306468717
Weighted Precision: 0.9366615377151213
Weighted AreaUnderROC: 0.6400667251120202
Root mean squared error: 0.22994041916593833
Relative absolute error: 10.859225126391124
Root relative squared error: 45.988083833187666
Weighted TruePositiveRate: 0.9469777306468717
Weighted MatthewsCorrelation: 0.41108785542811693
Weighted FMeasure: 0.9369223877829583
Iteration time: 356.0
Weighted AreaUnderPRC: 0.9105061964865372
Mean absolute error: 0.05429612563195562
Coverage of cases: 94.69777306468717
Instances selection time: 355.0
Test time: 553.0
Accumulative iteration time: 5510.0
Weighted Recall: 0.9469777306468717
Weighted FalsePositiveRate: 0.6720994918001933
Kappa statistic: 0.37441123008133387
Training time: 1.0
		
Iteration: 18
Labeled set size: 717
Unlabelled set size: 1169
	
Mean region size: 50.0
Incorrectly Classified Instances: 5.249204665959703
Correctly Classified Instances: 94.75079533404029
Weighted Precision: 0.9375130791464917
Weighted AreaUnderROC: 0.6423704461328658
Root mean squared error: 0.22879674207618675
Relative absolute error: 10.745652287915881
Root relative squared error: 45.75934841523735
Weighted TruePositiveRate: 0.9475079533404029
Weighted MatthewsCorrelation: 0.41600167716040415
Weighted FMeasure: 0.9373379969018648
Iteration time: 356.0
Weighted AreaUnderPRC: 0.9110274313335481
Mean absolute error: 0.05372826143957941
Coverage of cases: 94.75079533404029
Instances selection time: 356.0
Test time: 568.0
Accumulative iteration time: 5866.0
Weighted Recall: 0.9475079533404029
Weighted FalsePositiveRate: 0.6720647427423122
Kappa statistic: 0.3772505019644986
Training time: 0.0
		
Iteration: 19
Labeled set size: 737
Unlabelled set size: 1149
	
Mean region size: 50.0
Incorrectly Classified Instances: 5.302226935312832
Correctly Classified Instances: 94.69777306468717
Weighted Precision: 0.9365894001567614
Weighted AreaUnderROC: 0.6341442626144553
Root mean squared error: 0.22995779229099206
Relative absolute error: 10.844718485612603
Root relative squared error: 45.99155845819841
Weighted TruePositiveRate: 0.9469777306468717
Weighted MatthewsCorrelation: 0.4030290592003342
Weighted FMeasure: 0.9360363684062926
Iteration time: 370.0
Weighted AreaUnderPRC: 0.9094646798576836
Mean absolute error: 0.05422359242806302
Coverage of cases: 94.69777306468717
Instances selection time: 369.0
Test time: 585.0
Accumulative iteration time: 6236.0
Weighted Recall: 0.9469777306468717
Weighted FalsePositiveRate: 0.6882109276077133
Kappa statistic: 0.36037441497659967
Training time: 1.0
		
Iteration: 20
Labeled set size: 757
Unlabelled set size: 1129
	
Mean region size: 50.0
Incorrectly Classified Instances: 5.302226935312832
Correctly Classified Instances: 94.69777306468717
Weighted Precision: 0.9365894001567614
Weighted AreaUnderROC: 0.6341442626144553
Root mean squared error: 0.2299658085551334
Relative absolute error: 10.838387345044758
Root relative squared error: 45.99316171102668
Weighted TruePositiveRate: 0.9469777306468717
Weighted MatthewsCorrelation: 0.4030290592003342
Weighted FMeasure: 0.9360363684062926
Iteration time: 360.0
Weighted AreaUnderPRC: 0.9094646798576836
Mean absolute error: 0.054191936725223794
Coverage of cases: 94.69777306468717
Instances selection time: 359.0
Test time: 597.0
Accumulative iteration time: 6596.0
Weighted Recall: 0.9469777306468717
Weighted FalsePositiveRate: 0.6882109276077133
Kappa statistic: 0.36037441497659967
Training time: 1.0
		
Iteration: 21
Labeled set size: 777
Unlabelled set size: 1109
	
Mean region size: 50.0
Incorrectly Classified Instances: 5.249204665959703
Correctly Classified Instances: 94.75079533404029
Weighted Precision: 0.9375340513436308
Weighted AreaUnderROC: 0.6344267484901616
Root mean squared error: 0.22882069746061987
Relative absolute error: 10.726609017415118
Root relative squared error: 45.764139492123974
Weighted TruePositiveRate: 0.9475079533404029
Weighted MatthewsCorrelation: 0.40826129507512143
Weighted FMeasure: 0.9364496731464578
Iteration time: 368.0
Weighted AreaUnderPRC: 0.9097420112622857
Mean absolute error: 0.053633045087075594
Coverage of cases: 94.75079533404029
Instances selection time: 367.0
Test time: 612.0
Accumulative iteration time: 6964.0
Weighted Recall: 0.9475079533404029
Weighted FalsePositiveRate: 0.6881761785498322
Kappa statistic: 0.3631985702884657
Training time: 1.0
		
Iteration: 22
Labeled set size: 797
Unlabelled set size: 1089
	
Mean region size: 50.0
Incorrectly Classified Instances: 5.249204665959703
Correctly Classified Instances: 94.75079533404029
Weighted Precision: 0.9375340513436308
Weighted AreaUnderROC: 0.6348407364114553
Root mean squared error: 0.22882788980766192
Relative absolute error: 10.720786410393746
Root relative squared error: 45.76557796153239
Weighted TruePositiveRate: 0.9475079533404029
Weighted MatthewsCorrelation: 0.40826129507512143
Weighted FMeasure: 0.9364496731464578
Iteration time: 364.0
Weighted AreaUnderPRC: 0.9097939884431109
Mean absolute error: 0.05360393205196873
Coverage of cases: 94.75079533404029
Instances selection time: 363.0
Test time: 625.0
Accumulative iteration time: 7328.0
Weighted Recall: 0.9475079533404029
Weighted FalsePositiveRate: 0.6881761785498322
Kappa statistic: 0.3631985702884657
Training time: 1.0
		
Iteration: 23
Labeled set size: 817
Unlabelled set size: 1069
	
Mean region size: 50.0
Incorrectly Classified Instances: 5.249204665959703
Correctly Classified Instances: 94.75079533404029
Weighted Precision: 0.9375340513436308
Weighted AreaUnderROC: 0.635047730372102
Root mean squared error: 0.2288347359901333
Relative absolute error: 10.715291246006583
Root relative squared error: 45.76694719802666
Weighted TruePositiveRate: 0.9475079533404029
Weighted MatthewsCorrelation: 0.40826129507512143
Weighted FMeasure: 0.9364496731464578
Iteration time: 369.0
Weighted AreaUnderPRC: 0.9098199794656396
Mean absolute error: 0.05357645623003291
Coverage of cases: 94.75079533404029
Instances selection time: 368.0
Test time: 641.0
Accumulative iteration time: 7697.0
Weighted Recall: 0.9475079533404029
Weighted FalsePositiveRate: 0.6881761785498322
Kappa statistic: 0.3631985702884657
Training time: 1.0
		
Iteration: 24
Labeled set size: 837
Unlabelled set size: 1049
	
Mean region size: 50.0
Incorrectly Classified Instances: 5.249204665959703
Correctly Classified Instances: 94.75079533404029
Weighted Precision: 0.9375340513436308
Weighted AreaUnderROC: 0.635047730372102
Root mean squared error: 0.2288412606354928
Relative absolute error: 10.71012118819515
Root relative squared error: 45.768252127098556
Weighted TruePositiveRate: 0.9475079533404029
Weighted MatthewsCorrelation: 0.40826129507512143
Weighted FMeasure: 0.9364496731464578
Iteration time: 369.0
Weighted AreaUnderPRC: 0.9098199794656396
Mean absolute error: 0.05355060594097574
Coverage of cases: 94.75079533404029
Instances selection time: 368.0
Test time: 656.0
Accumulative iteration time: 8066.0
Weighted Recall: 0.9475079533404029
Weighted FalsePositiveRate: 0.6881761785498322
Kappa statistic: 0.3631985702884657
Training time: 1.0
		
Iteration: 25
Labeled set size: 857
Unlabelled set size: 1029
	
Mean region size: 50.0
Incorrectly Classified Instances: 5.090137857900318
Correctly Classified Instances: 94.90986214209968
Weighted Precision: 0.940901711763361
Weighted AreaUnderROC: 0.6319306448470678
Root mean squared error: 0.22535351495995806
Relative absolute error: 10.387798971098281
Root relative squared error: 45.07070299199161
Weighted TruePositiveRate: 0.9490986214209968
Weighted MatthewsCorrelation: 0.42183292413677315
Weighted FMeasure: 0.9372344825943302
Iteration time: 370.0
Weighted AreaUnderPRC: 0.9101093057704477
Mean absolute error: 0.05193899485549141
Coverage of cases: 94.90986214209968
Instances selection time: 369.0
Test time: 672.0
Accumulative iteration time: 8436.0
Weighted Recall: 0.9490986214209968
Weighted FalsePositiveRate: 0.6961276492799487
Kappa statistic: 0.3645730971165447
Training time: 1.0
		
Iteration: 26
Labeled set size: 877
Unlabelled set size: 1009
	
Mean region size: 50.0
Incorrectly Classified Instances: 5.090137857900318
Correctly Classified Instances: 94.90986214209968
Weighted Precision: 0.940901711763361
Weighted AreaUnderROC: 0.6321400740307812
Root mean squared error: 0.22535936278344215
Relative absolute error: 10.383016873731503
Root relative squared error: 45.07187255668843
Weighted TruePositiveRate: 0.9490986214209968
Weighted MatthewsCorrelation: 0.42183292413677315
Weighted FMeasure: 0.9372344825943302
Iteration time: 370.0
Weighted AreaUnderPRC: 0.9101355371262786
Mean absolute error: 0.051915084368657514
Coverage of cases: 94.90986214209968
Instances selection time: 369.0
Test time: 688.0
Accumulative iteration time: 8806.0
Weighted Recall: 0.9490986214209968
Weighted FalsePositiveRate: 0.6961276492799487
Kappa statistic: 0.3645730971165447
Training time: 1.0
		
Iteration: 27
Labeled set size: 897
Unlabelled set size: 989
	
Mean region size: 50.0
Incorrectly Classified Instances: 5.143160127253447
Correctly Classified Instances: 94.85683987274655
Weighted Precision: 0.9400229972950862
Weighted AreaUnderROC: 0.6278954802259887
Root mean squared error: 0.2265356610627891
Relative absolute error: 10.484315084795188
Root relative squared error: 45.30713221255782
Weighted TruePositiveRate: 0.9485683987274656
Weighted MatthewsCorrelation: 0.41253682518210905
Weighted FMeasure: 0.9363408998399322
Iteration time: 369.0
Weighted AreaUnderPRC: 0.9091980690389276
Mean absolute error: 0.05242157542397594
Coverage of cases: 94.85683987274655
Instances selection time: 369.0
Test time: 702.0
Accumulative iteration time: 9175.0
Weighted Recall: 0.9485683987274656
Weighted FalsePositiveRate: 0.7042181162415898
Kappa statistic: 0.3542053501457913
Training time: 0.0
		
Iteration: 28
Labeled set size: 917
Unlabelled set size: 969
	
Mean region size: 50.0
Incorrectly Classified Instances: 5.143160127253447
Correctly Classified Instances: 94.85683987274655
Weighted Precision: 0.9400229972950862
Weighted AreaUnderROC: 0.6278954802259887
Root mean squared error: 0.2265410407065346
Relative absolute error: 10.480006127952977
Root relative squared error: 45.30820814130692
Weighted TruePositiveRate: 0.9485683987274656
Weighted MatthewsCorrelation: 0.41253682518210905
Weighted FMeasure: 0.9363408998399322
Iteration time: 369.0
Weighted AreaUnderPRC: 0.9091980690389276
Mean absolute error: 0.05240003063976489
Coverage of cases: 94.85683987274655
Instances selection time: 368.0
Test time: 717.0
Accumulative iteration time: 9544.0
Weighted Recall: 0.9485683987274656
Weighted FalsePositiveRate: 0.7042181162415898
Kappa statistic: 0.3542053501457913
Training time: 1.0
		
Iteration: 29
Labeled set size: 937
Unlabelled set size: 949
	
Mean region size: 50.0
Incorrectly Classified Instances: 5.143160127253447
Correctly Classified Instances: 94.85683987274655
Weighted Precision: 0.9400229972950862
Weighted AreaUnderROC: 0.6278954802259887
Root mean squared error: 0.22654619346360957
Relative absolute error: 10.475880727825144
Root relative squared error: 45.30923869272191
Weighted TruePositiveRate: 0.9485683987274656
Weighted MatthewsCorrelation: 0.41253682518210905
Weighted FMeasure: 0.9363408998399322
Iteration time: 369.0
Weighted AreaUnderPRC: 0.9091980690389276
Mean absolute error: 0.05237940363912572
Coverage of cases: 94.85683987274655
Instances selection time: 368.0
Test time: 729.0
Accumulative iteration time: 9913.0
Weighted Recall: 0.9485683987274656
Weighted FalsePositiveRate: 0.7042181162415898
Kappa statistic: 0.3542053501457913
Training time: 1.0
		
Iteration: 30
Labeled set size: 957
Unlabelled set size: 929
	
Mean region size: 50.0
Incorrectly Classified Instances: 5.143160127253447
Correctly Classified Instances: 94.85683987274655
Weighted Precision: 0.9400229972950862
Weighted AreaUnderROC: 0.6281073446327684
Root mean squared error: 0.2265511324358771
Relative absolute error: 10.471872168647156
Root relative squared error: 45.31022648717542
Weighted TruePositiveRate: 0.9485683987274656
Weighted MatthewsCorrelation: 0.41253682518210905
Weighted FMeasure: 0.9363408998399322
Iteration time: 371.0
Weighted AreaUnderPRC: 0.9092245935469283
Mean absolute error: 0.05235936084323578
Coverage of cases: 94.85683987274655
Instances selection time: 370.0
Test time: 745.0
Accumulative iteration time: 10284.0
Weighted Recall: 0.9485683987274656
Weighted FalsePositiveRate: 0.7042181162415898
Kappa statistic: 0.3542053501457913
Training time: 1.0
		
Iteration: 31
Labeled set size: 977
Unlabelled set size: 909
	
Mean region size: 50.0
Incorrectly Classified Instances: 5.143160127253447
Correctly Classified Instances: 94.85683987274655
Weighted Precision: 0.9400229972950862
Weighted AreaUnderROC: 0.6276836158192091
Root mean squared error: 0.22655587431745183
Relative absolute error: 10.46818970300313
Root relative squared error: 45.311174863490365
Weighted TruePositiveRate: 0.9485683987274656
Weighted MatthewsCorrelation: 0.41253682518210905
Weighted FMeasure: 0.9363408998399322
Iteration time: 368.0
Weighted AreaUnderPRC: 0.909171546196745
Mean absolute error: 0.052340948515015646
Coverage of cases: 94.85683987274655
Instances selection time: 367.0
Test time: 759.0
Accumulative iteration time: 10652.0
Weighted Recall: 0.9485683987274656
Weighted FalsePositiveRate: 0.7042181162415898
Kappa statistic: 0.3542053501457913
Training time: 1.0
		
Iteration: 32
Labeled set size: 997
Unlabelled set size: 889
	
Mean region size: 50.0
Incorrectly Classified Instances: 5.143160127253447
Correctly Classified Instances: 94.85683987274655
Weighted Precision: 0.9400229972950862
Weighted AreaUnderROC: 0.6276836158192091
Root mean squared error: 0.22656042611144256
Relative absolute error: 10.464530947051779
Root relative squared error: 45.31208522228851
Weighted TruePositiveRate: 0.9485683987274656
Weighted MatthewsCorrelation: 0.41253682518210905
Weighted FMeasure: 0.9363408998399322
Iteration time: 365.0
Weighted AreaUnderPRC: 0.909171546196745
Mean absolute error: 0.05232265473525889
Coverage of cases: 94.85683987274655
Instances selection time: 365.0
Test time: 774.0
Accumulative iteration time: 11017.0
Weighted Recall: 0.9485683987274656
Weighted FalsePositiveRate: 0.7042181162415898
Kappa statistic: 0.3542053501457913
Training time: 0.0
		
Iteration: 33
Labeled set size: 1017
Unlabelled set size: 869
	
Mean region size: 50.0
Incorrectly Classified Instances: 5.143160127253447
Correctly Classified Instances: 94.85683987274655
Weighted Precision: 0.9400229972950862
Weighted AreaUnderROC: 0.6276836158192091
Root mean squared error: 0.22656480102597304
Relative absolute error: 10.461033164054829
Root relative squared error: 45.31296020519461
Weighted TruePositiveRate: 0.9485683987274656
Weighted MatthewsCorrelation: 0.41253682518210905
Weighted FMeasure: 0.9363408998399322
Iteration time: 362.0
Weighted AreaUnderPRC: 0.909171546196745
Mean absolute error: 0.05230516582027414
Coverage of cases: 94.85683987274655
Instances selection time: 361.0
Test time: 788.0
Accumulative iteration time: 11379.0
Weighted Recall: 0.9485683987274656
Weighted FalsePositiveRate: 0.7042181162415898
Kappa statistic: 0.3542053501457913
Training time: 1.0
		
Iteration: 34
Labeled set size: 1037
Unlabelled set size: 849
	
Mean region size: 50.0
Incorrectly Classified Instances: 5.1961823966065745
Correctly Classified Instances: 94.80381760339343
Weighted Precision: 0.9391240561637391
Weighted AreaUnderROC: 0.6240794856808882
Root mean squared error: 0.22773387230127567
Relative absolute error: 10.563306455343211
Root relative squared error: 45.546774460255136
Weighted TruePositiveRate: 0.9480381760339343
Weighted MatthewsCorrelation: 0.40307601112938796
Weighted FMeasure: 0.9354391319855621
Iteration time: 363.0
Weighted AreaUnderPRC: 0.9083165362820842
Mean absolute error: 0.05281653227671606
Coverage of cases: 94.80381760339343
Instances selection time: 362.0
Test time: 816.0
Accumulative iteration time: 11742.0
Weighted Recall: 0.9480381760339343
Weighted FalsePositiveRate: 0.7123085832032309
Kappa statistic: 0.34371582371071036
Training time: 1.0
		
Iteration: 35
Labeled set size: 1057
Unlabelled set size: 829
	
Mean region size: 50.0
Incorrectly Classified Instances: 5.1961823966065745
Correctly Classified Instances: 94.80381760339343
Weighted Precision: 0.9391240561637391
Weighted AreaUnderROC: 0.6240794856808882
Root mean squared error: 0.22773794446278497
Relative absolute error: 10.560078069301175
Root relative squared error: 45.547588892556995
Weighted TruePositiveRate: 0.9480381760339343
Weighted MatthewsCorrelation: 0.40307601112938796
Weighted FMeasure: 0.9354391319855621
Iteration time: 365.0
Weighted AreaUnderPRC: 0.9083165362820842
Mean absolute error: 0.052800390346505875
Coverage of cases: 94.80381760339343
Instances selection time: 364.0
Test time: 821.0
Accumulative iteration time: 12107.0
Weighted Recall: 0.9480381760339343
Weighted FalsePositiveRate: 0.7123085832032309
Kappa statistic: 0.34371582371071036
Training time: 1.0
		
Iteration: 36
Labeled set size: 1077
Unlabelled set size: 809
	
Mean region size: 50.0
Incorrectly Classified Instances: 5.249204665959703
Correctly Classified Instances: 94.75079533404029
Weighted Precision: 0.9382032050087408
Weighted AreaUnderROC: 0.6196230274693162
Root mean squared error: 0.22890084795121837
Relative absolute error: 10.662866437415893
Root relative squared error: 45.78016959024367
Weighted TruePositiveRate: 0.9475079533404029
Weighted MatthewsCorrelation: 0.3934417744041693
Weighted FMeasure: 0.9345290156856046
Iteration time: 357.0
Weighted AreaUnderPRC: 0.9073572903308754
Mean absolute error: 0.05331433218707946
Coverage of cases: 94.75079533404029
Instances selection time: 356.0
Test time: 832.0
Accumulative iteration time: 12464.0
Weighted Recall: 0.9475079533404029
Weighted FalsePositiveRate: 0.7203990501648722
Kappa statistic: 0.33310235950481054
Training time: 1.0
		
Iteration: 37
Labeled set size: 1097
Unlabelled set size: 789
	
Mean region size: 50.0
Incorrectly Classified Instances: 5.249204665959703
Correctly Classified Instances: 94.75079533404029
Weighted Precision: 0.9382032050087408
Weighted AreaUnderROC: 0.6200564971751413
Root mean squared error: 0.2289046472791693
Relative absolute error: 10.659769113933908
Root relative squared error: 45.780929455833856
Weighted TruePositiveRate: 0.9475079533404029
Weighted MatthewsCorrelation: 0.3934417744041693
Weighted FMeasure: 0.9345290156856046
Iteration time: 370.0
Weighted AreaUnderPRC: 0.9074115087159271
Mean absolute error: 0.053298845569669545
Coverage of cases: 94.75079533404029
Instances selection time: 370.0
Test time: 857.0
Accumulative iteration time: 12834.0
Weighted Recall: 0.9475079533404029
Weighted FalsePositiveRate: 0.7203990501648722
Kappa statistic: 0.33310235950481054
Training time: 0.0
		
Iteration: 38
Labeled set size: 1117
Unlabelled set size: 769
	
Mean region size: 50.0
Incorrectly Classified Instances: 5.249204665959703
Correctly Classified Instances: 94.75079533404029
Weighted Precision: 0.9382032050087408
Weighted AreaUnderROC: 0.6198397623222287
Root mean squared error: 0.22890831407624432
Relative absolute error: 10.656932432780327
Root relative squared error: 45.781662815248865
Weighted TruePositiveRate: 0.9475079533404029
Weighted MatthewsCorrelation: 0.3934417744041693
Weighted FMeasure: 0.9345290156856046
Iteration time: 353.0
Weighted AreaUnderPRC: 0.9073843986685892
Mean absolute error: 0.05328466216390163
Coverage of cases: 94.75079533404029
Instances selection time: 352.0
Test time: 867.0
Accumulative iteration time: 13187.0
Weighted Recall: 0.9475079533404029
Weighted FalsePositiveRate: 0.7203990501648722
Kappa statistic: 0.33310235950481054
Training time: 1.0
		
Iteration: 39
Labeled set size: 1137
Unlabelled set size: 749
	
Mean region size: 50.0
Incorrectly Classified Instances: 5.249204665959703
Correctly Classified Instances: 94.75079533404029
Weighted Precision: 0.9390004669677826
Weighted AreaUnderROC: 0.6123684979544126
Root mean squared error: 0.22891185109566378
Relative absolute error: 10.654055841860268
Root relative squared error: 45.78237021913276
Weighted TruePositiveRate: 0.9475079533404029
Weighted MatthewsCorrelation: 0.3866323513053615
Weighted FMeasure: 0.9334889604797999
Iteration time: 351.0
Weighted AreaUnderPRC: 0.9062191297301238
Mean absolute error: 0.05327027920930134
Coverage of cases: 94.75079533404029
Instances selection time: 350.0
Test time: 897.0
Accumulative iteration time: 13538.0
Weighted Recall: 0.9475079533404029
Weighted FalsePositiveRate: 0.736510485972392
Kappa statistic: 0.31696164004711697
Training time: 1.0
		
Iteration: 40
Labeled set size: 1157
Unlabelled set size: 729
	
Mean region size: 50.0
Incorrectly Classified Instances: 5.302226935312832
Correctly Classified Instances: 94.69777306468717
Weighted Precision: 0.9380531732712853
Weighted AreaUnderROC: 0.6081336450418858
Root mean squared error: 0.23006848503448465
Relative absolute error: 10.757231490355577
Root relative squared error: 46.01369700689693
Weighted TruePositiveRate: 0.9469777306468717
Weighted MatthewsCorrelation: 0.3764839361587821
Weighted FMeasure: 0.9325453669241637
Iteration time: 349.0
Weighted AreaUnderPRC: 0.9052834639137918
Mean absolute error: 0.05378615745177789
Coverage of cases: 94.69777306468717
Instances selection time: 349.0
Test time: 901.0
Accumulative iteration time: 13887.0
Weighted Recall: 0.9469777306468717
Weighted FalsePositiveRate: 0.7446009529340332
Kappa statistic: 0.30586226187321525
Training time: 0.0
		
Iteration: 41
Labeled set size: 1177
Unlabelled set size: 709
	
Mean region size: 50.0
Incorrectly Classified Instances: 5.408271474019088
Correctly Classified Instances: 94.59172852598091
Weighted Precision: 0.9360669512804572
Weighted AreaUnderROC: 0.599892850185077
Root mean squared error: 0.23236110129792842
Relative absolute error: 10.966324188246958
Root relative squared error: 46.47222025958568
Weighted TruePositiveRate: 0.9459172852598091
Weighted MatthewsCorrelation: 0.3555129945548188
Weighted FMeasure: 0.9306301704464707
Iteration time: 388.0
Weighted AreaUnderPRC: 0.9034486160335661
Mean absolute error: 0.05483162094123479
Coverage of cases: 94.59172852598091
Instances selection time: 387.0
Test time: 915.0
Accumulative iteration time: 14275.0
Weighted Recall: 0.9459172852598091
Weighted FalsePositiveRate: 0.7607818868573153
Kappa statistic: 0.28325310362300427
Training time: 1.0
		
Iteration: 42
Labeled set size: 1197
Unlabelled set size: 689
	
Mean region size: 50.0
Incorrectly Classified Instances: 5.408271474019088
Correctly Classified Instances: 94.59172852598091
Weighted Precision: 0.9360669512804572
Weighted AreaUnderROC: 0.599892850185077
Root mean squared error: 0.23236434373216885
Relative absolute error: 10.963825732522944
Root relative squared error: 46.47286874643377
Weighted TruePositiveRate: 0.9459172852598091
Weighted MatthewsCorrelation: 0.3555129945548188
Weighted FMeasure: 0.9306301704464707
Iteration time: 337.0
Weighted AreaUnderPRC: 0.9034486160335661
Mean absolute error: 0.054819128662614715
Coverage of cases: 94.59172852598091
Instances selection time: 337.0
Test time: 924.0
Accumulative iteration time: 14612.0
Weighted Recall: 0.9459172852598091
Weighted FalsePositiveRate: 0.7607818868573153
Kappa statistic: 0.28325310362300427
Training time: 0.0
		
Iteration: 43
Labeled set size: 1217
Unlabelled set size: 669
	
Mean region size: 50.0
Incorrectly Classified Instances: 5.408271474019088
Correctly Classified Instances: 94.59172852598091
Weighted Precision: 0.9360669512804572
Weighted AreaUnderROC: 0.599892850185077
Root mean squared error: 0.23236748053565515
Relative absolute error: 10.961409261215906
Root relative squared error: 46.47349610713103
Weighted TruePositiveRate: 0.9459172852598091
Weighted MatthewsCorrelation: 0.3555129945548188
Weighted FMeasure: 0.9306301704464707
Iteration time: 334.0
Weighted AreaUnderPRC: 0.9034486160335661
Mean absolute error: 0.05480704630607953
Coverage of cases: 94.59172852598091
Instances selection time: 333.0
Test time: 943.0
Accumulative iteration time: 14946.0
Weighted Recall: 0.9459172852598091
Weighted FalsePositiveRate: 0.7607818868573153
Kappa statistic: 0.28325310362300427
Training time: 1.0
		
Iteration: 44
Labeled set size: 1237
Unlabelled set size: 649
	
Mean region size: 50.0
Incorrectly Classified Instances: 5.408271474019088
Correctly Classified Instances: 94.59172852598091
Weighted Precision: 0.9360669512804572
Weighted AreaUnderROC: 0.599892850185077
Root mean squared error: 0.23237051678716203
Relative absolute error: 10.959070804105874
Root relative squared error: 46.474103357432405
Weighted TruePositiveRate: 0.9459172852598091
Weighted MatthewsCorrelation: 0.3555129945548188
Weighted FMeasure: 0.9306301704464707
Iteration time: 326.0
Weighted AreaUnderPRC: 0.9034486160335661
Mean absolute error: 0.054795354020529374
Coverage of cases: 94.59172852598091
Instances selection time: 325.0
Test time: 950.0
Accumulative iteration time: 15272.0
Weighted Recall: 0.9459172852598091
Weighted FalsePositiveRate: 0.7607818868573153
Kappa statistic: 0.28325310362300427
Training time: 1.0
		
Iteration: 45
Labeled set size: 1257
Unlabelled set size: 629
	
Mean region size: 50.0
Incorrectly Classified Instances: 5.408271474019088
Correctly Classified Instances: 94.59172852598091
Weighted Precision: 0.9360669512804572
Weighted AreaUnderROC: 0.5994350282485875
Root mean squared error: 0.23237345832410924
Relative absolute error: 10.956890805478508
Root relative squared error: 46.47469166482185
Weighted TruePositiveRate: 0.9459172852598091
Weighted MatthewsCorrelation: 0.3555129945548188
Weighted FMeasure: 0.9306301704464707
Iteration time: 369.0
Weighted AreaUnderPRC: 0.9033915477664525
Mean absolute error: 0.05478445402739254
Coverage of cases: 94.59172852598091
Instances selection time: 368.0
Test time: 970.0
Accumulative iteration time: 15641.0
Weighted Recall: 0.9459172852598091
Weighted FalsePositiveRate: 0.7607818868573153
Kappa statistic: 0.28325310362300427
Training time: 1.0
		
Iteration: 46
Labeled set size: 1277
Unlabelled set size: 609
	
Mean region size: 50.0
Incorrectly Classified Instances: 5.408271474019088
Correctly Classified Instances: 94.59172852598091
Weighted Precision: 0.9360669512804572
Weighted AreaUnderROC: 0.5994350282485875
Root mean squared error: 0.23237630741764786
Relative absolute error: 10.95469614046426
Root relative squared error: 46.47526148352957
Weighted TruePositiveRate: 0.9459172852598091
Weighted MatthewsCorrelation: 0.3555129945548188
Weighted FMeasure: 0.9306301704464707
Iteration time: 316.0
Weighted AreaUnderPRC: 0.9033915477664525
Mean absolute error: 0.054773480702321305
Coverage of cases: 94.59172852598091
Instances selection time: 315.0
Test time: 978.0
Accumulative iteration time: 15957.0
Weighted Recall: 0.9459172852598091
Weighted FalsePositiveRate: 0.7607818868573153
Kappa statistic: 0.28325310362300427
Training time: 1.0
		
Time end:Wed Nov 01 09.09.57 EET 2017