Wed Nov 01 08.34.42 EET 2017
Dataset: sick
Test set size: 1886
Initial Labelled set size: 377
Initial Unlabelled set size: 1509
Batch mode: QBestBatchMode
Batch size: 20
Classifiers: RandomForest-1cores
Scenario: PoolBasedSamplingScenario
Query strategy: KullbackLeiblerDivergenceQueryStrategy-1cores
Time begining: Wed Nov 01 08.34.42 EET 2017
		
Iteration: 1
Labeled set size: 377
Unlabelled set size: 1509
	
Mean region size: 59.915164369035
Incorrectly Classified Instances: 4.08271474019088
Correctly Classified Instances: 95.91728525980912
Weighted Precision: 0.9581763257823401
Weighted AreaUnderROC: 0.9344021793361278
Root mean squared error: 0.17004281512334135
Relative absolute error: 11.714644344096332
Root relative squared error: 34.00856302466827
Weighted TruePositiveRate: 0.9591728525980912
Weighted MatthewsCorrelation: 0.5673303111069075
Weighted FMeasure: 0.9505719680028005
Iteration time: 18.0
Weighted AreaUnderPRC: 0.9780411246367378
Mean absolute error: 0.05857322172048166
Coverage of cases: 99.46977730646871
Instances selection time: 8.0
Test time: 8.0
Accumulative iteration time: 18.0
Weighted Recall: 0.9591728525980912
Weighted FalsePositiveRate: 0.5987988023350872
Kappa statistic: 0.5047099991132508
Training time: 10.0
		
Iteration: 2
Labeled set size: 397
Unlabelled set size: 1489
	
Mean region size: 59.33191940615058
Incorrectly Classified Instances: 4.40084835630965
Correctly Classified Instances: 95.59915164369035
Weighted Precision: 0.9506199734618591
Weighted AreaUnderROC: 0.934406140770045
Root mean squared error: 0.17691787477043208
Relative absolute error: 11.86670632319442
Root relative squared error: 35.38357495408641
Weighted TruePositiveRate: 0.9559915164369035
Weighted MatthewsCorrelation: 0.5348953670336969
Weighted FMeasure: 0.9488479049194598
Iteration time: 20.0
Weighted AreaUnderPRC: 0.9729193102210675
Mean absolute error: 0.059333531615972095
Coverage of cases: 99.52279957582185
Instances selection time: 9.0
Test time: 8.0
Accumulative iteration time: 38.0
Weighted Recall: 0.9559915164369035
Weighted FalsePositiveRate: 0.574840142971094
Kappa statistic: 0.49996486229212866
Training time: 11.0
		
Iteration: 3
Labeled set size: 417
Unlabelled set size: 1469
	
Mean region size: 58.61611876988335
Incorrectly Classified Instances: 3.4464475079533403
Correctly Classified Instances: 96.55355249204666
Weighted Precision: 0.9634846630515751
Weighted AreaUnderROC: 0.9478361868053159
Root mean squared error: 0.1603949517675323
Relative absolute error: 10.18706036184394
Root relative squared error: 32.07899035350646
Weighted TruePositiveRate: 0.9655355249204666
Weighted MatthewsCorrelation: 0.6533189059446702
Weighted FMeasure: 0.9609247677781619
Iteration time: 18.0
Weighted AreaUnderPRC: 0.9806371602794842
Mean absolute error: 0.0509353018092197
Coverage of cases: 99.41675503711559
Instances selection time: 7.0
Test time: 8.0
Accumulative iteration time: 56.0
Weighted Recall: 0.9655355249204666
Weighted FalsePositiveRate: 0.4694903271803536
Kappa statistic: 0.6242866687507278
Training time: 11.0
		
Iteration: 4
Labeled set size: 437
Unlabelled set size: 1449
	
Mean region size: 58.53658536585366
Incorrectly Classified Instances: 3.605514316012725
Correctly Classified Instances: 96.39448568398727
Weighted Precision: 0.9616697491299487
Weighted AreaUnderROC: 0.9437493350265752
Root mean squared error: 0.15827427719997977
Relative absolute error: 10.430430952587182
Root relative squared error: 31.654855439995956
Weighted TruePositiveRate: 0.9639448568398727
Weighted MatthewsCorrelation: 0.6335405359480888
Weighted FMeasure: 0.9587466832860333
Iteration time: 19.0
Weighted AreaUnderPRC: 0.9803058119574588
Mean absolute error: 0.05215215476293591
Coverage of cases: 99.57582184517497
Instances selection time: 8.0
Test time: 8.0
Accumulative iteration time: 75.0
Weighted Recall: 0.9639448568398727
Weighted FalsePositiveRate: 0.49376172806527696
Kappa statistic: 0.6008763740025646
Training time: 11.0
		
Iteration: 5
Labeled set size: 457
Unlabelled set size: 1429
	
Mean region size: 59.38494167550371
Incorrectly Classified Instances: 4.294803817603394
Correctly Classified Instances: 95.7051961823966
Weighted Precision: 0.954423184975302
Weighted AreaUnderROC: 0.9343401805711448
Root mean squared error: 0.17240041390649857
Relative absolute error: 11.342806538990791
Root relative squared error: 34.480082781299714
Weighted TruePositiveRate: 0.957051961823966
Weighted MatthewsCorrelation: 0.5384086718284008
Weighted FMeasure: 0.94800427802892
Iteration time: 22.0
Weighted AreaUnderPRC: 0.9757377799261779
Mean absolute error: 0.05671403269495395
Coverage of cases: 99.52279957582185
Instances selection time: 8.0
Test time: 8.0
Accumulative iteration time: 97.0
Weighted Recall: 0.957051961823966
Weighted FalsePositiveRate: 0.6150492343741316
Kappa statistic: 0.4789806484178352
Training time: 14.0
		
Iteration: 6
Labeled set size: 477
Unlabelled set size: 1409
	
Mean region size: 58.0593849416755
Incorrectly Classified Instances: 3.76458112407211
Correctly Classified Instances: 96.23541887592789
Weighted Precision: 0.9610541173610428
Weighted AreaUnderROC: 0.9435039637064478
Root mean squared error: 0.16305814638490554
Relative absolute error: 10.490026842938509
Root relative squared error: 32.611629276981105
Weighted TruePositiveRate: 0.9623541887592789
Weighted MatthewsCorrelation: 0.610808210147974
Weighted FMeasure: 0.9556664925302651
Iteration time: 20.0
Weighted AreaUnderPRC: 0.979148413314775
Mean absolute error: 0.052450134214692544
Coverage of cases: 99.52279957582185
Instances selection time: 8.0
Test time: 8.0
Accumulative iteration time: 117.0
Weighted Recall: 0.9623541887592789
Weighted FalsePositiveRate: 0.5422002826614803
Kappa statistic: 0.5630241680209377
Training time: 12.0
		
Iteration: 7
Labeled set size: 497
Unlabelled set size: 1389
	
Mean region size: 58.27147401908802
Incorrectly Classified Instances: 3.2873806998939554
Correctly Classified Instances: 96.71261930010604
Weighted Precision: 0.964891599565533
Weighted AreaUnderROC: 0.9570185013941975
Root mean squared error: 0.14905935222237673
Relative absolute error: 9.473130769094004
Root relative squared error: 29.811870444475346
Weighted TruePositiveRate: 0.9671261930010604
Weighted MatthewsCorrelation: 0.674571689964242
Weighted FMeasure: 0.9634810504815515
Iteration time: 21.0
Weighted AreaUnderPRC: 0.9843554527698215
Mean absolute error: 0.04736565384547002
Coverage of cases: 99.57582184517497
Instances selection time: 7.0
Test time: 10.0
Accumulative iteration time: 138.0
Weighted Recall: 0.9671261930010604
Weighted FalsePositiveRate: 0.4291074904879103
Kappa statistic: 0.6539080813581789
Training time: 14.0
		
Iteration: 8
Labeled set size: 517
Unlabelled set size: 1369
	
Mean region size: 60.021208907741254
Incorrectly Classified Instances: 4.559915164369035
Correctly Classified Instances: 95.44008483563097
Weighted Precision: 0.9488504910624553
Weighted AreaUnderROC: 0.9409934527362196
Root mean squared error: 0.17289697409145013
Relative absolute error: 11.772410344839257
Root relative squared error: 34.57939481829003
Weighted TruePositiveRate: 0.9544008483563097
Weighted MatthewsCorrelation: 0.5072496943905537
Weighted FMeasure: 0.945753253493344
Iteration time: 22.0
Weighted AreaUnderPRC: 0.9750772421122527
Mean absolute error: 0.058862051724196285
Coverage of cases: 99.46977730646871
Instances selection time: 7.0
Test time: 8.0
Accumulative iteration time: 160.0
Weighted Recall: 0.9544008483563097
Weighted FalsePositiveRate: 0.6152229796635373
Kappa statistic: 0.46199365786994684
Training time: 15.0
		
Iteration: 9
Labeled set size: 537
Unlabelled set size: 1349
	
Mean region size: 59.04029692470838
Incorrectly Classified Instances: 4.506892895015906
Correctly Classified Instances: 95.49310710498409
Weighted Precision: 0.950670044168264
Weighted AreaUnderROC: 0.9205478725085576
Root mean squared error: 0.17635077290101828
Relative absolute error: 11.705319028046253
Root relative squared error: 35.27015458020365
Weighted TruePositiveRate: 0.954931071049841
Weighted MatthewsCorrelation: 0.5094870325498942
Weighted FMeasure: 0.9454365880550395
Iteration time: 23.0
Weighted AreaUnderPRC: 0.9713504582703338
Mean absolute error: 0.058526595140231265
Coverage of cases: 99.31071049840934
Instances selection time: 7.0
Test time: 8.0
Accumulative iteration time: 183.0
Weighted Recall: 0.954931071049841
Weighted FalsePositiveRate: 0.6312996664131761
Kappa statistic: 0.45325129772242095
Training time: 16.0
		
Iteration: 10
Labeled set size: 557
Unlabelled set size: 1329
	
Mean region size: 58.24496288441145
Incorrectly Classified Instances: 5.143160127253447
Correctly Classified Instances: 94.85683987274655
Weighted Precision: 0.9408167369169791
Weighted AreaUnderROC: 0.8945388431249445
Root mean squared error: 0.19097880182783078
Relative absolute error: 12.131636509247059
Root relative squared error: 38.19576036556616
Weighted TruePositiveRate: 0.9485683987274656
Weighted MatthewsCorrelation: 0.4063197759535683
Weighted FMeasure: 0.9353490800641939
Iteration time: 22.0
Weighted AreaUnderPRC: 0.9628532233172099
Mean absolute error: 0.06065818254623529
Coverage of cases: 99.15164369034994
Instances selection time: 7.0
Test time: 8.0
Accumulative iteration time: 205.0
Weighted Recall: 0.9485683987274656
Weighted FalsePositiveRate: 0.7203295520491099
Kappa statistic: 0.33876226207774
Training time: 15.0
		
Iteration: 11
Labeled set size: 577
Unlabelled set size: 1309
	
Mean region size: 58.006362672322375
Incorrectly Classified Instances: 3.658536585365854
Correctly Classified Instances: 96.34146341463415
Weighted Precision: 0.9607864748814403
Weighted AreaUnderROC: 0.9565193607206318
Root mean squared error: 0.1573983967774044
Relative absolute error: 9.741905476937445
Root relative squared error: 31.479679355480876
Weighted TruePositiveRate: 0.9634146341463414
Weighted MatthewsCorrelation: 0.6279092756075298
Weighted FMeasure: 0.958268198519422
Iteration time: 21.0
Weighted AreaUnderPRC: 0.9822054813143153
Mean absolute error: 0.04870952738468723
Coverage of cases: 99.6288441145281
Instances selection time: 6.0
Test time: 8.0
Accumulative iteration time: 226.0
Weighted Recall: 0.9634146341463414
Weighted FalsePositiveRate: 0.4937964771231581
Kappa statistic: 0.597080915728006
Training time: 15.0
		
Iteration: 12
Labeled set size: 597
Unlabelled set size: 1289
	
Mean region size: 58.0593849416755
Incorrectly Classified Instances: 4.612937433722164
Correctly Classified Instances: 95.38706256627783
Weighted Precision: 0.9504489510294113
Weighted AreaUnderROC: 0.8965219307460781
Root mean squared error: 0.18368851009206288
Relative absolute error: 11.713702971074111
Root relative squared error: 36.73770201841258
Weighted TruePositiveRate: 0.9538706256627784
Weighted MatthewsCorrelation: 0.49007763166939805
Weighted FMeasure: 0.9429036936708669
Iteration time: 23.0
Weighted AreaUnderPRC: 0.9672902151820614
Mean absolute error: 0.05856851485537056
Coverage of cases: 99.15164369034994
Instances selection time: 7.0
Test time: 9.0
Accumulative iteration time: 249.0
Weighted Recall: 0.9538706256627784
Weighted FalsePositiveRate: 0.6635920361439785
Kappa statistic: 0.42078211817199795
Training time: 16.0
		
Iteration: 13
Labeled set size: 617
Unlabelled set size: 1269
	
Mean region size: 57.47613997879109
Incorrectly Classified Instances: 4.241781548250265
Correctly Classified Instances: 95.75821845174974
Weighted Precision: 0.9572700252415874
Weighted AreaUnderROC: 0.9239195976629296
Root mean squared error: 0.17527117224290692
Relative absolute error: 10.724340615489448
Root relative squared error: 35.05423444858138
Weighted TruePositiveRate: 0.9575821845174973
Weighted MatthewsCorrelation: 0.5443707593192073
Weighted FMeasure: 0.9476954021619418
Iteration time: 24.0
Weighted AreaUnderPRC: 0.9756976850441513
Mean absolute error: 0.053621703077447236
Coverage of cases: 99.31071049840934
Instances selection time: 7.0
Test time: 8.0
Accumulative iteration time: 273.0
Weighted Recall: 0.9575821845174973
Weighted FalsePositiveRate: 0.6311259211237705
Kappa statistic: 0.4704775809304541
Training time: 17.0
		
Iteration: 14
Labeled set size: 637
Unlabelled set size: 1249
	
Mean region size: 58.51007423117709
Incorrectly Classified Instances: 4.241781548250265
Correctly Classified Instances: 95.75821845174974
Weighted Precision: 0.9536937365048072
Weighted AreaUnderROC: 0.9415513693132764
Root mean squared error: 0.16902042837274195
Relative absolute error: 10.919415689083714
Root relative squared error: 33.80408567454839
Weighted TruePositiveRate: 0.9575821845174973
Weighted MatthewsCorrelation: 0.5499243453073979
Weighted FMeasure: 0.9498792293883879
Iteration time: 23.0
Weighted AreaUnderPRC: 0.976651309150074
Mean absolute error: 0.05459707844541857
Coverage of cases: 99.52279957582185
Instances selection time: 7.0
Test time: 8.0
Accumulative iteration time: 296.0
Weighted Recall: 0.9575821845174973
Weighted FalsePositiveRate: 0.5827916137012106
Kappa statistic: 0.5049608903354504
Training time: 16.0
		
Iteration: 15
Labeled set size: 657
Unlabelled set size: 1229
	
Mean region size: 57.42311770943797
Incorrectly Classified Instances: 5.249204665959703
Correctly Classified Instances: 94.75079533404029
Weighted Precision: 0.9390004669677826
Weighted AreaUnderROC: 0.9215758465331203
Root mean squared error: 0.18427953181230203
Relative absolute error: 11.352842519412903
Root relative squared error: 36.8559063624604
Weighted TruePositiveRate: 0.9475079533404029
Weighted MatthewsCorrelation: 0.3866323513053615
Weighted FMeasure: 0.9334889604797999
Iteration time: 23.0
Weighted AreaUnderPRC: 0.9698228759785694
Mean absolute error: 0.05676421259706451
Coverage of cases: 99.2576882290562
Instances selection time: 6.0
Test time: 8.0
Accumulative iteration time: 319.0
Weighted Recall: 0.9475079533404029
Weighted FalsePositiveRate: 0.736510485972392
Kappa statistic: 0.31696164004711697
Training time: 17.0
		
Iteration: 16
Labeled set size: 677
Unlabelled set size: 1209
	
Mean region size: 57.104984093319196
Incorrectly Classified Instances: 4.878048780487805
Correctly Classified Instances: 95.1219512195122
Weighted Precision: 0.9501468365444841
Weighted AreaUnderROC: 0.9160109408916873
Root mean squared error: 0.18274218464315425
Relative absolute error: 11.03415427528678
Root relative squared error: 36.54843692863085
Weighted TruePositiveRate: 0.9512195121951219
Weighted MatthewsCorrelation: 0.4430310610875215
Weighted FMeasure: 0.9369059677366345
Iteration time: 24.0
Weighted AreaUnderPRC: 0.9723659518879627
Mean absolute error: 0.0551707713764339
Coverage of cases: 99.15164369034994
Instances selection time: 7.0
Test time: 8.0
Accumulative iteration time: 343.0
Weighted Recall: 0.9512195121951219
Weighted FalsePositiveRate: 0.7282115246634641
Kappa statistic: 0.34545509415741177
Training time: 17.0
		
Iteration: 17
Labeled set size: 697
Unlabelled set size: 1189
	
Mean region size: 56.68080593849417
Incorrectly Classified Instances: 4.825026511134676
Correctly Classified Instances: 95.17497348886532
Weighted Precision: 0.9522865704446584
Weighted AreaUnderROC: 0.8997973264297987
Root mean squared error: 0.1850070306958919
Relative absolute error: 10.781674500641882
Root relative squared error: 37.00140613917838
Weighted TruePositiveRate: 0.9517497348886532
Weighted MatthewsCorrelation: 0.4521820580364356
Weighted FMeasure: 0.9373264529813914
Iteration time: 23.0
Weighted AreaUnderPRC: 0.9703438019044086
Mean absolute error: 0.05390837250320941
Coverage of cases: 98.93955461293743
Instances selection time: 6.0
Test time: 8.0
Accumulative iteration time: 366.0
Weighted Recall: 0.9517497348886532
Weighted FalsePositiveRate: 0.7281767756055829
Kappa statistic: 0.3485047488175409
Training time: 17.0
		
Iteration: 18
Labeled set size: 717
Unlabelled set size: 1169
	
Mean region size: 57.05196182396607
Incorrectly Classified Instances: 4.40084835630965
Correctly Classified Instances: 95.59915164369035
Weighted Precision: 0.9555623114240395
Weighted AreaUnderROC: 0.9314978181640886
Root mean squared error: 0.16741698704413008
Relative absolute error: 9.99836010486624
Root relative squared error: 33.483397408826015
Weighted TruePositiveRate: 0.9559915164369035
Weighted MatthewsCorrelation: 0.520747146315173
Weighted FMeasure: 0.9451101848677291
Iteration time: 23.0
Weighted AreaUnderPRC: 0.9778587255739544
Mean absolute error: 0.0499918005243312
Coverage of cases: 99.31071049840934
Instances selection time: 6.0
Test time: 8.0
Accumulative iteration time: 389.0
Weighted Recall: 0.9559915164369035
Weighted FalsePositiveRate: 0.6553973220086939
Kappa statistic: 0.44088379635251823
Training time: 17.0
		
Iteration: 19
Labeled set size: 737
Unlabelled set size: 1149
	
Mean region size: 56.336161187698835
Incorrectly Classified Instances: 4.188759278897137
Correctly Classified Instances: 95.81124072110286
Weighted Precision: 0.9578322082266421
Weighted AreaUnderROC: 0.9340654781125354
Root mean squared error: 0.1656894404205792
Relative absolute error: 9.490576550263208
Root relative squared error: 33.13788808411584
Weighted TruePositiveRate: 0.9581124072110286
Weighted MatthewsCorrelation: 0.5520393957192231
Weighted FMeasure: 0.948541927530804
Iteration time: 23.0
Weighted AreaUnderPRC: 0.979334058830592
Mean absolute error: 0.04745288275131604
Coverage of cases: 99.36373276776246
Instances selection time: 5.0
Test time: 8.0
Accumulative iteration time: 412.0
Weighted Recall: 0.9581124072110286
Weighted FalsePositiveRate: 0.6230354541621295
Kappa statistic: 0.4801144492131616
Training time: 18.0
		
Iteration: 20
Labeled set size: 757
Unlabelled set size: 1129
	
Mean region size: 57.05196182396607
Incorrectly Classified Instances: 3.9236479321314954
Correctly Classified Instances: 96.0763520678685
Weighted Precision: 0.9599028463554258
Weighted AreaUnderROC: 0.930823842419427
Root mean squared error: 0.1640109334275897
Relative absolute error: 9.77129296625697
Root relative squared error: 32.802186685517945
Weighted TruePositiveRate: 0.9607635206786851
Weighted MatthewsCorrelation: 0.5892168261016257
Weighted FMeasure: 0.9529988737176488
Iteration time: 24.0
Weighted AreaUnderPRC: 0.9787940694025014
Mean absolute error: 0.048856464831284856
Coverage of cases: 99.36373276776246
Instances selection time: 6.0
Test time: 8.0
Accumulative iteration time: 436.0
Weighted Recall: 0.9607635206786851
Weighted FalsePositiveRate: 0.5745274014501637
Kappa statistic: 0.5319283088728507
Training time: 18.0
		
Iteration: 21
Labeled set size: 777
Unlabelled set size: 1109
	
Mean region size: 57.90031813361612
Incorrectly Classified Instances: 4.612937433722164
Correctly Classified Instances: 95.38706256627783
Weighted Precision: 0.9521383848083527
Weighted AreaUnderROC: 0.932984693577147
Root mean squared error: 0.1722967424297748
Relative absolute error: 10.653371536001286
Root relative squared error: 34.45934848595496
Weighted TruePositiveRate: 0.9538706256627784
Weighted MatthewsCorrelation: 0.488083155391965
Weighted FMeasure: 0.9420141233565452
Iteration time: 25.0
Weighted AreaUnderPRC: 0.9773051171867241
Mean absolute error: 0.05326685768000643
Coverage of cases: 99.46977730646871
Instances selection time: 6.0
Test time: 8.0
Accumulative iteration time: 461.0
Weighted Recall: 0.9538706256627784
Weighted FalsePositiveRate: 0.6797034719514984
Kappa statistic: 0.4069311010387973
Training time: 19.0
		
Iteration: 22
Labeled set size: 797
Unlabelled set size: 1089
	
Mean region size: 56.46871686108165
Incorrectly Classified Instances: 4.931071049840933
Correctly Classified Instances: 95.06892895015906
Weighted Precision: 0.9495037384751065
Weighted AreaUnderROC: 0.9385290431468847
Root mean squared error: 0.18132775504704715
Relative absolute error: 10.656208556562506
Root relative squared error: 36.26555100940943
Weighted TruePositiveRate: 0.9506892895015907
Weighted MatthewsCorrelation: 0.43360382168542655
Weighted FMeasure: 0.9359490123875758
Iteration time: 29.0
Weighted AreaUnderPRC: 0.9781151932598158
Mean absolute error: 0.05328104278281253
Coverage of cases: 99.2576882290562
Instances selection time: 7.0
Test time: 8.0
Accumulative iteration time: 490.0
Weighted Recall: 0.9506892895015907
Weighted FalsePositiveRate: 0.7363019916251052
Kappa statistic: 0.33418617186847654
Training time: 22.0
		
Iteration: 23
Labeled set size: 817
Unlabelled set size: 1069
	
Mean region size: 56.38918345705196
Incorrectly Classified Instances: 5.090137857900318
Correctly Classified Instances: 94.90986214209968
Weighted Precision: 0.9517173418623602
Weighted AreaUnderROC: 0.9308883693746347
Root mean squared error: 0.18719218434276672
Relative absolute error: 10.799099963968992
Root relative squared error: 37.438436868553346
Weighted TruePositiveRate: 0.9490986214209968
Weighted MatthewsCorrelation: 0.4044052795330488
Weighted FMeasure: 0.9318053943751308
Iteration time: 26.0
Weighted AreaUnderPRC: 0.9733885122060257
Mean absolute error: 0.05399549981984496
Coverage of cases: 99.36373276776246
Instances selection time: 6.0
Test time: 9.0
Accumulative iteration time: 516.0
Weighted Recall: 0.9490986214209968
Weighted FalsePositiveRate: 0.7766848283175485
Kappa statistic: 0.28111301696207314
Training time: 20.0
		
Iteration: 24
Labeled set size: 837
Unlabelled set size: 1049
	
Mean region size: 56.83987274655355
Incorrectly Classified Instances: 5.143160127253447
Correctly Classified Instances: 94.85683987274655
Weighted Precision: 0.9467950130036901
Weighted AreaUnderROC: 0.9349271597148925
Root mean squared error: 0.18295639929141397
Relative absolute error: 10.848062059119705
Root relative squared error: 36.591279858282796
Weighted TruePositiveRate: 0.9485683987274656
Weighted MatthewsCorrelation: 0.393810601872916
Weighted FMeasure: 0.9320211535699665
Iteration time: 27.0
Weighted AreaUnderPRC: 0.9757766181183697
Mean absolute error: 0.054240310295598525
Coverage of cases: 99.41675503711559
Instances selection time: 5.0
Test time: 8.0
Accumulative iteration time: 543.0
Weighted Recall: 0.9485683987274656
Weighted FalsePositiveRate: 0.7686638594716697
Kappa statistic: 0.2876589647143121
Training time: 22.0
		
Iteration: 25
Labeled set size: 857
Unlabelled set size: 1029
	
Mean region size: 55.09013785790032
Incorrectly Classified Instances: 4.825026511134676
Correctly Classified Instances: 95.17497348886532
Weighted Precision: 0.9484816107351917
Weighted AreaUnderROC: 0.9085384395441799
Root mean squared error: 0.18592129828362766
Relative absolute error: 10.234283558309832
Root relative squared error: 37.18425965672553
Weighted TruePositiveRate: 0.9517497348886532
Weighted MatthewsCorrelation: 0.45395967825812555
Weighted FMeasure: 0.9388635899359778
Iteration time: 26.0
Weighted AreaUnderPRC: 0.9708320020125724
Mean absolute error: 0.051171417791549156
Coverage of cases: 98.72746553552491
Instances selection time: 5.0
Test time: 8.0
Accumulative iteration time: 569.0
Weighted Recall: 0.9517497348886532
Weighted FalsePositiveRate: 0.7040096218943029
Kappa statistic: 0.37215665903320866
Training time: 21.0
		
Iteration: 26
Labeled set size: 877
Unlabelled set size: 1009
	
Mean region size: 55.514316012725345
Incorrectly Classified Instances: 3.870625662778367
Correctly Classified Instances: 96.12937433722163
Weighted Precision: 0.9619294665893781
Weighted AreaUnderROC: 0.9317983035146337
Root mean squared error: 0.16388881753763576
Relative absolute error: 8.970810083262442
Root relative squared error: 32.777763507527155
Weighted TruePositiveRate: 0.9612937433722163
Weighted MatthewsCorrelation: 0.5962519503854138
Weighted FMeasure: 0.9531396579766811
Iteration time: 26.0
Weighted AreaUnderPRC: 0.9804889628439784
Mean absolute error: 0.04485405041631221
Coverage of cases: 99.2576882290562
Instances selection time: 6.0
Test time: 7.0
Accumulative iteration time: 595.0
Weighted Recall: 0.9612937433722163
Weighted FalsePositiveRate: 0.5825483702960427
Kappa statistic: 0.5304393498086664
Training time: 20.0
		
Iteration: 27
Labeled set size: 897
Unlabelled set size: 989
	
Mean region size: 56.04453870625663
Incorrectly Classified Instances: 4.559915164369035
Correctly Classified Instances: 95.44008483563097
Weighted Precision: 0.956513740081179
Weighted AreaUnderROC: 0.8942972421395751
Root mean squared error: 0.18212881345785678
Relative absolute error: 10.21602167206106
Root relative squared error: 36.42576269157136
Weighted TruePositiveRate: 0.9544008483563097
Weighted MatthewsCorrelation: 0.49662580266391865
Weighted FMeasure: 0.9415117123372202
Iteration time: 26.0
Weighted AreaUnderPRC: 0.9712741693066658
Mean absolute error: 0.051080108360305305
Coverage of cases: 99.04559915164369
Instances selection time: 5.0
Test time: 8.0
Accumulative iteration time: 621.0
Weighted Recall: 0.9544008483563097
Weighted FalsePositiveRate: 0.6957801587011373
Kappa statistic: 0.3956839893292
Training time: 21.0
		
Iteration: 28
Labeled set size: 917
Unlabelled set size: 969
	
Mean region size: 56.44220572640509
Incorrectly Classified Instances: 4.931071049840933
Correctly Classified Instances: 95.06892895015906
Weighted Precision: 0.9481529576832608
Weighted AreaUnderROC: 0.9371060310068198
Root mean squared error: 0.17705372387488186
Relative absolute error: 10.334861494171326
Root relative squared error: 35.41074477497637
Weighted TruePositiveRate: 0.9506892895015907
Weighted MatthewsCorrelation: 0.434339624333597
Weighted FMeasure: 0.9364874785871603
Iteration time: 27.0
Weighted AreaUnderPRC: 0.9773758848581251
Mean absolute error: 0.051674307470856634
Coverage of cases: 99.36373276776246
Instances selection time: 5.0
Test time: 8.0
Accumulative iteration time: 648.0
Weighted Recall: 0.9506892895015907
Weighted FalsePositiveRate: 0.7282462737213452
Kappa statistic: 0.3424432597791134
Training time: 22.0
		
Iteration: 29
Labeled set size: 937
Unlabelled set size: 949
	
Mean region size: 55.38176033934253
Incorrectly Classified Instances: 4.241781548250265
Correctly Classified Instances: 95.75821845174974
Weighted Precision: 0.9582618154854021
Weighted AreaUnderROC: 0.9406706449379693
Root mean squared error: 0.16545086632640127
Relative absolute error: 9.025097779678168
Root relative squared error: 33.09017326528026
Weighted TruePositiveRate: 0.9575821845174973
Weighted MatthewsCorrelation: 0.5444357675944753
Weighted FMeasure: 0.9472972506004588
Iteration time: 28.0
Weighted AreaUnderPRC: 0.9830076955549945
Mean absolute error: 0.04512548889839084
Coverage of cases: 99.20466595970308
Instances selection time: 6.0
Test time: 8.0
Accumulative iteration time: 676.0
Weighted Recall: 0.9575821845174973
Weighted FalsePositiveRate: 0.6391816390275304
Kappa statistic: 0.46425781527404897
Training time: 22.0
		
Iteration: 30
Labeled set size: 957
Unlabelled set size: 929
	
Mean region size: 54.772004241781545
Incorrectly Classified Instances: 3.2343584305408273
Correctly Classified Instances: 96.76564156945918
Weighted Precision: 0.9687339463568692
Weighted AreaUnderROC: 0.9328396415682197
Root mean squared error: 0.15482498419414334
Relative absolute error: 8.004060968118406
Root relative squared error: 30.964996838828668
Weighted TruePositiveRate: 0.9676564156945917
Weighted MatthewsCorrelation: 0.6770095752711014
Weighted FMeasure: 0.9621614767122261
Iteration time: 27.0
Weighted AreaUnderPRC: 0.9822926990262739
Mean absolute error: 0.040020304840592026
Coverage of cases: 99.36373276776246
Instances selection time: 5.0
Test time: 8.0
Accumulative iteration time: 703.0
Weighted Recall: 0.9676564156945917
Weighted FalsePositiveRate: 0.49351848466010895
Kappa statistic: 0.6285795458214148
Training time: 22.0
		
Iteration: 31
Labeled set size: 977
Unlabelled set size: 909
	
Mean region size: 56.336161187698835
Incorrectly Classified Instances: 5.1961823966065745
Correctly Classified Instances: 94.80381760339343
Weighted Precision: 0.9481391058842785
Weighted AreaUnderROC: 0.917218811532638
Root mean squared error: 0.18374111122444126
Relative absolute error: 10.5939442133847
Root relative squared error: 36.748222244888254
Weighted TruePositiveRate: 0.9480381760339343
Weighted MatthewsCorrelation: 0.38285984571385867
Weighted FMeasure: 0.9303846734246127
Iteration time: 31.0
Weighted AreaUnderPRC: 0.974160794757534
Mean absolute error: 0.052969721066923506
Coverage of cases: 99.15164369034994
Instances selection time: 5.0
Test time: 8.0
Accumulative iteration time: 734.0
Weighted Recall: 0.9480381760339343
Weighted FalsePositiveRate: 0.7848100443370708
Kappa statistic: 0.2661362048154504
Training time: 26.0
		
Iteration: 32
Labeled set size: 997
Unlabelled set size: 889
	
Mean region size: 54.26829268292683
Incorrectly Classified Instances: 4.3478260869565215
Correctly Classified Instances: 95.65217391304348
Weighted Precision: 0.9572006789398094
Weighted AreaUnderROC: 0.9294296707578413
Root mean squared error: 0.16577572084849806
Relative absolute error: 8.410372021208751
Root relative squared error: 33.15514416969961
Weighted TruePositiveRate: 0.9565217391304348
Weighted MatthewsCorrelation: 0.5287794870919544
Weighted FMeasure: 0.9455605143052201
Iteration time: 27.0
Weighted AreaUnderPRC: 0.981293847101345
Mean absolute error: 0.042051860106043754
Coverage of cases: 99.2576882290562
Instances selection time: 5.0
Test time: 8.0
Accumulative iteration time: 761.0
Weighted Recall: 0.9565217391304348
Weighted FalsePositiveRate: 0.6553625729508128
Kappa statistic: 0.44433745329117574
Training time: 22.0
		
Iteration: 33
Labeled set size: 1017
Unlabelled set size: 869
	
Mean region size: 55.30222693531283
Incorrectly Classified Instances: 4.188759278897137
Correctly Classified Instances: 95.81124072110286
Weighted Precision: 0.9599020880278641
Weighted AreaUnderROC: 0.9323958215187569
Root mean squared error: 0.16717137406406096
Relative absolute error: 8.98556648666406
Root relative squared error: 33.43427481281219
Weighted TruePositiveRate: 0.9581124072110286
Weighted MatthewsCorrelation: 0.5525734892929239
Weighted FMeasure: 0.9477554771632601
Iteration time: 27.0
Weighted AreaUnderPRC: 0.9809798764093967
Mean absolute error: 0.044927832433320304
Coverage of cases: 99.2576882290562
Instances selection time: 5.0
Test time: 8.0
Accumulative iteration time: 788.0
Weighted Recall: 0.9581124072110286
Weighted FalsePositiveRate: 0.6391468899696493
Kappa statistic: 0.46782915556444515
Training time: 22.0
		
Iteration: 34
Labeled set size: 1037
Unlabelled set size: 849
	
Mean region size: 55.46129374337222
Incorrectly Classified Instances: 4.825026511134676
Correctly Classified Instances: 95.17497348886532
Weighted Precision: 0.9522865704446584
Weighted AreaUnderROC: 0.9074626313341881
Root mean squared error: 0.17631233000689858
Relative absolute error: 9.541172187872224
Root relative squared error: 35.262466001379714
Weighted TruePositiveRate: 0.9517497348886532
Weighted MatthewsCorrelation: 0.4521820580364356
Weighted FMeasure: 0.9373264529813914
Iteration time: 33.0
Weighted AreaUnderPRC: 0.9758360985753113
Mean absolute error: 0.04770586093936112
Coverage of cases: 99.04559915164369
Instances selection time: 4.0
Test time: 9.0
Accumulative iteration time: 821.0
Weighted Recall: 0.9517497348886532
Weighted FalsePositiveRate: 0.7281767756055829
Kappa statistic: 0.3485047488175409
Training time: 29.0
		
Iteration: 35
Labeled set size: 1057
Unlabelled set size: 829
	
Mean region size: 56.23011664899258
Incorrectly Classified Instances: 4.08271474019088
Correctly Classified Instances: 95.91728525980912
Weighted Precision: 0.9608749047637365
Weighted AreaUnderROC: 0.9407429553102736
Root mean squared error: 0.16427033203977898
Relative absolute error: 9.456021310061354
Root relative squared error: 32.8540664079558
Weighted TruePositiveRate: 0.9591728525980912
Weighted MatthewsCorrelation: 0.5676184381566871
Weighted FMeasure: 0.9494664875018017
Iteration time: 31.0
Weighted AreaUnderPRC: 0.9828960323562619
Mean absolute error: 0.047280106550306775
Coverage of cases: 99.36373276776246
Instances selection time: 5.0
Test time: 8.0
Accumulative iteration time: 852.0
Weighted Recall: 0.9591728525980912
Weighted FalsePositiveRate: 0.6229659560463671
Kappa statistic: 0.48735888619820456
Training time: 26.0
		
Iteration: 36
Labeled set size: 1077
Unlabelled set size: 809
	
Mean region size: 55.09013785790032
Incorrectly Classified Instances: 4.40084835630965
Correctly Classified Instances: 95.59915164369035
Weighted Precision: 0.9566670439649019
Weighted AreaUnderROC: 0.932617109180011
Root mean squared error: 0.16804520650588617
Relative absolute error: 8.993595530769534
Root relative squared error: 33.609041301177236
Weighted TruePositiveRate: 0.9559915164369035
Weighted MatthewsCorrelation: 0.5207885071673237
Weighted FMeasure: 0.9446801406734855
Iteration time: 30.0
Weighted AreaUnderPRC: 0.9813010504508962
Mean absolute error: 0.04496797765384767
Coverage of cases: 99.31071049840934
Instances selection time: 4.0
Test time: 8.0
Accumulative iteration time: 882.0
Weighted Recall: 0.9559915164369035
Weighted FalsePositiveRate: 0.6634530399124539
Kappa statistic: 0.4341986366232205
Training time: 26.0
		
Iteration: 37
Labeled set size: 1097
Unlabelled set size: 789
	
Mean region size: 55.38176033934253
Incorrectly Classified Instances: 4.931071049840933
Correctly Classified Instances: 95.06892895015906
Weighted Precision: 0.9511445687360641
Weighted AreaUnderROC: 0.9044959072757958
Root mean squared error: 0.18294054082346164
Relative absolute error: 10.055165643133229
Root relative squared error: 36.58810816469233
Weighted TruePositiveRate: 0.9506892895015907
Weighted MatthewsCorrelation: 0.4334491350681634
Weighted FMeasure: 0.9353948797135462
Iteration time: 30.0
Weighted AreaUnderPRC: 0.9728256778574234
Mean absolute error: 0.050275828215666146
Coverage of cases: 99.09862142099682
Instances selection time: 4.0
Test time: 8.0
Accumulative iteration time: 912.0
Weighted Recall: 0.9506892895015907
Weighted FalsePositiveRate: 0.7443577095288652
Kappa statistic: 0.32571907460230903
Training time: 26.0
		
Iteration: 38
Labeled set size: 1117
Unlabelled set size: 769
	
Mean region size: 54.5864262990456
Incorrectly Classified Instances: 5.143160127253447
Correctly Classified Instances: 94.85683987274655
Weighted Precision: 0.9487626038733535
Weighted AreaUnderROC: 0.905017065671381
Root mean squared error: 0.18415513016047358
Relative absolute error: 9.84490343102117
Root relative squared error: 36.83102603209471
Weighted TruePositiveRate: 0.9485683987274656
Weighted MatthewsCorrelation: 0.39347135434720354
Weighted FMeasure: 0.9314083515192849
Iteration time: 30.0
Weighted AreaUnderPRC: 0.9732195308647552
Mean absolute error: 0.04922451715510585
Coverage of cases: 98.93955461293743
Instances selection time: 4.0
Test time: 8.0
Accumulative iteration time: 942.0
Weighted Recall: 0.9485683987274656
Weighted FalsePositiveRate: 0.7767195773754296
Kappa statistic: 0.2783637726322441
Training time: 26.0
		
Iteration: 39
Labeled set size: 1137
Unlabelled set size: 749
	
Mean region size: 54.9575821845175
Incorrectly Classified Instances: 5.1961823966065745
Correctly Classified Instances: 94.80381760339343
Weighted Precision: 0.9481391058842785
Weighted AreaUnderROC: 0.9206754544389648
Root mean squared error: 0.18411685401263397
Relative absolute error: 10.01082984653444
Root relative squared error: 36.823370802526796
Weighted TruePositiveRate: 0.9480381760339343
Weighted MatthewsCorrelation: 0.38285984571385867
Weighted FMeasure: 0.9303846734246127
Iteration time: 33.0
Weighted AreaUnderPRC: 0.9776094953615481
Mean absolute error: 0.0500541492326722
Coverage of cases: 99.09862142099682
Instances selection time: 4.0
Test time: 9.0
Accumulative iteration time: 975.0
Weighted Recall: 0.9480381760339343
Weighted FalsePositiveRate: 0.7848100443370708
Kappa statistic: 0.2661362048154504
Training time: 29.0
		
Iteration: 40
Labeled set size: 1157
Unlabelled set size: 729
	
Mean region size: 55.85896076352068
Incorrectly Classified Instances: 5.143160127253447
Correctly Classified Instances: 94.85683987274655
Weighted Precision: 0.951240527984796
Weighted AreaUnderROC: 0.8977326033138867
Root mean squared error: 0.18801394927317433
Relative absolute error: 10.48196137209027
Root relative squared error: 37.602789854634864
Weighted TruePositiveRate: 0.9485683987274656
Weighted MatthewsCorrelation: 0.39405993382055615
Weighted FMeasure: 0.9307769687101819
Iteration time: 35.0
Weighted AreaUnderPRC: 0.9716946024577887
Mean absolute error: 0.052409806860451345
Coverage of cases: 98.93955461293743
Instances selection time: 5.0
Test time: 8.0
Accumulative iteration time: 1010.0
Weighted Recall: 0.9485683987274656
Weighted FalsePositiveRate: 0.7847752952791897
Kappa statistic: 0.26882279118472346
Training time: 30.0
		
Iteration: 41
Labeled set size: 1177
Unlabelled set size: 709
	
Mean region size: 55.514316012725345
Incorrectly Classified Instances: 4.135737009544009
Correctly Classified Instances: 95.864262990456
Weighted Precision: 0.960388233187809
Weighted AreaUnderROC: 0.933651851730191
Root mean squared error: 0.1643018416152962
Relative absolute error: 8.903137879038741
Root relative squared error: 32.86036832305924
Weighted TruePositiveRate: 0.95864262990456
Weighted MatthewsCorrelation: 0.5601424072017073
Weighted FMeasure: 0.9486148193354473
Iteration time: 46.0
Weighted AreaUnderPRC: 0.9824287473723469
Mean absolute error: 0.04451568939519371
Coverage of cases: 99.2576882290562
Instances selection time: 4.0
Test time: 8.0
Accumulative iteration time: 1056.0
Weighted Recall: 0.95864262990456
Weighted FalsePositiveRate: 0.6310564230080082
Kappa statistic: 0.4776513698921985
Training time: 42.0
		
Iteration: 42
Labeled set size: 1197
Unlabelled set size: 689
	
Mean region size: 55.01060445387063
Incorrectly Classified Instances: 3.8176033934252387
Correctly Classified Instances: 96.18239660657476
Weighted Precision: 0.9633161888905392
Weighted AreaUnderROC: 0.9320046028040134
Root mean squared error: 0.1635155852023508
Relative absolute error: 8.673612153803253
Root relative squared error: 32.70311704047016
Weighted TruePositiveRate: 0.9618239660657476
Weighted MatthewsCorrelation: 0.6037250051452091
Weighted FMeasure: 0.9536148504631081
Iteration time: 34.0
Weighted AreaUnderPRC: 0.9817748461174433
Mean absolute error: 0.04336806076901627
Coverage of cases: 99.2576882290562
Instances selection time: 4.0
Test time: 8.0
Accumulative iteration time: 1090.0
Weighted Recall: 0.9618239660657476
Weighted FalsePositiveRate: 0.5825136212381615
Kappa statistic: 0.5342443200526834
Training time: 30.0
		
Iteration: 43
Labeled set size: 1217
Unlabelled set size: 669
	
Mean region size: 55.72640509013786
Incorrectly Classified Instances: 4.984093319194061
Correctly Classified Instances: 95.01590668080594
Weighted Precision: 0.9505629510832072
Weighted AreaUnderROC: 0.919076796347589
Root mean squared error: 0.18349950293556636
Relative absolute error: 10.193472330795808
Root relative squared error: 36.69990058711327
Weighted TruePositiveRate: 0.9501590668080594
Weighted MatthewsCorrelation: 0.4237900544359004
Weighted FMeasure: 0.9344140054870874
Iteration time: 34.0
Weighted AreaUnderPRC: 0.9751897101306544
Mean absolute error: 0.05096736165397904
Coverage of cases: 99.20466595970308
Instances selection time: 4.0
Test time: 8.0
Accumulative iteration time: 1124.0
Weighted Recall: 0.9501590668080594
Weighted FalsePositiveRate: 0.7524481764905062
Kappa statistic: 0.3141075242192583
Training time: 30.0
		
Iteration: 44
Labeled set size: 1237
Unlabelled set size: 649
	
Mean region size: 54.48038176033934
Incorrectly Classified Instances: 4.984093319194061
Correctly Classified Instances: 95.01590668080594
Weighted Precision: 0.952672504426108
Weighted AreaUnderROC: 0.9241989717212498
Root mean squared error: 0.17487364784177328
Relative absolute error: 9.231715951371795
Root relative squared error: 34.974729568354654
Weighted TruePositiveRate: 0.9501590668080594
Weighted MatthewsCorrelation: 0.42437131939304984
Weighted FMeasure: 0.9338288692881902
Iteration time: 32.0
Weighted AreaUnderPRC: 0.9798879386697309
Mean absolute error: 0.046158579756858976
Coverage of cases: 99.15164369034994
Instances selection time: 4.0
Test time: 7.0
Accumulative iteration time: 1156.0
Weighted Recall: 0.9501590668080594
Weighted FalsePositiveRate: 0.7605038943942662
Kappa statistic: 0.3052154692668249
Training time: 28.0
		
Iteration: 45
Labeled set size: 1257
Unlabelled set size: 629
	
Mean region size: 54.16224814422057
Incorrectly Classified Instances: 4.188759278897137
Correctly Classified Instances: 95.81124072110286
Weighted Precision: 0.9578322082266421
Weighted AreaUnderROC: 0.9282938599943517
Root mean squared error: 0.1680202914973442
Relative absolute error: 8.611051782971025
Root relative squared error: 33.60405829946884
Weighted TruePositiveRate: 0.9581124072110286
Weighted MatthewsCorrelation: 0.5520393957192231
Weighted FMeasure: 0.948541927530804
Iteration time: 36.0
Weighted AreaUnderPRC: 0.9809672246581588
Mean absolute error: 0.04305525891485512
Coverage of cases: 99.09862142099682
Instances selection time: 3.0
Test time: 9.0
Accumulative iteration time: 1192.0
Weighted Recall: 0.9581124072110286
Weighted FalsePositiveRate: 0.6230354541621295
Kappa statistic: 0.4801144492131616
Training time: 33.0
		
Iteration: 46
Labeled set size: 1277
Unlabelled set size: 609
	
Mean region size: 54.321314952279955
Incorrectly Classified Instances: 4.241781548250265
Correctly Classified Instances: 95.75821845174974
Weighted Precision: 0.9594164684302542
Weighted AreaUnderROC: 0.9330553176284946
Root mean squared error: 0.1690927207522656
Relative absolute error: 8.668491809553613
Root relative squared error: 33.81854415045312
Weighted TruePositiveRate: 0.9575821845174973
Weighted MatthewsCorrelation: 0.544907800198909
Weighted FMeasure: 0.9468883066392392
Iteration time: 33.0
Weighted AreaUnderPRC: 0.9810011508646088
Mean absolute error: 0.04334245904776807
Coverage of cases: 99.20466595970308
Instances selection time: 3.0
Test time: 8.0
Accumulative iteration time: 1225.0
Weighted Recall: 0.9575821845174973
Weighted FalsePositiveRate: 0.6472373569312906
Kappa statistic: 0.4578901983328537
Training time: 30.0
		
Time end:Wed Nov 01 08.34.46 EET 2017