Wed Nov 01 09.03.08 EET 2017
Dataset: sick
Test set size: 1886
Initial Labelled set size: 377
Initial Unlabelled set size: 1509
Batch mode: QBestBatchMode
Batch size: 20
Classifiers: IBk-1cores
Scenario: PoolBasedSamplingScenario
Query strategy: RandomSelectionQueryStrategy-1cores
Time begining: Wed Nov 01 09.03.08 EET 2017
		
Iteration: 1
Labeled set size: 377
Unlabelled set size: 1509
	
Mean region size: 50.0
Incorrectly Classified Instances: 6.680805938494167
Correctly Classified Instances: 93.31919406150583
Weighted Precision: 0.9321040724682086
Weighted AreaUnderROC: 0.7003289715955123
Root mean squared error: 0.2578031599804601
Relative absolute error: 13.818667006928182
Root relative squared error: 51.56063199609202
Weighted TruePositiveRate: 0.9331919406150583
Weighted MatthewsCorrelation: 0.40702886292001467
Weighted FMeasure: 0.9326383996511454
Iteration time: 6.0
Weighted AreaUnderPRC: 0.917913801154417
Mean absolute error: 0.06909333503464091
Coverage of cases: 93.31919406150583
Instances selection time: 6.0
Test time: 279.0
Accumulative iteration time: 6.0
Weighted Recall: 0.9331919406150583
Weighted FalsePositiveRate: 0.5328531489719188
Kappa statistic: 0.40695672138675204
Training time: 0.0
		
Iteration: 2
Labeled set size: 397
Unlabelled set size: 1489
	
Mean region size: 50.0
Incorrectly Classified Instances: 7.0519618239660655
Correctly Classified Instances: 92.94803817603393
Weighted Precision: 0.930338557498237
Weighted AreaUnderROC: 0.698352687010532
Root mean squared error: 0.2649007650382485
Relative absolute error: 14.53434786762284
Root relative squared error: 52.9801530076497
Weighted TruePositiveRate: 0.9294803817603393
Weighted MatthewsCorrelation: 0.3916468318201722
Weighted FMeasure: 0.9299044810813939
Iteration time: 6.0
Weighted AreaUnderPRC: 0.9169841394719863
Mean absolute error: 0.0726717393381142
Coverage of cases: 92.94803817603393
Instances selection time: 6.0
Test time: 290.0
Accumulative iteration time: 12.0
Weighted Recall: 0.9294803817603393
Weighted FalsePositiveRate: 0.5330941592871603
Kappa statistic: 0.3916099520249911
Training time: 0.0
		
Iteration: 3
Labeled set size: 417
Unlabelled set size: 1469
	
Mean region size: 50.0
Incorrectly Classified Instances: 6.998939554612938
Correctly Classified Instances: 93.00106044538707
Weighted Precision: 0.9339620154285485
Weighted AreaUnderROC: 0.7230132816144159
Root mean squared error: 0.26393372473055277
Relative absolute error: 14.408264184069985
Root relative squared error: 52.78674494611055
Weighted TruePositiveRate: 0.9300106044538706
Weighted MatthewsCorrelation: 0.4225285173588255
Weighted FMeasure: 0.9318796291007406
Iteration time: 6.0
Weighted AreaUnderPRC: 0.9212476805165742
Mean absolute error: 0.07204132092034993
Coverage of cases: 93.00106044538707
Instances selection time: 6.0
Test time: 305.0
Accumulative iteration time: 18.0
Weighted Recall: 0.9300106044538706
Weighted FalsePositiveRate: 0.48427373263004225
Kappa statistic: 0.42173309114221585
Training time: 0.0
		
Iteration: 4
Labeled set size: 437
Unlabelled set size: 1449
	
Mean region size: 50.0
Incorrectly Classified Instances: 6.998939554612938
Correctly Classified Instances: 93.00106044538707
Weighted Precision: 0.9328386033434439
Weighted AreaUnderROC: 0.7148871922028822
Root mean squared error: 0.26396159576708655
Relative absolute error: 14.389567812113569
Root relative squared error: 52.79231915341731
Weighted TruePositiveRate: 0.9300106044538706
Weighted MatthewsCorrelation: 0.4131057844585965
Weighted FMeasure: 0.9313696378753142
Iteration time: 5.0
Weighted AreaUnderPRC: 0.919866309916701
Mean absolute error: 0.07194783906056784
Coverage of cases: 93.00106044538707
Instances selection time: 5.0
Test time: 323.0
Accumulative iteration time: 23.0
Weighted Recall: 0.9300106044538706
Weighted FalsePositiveRate: 0.5005357315007368
Kappa statistic: 0.41269669017905586
Training time: 0.0
		
Iteration: 5
Labeled set size: 457
Unlabelled set size: 1429
	
Mean region size: 50.0
Incorrectly Classified Instances: 6.945917285259809
Correctly Classified Instances: 93.05408271474019
Weighted Precision: 0.9330694949144944
Weighted AreaUnderROC: 0.7151695185721649
Root mean squared error: 0.26298529071485377
Relative absolute error: 14.26691828371958
Root relative squared error: 52.59705814297075
Weighted TruePositiveRate: 0.9305408271474019
Weighted MatthewsCorrelation: 0.41519563620750666
Weighted FMeasure: 0.931760165340901
Iteration time: 5.0
Weighted AreaUnderPRC: 0.9199977445800983
Mean absolute error: 0.0713345914185979
Coverage of cases: 93.05408271474019
Instances selection time: 5.0
Test time: 337.0
Accumulative iteration time: 28.0
Weighted Recall: 0.9305408271474019
Weighted FalsePositiveRate: 0.5005013014557024
Kappa statistic: 0.41486000653666005
Training time: 0.0
		
Iteration: 6
Labeled set size: 477
Unlabelled set size: 1409
	
Mean region size: 50.0
Incorrectly Classified Instances: 6.680805938494167
Correctly Classified Instances: 93.31919406150583
Weighted Precision: 0.9342771934232305
Weighted AreaUnderROC: 0.7165811504185794
Root mean squared error: 0.25794082270399793
Relative absolute error: 13.723248338161445
Root relative squared error: 51.58816454079959
Weighted TruePositiveRate: 0.9331919406150583
Weighted MatthewsCorrelation: 0.4260069644045336
Weighted FMeasure: 0.9337251836665864
Iteration time: 6.0
Weighted AreaUnderPRC: 0.9206800759993953
Mean absolute error: 0.06861624169080723
Coverage of cases: 93.31919406150583
Instances selection time: 6.0
Test time: 347.0
Accumulative iteration time: 34.0
Weighted Recall: 0.9331919406150583
Weighted FalsePositiveRate: 0.5003291512305299
Kappa statistic: 0.42593621513501484
Training time: 0.0
		
Iteration: 7
Labeled set size: 497
Unlabelled set size: 1389
	
Mean region size: 50.0
Incorrectly Classified Instances: 6.680805938494167
Correctly Classified Instances: 93.31919406150583
Weighted Precision: 0.9342771934232305
Weighted AreaUnderROC: 0.7165811504185794
Root mean squared error: 0.2579618306359959
Relative absolute error: 13.708753881892255
Root relative squared error: 51.592366127199185
Weighted TruePositiveRate: 0.9331919406150583
Weighted MatthewsCorrelation: 0.4260069644045336
Weighted FMeasure: 0.9337251836665864
Iteration time: 5.0
Weighted AreaUnderPRC: 0.9206800759993953
Mean absolute error: 0.06854376940946127
Coverage of cases: 93.31919406150583
Instances selection time: 5.0
Test time: 359.0
Accumulative iteration time: 39.0
Weighted Recall: 0.9331919406150583
Weighted FalsePositiveRate: 0.5003291512305299
Kappa statistic: 0.42593621513501484
Training time: 0.0
		
Iteration: 8
Labeled set size: 517
Unlabelled set size: 1369
	
Mean region size: 50.0
Incorrectly Classified Instances: 6.733828207847296
Correctly Classified Instances: 93.2661717921527
Weighted Precision: 0.9334821520429332
Weighted AreaUnderROC: 0.7122357793435298
Root mean squared error: 0.25900289704457424
Relative absolute error: 13.801012421973482
Root relative squared error: 51.80057940891485
Weighted TruePositiveRate: 0.9326617179215271
Weighted MatthewsCorrelation: 0.4190955841357741
Weighted FMeasure: 0.9330666849423838
Iteration time: 5.0
Weighted AreaUnderPRC: 0.9198480591189906
Mean absolute error: 0.06900506210986741
Coverage of cases: 93.2661717921527
Instances selection time: 5.0
Test time: 366.0
Accumulative iteration time: 44.0
Weighted Recall: 0.9326617179215271
Weighted FalsePositiveRate: 0.5084945807109116
Kappa statistic: 0.41905611960281164
Training time: 0.0
		
Iteration: 9
Labeled set size: 537
Unlabelled set size: 1349
	
Mean region size: 50.0
Incorrectly Classified Instances: 6.786850477200424
Correctly Classified Instances: 93.21314952279958
Weighted Precision: 0.9343321850688728
Weighted AreaUnderROC: 0.7200795423857805
Root mean squared error: 0.26003867848903434
Relative absolute error: 13.894294042297423
Root relative squared error: 52.007735697806865
Weighted TruePositiveRate: 0.9321314952279958
Weighted MatthewsCorrelation: 0.42628336502718783
Weighted FMeasure: 0.9331953245913877
Iteration time: 5.0
Weighted AreaUnderPRC: 0.9210941880868002
Mean absolute error: 0.06947147021148711
Coverage of cases: 93.21314952279958
Instances selection time: 5.0
Test time: 384.0
Accumulative iteration time: 49.0
Weighted Recall: 0.9321314952279958
Weighted FalsePositiveRate: 0.4922670118852515
Kappa statistic: 0.4260089686098656
Training time: 0.0
		
Iteration: 10
Labeled set size: 557
Unlabelled set size: 1329
	
Mean region size: 50.0
Incorrectly Classified Instances: 6.733828207847296
Correctly Classified Instances: 93.2661717921527
Weighted Precision: 0.9356634727061557
Weighted AreaUnderROC: 0.7284879581665971
Root mean squared error: 0.25903775191235323
Relative absolute error: 13.777158669578757
Root relative squared error: 51.807550382470644
Weighted TruePositiveRate: 0.9326617179215271
Weighted MatthewsCorrelation: 0.43766233766233764
Weighted FMeasure: 0.9340935954052604
Iteration time: 5.0
Weighted AreaUnderPRC: 0.9226199241425362
Mean absolute error: 0.06888579334789378
Coverage of cases: 93.2661717921527
Instances selection time: 5.0
Test time: 396.0
Accumulative iteration time: 54.0
Weighted Recall: 0.9326617179215271
Weighted FalsePositiveRate: 0.47597058296952244
Kappa statistic: 0.43714193060209733
Training time: 0.0
		
Iteration: 11
Labeled set size: 577
Unlabelled set size: 1309
	
Mean region size: 50.0
Incorrectly Classified Instances: 6.892895015906681
Correctly Classified Instances: 93.10710498409333
Weighted Precision: 0.9321895473167112
Weighted AreaUnderROC: 0.7073257555299143
Root mean squared error: 0.2620950883870305
Relative absolute error: 14.083502448740933
Root relative squared error: 52.419017677406096
Weighted TruePositiveRate: 0.9310710498409331
Weighted MatthewsCorrelation: 0.4077796901644232
Weighted FMeasure: 0.9316212212433033
Iteration time: 4.0
Weighted AreaUnderPRC: 0.9187500838624235
Mean absolute error: 0.07041751224370467
Coverage of cases: 93.10710498409333
Instances selection time: 4.0
Test time: 409.0
Accumulative iteration time: 58.0
Weighted Recall: 0.9310710498409331
Weighted FalsePositiveRate: 0.5167288702813623
Kappa statistic: 0.4077119679964439
Training time: 0.0
		
Iteration: 12
Labeled set size: 597
Unlabelled set size: 1289
	
Mean region size: 50.0
Incorrectly Classified Instances: 7.0519618239660655
Correctly Classified Instances: 92.94803817603393
Weighted Precision: 0.9309086954119824
Weighted AreaUnderROC: 0.7024157317162989
Root mean squared error: 0.26511685417750086
Relative absolute error: 14.390633529569442
Root relative squared error: 53.023370835500174
Weighted TruePositiveRate: 0.9294803817603393
Weighted MatthewsCorrelation: 0.3965603088305822
Weighted FMeasure: 0.9301807462338605
Iteration time: 5.0
Weighted AreaUnderPRC: 0.9176711548778704
Mean absolute error: 0.0719531676478472
Coverage of cases: 92.94803817603393
Instances selection time: 5.0
Test time: 425.0
Accumulative iteration time: 63.0
Weighted Recall: 0.9294803817603393
Weighted FalsePositiveRate: 0.5249631598518131
Kappa statistic: 0.3964582180409518
Training time: 0.0
		
Iteration: 13
Labeled set size: 617
Unlabelled set size: 1269
	
Mean region size: 50.0
Incorrectly Classified Instances: 7.0519618239660655
Correctly Classified Instances: 92.94803817603393
Weighted Precision: 0.9309086954119824
Weighted AreaUnderROC: 0.7024157317162989
Root mean squared error: 0.26513086755821524
Relative absolute error: 14.381369877708073
Root relative squared error: 53.02617351164305
Weighted TruePositiveRate: 0.9294803817603393
Weighted MatthewsCorrelation: 0.3965603088305822
Weighted FMeasure: 0.9301807462338605
Iteration time: 4.0
Weighted AreaUnderPRC: 0.9176711548778704
Mean absolute error: 0.07190684938854036
Coverage of cases: 92.94803817603393
Instances selection time: 4.0
Test time: 441.0
Accumulative iteration time: 67.0
Weighted Recall: 0.9294803817603393
Weighted FalsePositiveRate: 0.5249631598518131
Kappa statistic: 0.3964582180409518
Training time: 0.0
		
Iteration: 14
Labeled set size: 637
Unlabelled set size: 1249
	
Mean region size: 50.0
Incorrectly Classified Instances: 7.0519618239660655
Correctly Classified Instances: 92.94803817603393
Weighted Precision: 0.9309086954119824
Weighted AreaUnderROC: 0.7027299732403702
Root mean squared error: 0.26514400935080473
Relative absolute error: 14.372520416660016
Root relative squared error: 53.02880187016095
Weighted TruePositiveRate: 0.9294803817603393
Weighted MatthewsCorrelation: 0.3965603088305822
Weighted FMeasure: 0.9301807462338605
Iteration time: 5.0
Weighted AreaUnderPRC: 0.9177117844095479
Mean absolute error: 0.07186260208330009
Coverage of cases: 92.94803817603393
Instances selection time: 5.0
Test time: 453.0
Accumulative iteration time: 72.0
Weighted Recall: 0.9294803817603393
Weighted FalsePositiveRate: 0.5249631598518131
Kappa statistic: 0.3964582180409518
Training time: 0.0
		
Iteration: 15
Labeled set size: 657
Unlabelled set size: 1229
	
Mean region size: 50.0
Incorrectly Classified Instances: 6.998939554612938
Correctly Classified Instances: 93.00106044538707
Weighted Precision: 0.9311457242634518
Weighted AreaUnderROC: 0.7037979034198317
Root mean squared error: 0.26415768013154467
Relative absolute error: 14.258244372161386
Root relative squared error: 52.83153602630893
Weighted TruePositiveRate: 0.9300106044538706
Weighted MatthewsCorrelation: 0.3986660530443679
Weighted FMeasure: 0.9305692400316617
Iteration time: 5.0
Weighted AreaUnderPRC: 0.9179415026902056
Mean absolute error: 0.07129122186080693
Coverage of cases: 93.00106044538707
Instances selection time: 5.0
Test time: 666.0
Accumulative iteration time: 77.0
Weighted Recall: 0.9300106044538706
Weighted FalsePositiveRate: 0.5249287298067785
Kappa statistic: 0.39859984442715884
Training time: 0.0
		
Iteration: 16
Labeled set size: 677
Unlabelled set size: 1209
	
Mean region size: 50.0
Incorrectly Classified Instances: 6.998939554612938
Correctly Classified Instances: 93.00106044538707
Weighted Precision: 0.9300106044538706
Weighted AreaUnderROC: 0.6960302457466919
Root mean squared error: 0.2641692660434988
Relative absolute error: 14.250341190068964
Root relative squared error: 52.83385320869976
Weighted TruePositiveRate: 0.9300106044538706
Weighted MatthewsCorrelation: 0.3888198757763975
Weighted FMeasure: 0.9300106044538706
Iteration time: 5.0
Weighted AreaUnderPRC: 0.9166129432554574
Mean absolute error: 0.07125170595034482
Coverage of cases: 93.00106044538707
Instances selection time: 5.0
Test time: 504.0
Accumulative iteration time: 82.0
Weighted Recall: 0.9300106044538706
Weighted FalsePositiveRate: 0.5411907286774731
Kappa statistic: 0.3888198757763974
Training time: 0.0
		
Iteration: 17
Labeled set size: 697
Unlabelled set size: 1189
	
Mean region size: 50.0
Incorrectly Classified Instances: 6.998939554612938
Correctly Classified Instances: 93.00106044538707
Weighted Precision: 0.9300106044538706
Weighted AreaUnderROC: 0.6960302457466919
Root mean squared error: 0.264180199561604
Relative absolute error: 14.243117637445952
Root relative squared error: 52.8360399123208
Weighted TruePositiveRate: 0.9300106044538706
Weighted MatthewsCorrelation: 0.3888198757763975
Weighted FMeasure: 0.9300106044538706
Iteration time: 4.0
Weighted AreaUnderPRC: 0.9166129432554574
Mean absolute error: 0.07121558818722976
Coverage of cases: 93.00106044538707
Instances selection time: 4.0
Test time: 510.0
Accumulative iteration time: 86.0
Weighted Recall: 0.9300106044538706
Weighted FalsePositiveRate: 0.5411907286774731
Kappa statistic: 0.3888198757763974
Training time: 0.0
		
Iteration: 18
Labeled set size: 717
Unlabelled set size: 1169
	
Mean region size: 50.0
Incorrectly Classified Instances: 7.370095440084835
Correctly Classified Instances: 92.62990455991516
Weighted Precision: 0.9283810285409646
Weighted AreaUnderROC: 0.6940539611617116
Root mean squared error: 0.2711049078500102
Relative absolute error: 14.97654287909063
Root relative squared error: 54.22098157000204
Weighted TruePositiveRate: 0.9262990455991517
Weighted MatthewsCorrelation: 0.3744035996988409
Weighted FMeasure: 0.9273144850761705
Iteration time: 4.0
Weighted AreaUnderPRC: 0.9157574167492616
Mean absolute error: 0.07488271439545315
Coverage of cases: 92.62990455991516
Instances selection time: 4.0
Test time: 517.0
Accumulative iteration time: 90.0
Weighted Recall: 0.9262990455991517
Weighted FalsePositiveRate: 0.5414317389927146
Kappa statistic: 0.3742176347864283
Training time: 0.0
		
Iteration: 19
Labeled set size: 737
Unlabelled set size: 1149
	
Mean region size: 50.0
Incorrectly Classified Instances: 6.892895015906681
Correctly Classified Instances: 93.10710498409333
Weighted Precision: 0.9299473571819845
Weighted AreaUnderROC: 0.6925539488866521
Root mean squared error: 0.26219120317977845
Relative absolute error: 14.018328420947984
Root relative squared error: 52.438240635955694
Weighted TruePositiveRate: 0.9310710498409331
Weighted MatthewsCorrelation: 0.3881987547341522
Weighted FMeasure: 0.930499936148007
Iteration time: 4.0
Weighted AreaUnderPRC: 0.9161871235803312
Mean absolute error: 0.07009164210473992
Coverage of cases: 93.10710498409333
Instances selection time: 4.0
Test time: 528.0
Accumulative iteration time: 94.0
Weighted Recall: 0.9310710498409331
Weighted FalsePositiveRate: 0.5492528680227513
Kappa statistic: 0.3881299506371251
Training time: 0.0
		
Iteration: 20
Labeled set size: 757
Unlabelled set size: 1129
	
Mean region size: 50.0
Incorrectly Classified Instances: 6.839872746553553
Correctly Classified Instances: 93.16012725344645
Weighted Precision: 0.9285215875663031
Weighted AreaUnderROC: 0.6807134264601183
Root mean squared error: 0.26119001177388285
Relative absolute error: 13.90643579655712
Root relative squared error: 52.23800235477657
Weighted TruePositiveRate: 0.9316012725344645
Weighted MatthewsCorrelation: 0.37528255607955313
Weighted FMeasure: 0.9299893766569881
Iteration time: 4.0
Weighted AreaUnderPRC: 0.9142667943385647
Mean absolute error: 0.0695321789827856
Coverage of cases: 93.16012725344645
Instances selection time: 4.0
Test time: 547.0
Accumulative iteration time: 98.0
Weighted Recall: 0.9316012725344645
Weighted FalsePositiveRate: 0.5736114362837587
Kappa statistic: 0.37474878827284513
Training time: 0.0
		
Iteration: 21
Labeled set size: 777
Unlabelled set size: 1109
	
Mean region size: 50.0
Incorrectly Classified Instances: 6.892895015906681
Correctly Classified Instances: 93.10710498409333
Weighted Precision: 0.9271076892481214
Weighted AreaUnderROC: 0.6723492008936244
Root mean squared error: 0.2622091211681765
Relative absolute error: 14.006365323492506
Root relative squared error: 52.4418242336353
Weighted TruePositiveRate: 0.9310710498409331
Weighted MatthewsCorrelation: 0.36261065674457615
Weighted FMeasure: 0.9289729281807254
Iteration time: 3.0
Weighted AreaUnderPRC: 0.9127738888694925
Mean absolute error: 0.07003182661746253
Coverage of cases: 93.10710498409333
Instances selection time: 3.0
Test time: 561.0
Accumulative iteration time: 101.0
Weighted Recall: 0.9310710498409331
Weighted FalsePositiveRate: 0.5899078651994877
Kappa statistic: 0.36175308346305785
Training time: 0.0
		
Iteration: 22
Labeled set size: 797
Unlabelled set size: 1089
	
Mean region size: 50.0
Incorrectly Classified Instances: 6.733828207847296
Correctly Classified Instances: 93.2661717921527
Weighted Precision: 0.9279659318302538
Weighted AreaUnderROC: 0.6733729408587632
Root mean squared error: 0.2591742363407407
Relative absolute error: 13.683440454866297
Root relative squared error: 51.834847268148145
Weighted TruePositiveRate: 0.9326617179215271
Weighted MatthewsCorrelation: 0.369636294056697
Weighted FMeasure: 0.9301353342633626
Iteration time: 4.0
Weighted AreaUnderPRC: 0.9131876830760259
Mean absolute error: 0.06841720227433148
Coverage of cases: 93.2661717921527
Instances selection time: 4.0
Test time: 578.0
Accumulative iteration time: 105.0
Weighted Recall: 0.9326617179215271
Weighted FalsePositiveRate: 0.5898045750643843
Kappa statistic: 0.3683125075821914
Training time: 0.0
		
Iteration: 23
Labeled set size: 817
Unlabelled set size: 1069
	
Mean region size: 50.0
Incorrectly Classified Instances: 6.6277836691410394
Correctly Classified Instances: 93.37221633085896
Weighted Precision: 0.9285655686514966
Weighted AreaUnderROC: 0.6739375935973289
Root mean squared error: 0.2571331754952354
Relative absolute error: 13.466599827048805
Root relative squared error: 51.42663509904708
Weighted TruePositiveRate: 0.9337221633085896
Weighted MatthewsCorrelation: 0.37448756575211956
Weighted FMeasure: 0.9309149054390362
Iteration time: 3.0
Weighted AreaUnderPRC: 0.9134587788099825
Mean absolute error: 0.06733299913524403
Coverage of cases: 93.37221633085896
Instances selection time: 3.0
Test time: 585.0
Accumulative iteration time: 108.0
Weighted Recall: 0.9337221633085896
Weighted FalsePositiveRate: 0.5897357149743153
Kappa statistic: 0.3727817892546813
Training time: 0.0
		
Iteration: 24
Labeled set size: 837
Unlabelled set size: 1049
	
Mean region size: 50.0
Incorrectly Classified Instances: 6.6277836691410394
Correctly Classified Instances: 93.37221633085896
Weighted Precision: 0.9285655686514966
Weighted AreaUnderROC: 0.6739375935973289
Root mean squared error: 0.25714054176177337
Relative absolute error: 13.461569235738905
Root relative squared error: 51.42810835235467
Weighted TruePositiveRate: 0.9337221633085896
Weighted MatthewsCorrelation: 0.37448756575211956
Weighted FMeasure: 0.9309149054390362
Iteration time: 4.0
Weighted AreaUnderPRC: 0.9134587788099825
Mean absolute error: 0.06730784617869452
Coverage of cases: 93.37221633085896
Instances selection time: 3.0
Test time: 592.0
Accumulative iteration time: 112.0
Weighted Recall: 0.9337221633085896
Weighted FalsePositiveRate: 0.5897357149743153
Kappa statistic: 0.3727817892546813
Training time: 1.0
		
Iteration: 25
Labeled set size: 857
Unlabelled set size: 1029
	
Mean region size: 50.0
Incorrectly Classified Instances: 6.733828207847296
Correctly Classified Instances: 93.2661717921527
Weighted Precision: 0.9279659318302538
Weighted AreaUnderROC: 0.6733729408587632
Root mean squared error: 0.25919654323555386
Relative absolute error: 13.668368171502742
Root relative squared error: 51.83930864711077
Weighted TruePositiveRate: 0.9326617179215271
Weighted MatthewsCorrelation: 0.369636294056697
Weighted FMeasure: 0.9301353342633626
Iteration time: 8.0
Weighted AreaUnderPRC: 0.9131876830760259
Mean absolute error: 0.06834184085751371
Coverage of cases: 93.2661717921527
Instances selection time: 8.0
Test time: 930.0
Accumulative iteration time: 120.0
Weighted Recall: 0.9326617179215271
Weighted FalsePositiveRate: 0.5898045750643843
Kappa statistic: 0.3683125075821914
Training time: 0.0
		
Iteration: 26
Labeled set size: 877
Unlabelled set size: 1009
	
Mean region size: 50.0
Incorrectly Classified Instances: 6.733828207847296
Correctly Classified Instances: 93.2661717921527
Weighted Precision: 0.9279659318302538
Weighted AreaUnderROC: 0.6733729408587632
Root mean squared error: 0.2592033075456724
Relative absolute error: 13.663801334211396
Root relative squared error: 51.84066150913448
Weighted TruePositiveRate: 0.9326617179215271
Weighted MatthewsCorrelation: 0.369636294056697
Weighted FMeasure: 0.9301353342633626
Iteration time: 3.0
Weighted AreaUnderPRC: 0.9131876830760259
Mean absolute error: 0.06831900667105698
Coverage of cases: 93.2661717921527
Instances selection time: 3.0
Test time: 604.0
Accumulative iteration time: 123.0
Weighted Recall: 0.9326617179215271
Weighted FalsePositiveRate: 0.5898045750643843
Kappa statistic: 0.3683125075821914
Training time: 0.0
		
Iteration: 27
Labeled set size: 897
Unlabelled set size: 989
	
Mean region size: 50.0
Incorrectly Classified Instances: 6.680805938494167
Correctly Classified Instances: 93.31919406150583
Weighted Precision: 0.9282628889170302
Weighted AreaUnderROC: 0.673655267228046
Root mean squared error: 0.2581872642706626
Relative absolute error: 13.553629071930413
Root relative squared error: 51.63745285413251
Weighted TruePositiveRate: 0.9331919406150583
Weighted MatthewsCorrelation: 0.37204461077062506
Weighted FMeasure: 0.930524646194098
Iteration time: 3.0
Weighted AreaUnderPRC: 0.9133221560881114
Mean absolute error: 0.06776814535965206
Coverage of cases: 93.31919406150583
Instances selection time: 3.0
Test time: 617.0
Accumulative iteration time: 126.0
Weighted Recall: 0.9331919406150583
Weighted FalsePositiveRate: 0.5897701450193499
Kappa statistic: 0.37053734616790523
Training time: 0.0
		
Iteration: 28
Labeled set size: 917
Unlabelled set size: 969
	
Mean region size: 50.0
Incorrectly Classified Instances: 6.6277836691410394
Correctly Classified Instances: 93.37221633085896
Weighted Precision: 0.9285655686514966
Weighted AreaUnderROC: 0.6739375935973289
Root mean squared error: 0.2571668255787895
Relative absolute error: 13.443636471849715
Root relative squared error: 51.4333651157579
Weighted TruePositiveRate: 0.9337221633085896
Weighted MatthewsCorrelation: 0.37448756575211956
Weighted FMeasure: 0.9309149054390362
Iteration time: 3.0
Weighted AreaUnderPRC: 0.9134587788099825
Mean absolute error: 0.06721818235924858
Coverage of cases: 93.37221633085896
Instances selection time: 3.0
Test time: 642.0
Accumulative iteration time: 129.0
Weighted Recall: 0.9337221633085896
Weighted FalsePositiveRate: 0.5897357149743153
Kappa statistic: 0.3727817892546813
Training time: 0.0
		
Iteration: 29
Labeled set size: 937
Unlabelled set size: 949
	
Mean region size: 50.0
Incorrectly Classified Instances: 6.680805938494167
Correctly Classified Instances: 93.31919406150583
Weighted Precision: 0.9277080022849951
Weighted AreaUnderROC: 0.6696167726413474
Root mean squared error: 0.2581993262040263
Relative absolute error: 13.545449397402193
Root relative squared error: 51.639865240805264
Weighted TruePositiveRate: 0.9331919406150583
Weighted MatthewsCorrelation: 0.36683455396336595
Weighted FMeasure: 0.9301981621725257
Iteration time: 3.0
Weighted AreaUnderPRC: 0.9126393598428058
Mean absolute error: 0.06772724698701096
Coverage of cases: 93.31919406150583
Instances selection time: 3.0
Test time: 645.0
Accumulative iteration time: 132.0
Weighted Recall: 0.9331919406150583
Weighted FalsePositiveRate: 0.597901144454697
Kappa statistic: 0.3649661954517516
Training time: 0.0
		
Iteration: 30
Labeled set size: 957
Unlabelled set size: 929
	
Mean region size: 50.0
Incorrectly Classified Instances: 6.786850477200424
Correctly Classified Instances: 93.21314952279958
Weighted Precision: 0.9265418520358173
Weighted AreaUnderROC: 0.6655586379593941
Root mean squared error: 0.2602461246956338
Relative absolute error: 13.75305964036746
Root relative squared error: 52.04922493912676
Weighted TruePositiveRate: 0.9321314952279958
Weighted MatthewsCorrelation: 0.35670305062049096
Weighted FMeasure: 0.9290901964927246
Iteration time: 3.0
Weighted AreaUnderPRC: 0.9117624345979967
Mean absolute error: 0.0687652982018373
Coverage of cases: 93.21314952279958
Instances selection time: 3.0
Test time: 652.0
Accumulative iteration time: 135.0
Weighted Recall: 0.9321314952279958
Weighted FalsePositiveRate: 0.6061010039801132
Kappa statistic: 0.35488629379225606
Training time: 0.0
		
Iteration: 31
Labeled set size: 977
Unlabelled set size: 909
	
Mean region size: 50.0
Incorrectly Classified Instances: 6.786850477200424
Correctly Classified Instances: 93.21314952279958
Weighted Precision: 0.9265418520358173
Weighted AreaUnderROC: 0.6659219797216017
Root mean squared error: 0.26025159443606655
Relative absolute error: 13.749287296217167
Root relative squared error: 52.05031888721331
Weighted TruePositiveRate: 0.9321314952279958
Weighted MatthewsCorrelation: 0.35670305062049096
Weighted FMeasure: 0.9290901964927246
Iteration time: 3.0
Weighted AreaUnderPRC: 0.9118088276877717
Mean absolute error: 0.06874643648108583
Coverage of cases: 93.21314952279958
Instances selection time: 3.0
Test time: 669.0
Accumulative iteration time: 138.0
Weighted Recall: 0.9321314952279958
Weighted FalsePositiveRate: 0.6061010039801132
Kappa statistic: 0.35488629379225606
Training time: 0.0
		
Iteration: 32
Labeled set size: 997
Unlabelled set size: 889
	
Mean region size: 50.0
Incorrectly Classified Instances: 6.733828207847296
Correctly Classified Instances: 93.2661717921527
Weighted Precision: 0.9268434580954852
Weighted AreaUnderROC: 0.6662043060908845
Root mean squared error: 0.2592382415682538
Relative absolute error: 13.639939800131321
Root relative squared error: 51.847648313650765
Weighted TruePositiveRate: 0.9326617179215271
Weighted MatthewsCorrelation: 0.359116197923597
Weighted FMeasure: 0.929477137055237
Iteration time: 3.0
Weighted AreaUnderPRC: 0.9119398681879699
Mean absolute error: 0.0681996990006566
Coverage of cases: 93.2661717921527
Instances selection time: 2.0
Test time: 676.0
Accumulative iteration time: 141.0
Weighted Recall: 0.9326617179215271
Weighted FalsePositiveRate: 0.6060665739350787
Kappa statistic: 0.357081121126065
Training time: 1.0
		
Iteration: 33
Labeled set size: 1017
Unlabelled set size: 869
	
Mean region size: 50.0
Incorrectly Classified Instances: 6.6277836691410394
Correctly Classified Instances: 93.37221633085896
Weighted Precision: 0.9285655686514966
Weighted AreaUnderROC: 0.6748213978837796
Root mean squared error: 0.25719391346206916
Relative absolute error: 13.424885555356674
Root relative squared error: 51.43878269241383
Weighted TruePositiveRate: 0.9337221633085896
Weighted MatthewsCorrelation: 0.37448756575211956
Weighted FMeasure: 0.9309149054390362
Iteration time: 2.0
Weighted AreaUnderPRC: 0.9135716763736447
Mean absolute error: 0.06712442777678337
Coverage of cases: 93.37221633085896
Instances selection time: 2.0
Test time: 695.0
Accumulative iteration time: 143.0
Weighted Recall: 0.9337221633085896
Weighted FalsePositiveRate: 0.5897357149743153
Kappa statistic: 0.3727817892546813
Training time: 0.0
		
Iteration: 34
Labeled set size: 1037
Unlabelled set size: 849
	
Mean region size: 50.0
Incorrectly Classified Instances: 6.574761399787911
Correctly Classified Instances: 93.42523860021208
Weighted Precision: 0.9294163913154636
Weighted AreaUnderROC: 0.6791299437802273
Root mean squared error: 0.2561678637440742
Relative absolute error: 13.315726307734035
Root relative squared error: 51.23357274881484
Weighted TruePositiveRate: 0.9342523860021209
Weighted MatthewsCorrelation: 0.382076724576344
Weighted FMeasure: 0.9316274295878425
Iteration time: 3.0
Weighted AreaUnderPRC: 0.9143934955667233
Mean absolute error: 0.06657863153867018
Coverage of cases: 93.42523860021208
Instances selection time: 3.0
Test time: 708.0
Accumulative iteration time: 146.0
Weighted Recall: 0.9342523860021209
Weighted FalsePositiveRate: 0.5815702854939335
Kappa statistic: 0.3805288168636533
Training time: 0.0
		
Iteration: 35
Labeled set size: 1057
Unlabelled set size: 829
	
Mean region size: 50.0
Incorrectly Classified Instances: 6.574761399787911
Correctly Classified Instances: 93.42523860021208
Weighted Precision: 0.9294163913154636
Weighted AreaUnderROC: 0.6791299437802273
Root mean squared error: 0.25617246176792285
Relative absolute error: 13.31258741787825
Root relative squared error: 51.23449235358457
Weighted TruePositiveRate: 0.9342523860021209
Weighted MatthewsCorrelation: 0.382076724576344
Weighted FMeasure: 0.9316274295878425
Iteration time: 2.0
Weighted AreaUnderPRC: 0.9143934955667233
Mean absolute error: 0.06656293708939125
Coverage of cases: 93.42523860021208
Instances selection time: 2.0
Test time: 726.0
Accumulative iteration time: 148.0
Weighted Recall: 0.9342523860021209
Weighted FalsePositiveRate: 0.5815702854939335
Kappa statistic: 0.3805288168636533
Training time: 0.0
		
Iteration: 36
Labeled set size: 1077
Unlabelled set size: 809
	
Mean region size: 50.0
Incorrectly Classified Instances: 6.574761399787911
Correctly Classified Instances: 93.42523860021208
Weighted Precision: 0.9283304291582397
Weighted AreaUnderROC: 0.6710775047258979
Root mean squared error: 0.2561768904691071
Relative absolute error: 13.309564891434048
Root relative squared error: 51.23537809382142
Weighted TruePositiveRate: 0.9342523860021209
Weighted MatthewsCorrelation: 0.3717992585887782
Weighted FMeasure: 0.9309782734579484
Iteration time: 2.0
Weighted AreaUnderPRC: 0.9130280098748603
Mean absolute error: 0.06654782445717024
Coverage of cases: 93.42523860021208
Instances selection time: 2.0
Test time: 749.0
Accumulative iteration time: 150.0
Weighted Recall: 0.9342523860021209
Weighted FalsePositiveRate: 0.597832284364628
Kappa statistic: 0.3694654595063871
Training time: 0.0
		
Iteration: 37
Labeled set size: 1097
Unlabelled set size: 789
	
Mean region size: 50.0
Incorrectly Classified Instances: 6.574761399787911
Correctly Classified Instances: 93.42523860021208
Weighted Precision: 0.9283304291582397
Weighted AreaUnderROC: 0.670719072987504
Root mean squared error: 0.2561811605538171
Relative absolute error: 13.306780953160082
Root relative squared error: 51.236232110763424
Weighted TruePositiveRate: 0.9342523860021209
Weighted MatthewsCorrelation: 0.3717992585887782
Weighted FMeasure: 0.9309782734579484
Iteration time: 2.0
Weighted AreaUnderPRC: 0.9129822919318565
Mean absolute error: 0.06653390476580041
Coverage of cases: 93.42523860021208
Instances selection time: 2.0
Test time: 766.0
Accumulative iteration time: 152.0
Weighted Recall: 0.9342523860021209
Weighted FalsePositiveRate: 0.597832284364628
Kappa statistic: 0.3694654595063871
Training time: 0.0
		
Iteration: 38
Labeled set size: 1117
Unlabelled set size: 769
	
Mean region size: 50.0
Incorrectly Classified Instances: 6.6277836691410394
Correctly Classified Instances: 93.37221633085896
Weighted Precision: 0.9274648557522364
Weighted AreaUnderROC: 0.6664056170672428
Root mean squared error: 0.25721619584544564
Relative absolute error: 13.40982525655782
Root relative squared error: 51.443239169089125
Weighted TruePositiveRate: 0.9337221633085896
Weighted MatthewsCorrelation: 0.3640507334186964
Weighted FMeasure: 0.930253860743376
Iteration time: 2.0
Weighted AreaUnderPRC: 0.912162142403405
Mean absolute error: 0.0670491262827891
Coverage of cases: 93.37221633085896
Instances selection time: 2.0
Test time: 769.0
Accumulative iteration time: 154.0
Weighted Recall: 0.9337221633085896
Weighted FalsePositiveRate: 0.6059977138450097
Kappa statistic: 0.361529836800797
Training time: 0.0
		
Iteration: 39
Labeled set size: 1137
Unlabelled set size: 749
	
Mean region size: 50.0
Incorrectly Classified Instances: 6.574761399787911
Correctly Classified Instances: 93.42523860021208
Weighted Precision: 0.9277850487035894
Weighted AreaUnderROC: 0.6666879434365257
Root mean squared error: 0.25618925068417436
Relative absolute error: 13.301258259504515
Root relative squared error: 51.23785013683487
Weighted TruePositiveRate: 0.9342523860021209
Weighted MatthewsCorrelation: 0.3665740724983736
Weighted FMeasure: 0.9306436761855762
Iteration time: 2.0
Weighted AreaUnderPRC: 0.912299863366313
Mean absolute error: 0.06650629129752257
Coverage of cases: 93.42523860021208
Instances selection time: 2.0
Test time: 782.0
Accumulative iteration time: 156.0
Weighted Recall: 0.9342523860021209
Weighted FalsePositiveRate: 0.6059632837999752
Kappa statistic: 0.36378425728945063
Training time: 0.0
		
Iteration: 40
Labeled set size: 1157
Unlabelled set size: 729
	
Mean region size: 50.0
Incorrectly Classified Instances: 6.468716861081655
Correctly Classified Instances: 93.53128313891834
Weighted Precision: 0.9295097977696579
Weighted AreaUnderROC: 0.675314855277048
Root mean squared error: 0.2541186390197568
Relative absolute error: 13.086916773601212
Root relative squared error: 50.82372780395136
Weighted TruePositiveRate: 0.9353128313891834
Weighted MatthewsCorrelation: 0.38203341072180264
Weighted FMeasure: 0.9320915271118523
Iteration time: 2.0
Weighted AreaUnderPRC: 0.913949865785237
Mean absolute error: 0.06543458386800606
Coverage of cases: 93.53128313891834
Instances selection time: 2.0
Test time: 797.0
Accumulative iteration time: 158.0
Weighted Recall: 0.9353128313891834
Weighted FalsePositiveRate: 0.5896324248392119
Kappa statistic: 0.37963537144983195
Training time: 0.0
		
Iteration: 41
Labeled set size: 1177
Unlabelled set size: 709
	
Mean region size: 50.0
Incorrectly Classified Instances: 6.468716861081655
Correctly Classified Instances: 93.53128313891834
Weighted Precision: 0.9295097977696579
Weighted AreaUnderROC: 0.675314855277048
Root mean squared error: 0.25412231577508104
Relative absolute error: 13.084381005092052
Root relative squared error: 50.82446315501621
Weighted TruePositiveRate: 0.9353128313891834
Weighted MatthewsCorrelation: 0.38203341072180264
Weighted FMeasure: 0.9320915271118523
Iteration time: 2.0
Weighted AreaUnderPRC: 0.913949865785237
Mean absolute error: 0.06542190502546026
Coverage of cases: 93.53128313891834
Instances selection time: 2.0
Test time: 793.0
Accumulative iteration time: 160.0
Weighted Recall: 0.9353128313891834
Weighted FalsePositiveRate: 0.5896324248392119
Kappa statistic: 0.37963537144983195
Training time: 0.0
		
Iteration: 42
Labeled set size: 1197
Unlabelled set size: 689
	
Mean region size: 50.0
Incorrectly Classified Instances: 6.468716861081655
Correctly Classified Instances: 93.53128313891834
Weighted Precision: 0.9295097977696579
Weighted AreaUnderROC: 0.675314855277048
Root mean squared error: 0.25412587061550695
Relative absolute error: 13.08192983297598
Root relative squared error: 50.82517412310139
Weighted TruePositiveRate: 0.9353128313891834
Weighted MatthewsCorrelation: 0.38203341072180264
Weighted FMeasure: 0.9320915271118523
Iteration time: 2.0
Weighted AreaUnderPRC: 0.913949865785237
Mean absolute error: 0.0654096491648799
Coverage of cases: 93.53128313891834
Instances selection time: 2.0
Test time: 804.0
Accumulative iteration time: 162.0
Weighted Recall: 0.9353128313891834
Weighted FalsePositiveRate: 0.5896324248392119
Kappa statistic: 0.37963537144983195
Training time: 0.0
		
Iteration: 43
Labeled set size: 1217
Unlabelled set size: 669
	
Mean region size: 50.0
Incorrectly Classified Instances: 6.097560975609756
Correctly Classified Instances: 93.90243902439025
Weighted Precision: 0.9319512195121951
Weighted AreaUnderROC: 0.6772911398620284
Root mean squared error: 0.24673110182789582
Relative absolute error: 12.338465225228255
Root relative squared error: 49.346220365579164
Weighted TruePositiveRate: 0.9390243902439024
Weighted MatthewsCorrelation: 0.40103761523224823
Weighted FMeasure: 0.9348732429131636
Iteration time: 1.0
Weighted AreaUnderPRC: 0.9150271080082527
Mean absolute error: 0.06169232612614128
Coverage of cases: 93.90243902439025
Instances selection time: 1.0
Test time: 824.0
Accumulative iteration time: 163.0
Weighted Recall: 0.9390243902439024
Weighted FalsePositiveRate: 0.5893914145239703
Kappa statistic: 0.3963641019075659
Training time: 0.0
		
Iteration: 44
Labeled set size: 1237
Unlabelled set size: 649
	
Mean region size: 50.0
Incorrectly Classified Instances: 6.256627783669141
Correctly Classified Instances: 93.74337221633085
Weighted Precision: 0.9308608345598379
Weighted AreaUnderROC: 0.6764441607541797
Root mean squared error: 0.24993185168971588
Relative absolute error: 12.653771446836467
Root relative squared error: 49.98637033794318
Weighted TruePositiveRate: 0.9374337221633086
Weighted MatthewsCorrelation: 0.3926379663870559
Weighted FMeasure: 0.9336746155314363
Iteration time: 1.0
Weighted AreaUnderPRC: 0.9145488985567415
Mean absolute error: 0.06326885723418234
Coverage of cases: 93.74337221633085
Instances selection time: 1.0
Test time: 838.0
Accumulative iteration time: 164.0
Weighted Recall: 0.9374337221633086
Weighted FalsePositiveRate: 0.5894947046590738
Kappa statistic: 0.3890642757923977
Training time: 0.0
		
Iteration: 45
Labeled set size: 1257
Unlabelled set size: 629
	
Mean region size: 50.0
Incorrectly Classified Instances: 6.256627783669141
Correctly Classified Instances: 93.74337221633085
Weighted Precision: 0.9308608345598379
Weighted AreaUnderROC: 0.6764441607541797
Root mean squared error: 0.24993502045018318
Relative absolute error: 12.651539257490157
Root relative squared error: 49.987004090036635
Weighted TruePositiveRate: 0.9374337221633086
Weighted MatthewsCorrelation: 0.3926379663870559
Weighted FMeasure: 0.9336746155314363
Iteration time: 1.0
Weighted AreaUnderPRC: 0.9145488985567415
Mean absolute error: 0.06325769628745079
Coverage of cases: 93.74337221633085
Instances selection time: 1.0
Test time: 851.0
Accumulative iteration time: 165.0
Weighted Recall: 0.9374337221633086
Weighted FalsePositiveRate: 0.5894947046590738
Kappa statistic: 0.3890642757923977
Training time: 0.0
		
Iteration: 46
Labeled set size: 1277
Unlabelled set size: 609
	
Mean region size: 50.0
Incorrectly Classified Instances: 6.150583244962885
Correctly Classified Instances: 93.84941675503711
Weighted Precision: 0.9310920045216391
Weighted AreaUnderROC: 0.6729776839417672
Root mean squared error: 0.2478109401022794
Relative absolute error: 12.437619449686624
Root relative squared error: 49.56218802045588
Weighted TruePositiveRate: 0.9384941675503712
Weighted MatthewsCorrelation: 0.3932479152982283
Weighted FMeasure: 0.9341395132876301
Iteration time: 1.0
Weighted AreaUnderPRC: 0.9141791477945398
Mean absolute error: 0.06218809724843312
Coverage of cases: 93.84941675503711
Instances selection time: 1.0
Test time: 868.0
Accumulative iteration time: 166.0
Weighted Recall: 0.9384941675503712
Weighted FalsePositiveRate: 0.597556844004352
Kappa statistic: 0.3882958199356918
Training time: 0.0
		
Time end:Wed Nov 01 09.03.38 EET 2017