Fri Dec 01 08.07.54 EET 2017
Dataset: splice
Test set size: 1595
Initial Labelled set size: 319
Initial Unlabelled set size: 1276
Batch mode: QBestBatchMode
Batch size: 20
Classifiers: SMOsync-1cores
Scenario: PoolBasedSamplingScenario
Query strategy: EntropySamplingQueryStrategy-1cores
Time begining: Fri Dec 01 08.07.54 EET 2017
		
Iteration: 1
Labeled set size: 319
Unlabelled set size: 1276
	
Mean region size: 35.44409613375107
Incorrectly Classified Instances: 18.620689655172413
Correctly Classified Instances: 81.37931034482759
Weighted Precision: 0.8584975367174766
Weighted AreaUnderROC: 0.9436037827851755
Root mean squared error: 0.339487672691117
Relative absolute error: 27.71842665955248
Root relative squared error: 72.01621064673756
Weighted TruePositiveRate: 0.8137931034482758
Weighted MatthewsCorrelation: 0.7353185629215663
Weighted FMeasure: 0.8153416554718552
Iteration time: 1007.0
Weighted AreaUnderPRC: 0.8639165228268517
Mean absolute error: 0.1231930073757916
Coverage of cases: 84.26332288401254
Instances selection time: 227.0
Test time: 298.0
Accumulative iteration time: 1007.0
Weighted Recall: 0.8137931034482758
Weighted FalsePositiveRate: 0.06095023942405346
Kappa statistic: 0.7168187141214932
Training time: 780.0
		
Iteration: 2
Labeled set size: 339
Unlabelled set size: 1256
	
Mean region size: 35.08881922674997
Incorrectly Classified Instances: 18.996865203761754
Correctly Classified Instances: 81.00313479623824
Weighted Precision: 0.8555272424854233
Weighted AreaUnderROC: 0.9408942671216565
Root mean squared error: 0.3427578586887615
Relative absolute error: 28.001318555154196
Root relative squared error: 72.70992185514027
Weighted TruePositiveRate: 0.8100313479623824
Weighted MatthewsCorrelation: 0.7301006501263821
Weighted FMeasure: 0.8118760991382175
Iteration time: 1072.0
Weighted AreaUnderPRC: 0.8576559536967125
Mean absolute error: 0.12445030468957702
Coverage of cases: 83.44827586206897
Instances selection time: 239.0
Test time: 282.0
Accumulative iteration time: 2079.0
Weighted Recall: 0.8100313479623824
Weighted FalsePositiveRate: 0.06309570593100343
Kappa statistic: 0.7110213526749143
Training time: 833.0
		
Iteration: 3
Labeled set size: 359
Unlabelled set size: 1236
	
Mean region size: 35.193312434691414
Incorrectly Classified Instances: 19.435736677115987
Correctly Classified Instances: 80.56426332288402
Weighted Precision: 0.8525059380261603
Weighted AreaUnderROC: 0.9371062164344692
Root mean squared error: 0.34839223532466895
Relative absolute error: 28.954647271518006
Root relative squared error: 73.90515363324303
Weighted TruePositiveRate: 0.8056426332288401
Weighted MatthewsCorrelation: 0.7238417340942436
Weighted FMeasure: 0.8065601126976457
Iteration time: 1207.0
Weighted AreaUnderPRC: 0.8488601087508988
Mean absolute error: 0.1286873212067496
Coverage of cases: 83.1974921630094
Instances selection time: 218.0
Test time: 288.0
Accumulative iteration time: 3286.0
Weighted Recall: 0.8056426332288401
Weighted FalsePositiveRate: 0.06448733801827035
Kappa statistic: 0.7052042524040654
Training time: 989.0
		
Iteration: 4
Labeled set size: 379
Unlabelled set size: 1216
	
Mean region size: 34.879832810866965
Incorrectly Classified Instances: 17.68025078369906
Correctly Classified Instances: 82.31974921630093
Weighted Precision: 0.8631609466330634
Weighted AreaUnderROC: 0.9413053595993319
Root mean squared error: 0.332612866835328
Relative absolute error: 26.294038594924253
Root relative squared error: 70.55784409474676
Weighted TruePositiveRate: 0.8231974921630094
Weighted MatthewsCorrelation: 0.7458668572216988
Weighted FMeasure: 0.8238082994432364
Iteration time: 1290.0
Weighted AreaUnderPRC: 0.8542371168347945
Mean absolute error: 0.11686239375522155
Coverage of cases: 84.45141065830721
Instances selection time: 218.0
Test time: 294.0
Accumulative iteration time: 4576.0
Weighted Recall: 0.8231974921630094
Weighted FalsePositiveRate: 0.058444490167413474
Kappa statistic: 0.7305499527044149
Training time: 1072.0
		
Iteration: 5
Labeled set size: 399
Unlabelled set size: 1196
	
Mean region size: 34.691745036572264
Incorrectly Classified Instances: 16.614420062695924
Correctly Classified Instances: 83.38557993730407
Weighted Precision: 0.8700126386611012
Weighted AreaUnderROC: 0.9423438174789052
Root mean squared error: 0.3257534447916389
Relative absolute error: 25.110671889648483
Root relative squared error: 69.10274094211287
Weighted TruePositiveRate: 0.8338557993730408
Weighted MatthewsCorrelation: 0.7596224325745297
Weighted FMeasure: 0.8345781092148343
Iteration time: 1553.0
Weighted AreaUnderPRC: 0.8559888998361579
Mean absolute error: 0.11160298617621801
Coverage of cases: 84.89028213166144
Instances selection time: 215.0
Test time: 294.0
Accumulative iteration time: 6129.0
Weighted Recall: 0.8338557993730408
Weighted FalsePositiveRate: 0.05506481224119379
Kappa statistic: 0.7458491347716626
Training time: 1338.0
		
Iteration: 6
Labeled set size: 419
Unlabelled set size: 1176
	
Mean region size: 34.67084639498394
Incorrectly Classified Instances: 15.172413793103448
Correctly Classified Instances: 84.82758620689656
Weighted Precision: 0.8774094222482581
Weighted AreaUnderROC: 0.9460863788902364
Root mean squared error: 0.31022845685579126
Relative absolute error: 22.810410388544437
Root relative squared error: 65.80939366792974
Weighted TruePositiveRate: 0.8482758620689655
Weighted MatthewsCorrelation: 0.7772621592542727
Weighted FMeasure: 0.84921121204029
Iteration time: 1678.0
Weighted AreaUnderPRC: 0.867744043473093
Mean absolute error: 0.10137960172686647
Coverage of cases: 86.64576802507837
Instances selection time: 226.0
Test time: 317.0
Accumulative iteration time: 7807.0
Weighted Recall: 0.8482758620689655
Weighted FalsePositiveRate: 0.05144494581518076
Kappa statistic: 0.7663515761386721
Training time: 1452.0
		
Iteration: 7
Labeled set size: 439
Unlabelled set size: 1156
	
Mean region size: 34.545454545454156
Incorrectly Classified Instances: 15.109717868338558
Correctly Classified Instances: 84.89028213166144
Weighted Precision: 0.8769738853281203
Weighted AreaUnderROC: 0.9454904130879254
Root mean squared error: 0.31056112843467976
Relative absolute error: 22.84088876043431
Root relative squared error: 65.87996396673176
Weighted TruePositiveRate: 0.8489028213166144
Weighted MatthewsCorrelation: 0.7773852269122443
Weighted FMeasure: 0.8497243226707496
Iteration time: 1878.0
Weighted AreaUnderPRC: 0.86542620876095
Mean absolute error: 0.10151506115748812
Coverage of cases: 86.4576802507837
Instances selection time: 223.0
Test time: 313.0
Accumulative iteration time: 9685.0
Weighted Recall: 0.8489028213166144
Weighted FalsePositiveRate: 0.05172246073307465
Kappa statistic: 0.7671922070150916
Training time: 1655.0
		
Iteration: 8
Labeled set size: 459
Unlabelled set size: 1136
	
Mean region size: 34.629049111807355
Incorrectly Classified Instances: 15.297805642633229
Correctly Classified Instances: 84.70219435736676
Weighted Precision: 0.8744524160956713
Weighted AreaUnderROC: 0.9459851123334343
Root mean squared error: 0.31112897832573666
Relative absolute error: 22.984568461685672
Root relative squared error: 66.00042311933048
Weighted TruePositiveRate: 0.8470219435736677
Weighted MatthewsCorrelation: 0.7750061232638259
Weighted FMeasure: 0.8484656926270461
Iteration time: 1972.0
Weighted AreaUnderPRC: 0.8695890735464245
Mean absolute error: 0.10215363760749419
Coverage of cases: 86.39498432601881
Instances selection time: 220.0
Test time: 316.0
Accumulative iteration time: 11657.0
Weighted Recall: 0.8470219435736677
Weighted FalsePositiveRate: 0.052795193986549624
Kappa statistic: 0.7638506697410535
Training time: 1752.0
		
Iteration: 9
Labeled set size: 479
Unlabelled set size: 1116
	
Mean region size: 34.378265412747744
Incorrectly Classified Instances: 15.047021943573668
Correctly Classified Instances: 84.95297805642633
Weighted Precision: 0.8764004904914082
Weighted AreaUnderROC: 0.9457090838389735
Root mean squared error: 0.3100369211232703
Relative absolute error: 22.659909487716828
Root relative squared error: 65.76876280333822
Weighted TruePositiveRate: 0.8495297805642633
Weighted MatthewsCorrelation: 0.7785764461212833
Weighted FMeasure: 0.8508714235965315
Iteration time: 2183.0
Weighted AreaUnderPRC: 0.870187265943123
Mean absolute error: 0.10071070883429929
Coverage of cases: 86.39498432601881
Instances selection time: 215.0
Test time: 320.0
Accumulative iteration time: 13840.0
Weighted Recall: 0.8495297805642633
Weighted FalsePositiveRate: 0.05152365614917937
Kappa statistic: 0.7676595155810151
Training time: 1968.0
		
Iteration: 10
Labeled set size: 499
Unlabelled set size: 1096
	
Mean region size: 34.629049111807326
Incorrectly Classified Instances: 13.22884012539185
Correctly Classified Instances: 86.77115987460814
Weighted Precision: 0.8869438088351894
Weighted AreaUnderROC: 0.9524939121354278
Root mean squared error: 0.2874422175920284
Relative absolute error: 19.759190835628182
Root relative squared error: 60.97570237758604
Weighted TruePositiveRate: 0.8677115987460815
Weighted MatthewsCorrelation: 0.8013413171116017
Weighted FMeasure: 0.869013353246151
Iteration time: 2371.0
Weighted AreaUnderPRC: 0.8852634576144962
Mean absolute error: 0.08781862593612723
Coverage of cases: 88.4012539184953
Instances selection time: 212.0
Test time: 311.0
Accumulative iteration time: 16211.0
Weighted Recall: 0.8677115987460815
Weighted FalsePositiveRate: 0.04766360122337301
Kappa statistic: 0.7939612074401587
Training time: 2159.0
		
Iteration: 11
Labeled set size: 519
Unlabelled set size: 1076
	
Mean region size: 35.48589341692764
Incorrectly Classified Instances: 12.037617554858935
Correctly Classified Instances: 87.96238244514106
Weighted Precision: 0.8938761337997106
Weighted AreaUnderROC: 0.9602934556463653
Root mean squared error: 0.268759900528752
Relative absolute error: 18.024807279660713
Root relative squared error: 57.01258445247011
Weighted TruePositiveRate: 0.8796238244514106
Weighted MatthewsCorrelation: 0.8156448747557238
Weighted FMeasure: 0.8812106609816223
Iteration time: 2534.0
Weighted AreaUnderPRC: 0.9153414061130074
Mean absolute error: 0.08011025457627165
Coverage of cases: 90.59561128526646
Instances selection time: 205.0
Test time: 307.0
Accumulative iteration time: 18745.0
Weighted Recall: 0.8796238244514106
Weighted FalsePositiveRate: 0.047696870143676004
Kappa statistic: 0.8109247977832561
Training time: 2329.0
		
Iteration: 12
Labeled set size: 539
Unlabelled set size: 1056
	
Mean region size: 37.11598746081486
Incorrectly Classified Instances: 12.789968652037617
Correctly Classified Instances: 87.21003134796238
Weighted Precision: 0.8867551227375727
Weighted AreaUnderROC: 0.9601328511335271
Root mean squared error: 0.2670246257758449
Relative absolute error: 18.939297100124975
Root relative squared error: 56.64447708896939
Weighted TruePositiveRate: 0.8721003134796238
Weighted MatthewsCorrelation: 0.8022126370889865
Weighted FMeasure: 0.8735708290683493
Iteration time: 2518.0
Weighted AreaUnderPRC: 0.9274646824659423
Mean absolute error: 0.08417465377833513
Coverage of cases: 91.53605015673982
Instances selection time: 196.0
Test time: 301.0
Accumulative iteration time: 21263.0
Weighted Recall: 0.8721003134796238
Weighted FalsePositiveRate: 0.06865898572019635
Kappa statistic: 0.7943835582677867
Training time: 2322.0
		
Iteration: 13
Labeled set size: 559
Unlabelled set size: 1036
	
Mean region size: 34.608150470219016
Incorrectly Classified Instances: 9.655172413793103
Correctly Classified Instances: 90.34482758620689
Weighted Precision: 0.9118799725582107
Weighted AreaUnderROC: 0.9644355868887774
Root mean squared error: 0.2427761357190966
Relative absolute error: 14.49316903771216
Root relative squared error: 51.50059556317105
Weighted TruePositiveRate: 0.903448275862069
Weighted MatthewsCorrelation: 0.8502917690965344
Weighted FMeasure: 0.9049112496602606
Iteration time: 2672.0
Weighted AreaUnderPRC: 0.9286298930075564
Mean absolute error: 0.06441408461205551
Coverage of cases: 91.84952978056427
Instances selection time: 200.0
Test time: 313.0
Accumulative iteration time: 23935.0
Weighted Recall: 0.903448275862069
Weighted FalsePositiveRate: 0.04109493495923384
Kappa statistic: 0.8465410989714012
Training time: 2472.0
		
Iteration: 14
Labeled set size: 579
Unlabelled set size: 1016
	
Mean region size: 35.256008359456295
Incorrectly Classified Instances: 10.094043887147336
Correctly Classified Instances: 89.90595611285266
Weighted Precision: 0.9084371657979159
Weighted AreaUnderROC: 0.9662592353072066
Root mean squared error: 0.2464377999244342
Relative absolute error: 15.308753161194579
Root relative squared error: 52.27735184017773
Weighted TruePositiveRate: 0.8990595611285267
Weighted MatthewsCorrelation: 0.8432413778845662
Weighted FMeasure: 0.9007410900378208
Iteration time: 3017.0
Weighted AreaUnderPRC: 0.9339730563906429
Mean absolute error: 0.06803890293864412
Coverage of cases: 92.16300940438872
Instances selection time: 197.0
Test time: 314.0
Accumulative iteration time: 26952.0
Weighted Recall: 0.8990595611285267
Weighted FalsePositiveRate: 0.04724976206439231
Kappa statistic: 0.8388520874332305
Training time: 2820.0
		
Iteration: 15
Labeled set size: 599
Unlabelled set size: 996
	
Mean region size: 35.130616509926526
Incorrectly Classified Instances: 9.717868338557993
Correctly Classified Instances: 90.28213166144201
Weighted Precision: 0.9123979028697545
Weighted AreaUnderROC: 0.9652759702509305
Root mean squared error: 0.24047459737103005
Relative absolute error: 14.630313216194487
Root relative squared error: 51.01236555124744
Weighted TruePositiveRate: 0.9028213166144201
Weighted MatthewsCorrelation: 0.8493899641239974
Weighted FMeasure: 0.9045498817658639
Iteration time: 3520.0
Weighted AreaUnderPRC: 0.932371046177794
Mean absolute error: 0.0650236142941992
Coverage of cases: 92.41379310344827
Instances selection time: 382.0
Test time: 351.0
Accumulative iteration time: 30472.0
Weighted Recall: 0.9028213166144201
Weighted FalsePositiveRate: 0.044151656553864056
Kappa statistic: 0.8450299252558128
Training time: 3138.0
		
Iteration: 16
Labeled set size: 619
Unlabelled set size: 976
	
Mean region size: 34.503657262277514
Incorrectly Classified Instances: 8.96551724137931
Correctly Classified Instances: 91.03448275862068
Weighted Precision: 0.9206287160996848
Weighted AreaUnderROC: 0.9667647018535247
Root mean squared error: 0.23783512740437368
Relative absolute error: 13.851945633185274
Root relative squared error: 50.45244941759916
Weighted TruePositiveRate: 0.9103448275862069
Weighted MatthewsCorrelation: 0.862898787496289
Weighted FMeasure: 0.9122297108087802
Iteration time: 3274.0
Weighted AreaUnderPRC: 0.93461527907994
Mean absolute error: 0.06156420281415816
Coverage of cases: 92.03761755485894
Instances selection time: 188.0
Test time: 311.0
Accumulative iteration time: 33746.0
Weighted Recall: 0.9103448275862069
Weighted FalsePositiveRate: 0.037002806529229194
Kappa statistic: 0.8573049826421149
Training time: 3086.0
		
Iteration: 17
Labeled set size: 639
Unlabelled set size: 956
	
Mean region size: 34.25287356321793
Incorrectly Classified Instances: 9.0282131661442
Correctly Classified Instances: 90.9717868338558
Weighted Precision: 0.9207299262104296
Weighted AreaUnderROC: 0.9719872397997242
Root mean squared error: 0.23632083063250942
Relative absolute error: 13.529587367650727
Root relative squared error: 50.131218562764936
Weighted TruePositiveRate: 0.909717868338558
Weighted MatthewsCorrelation: 0.8624571934485695
Weighted FMeasure: 0.9114058913414156
Iteration time: 3350.0
Weighted AreaUnderPRC: 0.9311128871758487
Mean absolute error: 0.06013149941178237
Coverage of cases: 92.2257053291536
Instances selection time: 187.0
Test time: 327.0
Accumulative iteration time: 37096.0
Weighted Recall: 0.909717868338558
Weighted FalsePositiveRate: 0.03386737460060038
Kappa statistic: 0.8570203992447627
Training time: 3163.0
		
Iteration: 18
Labeled set size: 659
Unlabelled set size: 936
	
Mean region size: 34.169278996864726
Incorrectly Classified Instances: 9.090909090909092
Correctly Classified Instances: 90.9090909090909
Weighted Precision: 0.9197102177268734
Weighted AreaUnderROC: 0.9717068258505497
Root mean squared error: 0.2382679075183945
Relative absolute error: 13.647962775067217
Root relative squared error: 50.544255943615205
Weighted TruePositiveRate: 0.9090909090909091
Weighted MatthewsCorrelation: 0.8610056894404916
Weighted FMeasure: 0.9106555441351477
Iteration time: 3606.0
Weighted AreaUnderPRC: 0.9325477698561818
Mean absolute error: 0.06065761233363345
Coverage of cases: 92.03761755485894
Instances selection time: 187.0
Test time: 316.0
Accumulative iteration time: 40702.0
Weighted Recall: 0.9090909090909091
Weighted FalsePositiveRate: 0.03454249868628481
Kappa statistic: 0.8560274853506291
Training time: 3419.0
		
Iteration: 19
Labeled set size: 679
Unlabelled set size: 916
	
Mean region size: 34.08568443051152
Incorrectly Classified Instances: 11.598746081504702
Correctly Classified Instances: 88.4012539184953
Weighted Precision: 0.9001354440918247
Weighted AreaUnderROC: 0.9544677715626179
Root mean squared error: 0.27274286820160243
Relative absolute error: 17.579777986190933
Root relative squared error: 57.8574994876859
Weighted TruePositiveRate: 0.8840125391849529
Weighted MatthewsCorrelation: 0.8260182471427505
Weighted FMeasure: 0.8854388737324449
Iteration time: 3723.0
Weighted AreaUnderPRC: 0.8907852674546876
Mean absolute error: 0.0781323466052948
Coverage of cases: 89.21630094043887
Instances selection time: 176.0
Test time: 321.0
Accumulative iteration time: 44425.0
Weighted Recall: 0.8840125391849529
Weighted FalsePositiveRate: 0.04011308453315006
Kappa statistic: 0.8184636453570496
Training time: 3547.0
		
Iteration: 20
Labeled set size: 699
Unlabelled set size: 896
	
Mean region size: 34.23197492162963
Incorrectly Classified Instances: 9.968652037617554
Correctly Classified Instances: 90.03134796238244
Weighted Precision: 0.9129544196286009
Weighted AreaUnderROC: 0.9642705160274331
Root mean squared error: 0.2538376290226962
Relative absolute error: 15.415917433476784
Root relative squared error: 53.84709264067849
Weighted TruePositiveRate: 0.9003134796238245
Weighted MatthewsCorrelation: 0.8501177690159486
Weighted FMeasure: 0.9022296740512005
Iteration time: 3702.0
Weighted AreaUnderPRC: 0.9163459293614813
Mean absolute error: 0.0685151885932317
Coverage of cases: 90.84639498432603
Instances selection time: 177.0
Test time: 315.0
Accumulative iteration time: 48127.0
Weighted Recall: 0.9003134796238245
Weighted FalsePositiveRate: 0.03637312385724036
Kappa statistic: 0.8424308660415389
Training time: 3525.0
		
Iteration: 21
Labeled set size: 719
Unlabelled set size: 876
	
Mean region size: 34.16927899686473
Incorrectly Classified Instances: 11.285266457680251
Correctly Classified Instances: 88.71473354231975
Weighted Precision: 0.9011986453459624
Weighted AreaUnderROC: 0.9575618333947048
Root mean squared error: 0.2682514836097706
Relative absolute error: 17.1261104588943
Root relative squared error: 56.90473293714559
Weighted TruePositiveRate: 0.8871473354231975
Weighted MatthewsCorrelation: 0.8308427929531921
Weighted FMeasure: 0.8889309671389909
Iteration time: 3877.0
Weighted AreaUnderPRC: 0.9021531405184045
Mean absolute error: 0.0761160464839764
Coverage of cases: 89.59247648902821
Instances selection time: 180.0
Test time: 317.0
Accumulative iteration time: 52004.0
Weighted Recall: 0.8871473354231975
Weighted FalsePositiveRate: 0.040071700617251994
Kappa statistic: 0.8225478567600861
Training time: 3697.0
		
Iteration: 22
Labeled set size: 739
Unlabelled set size: 856
	
Mean region size: 34.29467084639454
Incorrectly Classified Instances: 10.9717868338558
Correctly Classified Instances: 89.0282131661442
Weighted Precision: 0.9028726430673866
Weighted AreaUnderROC: 0.9575648507331566
Root mean squared error: 0.2634395537360564
Relative absolute error: 16.61610561703782
Root relative squared error: 55.88396846385638
Weighted TruePositiveRate: 0.890282131661442
Weighted MatthewsCorrelation: 0.8347793322986741
Weighted FMeasure: 0.8919011980867699
Iteration time: 4329.0
Weighted AreaUnderPRC: 0.9018836511246517
Mean absolute error: 0.07384935829794755
Coverage of cases: 90.15673981191223
Instances selection time: 170.0
Test time: 324.0
Accumulative iteration time: 56333.0
Weighted Recall: 0.890282131661442
Weighted FalsePositiveRate: 0.03955399719956477
Kappa statistic: 0.8271931839357917
Training time: 4159.0
		
Iteration: 23
Labeled set size: 759
Unlabelled set size: 836
	
Mean region size: 34.46185997910092
Incorrectly Classified Instances: 9.905956112852664
Correctly Classified Instances: 90.09404388714734
Weighted Precision: 0.9092199459921079
Weighted AreaUnderROC: 0.960971345962688
Root mean squared error: 0.2514027455629258
Relative absolute error: 15.321492253921367
Root relative squared error: 53.33057585893772
Weighted TruePositiveRate: 0.9009404388714733
Weighted MatthewsCorrelation: 0.848334300780272
Weighted FMeasure: 0.9021690623239509
Iteration time: 4323.0
Weighted AreaUnderPRC: 0.9151961999264622
Mean absolute error: 0.06809552112854095
Coverage of cases: 91.09717868338558
Instances selection time: 164.0
Test time: 315.0
Accumulative iteration time: 60656.0
Weighted Recall: 0.9009404388714733
Weighted FalsePositiveRate: 0.03855591678229087
Kappa statistic: 0.8429897062653342
Training time: 4159.0
		
Iteration: 24
Labeled set size: 779
Unlabelled set size: 816
	
Mean region size: 34.94252873563179
Incorrectly Classified Instances: 9.717868338557993
Correctly Classified Instances: 90.28213166144201
Weighted Precision: 0.9062471360172979
Weighted AreaUnderROC: 0.9648390150166921
Root mean squared error: 0.24482280645381854
Relative absolute error: 14.95847747762184
Root relative squared error: 51.93475998978444
Weighted TruePositiveRate: 0.9028213166144201
Weighted MatthewsCorrelation: 0.8483160321218485
Weighted FMeasure: 0.9036675006063446
Iteration time: 4595.0
Weighted AreaUnderPRC: 0.9274610698965756
Mean absolute error: 0.06648212212276523
Coverage of cases: 92.03761755485894
Instances selection time: 165.0
Test time: 316.0
Accumulative iteration time: 65251.0
Weighted Recall: 0.9028213166144201
Weighted FalsePositiveRate: 0.04653325406280982
Kappa statistic: 0.8440773681508513
Training time: 4430.0
		
Iteration: 25
Labeled set size: 799
Unlabelled set size: 796
	
Mean region size: 34.64994775339561
Incorrectly Classified Instances: 9.090909090909092
Correctly Classified Instances: 90.9090909090909
Weighted Precision: 0.912915750101919
Weighted AreaUnderROC: 0.966712063925834
Root mean squared error: 0.23712450416240255
Relative absolute error: 13.893172286924333
Root relative squared error: 50.3017034636192
Weighted TruePositiveRate: 0.9090909090909091
Weighted MatthewsCorrelation: 0.8585577540352906
Weighted FMeasure: 0.9099842895763766
Iteration time: 4618.0
Weighted AreaUnderPRC: 0.931407129066234
Mean absolute error: 0.06174743238633176
Coverage of cases: 92.2257053291536
Instances selection time: 160.0
Test time: 326.0
Accumulative iteration time: 69869.0
Weighted Recall: 0.9090909090909091
Weighted FalsePositiveRate: 0.041687291213122146
Kappa statistic: 0.8543403765138301
Training time: 4458.0
		
Iteration: 26
Labeled set size: 819
Unlabelled set size: 776
	
Mean region size: 35.109717868338194
Incorrectly Classified Instances: 9.090909090909092
Correctly Classified Instances: 90.9090909090909
Weighted Precision: 0.9134665683304555
Weighted AreaUnderROC: 0.9694705301083459
Root mean squared error: 0.23489064755833766
Relative absolute error: 13.962456835742016
Root relative squared error: 49.82783091773941
Weighted TruePositiveRate: 0.9090909090909091
Weighted MatthewsCorrelation: 0.8581455752737387
Weighted FMeasure: 0.9099990353186963
Iteration time: 5031.0
Weighted AreaUnderPRC: 0.9357137171404092
Mean absolute error: 0.062055363714410366
Coverage of cases: 92.91536050156739
Instances selection time: 155.0
Test time: 322.0
Accumulative iteration time: 74900.0
Weighted Recall: 0.9090909090909091
Weighted FalsePositiveRate: 0.041210971711332985
Kappa statistic: 0.8545838088321747
Training time: 4876.0
		
Iteration: 27
Labeled set size: 839
Unlabelled set size: 756
	
Mean region size: 34.90073145245518
Incorrectly Classified Instances: 9.0282131661442
Correctly Classified Instances: 90.9717868338558
Weighted Precision: 0.9149087952105065
Weighted AreaUnderROC: 0.9678456562756973
Root mean squared error: 0.2353167046438983
Relative absolute error: 13.852023686117452
Root relative squared error: 49.91821127405117
Weighted TruePositiveRate: 0.909717868338558
Weighted MatthewsCorrelation: 0.860241581673839
Weighted FMeasure: 0.9107792870823341
Iteration time: 5490.0
Weighted AreaUnderPRC: 0.9323372559212881
Mean absolute error: 0.061564549716078956
Coverage of cases: 92.53918495297806
Instances selection time: 152.0
Test time: 324.0
Accumulative iteration time: 80390.0
Weighted Recall: 0.909717868338558
Weighted FalsePositiveRate: 0.03910688912028109
Kappa statistic: 0.8557875239380905
Training time: 5338.0
		
Iteration: 28
Labeled set size: 859
Unlabelled set size: 736
	
Mean region size: 34.90073145245521
Incorrectly Classified Instances: 9.341692789968652
Correctly Classified Instances: 90.65830721003135
Weighted Precision: 0.9129660002471114
Weighted AreaUnderROC: 0.9648864797863671
Root mean squared error: 0.2373198943635552
Relative absolute error: 14.078848197259529
Root relative squared error: 50.34315198448293
Weighted TruePositiveRate: 0.9065830721003135
Weighted MatthewsCorrelation: 0.8547711001961572
Weighted FMeasure: 0.9076902070681004
Iteration time: 5413.0
Weighted AreaUnderPRC: 0.9252738828538726
Mean absolute error: 0.06257265865448822
Coverage of cases: 92.47648902821317
Instances selection time: 149.0
Test time: 327.0
Accumulative iteration time: 85803.0
Weighted Recall: 0.9065830721003135
Weighted FalsePositiveRate: 0.040577231541546625
Kappa statistic: 0.8511114563768565
Training time: 5264.0
		
Iteration: 29
Labeled set size: 879
Unlabelled set size: 716
	
Mean region size: 34.50365726227753
Incorrectly Classified Instances: 9.467084639498433
Correctly Classified Instances: 90.53291536050156
Weighted Precision: 0.9123180670267681
Weighted AreaUnderROC: 0.9637997205604839
Root mean squared error: 0.24186944406497596
Relative absolute error: 14.343377242954295
Root relative squared error: 51.30825721804887
Weighted TruePositiveRate: 0.9053291536050156
Weighted MatthewsCorrelation: 0.8537671682780704
Weighted FMeasure: 0.9065812628355258
Iteration time: 5299.0
Weighted AreaUnderPRC: 0.9232408665275703
Mean absolute error: 0.06374834330202053
Coverage of cases: 91.97492163009404
Instances selection time: 145.0
Test time: 328.0
Accumulative iteration time: 91102.0
Weighted Recall: 0.9053291536050156
Weighted FalsePositiveRate: 0.04002220170575886
Kappa statistic: 0.8492384773176974
Training time: 5154.0
		
Iteration: 30
Labeled set size: 899
Unlabelled set size: 696
	
Mean region size: 34.60815047021904
Incorrectly Classified Instances: 9.341692789968652
Correctly Classified Instances: 90.65830721003135
Weighted Precision: 0.9131717306716238
Weighted AreaUnderROC: 0.9669196138027892
Root mean squared error: 0.23924346352946646
Relative absolute error: 14.120842694211827
Root relative squared error: 50.751202624872086
Weighted TruePositiveRate: 0.9065830721003135
Weighted MatthewsCorrelation: 0.856393577163244
Weighted FMeasure: 0.9078556323209869
Iteration time: 5603.0
Weighted AreaUnderPRC: 0.9294658078109307
Mean absolute error: 0.0627593008631651
Coverage of cases: 92.16300940438872
Instances selection time: 138.0
Test time: 328.0
Accumulative iteration time: 96705.0
Weighted Recall: 0.9065830721003135
Weighted FalsePositiveRate: 0.039148273036179154
Kappa statistic: 0.8510701230956461
Training time: 5465.0
		
Iteration: 31
Labeled set size: 919
Unlabelled set size: 676
	
Mean region size: 34.71264367816052
Incorrectly Classified Instances: 9.278996865203762
Correctly Classified Instances: 90.72100313479623
Weighted Precision: 0.914044063445431
Weighted AreaUnderROC: 0.9661114871773632
Root mean squared error: 0.23924973470450103
Relative absolute error: 14.170269808436792
Root relative squared error: 50.75253294198997
Weighted TruePositiveRate: 0.9072100313479624
Weighted MatthewsCorrelation: 0.8571568163744286
Weighted FMeasure: 0.9084527744932245
Iteration time: 5899.0
Weighted AreaUnderPRC: 0.9287258948209267
Mean absolute error: 0.06297897692638717
Coverage of cases: 92.2257053291536
Instances selection time: 133.0
Test time: 328.0
Accumulative iteration time: 102604.0
Weighted Recall: 0.9072100313479624
Weighted FalsePositiveRate: 0.03894946845228388
Kappa statistic: 0.8521107083474816
Training time: 5766.0
		
Iteration: 32
Labeled set size: 939
Unlabelled set size: 656
	
Mean region size: 34.7962382445137
Incorrectly Classified Instances: 9.905956112852664
Correctly Classified Instances: 90.09404388714734
Weighted Precision: 0.9093263132634506
Weighted AreaUnderROC: 0.9637888878705259
Root mean squared error: 0.24649801538773208
Relative absolute error: 15.043716825046312
Root relative squared error: 52.290125468906794
Weighted TruePositiveRate: 0.9009404388714733
Weighted MatthewsCorrelation: 0.8481091452311039
Weighted FMeasure: 0.9024413162451803
Iteration time: 6096.0
Weighted AreaUnderPRC: 0.9244892603959236
Mean absolute error: 0.06686096366687401
Coverage of cases: 91.5987460815047
Instances selection time: 129.0
Test time: 323.0
Accumulative iteration time: 108700.0
Weighted Recall: 0.9009404388714733
Weighted FalsePositiveRate: 0.04141383379302579
Kappa statistic: 0.8423806581222025
Training time: 5967.0
		
Iteration: 33
Labeled set size: 959
Unlabelled set size: 636
	
Mean region size: 34.46185997910092
Incorrectly Classified Instances: 6.77115987460815
Correctly Classified Instances: 93.22884012539186
Weighted Precision: 0.9334366296778182
Weighted AreaUnderROC: 0.9778226985500381
Root mean squared error: 0.20701835385293346
Relative absolute error: 10.780831121331929
Root relative squared error: 43.91522455184515
Weighted TruePositiveRate: 0.9322884012539185
Weighted MatthewsCorrelation: 0.8943944618535091
Weighted FMeasure: 0.9326558794738617
Iteration time: 6211.0
Weighted AreaUnderPRC: 0.9570711579034126
Mean absolute error: 0.047914804983698545
Coverage of cases: 94.1065830721003
Instances selection time: 125.0
Test time: 324.0
Accumulative iteration time: 114911.0
Weighted Recall: 0.9322884012539185
Weighted FalsePositiveRate: 0.03337888260541863
Kappa statistic: 0.8906544672277614
Training time: 6086.0
		
Iteration: 34
Labeled set size: 979
Unlabelled set size: 616
	
Mean region size: 34.83803552769031
Incorrectly Classified Instances: 7.2727272727272725
Correctly Classified Instances: 92.72727272727273
Weighted Precision: 0.9277574502875375
Weighted AreaUnderROC: 0.9812820379864305
Root mean squared error: 0.21272928671039157
Relative absolute error: 11.53773109883732
Root relative squared error: 45.12669635696805
Weighted TruePositiveRate: 0.9272727272727272
Weighted MatthewsCorrelation: 0.8842737606415194
Weighted FMeasure: 0.9274105165340539
Iteration time: 6018.0
Weighted AreaUnderPRC: 0.9672002303805797
Mean absolute error: 0.051278804883722585
Coverage of cases: 94.2319749216301
Instances selection time: 124.0
Test time: 321.0
Accumulative iteration time: 120929.0
Weighted Recall: 0.9272727272727272
Weighted FalsePositiveRate: 0.04211411180341817
Kappa statistic: 0.8819573063399938
Training time: 5894.0
		
Iteration: 35
Labeled set size: 999
Unlabelled set size: 596
	
Mean region size: 34.83803552769031
Incorrectly Classified Instances: 6.959247648902822
Correctly Classified Instances: 93.04075235109718
Weighted Precision: 0.9316798121333294
Weighted AreaUnderROC: 0.9803180546396582
Root mean squared error: 0.20883358068893568
Relative absolute error: 11.144470230200408
Root relative squared error: 44.300292313383835
Weighted TruePositiveRate: 0.9304075235109718
Weighted MatthewsCorrelation: 0.8889891646155285
Weighted FMeasure: 0.9304687629525796
Iteration time: 6715.0
Weighted AreaUnderPRC: 0.9655567524255582
Mean absolute error: 0.04953097880089183
Coverage of cases: 94.54545454545455
Instances selection time: 120.0
Test time: 324.0
Accumulative iteration time: 127644.0
Weighted Recall: 0.9304075235109718
Weighted FalsePositiveRate: 0.043978005894676715
Kappa statistic: 0.8865966306622418
Training time: 6595.0
		
Iteration: 36
Labeled set size: 1019
Unlabelled set size: 576
	
Mean region size: 35.08881922674992
Incorrectly Classified Instances: 7.021943573667712
Correctly Classified Instances: 92.97805642633229
Weighted Precision: 0.930530100688889
Weighted AreaUnderROC: 0.9837795020334541
Root mean squared error: 0.20722776527024678
Relative absolute error: 11.15818939683777
Root relative squared error: 43.95964742181719
Weighted TruePositiveRate: 0.9297805642633229
Weighted MatthewsCorrelation: 0.8890631895625505
Weighted FMeasure: 0.9300399939956284
Iteration time: 6115.0
Weighted AreaUnderPRC: 0.9687936146125051
Mean absolute error: 0.04959195287483566
Coverage of cases: 94.858934169279
Instances selection time: 208.0
Test time: 305.0
Accumulative iteration time: 133759.0
Weighted Recall: 0.9297805642633229
Weighted FalsePositiveRate: 0.03798465695531297
Kappa statistic: 0.8863169202220208
Training time: 5907.0
		
Iteration: 37
Labeled set size: 1039
Unlabelled set size: 556
	
Mean region size: 35.02612330198502
Incorrectly Classified Instances: 6.70846394984326
Correctly Classified Instances: 93.29153605015674
Weighted Precision: 0.9338610798994625
Weighted AreaUnderROC: 0.9841571496468285
Root mean squared error: 0.20440268503425646
Relative absolute error: 10.904360261556185
Root relative squared error: 43.360357404137744
Weighted TruePositiveRate: 0.9329153605015674
Weighted MatthewsCorrelation: 0.8940978886298797
Weighted FMeasure: 0.933218393778334
Iteration time: 5712.0
Weighted AreaUnderPRC: 0.969166852869811
Mean absolute error: 0.04846382338469525
Coverage of cases: 94.858934169279
Instances selection time: 110.0
Test time: 312.0
Accumulative iteration time: 139471.0
Weighted Recall: 0.9329153605015674
Weighted FalsePositiveRate: 0.03508535602867998
Kappa statistic: 0.8915449341986946
Training time: 5602.0
		
Iteration: 38
Labeled set size: 1059
Unlabelled set size: 536
	
Mean region size: 35.08881922674992
Incorrectly Classified Instances: 6.70846394984326
Correctly Classified Instances: 93.29153605015674
Weighted Precision: 0.9336850114313482
Weighted AreaUnderROC: 0.9842224653170563
Root mean squared error: 0.20438594289371795
Relative absolute error: 10.894963322651023
Root relative squared error: 43.35680585980584
Weighted TruePositiveRate: 0.9329153605015674
Weighted MatthewsCorrelation: 0.8936716679509149
Weighted FMeasure: 0.9331725972738155
Iteration time: 5899.0
Weighted AreaUnderPRC: 0.9694387471873258
Mean absolute error: 0.04842205921178343
Coverage of cases: 94.98432601880877
Instances selection time: 106.0
Test time: 310.0
Accumulative iteration time: 145370.0
Weighted Recall: 0.9329153605015674
Weighted FalsePositiveRate: 0.03651431453404744
Kappa statistic: 0.8913920577121089
Training time: 5793.0
		
Iteration: 39
Labeled set size: 1079
Unlabelled set size: 516
	
Mean region size: 34.94252873563182
Incorrectly Classified Instances: 6.896551724137931
Correctly Classified Instances: 93.10344827586206
Weighted Precision: 0.9322479035945456
Weighted AreaUnderROC: 0.983338640977279
Root mean squared error: 0.20642579005093073
Relative absolute error: 10.978844755266861
Root relative squared error: 43.7895227870406
Weighted TruePositiveRate: 0.9310344827586207
Weighted MatthewsCorrelation: 0.8916806387071312
Weighted FMeasure: 0.9313935446294402
Iteration time: 5896.0
Weighted AreaUnderPRC: 0.9675791890866011
Mean absolute error: 0.04879486557896493
Coverage of cases: 94.67084639498432
Instances selection time: 100.0
Test time: 306.0
Accumulative iteration time: 151266.0
Weighted Recall: 0.9310344827586207
Weighted FalsePositiveRate: 0.03425281127499834
Kappa statistic: 0.8887234239570952
Training time: 5796.0
		
Iteration: 40
Labeled set size: 1099
Unlabelled set size: 496
	
Mean region size: 34.62904911180734
Incorrectly Classified Instances: 7.147335423197492
Correctly Classified Instances: 92.85266457680251
Weighted Precision: 0.9317342418107454
Weighted AreaUnderROC: 0.9828912716784578
Root mean squared error: 0.2105773379119615
Relative absolute error: 11.160968050975194
Root relative squared error: 44.670199080527205
Weighted TruePositiveRate: 0.9285266457680251
Weighted MatthewsCorrelation: 0.8893519043525764
Weighted FMeasure: 0.9292906743109384
Iteration time: 5991.0
Weighted AreaUnderPRC: 0.9615530937871324
Mean absolute error: 0.04960430244877976
Coverage of cases: 94.1692789968652
Instances selection time: 99.0
Test time: 311.0
Accumulative iteration time: 157257.0
Weighted Recall: 0.9285266457680251
Weighted FalsePositiveRate: 0.0312374735962662
Kappa statistic: 0.8852573018080668
Training time: 5892.0
		
Iteration: 41
Labeled set size: 1119
Unlabelled set size: 476
	
Mean region size: 34.566353187042445
Incorrectly Classified Instances: 7.586206896551724
Correctly Classified Instances: 92.41379310344827
Weighted Precision: 0.9279552161393052
Weighted AreaUnderROC: 0.9802198822704105
Root mean squared error: 0.21672838980301698
Relative absolute error: 11.689105805178931
Root relative squared error: 45.97503423160589
Weighted TruePositiveRate: 0.9241379310344827
Weighted MatthewsCorrelation: 0.8828295756161584
Weighted FMeasure: 0.9249511717653959
Iteration time: 5970.0
Weighted AreaUnderPRC: 0.9593532554940286
Mean absolute error: 0.05195158135635198
Coverage of cases: 93.73040752351098
Instances selection time: 96.0
Test time: 320.0
Accumulative iteration time: 163227.0
Weighted Recall: 0.9241379310344827
Weighted FalsePositiveRate: 0.031676466679954815
Kappa statistic: 0.8785512105548652
Training time: 5874.0
		
Iteration: 42
Labeled set size: 1139
Unlabelled set size: 456
	
Mean region size: 34.566353187042445
Incorrectly Classified Instances: 7.523510971786834
Correctly Classified Instances: 92.47648902821317
Weighted Precision: 0.9284598185192827
Weighted AreaUnderROC: 0.980145741424503
Root mean squared error: 0.2166027568197642
Relative absolute error: 11.678614988187759
Root relative squared error: 45.948383451286276
Weighted TruePositiveRate: 0.9247648902821317
Weighted MatthewsCorrelation: 0.8837903617650045
Weighted FMeasure: 0.9255593548357328
Iteration time: 6308.0
Weighted AreaUnderPRC: 0.9586251229952076
Mean absolute error: 0.05190495550305788
Coverage of cases: 93.73040752351098
Instances selection time: 89.0
Test time: 310.0
Accumulative iteration time: 169535.0
Weighted Recall: 0.9247648902821317
Weighted FalsePositiveRate: 0.03147766209605954
Kappa statistic: 0.8795213333476012
Training time: 6219.0
		
Iteration: 43
Labeled set size: 1159
Unlabelled set size: 436
	
Mean region size: 34.608150470219044
Incorrectly Classified Instances: 7.460815047021944
Correctly Classified Instances: 92.53918495297806
Weighted Precision: 0.9290086339284432
Weighted AreaUnderROC: 0.9803994910944562
Root mean squared error: 0.21614387554550446
Relative absolute error: 11.641218234902267
Root relative squared error: 45.8510400330497
Weighted TruePositiveRate: 0.9253918495297806
Weighted MatthewsCorrelation: 0.8847720022538547
Weighted FMeasure: 0.9261804175354508
Iteration time: 6546.0
Weighted AreaUnderPRC: 0.9590945033445513
Mean absolute error: 0.051738747710677914
Coverage of cases: 93.85579937304075
Instances selection time: 84.0
Test time: 317.0
Accumulative iteration time: 176081.0
Weighted Recall: 0.9253918495297806
Weighted FalsePositiveRate: 0.03127885751216427
Kappa statistic: 0.8804919973303447
Training time: 6462.0
		
Iteration: 44
Labeled set size: 1179
Unlabelled set size: 416
	
Mean region size: 34.60815047021903
Incorrectly Classified Instances: 7.586206896551724
Correctly Classified Instances: 92.41379310344827
Weighted Precision: 0.9280416319571353
Weighted AreaUnderROC: 0.9792929947944307
Root mean squared error: 0.21819139264117998
Relative absolute error: 11.843523798392772
Root relative squared error: 46.285383999933956
Weighted TruePositiveRate: 0.9241379310344827
Weighted MatthewsCorrelation: 0.8831345822126745
Weighted FMeasure: 0.9249666059259882
Iteration time: 6910.0
Weighted AreaUnderPRC: 0.95787968804557
Mean absolute error: 0.052637883548413505
Coverage of cases: 93.66771159874608
Instances selection time: 86.0
Test time: 323.0
Accumulative iteration time: 182991.0
Weighted Recall: 0.9241379310344827
Weighted FalsePositiveRate: 0.031200147178165664
Kappa statistic: 0.8785850577742491
Training time: 6824.0
		
Iteration: 45
Labeled set size: 1199
Unlabelled set size: 396
	
Mean region size: 34.64994775339563
Incorrectly Classified Instances: 7.523510971786834
Correctly Classified Instances: 92.47648902821317
Weighted Precision: 0.9285477550551301
Weighted AreaUnderROC: 0.9794425610122552
Root mean squared error: 0.21770126245793728
Relative absolute error: 11.810463187999126
Root relative squared error: 46.18141168706342
Weighted TruePositiveRate: 0.9247648902821317
Weighted MatthewsCorrelation: 0.8840957175254023
Weighted FMeasure: 0.9255754769793297
Iteration time: 7332.0
Weighted AreaUnderPRC: 0.9588139680441412
Mean absolute error: 0.052490947502219526
Coverage of cases: 93.66771159874608
Instances selection time: 78.0
Test time: 322.0
Accumulative iteration time: 190323.0
Weighted Recall: 0.9247648902821317
Weighted FalsePositiveRate: 0.031001342594270388
Kappa statistic: 0.8795549195585444
Training time: 7254.0
		
Iteration: 46
Labeled set size: 1219
Unlabelled set size: 376
	
Mean region size: 34.587251828630734
Incorrectly Classified Instances: 7.523510971786834
Correctly Classified Instances: 92.47648902821317
Weighted Precision: 0.9285477550551301
Weighted AreaUnderROC: 0.9796233623456222
Root mean squared error: 0.21772978408542237
Relative absolute error: 11.804923927078153
Root relative squared error: 46.18746203792497
Weighted TruePositiveRate: 0.9247648902821317
Weighted MatthewsCorrelation: 0.8840957175254023
Weighted FMeasure: 0.9255754769793297
Iteration time: 7575.0
Weighted AreaUnderPRC: 0.9585726605301405
Mean absolute error: 0.05246632856479298
Coverage of cases: 93.66771159874608
Instances selection time: 86.0
Test time: 331.0
Accumulative iteration time: 197898.0
Weighted Recall: 0.9247648902821317
Weighted FalsePositiveRate: 0.031001342594270388
Kappa statistic: 0.8795549195585444
Training time: 7489.0
		
Time end:Fri Dec 01 08.11.29 EET 2017