Fri Dec 01 10.38.11 EET 2017
Dataset: splice
Test set size: 1595
Initial Labelled set size: 319
Initial Unlabelled set size: 1276
Batch mode: QBestBatchMode
Batch size: 20
Classifiers: SMOsync-1cores
Scenario: PoolBasedSamplingScenario
Query strategy: RandomSelectionQueryStrategy-1cores
Time begining: Fri Dec 01 10.38.11 EET 2017
		
Iteration: 1
Labeled set size: 319
Unlabelled set size: 1276
	
Mean region size: 35.130616509926575
Incorrectly Classified Instances: 19.74921630094044
Correctly Classified Instances: 80.25078369905957
Weighted Precision: 0.8488648020399817
Weighted AreaUnderROC: 0.9393973618754676
Root mean squared error: 0.35160179685770226
Relative absolute error: 29.42572852026344
Root relative squared error: 74.58600445063601
Weighted TruePositiveRate: 0.8025078369905956
Weighted MatthewsCorrelation: 0.7188544296264906
Weighted FMeasure: 0.8034660055784952
Iteration time: 829.0
Weighted AreaUnderPRC: 0.8653901942330485
Mean absolute error: 0.13078101564561825
Coverage of cases: 82.69592476489028
Instances selection time: 4.0
Test time: 293.0
Accumulative iteration time: 829.0
Weighted Recall: 0.8025078369905956
Weighted FalsePositiveRate: 0.06595768043953588
Kappa statistic: 0.7005285789047664
Training time: 825.0
		
Iteration: 2
Labeled set size: 339
Unlabelled set size: 1256
	
Mean region size: 35.276907001044655
Incorrectly Classified Instances: 19.561128526645767
Correctly Classified Instances: 80.43887147335423
Weighted Precision: 0.8512953671224295
Weighted AreaUnderROC: 0.9377133516471485
Root mean squared error: 0.3491665110184756
Relative absolute error: 29.139888361266618
Root relative squared error: 74.0694023113226
Weighted TruePositiveRate: 0.8043887147335423
Weighted MatthewsCorrelation: 0.7221955795705219
Weighted FMeasure: 0.8052414859817097
Iteration time: 952.0
Weighted AreaUnderPRC: 0.857172321132284
Mean absolute error: 0.12951061493896568
Coverage of cases: 82.5078369905956
Instances selection time: 4.0
Test time: 302.0
Accumulative iteration time: 1781.0
Weighted Recall: 0.8043887147335423
Weighted FalsePositiveRate: 0.06440862768427173
Kappa statistic: 0.7035372502668903
Training time: 948.0
		
Iteration: 3
Labeled set size: 359
Unlabelled set size: 1236
	
Mean region size: 35.25600835945633
Incorrectly Classified Instances: 19.811912225705328
Correctly Classified Instances: 80.18808777429467
Weighted Precision: 0.8506338594835288
Weighted AreaUnderROC: 0.9316784047603948
Root mean squared error: 0.34964040132124696
Relative absolute error: 29.241619695450407
Root relative squared error: 74.16992962531106
Weighted TruePositiveRate: 0.8018808777429467
Weighted MatthewsCorrelation: 0.7197832115873166
Weighted FMeasure: 0.8029084198220118
Iteration time: 1053.0
Weighted AreaUnderPRC: 0.8499472375178455
Mean absolute error: 0.12996275420200476
Coverage of cases: 82.94670846394985
Instances selection time: 4.0
Test time: 306.0
Accumulative iteration time: 2834.0
Weighted Recall: 0.8018808777429467
Weighted FalsePositiveRate: 0.06472752651806371
Kappa statistic: 0.700053083736619
Training time: 1049.0
		
Iteration: 4
Labeled set size: 379
Unlabelled set size: 1216
	
Mean region size: 35.17241379310317
Incorrectly Classified Instances: 18.996865203761754
Correctly Classified Instances: 81.00313479623824
Weighted Precision: 0.855352010298633
Weighted AreaUnderROC: 0.9358432553614248
Root mean squared error: 0.34313148577498837
Relative absolute error: 28.073004997481934
Root relative squared error: 72.78918012903208
Weighted TruePositiveRate: 0.8100313479623824
Weighted MatthewsCorrelation: 0.7296989789319712
Weighted FMeasure: 0.8113056361718921
Iteration time: 1067.0
Weighted AreaUnderPRC: 0.8575318105984839
Mean absolute error: 0.12476891109992254
Coverage of cases: 83.51097178683385
Instances selection time: 4.0
Test time: 304.0
Accumulative iteration time: 3901.0
Weighted Recall: 0.8100313479623824
Weighted FalsePositiveRate: 0.06261938642921426
Kappa statistic: 0.7114799098294496
Training time: 1063.0
		
Iteration: 5
Labeled set size: 399
Unlabelled set size: 1196
	
Mean region size: 35.36050156739786
Incorrectly Classified Instances: 18.683385579937305
Correctly Classified Instances: 81.31661442006269
Weighted Precision: 0.8580506246951392
Weighted AreaUnderROC: 0.9381212333153858
Root mean squared error: 0.3387848773978806
Relative absolute error: 27.607956773706192
Root relative squared error: 71.86712525144755
Weighted TruePositiveRate: 0.8131661442006269
Weighted MatthewsCorrelation: 0.7341421705079001
Weighted FMeasure: 0.8143053572409767
Iteration time: 1149.0
Weighted AreaUnderPRC: 0.856616234321202
Mean absolute error: 0.12270203010536364
Coverage of cases: 84.07523510971787
Instances selection time: 4.0
Test time: 304.0
Accumulative iteration time: 5050.0
Weighted Recall: 0.8131661442006269
Weighted FalsePositiveRate: 0.06114904400794874
Kappa statistic: 0.7161659018096804
Training time: 1145.0
		
Iteration: 6
Labeled set size: 419
Unlabelled set size: 1176
	
Mean region size: 35.109717868338244
Incorrectly Classified Instances: 18.244514106583072
Correctly Classified Instances: 81.75548589341693
Weighted Precision: 0.8596247067760422
Weighted AreaUnderROC: 0.9331221385169214
Root mean squared error: 0.33479113227440516
Relative absolute error: 26.802649272156525
Root relative squared error: 71.01992397370549
Weighted TruePositiveRate: 0.8175548589341692
Weighted MatthewsCorrelation: 0.7393636611626276
Weighted FMeasure: 0.8187473408956539
Iteration time: 1329.0
Weighted AreaUnderPRC: 0.859841822076018
Mean absolute error: 0.1191228856540317
Coverage of cases: 84.38871473354232
Instances selection time: 3.0
Test time: 307.0
Accumulative iteration time: 6379.0
Weighted Recall: 0.8175548589341692
Weighted FalsePositiveRate: 0.05975741192068181
Kappa statistic: 0.7222453279682787
Training time: 1326.0
		
Iteration: 7
Labeled set size: 439
Unlabelled set size: 1156
	
Mean region size: 35.026123301985066
Incorrectly Classified Instances: 18.181818181818183
Correctly Classified Instances: 81.81818181818181
Weighted Precision: 0.8604466734140644
Weighted AreaUnderROC: 0.9382736601399398
Root mean squared error: 0.33536897025892803
Relative absolute error: 26.81326473755164
Root relative squared error: 71.14250192089048
Weighted TruePositiveRate: 0.8181818181818182
Weighted MatthewsCorrelation: 0.7401138656576547
Weighted FMeasure: 0.8196716310226719
Iteration time: 1359.0
Weighted AreaUnderPRC: 0.8610000668979061
Mean absolute error: 0.11917006550023222
Coverage of cases: 84.07523510971787
Instances selection time: 4.0
Test time: 304.0
Accumulative iteration time: 7738.0
Weighted Recall: 0.8181818181818182
Weighted FalsePositiveRate: 0.060034926838575677
Kappa statistic: 0.723052973490802
Training time: 1355.0
		
Iteration: 8
Labeled set size: 459
Unlabelled set size: 1136
	
Mean region size: 35.13061650992654
Incorrectly Classified Instances: 18.181818181818183
Correctly Classified Instances: 81.81818181818181
Weighted Precision: 0.8602659001227017
Weighted AreaUnderROC: 0.9369127087086804
Root mean squared error: 0.3374084068795363
Relative absolute error: 27.249402327340892
Root relative squared error: 71.57513176016016
Weighted TruePositiveRate: 0.8181818181818182
Weighted MatthewsCorrelation: 0.7394361172136333
Weighted FMeasure: 0.8192457564309634
Iteration time: 1406.0
Weighted AreaUnderPRC: 0.8571608501490349
Mean absolute error: 0.1211084547881845
Coverage of cases: 83.69905956112852
Instances selection time: 3.0
Test time: 309.0
Accumulative iteration time: 9144.0
Weighted Recall: 0.8181818181818182
Weighted FalsePositiveRate: 0.06051124634036483
Kappa statistic: 0.7231998113773226
Training time: 1403.0
		
Iteration: 9
Labeled set size: 479
Unlabelled set size: 1116
	
Mean region size: 35.23510971786807
Incorrectly Classified Instances: 18.808777429467085
Correctly Classified Instances: 81.19122257053291
Weighted Precision: 0.8567543558451803
Weighted AreaUnderROC: 0.9344784190057916
Root mean squared error: 0.3406378118578295
Relative absolute error: 27.72914378906583
Root relative squared error: 72.26019200796476
Weighted TruePositiveRate: 0.8119122257053292
Weighted MatthewsCorrelation: 0.7317877833179871
Weighted FMeasure: 0.8131521156060589
Iteration time: 1505.0
Weighted AreaUnderPRC: 0.8504552825097981
Mean absolute error: 0.12324063906251759
Coverage of cases: 83.69905956112852
Instances selection time: 3.0
Test time: 308.0
Accumulative iteration time: 10649.0
Weighted Recall: 0.8119122257053292
Weighted FalsePositiveRate: 0.06249929217931759
Kappa statistic: 0.714185365573941
Training time: 1502.0
		
Iteration: 10
Labeled set size: 499
Unlabelled set size: 1096
	
Mean region size: 35.29780564263298
Incorrectly Classified Instances: 18.746081504702193
Correctly Classified Instances: 81.25391849529781
Weighted Precision: 0.855516375932244
Weighted AreaUnderROC: 0.9352862399200943
Root mean squared error: 0.33915125231880655
Relative absolute error: 27.586820555024932
Root relative squared error: 71.94484510876057
Weighted TruePositiveRate: 0.812539184952978
Weighted MatthewsCorrelation: 0.7311135390934382
Weighted FMeasure: 0.8133008984950172
Iteration time: 1705.0
Weighted AreaUnderPRC: 0.8527203698361248
Mean absolute error: 0.12260809135566914
Coverage of cases: 83.76175548589342
Instances selection time: 2.0
Test time: 304.0
Accumulative iteration time: 12354.0
Weighted Recall: 0.812539184952978
Weighted FalsePositiveRate: 0.06325312659900062
Kappa statistic: 0.7149872465749822
Training time: 1703.0
		
Iteration: 11
Labeled set size: 519
Unlabelled set size: 1076
	
Mean region size: 35.17241379310317
Incorrectly Classified Instances: 18.495297805642632
Correctly Classified Instances: 81.50470219435736
Weighted Precision: 0.8570300334059237
Weighted AreaUnderROC: 0.9351274710222258
Root mean squared error: 0.3377428771467077
Relative absolute error: 27.259000809210356
Root relative squared error: 71.6460836183668
Weighted TruePositiveRate: 0.8150470219435737
Weighted MatthewsCorrelation: 0.7345516592154167
Weighted FMeasure: 0.8162533710410331
Iteration time: 1761.0
Weighted AreaUnderPRC: 0.8515230979634965
Mean absolute error: 0.12115111470760433
Coverage of cases: 84.01253918495298
Instances selection time: 3.0
Test time: 306.0
Accumulative iteration time: 14115.0
Weighted Recall: 0.8150470219435737
Weighted FalsePositiveRate: 0.06245790826341952
Kappa statistic: 0.7183527293492589
Training time: 1758.0
		
Iteration: 12
Labeled set size: 539
Unlabelled set size: 1056
	
Mean region size: 35.047021943573355
Incorrectly Classified Instances: 17.80564263322884
Correctly Classified Instances: 82.19435736677116
Weighted Precision: 0.862487976862791
Weighted AreaUnderROC: 0.935315929290089
Root mean squared error: 0.33382573336656846
Relative absolute error: 26.524131200524852
Root relative squared error: 70.81513193942106
Weighted TruePositiveRate: 0.8219435736677116
Weighted MatthewsCorrelation: 0.7442950889678027
Weighted FMeasure: 0.8231248634574789
Iteration time: 1908.0
Weighted AreaUnderPRC: 0.8512014559202434
Mean absolute error: 0.11788502755789092
Coverage of cases: 84.38871473354232
Instances selection time: 3.0
Test time: 308.0
Accumulative iteration time: 16023.0
Weighted Recall: 0.8219435736677116
Weighted FalsePositiveRate: 0.05931841883699319
Kappa statistic: 0.7284948540610393
Training time: 1905.0
		
Iteration: 13
Labeled set size: 559
Unlabelled set size: 1036
	
Mean region size: 35.02612330198504
Incorrectly Classified Instances: 17.304075235109718
Correctly Classified Instances: 82.69592476489028
Weighted Precision: 0.8662340096695693
Weighted AreaUnderROC: 0.9391150904025879
Root mean squared error: 0.32784831352372207
Relative absolute error: 25.710561160636004
Root relative squared error: 69.54712970795836
Weighted TruePositiveRate: 0.8269592476489028
Weighted MatthewsCorrelation: 0.7518325891933738
Weighted FMeasure: 0.8285979396398534
Iteration time: 1968.0
Weighted AreaUnderPRC: 0.8593418417371195
Mean absolute error: 0.1142691607139404
Coverage of cases: 85.01567398119123
Instances selection time: 3.0
Test time: 308.0
Accumulative iteration time: 17991.0
Weighted Recall: 0.8269592476489028
Weighted FalsePositiveRate: 0.05677534316225267
Kappa statistic: 0.7356515514903603
Training time: 1965.0
		
Iteration: 14
Labeled set size: 579
Unlabelled set size: 1016
	
Mean region size: 34.64994775339562
Incorrectly Classified Instances: 16.865203761755485
Correctly Classified Instances: 83.13479623824452
Weighted Precision: 0.8668346271584565
Weighted AreaUnderROC: 0.9416626924220637
Root mean squared error: 0.32530466697043164
Relative absolute error: 25.071437300167453
Root relative squared error: 69.00754078992634
Weighted TruePositiveRate: 0.8313479623824451
Weighted MatthewsCorrelation: 0.7556691056118624
Weighted FMeasure: 0.8327218567350222
Iteration time: 2326.0
Weighted AreaUnderPRC: 0.8607645643289539
Mean absolute error: 0.11142861022296899
Coverage of cases: 84.89028213166144
Instances selection time: 3.0
Test time: 308.0
Accumulative iteration time: 20317.0
Weighted Recall: 0.8313479623824451
Weighted FalsePositiveRate: 0.05681266958035321
Kappa statistic: 0.7416688342027562
Training time: 2323.0
		
Iteration: 15
Labeled set size: 599
Unlabelled set size: 996
	
Mean region size: 34.69174503657223
Incorrectly Classified Instances: 18.307210031347964
Correctly Classified Instances: 81.69278996865204
Weighted Precision: 0.8584300565635802
Weighted AreaUnderROC: 0.938566779807421
Root mean squared error: 0.33708135387156796
Relative absolute error: 26.903691763589787
Root relative squared error: 71.50575334023759
Weighted TruePositiveRate: 0.8169278996865204
Weighted MatthewsCorrelation: 0.7373970033557575
Weighted FMeasure: 0.8182413193142468
Iteration time: 2380.0
Weighted AreaUnderPRC: 0.8545627072673513
Mean absolute error: 0.1195719633937351
Coverage of cases: 84.07523510971787
Instances selection time: 3.0
Test time: 317.0
Accumulative iteration time: 22697.0
Weighted Recall: 0.8169278996865204
Weighted FalsePositiveRate: 0.061385175009944545
Kappa statistic: 0.7210690098770342
Training time: 2377.0
		
Iteration: 16
Labeled set size: 619
Unlabelled set size: 976
	
Mean region size: 34.67084639498393
Incorrectly Classified Instances: 17.053291536050157
Correctly Classified Instances: 82.94670846394985
Weighted Precision: 0.8652995672038576
Weighted AreaUnderROC: 0.9420880768104892
Root mean squared error: 0.32604490361863736
Relative absolute error: 25.177224703677325
Root relative squared error: 69.16456869601507
Weighted TruePositiveRate: 0.8294670846394985
Weighted MatthewsCorrelation: 0.7534557033169452
Weighted FMeasure: 0.8311666182470743
Iteration time: 2455.0
Weighted AreaUnderPRC: 0.8637518992667514
Mean absolute error: 0.11189877646079065
Coverage of cases: 85.01567398119123
Instances selection time: 2.0
Test time: 310.0
Accumulative iteration time: 25152.0
Weighted Recall: 0.8294670846394985
Weighted FalsePositiveRate: 0.05740908333203904
Kappa statistic: 0.7387181264600896
Training time: 2453.0
		
Iteration: 17
Labeled set size: 639
Unlabelled set size: 956
	
Mean region size: 34.503657262277535
Incorrectly Classified Instances: 16.739811912225704
Correctly Classified Instances: 83.2601880877743
Weighted Precision: 0.8669467278871884
Weighted AreaUnderROC: 0.9452033466355085
Root mean squared error: 0.3226150288400312
Relative absolute error: 24.568548755156144
Root relative squared error: 68.43698238164313
Weighted TruePositiveRate: 0.8326018808777429
Weighted MatthewsCorrelation: 0.7573170915587382
Weighted FMeasure: 0.8341912980441174
Iteration time: 2601.0
Weighted AreaUnderPRC: 0.8675529141244108
Mean absolute error: 0.10919355002291868
Coverage of cases: 85.26645768025078
Instances selection time: 3.0
Test time: 318.0
Accumulative iteration time: 27753.0
Weighted Recall: 0.8326018808777429
Weighted FalsePositiveRate: 0.05641506041256266
Kappa statistic: 0.7432470968982736
Training time: 2598.0
		
Iteration: 18
Labeled set size: 659
Unlabelled set size: 936
	
Mean region size: 34.44096133751263
Incorrectly Classified Instances: 13.66771159874608
Correctly Classified Instances: 86.33228840125392
Weighted Precision: 0.8853387823811386
Weighted AreaUnderROC: 0.9513990379139496
Root mean squared error: 0.2927797784076821
Relative absolute error: 20.36525558045416
Root relative squared error: 62.107970011909316
Weighted TruePositiveRate: 0.8633228840125392
Weighted MatthewsCorrelation: 0.796428867983618
Weighted FMeasure: 0.8645354946911098
Iteration time: 2564.0
Weighted AreaUnderPRC: 0.8794950101140243
Mean absolute error: 0.09051224702424276
Coverage of cases: 87.7115987460815
Instances selection time: 2.0
Test time: 308.0
Accumulative iteration time: 30317.0
Weighted Recall: 0.8633228840125392
Weighted FalsePositiveRate: 0.04762627480527246
Kappa statistic: 0.7878737039895313
Training time: 2562.0
		
Iteration: 19
Labeled set size: 679
Unlabelled set size: 916
	
Mean region size: 34.54545454545414
Incorrectly Classified Instances: 13.855799373040753
Correctly Classified Instances: 86.14420062695925
Weighted Precision: 0.8836643749134069
Weighted AreaUnderROC: 0.9488696316048163
Root mean squared error: 0.29412010055584326
Relative absolute error: 20.593189689379134
Root relative squared error: 62.3922952758911
Weighted TruePositiveRate: 0.8614420062695924
Weighted MatthewsCorrelation: 0.794298268732178
Weighted FMeasure: 0.8629926966052237
Iteration time: 2913.0
Weighted AreaUnderPRC: 0.884127791206926
Mean absolute error: 0.09152528750835379
Coverage of cases: 87.7115987460815
Instances selection time: 2.0
Test time: 309.0
Accumulative iteration time: 33230.0
Weighted Recall: 0.8614420062695924
Weighted FalsePositiveRate: 0.04822268855695829
Kappa statistic: 0.7848382357339623
Training time: 2911.0
		
Iteration: 20
Labeled set size: 699
Unlabelled set size: 896
	
Mean region size: 34.58725182863075
Incorrectly Classified Instances: 14.670846394984325
Correctly Classified Instances: 85.32915360501568
Weighted Precision: 0.877537557128583
Weighted AreaUnderROC: 0.9439237746963356
Root mean squared error: 0.3033490796766744
Relative absolute error: 21.89330033302228
Root relative squared error: 64.35005739182171
Weighted TruePositiveRate: 0.8532915360501567
Weighted MatthewsCorrelation: 0.7837214601481607
Weighted FMeasure: 0.8552189146932871
Iteration time: 2828.0
Weighted AreaUnderPRC: 0.8708229306500787
Mean absolute error: 0.0973035570356568
Coverage of cases: 87.02194357366771
Instances selection time: 2.0
Test time: 308.0
Accumulative iteration time: 36058.0
Weighted Recall: 0.8532915360501567
Weighted FalsePositiveRate: 0.050807148147596876
Kappa statistic: 0.7725506829329828
Training time: 2826.0
		
Iteration: 21
Labeled set size: 719
Unlabelled set size: 876
	
Mean region size: 34.60815047021905
Incorrectly Classified Instances: 13.981191222570533
Correctly Classified Instances: 86.01880877742947
Weighted Precision: 0.8825120148978671
Weighted AreaUnderROC: 0.9477156948032534
Root mean squared error: 0.2954565059391463
Relative absolute error: 20.840010424910435
Root relative squared error: 62.67578966857543
Weighted TruePositiveRate: 0.8601880877742947
Weighted MatthewsCorrelation: 0.7936270392879394
Weighted FMeasure: 0.8622486390963104
Iteration time: 3097.0
Weighted AreaUnderPRC: 0.8794447264481138
Mean absolute error: 0.09262226855515959
Coverage of cases: 87.7115987460815
Instances selection time: 2.0
Test time: 315.0
Accumulative iteration time: 39155.0
Weighted Recall: 0.8601880877742947
Weighted FalsePositiveRate: 0.04814397822295968
Kappa statistic: 0.7826559861949872
Training time: 3095.0
		
Iteration: 22
Labeled set size: 739
Unlabelled set size: 856
	
Mean region size: 34.39916405433605
Incorrectly Classified Instances: 10.909090909090908
Correctly Classified Instances: 89.0909090909091
Weighted Precision: 0.9026408381612568
Weighted AreaUnderROC: 0.9637547260849907
Root mean squared error: 0.26104699771924
Relative absolute error: 16.430716537128426
Root relative squared error: 55.37643068869852
Weighted TruePositiveRate: 0.8909090909090909
Weighted MatthewsCorrelation: 0.8350382253561355
Weighted FMeasure: 0.8926712198081261
Iteration time: 3106.0
Weighted AreaUnderPRC: 0.9163372646488006
Mean absolute error: 0.07302540683168354
Coverage of cases: 90.34482758620689
Instances selection time: 2.0
Test time: 311.0
Accumulative iteration time: 42261.0
Weighted Recall: 0.8909090909090909
Weighted FalsePositiveRate: 0.04126047062282611
Kappa statistic: 0.8277081200611119
Training time: 3104.0
		
Iteration: 23
Labeled set size: 759
Unlabelled set size: 836
	
Mean region size: 35.297805642632916
Incorrectly Classified Instances: 10.470219435736677
Correctly Classified Instances: 89.52978056426332
Weighted Precision: 0.9020752323379437
Weighted AreaUnderROC: 0.9677601882765265
Root mean squared error: 0.25366954697469546
Relative absolute error: 16.091671014141806
Root relative squared error: 53.81143705389738
Weighted TruePositiveRate: 0.8952978056426333
Weighted MatthewsCorrelation: 0.8357139144133009
Weighted FMeasure: 0.8961913469988256
Iteration time: 3275.0
Weighted AreaUnderPRC: 0.9325177209686889
Mean absolute error: 0.07151853784063188
Coverage of cases: 91.47335423197492
Instances selection time: 2.0
Test time: 304.0
Accumulative iteration time: 45536.0
Weighted Recall: 0.8952978056426333
Weighted FalsePositiveRate: 0.05177682608028806
Kappa statistic: 0.8323805963856409
Training time: 3273.0
		
Iteration: 24
Labeled set size: 779
Unlabelled set size: 816
	
Mean region size: 34.77533960292543
Incorrectly Classified Instances: 8.84012539184953
Correctly Classified Instances: 91.15987460815047
Weighted Precision: 0.9129089151334537
Weighted AreaUnderROC: 0.9713077912667277
Root mean squared error: 0.23308071068116307
Relative absolute error: 13.51965463365104
Root relative squared error: 49.44388532592849
Weighted TruePositiveRate: 0.9115987460815047
Weighted MatthewsCorrelation: 0.8586560660221509
Weighted FMeasure: 0.9114976122546329
Iteration time: 3625.0
Weighted AreaUnderPRC: 0.9545993114329129
Mean absolute error: 0.060087353927339326
Coverage of cases: 93.04075235109718
Instances selection time: 2.0
Test time: 310.0
Accumulative iteration time: 49161.0
Weighted Recall: 0.9115987460815047
Weighted FalsePositiveRate: 0.05137110191690244
Kappa statistic: 0.8567195501569176
Training time: 3623.0
		
Iteration: 25
Labeled set size: 799
Unlabelled set size: 796
	
Mean region size: 34.75444096133713
Incorrectly Classified Instances: 8.526645768025078
Correctly Classified Instances: 91.47335423197492
Weighted Precision: 0.9157223261778553
Weighted AreaUnderROC: 0.9780384079141741
Root mean squared error: 0.23088317645024076
Relative absolute error: 13.30897361314905
Root relative squared error: 48.97771791895608
Weighted TruePositiveRate: 0.9147335423197492
Weighted MatthewsCorrelation: 0.863439445277884
Weighted FMeasure: 0.9145295051672396
Iteration time: 3674.0
Weighted AreaUnderPRC: 0.9610096725347862
Mean absolute error: 0.05915099383621934
Coverage of cases: 92.85266457680251
Instances selection time: 2.0
Test time: 316.0
Accumulative iteration time: 52835.0
Weighted Recall: 0.9147335423197492
Weighted FalsePositiveRate: 0.050853398499215226
Kappa statistic: 0.8615659916423944
Training time: 3672.0
		
Iteration: 26
Labeled set size: 819
Unlabelled set size: 776
	
Mean region size: 34.69174503657222
Incorrectly Classified Instances: 8.714733542319749
Correctly Classified Instances: 91.28526645768025
Weighted Precision: 0.9137774094616467
Weighted AreaUnderROC: 0.9744013003245674
Root mean squared error: 0.23428325523477508
Relative absolute error: 13.671288310490752
Root relative squared error: 49.698983548489885
Weighted TruePositiveRate: 0.9128526645768025
Weighted MatthewsCorrelation: 0.861145975807316
Weighted FMeasure: 0.9125515735409412
Iteration time: 3658.0
Weighted AreaUnderPRC: 0.9520706369949999
Mean absolute error: 0.06076128137996028
Coverage of cases: 92.60188087774294
Instances selection time: 2.0
Test time: 310.0
Accumulative iteration time: 56493.0
Weighted Recall: 0.9128526645768025
Weighted FalsePositiveRate: 0.05144981225090105
Kappa statistic: 0.8584722884521225
Training time: 3656.0
		
Iteration: 27
Labeled set size: 839
Unlabelled set size: 756
	
Mean region size: 34.85893416927861
Incorrectly Classified Instances: 9.0282131661442
Correctly Classified Instances: 90.9717868338558
Weighted Precision: 0.91101136424279
Weighted AreaUnderROC: 0.9736930495568316
Root mean squared error: 0.23869624938783246
Relative absolute error: 14.154519899057224
Root relative squared error: 50.63512097577892
Weighted TruePositiveRate: 0.909717868338558
Weighted MatthewsCorrelation: 0.8561763084294784
Weighted FMeasure: 0.9092928802184045
Iteration time: 3999.0
Weighted AreaUnderPRC: 0.9536160036843057
Mean absolute error: 0.06290897732914465
Coverage of cases: 92.41379310344827
Instances selection time: 2.0
Test time: 314.0
Accumulative iteration time: 60492.0
Weighted Recall: 0.909717868338558
Weighted FalsePositiveRate: 0.05387279367574489
Kappa statistic: 0.8532983909960673
Training time: 3997.0
		
Iteration: 28
Labeled set size: 859
Unlabelled set size: 736
	
Mean region size: 34.92163009404349
Incorrectly Classified Instances: 9.0282131661442
Correctly Classified Instances: 90.9717868338558
Weighted Precision: 0.9111886223232677
Weighted AreaUnderROC: 0.972494512299955
Root mean squared error: 0.23653843187862839
Relative absolute error: 13.99589687899428
Root relative squared error: 50.17737875778254
Weighted TruePositiveRate: 0.909717868338558
Weighted MatthewsCorrelation: 0.8559937633455553
Weighted FMeasure: 0.9093485429482239
Iteration time: 4142.0
Weighted AreaUnderPRC: 0.9511686927020824
Mean absolute error: 0.06220398612886488
Coverage of cases: 92.53918495297806
Instances selection time: 2.0
Test time: 329.0
Accumulative iteration time: 64634.0
Weighted Recall: 0.909717868338558
Weighted FalsePositiveRate: 0.05434911317753405
Kappa statistic: 0.8532568694798823
Training time: 4140.0
		
Iteration: 29
Labeled set size: 879
Unlabelled set size: 716
	
Mean region size: 34.9425287356318
Incorrectly Classified Instances: 8.652037617554859
Correctly Classified Instances: 91.34796238244515
Weighted Precision: 0.9144757611709196
Weighted AreaUnderROC: 0.9749294842071587
Root mean squared error: 0.2302889455370878
Relative absolute error: 13.439809510350278
Root relative squared error: 48.85166250647174
Weighted TruePositiveRate: 0.9134796238244514
Weighted MatthewsCorrelation: 0.8605302067280637
Weighted FMeasure: 0.9129062764679037
Iteration time: 4542.0
Weighted AreaUnderPRC: 0.9539766158605302
Mean absolute error: 0.05973248671266925
Coverage of cases: 92.91536050156739
Instances selection time: 2.0
Test time: 331.0
Accumulative iteration time: 69176.0
Weighted Recall: 0.9134796238244514
Weighted FalsePositiveRate: 0.055537883183108164
Kappa statistic: 0.8589720096824995
Training time: 4540.0
		
Iteration: 30
Labeled set size: 899
Unlabelled set size: 696
	
Mean region size: 35.08881922674987
Incorrectly Classified Instances: 9.153605015673982
Correctly Classified Instances: 90.84639498432603
Weighted Precision: 0.9097083168227831
Weighted AreaUnderROC: 0.975476882724818
Root mean squared error: 0.23857936240390473
Relative absolute error: 14.384699951743313
Root relative squared error: 50.61032550208859
Weighted TruePositiveRate: 0.9084639498432602
Weighted MatthewsCorrelation: 0.8507296484677299
Weighted FMeasure: 0.9074000655503226
Iteration time: 4837.0
Weighted AreaUnderPRC: 0.9603196257465921
Mean absolute error: 0.06393199978552729
Coverage of cases: 92.72727272727273
Instances selection time: 2.0
Test time: 310.0
Accumulative iteration time: 74013.0
Weighted Recall: 0.9084639498432602
Weighted FalsePositiveRate: 0.07379950241689079
Kappa statistic: 0.8482990892864122
Training time: 4835.0
		
Iteration: 31
Labeled set size: 919
Unlabelled set size: 676
	
Mean region size: 35.13061650992651
Incorrectly Classified Instances: 8.087774294670846
Correctly Classified Instances: 91.91222570532915
Weighted Precision: 0.9194068553401237
Weighted AreaUnderROC: 0.9794902479028014
Root mean squared error: 0.2249838977021404
Relative absolute error: 12.960501406825069
Root relative squared error: 47.726291916888655
Weighted TruePositiveRate: 0.9191222570532915
Weighted MatthewsCorrelation: 0.8690820611098325
Weighted FMeasure: 0.9186429340206844
Iteration time: 4330.0
Weighted AreaUnderPRC: 0.9647570110301126
Mean absolute error: 0.057602228474779395
Coverage of cases: 93.47962382445141
Instances selection time: 2.0
Test time: 310.0
Accumulative iteration time: 78343.0
Weighted Recall: 0.9191222570532915
Weighted FalsePositiveRate: 0.058035517444153084
Kappa statistic: 0.867227341920488
Training time: 4328.0
		
Iteration: 32
Labeled set size: 939
Unlabelled set size: 656
	
Mean region size: 35.047021943573306
Incorrectly Classified Instances: 8.213166144200628
Correctly Classified Instances: 91.78683385579937
Weighted Precision: 0.918196754845006
Weighted AreaUnderROC: 0.9763717871547344
Root mean squared error: 0.22436710798009657
Relative absolute error: 12.827389838738418
Root relative squared error: 47.59545105838165
Weighted TruePositiveRate: 0.9178683385579938
Weighted MatthewsCorrelation: 0.8669574482563056
Weighted FMeasure: 0.9173865695858435
Iteration time: 4487.0
Weighted AreaUnderPRC: 0.9619960568724326
Mean absolute error: 0.057010621505505364
Coverage of cases: 93.5423197492163
Instances selection time: 2.0
Test time: 311.0
Accumulative iteration time: 82830.0
Weighted Recall: 0.9178683385579938
Weighted FalsePositiveRate: 0.05890944611373279
Kappa statistic: 0.8651688510975499
Training time: 4485.0
		
Iteration: 33
Labeled set size: 959
Unlabelled set size: 636
	
Mean region size: 35.00522466039669
Incorrectly Classified Instances: 8.401253918495298
Correctly Classified Instances: 91.5987460815047
Weighted Precision: 0.9171323078011554
Weighted AreaUnderROC: 0.9782348419728982
Root mean squared error: 0.22545434849208046
Relative absolute error: 12.946354095901844
Root relative squared error: 47.82608960002301
Weighted TruePositiveRate: 0.915987460815047
Weighted MatthewsCorrelation: 0.8653583463169996
Weighted FMeasure: 0.9158829368077818
Iteration time: 4862.0
Weighted AreaUnderPRC: 0.9641021862508914
Mean absolute error: 0.05753935153734283
Coverage of cases: 93.60501567398119
Instances selection time: 1.0
Test time: 313.0
Accumulative iteration time: 87692.0
Weighted Recall: 0.915987460815047
Weighted FalsePositiveRate: 0.0533137063421596
Kappa statistic: 0.8630597775177894
Training time: 4861.0
		
Iteration: 34
Labeled set size: 979
Unlabelled set size: 616
	
Mean region size: 34.817136886102006
Incorrectly Classified Instances: 8.401253918495298
Correctly Classified Instances: 91.5987460815047
Weighted Precision: 0.9170257897797598
Weighted AreaUnderROC: 0.977249960051949
Root mean squared error: 0.22767104572148122
Relative absolute error: 12.984298891932903
Root relative squared error: 48.296322092847014
Weighted TruePositiveRate: 0.915987460815047
Weighted MatthewsCorrelation: 0.8655027170064212
Weighted FMeasure: 0.9158200959921926
Iteration time: 4959.0
Weighted AreaUnderPRC: 0.9608917223113133
Mean absolute error: 0.05770799507525866
Coverage of cases: 93.41692789968653
Instances selection time: 1.0
Test time: 323.0
Accumulative iteration time: 92651.0
Weighted Recall: 0.915987460815047
Weighted FalsePositiveRate: 0.05379002584394875
Kappa statistic: 0.8629430719656284
Training time: 4958.0
		
Iteration: 35
Labeled set size: 999
Unlabelled set size: 596
	
Mean region size: 34.96342737722011
Incorrectly Classified Instances: 8.401253918495298
Correctly Classified Instances: 91.5987460815047
Weighted Precision: 0.9171323476483969
Weighted AreaUnderROC: 0.9770226832125751
Root mean squared error: 0.2275959163820191
Relative absolute error: 13.096921621862837
Root relative squared error: 48.280384753227096
Weighted TruePositiveRate: 0.915987460815047
Weighted MatthewsCorrelation: 0.8656868454713089
Weighted FMeasure: 0.9156558760033942
Iteration time: 5230.0
Weighted AreaUnderPRC: 0.9628654205928592
Mean absolute error: 0.05820854054161392
Coverage of cases: 93.41692789968653
Instances selection time: 2.0
Test time: 315.0
Accumulative iteration time: 97881.0
Weighted Recall: 0.915987460815047
Weighted FalsePositiveRate: 0.05521898434931623
Kappa statistic: 0.8626699838851036
Training time: 5228.0
		
Iteration: 36
Labeled set size: 1019
Unlabelled set size: 576
	
Mean region size: 34.96342737722008
Incorrectly Classified Instances: 8.213166144200628
Correctly Classified Instances: 91.78683385579937
Weighted Precision: 0.9186337873798204
Weighted AreaUnderROC: 0.976481495989933
Root mean squared error: 0.22351947333609926
Relative absolute error: 12.673960152398053
Root relative squared error: 47.4156405969599
Weighted TruePositiveRate: 0.9178683385579938
Weighted MatthewsCorrelation: 0.8678021507405989
Weighted FMeasure: 0.917596621270755
Iteration time: 5142.0
Weighted AreaUnderPRC: 0.9605783291088745
Mean absolute error: 0.05632871178843707
Coverage of cases: 93.35423197492163
Instances selection time: 1.0
Test time: 313.0
Accumulative iteration time: 103023.0
Weighted Recall: 0.9178683385579938
Weighted FalsePositiveRate: 0.054146251095841244
Kappa statistic: 0.8658590841477531
Training time: 5141.0
		
Iteration: 37
Labeled set size: 1039
Unlabelled set size: 556
	
Mean region size: 34.629049111807305
Incorrectly Classified Instances: 7.774294670846395
Correctly Classified Instances: 92.2257053291536
Weighted Precision: 0.9229538118465805
Weighted AreaUnderROC: 0.980275043747363
Root mean squared error: 0.22090520580594364
Relative absolute error: 12.16290361699447
Root relative squared error: 46.861070707437264
Weighted TruePositiveRate: 0.9222570532915361
Weighted MatthewsCorrelation: 0.8761452812510402
Weighted FMeasure: 0.9224966657862076
Iteration time: 5593.0
Weighted AreaUnderPRC: 0.9690530364141187
Mean absolute error: 0.05405734940886553
Coverage of cases: 93.47962382445141
Instances selection time: 2.0
Test time: 316.0
Accumulative iteration time: 108616.0
Weighted Recall: 0.9222570532915361
Weighted FalsePositiveRate: 0.042751909471002054
Kappa statistic: 0.8742429492946913
Training time: 5591.0
		
Iteration: 38
Labeled set size: 1059
Unlabelled set size: 536
	
Mean region size: 34.712643678160475
Incorrectly Classified Instances: 7.899686520376176
Correctly Classified Instances: 92.10031347962382
Weighted Precision: 0.9218879592170439
Weighted AreaUnderROC: 0.9826762751908662
Root mean squared error: 0.220860671096724
Relative absolute error: 12.164705760771684
Root relative squared error: 46.85162346897105
Weighted TruePositiveRate: 0.9210031347962383
Weighted MatthewsCorrelation: 0.8748908479595542
Weighted FMeasure: 0.9213003093820008
Iteration time: 5431.0
Weighted AreaUnderPRC: 0.9701440998867344
Mean absolute error: 0.054065358936764264
Coverage of cases: 93.60501567398119
Instances selection time: 1.0
Test time: 323.0
Accumulative iteration time: 114047.0
Weighted Recall: 0.9210031347962383
Weighted FalsePositiveRate: 0.0421968796352143
Kappa statistic: 0.8723225017852106
Training time: 5430.0
		
Iteration: 39
Labeled set size: 1079
Unlabelled set size: 516
	
Mean region size: 34.6290491118073
Incorrectly Classified Instances: 7.962382445141066
Correctly Classified Instances: 92.03761755485894
Weighted Precision: 0.9212913855369541
Weighted AreaUnderROC: 0.982317299212979
Root mean squared error: 0.22069000001116654
Relative absolute error: 12.117982726169481
Root relative squared error: 46.815418664386
Weighted TruePositiveRate: 0.9203761755485893
Weighted MatthewsCorrelation: 0.8734031691957641
Weighted FMeasure: 0.9206730278605608
Iteration time: 5593.0
Weighted AreaUnderPRC: 0.9706237025426704
Mean absolute error: 0.05385770100519892
Coverage of cases: 93.73040752351098
Instances selection time: 1.0
Test time: 323.0
Accumulative iteration time: 119640.0
Weighted Recall: 0.9203761755485893
Weighted FalsePositiveRate: 0.04287200372089873
Kappa statistic: 0.8713453969451637
Training time: 5592.0
		
Iteration: 40
Labeled set size: 1099
Unlabelled set size: 496
	
Mean region size: 34.733542319748786
Incorrectly Classified Instances: 8.213166144200628
Correctly Classified Instances: 91.78683385579937
Weighted Precision: 0.9191204777851335
Weighted AreaUnderROC: 0.9832983932821049
Root mean squared error: 0.22231202459152546
Relative absolute error: 12.372417457792737
Root relative squared error: 47.159502038392915
Weighted TruePositiveRate: 0.9178683385579938
Weighted MatthewsCorrelation: 0.8701604651326289
Weighted FMeasure: 0.9182498733724189
Iteration time: 5949.0
Weighted AreaUnderPRC: 0.9714375871969446
Mean absolute error: 0.05498852203463563
Coverage of cases: 93.73040752351098
Instances selection time: 2.0
Test time: 321.0
Accumulative iteration time: 125589.0
Weighted Recall: 0.9178683385579938
Weighted FalsePositiveRate: 0.04271458305290152
Kappa statistic: 0.867479713985268
Training time: 5947.0
		
Iteration: 41
Labeled set size: 1119
Unlabelled set size: 476
	
Mean region size: 34.587251828630734
Incorrectly Classified Instances: 8.025078369905955
Correctly Classified Instances: 91.97492163009404
Weighted Precision: 0.9212090228513855
Weighted AreaUnderROC: 0.9834262728853931
Root mean squared error: 0.2197586794642449
Relative absolute error: 12.032661684113481
Root relative squared error: 46.61785574213001
Weighted TruePositiveRate: 0.9197492163009404
Weighted MatthewsCorrelation: 0.8732565534063362
Weighted FMeasure: 0.9201804167643153
Iteration time: 6222.0
Weighted AreaUnderPRC: 0.9713606392297961
Mean absolute error: 0.053478496373838905
Coverage of cases: 93.85579937304075
Instances selection time: 2.0
Test time: 327.0
Accumulative iteration time: 131811.0
Weighted Recall: 0.9197492163009404
Weighted FalsePositiveRate: 0.041165530297637386
Kappa statistic: 0.870587250917223
Training time: 6220.0
		
Iteration: 42
Labeled set size: 1139
Unlabelled set size: 456
	
Mean region size: 34.39916405433604
Incorrectly Classified Instances: 6.959247648902822
Correctly Classified Instances: 93.04075235109718
Weighted Precision: 0.9317592729081868
Weighted AreaUnderROC: 0.9840546491226367
Root mean squared error: 0.20964821782607987
Relative absolute error: 10.970236086311118
Root relative squared error: 44.47310294654815
Weighted TruePositiveRate: 0.9304075235109718
Weighted MatthewsCorrelation: 0.8904507278880516
Weighted FMeasure: 0.9308052330017368
Iteration time: 6493.0
Weighted AreaUnderPRC: 0.9722849400305184
Mean absolute error: 0.04875660482805052
Coverage of cases: 94.1065830721003
Instances selection time: 1.0
Test time: 334.0
Accumulative iteration time: 138304.0
Weighted Recall: 0.9304075235109718
Weighted FalsePositiveRate: 0.03492793536068277
Kappa statistic: 0.8877118187203416
Training time: 6492.0
		
Iteration: 43
Labeled set size: 1159
Unlabelled set size: 436
	
Mean region size: 34.48275862068921
Incorrectly Classified Instances: 7.2727272727272725
Correctly Classified Instances: 92.72727272727273
Weighted Precision: 0.9279474870791653
Weighted AreaUnderROC: 0.9827057323282656
Root mean squared error: 0.21346727619469763
Relative absolute error: 11.384515573644686
Root relative squared error: 45.2832475676072
Weighted TruePositiveRate: 0.9272727272727272
Weighted MatthewsCorrelation: 0.8842816093070094
Weighted FMeasure: 0.927384034305068
Iteration time: 6386.0
Weighted AreaUnderPRC: 0.9723296963730492
Mean absolute error: 0.05059784699397753
Coverage of cases: 93.85579937304075
Instances selection time: 1.0
Test time: 321.0
Accumulative iteration time: 144690.0
Weighted Recall: 0.9272727272727272
Weighted FalsePositiveRate: 0.04306675080699647
Kappa statistic: 0.8818237038579432
Training time: 6385.0
		
Iteration: 44
Labeled set size: 1179
Unlabelled set size: 416
	
Mean region size: 34.50365726227753
Incorrectly Classified Instances: 7.2727272727272725
Correctly Classified Instances: 92.72727272727273
Weighted Precision: 0.9292542265565593
Weighted AreaUnderROC: 0.9818597932478706
Root mean squared error: 0.2130434976869431
Relative absolute error: 11.38933775021649
Root relative squared error: 45.1933505706409
Weighted TruePositiveRate: 0.9272727272727272
Weighted MatthewsCorrelation: 0.8848347052669301
Weighted FMeasure: 0.9276952007201168
Iteration time: 6297.0
Weighted AreaUnderPRC: 0.9681732548037079
Mean absolute error: 0.050619278889852216
Coverage of cases: 93.85579937304075
Instances selection time: 1.0
Test time: 318.0
Accumulative iteration time: 150987.0
Weighted Recall: 0.9272727272727272
Weighted FalsePositiveRate: 0.03877987529089408
Kappa statistic: 0.8824887090207795
Training time: 6296.0
		
Iteration: 45
Labeled set size: 1199
Unlabelled set size: 396
	
Mean region size: 34.56635318704242
Incorrectly Classified Instances: 7.2727272727272725
Correctly Classified Instances: 92.72727272727273
Weighted Precision: 0.9284880253642795
Weighted AreaUnderROC: 0.9832957106417187
Root mean squared error: 0.2149192291960244
Relative absolute error: 11.608497926383583
Root relative squared error: 45.59125331156789
Weighted TruePositiveRate: 0.9272727272727272
Weighted MatthewsCorrelation: 0.8847658906199017
Weighted FMeasure: 0.9275525276942399
Iteration time: 6509.0
Weighted AreaUnderPRC: 0.9717854392970383
Mean absolute error: 0.05159332411726154
Coverage of cases: 93.79310344827586
Instances selection time: 1.0
Test time: 320.0
Accumulative iteration time: 157496.0
Weighted Recall: 0.9272727272727272
Weighted FalsePositiveRate: 0.04020883379626155
Kappa statistic: 0.8822236070945922
Training time: 6508.0
		
Iteration: 46
Labeled set size: 1219
Unlabelled set size: 376
	
Mean region size: 34.81713688610203
Incorrectly Classified Instances: 7.648902821316614
Correctly Classified Instances: 92.35109717868339
Weighted Precision: 0.9262521213141759
Weighted AreaUnderROC: 0.9816373235221028
Root mean squared error: 0.2177934774599636
Relative absolute error: 12.0001595613644
Root relative squared error: 46.200973443041406
Weighted TruePositiveRate: 0.9235109717868338
Weighted MatthewsCorrelation: 0.8799798415426877
Weighted FMeasure: 0.9240818222214888
Iteration time: 6516.0
Weighted AreaUnderPRC: 0.9657776131403345
Mean absolute error: 0.0533340424949541
Coverage of cases: 93.73040752351098
Instances selection time: 1.0
Test time: 324.0
Accumulative iteration time: 164012.0
Weighted Recall: 0.9235109717868338
Weighted FalsePositiveRate: 0.038543744288898264
Kappa statistic: 0.8766881005506227
Training time: 6515.0
		
Time end:Fri Dec 01 10.41.12 EET 2017