Thu Nov 30 21.30.40 EET 2017
Dataset: mushroom
Test set size: 4062
Initial Labelled set size: 812
Initial Unlabelled set size: 3250
Batch mode: QBestBatchMode
Batch size: 20
Classifiers: SMOsync-1cores
Scenario: PoolBasedSamplingScenario
Query strategy: KullbackLeiblerDivergenceQueryStrategy-1cores
Time begining: Thu Nov 30 21.30.40 EET 2017
		
Iteration: 1
Labeled set size: 812
Unlabelled set size: 3250
	
Mean region size: 50.0
Incorrectly Classified Instances: 0.17232890201870998
Correctly Classified Instances: 99.8276710979813
Weighted Precision: 0.9982824253441622
Weighted AreaUnderROC: 0.9990738721903537
Root mean squared error: 0.041512516428025656
Relative absolute error: 0.34465780403741997
Root relative squared error: 8.30250328560513
Weighted TruePositiveRate: 0.9982767109798129
Weighted MatthewsCorrelation: 0.9965544712751208
Weighted FMeasure: 0.9982765989627084
Iteration time: 694.0
Weighted AreaUnderPRC: 0.9982821741358502
Mean absolute error: 0.0017232890201870998
Coverage of cases: 99.8276710979813
Instances selection time: 165.0
Test time: 124.0
Accumulative iteration time: 694.0
Weighted Recall: 0.9982767109798129
Weighted FalsePositiveRate: 0.001851787588597374
Kappa statistic: 0.9965485354763794
Training time: 529.0
		
Iteration: 2
Labeled set size: 832
Unlabelled set size: 3230
	
Mean region size: 50.0
Incorrectly Classified Instances: 0.17232890201870998
Correctly Classified Instances: 99.8276710979813
Weighted Precision: 0.9982824253441622
Weighted AreaUnderROC: 0.9990737551826798
Root mean squared error: 0.041512516428025656
Relative absolute error: 0.3446578040374202
Root relative squared error: 8.30250328560513
Weighted TruePositiveRate: 0.9982767109798129
Weighted MatthewsCorrelation: 0.9965544712751208
Weighted FMeasure: 0.9982765989627084
Iteration time: 543.0
Weighted AreaUnderPRC: 0.9982820487238474
Mean absolute error: 0.001723289020187101
Coverage of cases: 99.8276710979813
Instances selection time: 107.0
Test time: 88.0
Accumulative iteration time: 1237.0
Weighted Recall: 0.9982767109798129
Weighted FalsePositiveRate: 0.001851787588597374
Kappa statistic: 0.9965485354763794
Training time: 436.0
		
Iteration: 3
Labeled set size: 852
Unlabelled set size: 3210
	
Mean region size: 50.0
Incorrectly Classified Instances: 0.17232890201870998
Correctly Classified Instances: 99.8276710979813
Weighted Precision: 0.9982824253441622
Weighted AreaUnderROC: 0.9990737551826798
Root mean squared error: 0.041512516428025656
Relative absolute error: 0.3446578040413533
Root relative squared error: 8.30250328560513
Weighted TruePositiveRate: 0.9982767109798129
Weighted MatthewsCorrelation: 0.9965544712751208
Weighted FMeasure: 0.9982765989627084
Iteration time: 493.0
Weighted AreaUnderPRC: 0.9982820487238474
Mean absolute error: 0.0017232890202067666
Coverage of cases: 99.8276710979813
Instances selection time: 116.0
Test time: 91.0
Accumulative iteration time: 1730.0
Weighted Recall: 0.9982767109798129
Weighted FalsePositiveRate: 0.001851787588597374
Kappa statistic: 0.9965485354763794
Training time: 377.0
		
Iteration: 4
Labeled set size: 872
Unlabelled set size: 3190
	
Mean region size: 50.0
Incorrectly Classified Instances: 0.17232890201870998
Correctly Classified Instances: 99.8276710979813
Weighted Precision: 0.9982824253441622
Weighted AreaUnderROC: 0.9990737551826798
Root mean squared error: 0.04151251642802568
Relative absolute error: 0.34465780814565744
Root relative squared error: 8.302503285605136
Weighted TruePositiveRate: 0.9982767109798129
Weighted MatthewsCorrelation: 0.9965544712751208
Weighted FMeasure: 0.9982765989627084
Iteration time: 464.0
Weighted AreaUnderPRC: 0.9982820487238474
Mean absolute error: 0.001723289040728287
Coverage of cases: 99.8276710979813
Instances selection time: 112.0
Test time: 87.0
Accumulative iteration time: 2194.0
Weighted Recall: 0.9982767109798129
Weighted FalsePositiveRate: 0.001851787588597374
Kappa statistic: 0.9965485354763794
Training time: 352.0
		
Iteration: 5
Labeled set size: 892
Unlabelled set size: 3170
	
Mean region size: 50.01230920728705
Incorrectly Classified Instances: 0.17232890201870998
Correctly Classified Instances: 99.8276710979813
Weighted Precision: 0.9982824253441622
Weighted AreaUnderROC: 0.9990735211673321
Root mean squared error: 0.04154467660230948
Relative absolute error: 0.3497905127864659
Root relative squared error: 8.308935320461897
Weighted TruePositiveRate: 0.9982767109798129
Weighted MatthewsCorrelation: 0.9965544712751208
Weighted FMeasure: 0.9982765989627084
Iteration time: 455.0
Weighted AreaUnderPRC: 0.9982817977072312
Mean absolute error: 0.0017489525639323295
Coverage of cases: 99.8276710979813
Instances selection time: 107.0
Test time: 89.0
Accumulative iteration time: 2649.0
Weighted Recall: 0.9982767109798129
Weighted FalsePositiveRate: 0.001851787588597374
Kappa statistic: 0.9965485354763794
Training time: 348.0
		
Iteration: 6
Labeled set size: 912
Unlabelled set size: 3150
	
Mean region size: 50.03692762186115
Incorrectly Classified Instances: 0.22156573116691286
Correctly Classified Instances: 99.77843426883308
Weighted Precision: 0.9977937799414331
Weighted AreaUnderROC: 0.9990730531366369
Root mean squared error: 0.04720551435099121
Relative absolute error: 0.47080864116601584
Root relative squared error: 9.441102870198243
Weighted TruePositiveRate: 0.9977843426883308
Weighted MatthewsCorrelation: 0.9955720487411955
Weighted FMeasure: 0.9977841550896477
Iteration time: 537.0
Weighted AreaUnderPRC: 0.9982812978450923
Mean absolute error: 0.0023540432058300792
Coverage of cases: 99.80305268340719
Instances selection time: 102.0
Test time: 91.0
Accumulative iteration time: 3186.0
Weighted Recall: 0.9977843426883308
Weighted FalsePositiveRate: 0.0023808697567680526
Kappa statistic: 0.9955622454615528
Training time: 435.0
		
Iteration: 7
Labeled set size: 932
Unlabelled set size: 3130
	
Mean region size: 50.01230920728705
Incorrectly Classified Instances: 0.2708025603151157
Correctly Classified Instances: 99.72919743968488
Weighted Precision: 0.9973060586907659
Weighted AreaUnderROC: 0.9990693088910743
Root mean squared error: 0.05205743467127668
Relative absolute error: 0.5459931212733342
Root relative squared error: 10.411486934255336
Weighted TruePositiveRate: 0.9972919743968488
Weighted MatthewsCorrelation: 0.9945905165650267
Weighted FMeasure: 0.9972916905300894
Iteration time: 490.0
Weighted AreaUnderPRC: 0.9982772976900797
Mean absolute error: 0.0027299656063666713
Coverage of cases: 99.72919743968488
Instances selection time: 102.0
Test time: 91.0
Accumulative iteration time: 3676.0
Weighted Recall: 0.9972919743968488
Weighted FalsePositiveRate: 0.0029099519249387307
Kappa statistic: 0.994575885524745
Training time: 388.0
		
Iteration: 8
Labeled set size: 952
Unlabelled set size: 3110
	
Mean region size: 50.0246184145741
Incorrectly Classified Instances: 0.29542097488921715
Correctly Classified Instances: 99.70457902511079
Weighted Precision: 0.997062543803559
Weighted AreaUnderROC: 0.9990724680982677
Root mean squared error: 0.0540292240100546
Relative absolute error: 0.5944399090989541
Root relative squared error: 10.805844802010919
Weighted TruePositiveRate: 0.9970457902511078
Weighted MatthewsCorrelation: 0.994100083535708
Weighted FMeasure: 0.9970454502679525
Iteration time: 607.0
Weighted AreaUnderPRC: 0.9982806691819673
Mean absolute error: 0.00297219954549477
Coverage of cases: 99.72919743968488
Instances selection time: 104.0
Test time: 90.0
Accumulative iteration time: 4283.0
Weighted Recall: 0.9970457902511078
Weighted FalsePositiveRate: 0.0031744930090240697
Kappa statistic: 0.9940826793332744
Training time: 503.0
		
Iteration: 9
Labeled set size: 972
Unlabelled set size: 3090
	
Mean region size: 50.0
Incorrectly Classified Instances: 0.34465780403741997
Correctly Classified Instances: 99.65534219596258
Weighted Precision: 0.9965762038730183
Weighted AreaUnderROC: 0.9990727021136153
Root mean squared error: 0.05868370332748094
Relative absolute error: 0.6910513476464422
Root relative squared error: 11.736740665496189
Weighted TruePositiveRate: 0.9965534219596258
Weighted MatthewsCorrelation: 0.9931198819477166
Weighted FMeasure: 0.9965529533290282
Iteration time: 623.0
Weighted AreaUnderPRC: 0.9982809194326381
Mean absolute error: 0.003455256738232211
Coverage of cases: 99.65534219596258
Instances selection time: 101.0
Test time: 86.0
Accumulative iteration time: 4906.0
Weighted Recall: 0.9965534219596258
Weighted FalsePositiveRate: 0.003703575177194748
Kappa statistic: 0.9930962144995521
Training time: 522.0
		
Iteration: 10
Labeled set size: 992
Unlabelled set size: 3070
	
Mean region size: 50.0
Incorrectly Classified Instances: 0.49236829148202854
Correctly Classified Instances: 99.50763170851798
Weighted Precision: 0.9951226794478428
Weighted AreaUnderROC: 0.9984065520887748
Root mean squared error: 0.07016560044041802
Relative absolute error: 0.9846894174248493
Root relative squared error: 14.033120088083603
Weighted TruePositiveRate: 0.9950763170851797
Weighted MatthewsCorrelation: 0.9901845693215287
Weighted FMeasure: 0.9950753247137933
Iteration time: 524.0
Weighted AreaUnderPRC: 0.9970559076190602
Mean absolute error: 0.004923447087124246
Coverage of cases: 99.50763170851798
Instances selection time: 105.0
Test time: 89.0
Accumulative iteration time: 5430.0
Weighted Recall: 0.9950763170851797
Weighted FalsePositiveRate: 0.005290821681706782
Kappa statistic: 0.9901364003251929
Training time: 419.0
		
Iteration: 11
Labeled set size: 1012
Unlabelled set size: 3050
	
Mean region size: 50.0
Incorrectly Classified Instances: 0.49236829148202854
Correctly Classified Instances: 99.50763170851798
Weighted Precision: 0.9951226794478428
Weighted AreaUnderROC: 0.998142362027711
Root mean squared error: 0.07016895839674836
Relative absolute error: 0.9847365637304851
Root relative squared error: 14.033791679349672
Weighted TruePositiveRate: 0.9950763170851797
Weighted MatthewsCorrelation: 0.9901845693215287
Weighted FMeasure: 0.9950753247137933
Iteration time: 723.0
Weighted AreaUnderPRC: 0.9965699412566964
Mean absolute error: 0.004923682818652426
Coverage of cases: 99.50763170851798
Instances selection time: 169.0
Test time: 181.0
Accumulative iteration time: 6153.0
Weighted Recall: 0.9950763170851797
Weighted FalsePositiveRate: 0.005290821681706782
Kappa statistic: 0.9901364003251929
Training time: 554.0
		
Iteration: 12
Labeled set size: 1032
Unlabelled set size: 3030
	
Mean region size: 50.0
Incorrectly Classified Instances: 0.49236829148202854
Correctly Classified Instances: 99.50763170851798
Weighted Precision: 0.9951226794478428
Weighted AreaUnderROC: 0.9977463694553
Root mean squared error: 0.07016895976685064
Relative absolute error: 0.984736582958219
Root relative squared error: 14.033791953370129
Weighted TruePositiveRate: 0.9950763170851797
Weighted MatthewsCorrelation: 0.9901845693215287
Weighted FMeasure: 0.9950753247137933
Iteration time: 886.0
Weighted AreaUnderPRC: 0.9958430256704256
Mean absolute error: 0.004923682914791095
Coverage of cases: 99.50763170851798
Instances selection time: 118.0
Test time: 84.0
Accumulative iteration time: 7039.0
Weighted Recall: 0.9950763170851797
Weighted FalsePositiveRate: 0.005290821681706782
Kappa statistic: 0.9901364003251929
Training time: 768.0
		
Iteration: 13
Labeled set size: 1052
Unlabelled set size: 3010
	
Mean region size: 50.0
Incorrectly Classified Instances: 0.49236829148202854
Correctly Classified Instances: 99.50763170851798
Weighted Precision: 0.9951226794478428
Weighted AreaUnderROC: 0.9976158540283647
Root mean squared error: 0.07016895976719037
Relative absolute error: 0.9847365829629865
Root relative squared error: 14.033791953438074
Weighted TruePositiveRate: 0.9950763170851797
Weighted MatthewsCorrelation: 0.9901845693215287
Weighted FMeasure: 0.9950753247137933
Iteration time: 505.0
Weighted AreaUnderPRC: 0.9956027639373143
Mean absolute error: 0.0049236829148149325
Coverage of cases: 99.50763170851798
Instances selection time: 99.0
Test time: 84.0
Accumulative iteration time: 7544.0
Weighted Recall: 0.9950763170851797
Weighted FalsePositiveRate: 0.005290821681706782
Kappa statistic: 0.9901364003251929
Training time: 406.0
		
Iteration: 14
Labeled set size: 1072
Unlabelled set size: 2990
	
Mean region size: 50.0
Incorrectly Classified Instances: 0.49236829148202854
Correctly Classified Instances: 99.50763170851798
Weighted Precision: 0.9951226794478428
Weighted AreaUnderROC: 0.9973468666526737
Root mean squared error: 0.07016895976726666
Relative absolute error: 0.9847365829640572
Root relative squared error: 14.033791953453331
Weighted TruePositiveRate: 0.9950763170851797
Weighted MatthewsCorrelation: 0.9901845693215287
Weighted FMeasure: 0.9950753247137933
Iteration time: 580.0
Weighted AreaUnderPRC: 0.9951144284435967
Mean absolute error: 0.004923682914820286
Coverage of cases: 99.50763170851798
Instances selection time: 97.0
Test time: 82.0
Accumulative iteration time: 8124.0
Weighted Recall: 0.9950763170851797
Weighted FalsePositiveRate: 0.005290821681706782
Kappa statistic: 0.9901364003251929
Training time: 483.0
		
Iteration: 15
Labeled set size: 1092
Unlabelled set size: 2970
	
Mean region size: 50.0
Incorrectly Classified Instances: 0.49236829148202854
Correctly Classified Instances: 99.50763170851798
Weighted Precision: 0.9951226794478428
Weighted AreaUnderROC: 0.9973394951692224
Root mean squared error: 0.07016895976726666
Relative absolute error: 0.9847365829640572
Root relative squared error: 14.033791953453331
Weighted TruePositiveRate: 0.9950763170851797
Weighted MatthewsCorrelation: 0.9901845693215287
Weighted FMeasure: 0.9950753247137933
Iteration time: 610.0
Weighted AreaUnderPRC: 0.995106590923389
Mean absolute error: 0.004923682914820286
Coverage of cases: 99.50763170851798
Instances selection time: 94.0
Test time: 86.0
Accumulative iteration time: 8734.0
Weighted Recall: 0.9950763170851797
Weighted FalsePositiveRate: 0.005290821681706782
Kappa statistic: 0.9901364003251929
Training time: 516.0
		
Iteration: 16
Labeled set size: 1112
Unlabelled set size: 2950
	
Mean region size: 50.0
Incorrectly Classified Instances: 0.49236829148202854
Correctly Classified Instances: 99.50763170851798
Weighted Precision: 0.9951226794478428
Weighted AreaUnderROC: 0.9973394951692224
Root mean squared error: 0.07016895976726666
Relative absolute error: 0.9847365829640572
Root relative squared error: 14.033791953453331
Weighted TruePositiveRate: 0.9950763170851797
Weighted MatthewsCorrelation: 0.9901845693215287
Weighted FMeasure: 0.9950753247137933
Iteration time: 688.0
Weighted AreaUnderPRC: 0.995106590923389
Mean absolute error: 0.004923682914820286
Coverage of cases: 99.50763170851798
Instances selection time: 97.0
Test time: 89.0
Accumulative iteration time: 9422.0
Weighted Recall: 0.9950763170851797
Weighted FalsePositiveRate: 0.005290821681706782
Kappa statistic: 0.9901364003251929
Training time: 591.0
		
Iteration: 17
Labeled set size: 1132
Unlabelled set size: 2930
	
Mean region size: 50.0
Incorrectly Classified Instances: 0.49236829148202854
Correctly Classified Instances: 99.50763170851798
Weighted Precision: 0.9951226794478428
Weighted AreaUnderROC: 0.9973397291845699
Root mean squared error: 0.07016895976726666
Relative absolute error: 0.9847365829640572
Root relative squared error: 14.033791953453331
Weighted TruePositiveRate: 0.9950763170851797
Weighted MatthewsCorrelation: 0.9901845693215287
Weighted FMeasure: 0.9950753247137933
Iteration time: 546.0
Weighted AreaUnderPRC: 0.9951068400883881
Mean absolute error: 0.004923682914820286
Coverage of cases: 99.50763170851798
Instances selection time: 96.0
Test time: 135.0
Accumulative iteration time: 9968.0
Weighted Recall: 0.9950763170851797
Weighted FalsePositiveRate: 0.005290821681706782
Kappa statistic: 0.9901364003251929
Training time: 450.0
		
Iteration: 18
Labeled set size: 1152
Unlabelled set size: 2910
	
Mean region size: 50.0
Incorrectly Classified Instances: 0.49236829148202854
Correctly Classified Instances: 99.50763170851798
Weighted Precision: 0.9951226794478428
Weighted AreaUnderROC: 0.9973397291845699
Root mean squared error: 0.07016895976726666
Relative absolute error: 0.9847365829640572
Root relative squared error: 14.033791953453331
Weighted TruePositiveRate: 0.9950763170851797
Weighted MatthewsCorrelation: 0.9901845693215287
Weighted FMeasure: 0.9950753247137933
Iteration time: 628.0
Weighted AreaUnderPRC: 0.9951068400883881
Mean absolute error: 0.004923682914820286
Coverage of cases: 99.50763170851798
Instances selection time: 92.0
Test time: 84.0
Accumulative iteration time: 10596.0
Weighted Recall: 0.9950763170851797
Weighted FalsePositiveRate: 0.005290821681706782
Kappa statistic: 0.9901364003251929
Training time: 536.0
		
Iteration: 19
Labeled set size: 1172
Unlabelled set size: 2890
	
Mean region size: 50.0
Incorrectly Classified Instances: 0.49236829148202854
Correctly Classified Instances: 99.50763170851798
Weighted Precision: 0.9951226794478428
Weighted AreaUnderROC: 0.9973400802075915
Root mean squared error: 0.07016895976726666
Relative absolute error: 0.9847365829640572
Root relative squared error: 14.033791953453331
Weighted TruePositiveRate: 0.9950763170851797
Weighted MatthewsCorrelation: 0.9901845693215287
Weighted FMeasure: 0.9950753247137933
Iteration time: 648.0
Weighted AreaUnderPRC: 0.9951072116278904
Mean absolute error: 0.004923682914820286
Coverage of cases: 99.50763170851798
Instances selection time: 93.0
Test time: 84.0
Accumulative iteration time: 11244.0
Weighted Recall: 0.9950763170851797
Weighted FalsePositiveRate: 0.005290821681706782
Kappa statistic: 0.9901364003251929
Training time: 555.0
		
Iteration: 20
Labeled set size: 1192
Unlabelled set size: 2870
	
Mean region size: 50.0
Incorrectly Classified Instances: 0.49236829148202854
Correctly Classified Instances: 99.50763170851798
Weighted Precision: 0.9951226794478428
Weighted AreaUnderROC: 0.9973400802075915
Root mean squared error: 0.07016895976726666
Relative absolute error: 0.9847365829640572
Root relative squared error: 14.033791953453331
Weighted TruePositiveRate: 0.9950763170851797
Weighted MatthewsCorrelation: 0.9901845693215287
Weighted FMeasure: 0.9950753247137933
Iteration time: 584.0
Weighted AreaUnderPRC: 0.9951072119418769
Mean absolute error: 0.004923682914820286
Coverage of cases: 99.50763170851798
Instances selection time: 93.0
Test time: 79.0
Accumulative iteration time: 11828.0
Weighted Recall: 0.9950763170851797
Weighted FalsePositiveRate: 0.005290821681706782
Kappa statistic: 0.9901364003251929
Training time: 491.0
		
Iteration: 21
Labeled set size: 1212
Unlabelled set size: 2850
	
Mean region size: 50.0
Incorrectly Classified Instances: 0.49236829148202854
Correctly Classified Instances: 99.50763170851798
Weighted Precision: 0.9951226794478428
Weighted AreaUnderROC: 0.997340431230613
Root mean squared error: 0.07016895976726666
Relative absolute error: 0.9847365829640572
Root relative squared error: 14.033791953453331
Weighted TruePositiveRate: 0.9950763170851797
Weighted MatthewsCorrelation: 0.9901845693215287
Weighted FMeasure: 0.9950753247137933
Iteration time: 1125.0
Weighted AreaUnderPRC: 0.995107583608249
Mean absolute error: 0.004923682914820286
Coverage of cases: 99.50763170851798
Instances selection time: 134.0
Test time: 134.0
Accumulative iteration time: 12953.0
Weighted Recall: 0.9950763170851797
Weighted FalsePositiveRate: 0.005290821681706782
Kappa statistic: 0.9901364003251929
Training time: 991.0
		
Iteration: 22
Labeled set size: 1232
Unlabelled set size: 2830
	
Mean region size: 50.0
Incorrectly Classified Instances: 0.49236829148202854
Correctly Classified Instances: 99.50763170851798
Weighted Precision: 0.9951226794478428
Weighted AreaUnderROC: 0.9973396121768962
Root mean squared error: 0.07016895976726666
Relative absolute error: 0.9847365829640572
Root relative squared error: 14.033791953453331
Weighted TruePositiveRate: 0.9950763170851797
Weighted MatthewsCorrelation: 0.9901845693215287
Weighted FMeasure: 0.9950753247137933
Iteration time: 663.0
Weighted AreaUnderPRC: 0.9951067154424554
Mean absolute error: 0.004923682914820286
Coverage of cases: 99.50763170851798
Instances selection time: 92.0
Test time: 80.0
Accumulative iteration time: 13616.0
Weighted Recall: 0.9950763170851797
Weighted FalsePositiveRate: 0.005290821681706782
Kappa statistic: 0.9901364003251929
Training time: 571.0
		
Iteration: 23
Labeled set size: 1252
Unlabelled set size: 2810
	
Mean region size: 50.0
Incorrectly Classified Instances: 0.07385524372230429
Correctly Classified Instances: 99.9261447562777
Weighted Precision: 0.9992624991324549
Weighted AreaUnderROC: 0.999603188373872
Root mean squared error: 0.0271763212599322
Relative absolute error: 0.14771048744460857
Root relative squared error: 5.43526425198644
Weighted TruePositiveRate: 0.9992614475627769
Weighted MatthewsCorrelation: 0.9985219980135681
Weighted FMeasure: 0.999261427527573
Iteration time: 717.0
Weighted AreaUnderPRC: 0.9992624991324549
Mean absolute error: 7.385524372230429E-4
Coverage of cases: 99.9261447562777
Instances selection time: 87.0
Test time: 82.0
Accumulative iteration time: 14333.0
Weighted Recall: 0.9992614475627769
Weighted FalsePositiveRate: 7.936232522560174E-4
Kappa statistic: 0.9985209057698268
Training time: 630.0
		
Iteration: 24
Labeled set size: 1272
Unlabelled set size: 2790
	
Mean region size: 50.0
Incorrectly Classified Instances: 0.07385524372230429
Correctly Classified Instances: 99.9261447562777
Weighted Precision: 0.9992624991324549
Weighted AreaUnderROC: 0.999603188373872
Root mean squared error: 0.0271763212599322
Relative absolute error: 0.14771048744460857
Root relative squared error: 5.43526425198644
Weighted TruePositiveRate: 0.9992614475627769
Weighted MatthewsCorrelation: 0.9985219980135681
Weighted FMeasure: 0.999261427527573
Iteration time: 669.0
Weighted AreaUnderPRC: 0.9992624991324549
Mean absolute error: 7.385524372230429E-4
Coverage of cases: 99.9261447562777
Instances selection time: 88.0
Test time: 84.0
Accumulative iteration time: 15002.0
Weighted Recall: 0.9992614475627769
Weighted FalsePositiveRate: 7.936232522560174E-4
Kappa statistic: 0.9985209057698268
Training time: 581.0
		
Iteration: 25
Labeled set size: 1292
Unlabelled set size: 2770
	
Mean region size: 50.0
Incorrectly Classified Instances: 0.07385524372230429
Correctly Classified Instances: 99.9261447562777
Weighted Precision: 0.9992624991324549
Weighted AreaUnderROC: 0.999603188373872
Root mean squared error: 0.0271763212599322
Relative absolute error: 0.14771048744460857
Root relative squared error: 5.43526425198644
Weighted TruePositiveRate: 0.9992614475627769
Weighted MatthewsCorrelation: 0.9985219980135681
Weighted FMeasure: 0.999261427527573
Iteration time: 642.0
Weighted AreaUnderPRC: 0.9992624991324549
Mean absolute error: 7.385524372230429E-4
Coverage of cases: 99.9261447562777
Instances selection time: 81.0
Test time: 84.0
Accumulative iteration time: 15644.0
Weighted Recall: 0.9992614475627769
Weighted FalsePositiveRate: 7.936232522560174E-4
Kappa statistic: 0.9985209057698268
Training time: 561.0
		
Iteration: 26
Labeled set size: 1312
Unlabelled set size: 2750
	
Mean region size: 50.0
Incorrectly Classified Instances: 0.07385524372230429
Correctly Classified Instances: 99.9261447562777
Weighted Precision: 0.9992624991324549
Weighted AreaUnderROC: 0.999603188373872
Root mean squared error: 0.0271763212599322
Relative absolute error: 0.14771048744460857
Root relative squared error: 5.43526425198644
Weighted TruePositiveRate: 0.9992614475627769
Weighted MatthewsCorrelation: 0.9985219980135681
Weighted FMeasure: 0.999261427527573
Iteration time: 799.0
Weighted AreaUnderPRC: 0.9992624991324549
Mean absolute error: 7.385524372230429E-4
Coverage of cases: 99.9261447562777
Instances selection time: 85.0
Test time: 82.0
Accumulative iteration time: 16443.0
Weighted Recall: 0.9992614475627769
Weighted FalsePositiveRate: 7.936232522560174E-4
Kappa statistic: 0.9985209057698268
Training time: 714.0
		
Iteration: 27
Labeled set size: 1332
Unlabelled set size: 2730
	
Mean region size: 50.0
Incorrectly Classified Instances: 0.07385524372230429
Correctly Classified Instances: 99.9261447562777
Weighted Precision: 0.9992624991324549
Weighted AreaUnderROC: 0.999603188373872
Root mean squared error: 0.0271763212599322
Relative absolute error: 0.14771048744460857
Root relative squared error: 5.43526425198644
Weighted TruePositiveRate: 0.9992614475627769
Weighted MatthewsCorrelation: 0.9985219980135681
Weighted FMeasure: 0.999261427527573
Iteration time: 633.0
Weighted AreaUnderPRC: 0.9992624991324549
Mean absolute error: 7.385524372230429E-4
Coverage of cases: 99.9261447562777
Instances selection time: 81.0
Test time: 84.0
Accumulative iteration time: 17076.0
Weighted Recall: 0.9992614475627769
Weighted FalsePositiveRate: 7.936232522560174E-4
Kappa statistic: 0.9985209057698268
Training time: 552.0
		
Iteration: 28
Labeled set size: 1352
Unlabelled set size: 2710
	
Mean region size: 50.0
Incorrectly Classified Instances: 0.07385524372230429
Correctly Classified Instances: 99.9261447562777
Weighted Precision: 0.9992624991324549
Weighted AreaUnderROC: 0.999603188373872
Root mean squared error: 0.0271763212599322
Relative absolute error: 0.14771048744460857
Root relative squared error: 5.43526425198644
Weighted TruePositiveRate: 0.9992614475627769
Weighted MatthewsCorrelation: 0.9985219980135681
Weighted FMeasure: 0.999261427527573
Iteration time: 1405.0
Weighted AreaUnderPRC: 0.9992624991324549
Mean absolute error: 7.385524372230429E-4
Coverage of cases: 99.9261447562777
Instances selection time: 126.0
Test time: 77.0
Accumulative iteration time: 18481.0
Weighted Recall: 0.9992614475627769
Weighted FalsePositiveRate: 7.936232522560174E-4
Kappa statistic: 0.9985209057698268
Training time: 1279.0
		
Iteration: 29
Labeled set size: 1372
Unlabelled set size: 2690
	
Mean region size: 50.0
Incorrectly Classified Instances: 0.07385524372230429
Correctly Classified Instances: 99.9261447562777
Weighted Precision: 0.9992624991324549
Weighted AreaUnderROC: 0.999603188373872
Root mean squared error: 0.0271763212599322
Relative absolute error: 0.14771048744460857
Root relative squared error: 5.43526425198644
Weighted TruePositiveRate: 0.9992614475627769
Weighted MatthewsCorrelation: 0.9985219980135681
Weighted FMeasure: 0.999261427527573
Iteration time: 712.0
Weighted AreaUnderPRC: 0.9992624991324549
Mean absolute error: 7.385524372230429E-4
Coverage of cases: 99.9261447562777
Instances selection time: 81.0
Test time: 84.0
Accumulative iteration time: 19193.0
Weighted Recall: 0.9992614475627769
Weighted FalsePositiveRate: 7.936232522560174E-4
Kappa statistic: 0.9985209057698268
Training time: 631.0
		
Iteration: 30
Labeled set size: 1392
Unlabelled set size: 2670
	
Mean region size: 50.0
Incorrectly Classified Instances: 0.07385524372230429
Correctly Classified Instances: 99.9261447562777
Weighted Precision: 0.9992624991324549
Weighted AreaUnderROC: 0.999603188373872
Root mean squared error: 0.0271763212599322
Relative absolute error: 0.14771048744460857
Root relative squared error: 5.43526425198644
Weighted TruePositiveRate: 0.9992614475627769
Weighted MatthewsCorrelation: 0.9985219980135681
Weighted FMeasure: 0.999261427527573
Iteration time: 658.0
Weighted AreaUnderPRC: 0.9992624991324549
Mean absolute error: 7.385524372230429E-4
Coverage of cases: 99.9261447562777
Instances selection time: 84.0
Test time: 83.0
Accumulative iteration time: 19851.0
Weighted Recall: 0.9992614475627769
Weighted FalsePositiveRate: 7.936232522560174E-4
Kappa statistic: 0.9985209057698268
Training time: 574.0
		
Iteration: 31
Labeled set size: 1412
Unlabelled set size: 2650
	
Mean region size: 50.0
Incorrectly Classified Instances: 0.07385524372230429
Correctly Classified Instances: 99.9261447562777
Weighted Precision: 0.9992624991324549
Weighted AreaUnderROC: 0.999603188373872
Root mean squared error: 0.0271763212599322
Relative absolute error: 0.14771048744460857
Root relative squared error: 5.43526425198644
Weighted TruePositiveRate: 0.9992614475627769
Weighted MatthewsCorrelation: 0.9985219980135681
Weighted FMeasure: 0.999261427527573
Iteration time: 730.0
Weighted AreaUnderPRC: 0.9992624991324549
Mean absolute error: 7.385524372230429E-4
Coverage of cases: 99.9261447562777
Instances selection time: 85.0
Test time: 84.0
Accumulative iteration time: 20581.0
Weighted Recall: 0.9992614475627769
Weighted FalsePositiveRate: 7.936232522560174E-4
Kappa statistic: 0.9985209057698268
Training time: 645.0
		
Iteration: 32
Labeled set size: 1432
Unlabelled set size: 2630
	
Mean region size: 50.0
Incorrectly Classified Instances: 0.07385524372230429
Correctly Classified Instances: 99.9261447562777
Weighted Precision: 0.9992624991324549
Weighted AreaUnderROC: 0.999603188373872
Root mean squared error: 0.0271763212599322
Relative absolute error: 0.14771048744460857
Root relative squared error: 5.43526425198644
Weighted TruePositiveRate: 0.9992614475627769
Weighted MatthewsCorrelation: 0.9985219980135681
Weighted FMeasure: 0.999261427527573
Iteration time: 675.0
Weighted AreaUnderPRC: 0.9992624991324549
Mean absolute error: 7.385524372230429E-4
Coverage of cases: 99.9261447562777
Instances selection time: 76.0
Test time: 80.0
Accumulative iteration time: 21256.0
Weighted Recall: 0.9992614475627769
Weighted FalsePositiveRate: 7.936232522560174E-4
Kappa statistic: 0.9985209057698268
Training time: 599.0
		
Iteration: 33
Labeled set size: 1452
Unlabelled set size: 2610
	
Mean region size: 50.0
Incorrectly Classified Instances: 0.07385524372230429
Correctly Classified Instances: 99.9261447562777
Weighted Precision: 0.9992624991324549
Weighted AreaUnderROC: 0.999603188373872
Root mean squared error: 0.0271763212599322
Relative absolute error: 0.14771048744460857
Root relative squared error: 5.43526425198644
Weighted TruePositiveRate: 0.9992614475627769
Weighted MatthewsCorrelation: 0.9985219980135681
Weighted FMeasure: 0.999261427527573
Iteration time: 703.0
Weighted AreaUnderPRC: 0.9992624991324549
Mean absolute error: 7.385524372230429E-4
Coverage of cases: 99.9261447562777
Instances selection time: 80.0
Test time: 76.0
Accumulative iteration time: 21959.0
Weighted Recall: 0.9992614475627769
Weighted FalsePositiveRate: 7.936232522560174E-4
Kappa statistic: 0.9985209057698268
Training time: 623.0
		
Iteration: 34
Labeled set size: 1472
Unlabelled set size: 2590
	
Mean region size: 50.0
Incorrectly Classified Instances: 0.07385524372230429
Correctly Classified Instances: 99.9261447562777
Weighted Precision: 0.9992624991324549
Weighted AreaUnderROC: 0.999603188373872
Root mean squared error: 0.0271763212599322
Relative absolute error: 0.14771048744460857
Root relative squared error: 5.43526425198644
Weighted TruePositiveRate: 0.9992614475627769
Weighted MatthewsCorrelation: 0.9985219980135681
Weighted FMeasure: 0.999261427527573
Iteration time: 679.0
Weighted AreaUnderPRC: 0.9992624991324549
Mean absolute error: 7.385524372230429E-4
Coverage of cases: 99.9261447562777
Instances selection time: 81.0
Test time: 84.0
Accumulative iteration time: 22638.0
Weighted Recall: 0.9992614475627769
Weighted FalsePositiveRate: 7.936232522560174E-4
Kappa statistic: 0.9985209057698268
Training time: 598.0
		
Iteration: 35
Labeled set size: 1492
Unlabelled set size: 2570
	
Mean region size: 50.0
Incorrectly Classified Instances: 0.07385524372230429
Correctly Classified Instances: 99.9261447562777
Weighted Precision: 0.9992624991324549
Weighted AreaUnderROC: 0.999603188373872
Root mean squared error: 0.0271763212599322
Relative absolute error: 0.14771048744460857
Root relative squared error: 5.43526425198644
Weighted TruePositiveRate: 0.9992614475627769
Weighted MatthewsCorrelation: 0.9985219980135681
Weighted FMeasure: 0.999261427527573
Iteration time: 784.0
Weighted AreaUnderPRC: 0.9992624991324549
Mean absolute error: 7.385524372230429E-4
Coverage of cases: 99.9261447562777
Instances selection time: 81.0
Test time: 81.0
Accumulative iteration time: 23422.0
Weighted Recall: 0.9992614475627769
Weighted FalsePositiveRate: 7.936232522560174E-4
Kappa statistic: 0.9985209057698268
Training time: 703.0
		
Iteration: 36
Labeled set size: 1512
Unlabelled set size: 2550
	
Mean region size: 50.0
Incorrectly Classified Instances: 0.07385524372230429
Correctly Classified Instances: 99.9261447562777
Weighted Precision: 0.9992624991324549
Weighted AreaUnderROC: 0.999603188373872
Root mean squared error: 0.0271763212599322
Relative absolute error: 0.14771048744460857
Root relative squared error: 5.43526425198644
Weighted TruePositiveRate: 0.9992614475627769
Weighted MatthewsCorrelation: 0.9985219980135681
Weighted FMeasure: 0.999261427527573
Iteration time: 755.0
Weighted AreaUnderPRC: 0.9992624991324549
Mean absolute error: 7.385524372230429E-4
Coverage of cases: 99.9261447562777
Instances selection time: 75.0
Test time: 82.0
Accumulative iteration time: 24177.0
Weighted Recall: 0.9992614475627769
Weighted FalsePositiveRate: 7.936232522560174E-4
Kappa statistic: 0.9985209057698268
Training time: 680.0
		
Iteration: 37
Labeled set size: 1532
Unlabelled set size: 2530
	
Mean region size: 50.0
Incorrectly Classified Instances: 0.07385524372230429
Correctly Classified Instances: 99.9261447562777
Weighted Precision: 0.9992624991324549
Weighted AreaUnderROC: 0.999603188373872
Root mean squared error: 0.0271763212599322
Relative absolute error: 0.14771048744460857
Root relative squared error: 5.43526425198644
Weighted TruePositiveRate: 0.9992614475627769
Weighted MatthewsCorrelation: 0.9985219980135681
Weighted FMeasure: 0.999261427527573
Iteration time: 769.0
Weighted AreaUnderPRC: 0.9992624991324549
Mean absolute error: 7.385524372230429E-4
Coverage of cases: 99.9261447562777
Instances selection time: 76.0
Test time: 84.0
Accumulative iteration time: 24946.0
Weighted Recall: 0.9992614475627769
Weighted FalsePositiveRate: 7.936232522560174E-4
Kappa statistic: 0.9985209057698268
Training time: 693.0
		
Iteration: 38
Labeled set size: 1552
Unlabelled set size: 2510
	
Mean region size: 50.0
Incorrectly Classified Instances: 0.07385524372230429
Correctly Classified Instances: 99.9261447562777
Weighted Precision: 0.9992624991324549
Weighted AreaUnderROC: 0.999603188373872
Root mean squared error: 0.0271763212599322
Relative absolute error: 0.14771048744460857
Root relative squared error: 5.43526425198644
Weighted TruePositiveRate: 0.9992614475627769
Weighted MatthewsCorrelation: 0.9985219980135681
Weighted FMeasure: 0.999261427527573
Iteration time: 1121.0
Weighted AreaUnderPRC: 0.9992624991324549
Mean absolute error: 7.385524372230429E-4
Coverage of cases: 99.9261447562777
Instances selection time: 97.0
Test time: 80.0
Accumulative iteration time: 26067.0
Weighted Recall: 0.9992614475627769
Weighted FalsePositiveRate: 7.936232522560174E-4
Kappa statistic: 0.9985209057698268
Training time: 1024.0
		
Iteration: 39
Labeled set size: 1572
Unlabelled set size: 2490
	
Mean region size: 50.0
Incorrectly Classified Instances: 0.07385524372230429
Correctly Classified Instances: 99.9261447562777
Weighted Precision: 0.9992624991324549
Weighted AreaUnderROC: 0.999603188373872
Root mean squared error: 0.0271763212599322
Relative absolute error: 0.14771048744460857
Root relative squared error: 5.43526425198644
Weighted TruePositiveRate: 0.9992614475627769
Weighted MatthewsCorrelation: 0.9985219980135681
Weighted FMeasure: 0.999261427527573
Iteration time: 841.0
Weighted AreaUnderPRC: 0.9992624991324549
Mean absolute error: 7.385524372230429E-4
Coverage of cases: 99.9261447562777
Instances selection time: 77.0
Test time: 81.0
Accumulative iteration time: 26908.0
Weighted Recall: 0.9992614475627769
Weighted FalsePositiveRate: 7.936232522560174E-4
Kappa statistic: 0.9985209057698268
Training time: 764.0
		
Iteration: 40
Labeled set size: 1592
Unlabelled set size: 2470
	
Mean region size: 50.0
Incorrectly Classified Instances: 0.07385524372230429
Correctly Classified Instances: 99.9261447562777
Weighted Precision: 0.9992624991324549
Weighted AreaUnderROC: 0.999603188373872
Root mean squared error: 0.0271763212599322
Relative absolute error: 0.14771048744460857
Root relative squared error: 5.43526425198644
Weighted TruePositiveRate: 0.9992614475627769
Weighted MatthewsCorrelation: 0.9985219980135681
Weighted FMeasure: 0.999261427527573
Iteration time: 751.0
Weighted AreaUnderPRC: 0.9992624991324549
Mean absolute error: 7.385524372230429E-4
Coverage of cases: 99.9261447562777
Instances selection time: 78.0
Test time: 81.0
Accumulative iteration time: 27659.0
Weighted Recall: 0.9992614475627769
Weighted FalsePositiveRate: 7.936232522560174E-4
Kappa statistic: 0.9985209057698268
Training time: 673.0
		
Iteration: 41
Labeled set size: 1612
Unlabelled set size: 2450
	
Mean region size: 50.0
Incorrectly Classified Instances: 0.07385524372230429
Correctly Classified Instances: 99.9261447562777
Weighted Precision: 0.9992624991324549
Weighted AreaUnderROC: 0.999603188373872
Root mean squared error: 0.0271763212599322
Relative absolute error: 0.14771048744460857
Root relative squared error: 5.43526425198644
Weighted TruePositiveRate: 0.9992614475627769
Weighted MatthewsCorrelation: 0.9985219980135681
Weighted FMeasure: 0.999261427527573
Iteration time: 773.0
Weighted AreaUnderPRC: 0.9992624991324549
Mean absolute error: 7.385524372230429E-4
Coverage of cases: 99.9261447562777
Instances selection time: 77.0
Test time: 81.0
Accumulative iteration time: 28432.0
Weighted Recall: 0.9992614475627769
Weighted FalsePositiveRate: 7.936232522560174E-4
Kappa statistic: 0.9985209057698268
Training time: 696.0
		
Iteration: 42
Labeled set size: 1632
Unlabelled set size: 2430
	
Mean region size: 50.0
Incorrectly Classified Instances: 0.07385524372230429
Correctly Classified Instances: 99.9261447562777
Weighted Precision: 0.9992624991324549
Weighted AreaUnderROC: 0.999603188373872
Root mean squared error: 0.0271763212599322
Relative absolute error: 0.14771048744460857
Root relative squared error: 5.43526425198644
Weighted TruePositiveRate: 0.9992614475627769
Weighted MatthewsCorrelation: 0.9985219980135681
Weighted FMeasure: 0.999261427527573
Iteration time: 759.0
Weighted AreaUnderPRC: 0.9992624991324549
Mean absolute error: 7.385524372230429E-4
Coverage of cases: 99.9261447562777
Instances selection time: 70.0
Test time: 79.0
Accumulative iteration time: 29191.0
Weighted Recall: 0.9992614475627769
Weighted FalsePositiveRate: 7.936232522560174E-4
Kappa statistic: 0.9985209057698268
Training time: 689.0
		
Iteration: 43
Labeled set size: 1652
Unlabelled set size: 2410
	
Mean region size: 50.0
Incorrectly Classified Instances: 0.07385524372230429
Correctly Classified Instances: 99.9261447562777
Weighted Precision: 0.9992624991324549
Weighted AreaUnderROC: 0.999603188373872
Root mean squared error: 0.0271763212599322
Relative absolute error: 0.14771048744460857
Root relative squared error: 5.43526425198644
Weighted TruePositiveRate: 0.9992614475627769
Weighted MatthewsCorrelation: 0.9985219980135681
Weighted FMeasure: 0.999261427527573
Iteration time: 864.0
Weighted AreaUnderPRC: 0.9992624991324549
Mean absolute error: 7.385524372230429E-4
Coverage of cases: 99.9261447562777
Instances selection time: 89.0
Test time: 74.0
Accumulative iteration time: 30055.0
Weighted Recall: 0.9992614475627769
Weighted FalsePositiveRate: 7.936232522560174E-4
Kappa statistic: 0.9985209057698268
Training time: 775.0
		
Iteration: 44
Labeled set size: 1672
Unlabelled set size: 2390
	
Mean region size: 50.0
Incorrectly Classified Instances: 0.07385524372230429
Correctly Classified Instances: 99.9261447562777
Weighted Precision: 0.9992624991324549
Weighted AreaUnderROC: 0.999603188373872
Root mean squared error: 0.0271763212599322
Relative absolute error: 0.14771048744460857
Root relative squared error: 5.43526425198644
Weighted TruePositiveRate: 0.9992614475627769
Weighted MatthewsCorrelation: 0.9985219980135681
Weighted FMeasure: 0.999261427527573
Iteration time: 840.0
Weighted AreaUnderPRC: 0.9992624991324549
Mean absolute error: 7.385524372230429E-4
Coverage of cases: 99.9261447562777
Instances selection time: 78.0
Test time: 76.0
Accumulative iteration time: 30895.0
Weighted Recall: 0.9992614475627769
Weighted FalsePositiveRate: 7.936232522560174E-4
Kappa statistic: 0.9985209057698268
Training time: 762.0
		
Iteration: 45
Labeled set size: 1692
Unlabelled set size: 2370
	
Mean region size: 50.0
Incorrectly Classified Instances: 0.07385524372230429
Correctly Classified Instances: 99.9261447562777
Weighted Precision: 0.9992624991324549
Weighted AreaUnderROC: 0.999603188373872
Root mean squared error: 0.0271763212599322
Relative absolute error: 0.14771048744460857
Root relative squared error: 5.43526425198644
Weighted TruePositiveRate: 0.9992614475627769
Weighted MatthewsCorrelation: 0.9985219980135681
Weighted FMeasure: 0.999261427527573
Iteration time: 821.0
Weighted AreaUnderPRC: 0.9992624991324549
Mean absolute error: 7.385524372230429E-4
Coverage of cases: 99.9261447562777
Instances selection time: 74.0
Test time: 74.0
Accumulative iteration time: 31716.0
Weighted Recall: 0.9992614475627769
Weighted FalsePositiveRate: 7.936232522560174E-4
Kappa statistic: 0.9985209057698268
Training time: 747.0
		
Iteration: 46
Labeled set size: 1712
Unlabelled set size: 2350
	
Mean region size: 50.0
Incorrectly Classified Instances: 0.07385524372230429
Correctly Classified Instances: 99.9261447562777
Weighted Precision: 0.9992624991324549
Weighted AreaUnderROC: 0.999603188373872
Root mean squared error: 0.0271763212599322
Relative absolute error: 0.14771048744460857
Root relative squared error: 5.43526425198644
Weighted TruePositiveRate: 0.9992614475627769
Weighted MatthewsCorrelation: 0.9985219980135681
Weighted FMeasure: 0.999261427527573
Iteration time: 795.0
Weighted AreaUnderPRC: 0.9992624991324549
Mean absolute error: 7.385524372230429E-4
Coverage of cases: 99.9261447562777
Instances selection time: 72.0
Test time: 78.0
Accumulative iteration time: 32511.0
Weighted Recall: 0.9992614475627769
Weighted FalsePositiveRate: 7.936232522560174E-4
Kappa statistic: 0.9985209057698268
Training time: 723.0
		
Time end:Thu Nov 30 21.31.26 EET 2017