Sun Oct 08 09.27.12 EEST 2017
Dataset: splice
Test set size: 1595
Initial Labelled set size: 319
Initial Unlabelled set size: 1276
Batch mode: QBestBatchMode
Batch size: 20
Classifiers: IBk-1cores
Scenario: PoolBasedSamplingScenario
Query strategy: RandomSelectionQueryStrategy-1cores
Time begining: Sun Oct 08 09.27.12 EEST 2017
		
Iteration: 1
Labeled set size: 319
Unlabelled set size: 1276
	
Mean region size: 38.9299895506793
Incorrectly Classified Instances: 33.73667711598746
Correctly Classified Instances: 66.26332288401252
Weighted Precision: 0.7257006338186837
Weighted AreaUnderROC: 0.8041106153895295
Root mean squared error: 0.43930392890111464
Relative absolute error: 49.7795223040299
Root relative squared error: 93.19043613836027
Weighted TruePositiveRate: 0.6626332288401254
Weighted MatthewsCorrelation: 0.514254390329315
Weighted FMeasure: 0.6634602135780089
Iteration time: 3.7
Weighted AreaUnderPRC: 0.6713804942623476
Mean absolute error: 0.22124232135124905
Coverage of cases: 73.75548589341693
Instances selection time: 3.5
Test time: 798.1
Accumulative iteration time: 3.7
Weighted Recall: 0.6626332288401254
Weighted FalsePositiveRate: 0.13785222101030523
Kappa statistic: 0.4967751308837752
Training time: 0.2
		
Iteration: 2
Labeled set size: 339
Unlabelled set size: 1256
	
Mean region size: 38.91536050156749
Incorrectly Classified Instances: 33.642633228840126
Correctly Classified Instances: 66.35736677115989
Weighted Precision: 0.7281521733876307
Weighted AreaUnderROC: 0.8051968331626467
Root mean squared error: 0.4387264281357748
Relative absolute error: 49.604133813184426
Root relative squared error: 93.06792972616661
Weighted TruePositiveRate: 0.6635736677115988
Weighted MatthewsCorrelation: 0.5167847945408358
Weighted FMeasure: 0.6638745301579854
Iteration time: 3.7
Weighted AreaUnderPRC: 0.6739454829778198
Mean absolute error: 0.22046281694749142
Coverage of cases: 73.79310344827586
Instances selection time: 3.4
Test time: 843.8
Accumulative iteration time: 7.4
Weighted Recall: 0.6635736677115988
Weighted FalsePositiveRate: 0.1362653045369714
Kappa statistic: 0.4990184699928938
Training time: 0.3
		
Iteration: 3
Labeled set size: 359
Unlabelled set size: 1236
	
Mean region size: 38.91118077324982
Incorrectly Classified Instances: 33.31661442006269
Correctly Classified Instances: 66.68338557993731
Weighted Precision: 0.7291068216401544
Weighted AreaUnderROC: 0.8084873503160541
Root mean squared error: 0.435942569597609
Relative absolute error: 48.992671942768524
Root relative squared error: 92.47738415110629
Weighted TruePositiveRate: 0.6668338557993729
Weighted MatthewsCorrelation: 0.5198671888705826
Weighted FMeasure: 0.6672569956647114
Iteration time: 3.8
Weighted AreaUnderPRC: 0.6781404076702999
Mean absolute error: 0.21774520863453173
Coverage of cases: 74.19435736677117
Instances selection time: 3.6
Test time: 891.4
Accumulative iteration time: 11.2
Weighted Recall: 0.6668338557993729
Weighted FalsePositiveRate: 0.13594827841269425
Kappa statistic: 0.5030451047541826
Training time: 0.2
		
Iteration: 4
Labeled set size: 379
Unlabelled set size: 1216
	
Mean region size: 38.92163009404397
Incorrectly Classified Instances: 33.22884012539184
Correctly Classified Instances: 66.77115987460816
Weighted Precision: 0.7292585266362932
Weighted AreaUnderROC: 0.8073192341068033
Root mean squared error: 0.43645604221103546
Relative absolute error: 49.07083777923424
Root relative squared error: 92.5863081411785
Weighted TruePositiveRate: 0.6677115987460814
Weighted MatthewsCorrelation: 0.5206230580355713
Weighted FMeasure: 0.6683126351010185
Iteration time: 3.8
Weighted AreaUnderPRC: 0.6766614381057107
Mean absolute error: 0.2180926123521571
Coverage of cases: 74.10031347962382
Instances selection time: 3.6
Test time: 935.2
Accumulative iteration time: 15.0
Weighted Recall: 0.6677115987460814
Weighted FalsePositiveRate: 0.1359096776543564
Kappa statistic: 0.5040351714157515
Training time: 0.2
		
Iteration: 5
Labeled set size: 399
Unlabelled set size: 1196
	
Mean region size: 38.95297805642642
Incorrectly Classified Instances: 33.12852664576803
Correctly Classified Instances: 66.87147335423198
Weighted Precision: 0.7313075405813232
Weighted AreaUnderROC: 0.8096771636017305
Root mean squared error: 0.43494640362539777
Relative absolute error: 48.76942117092268
Root relative squared error: 92.26606543686492
Weighted TruePositiveRate: 0.6687147335423198
Weighted MatthewsCorrelation: 0.5230558239502898
Weighted FMeasure: 0.6691275879748553
Iteration time: 3.4
Weighted AreaUnderPRC: 0.6797799711265158
Mean absolute error: 0.2167529829818835
Coverage of cases: 74.35109717868337
Instances selection time: 3.1
Test time: 998.1
Accumulative iteration time: 18.4
Weighted Recall: 0.6687147335423198
Weighted FalsePositiveRate: 0.13454280964338278
Kappa statistic: 0.5059768846577729
Training time: 0.3
		
Iteration: 6
Labeled set size: 419
Unlabelled set size: 1176
	
Mean region size: 38.894461859979195
Incorrectly Classified Instances: 33.159874608150474
Correctly Classified Instances: 66.84012539184954
Weighted Precision: 0.7332905863858313
Weighted AreaUnderROC: 0.810947571210861
Root mean squared error: 0.43490345283841336
Relative absolute error: 48.68297296551103
Root relative squared error: 92.25695419904473
Weighted TruePositiveRate: 0.6684012539184954
Weighted MatthewsCorrelation: 0.5243465235779576
Weighted FMeasure: 0.6684025961785549
Iteration time: 3.6
Weighted AreaUnderPRC: 0.6820590853231562
Mean absolute error: 0.2163687687356095
Coverage of cases: 74.32601880877743
Instances selection time: 3.1
Test time: 1068.5
Accumulative iteration time: 22.0
Weighted Recall: 0.6684012539184954
Weighted FalsePositiveRate: 0.13325762411116387
Kappa statistic: 0.506436180846437
Training time: 0.5
		
Iteration: 7
Labeled set size: 439
Unlabelled set size: 1156
	
Mean region size: 38.90282131661449
Incorrectly Classified Instances: 32.9717868338558
Correctly Classified Instances: 67.0282131661442
Weighted Precision: 0.7339129243181844
Weighted AreaUnderROC: 0.811712910554332
Root mean squared error: 0.4335799966027518
Relative absolute error: 48.39440205509263
Root relative squared error: 91.97620673539276
Weighted TruePositiveRate: 0.6702821316614422
Weighted MatthewsCorrelation: 0.5261936444289141
Weighted FMeasure: 0.6704567939552788
Iteration time: 3.2
Weighted AreaUnderPRC: 0.6829354260014335
Mean absolute error: 0.2150862313559721
Coverage of cases: 74.5141065830721
Instances selection time: 3.0
Test time: 1087.9
Accumulative iteration time: 25.2
Weighted Recall: 0.6702821316614422
Weighted FalsePositiveRate: 0.13304274175186095
Kappa statistic: 0.5086996631898957
Training time: 0.2
		
Iteration: 8
Labeled set size: 459
Unlabelled set size: 1136
	
Mean region size: 38.93207941483811
Incorrectly Classified Instances: 32.89655172413792
Correctly Classified Instances: 67.10344827586205
Weighted Precision: 0.7356286550217896
Weighted AreaUnderROC: 0.8131931525706472
Root mean squared error: 0.4329917098251566
Relative absolute error: 48.28676383179565
Root relative squared error: 91.85141226447679
Weighted TruePositiveRate: 0.6710344827586207
Weighted MatthewsCorrelation: 0.5282279294711946
Weighted FMeasure: 0.6713310968461358
Iteration time: 3.3
Weighted AreaUnderPRC: 0.6844061370063408
Mean absolute error: 0.21460783925243
Coverage of cases: 74.63949843260187
Instances selection time: 2.9
Test time: 1134.9
Accumulative iteration time: 28.5
Weighted Recall: 0.6710344827586207
Weighted FalsePositiveRate: 0.1319919156080209
Kappa statistic: 0.5099934930149652
Training time: 0.4
		
Iteration: 9
Labeled set size: 479
Unlabelled set size: 1116
	
Mean region size: 38.871473354232045
Incorrectly Classified Instances: 32.570532915360495
Correctly Classified Instances: 67.4294670846395
Weighted Precision: 0.7379585469492589
Weighted AreaUnderROC: 0.8149827635474075
Root mean squared error: 0.4312560239703746
Relative absolute error: 47.86688987821812
Root relative squared error: 91.48321769309902
Weighted TruePositiveRate: 0.674294670846395
Weighted MatthewsCorrelation: 0.5324651902656805
Weighted FMeasure: 0.674596409816059
Iteration time: 3.3
Weighted AreaUnderPRC: 0.686761098905251
Mean absolute error: 0.2127417327920853
Coverage of cases: 74.86520376175548
Instances selection time: 2.9
Test time: 1159.9
Accumulative iteration time: 31.8
Weighted Recall: 0.674294670846395
Weighted FalsePositiveRate: 0.1307224906463488
Kappa statistic: 0.5145106977956678
Training time: 0.4
		
Iteration: 10
Labeled set size: 499
Unlabelled set size: 1096
	
Mean region size: 38.867293625914385
Incorrectly Classified Instances: 32.50156739811912
Correctly Classified Instances: 67.49843260188088
Weighted Precision: 0.7390701173647279
Weighted AreaUnderROC: 0.8171905205690948
Root mean squared error: 0.4299201517791322
Relative absolute error: 47.583752531798226
Root relative squared error: 91.1998364075312
Weighted TruePositiveRate: 0.6749843260188089
Weighted MatthewsCorrelation: 0.5338899290337891
Weighted FMeasure: 0.6752355013099178
Iteration time: 3.2
Weighted AreaUnderPRC: 0.6897451797198346
Mean absolute error: 0.21148334458577467
Coverage of cases: 75.07210031347962
Instances selection time: 2.9
Test time: 1250.0
Accumulative iteration time: 35.0
Weighted Recall: 0.6749843260188089
Weighted FalsePositiveRate: 0.1300277944007875
Kappa statistic: 0.5156632228297615
Training time: 0.3
		
Iteration: 11
Labeled set size: 519
Unlabelled set size: 1076
	
Mean region size: 38.92789968652045
Incorrectly Classified Instances: 32.47648902821317
Correctly Classified Instances: 67.52351097178685
Weighted Precision: 0.7398988282238815
Weighted AreaUnderROC: 0.8171897819942305
Root mean squared error: 0.43024965846369134
Relative absolute error: 47.67324637609484
Root relative squared error: 91.26973533086063
Weighted TruePositiveRate: 0.6752351097178685
Weighted MatthewsCorrelation: 0.5346926421346658
Weighted FMeasure: 0.6754173920712996
Iteration time: 3.1
Weighted AreaUnderPRC: 0.6899206763720432
Mean absolute error: 0.2118810950048707
Coverage of cases: 75.05329153605014
Instances selection time: 2.6
Test time: 1252.3
Accumulative iteration time: 38.1
Weighted Recall: 0.6752351097178685
Weighted FalsePositiveRate: 0.12961359130626868
Kappa statistic: 0.5161924309821299
Training time: 0.5
		
Iteration: 12
Labeled set size: 539
Unlabelled set size: 1056
	
Mean region size: 38.942528735632266
Incorrectly Classified Instances: 32.28213166144201
Correctly Classified Instances: 67.717868338558
Weighted Precision: 0.7426466385509646
Weighted AreaUnderROC: 0.8186826881787013
Root mean squared error: 0.4282452835689419
Relative absolute error: 47.263183170723195
Root relative squared error: 90.8445432068254
Weighted TruePositiveRate: 0.6771786833855801
Weighted MatthewsCorrelation: 0.5382325382364712
Weighted FMeasure: 0.6771467555981843
Iteration time: 3.0
Weighted AreaUnderPRC: 0.6929640032360647
Mean absolute error: 0.21005859186988568
Coverage of cases: 75.26645768025078
Instances selection time: 2.6
Test time: 1315.8
Accumulative iteration time: 41.1
Weighted Recall: 0.6771786833855801
Weighted FalsePositiveRate: 0.12804265556869904
Kappa statistic: 0.5194126163078413
Training time: 0.4
		
Iteration: 13
Labeled set size: 559
Unlabelled set size: 1036
	
Mean region size: 38.95506792058526
Incorrectly Classified Instances: 32.12539184952978
Correctly Classified Instances: 67.87460815047021
Weighted Precision: 0.7454388623419193
Weighted AreaUnderROC: 0.8205771659847023
Root mean squared error: 0.4270626401222211
Relative absolute error: 47.025500365684024
Root relative squared error: 90.5936666465548
Weighted TruePositiveRate: 0.6787460815047023
Weighted MatthewsCorrelation: 0.5415976160462359
Weighted FMeasure: 0.6785629557952885
Iteration time: 3.4
Weighted AreaUnderPRC: 0.6957255577820061
Mean absolute error: 0.2090022238474893
Coverage of cases: 75.41065830721004
Instances selection time: 3.2
Test time: 1381.4
Accumulative iteration time: 44.5
Weighted Recall: 0.6787460815047023
Weighted FalsePositiveRate: 0.1263999978544456
Kappa statistic: 0.5221013360593605
Training time: 0.2
		
Iteration: 14
Labeled set size: 579
Unlabelled set size: 1016
	
Mean region size: 38.978056426332394
Incorrectly Classified Instances: 32.26332288401254
Correctly Classified Instances: 67.73667711598745
Weighted Precision: 0.7451932050138266
Weighted AreaUnderROC: 0.8198774301825255
Root mean squared error: 0.42773346786187727
Relative absolute error: 47.16158917760262
Root relative squared error: 90.73597069967045
Weighted TruePositiveRate: 0.6773667711598746
Weighted MatthewsCorrelation: 0.540315389289552
Weighted FMeasure: 0.67697829678874
Iteration time: 2.6
Weighted AreaUnderPRC: 0.6950401038336047
Mean absolute error: 0.20960706301157198
Coverage of cases: 75.34169278996866
Instances selection time: 2.3
Test time: 1446.9
Accumulative iteration time: 47.1
Weighted Recall: 0.6773667711598746
Weighted FalsePositiveRate: 0.12654977356959876
Kappa statistic: 0.5204786327212292
Training time: 0.3
		
Iteration: 15
Labeled set size: 599
Unlabelled set size: 996
	
Mean region size: 38.877742946708565
Incorrectly Classified Instances: 31.999999999999993
Correctly Classified Instances: 68.0
Weighted Precision: 0.7457966515752703
Weighted AreaUnderROC: 0.8207996293282036
Root mean squared error: 0.42657108893353096
Relative absolute error: 46.82276784540255
Root relative squared error: 90.48939289290787
Weighted TruePositiveRate: 0.6799999999999999
Weighted MatthewsCorrelation: 0.54259937251998
Weighted FMeasure: 0.679405950589067
Iteration time: 2.6
Weighted AreaUnderPRC: 0.6962566406862838
Mean absolute error: 0.20810119042401606
Coverage of cases: 75.46081504702195
Instances selection time: 2.3
Test time: 1429.3
Accumulative iteration time: 49.7
Weighted Recall: 0.6799999999999999
Weighted FalsePositiveRate: 0.1262873639351303
Kappa statistic: 0.5239803840233204
Training time: 0.3
		
Iteration: 16
Labeled set size: 619
Unlabelled set size: 976
	
Mean region size: 38.94461859979113
Incorrectly Classified Instances: 31.87460815047022
Correctly Classified Instances: 68.12539184952978
Weighted Precision: 0.7464762659456567
Weighted AreaUnderROC: 0.8228990427777028
Root mean squared error: 0.4246885387686447
Relative absolute error: 46.52180095869802
Root relative squared error: 90.09004369665335
Weighted TruePositiveRate: 0.6812539184952978
Weighted MatthewsCorrelation: 0.5441136607297011
Weighted FMeasure: 0.6808889301352463
Iteration time: 2.8
Weighted AreaUnderPRC: 0.698628537781014
Mean absolute error: 0.20676355981644035
Coverage of cases: 75.78056426332287
Instances selection time: 2.4
Test time: 1476.6
Accumulative iteration time: 52.5
Weighted Recall: 0.6812539184952978
Weighted FalsePositiveRate: 0.12598481427070954
Kappa statistic: 0.5255051639211027
Training time: 0.4
		
Iteration: 17
Labeled set size: 639
Unlabelled set size: 956
	
Mean region size: 38.969696969697075
Incorrectly Classified Instances: 31.755485893416925
Correctly Classified Instances: 68.24451410658307
Weighted Precision: 0.7469115810220883
Weighted AreaUnderROC: 0.8232225757388898
Root mean squared error: 0.42383464677034627
Relative absolute error: 46.36246768523176
Root relative squared error: 89.90890584993404
Weighted TruePositiveRate: 0.6824451410658308
Weighted MatthewsCorrelation: 0.5453046880978832
Weighted FMeasure: 0.6820728665261054
Iteration time: 2.6
Weighted AreaUnderPRC: 0.6992640622444062
Mean absolute error: 0.20605541193436805
Coverage of cases: 75.8934169278997
Instances selection time: 2.2
Test time: 1518.9
Accumulative iteration time: 55.1
Weighted Recall: 0.6824451410658308
Weighted FalsePositiveRate: 0.12579730846957282
Kappa statistic: 0.5270676052468959
Training time: 0.4
		
Iteration: 18
Labeled set size: 659
Unlabelled set size: 936
	
Mean region size: 38.9571577847441
Incorrectly Classified Instances: 31.74921630094044
Correctly Classified Instances: 68.25078369905955
Weighted Precision: 0.7481435413112196
Weighted AreaUnderROC: 0.8237939231049471
Root mean squared error: 0.42284563815031734
Relative absolute error: 46.15139893299176
Root relative squared error: 89.69910543937173
Weighted TruePositiveRate: 0.6825078369905956
Weighted MatthewsCorrelation: 0.5463335741983311
Weighted FMeasure: 0.6820264390743039
Iteration time: 2.7
Weighted AreaUnderPRC: 0.7008887296337967
Mean absolute error: 0.20511732859107917
Coverage of cases: 76.012539184953
Instances selection time: 2.3
Test time: 1587.0
Accumulative iteration time: 57.8
Weighted Recall: 0.6825078369905956
Weighted FalsePositiveRate: 0.1250605709390954
Kappa statistic: 0.5275148943892354
Training time: 0.4
		
Iteration: 19
Labeled set size: 679
Unlabelled set size: 916
	
Mean region size: 38.965517241379416
Incorrectly Classified Instances: 31.6551724137931
Correctly Classified Instances: 68.34482758620689
Weighted Precision: 0.7488392983598852
Weighted AreaUnderROC: 0.8247986933322894
Root mean squared error: 0.42199423184873774
Relative absolute error: 45.97780990206572
Root relative squared error: 89.51849488855417
Weighted TruePositiveRate: 0.6834482758620689
Weighted MatthewsCorrelation: 0.5475142811770298
Weighted FMeasure: 0.6829600336208507
Iteration time: 2.3
Weighted AreaUnderPRC: 0.7024846941795796
Mean absolute error: 0.20434582178696342
Coverage of cases: 76.13166144200628
Instances selection time: 2.1
Test time: 1633.1
Accumulative iteration time: 60.1
Weighted Recall: 0.6834482758620689
Weighted FalsePositiveRate: 0.12476266895570384
Kappa statistic: 0.5288272276900019
Training time: 0.2
		
Iteration: 20
Labeled set size: 699
Unlabelled set size: 896
	
Mean region size: 39.019853709508986
Incorrectly Classified Instances: 31.598746081504707
Correctly Classified Instances: 68.4012539184953
Weighted Precision: 0.7505140085097253
Weighted AreaUnderROC: 0.8260221190032662
Root mean squared error: 0.42153302231997786
Relative absolute error: 45.90986064916393
Root relative squared error: 89.42065757295398
Weighted TruePositiveRate: 0.684012539184953
Weighted MatthewsCorrelation: 0.5493104838048775
Weighted FMeasure: 0.6833659579761313
Iteration time: 2.9
Weighted AreaUnderPRC: 0.7040861495223006
Mean absolute error: 0.20404382510739985
Coverage of cases: 76.23824451410658
Instances selection time: 2.3
Test time: 1666.2
Accumulative iteration time: 63.0
Weighted Recall: 0.684012539184953
Weighted FalsePositiveRate: 0.12367717640999279
Kappa statistic: 0.5300222898690042
Training time: 0.6
		
Iteration: 21
Labeled set size: 719
Unlabelled set size: 876
	
Mean region size: 39.01776384535016
Incorrectly Classified Instances: 31.460815047021942
Correctly Classified Instances: 68.53918495297806
Weighted Precision: 0.7516180445321367
Weighted AreaUnderROC: 0.8269225472608669
Root mean squared error: 0.4207066295335425
Relative absolute error: 45.733942352453525
Root relative squared error: 89.24535318999034
Weighted TruePositiveRate: 0.6853918495297806
Weighted MatthewsCorrelation: 0.5511372315850223
Weighted FMeasure: 0.6846436350035054
Iteration time: 2.3
Weighted AreaUnderPRC: 0.7055405937960532
Mean absolute error: 0.20326196601090918
Coverage of cases: 76.34482758620689
Instances selection time: 2.0
Test time: 1701.0
Accumulative iteration time: 65.3
Weighted Recall: 0.6853918495297806
Weighted FalsePositiveRate: 0.12314478032054114
Kappa statistic: 0.5320075670374806
Training time: 0.3
		
Iteration: 22
Labeled set size: 739
Unlabelled set size: 856
	
Mean region size: 38.96342737722058
Incorrectly Classified Instances: 31.203761755485896
Correctly Classified Instances: 68.7962382445141
Weighted Precision: 0.7527679907797824
Weighted AreaUnderROC: 0.8286686164368426
Root mean squared error: 0.4190257415593307
Relative absolute error: 45.36180126408267
Root relative squared error: 88.88878300449633
Weighted TruePositiveRate: 0.6879623824451411
Weighted MatthewsCorrelation: 0.5539785169899277
Weighted FMeasure: 0.6873135192469748
Iteration time: 3.0
Weighted AreaUnderPRC: 0.7079247069193567
Mean absolute error: 0.20160800561814982
Coverage of cases: 76.54545454545455
Instances selection time: 2.4
Test time: 1791.4
Accumulative iteration time: 68.3
Weighted Recall: 0.6879623824451411
Weighted FalsePositiveRate: 0.12252129944455556
Kappa statistic: 0.5353498552223724
Training time: 0.6
		
Iteration: 23
Labeled set size: 759
Unlabelled set size: 836
	
Mean region size: 38.96133751306176
Incorrectly Classified Instances: 31.040752351097176
Correctly Classified Instances: 68.95924764890283
Weighted Precision: 0.7540737411723383
Weighted AreaUnderROC: 0.8302164622933033
Root mean squared error: 0.41770004337408506
Relative absolute error: 45.113181959015584
Root relative squared error: 88.6075599515182
Weighted TruePositiveRate: 0.6895924764890282
Weighted MatthewsCorrelation: 0.5562471235243012
Weighted FMeasure: 0.6890190060047525
Iteration time: 2.1
Weighted AreaUnderPRC: 0.7099781115024915
Mean absolute error: 0.20050303092896268
Coverage of cases: 76.74608150470219
Instances selection time: 2.0
Test time: 1788.2
Accumulative iteration time: 70.4
Weighted Recall: 0.6895924764890282
Weighted FalsePositiveRate: 0.12176601101541122
Kappa statistic: 0.537625705250927
Training time: 0.1
		
Iteration: 24
Labeled set size: 779
Unlabelled set size: 816
	
Mean region size: 38.94461859979113
Incorrectly Classified Instances: 30.783699059561126
Correctly Classified Instances: 69.21630094043887
Weighted Precision: 0.7555270526841087
Weighted AreaUnderROC: 0.8321265450015707
Root mean squared error: 0.4154961385700692
Relative absolute error: 44.67675968777869
Root relative squared error: 88.14004114191542
Weighted TruePositiveRate: 0.6921630094043886
Weighted MatthewsCorrelation: 0.5593313895957421
Weighted FMeasure: 0.6918364315203525
Iteration time: 2.1
Weighted AreaUnderPRC: 0.7128378771741393
Mean absolute error: 0.198563376390132
Coverage of cases: 77.01567398119123
Instances selection time: 1.6
Test time: 1834.6
Accumulative iteration time: 72.5
Weighted Recall: 0.6921630094043886
Weighted FalsePositiveRate: 0.1210466876819453
Kappa statistic: 0.5409445902107459
Training time: 0.5
		
Iteration: 25
Labeled set size: 799
Unlabelled set size: 796
	
Mean region size: 38.95715778474409
Incorrectly Classified Instances: 30.708463949843257
Correctly Classified Instances: 69.29153605015674
Weighted Precision: 0.7560831468915985
Weighted AreaUnderROC: 0.8330428908784098
Root mean squared error: 0.41502925938031404
Relative absolute error: 44.601941653491444
Root relative squared error: 88.04100110959419
Weighted TruePositiveRate: 0.6929153605015674
Weighted MatthewsCorrelation: 0.560226837709744
Weighted FMeasure: 0.6924674392900425
Iteration time: 2.3
Weighted AreaUnderPRC: 0.714033647590257
Mean absolute error: 0.1982308517932998
Coverage of cases: 77.09717868338558
Instances selection time: 2.0
Test time: 1877.1
Accumulative iteration time: 74.8
Weighted Recall: 0.6929153605015674
Weighted FalsePositiveRate: 0.12085551510062036
Kappa statistic: 0.5420518915769508
Training time: 0.3
		
Iteration: 26
Labeled set size: 819
Unlabelled set size: 776
	
Mean region size: 38.98641588296773
Incorrectly Classified Instances: 30.71473354231975
Correctly Classified Instances: 69.28526645768025
Weighted Precision: 0.7575901320237527
Weighted AreaUnderROC: 0.8338945947376415
Root mean squared error: 0.41460200451213824
Relative absolute error: 44.543238873879616
Root relative squared error: 87.95036666521955
Weighted TruePositiveRate: 0.6928526645768025
Weighted MatthewsCorrelation: 0.5614534380241859
Weighted FMeasure: 0.6923532151901128
Iteration time: 2.0
Weighted AreaUnderPRC: 0.7154129191563113
Mean absolute error: 0.19796995055058056
Coverage of cases: 77.16614420062697
Instances selection time: 1.8
Test time: 1923.9
Accumulative iteration time: 76.8
Weighted Recall: 0.6928526645768025
Weighted FalsePositiveRate: 0.11987223636105533
Kappa statistic: 0.5423828783292312
Training time: 0.2
		
Iteration: 27
Labeled set size: 839
Unlabelled set size: 756
	
Mean region size: 39.01985370950901
Incorrectly Classified Instances: 30.63949843260188
Correctly Classified Instances: 69.36050156739812
Weighted Precision: 0.7587144126479648
Weighted AreaUnderROC: 0.8344336941172529
Root mean squared error: 0.41416233869865593
Relative absolute error: 44.48768715588733
Root relative squared error: 87.85709946176878
Weighted TruePositiveRate: 0.6936050156739813
Weighted MatthewsCorrelation: 0.5628534924684747
Weighted FMeasure: 0.6929165990311522
Iteration time: 2.1
Weighted AreaUnderPRC: 0.7163759941931837
Mean absolute error: 0.19772305402617038
Coverage of cases: 77.23510971786834
Instances selection time: 1.7
Test time: 1967.9
Accumulative iteration time: 78.9
Weighted Recall: 0.6936050156739813
Weighted FalsePositiveRate: 0.1192054602350761
Kappa statistic: 0.543695881448848
Training time: 0.4
		
Iteration: 28
Labeled set size: 859
Unlabelled set size: 736
	
Mean region size: 39.084639498432715
Incorrectly Classified Instances: 30.445141065830718
Correctly Classified Instances: 69.55485893416927
Weighted Precision: 0.7604557211111871
Weighted AreaUnderROC: 0.8363219260120209
Root mean squared error: 0.411984683556863
Relative absolute error: 44.14596669655673
Root relative squared error: 87.39514904641453
Weighted TruePositiveRate: 0.6955485893416927
Weighted MatthewsCorrelation: 0.5656025349176277
Weighted FMeasure: 0.6947992700292517
Iteration time: 2.1
Weighted AreaUnderPRC: 0.7192227236716688
Mean absolute error: 0.19620429642914544
Coverage of cases: 77.54858934169279
Instances selection time: 1.9
Test time: 2017.1
Accumulative iteration time: 81.0
Weighted Recall: 0.6955485893416927
Weighted FalsePositiveRate: 0.11830442980735507
Kappa statistic: 0.5465324482391093
Training time: 0.2
		
Iteration: 29
Labeled set size: 879
Unlabelled set size: 716
	
Mean region size: 39.07419017763857
Incorrectly Classified Instances: 30.35736677115987
Correctly Classified Instances: 69.64263322884013
Weighted Precision: 0.761734263429225
Weighted AreaUnderROC: 0.836765626836604
Root mean squared error: 0.41173696191621384
Relative absolute error: 44.07992504193163
Root relative squared error: 87.34259935082962
Weighted TruePositiveRate: 0.6964263322884012
Weighted MatthewsCorrelation: 0.5672762820221383
Weighted FMeasure: 0.6955749923705328
Iteration time: 1.8
Weighted AreaUnderPRC: 0.7198959270142422
Mean absolute error: 0.19591077796414508
Coverage of cases: 77.57366771159874
Instances selection time: 1.5
Test time: 2061.2
Accumulative iteration time: 82.8
Weighted Recall: 0.6964263322884012
Weighted FalsePositiveRate: 0.11754934386635627
Kappa statistic: 0.5479825481755407
Training time: 0.3
		
Iteration: 30
Labeled set size: 899
Unlabelled set size: 696
	
Mean region size: 39.00104493207954
Incorrectly Classified Instances: 30.188087774294672
Correctly Classified Instances: 69.81191222570533
Weighted Precision: 0.7634595231322457
Weighted AreaUnderROC: 0.8376227689375382
Root mean squared error: 0.4108256998160349
Relative absolute error: 43.83144293642734
Root relative squared error: 87.14929146768718
Weighted TruePositiveRate: 0.6981191222570532
Weighted MatthewsCorrelation: 0.5699318428761607
Weighted FMeasure: 0.697361330352585
Iteration time: 1.9
Weighted AreaUnderPRC: 0.7211062804283663
Mean absolute error: 0.19480641305079258
Coverage of cases: 77.64263322884014
Instances selection time: 1.6
Test time: 2101.6
Accumulative iteration time: 84.7
Weighted Recall: 0.6981191222570532
Weighted FalsePositiveRate: 0.11658245883608154
Kappa statistic: 0.5503957483326808
Training time: 0.3
		
Iteration: 31
Labeled set size: 919
Unlabelled set size: 676
	
Mean region size: 38.959247648902945
Incorrectly Classified Instances: 30.225705329153605
Correctly Classified Instances: 69.77429467084639
Weighted Precision: 0.7633685980121355
Weighted AreaUnderROC: 0.8384187471118855
Root mean squared error: 0.4109518534859877
Relative absolute error: 43.813604114358995
Root relative squared error: 87.17605270233575
Weighted TruePositiveRate: 0.6977429467084638
Weighted MatthewsCorrelation: 0.5695725063005077
Weighted FMeasure: 0.6967803780639666
Iteration time: 2.0
Weighted AreaUnderPRC: 0.7220571367248725
Mean absolute error: 0.1947271293971555
Coverage of cases: 77.62382445141066
Instances selection time: 1.6
Test time: 2182.2
Accumulative iteration time: 86.7
Weighted Recall: 0.6977429467084638
Weighted FalsePositiveRate: 0.11655881450810171
Kappa statistic: 0.5500333743442412
Training time: 0.4
		
Iteration: 32
Labeled set size: 939
Unlabelled set size: 656
	
Mean region size: 38.99268547544422
Incorrectly Classified Instances: 30.07523510971787
Correctly Classified Instances: 69.92476489028212
Weighted Precision: 0.7645584070292195
Weighted AreaUnderROC: 0.8400693437751524
Root mean squared error: 0.4093128419517097
Relative absolute error: 43.54055900278438
Root relative squared error: 86.82836585123647
Weighted TruePositiveRate: 0.6992476489028213
Weighted MatthewsCorrelation: 0.571662578788979
Weighted FMeasure: 0.6984288621335766
Iteration time: 1.7
Weighted AreaUnderPRC: 0.7241582562693212
Mean absolute error: 0.19351359556793496
Coverage of cases: 77.86206896551724
Instances selection time: 1.5
Test time: 2210.3
Accumulative iteration time: 88.4
Weighted Recall: 0.6992476489028213
Weighted FalsePositiveRate: 0.11593882342541159
Kappa statistic: 0.552076019110727
Training time: 0.2
		
Iteration: 33
Labeled set size: 959
Unlabelled set size: 636
	
Mean region size: 38.978056426332394
Incorrectly Classified Instances: 29.92476489028213
Correctly Classified Instances: 70.07523510971787
Weighted Precision: 0.7651623958823859
Weighted AreaUnderROC: 0.8409064707443206
Root mean squared error: 0.40828005762507635
Relative absolute error: 43.32390236284304
Root relative squared error: 86.60927921097678
Weighted TruePositiveRate: 0.7007523510971787
Weighted MatthewsCorrelation: 0.5732488437204807
Weighted FMeasure: 0.6999505987057502
Iteration time: 1.7
Weighted AreaUnderPRC: 0.7253282288878383
Mean absolute error: 0.19255067716819568
Coverage of cases: 77.98746081504703
Instances selection time: 1.5
Test time: 2237.8
Accumulative iteration time: 90.1
Weighted Recall: 0.7007523510971787
Weighted FalsePositiveRate: 0.11560656184144287
Kappa statistic: 0.5540775121246098
Training time: 0.2
		
Iteration: 34
Labeled set size: 979
Unlabelled set size: 616
	
Mean region size: 38.927899686520476
Incorrectly Classified Instances: 29.811912225705328
Correctly Classified Instances: 70.18808777429467
Weighted Precision: 0.7660406085613019
Weighted AreaUnderROC: 0.8421375346575797
Root mean squared error: 0.40735213273206217
Relative absolute error: 43.10093974602863
Root relative squared error: 86.41243661569213
Weighted TruePositiveRate: 0.7018808777429467
Weighted MatthewsCorrelation: 0.574951463378312
Weighted FMeasure: 0.7013066101537178
Iteration time: 1.8
Weighted AreaUnderPRC: 0.7268010621865617
Mean absolute error: 0.19155973220457603
Coverage of cases: 78.10031347962384
Instances selection time: 1.2
Test time: 2316.8
Accumulative iteration time: 91.9
Weighted Recall: 0.7018808777429467
Weighted FalsePositiveRate: 0.11496394500965171
Kappa statistic: 0.5555702080910414
Training time: 0.6
		
Iteration: 35
Labeled set size: 999
Unlabelled set size: 596
	
Mean region size: 38.9153605015675
Incorrectly Classified Instances: 29.60501567398119
Correctly Classified Instances: 70.39498432601881
Weighted Precision: 0.7674228160117098
Weighted AreaUnderROC: 0.8435151041982806
Root mean squared error: 0.4055595319932652
Relative absolute error: 42.76332927502673
Root relative squared error: 86.03216857418315
Weighted TruePositiveRate: 0.7039498432601883
Weighted MatthewsCorrelation: 0.5776344822398961
Weighted FMeasure: 0.7035426257028554
Iteration time: 1.7
Weighted AreaUnderPRC: 0.7285279650780431
Mean absolute error: 0.19005924122234535
Coverage of cases: 78.31974921630095
Instances selection time: 1.2
Test time: 2352.9
Accumulative iteration time: 93.6
Weighted Recall: 0.7039498432601883
Weighted FalsePositiveRate: 0.11421313640723259
Kappa statistic: 0.5583537305848478
Training time: 0.5
		
Iteration: 36
Labeled set size: 1019
Unlabelled set size: 576
	
Mean region size: 38.92789968652047
Incorrectly Classified Instances: 29.366771159874606
Correctly Classified Instances: 70.6332288401254
Weighted Precision: 0.7686573564537903
Weighted AreaUnderROC: 0.8449745927593163
Root mean squared error: 0.4039443024562136
Relative absolute error: 42.46812749445431
Root relative squared error: 85.68952664653654
Weighted TruePositiveRate: 0.706332288401254
Weighted MatthewsCorrelation: 0.5804193252819372
Weighted FMeasure: 0.7060665846553319
Iteration time: 1.4
Weighted AreaUnderPRC: 0.7301114639401867
Mean absolute error: 0.18874723330869012
Coverage of cases: 78.53291536050156
Instances selection time: 1.3
Test time: 2387.3
Accumulative iteration time: 95.0
Weighted Recall: 0.706332288401254
Weighted FalsePositiveRate: 0.11355426976617974
Kappa statistic: 0.56149897823938
Training time: 0.1
		
Iteration: 37
Labeled set size: 1039
Unlabelled set size: 556
	
Mean region size: 38.91954022988516
Incorrectly Classified Instances: 29.228840125391848
Correctly Classified Instances: 70.77115987460816
Weighted Precision: 0.769963110316593
Weighted AreaUnderROC: 0.8457699594025951
Root mean squared error: 0.40304818590757696
Relative absolute error: 42.288810364531216
Root relative squared error: 85.49943162005422
Weighted TruePositiveRate: 0.7077115987460816
Weighted MatthewsCorrelation: 0.5823908831424558
Weighted FMeasure: 0.7072871968326263
Iteration time: 1.6
Weighted AreaUnderPRC: 0.7310847850449804
Mean absolute error: 0.18795026828680966
Coverage of cases: 78.65203761755485
Instances selection time: 1.2
Test time: 2419.3
Accumulative iteration time: 96.6
Weighted Recall: 0.7077115987460816
Weighted FalsePositiveRate: 0.11287843390291045
Kappa statistic: 0.5635934522340025
Training time: 0.4
		
Iteration: 38
Labeled set size: 1059
Unlabelled set size: 536
	
Mean region size: 38.87774294670855
Incorrectly Classified Instances: 29.266457680250785
Correctly Classified Instances: 70.73354231974922
Weighted Precision: 0.7697734472599838
Weighted AreaUnderROC: 0.8452705752629075
Root mean squared error: 0.40374705391746496
Relative absolute error: 42.37191435908743
Root relative squared error: 85.64768391273805
Weighted TruePositiveRate: 0.7073354231974921
Weighted MatthewsCorrelation: 0.58197833805755
Weighted FMeasure: 0.7069472256774902
Iteration time: 1.7
Weighted AreaUnderPRC: 0.7303290727313883
Mean absolute error: 0.1883196193737262
Coverage of cases: 78.54545454545455
Instances selection time: 1.2
Test time: 2462.2
Accumulative iteration time: 98.3
Weighted Recall: 0.7073354231974921
Weighted FalsePositiveRate: 0.11295008356771494
Kappa statistic: 0.5630723509861516
Training time: 0.5
		
Iteration: 39
Labeled set size: 1079
Unlabelled set size: 516
	
Mean region size: 38.83176593521431
Incorrectly Classified Instances: 29.153605015673982
Correctly Classified Instances: 70.84639498432603
Weighted Precision: 0.7712667888447409
Weighted AreaUnderROC: 0.8464565620272152
Root mean squared error: 0.4031528257080662
Relative absolute error: 42.21534944973216
Root relative squared error: 85.52162907380661
Weighted TruePositiveRate: 0.7084639498432602
Weighted MatthewsCorrelation: 0.5840550318317759
Weighted FMeasure: 0.7081616214447315
Iteration time: 1.5
Weighted AreaUnderPRC: 0.7320315309846869
Mean absolute error: 0.18762377533214714
Coverage of cases: 78.58934169278996
Instances selection time: 1.0
Test time: 2544.0
Accumulative iteration time: 99.8
Weighted Recall: 0.7084639498432602
Weighted FalsePositiveRate: 0.11206682299339281
Kappa statistic: 0.5647783418252073
Training time: 0.5
		
Iteration: 40
Labeled set size: 1099
Unlabelled set size: 496
	
Mean region size: 38.835945663531966
Incorrectly Classified Instances: 29.040752351097183
Correctly Classified Instances: 70.95924764890282
Weighted Precision: 0.7717818058287645
Weighted AreaUnderROC: 0.8470529420690559
Root mean squared error: 0.4023173679806156
Relative absolute error: 42.061228531651494
Root relative squared error: 85.3444017264641
Weighted TruePositiveRate: 0.7095924764890281
Weighted MatthewsCorrelation: 0.5852896369984834
Weighted FMeasure: 0.7093459014429344
Iteration time: 1.8
Weighted AreaUnderPRC: 0.7328920377604733
Mean absolute error: 0.18693879347401093
Coverage of cases: 78.69592476489028
Instances selection time: 1.3
Test time: 2595.9
Accumulative iteration time: 101.6
Weighted Recall: 0.7095924764890281
Weighted FalsePositiveRate: 0.11185197222373519
Kappa statistic: 0.5662377631553217
Training time: 0.5
		
Iteration: 41
Labeled set size: 1119
Unlabelled set size: 476
	
Mean region size: 38.7962382445142
Incorrectly Classified Instances: 28.952978056426332
Correctly Classified Instances: 71.04702194357365
Weighted Precision: 0.7722495655093973
Weighted AreaUnderROC: 0.847052880531656
Root mean squared error: 0.4022067714783268
Relative absolute error: 41.99186393298955
Root relative squared error: 85.32094066544093
Weighted TruePositiveRate: 0.7104702194357367
Weighted MatthewsCorrelation: 0.5862622147600116
Weighted FMeasure: 0.7102938190103314
Iteration time: 1.5
Weighted AreaUnderPRC: 0.7331298113467776
Mean absolute error: 0.1866305063688467
Coverage of cases: 78.67084639498432
Instances selection time: 1.1
Test time: 2603.3
Accumulative iteration time: 103.1
Weighted Recall: 0.7104702194357367
Weighted FalsePositiveRate: 0.11171657515530635
Kappa statistic: 0.5673568226335938
Training time: 0.4
		
Iteration: 42
Labeled set size: 1139
Unlabelled set size: 456
	
Mean region size: 38.785788923720055
Incorrectly Classified Instances: 28.815047021943577
Correctly Classified Instances: 71.18495297805643
Weighted Precision: 0.7729711942302742
Weighted AreaUnderROC: 0.8476678641480161
Root mean squared error: 0.40141474845285235
Relative absolute error: 41.83284629516753
Root relative squared error: 85.15292720979028
Weighted TruePositiveRate: 0.7118495297805643
Weighted MatthewsCorrelation: 0.587874968375039
Weighted FMeasure: 0.7117631256888338
Iteration time: 1.6
Weighted AreaUnderPRC: 0.7340905050834083
Mean absolute error: 0.1859237613118599
Coverage of cases: 78.75862068965516
Instances selection time: 1.0
Test time: 2646.4
Accumulative iteration time: 104.7
Weighted Recall: 0.7118495297805643
Weighted FalsePositiveRate: 0.11132744907652592
Kappa statistic: 0.5691834985410082
Training time: 0.6
		
Iteration: 43
Labeled set size: 1159
Unlabelled set size: 436
	
Mean region size: 38.769070010449404
Incorrectly Classified Instances: 28.739811912225708
Correctly Classified Instances: 71.2601880877743
Weighted Precision: 0.7739610913808995
Weighted AreaUnderROC: 0.8480150244143623
Root mean squared error: 0.40118035057053075
Relative absolute error: 41.767623102820835
Root relative squared error: 85.10320391016468
Weighted TruePositiveRate: 0.7126018808777429
Weighted MatthewsCorrelation: 0.5892773897089347
Weighted FMeasure: 0.7125685244716451
Iteration time: 1.2
Weighted AreaUnderPRC: 0.7346044428512404
Mean absolute error: 0.18563388045698567
Coverage of cases: 78.76489028213166
Instances selection time: 1.0
Test time: 2686.4
Accumulative iteration time: 105.9
Weighted Recall: 0.7126018808777429
Weighted FalsePositiveRate: 0.11070755544510294
Kappa statistic: 0.5703260506027027
Training time: 0.2
		
Iteration: 44
Labeled set size: 1179
Unlabelled set size: 416
	
Mean region size: 38.70637408568451
Incorrectly Classified Instances: 28.633228840125394
Correctly Classified Instances: 71.36677115987462
Weighted Precision: 0.7749499113192987
Weighted AreaUnderROC: 0.8478908278711016
Root mean squared error: 0.40115702445596363
Relative absolute error: 41.68830923823686
Root relative squared error: 85.0982556940279
Weighted TruePositiveRate: 0.713667711598746
Weighted MatthewsCorrelation: 0.5907994568567624
Weighted FMeasure: 0.7135320710345483
Iteration time: 1.5
Weighted AreaUnderPRC: 0.7344600080411321
Mean absolute error: 0.18528137439216802
Coverage of cases: 78.7398119122257
Instances selection time: 1.0
Test time: 2771.3
Accumulative iteration time: 107.4
Weighted Recall: 0.713667711598746
Weighted FalsePositiveRate: 0.11017926424875331
Kappa statistic: 0.5719233280778997
Training time: 0.5
		
Iteration: 45
Labeled set size: 1199
Unlabelled set size: 396
	
Mean region size: 38.72100313479632
Incorrectly Classified Instances: 28.695924764890286
Correctly Classified Instances: 71.3040752351097
Weighted Precision: 0.7756013558398038
Weighted AreaUnderROC: 0.8480071328543412
Root mean squared error: 0.40149430921999346
Relative absolute error: 41.75613956123402
Root relative squared error: 85.16980459717884
Weighted TruePositiveRate: 0.7130407523510971
Weighted MatthewsCorrelation: 0.5907176682329502
Weighted FMeasure: 0.7125153199343055
Iteration time: 1.4
Weighted AreaUnderPRC: 0.7347121268824863
Mean absolute error: 0.1855828424943776
Coverage of cases: 78.6959247648903
Instances selection time: 0.8
Test time: 2807.1
Accumulative iteration time: 108.8
Weighted Recall: 0.7130407523510971
Weighted FalsePositiveRate: 0.10975735911049234
Kappa statistic: 0.5715366959932422
Training time: 0.6
		
Iteration: 46
Labeled set size: 1219
Unlabelled set size: 376
	
Mean region size: 38.7398119122258
Incorrectly Classified Instances: 28.595611285266454
Correctly Classified Instances: 71.40438871473354
Weighted Precision: 0.7765445232030387
Weighted AreaUnderROC: 0.8489825984170464
Root mean squared error: 0.40064469327490426
Relative absolute error: 41.617897504259815
Root relative squared error: 84.98957383832581
Weighted TruePositiveRate: 0.7140438871473355
Weighted MatthewsCorrelation: 0.5922010283925916
Weighted FMeasure: 0.7134870903469436
Iteration time: 1.4
Weighted AreaUnderPRC: 0.7363378699092544
Mean absolute error: 0.18496843335227006
Coverage of cases: 78.80250783699059
Instances selection time: 1.1
Test time: 2860.9
Accumulative iteration time: 110.2
Weighted Recall: 0.7140438871473355
Weighted FalsePositiveRate: 0.10920158895167068
Kappa statistic: 0.5730386854786003
Training time: 0.3
		
Time end:Sun Oct 08 09.41.42 EEST 2017