Sun Oct 08 06.41.24 EEST 2017
Dataset: splice
Test set size: 1595
Initial Labelled set size: 319
Initial Unlabelled set size: 1276
Batch mode: QBestBatchMode
Batch size: 20
Classifiers: SMO-1cores
Scenario: PoolBasedSamplingScenario
Query strategy: EntropySamplingQueryStrategy-1cores
Time begining: Sun Oct 08 06.41.24 EEST 2017
		
Iteration: 1
Labeled set size: 319
Unlabelled set size: 1276
	
Mean region size: 66.9592476489017
Incorrectly Classified Instances: 10.470219435736677
Correctly Classified Instances: 89.52978056426332
Weighted Precision: 0.8990838407634338
Weighted AreaUnderROC: 0.9372166449788145
Root mean squared error: 0.31716262102955395
Relative absolute error: 56.11285266457675
Root relative squared error: 67.28035202066825
Weighted TruePositiveRate: 0.8952978056426333
Weighted MatthewsCorrelation: 0.8364664064761673
Weighted FMeasure: 0.8962153578423345
Iteration time: 966.0
Weighted AreaUnderPRC: 0.8573509638985941
Mean absolute error: 0.24939045628701345
Coverage of cases: 98.62068965517241
Instances selection time: 151.0
Test time: 190.0
Accumulative iteration time: 966.0
Weighted Recall: 0.8952978056426333
Weighted FalsePositiveRate: 0.049885316513737094
Kappa statistic: 0.8322021448693979
Training time: 815.0
		
Iteration: 2
Labeled set size: 339
Unlabelled set size: 1256
	
Mean region size: 66.93834900731339
Incorrectly Classified Instances: 10.532915360501567
Correctly Classified Instances: 89.46708463949844
Weighted Precision: 0.8980746842394445
Weighted AreaUnderROC: 0.9375882368559656
Root mean squared error: 0.31679634001922685
Relative absolute error: 56.05015673981184
Root relative squared error: 67.20265208480161
Weighted TruePositiveRate: 0.8946708463949843
Weighted MatthewsCorrelation: 0.8346507214401646
Weighted FMeasure: 0.8955263159087096
Iteration time: 1005.0
Weighted AreaUnderPRC: 0.8578715157349754
Mean absolute error: 0.24911180773250274
Coverage of cases: 98.68338557993731
Instances selection time: 153.0
Test time: 197.0
Accumulative iteration time: 1971.0
Weighted Recall: 0.8946708463949843
Weighted FalsePositiveRate: 0.05151817249739357
Kappa statistic: 0.8310549670318863
Training time: 852.0
		
Iteration: 3
Labeled set size: 359
Unlabelled set size: 1236
	
Mean region size: 66.9592476489017
Incorrectly Classified Instances: 9.153605015673982
Correctly Classified Instances: 90.84639498432603
Weighted Precision: 0.9105601073887081
Weighted AreaUnderROC: 0.9431690267935949
Root mean squared error: 0.31251610895436244
Relative absolute error: 55.4545454545454
Root relative squared error: 66.29467796149834
Weighted TruePositiveRate: 0.9084639498432602
Weighted MatthewsCorrelation: 0.854709651114822
Weighted FMeasure: 0.909010130965309
Iteration time: 1060.0
Weighted AreaUnderPRC: 0.8733213169230233
Mean absolute error: 0.24646464646465183
Coverage of cases: 98.62068965517241
Instances selection time: 150.0
Test time: 195.0
Accumulative iteration time: 3031.0
Weighted Recall: 0.9084639498432602
Weighted FalsePositiveRate: 0.04714855959145763
Kappa statistic: 0.85264246291541
Training time: 910.0
		
Iteration: 4
Labeled set size: 379
Unlabelled set size: 1216
	
Mean region size: 67.0219435736666
Incorrectly Classified Instances: 8.96551724137931
Correctly Classified Instances: 91.03448275862068
Weighted Precision: 0.9120336115318421
Weighted AreaUnderROC: 0.9436767578345854
Root mean squared error: 0.31139957766461146
Relative absolute error: 55.32915360501563
Root relative squared error: 66.05782590758137
Weighted TruePositiveRate: 0.9103448275862069
Weighted MatthewsCorrelation: 0.8561943569031424
Weighted FMeasure: 0.9107280493196698
Iteration time: 1106.0
Weighted AreaUnderPRC: 0.874803885700561
Mean absolute error: 0.24590734935563058
Coverage of cases: 98.87147335423198
Instances selection time: 148.0
Test time: 196.0
Accumulative iteration time: 4137.0
Weighted Recall: 0.9103448275862069
Weighted FalsePositiveRate: 0.04798960385599978
Kappa statistic: 0.8555486945645119
Training time: 958.0
		
Iteration: 5
Labeled set size: 399
Unlabelled set size: 1196
	
Mean region size: 66.89655172413681
Incorrectly Classified Instances: 8.338557993730408
Correctly Classified Instances: 91.6614420062696
Weighted Precision: 0.9174574876090709
Weighted AreaUnderROC: 0.9480633425248384
Root mean squared error: 0.3080257015426937
Relative absolute error: 54.79623824451408
Root relative squared error: 65.34211870217396
Weighted TruePositiveRate: 0.9166144200626959
Weighted MatthewsCorrelation: 0.8653399142589676
Weighted FMeasure: 0.9168610719553731
Iteration time: 1176.0
Weighted AreaUnderPRC: 0.8819288772543694
Mean absolute error: 0.2435388366422903
Coverage of cases: 99.18495297805643
Instances selection time: 146.0
Test time: 197.0
Accumulative iteration time: 5313.0
Weighted Recall: 0.9166144200626959
Weighted FalsePositiveRate: 0.046966449486368085
Kappa statistic: 0.8652318760109118
Training time: 1030.0
		
Iteration: 6
Labeled set size: 419
Unlabelled set size: 1176
	
Mean region size: 67.02194357366662
Incorrectly Classified Instances: 9.216300940438872
Correctly Classified Instances: 90.78369905956113
Weighted Precision: 0.9081373466830353
Weighted AreaUnderROC: 0.9407602488992887
Root mean squared error: 0.3125161089543623
Relative absolute error: 55.48589341692787
Root relative squared error: 66.29467796149831
Weighted TruePositiveRate: 0.9078369905956113
Weighted MatthewsCorrelation: 0.8510431185094997
Weighted FMeasure: 0.9079369211996752
Iteration time: 1393.0
Weighted AreaUnderPRC: 0.8688954508773509
Mean absolute error: 0.24660397074190726
Coverage of cases: 98.87147335423198
Instances selection time: 144.0
Test time: 196.0
Accumulative iteration time: 6706.0
Weighted Recall: 0.9078369905956113
Weighted FalsePositiveRate: 0.05500585815681298
Kappa statistic: 0.8504964958671575
Training time: 1249.0
		
Iteration: 7
Labeled set size: 439
Unlabelled set size: 1156
	
Mean region size: 67.04284221525491
Incorrectly Classified Instances: 8.84012539184953
Correctly Classified Instances: 91.15987460815047
Weighted Precision: 0.9118033189381152
Weighted AreaUnderROC: 0.9433860327906116
Root mean squared error: 0.3108771573940998
Relative absolute error: 55.26645768025075
Root relative squared error: 65.94700383280895
Weighted TruePositiveRate: 0.9115987460815047
Weighted MatthewsCorrelation: 0.8581838166805624
Weighted FMeasure: 0.9116762520565513
Iteration time: 1358.0
Weighted AreaUnderPRC: 0.8743695939168472
Mean absolute error: 0.24562870080112
Coverage of cases: 98.87147335423198
Instances selection time: 141.0
Test time: 198.0
Accumulative iteration time: 8064.0
Weighted Recall: 0.9115987460815047
Weighted FalsePositiveRate: 0.052853589770467085
Kappa statistic: 0.8563554085083688
Training time: 1217.0
		
Iteration: 8
Labeled set size: 459
Unlabelled set size: 1136
	
Mean region size: 67.02194357366662
Incorrectly Classified Instances: 9.717868338557993
Correctly Classified Instances: 90.28213166144201
Weighted Precision: 0.9025027856493457
Weighted AreaUnderROC: 0.9355497251046961
Root mean squared error: 0.31407258443990616
Relative absolute error: 55.70532915360499
Root relative squared error: 66.6248562726719
Weighted TruePositiveRate: 0.9028213166144201
Weighted MatthewsCorrelation: 0.8418718099544243
Weighted FMeasure: 0.9025469862751955
Iteration time: 1442.0
Weighted AreaUnderPRC: 0.8608376424060955
Mean absolute error: 0.24757924068269446
Coverage of cases: 98.87147335423198
Instances selection time: 139.0
Test time: 198.0
Accumulative iteration time: 9506.0
Weighted Recall: 0.9028213166144201
Weighted FalsePositiveRate: 0.0647253113864621
Kappa statistic: 0.8411451556420859
Training time: 1303.0
		
Iteration: 9
Labeled set size: 479
Unlabelled set size: 1116
	
Mean region size: 66.89655172413681
Incorrectly Classified Instances: 9.153605015673982
Correctly Classified Instances: 90.84639498432603
Weighted Precision: 0.9082031839186882
Weighted AreaUnderROC: 0.9384875361793059
Root mean squared error: 0.312069975809055
Relative absolute error: 55.360501567398096
Root relative squared error: 66.20003882979064
Weighted TruePositiveRate: 0.9084639498432602
Weighted MatthewsCorrelation: 0.8508173345629049
Weighted FMeasure: 0.9082413556162328
Iteration time: 1447.0
Weighted AreaUnderPRC: 0.8669843166756425
Mean absolute error: 0.24604667363288601
Coverage of cases: 98.87147335423198
Instances selection time: 139.0
Test time: 199.0
Accumulative iteration time: 10953.0
Weighted Recall: 0.9084639498432602
Weighted FalsePositiveRate: 0.06102604556826974
Kappa statistic: 0.850454506047772
Training time: 1308.0
		
Iteration: 10
Labeled set size: 499
Unlabelled set size: 1096
	
Mean region size: 66.91745036572509
Incorrectly Classified Instances: 8.526645768025078
Correctly Classified Instances: 91.47335423197492
Weighted Precision: 0.9147216175813758
Weighted AreaUnderROC: 0.9433832756488121
Root mean squared error: 0.3095297422315082
Relative absolute error: 55.0156739811912
Root relative squared error: 65.66117391324632
Weighted TruePositiveRate: 0.9147335423197492
Weighted MatthewsCorrelation: 0.8613397393394577
Weighted FMeasure: 0.9146950076502269
Iteration time: 1537.0
Weighted AreaUnderPRC: 0.877018718140445
Mean absolute error: 0.24451410658307754
Coverage of cases: 98.93416927899686
Instances selection time: 141.0
Test time: 208.0
Accumulative iteration time: 12490.0
Weighted Recall: 0.9147335423197492
Weighted FalsePositiveRate: 0.05426055368995303
Kappa statistic: 0.8611722661969958
Training time: 1396.0
		
Iteration: 11
Labeled set size: 519
Unlabelled set size: 1076
	
Mean region size: 66.85475444096018
Incorrectly Classified Instances: 8.77742946708464
Correctly Classified Instances: 91.22257053291536
Weighted Precision: 0.9123577847439917
Weighted AreaUnderROC: 0.9434263830133748
Root mean squared error: 0.30997953138943635
Relative absolute error: 55.04702194357365
Root relative squared error: 65.75658860234887
Weighted TruePositiveRate: 0.9122257053291536
Weighted MatthewsCorrelation: 0.8586658144222845
Weighted FMeasure: 0.9122452663621774
Iteration time: 1725.0
Weighted AreaUnderPRC: 0.8757190321881966
Mean absolute error: 0.24465343086033287
Coverage of cases: 98.87147335423198
Instances selection time: 140.0
Test time: 211.0
Accumulative iteration time: 14215.0
Weighted Recall: 0.9122257053291536
Weighted FalsePositiveRate: 0.05362035797918622
Kappa statistic: 0.8572513501350134
Training time: 1585.0
		
Iteration: 12
Labeled set size: 539
Unlabelled set size: 1056
	
Mean region size: 66.7920585161953
Incorrectly Classified Instances: 8.526645768025078
Correctly Classified Instances: 91.47335423197492
Weighted Precision: 0.9147495455366369
Weighted AreaUnderROC: 0.9436713997856048
Root mean squared error: 0.3093046023722386
Relative absolute error: 54.921630094043856
Root relative squared error: 65.61341453688485
Weighted TruePositiveRate: 0.9147335423197492
Weighted MatthewsCorrelation: 0.861791135558369
Weighted FMeasure: 0.9146804952832489
Iteration time: 1770.0
Weighted AreaUnderPRC: 0.8764032540036699
Mean absolute error: 0.24409613375131156
Coverage of cases: 98.93416927899686
Instances selection time: 132.0
Test time: 201.0
Accumulative iteration time: 15985.0
Weighted Recall: 0.9147335423197492
Weighted FalsePositiveRate: 0.05426191633653974
Kappa statistic: 0.8610930565098702
Training time: 1638.0
		
Iteration: 13
Labeled set size: 559
Unlabelled set size: 1036
	
Mean region size: 66.8129571577836
Incorrectly Classified Instances: 8.087774294670846
Correctly Classified Instances: 91.91222570532915
Weighted Precision: 0.9190328891165439
Weighted AreaUnderROC: 0.9468283279444436
Root mean squared error: 0.30742202491827797
Relative absolute error: 54.670846394984295
Root relative squared error: 65.2140595517435
Weighted TruePositiveRate: 0.9191222570532915
Weighted MatthewsCorrelation: 0.869315821665924
Weighted FMeasure: 0.9189435664680085
Iteration time: 1869.0
Weighted AreaUnderPRC: 0.8826037876772539
Mean absolute error: 0.24298153953326904
Coverage of cases: 98.99686520376176
Instances selection time: 133.0
Test time: 205.0
Accumulative iteration time: 17854.0
Weighted Recall: 0.9191222570532915
Weighted FalsePositiveRate: 0.052872328219152866
Kappa statistic: 0.867941881719878
Training time: 1736.0
		
Iteration: 14
Labeled set size: 579
Unlabelled set size: 1016
	
Mean region size: 66.91745036572509
Incorrectly Classified Instances: 8.401253918495298
Correctly Classified Instances: 91.5987460815047
Weighted Precision: 0.9159237208095405
Weighted AreaUnderROC: 0.94531413222975
Root mean squared error: 0.30840239937397923
Relative absolute error: 54.858934169278974
Root relative squared error: 65.42202837946203
Weighted TruePositiveRate: 0.915987460815047
Weighted MatthewsCorrelation: 0.8646076247602722
Weighted FMeasure: 0.9156836535122699
Iteration time: 2079.0
Weighted AreaUnderPRC: 0.8783021023601907
Mean absolute error: 0.24381748519680096
Coverage of cases: 99.12225705329153
Instances selection time: 126.0
Test time: 204.0
Accumulative iteration time: 19933.0
Weighted Recall: 0.915987460815047
Weighted FalsePositiveRate: 0.056257799451484646
Kappa statistic: 0.8625093759689575
Training time: 1953.0
		
Iteration: 15
Labeled set size: 599
Unlabelled set size: 996
	
Mean region size: 66.8129571577836
Incorrectly Classified Instances: 8.77742946708464
Correctly Classified Instances: 91.22257053291536
Weighted Precision: 0.912165632069654
Weighted AreaUnderROC: 0.9438887352467218
Root mean squared error: 0.3094547138114916
Relative absolute error: 54.9529780564263
Root relative squared error: 65.64525798187368
Weighted TruePositiveRate: 0.9122257053291536
Weighted MatthewsCorrelation: 0.8585694361736889
Weighted FMeasure: 0.9120337686492962
Iteration time: 2090.0
Weighted AreaUnderPRC: 0.8738051216347313
Mean absolute error: 0.24423545802856692
Coverage of cases: 99.12225705329153
Instances selection time: 125.0
Test time: 204.0
Accumulative iteration time: 22023.0
Weighted Recall: 0.9122257053291536
Weighted FalsePositiveRate: 0.056491186071882055
Kappa statistic: 0.8567217578886446
Training time: 1965.0
		
Iteration: 16
Labeled set size: 619
Unlabelled set size: 976
	
Mean region size: 66.85475444096019
Incorrectly Classified Instances: 8.84012539184953
Correctly Classified Instances: 91.15987460815047
Weighted Precision: 0.9112528328453364
Weighted AreaUnderROC: 0.9430743633540565
Root mean squared error: 0.3095297422315083
Relative absolute error: 54.98432601880876
Root relative squared error: 65.66117391324634
Weighted TruePositiveRate: 0.9115987460815047
Weighted MatthewsCorrelation: 0.8577578612983906
Weighted FMeasure: 0.9112447615310123
Iteration time: 2216.0
Weighted AreaUnderPRC: 0.8735313712284577
Mean absolute error: 0.24437478230582224
Coverage of cases: 99.05956112852665
Instances selection time: 124.0
Test time: 208.0
Accumulative iteration time: 24239.0
Weighted Recall: 0.9115987460815047
Weighted FalsePositiveRate: 0.05811859146919171
Kappa statistic: 0.855411392344027
Training time: 2092.0
		
Iteration: 17
Labeled set size: 639
Unlabelled set size: 956
	
Mean region size: 66.87565308254848
Incorrectly Classified Instances: 8.714733542319749
Correctly Classified Instances: 91.28526645768025
Weighted Precision: 0.9125988306662663
Weighted AreaUnderROC: 0.9447099600270948
Root mean squared error: 0.30877863764902236
Relative absolute error: 54.89028213166142
Root relative squared error: 65.50184057014951
Weighted TruePositiveRate: 0.9128526645768025
Weighted MatthewsCorrelation: 0.8597971409599798
Weighted FMeasure: 0.9126496394374397
Iteration time: 2362.0
Weighted AreaUnderPRC: 0.8763546190779818
Mean absolute error: 0.2439568094740563
Coverage of cases: 99.12225705329153
Instances selection time: 121.0
Test time: 204.0
Accumulative iteration time: 26601.0
Weighted Recall: 0.9128526645768025
Weighted FalsePositiveRate: 0.05580755112179952
Kappa statistic: 0.8577466343112256
Training time: 2241.0
		
Iteration: 18
Labeled set size: 659
Unlabelled set size: 936
	
Mean region size: 66.85475444096019
Incorrectly Classified Instances: 8.526645768025078
Correctly Classified Instances: 91.47335423197492
Weighted Precision: 0.9144910252384284
Weighted AreaUnderROC: 0.945752656487947
Root mean squared error: 0.30840239937397923
Relative absolute error: 54.82758620689654
Root relative squared error: 65.42202837946203
Weighted TruePositiveRate: 0.9147335423197492
Weighted MatthewsCorrelation: 0.863018882174689
Weighted FMeasure: 0.9145415558411012
Iteration time: 2446.0
Weighted AreaUnderPRC: 0.8768289842636685
Mean absolute error: 0.2436781609195457
Coverage of cases: 99.18495297805643
Instances selection time: 115.0
Test time: 200.0
Accumulative iteration time: 29047.0
Weighted Recall: 0.9147335423197492
Weighted FalsePositiveRate: 0.054255784426899566
Kappa statistic: 0.860856580030238
Training time: 2331.0
		
Iteration: 19
Labeled set size: 679
Unlabelled set size: 916
	
Mean region size: 66.89655172413678
Incorrectly Classified Instances: 9.153605015673982
Correctly Classified Instances: 90.84639498432603
Weighted Precision: 0.9082193993384624
Weighted AreaUnderROC: 0.9418468438664865
Root mean squared error: 0.31027902859107587
Relative absolute error: 55.109717868338535
Root relative squared error: 65.82012155301658
Weighted TruePositiveRate: 0.9084639498432602
Weighted MatthewsCorrelation: 0.8527023885844137
Weighted FMeasure: 0.9081210758784884
Iteration time: 2474.0
Weighted AreaUnderPRC: 0.8697241788016119
Mean absolute error: 0.2449320794148435
Coverage of cases: 99.18495297805643
Instances selection time: 114.0
Test time: 214.0
Accumulative iteration time: 31521.0
Weighted Recall: 0.9084639498432602
Weighted FalsePositiveRate: 0.06006524203870879
Kappa statistic: 0.8502844255170321
Training time: 2360.0
		
Iteration: 20
Labeled set size: 699
Unlabelled set size: 896
	
Mean region size: 66.9592476489017
Incorrectly Classified Instances: 9.0282131661442
Correctly Classified Instances: 90.9717868338558
Weighted Precision: 0.9094728102177911
Weighted AreaUnderROC: 0.9425430348107177
Root mean squared error: 0.3096047524694279
Relative absolute error: 55.047021943573654
Root relative squared error: 65.67708598761375
Weighted TruePositiveRate: 0.909717868338558
Weighted MatthewsCorrelation: 0.8543263201796509
Weighted FMeasure: 0.9093585109141996
Iteration time: 2341.0
Weighted AreaUnderPRC: 0.8721370564469081
Mean absolute error: 0.2446534308603329
Coverage of cases: 99.24764890282131
Instances selection time: 112.0
Test time: 199.0
Accumulative iteration time: 33862.0
Weighted Recall: 0.909717868338558
Weighted FalsePositiveRate: 0.06014701265075868
Kappa statistic: 0.8522507825536527
Training time: 2229.0
		
Iteration: 21
Labeled set size: 719
Unlabelled set size: 876
	
Mean region size: 66.9592476489017
Incorrectly Classified Instances: 9.404388714733543
Correctly Classified Instances: 90.59561128526646
Weighted Precision: 0.905717870186157
Weighted AreaUnderROC: 0.9393590932839214
Root mean squared error: 0.3111757906593039
Relative absolute error: 55.266457680250774
Root relative squared error: 66.01035351488305
Weighted TruePositiveRate: 0.9059561128526645
Weighted MatthewsCorrelation: 0.8476259561807629
Weighted FMeasure: 0.905527677949593
Iteration time: 2403.0
Weighted AreaUnderPRC: 0.8668257376886332
Mean absolute error: 0.24562870080112012
Coverage of cases: 99.18495297805643
Instances selection time: 109.0
Test time: 201.0
Accumulative iteration time: 36265.0
Weighted Recall: 0.9059561128526645
Weighted FalsePositiveRate: 0.06372992582039902
Kappa statistic: 0.8459625777591209
Training time: 2294.0
		
Iteration: 22
Labeled set size: 739
Unlabelled set size: 856
	
Mean region size: 66.91745036572509
Incorrectly Classified Instances: 8.714733542319749
Correctly Classified Instances: 91.28526645768025
Weighted Precision: 0.9126910161957765
Weighted AreaUnderROC: 0.9450391876471891
Root mean squared error: 0.3077240112631146
Relative absolute error: 54.764890282131645
Root relative squared error: 65.27812052942143
Weighted TruePositiveRate: 0.9128526645768025
Weighted MatthewsCorrelation: 0.8598678425149813
Weighted FMeasure: 0.912331793902425
Iteration time: 2489.0
Weighted AreaUnderPRC: 0.8767916795704718
Mean absolute error: 0.24339951236503507
Coverage of cases: 99.3730407523511
Instances selection time: 108.0
Test time: 200.0
Accumulative iteration time: 38754.0
Weighted Recall: 0.9128526645768025
Weighted FalsePositiveRate: 0.05963236951112274
Kappa statistic: 0.8570542491713266
Training time: 2381.0
		
Iteration: 23
Labeled set size: 759
Unlabelled set size: 836
	
Mean region size: 66.91745036572509
Incorrectly Classified Instances: 8.77742946708464
Correctly Classified Instances: 91.22257053291536
Weighted Precision: 0.9120759732913377
Weighted AreaUnderROC: 0.9440939124123161
Root mean squared error: 0.3081764359297643
Relative absolute error: 54.82758620689654
Root relative squared error: 65.37409429435064
Weighted TruePositiveRate: 0.9122257053291536
Weighted MatthewsCorrelation: 0.8587765262842644
Weighted FMeasure: 0.9116324478650131
Iteration time: 2532.0
Weighted AreaUnderPRC: 0.8756088450372538
Mean absolute error: 0.2436781609195457
Coverage of cases: 99.3103448275862
Instances selection time: 105.0
Test time: 201.0
Accumulative iteration time: 41286.0
Weighted Recall: 0.9122257053291536
Weighted FalsePositiveRate: 0.060787889684818845
Kappa statistic: 0.8559020159520921
Training time: 2427.0
		
Iteration: 24
Labeled set size: 779
Unlabelled set size: 816
	
Mean region size: 66.91745036572509
Incorrectly Classified Instances: 8.652037617554859
Correctly Classified Instances: 91.34796238244515
Weighted Precision: 0.9133438590533991
Weighted AreaUnderROC: 0.9453850935114295
Root mean squared error: 0.3070441243145609
Relative absolute error: 54.670846394984316
Root relative squared error: 65.13389472789267
Weighted TruePositiveRate: 0.9134796238244514
Weighted MatthewsCorrelation: 0.8604199384401322
Weighted FMeasure: 0.9128631173426601
Iteration time: 2563.0
Weighted AreaUnderPRC: 0.8775028681132423
Mean absolute error: 0.24298153953326912
Coverage of cases: 99.49843260188088
Instances selection time: 104.0
Test time: 203.0
Accumulative iteration time: 43849.0
Weighted Recall: 0.9134796238244514
Weighted FalsePositiveRate: 0.06087034162016208
Kappa statistic: 0.8578789346246972
Training time: 2459.0
		
Iteration: 25
Labeled set size: 799
Unlabelled set size: 796
	
Mean region size: 67.0010449320783
Incorrectly Classified Instances: 9.592476489028213
Correctly Classified Instances: 90.40752351097179
Weighted Precision: 0.9040708258927577
Weighted AreaUnderROC: 0.9386909648630387
Root mean squared error: 0.3105782369813261
Relative absolute error: 55.20376175548587
Root relative squared error: 65.88359323753673
Weighted TruePositiveRate: 0.9040752351097179
Weighted MatthewsCorrelation: 0.844339915654541
Weighted FMeasure: 0.903343043931407
Iteration time: 2814.0
Weighted AreaUnderPRC: 0.8658215793682088
Mean absolute error: 0.24535005224660944
Coverage of cases: 99.43573667711598
Instances selection time: 99.0
Test time: 204.0
Accumulative iteration time: 46663.0
Weighted Recall: 0.9040752351097179
Weighted FalsePositiveRate: 0.06910855487450225
Kappa statistic: 0.8421137420275641
Training time: 2715.0
		
Iteration: 26
Labeled set size: 819
Unlabelled set size: 776
	
Mean region size: 67.00104493207827
Incorrectly Classified Instances: 9.278996865203762
Correctly Classified Instances: 90.72100313479623
Weighted Precision: 0.907464031645088
Weighted AreaUnderROC: 0.9415064058708298
Root mean squared error: 0.3094547138114916
Relative absolute error: 55.047021943573654
Root relative squared error: 65.64525798187368
Weighted TruePositiveRate: 0.9072100313479624
Weighted MatthewsCorrelation: 0.8508099882026467
Weighted FMeasure: 0.9064474624893264
Iteration time: 2953.0
Weighted AreaUnderPRC: 0.8688397149957459
Mean absolute error: 0.2446534308603329
Coverage of cases: 99.49843260188088
Instances selection time: 97.0
Test time: 206.0
Accumulative iteration time: 49616.0
Weighted Recall: 0.9072100313479624
Weighted FalsePositiveRate: 0.06572103967229044
Kappa statistic: 0.8473180733333765
Training time: 2856.0
		
Iteration: 27
Labeled set size: 839
Unlabelled set size: 756
	
Mean region size: 66.93834900731339
Incorrectly Classified Instances: 8.90282131661442
Correctly Classified Instances: 91.09717868338558
Weighted Precision: 0.9108756960297084
Weighted AreaUnderROC: 0.9440633649016748
Root mean squared error: 0.30810107795433034
Relative absolute error: 54.827586206896534
Root relative squared error: 65.35810845371688
Weighted TruePositiveRate: 0.9109717868338558
Weighted MatthewsCorrelation: 0.8568880943216237
Weighted FMeasure: 0.9102753357195785
Iteration time: 2846.0
Weighted AreaUnderPRC: 0.874200652910478
Mean absolute error: 0.24367816091954567
Coverage of cases: 99.43573667711598
Instances selection time: 94.0
Test time: 203.0
Accumulative iteration time: 52462.0
Weighted Recall: 0.9109717868338558
Weighted FalsePositiveRate: 0.061662834662569777
Kappa statistic: 0.8538019623031242
Training time: 2752.0
		
Iteration: 28
Labeled set size: 859
Unlabelled set size: 736
	
Mean region size: 66.93834900731339
Incorrectly Classified Instances: 8.77742946708464
Correctly Classified Instances: 91.22257053291536
Weighted Precision: 0.9122383165783879
Weighted AreaUnderROC: 0.9441257083296226
Root mean squared error: 0.30810107795433034
Relative absolute error: 54.82758620689654
Root relative squared error: 65.35810845371688
Weighted TruePositiveRate: 0.9122257053291536
Weighted MatthewsCorrelation: 0.8590657055034985
Weighted FMeasure: 0.9115009955465556
Iteration time: 3078.0
Weighted AreaUnderPRC: 0.8756334841224143
Mean absolute error: 0.2436781609195457
Coverage of cases: 99.3103448275862
Instances selection time: 93.0
Test time: 204.0
Accumulative iteration time: 55540.0
Weighted Recall: 0.9122257053291536
Weighted FalsePositiveRate: 0.06126522549477923
Kappa statistic: 0.8557784219201298
Training time: 2985.0
		
Iteration: 29
Labeled set size: 879
Unlabelled set size: 716
	
Mean region size: 66.93834900731339
Incorrectly Classified Instances: 8.714733542319749
Correctly Classified Instances: 91.28526645768025
Weighted Precision: 0.9128662228700589
Weighted AreaUnderROC: 0.9447502421389703
Root mean squared error: 0.3078748933566442
Relative absolute error: 54.79623824451409
Root relative squared error: 65.31012745486974
Weighted TruePositiveRate: 0.9128526645768025
Weighted MatthewsCorrelation: 0.8601575138369036
Weighted FMeasure: 0.9121899769602021
Iteration time: 3127.0
Weighted AreaUnderPRC: 0.8766460084367886
Mean absolute error: 0.24353883664229037
Coverage of cases: 99.3103448275862
Instances selection time: 95.0
Test time: 206.0
Accumulative iteration time: 58667.0
Weighted Recall: 0.9128526645768025
Weighted FalsePositiveRate: 0.06010970532108314
Kappa statistic: 0.8569318412076048
Training time: 3032.0
		
Iteration: 30
Labeled set size: 899
Unlabelled set size: 696
	
Mean region size: 67.0428422152549
Incorrectly Classified Instances: 9.0282131661442
Correctly Classified Instances: 90.9717868338558
Weighted Precision: 0.909762675378057
Weighted AreaUnderROC: 0.9433941091923586
Root mean squared error: 0.3086281973781442
Relative absolute error: 54.952978056426325
Root relative squared error: 65.46992736943906
Weighted TruePositiveRate: 0.909717868338558
Weighted MatthewsCorrelation: 0.8550471431200956
Weighted FMeasure: 0.909050002817769
Iteration time: 3367.0
Weighted AreaUnderPRC: 0.8733908869237892
Mean absolute error: 0.24423545802856697
Coverage of cases: 99.43573667711598
Instances selection time: 88.0
Test time: 206.0
Accumulative iteration time: 62034.0
Weighted Recall: 0.909717868338558
Weighted FalsePositiveRate: 0.06253641699373401
Kappa statistic: 0.8517003323958067
Training time: 3279.0
		
Iteration: 31
Labeled set size: 919
Unlabelled set size: 676
	
Mean region size: 66.98014629048998
Incorrectly Classified Instances: 8.84012539184953
Correctly Classified Instances: 91.15987460815047
Weighted Precision: 0.9116321019795256
Weighted AreaUnderROC: 0.9456465976407187
Root mean squared error: 0.30749754930829315
Relative absolute error: 54.764890282131645
Root relative squared error: 65.23008069424093
Weighted TruePositiveRate: 0.9115987460815047
Weighted MatthewsCorrelation: 0.8585515926522146
Weighted FMeasure: 0.9110663385085156
Iteration time: 3387.0
Weighted AreaUnderPRC: 0.8772742654660056
Mean absolute error: 0.24339951236503507
Coverage of cases: 99.43573667711598
Instances selection time: 85.0
Test time: 206.0
Accumulative iteration time: 65421.0
Weighted Recall: 0.9115987460815047
Weighted FalsePositiveRate: 0.05954855492919279
Kappa statistic: 0.855039534672362
Training time: 3302.0
		
Iteration: 32
Labeled set size: 939
Unlabelled set size: 656
	
Mean region size: 66.9592476489017
Incorrectly Classified Instances: 8.589341692789969
Correctly Classified Instances: 91.41065830721003
Weighted Precision: 0.9140356284390975
Weighted AreaUnderROC: 0.9470255381859419
Root mean squared error: 0.3066657580287318
Relative absolute error: 54.63949843260186
Root relative squared error: 65.05363111794802
Weighted TruePositiveRate: 0.9141065830721004
Weighted MatthewsCorrelation: 0.8627750953511755
Weighted FMeasure: 0.9135297102095481
Iteration time: 3341.0
Weighted AreaUnderPRC: 0.8799912251557463
Mean absolute error: 0.2428422152560138
Coverage of cases: 99.43573667711598
Instances selection time: 88.0
Test time: 203.0
Accumulative iteration time: 68762.0
Weighted Recall: 0.9141065830721004
Weighted FalsePositiveRate: 0.05827736343023801
Kappa statistic: 0.8590709511316117
Training time: 3253.0
		
Iteration: 33
Labeled set size: 959
Unlabelled set size: 636
	
Mean region size: 66.93834900731339
Incorrectly Classified Instances: 9.0282131661442
Correctly Classified Instances: 90.9717868338558
Weighted Precision: 0.9098286843389422
Weighted AreaUnderROC: 0.94243637904617
Root mean squared error: 0.30900416072545295
Relative absolute error: 54.952978056426325
Root relative squared error: 65.54968123914695
Weighted TruePositiveRate: 0.909717868338558
Weighted MatthewsCorrelation: 0.8548141756007187
Weighted FMeasure: 0.9089489552644265
Iteration time: 3601.0
Weighted AreaUnderPRC: 0.8722435341540999
Mean absolute error: 0.24423545802856697
Coverage of cases: 99.3103448275862
Instances selection time: 82.0
Test time: 204.0
Accumulative iteration time: 72363.0
Weighted Recall: 0.909717868338558
Weighted FalsePositiveRate: 0.06301511545028109
Kappa statistic: 0.8516580928299474
Training time: 3519.0
		
Iteration: 34
Labeled set size: 979
Unlabelled set size: 616
	
Mean region size: 66.93834900731339
Incorrectly Classified Instances: 9.153605015673982
Correctly Classified Instances: 90.84639498432603
Weighted Precision: 0.9087125015481867
Weighted AreaUnderROC: 0.9414572873996384
Root mean squared error: 0.3094547138114916
Relative absolute error: 55.015673981191206
Root relative squared error: 65.64525798187368
Weighted TruePositiveRate: 0.9084639498432602
Weighted MatthewsCorrelation: 0.8527120965509795
Weighted FMeasure: 0.9076365412871539
Iteration time: 3520.0
Weighted AreaUnderPRC: 0.8704361267110767
Mean absolute error: 0.2445141065830776
Coverage of cases: 99.3103448275862
Instances selection time: 82.0
Test time: 209.0
Accumulative iteration time: 75883.0
Weighted Recall: 0.9084639498432602
Weighted FalsePositiveRate: 0.06436807756128578
Kappa statistic: 0.8495115766290902
Training time: 3438.0
		
Iteration: 35
Labeled set size: 999
Unlabelled set size: 596
	
Mean region size: 67.0219435736666
Incorrectly Classified Instances: 8.96551724137931
Correctly Classified Instances: 91.03448275862068
Weighted Precision: 0.9103895353266279
Weighted AreaUnderROC: 0.9439538187224733
Root mean squared error: 0.30847768373964946
Relative absolute error: 54.92163009404387
Root relative squared error: 65.43799860510686
Weighted TruePositiveRate: 0.9103448275862069
Weighted MatthewsCorrelation: 0.8563876917296682
Weighted FMeasure: 0.9096518410128992
Iteration time: 3779.0
Weighted AreaUnderPRC: 0.874533487340298
Mean absolute error: 0.24409613375131162
Coverage of cases: 99.3730407523511
Instances selection time: 82.0
Test time: 210.0
Accumulative iteration time: 79662.0
Weighted Recall: 0.9103448275862069
Weighted FalsePositiveRate: 0.060902879686784185
Kappa statistic: 0.8528994452248189
Training time: 3697.0
		
Iteration: 36
Labeled set size: 1019
Unlabelled set size: 576
	
Mean region size: 66.91745036572509
Incorrectly Classified Instances: 9.0282131661442
Correctly Classified Instances: 90.9717868338558
Weighted Precision: 0.909849204406687
Weighted AreaUnderROC: 0.9416347617166928
Root mean squared error: 0.30930460237223867
Relative absolute error: 54.98432601880876
Root relative squared error: 65.61341453688485
Weighted TruePositiveRate: 0.909717868338558
Weighted MatthewsCorrelation: 0.8543145885442722
Weighted FMeasure: 0.908904811554694
Iteration time: 3746.0
Weighted AreaUnderPRC: 0.870839070161543
Mean absolute error: 0.24437478230582224
Coverage of cases: 99.3103448275862
Instances selection time: 72.0
Test time: 204.0
Accumulative iteration time: 83408.0
Weighted Recall: 0.909717868338558
Weighted FalsePositiveRate: 0.06397251236337528
Kappa statistic: 0.8515728700435432
Training time: 3674.0
		
Iteration: 37
Labeled set size: 1039
Unlabelled set size: 556
	
Mean region size: 66.9383490073134
Incorrectly Classified Instances: 9.341692789968652
Correctly Classified Instances: 90.65830721003135
Weighted Precision: 0.9067852270845856
Weighted AreaUnderROC: 0.940235119976048
Root mean squared error: 0.3099046118641393
Relative absolute error: 55.078369905956094
Root relative squared error: 65.74069577103462
Weighted TruePositiveRate: 0.9065830721003135
Weighted MatthewsCorrelation: 0.8489771187104082
Weighted FMeasure: 0.9057945835010429
Iteration time: 3779.0
Weighted AreaUnderPRC: 0.8683251898052863
Mean absolute error: 0.2447927551375882
Coverage of cases: 99.3730407523511
Instances selection time: 75.0
Test time: 207.0
Accumulative iteration time: 87187.0
Weighted Recall: 0.9065830721003135
Weighted FalsePositiveRate: 0.06639922403602615
Kappa statistic: 0.846374971638307
Training time: 3704.0
		
Iteration: 38
Labeled set size: 1059
Unlabelled set size: 536
	
Mean region size: 66.9383490073134
Incorrectly Classified Instances: 9.341692789968652
Correctly Classified Instances: 90.65830721003135
Weighted Precision: 0.9066978088862229
Weighted AreaUnderROC: 0.9406956462174125
Root mean squared error: 0.31012931614395656
Relative absolute error: 55.10971786833854
Root relative squared error: 65.78836274704075
Weighted TruePositiveRate: 0.9065830721003135
Weighted MatthewsCorrelation: 0.850172736051489
Weighted FMeasure: 0.9056556081425005
Iteration time: 3944.0
Weighted AreaUnderPRC: 0.8678240901284203
Mean absolute error: 0.24493207941484355
Coverage of cases: 99.3103448275862
Instances selection time: 73.0
Test time: 208.0
Accumulative iteration time: 91131.0
Weighted Recall: 0.9065830721003135
Weighted FalsePositiveRate: 0.06496380998967824
Kappa statistic: 0.846419448000522
Training time: 3871.0
		
Iteration: 39
Labeled set size: 1079
Unlabelled set size: 516
	
Mean region size: 66.9383490073134
Incorrectly Classified Instances: 9.278996865203762
Correctly Classified Instances: 90.72100313479623
Weighted Precision: 0.9073377064665601
Weighted AreaUnderROC: 0.9419625168873053
Root mean squared error: 0.309004160725453
Relative absolute error: 54.952978056426325
Root relative squared error: 65.54968123914696
Weighted TruePositiveRate: 0.9072100313479624
Weighted MatthewsCorrelation: 0.8507813870269771
Weighted FMeasure: 0.9063895398750248
Iteration time: 4723.0
Weighted AreaUnderPRC: 0.8701158901945478
Mean absolute error: 0.24423545802856697
Coverage of cases: 99.49843260188088
Instances selection time: 68.0
Test time: 211.0
Accumulative iteration time: 95854.0
Weighted Recall: 0.9072100313479624
Weighted FalsePositiveRate: 0.06428698827252924
Kappa statistic: 0.8475814876656323
Training time: 4655.0
		
Iteration: 40
Labeled set size: 1099
Unlabelled set size: 496
	
Mean region size: 66.98014629049
Incorrectly Classified Instances: 9.278996865203762
Correctly Classified Instances: 90.72100313479623
Weighted Precision: 0.9077508053194269
Weighted AreaUnderROC: 0.9417358885950521
Root mean squared error: 0.3093046023722387
Relative absolute error: 55.015673981191206
Root relative squared error: 65.61341453688487
Weighted TruePositiveRate: 0.9072100313479624
Weighted MatthewsCorrelation: 0.8509682412577719
Weighted FMeasure: 0.9063877219267887
Iteration time: 4550.0
Weighted AreaUnderPRC: 0.8694866275098749
Mean absolute error: 0.2445141065830776
Coverage of cases: 99.49843260188088
Instances selection time: 64.0
Test time: 216.0
Accumulative iteration time: 100404.0
Weighted Recall: 0.9072100313479624
Weighted FalsePositiveRate: 0.06380624584610207
Kappa statistic: 0.8476695165446291
Training time: 4486.0
		
Iteration: 41
Labeled set size: 1119
Unlabelled set size: 476
	
Mean region size: 66.9383490073134
Incorrectly Classified Instances: 9.404388714733543
Correctly Classified Instances: 90.59561128526646
Weighted Precision: 0.9065858658798124
Weighted AreaUnderROC: 0.9419415343160814
Root mean squared error: 0.30945471381149164
Relative absolute error: 55.015673981191206
Root relative squared error: 65.6452579818737
Weighted TruePositiveRate: 0.9059561128526645
Weighted MatthewsCorrelation: 0.849843804077055
Weighted FMeasure: 0.9050817414227293
Iteration time: 4704.0
Weighted AreaUnderPRC: 0.8683422969619579
Mean absolute error: 0.2445141065830776
Coverage of cases: 99.49843260188088
Instances selection time: 66.0
Test time: 211.0
Accumulative iteration time: 105108.0
Weighted Recall: 0.9059561128526645
Weighted FalsePositiveRate: 0.06372379391075883
Kappa statistic: 0.8456111957533883
Training time: 4638.0
		
Iteration: 42
Labeled set size: 1139
Unlabelled set size: 456
	
Mean region size: 66.95924764890171
Incorrectly Classified Instances: 8.96551724137931
Correctly Classified Instances: 91.03448275862068
Weighted Precision: 0.9108068557896679
Weighted AreaUnderROC: 0.9446349333494468
Root mean squared error: 0.30825177548251675
Relative absolute error: 54.85893416927898
Root relative squared error: 65.39007622694349
Weighted TruePositiveRate: 0.9103448275862069
Weighted MatthewsCorrelation: 0.8575707551564894
Weighted FMeasure: 0.9095778710468752
Iteration time: 4731.0
Weighted AreaUnderPRC: 0.8745397001291862
Mean absolute error: 0.24381748519680102
Coverage of cases: 99.3730407523511
Instances selection time: 60.0
Test time: 215.0
Accumulative iteration time: 109839.0
Weighted Recall: 0.9103448275862069
Weighted FalsePositiveRate: 0.058986723214009114
Kappa statistic: 0.8530687839208929
Training time: 4671.0
		
Iteration: 43
Labeled set size: 1159
Unlabelled set size: 436
	
Mean region size: 66.89655172413678
Incorrectly Classified Instances: 8.96551724137931
Correctly Classified Instances: 91.03448275862068
Weighted Precision: 0.910878201211852
Weighted AreaUnderROC: 0.9438748865034917
Root mean squared error: 0.3084776837396495
Relative absolute error: 54.858934169278974
Root relative squared error: 65.43799860510687
Weighted TruePositiveRate: 0.9103448275862069
Weighted MatthewsCorrelation: 0.8566263617464023
Weighted FMeasure: 0.9096581818222031
Iteration time: 5273.0
Weighted AreaUnderPRC: 0.8732803287347979
Mean absolute error: 0.24381748519680096
Coverage of cases: 99.3730407523511
Instances selection time: 64.0
Test time: 213.0
Accumulative iteration time: 115112.0
Weighted Recall: 0.9103448275862069
Weighted FalsePositiveRate: 0.05994343880380994
Kappa statistic: 0.8530686892684776
Training time: 5209.0
		
Iteration: 44
Labeled set size: 1179
Unlabelled set size: 416
	
Mean region size: 67.02194357366662
Incorrectly Classified Instances: 8.96551724137931
Correctly Classified Instances: 91.03448275862068
Weighted Precision: 0.9112133864040515
Weighted AreaUnderROC: 0.9443730148140423
Root mean squared error: 0.3084776837396495
Relative absolute error: 54.92163009404387
Root relative squared error: 65.43799860510687
Weighted TruePositiveRate: 0.9103448275862069
Weighted MatthewsCorrelation: 0.8572548661114513
Weighted FMeasure: 0.9096234496467144
Iteration time: 5602.0
Weighted AreaUnderPRC: 0.8738581470803449
Mean absolute error: 0.24409613375131162
Coverage of cases: 99.43573667711598
Instances selection time: 79.0
Test time: 222.0
Accumulative iteration time: 120714.0
Weighted Recall: 0.9103448275862069
Weighted FalsePositiveRate: 0.05946337770067613
Kappa statistic: 0.8530690678774074
Training time: 5523.0
		
Iteration: 45
Labeled set size: 1199
Unlabelled set size: 396
	
Mean region size: 66.9592476489017
Incorrectly Classified Instances: 8.77742946708464
Correctly Classified Instances: 91.22257053291536
Weighted Precision: 0.9128709301121427
Weighted AreaUnderROC: 0.9454231315648136
Root mean squared error: 0.30757305515333744
Relative absolute error: 54.76489028213164
Root relative squared error: 65.24609790275593
Weighted TruePositiveRate: 0.9122257053291536
Weighted MatthewsCorrelation: 0.8601226911232254
Weighted FMeasure: 0.9114460484522768
Iteration time: 5252.0
Weighted AreaUnderPRC: 0.8771339170797945
Mean absolute error: 0.24339951236503501
Coverage of cases: 99.3730407523511
Instances selection time: 60.0
Test time: 212.0
Accumulative iteration time: 125966.0
Weighted Recall: 0.9122257053291536
Weighted FalsePositiveRate: 0.05839099078561663
Kappa statistic: 0.8561514423185321
Training time: 5192.0
		
Iteration: 46
Labeled set size: 1219
Unlabelled set size: 376
	
Mean region size: 67.1055381400198
Incorrectly Classified Instances: 8.96551724137931
Correctly Classified Instances: 91.03448275862068
Weighted Precision: 0.9114738190666255
Weighted AreaUnderROC: 0.9453117200833139
Root mean squared error: 0.30772401126311466
Relative absolute error: 54.85893416927898
Root relative squared error: 65.27812052942143
Weighted TruePositiveRate: 0.9103448275862069
Weighted MatthewsCorrelation: 0.8578475165618356
Weighted FMeasure: 0.9095279488988014
Iteration time: 5474.0
Weighted AreaUnderPRC: 0.8765204440971938
Mean absolute error: 0.24381748519680102
Coverage of cases: 99.49843260188088
Instances selection time: 54.0
Test time: 215.0
Accumulative iteration time: 131440.0
Weighted Recall: 0.9103448275862069
Weighted FalsePositiveRate: 0.058983997920835696
Kappa statistic: 0.8530694464843861
Training time: 5420.0
		
Time end:Sun Oct 08 06.43.48 EEST 2017