Sun Oct 08 09.42.20 EEST 2017
Dataset: splice
Test set size: 1595
Initial Labelled set size: 319
Initial Unlabelled set size: 1276
Batch mode: QBestBatchMode
Batch size: 20
Classifiers: J48-1cores
Scenario: PoolBasedSamplingScenario
Query strategy: RandomSelectionQueryStrategy-1cores
Time begining: Sun Oct 08 09.42.20 EEST 2017
		
Iteration: 1
Labeled set size: 319
Unlabelled set size: 1276
	
Mean region size: 46.54127481713712
Incorrectly Classified Instances: 15.109717868338558
Correctly Classified Instances: 84.89028213166144
Weighted Precision: 0.860238760563773
Weighted AreaUnderROC: 0.9072828337386651
Root mean squared error: 0.29603000742294894
Relative absolute error: 26.51234455199933
Root relative squared error: 62.79744770504065
Weighted TruePositiveRate: 0.8489028213166144
Weighted MatthewsCorrelation: 0.7656374445424513
Weighted FMeasure: 0.8509050074595441
Iteration time: 21.0
Weighted AreaUnderPRC: 0.818449129919708
Mean absolute error: 0.11783264245333303
Coverage of cases: 90.9717868338558
Instances selection time: 4.0
Test time: 4.0
Accumulative iteration time: 21.0
Weighted Recall: 0.8489028213166144
Weighted FalsePositiveRate: 0.07125156030643001
Kappa statistic: 0.7607077515138045
Training time: 17.0
		
Iteration: 2
Labeled set size: 339
Unlabelled set size: 1256
	
Mean region size: 44.49320794148314
Incorrectly Classified Instances: 15.235109717868339
Correctly Classified Instances: 84.76489028213166
Weighted Precision: 0.8654676016371987
Weighted AreaUnderROC: 0.9128991006470856
Root mean squared error: 0.2922640481003373
Relative absolute error: 25.831932174407992
Root relative squared error: 61.99856709263324
Weighted TruePositiveRate: 0.8476489028213167
Weighted MatthewsCorrelation: 0.7698410271040707
Weighted FMeasure: 0.8502174999563685
Iteration time: 18.0
Weighted AreaUnderPRC: 0.8232321750246341
Mean absolute error: 0.1148085874418159
Coverage of cases: 91.78683385579937
Instances selection time: 4.0
Test time: 4.0
Accumulative iteration time: 39.0
Weighted Recall: 0.8476489028213167
Weighted FalsePositiveRate: 0.0625990989402266
Kappa statistic: 0.7611589783913226
Training time: 14.0
		
Iteration: 3
Labeled set size: 359
Unlabelled set size: 1236
	
Mean region size: 45.35005224660332
Incorrectly Classified Instances: 14.608150470219435
Correctly Classified Instances: 85.39184952978056
Weighted Precision: 0.8741242868013073
Weighted AreaUnderROC: 0.9249191756415633
Root mean squared error: 0.2822863909133439
Relative absolute error: 24.745005126813773
Root relative squared error: 59.88198637544995
Weighted TruePositiveRate: 0.8539184952978056
Weighted MatthewsCorrelation: 0.7835469036610984
Weighted FMeasure: 0.8569793200328062
Iteration time: 17.0
Weighted AreaUnderPRC: 0.8440399371247742
Mean absolute error: 0.10997780056361926
Coverage of cases: 93.10344827586206
Instances selection time: 3.0
Test time: 4.0
Accumulative iteration time: 56.0
Weighted Recall: 0.8539184952978056
Weighted FalsePositiveRate: 0.05489521907980399
Kappa statistic: 0.771362320909149
Training time: 14.0
		
Iteration: 4
Labeled set size: 379
Unlabelled set size: 1216
	
Mean region size: 43.9080459770108
Incorrectly Classified Instances: 13.04075235109718
Correctly Classified Instances: 86.95924764890282
Weighted Precision: 0.8839857922517624
Weighted AreaUnderROC: 0.919214963698641
Root mean squared error: 0.2808583993966245
Relative absolute error: 23.379921676058416
Root relative squared error: 59.579063629965205
Weighted TruePositiveRate: 0.8695924764890283
Weighted MatthewsCorrelation: 0.8046998851014759
Weighted FMeasure: 0.8719797618179522
Iteration time: 18.0
Weighted AreaUnderPRC: 0.8329341217117825
Mean absolute error: 0.10391076300470642
Coverage of cases: 91.97492163009404
Instances selection time: 3.0
Test time: 4.0
Accumulative iteration time: 74.0
Weighted Recall: 0.8695924764890283
Weighted FalsePositiveRate: 0.0499251044824221
Kappa statistic: 0.7946630719087744
Training time: 15.0
		
Iteration: 5
Labeled set size: 399
Unlabelled set size: 1196
	
Mean region size: 44.346917450365055
Incorrectly Classified Instances: 13.35423197492163
Correctly Classified Instances: 86.64576802507837
Weighted Precision: 0.8787313392078471
Weighted AreaUnderROC: 0.9205987848161488
Root mean squared error: 0.2824354031553268
Relative absolute error: 23.466311774987666
Root relative squared error: 59.91359664548572
Weighted TruePositiveRate: 0.8664576802507837
Weighted MatthewsCorrelation: 0.7980190205676241
Weighted FMeasure: 0.8686393893488181
Iteration time: 19.0
Weighted AreaUnderPRC: 0.8315359611521895
Mean absolute error: 0.10429471899994756
Coverage of cases: 92.60188087774294
Instances selection time: 3.0
Test time: 4.0
Accumulative iteration time: 93.0
Weighted Recall: 0.8664576802507837
Weighted FalsePositiveRate: 0.05377704441263342
Kappa statistic: 0.789322733375295
Training time: 16.0
		
Iteration: 6
Labeled set size: 419
Unlabelled set size: 1176
	
Mean region size: 45.0574712643672
Incorrectly Classified Instances: 13.04075235109718
Correctly Classified Instances: 86.95924764890282
Weighted Precision: 0.8809923684236829
Weighted AreaUnderROC: 0.9258514432288445
Root mean squared error: 0.27786373591907615
Relative absolute error: 22.996096575837566
Root relative squared error: 58.94379957426138
Weighted TruePositiveRate: 0.8695924764890283
Weighted MatthewsCorrelation: 0.8025282108766595
Weighted FMeasure: 0.8716894839161355
Iteration time: 20.0
Weighted AreaUnderPRC: 0.8388228713193475
Mean absolute error: 0.1022048736703915
Coverage of cases: 93.35423197492163
Instances selection time: 3.0
Test time: 4.0
Accumulative iteration time: 113.0
Weighted Recall: 0.8695924764890283
Weighted FalsePositiveRate: 0.052783021493157035
Kappa statistic: 0.7939852332072754
Training time: 17.0
		
Iteration: 7
Labeled set size: 439
Unlabelled set size: 1156
	
Mean region size: 46.457680250782744
Incorrectly Classified Instances: 13.730407523510971
Correctly Classified Instances: 86.26959247648902
Weighted Precision: 0.8745538345583503
Weighted AreaUnderROC: 0.9232374995362089
Root mean squared error: 0.2820068034079182
Relative absolute error: 23.53213703080261
Root relative squared error: 59.822676909143496
Weighted TruePositiveRate: 0.8626959247648903
Weighted MatthewsCorrelation: 0.7914237181573932
Weighted FMeasure: 0.8648353040061724
Iteration time: 20.0
Weighted AreaUnderPRC: 0.8341563041109599
Mean absolute error: 0.1045872756924584
Coverage of cases: 93.85579937304075
Instances selection time: 3.0
Test time: 4.0
Accumulative iteration time: 133.0
Weighted Recall: 0.8626959247648903
Weighted FalsePositiveRate: 0.056875149923161686
Kappa statistic: 0.7832690843637679
Training time: 17.0
		
Iteration: 8
Labeled set size: 459
Unlabelled set size: 1136
	
Mean region size: 48.505747126435864
Incorrectly Classified Instances: 12.664576802507836
Correctly Classified Instances: 87.33542319749216
Weighted Precision: 0.8788449169284906
Weighted AreaUnderROC: 0.9236283894633787
Root mean squared error: 0.27609513983210276
Relative absolute error: 23.496733205634566
Root relative squared error: 58.56862368837772
Weighted TruePositiveRate: 0.8733542319749217
Weighted MatthewsCorrelation: 0.8035067393093811
Weighted FMeasure: 0.8746688356385395
Iteration time: 21.0
Weighted AreaUnderPRC: 0.8333804454334728
Mean absolute error: 0.10442992535837822
Coverage of cases: 94.54545454545455
Instances selection time: 3.0
Test time: 4.0
Accumulative iteration time: 154.0
Weighted Recall: 0.8733542319749217
Weighted FalsePositiveRate: 0.05968762552020101
Kappa statistic: 0.7978144202578418
Training time: 18.0
		
Iteration: 9
Labeled set size: 479
Unlabelled set size: 1116
	
Mean region size: 47.60710553813895
Incorrectly Classified Instances: 11.598746081504702
Correctly Classified Instances: 88.4012539184953
Weighted Precision: 0.8975968247485752
Weighted AreaUnderROC: 0.9491113503455135
Root mean squared error: 0.25014656410465985
Relative absolute error: 20.22441830273513
Root relative squared error: 53.06409953067552
Weighted TruePositiveRate: 0.8840125391849529
Weighted MatthewsCorrelation: 0.8271235915403453
Weighted FMeasure: 0.8862292409190948
Iteration time: 20.0
Weighted AreaUnderPRC: 0.8792689272491101
Mean absolute error: 0.08988630356771374
Coverage of cases: 96.48902821316615
Instances selection time: 3.0
Test time: 4.0
Accumulative iteration time: 174.0
Weighted Recall: 0.8840125391849529
Weighted FalsePositiveRate: 0.04154204303851753
Kappa statistic: 0.8172683923705721
Training time: 17.0
		
Iteration: 10
Labeled set size: 499
Unlabelled set size: 1096
	
Mean region size: 47.77429467084533
Incorrectly Classified Instances: 11.285266457680251
Correctly Classified Instances: 88.71473354231975
Weighted Precision: 0.9013281264922908
Weighted AreaUnderROC: 0.951411898341634
Root mean squared error: 0.2479601021997266
Relative absolute error: 19.98463497265889
Root relative squared error: 52.60028091874022
Weighted TruePositiveRate: 0.8871473354231975
Weighted MatthewsCorrelation: 0.8315603880799364
Weighted FMeasure: 0.8892518253670507
Iteration time: 21.0
Weighted AreaUnderPRC: 0.8859765804942633
Mean absolute error: 0.08882059987848596
Coverage of cases: 96.8025078369906
Instances selection time: 3.0
Test time: 4.0
Accumulative iteration time: 195.0
Weighted Recall: 0.8871473354231975
Weighted FalsePositiveRate: 0.04054802011904114
Kappa statistic: 0.8222070844686646
Training time: 18.0
		
Iteration: 11
Labeled set size: 519
Unlabelled set size: 1076
	
Mean region size: 48.25496342737617
Incorrectly Classified Instances: 10.909090909090908
Correctly Classified Instances: 89.0909090909091
Weighted Precision: 0.9037552005507675
Weighted AreaUnderROC: 0.9526141590723575
Root mean squared error: 0.2458473126112285
Relative absolute error: 20.163031372094245
Root relative squared error: 52.15209056516602
Weighted TruePositiveRate: 0.8909090909090909
Weighted MatthewsCorrelation: 0.8368394765914129
Weighted FMeasure: 0.8928726692558835
Iteration time: 21.0
Weighted AreaUnderPRC: 0.8898198250320184
Mean absolute error: 0.08961347276486535
Coverage of cases: 96.99059561128527
Instances selection time: 3.0
Test time: 4.0
Accumulative iteration time: 216.0
Weighted Recall: 0.8909090909090909
Weighted FalsePositiveRate: 0.03935519261566949
Kappa statistic: 0.8278501521578123
Training time: 18.0
		
Iteration: 12
Labeled set size: 539
Unlabelled set size: 1056
	
Mean region size: 48.004179728316586
Incorrectly Classified Instances: 10.909090909090908
Correctly Classified Instances: 89.0909090909091
Weighted Precision: 0.9025706279793285
Weighted AreaUnderROC: 0.9508929336549022
Root mean squared error: 0.24541598104897225
Relative absolute error: 19.94888294176013
Root relative squared error: 52.06059132338267
Weighted TruePositiveRate: 0.8909090909090909
Weighted MatthewsCorrelation: 0.8370761318737971
Weighted FMeasure: 0.8929308179327843
Iteration time: 22.0
Weighted AreaUnderPRC: 0.8844345608614201
Mean absolute error: 0.08866170196338036
Coverage of cases: 96.67711598746081
Instances selection time: 2.0
Test time: 4.0
Accumulative iteration time: 238.0
Weighted Recall: 0.8909090909090909
Weighted FalsePositiveRate: 0.03935519261566949
Kappa statistic: 0.8276133017211339
Training time: 20.0
		
Iteration: 13
Labeled set size: 559
Unlabelled set size: 1036
	
Mean region size: 47.89968652037506
Incorrectly Classified Instances: 10.282131661442007
Correctly Classified Instances: 89.71786833855799
Weighted Precision: 0.9070087531620472
Weighted AreaUnderROC: 0.9537245241179988
Root mean squared error: 0.23872465948466118
Relative absolute error: 19.00366066323797
Root relative squared error: 50.641147667415446
Weighted TruePositiveRate: 0.8971786833855799
Weighted MatthewsCorrelation: 0.8459737899505768
Weighted FMeasure: 0.898970034960856
Iteration time: 23.0
Weighted AreaUnderPRC: 0.8911026584419289
Mean absolute error: 0.08446071405883733
Coverage of cases: 96.92789968652038
Instances selection time: 2.0
Test time: 5.0
Accumulative iteration time: 261.0
Weighted Recall: 0.8971786833855799
Weighted FalsePositiveRate: 0.037367146776716736
Kappa statistic: 0.8371172023861414
Training time: 21.0
		
Iteration: 14
Labeled set size: 579
Unlabelled set size: 1016
	
Mean region size: 52.05851619644665
Incorrectly Classified Instances: 10.658307210031348
Correctly Classified Instances: 89.34169278996865
Weighted Precision: 0.9002864338682142
Weighted AreaUnderROC: 0.9492091027411562
Root mean squared error: 0.24578104988309546
Relative absolute error: 20.989190983856673
Root relative squared error: 52.13803411784519
Weighted TruePositiveRate: 0.8934169278996865
Weighted MatthewsCorrelation: 0.8375582750453333
Weighted FMeasure: 0.8949350251675852
Iteration time: 24.0
Weighted AreaUnderPRC: 0.8823764055270308
Mean absolute error: 0.09328529326158733
Coverage of cases: 96.92789968652038
Instances selection time: 3.0
Test time: 4.0
Accumulative iteration time: 285.0
Weighted Recall: 0.8934169278996865
Weighted FalsePositiveRate: 0.04427580830155826
Kappa statistic: 0.8302684843974077
Training time: 21.0
		
Iteration: 15
Labeled set size: 599
Unlabelled set size: 996
	
Mean region size: 52.330198537094496
Incorrectly Classified Instances: 11.410658307210031
Correctly Classified Instances: 88.58934169278997
Weighted Precision: 0.8943195445354315
Weighted AreaUnderROC: 0.9471918741295828
Root mean squared error: 0.2530815296420436
Relative absolute error: 21.968690150021388
Root relative squared error: 53.68669974088537
Weighted TruePositiveRate: 0.8858934169278997
Weighted MatthewsCorrelation: 0.8262953750267754
Weighted FMeasure: 0.8875676371159621
Iteration time: 23.0
Weighted AreaUnderPRC: 0.8783695205720423
Mean absolute error: 0.09763862288898617
Coverage of cases: 96.86520376175548
Instances selection time: 2.0
Test time: 4.0
Accumulative iteration time: 308.0
Weighted Recall: 0.8858934169278997
Weighted FalsePositiveRate: 0.046661463308301565
Kappa statistic: 0.8188901068666286
Training time: 21.0
		
Iteration: 16
Labeled set size: 619
Unlabelled set size: 976
	
Mean region size: 52.330198537094496
Incorrectly Classified Instances: 11.347962382445141
Correctly Classified Instances: 88.65203761755485
Weighted Precision: 0.8948731108608898
Weighted AreaUnderROC: 0.9472406962296807
Root mean squared error: 0.25324264834773696
Relative absolute error: 21.89167891464472
Root relative squared error: 53.7208781796969
Weighted TruePositiveRate: 0.8865203761755486
Weighted MatthewsCorrelation: 0.8270879323304645
Weighted FMeasure: 0.8881590599993872
Iteration time: 24.0
Weighted AreaUnderPRC: 0.8783488086019328
Mean absolute error: 0.09729635073175652
Coverage of cases: 96.86520376175548
Instances selection time: 2.0
Test time: 4.0
Accumulative iteration time: 332.0
Weighted Recall: 0.8865203761755486
Weighted FalsePositiveRate: 0.04646265872440628
Kappa statistic: 0.8198852161695591
Training time: 22.0
		
Iteration: 17
Labeled set size: 639
Unlabelled set size: 956
	
Mean region size: 52.8944618599785
Incorrectly Classified Instances: 11.03448275862069
Correctly Classified Instances: 88.96551724137932
Weighted Precision: 0.8972983457136094
Weighted AreaUnderROC: 0.9482737288322518
Root mean squared error: 0.25176649668529194
Relative absolute error: 21.84050074414153
Root relative squared error: 53.40773912452451
Weighted TruePositiveRate: 0.8896551724137931
Weighted MatthewsCorrelation: 0.831741653447369
Weighted FMeasure: 0.8912190549193763
Iteration time: 25.0
Weighted AreaUnderPRC: 0.8794884454886086
Mean absolute error: 0.09706889219618677
Coverage of cases: 97.05329153605015
Instances selection time: 2.0
Test time: 4.0
Accumulative iteration time: 357.0
Weighted Recall: 0.8896551724137931
Weighted FalsePositiveRate: 0.0454686358049299
Kappa statistic: 0.8246183988244584
Training time: 23.0
		
Iteration: 18
Labeled set size: 659
Unlabelled set size: 936
	
Mean region size: 52.8944618599785
Incorrectly Classified Instances: 11.09717868338558
Correctly Classified Instances: 88.90282131661442
Weighted Precision: 0.8967188404254822
Weighted AreaUnderROC: 0.9482232740257799
Root mean squared error: 0.2519368879971545
Relative absolute error: 21.75522943800425
Root relative squared error: 53.4438845801465
Weighted TruePositiveRate: 0.8890282131661442
Weighted MatthewsCorrelation: 0.8309369594359207
Weighted FMeasure: 0.89062185717323
Iteration time: 24.0
Weighted AreaUnderPRC: 0.8795252751939535
Mean absolute error: 0.09668990861335441
Coverage of cases: 97.05329153605015
Instances selection time: 2.0
Test time: 4.0
Accumulative iteration time: 381.0
Weighted Recall: 0.8890282131661442
Weighted FalsePositiveRate: 0.045667440388825184
Kappa statistic: 0.823621912454143
Training time: 22.0
		
Iteration: 19
Labeled set size: 679
Unlabelled set size: 916
	
Mean region size: 53.16614420062624
Incorrectly Classified Instances: 10.344827586206897
Correctly Classified Instances: 89.65517241379311
Weighted Precision: 0.9026824911246686
Weighted AreaUnderROC: 0.9501753827975145
Root mean squared error: 0.24431517774608882
Relative absolute error: 21.13477149617192
Root relative squared error: 51.82707567931624
Weighted TruePositiveRate: 0.896551724137931
Weighted MatthewsCorrelation: 0.8422365919891768
Weighted FMeasure: 0.8979623317113622
Iteration time: 26.0
Weighted AreaUnderPRC: 0.8821012491635521
Mean absolute error: 0.09393231776076622
Coverage of cases: 97.11598746081505
Instances selection time: 3.0
Test time: 4.0
Accumulative iteration time: 407.0
Weighted Recall: 0.896551724137931
Weighted FalsePositiveRate: 0.04328178538208188
Kappa statistic: 0.8350318559174781
Training time: 23.0
		
Iteration: 20
Labeled set size: 699
Unlabelled set size: 896
	
Mean region size: 51.89132706374025
Incorrectly Classified Instances: 10.407523510971787
Correctly Classified Instances: 89.59247648902821
Weighted Precision: 0.900855316734418
Weighted AreaUnderROC: 0.948261720485846
Root mean squared error: 0.24498530642310992
Relative absolute error: 20.964223204237808
Root relative squared error: 51.969231438853
Weighted TruePositiveRate: 0.8959247648902822
Weighted MatthewsCorrelation: 0.8402283893879375
Weighted FMeasure: 0.897159931485052
Iteration time: 26.0
Weighted AreaUnderPRC: 0.877830207712344
Mean absolute error: 0.09317432535217014
Coverage of cases: 96.36363636363636
Instances selection time: 2.0
Test time: 5.0
Accumulative iteration time: 433.0
Weighted Recall: 0.8959247648902822
Weighted FalsePositiveRate: 0.04586218747492293
Kappa statistic: 0.8336162219941797
Training time: 24.0
		
Iteration: 21
Labeled set size: 719
Unlabelled set size: 876
	
Mean region size: 51.89132706374025
Incorrectly Classified Instances: 10.407523510971787
Correctly Classified Instances: 89.59247648902821
Weighted Precision: 0.900855316734418
Weighted AreaUnderROC: 0.9473474015457832
Root mean squared error: 0.24520290422962895
Relative absolute error: 20.9731116266777
Root relative squared error: 52.01539090422127
Weighted TruePositiveRate: 0.8959247648902822
Weighted MatthewsCorrelation: 0.8402283893879375
Weighted FMeasure: 0.897159931485052
Iteration time: 27.0
Weighted AreaUnderPRC: 0.8757468515726046
Mean absolute error: 0.09321382945190299
Coverage of cases: 96.36363636363636
Instances selection time: 2.0
Test time: 4.0
Accumulative iteration time: 460.0
Weighted Recall: 0.8959247648902822
Weighted FalsePositiveRate: 0.04586218747492293
Kappa statistic: 0.8336162219941797
Training time: 25.0
		
Iteration: 22
Labeled set size: 739
Unlabelled set size: 856
	
Mean region size: 52.12121212121158
Incorrectly Classified Instances: 9.968652037617554
Correctly Classified Instances: 90.03134796238244
Weighted Precision: 0.9057736803276082
Weighted AreaUnderROC: 0.951675140223996
Root mean squared error: 0.24063661991343266
Relative absolute error: 20.339430868246424
Root relative squared error: 51.046735722778834
Weighted TruePositiveRate: 0.9003134796238245
Weighted MatthewsCorrelation: 0.8477888990110901
Weighted FMeasure: 0.9016194040570001
Iteration time: 27.0
Weighted AreaUnderPRC: 0.8840597775779041
Mean absolute error: 0.09039747052554171
Coverage of cases: 96.67711598746081
Instances selection time: 2.0
Test time: 4.0
Accumulative iteration time: 487.0
Weighted Recall: 0.9003134796238245
Weighted FalsePositiveRate: 0.04208895787871021
Kappa statistic: 0.8408096702452399
Training time: 25.0
		
Iteration: 23
Labeled set size: 759
Unlabelled set size: 836
	
Mean region size: 50.15673981191197
Incorrectly Classified Instances: 9.153605015673982
Correctly Classified Instances: 90.84639498432603
Weighted Precision: 0.911951343317476
Weighted AreaUnderROC: 0.9505689203110937
Root mean squared error: 0.23320504024101055
Relative absolute error: 18.58231402133696
Root relative squared error: 49.47025960838952
Weighted TruePositiveRate: 0.9084639498432602
Weighted MatthewsCorrelation: 0.8599054364060721
Weighted FMeasure: 0.9094427015922779
Iteration time: 28.0
Weighted AreaUnderPRC: 0.8834460412905238
Mean absolute error: 0.08258806231705502
Coverage of cases: 95.98746081504702
Instances selection time: 2.0
Test time: 4.0
Accumulative iteration time: 515.0
Weighted Recall: 0.9084639498432602
Weighted FalsePositiveRate: 0.04045713729164995
Kappa statistic: 0.8531309403227371
Training time: 26.0
		
Iteration: 24
Labeled set size: 779
Unlabelled set size: 816
	
Mean region size: 49.36259143155669
Incorrectly Classified Instances: 10.595611285266457
Correctly Classified Instances: 89.40438871473354
Weighted Precision: 0.8965647082185888
Weighted AreaUnderROC: 0.9334132644894804
Root mean squared error: 0.2519257088839178
Relative absolute error: 20.239865291066813
Root relative squared error: 53.4415131321133
Weighted TruePositiveRate: 0.8940438871473354
Weighted MatthewsCorrelation: 0.8352351828704406
Weighted FMeasure: 0.8948684081485098
Iteration time: 28.0
Weighted AreaUnderPRC: 0.8579911658940395
Mean absolute error: 0.08995495684918789
Coverage of cases: 94.35736677115987
Instances selection time: 2.0
Test time: 4.0
Accumulative iteration time: 543.0
Weighted Recall: 0.8940438871473354
Weighted FalsePositiveRate: 0.052650754749867766
Kappa statistic: 0.8294699336808188
Training time: 26.0
		
Iteration: 25
Labeled set size: 799
Unlabelled set size: 796
	
Mean region size: 49.36259143155669
Incorrectly Classified Instances: 10.595611285266457
Correctly Classified Instances: 89.40438871473354
Weighted Precision: 0.8965647082185888
Weighted AreaUnderROC: 0.9333992860421753
Root mean squared error: 0.2519262483480605
Relative absolute error: 20.136941914066064
Root relative squared error: 53.44162756973935
Weighted TruePositiveRate: 0.8940438871473354
Weighted MatthewsCorrelation: 0.8352351828704406
Weighted FMeasure: 0.8948684081485098
Iteration time: 29.0
Weighted AreaUnderPRC: 0.857088028083574
Mean absolute error: 0.08949751961807342
Coverage of cases: 94.35736677115987
Instances selection time: 2.0
Test time: 4.0
Accumulative iteration time: 572.0
Weighted Recall: 0.8940438871473354
Weighted FalsePositiveRate: 0.052650754749867766
Kappa statistic: 0.8294699336808188
Training time: 27.0
		
Iteration: 26
Labeled set size: 819
Unlabelled set size: 776
	
Mean region size: 49.36259143155669
Incorrectly Classified Instances: 10.595611285266457
Correctly Classified Instances: 89.40438871473354
Weighted Precision: 0.8965647082185888
Weighted AreaUnderROC: 0.9336471243982581
Root mean squared error: 0.252276389352041
Relative absolute error: 20.036198338553294
Root relative squared error: 53.51590369322517
Weighted TruePositiveRate: 0.8940438871473354
Weighted MatthewsCorrelation: 0.8352351828704406
Weighted FMeasure: 0.8948684081485098
Iteration time: 29.0
Weighted AreaUnderPRC: 0.8574287216296199
Mean absolute error: 0.08904977039357222
Coverage of cases: 94.35736677115987
Instances selection time: 2.0
Test time: 4.0
Accumulative iteration time: 601.0
Weighted Recall: 0.8940438871473354
Weighted FalsePositiveRate: 0.052650754749867766
Kappa statistic: 0.8294699336808188
Training time: 27.0
		
Iteration: 27
Labeled set size: 839
Unlabelled set size: 756
	
Mean region size: 49.36259143155669
Incorrectly Classified Instances: 10.595611285266457
Correctly Classified Instances: 89.40438871473354
Weighted Precision: 0.8965647082185888
Weighted AreaUnderROC: 0.9337060976581139
Root mean squared error: 0.25195442480424507
Relative absolute error: 20.01840993320888
Root relative squared error: 53.44760469871073
Weighted TruePositiveRate: 0.8940438871473354
Weighted MatthewsCorrelation: 0.8352351828704406
Weighted FMeasure: 0.8948684081485098
Iteration time: 29.0
Weighted AreaUnderPRC: 0.8550521609258153
Mean absolute error: 0.08897071081426369
Coverage of cases: 94.35736677115987
Instances selection time: 2.0
Test time: 4.0
Accumulative iteration time: 630.0
Weighted Recall: 0.8940438871473354
Weighted FalsePositiveRate: 0.052650754749867766
Kappa statistic: 0.8294699336808188
Training time: 27.0
		
Iteration: 28
Labeled set size: 859
Unlabelled set size: 736
	
Mean region size: 50.135841170323665
Incorrectly Classified Instances: 9.278996865203762
Correctly Classified Instances: 90.72100313479623
Weighted Precision: 0.9106549494410322
Weighted AreaUnderROC: 0.9505722898745994
Root mean squared error: 0.23266989650436706
Relative absolute error: 18.293644142698
Root relative squared error: 49.35673847886248
Weighted TruePositiveRate: 0.9072100313479624
Weighted MatthewsCorrelation: 0.8581625840104146
Weighted FMeasure: 0.9082050378453571
Iteration time: 31.0
Weighted AreaUnderPRC: 0.882121149624524
Mean absolute error: 0.08130508507865962
Coverage of cases: 95.92476489028213
Instances selection time: 2.0
Test time: 4.0
Accumulative iteration time: 661.0
Weighted Recall: 0.9072100313479624
Weighted FalsePositiveRate: 0.04133106596122965
Kappa statistic: 0.8510357953297709
Training time: 29.0
		
Iteration: 29
Labeled set size: 879
Unlabelled set size: 716
	
Mean region size: 50.135841170323665
Incorrectly Classified Instances: 9.278996865203762
Correctly Classified Instances: 90.72100313479623
Weighted Precision: 0.9106549494410322
Weighted AreaUnderROC: 0.9510074512889941
Root mean squared error: 0.2317858695465717
Relative absolute error: 18.56375912731119
Root relative squared error: 49.16920804187984
Weighted TruePositiveRate: 0.9072100313479624
Weighted MatthewsCorrelation: 0.8581625840104146
Weighted FMeasure: 0.9082050378453571
Iteration time: 32.0
Weighted AreaUnderPRC: 0.8798612547448152
Mean absolute error: 0.08250559612138494
Coverage of cases: 95.92476489028213
Instances selection time: 2.0
Test time: 4.0
Accumulative iteration time: 693.0
Weighted Recall: 0.9072100313479624
Weighted FalsePositiveRate: 0.04133106596122965
Kappa statistic: 0.8510357953297709
Training time: 30.0
		
Iteration: 30
Labeled set size: 899
Unlabelled set size: 696
	
Mean region size: 50.135841170323665
Incorrectly Classified Instances: 9.278996865203762
Correctly Classified Instances: 90.72100313479623
Weighted Precision: 0.9106549494410322
Weighted AreaUnderROC: 0.9504057204557536
Root mean squared error: 0.23234406763437881
Relative absolute error: 18.760580331785455
Root relative squared error: 49.28761973781997
Weighted TruePositiveRate: 0.9072100313479624
Weighted MatthewsCorrelation: 0.8581625840104146
Weighted FMeasure: 0.9082050378453571
Iteration time: 32.0
Weighted AreaUnderPRC: 0.8791651299149532
Mean absolute error: 0.08338035703015947
Coverage of cases: 95.92476489028213
Instances selection time: 2.0
Test time: 4.0
Accumulative iteration time: 725.0
Weighted Recall: 0.9072100313479624
Weighted FalsePositiveRate: 0.04133106596122965
Kappa statistic: 0.8510357953297709
Training time: 30.0
		
Iteration: 31
Labeled set size: 919
Unlabelled set size: 676
	
Mean region size: 50.47021943573644
Incorrectly Classified Instances: 9.278996865203762
Correctly Classified Instances: 90.72100313479623
Weighted Precision: 0.9106549494410322
Weighted AreaUnderROC: 0.9501549092528047
Root mean squared error: 0.23262816984340642
Relative absolute error: 18.996179696173936
Root relative squared error: 49.34788691738602
Weighted TruePositiveRate: 0.9072100313479624
Weighted MatthewsCorrelation: 0.8581625840104146
Weighted FMeasure: 0.9082050378453571
Iteration time: 33.0
Weighted AreaUnderPRC: 0.8787333546747881
Mean absolute error: 0.08442746531633052
Coverage of cases: 95.92476489028213
Instances selection time: 1.0
Test time: 4.0
Accumulative iteration time: 758.0
Weighted Recall: 0.9072100313479624
Weighted FalsePositiveRate: 0.04133106596122965
Kappa statistic: 0.8510357953297709
Training time: 32.0
		
Iteration: 32
Labeled set size: 939
Unlabelled set size: 656
	
Mean region size: 50.47021943573644
Incorrectly Classified Instances: 9.153605015673982
Correctly Classified Instances: 90.84639498432603
Weighted Precision: 0.9117921911782202
Weighted AreaUnderROC: 0.95014299258603
Root mean squared error: 0.23254625677365381
Relative absolute error: 19.01075016792362
Root relative squared error: 49.33051053125906
Weighted TruePositiveRate: 0.9084639498432602
Weighted MatthewsCorrelation: 0.8597613316094149
Weighted FMeasure: 0.909416065873702
Iteration time: 33.0
Weighted AreaUnderPRC: 0.8787342053230135
Mean absolute error: 0.08449222296855136
Coverage of cases: 95.92476489028213
Instances selection time: 1.0
Test time: 4.0
Accumulative iteration time: 791.0
Weighted Recall: 0.9084639498432602
Weighted FalsePositiveRate: 0.0409334567934391
Kappa statistic: 0.8530488251226118
Training time: 32.0
		
Iteration: 33
Labeled set size: 959
Unlabelled set size: 636
	
Mean region size: 46.269592476488235
Incorrectly Classified Instances: 8.589341692789969
Correctly Classified Instances: 91.41065830721003
Weighted Precision: 0.9192542209474621
Weighted AreaUnderROC: 0.954515181728983
Root mean squared error: 0.22404473917334905
Relative absolute error: 17.249267421779678
Root relative squared error: 47.527066307593394
Weighted TruePositiveRate: 0.9141065830721004
Weighted MatthewsCorrelation: 0.8706417752267828
Weighted FMeasure: 0.9153217503716867
Iteration time: 35.0
Weighted AreaUnderPRC: 0.8867005693675286
Mean absolute error: 0.07666341076346697
Coverage of cases: 95.98746081504702
Instances selection time: 2.0
Test time: 4.0
Accumulative iteration time: 826.0
Weighted Recall: 0.9141065830721004
Weighted FalsePositiveRate: 0.03342838151691176
Kappa statistic: 0.8626832675494134
Training time: 33.0
		
Iteration: 34
Labeled set size: 979
Unlabelled set size: 616
	
Mean region size: 46.269592476488235
Incorrectly Classified Instances: 8.589341692789969
Correctly Classified Instances: 91.41065830721003
Weighted Precision: 0.9192542209474621
Weighted AreaUnderROC: 0.9546727426128867
Root mean squared error: 0.22391643732927807
Relative absolute error: 17.393692779659652
Root relative squared error: 47.499849376399
Weighted TruePositiveRate: 0.9141065830721004
Weighted MatthewsCorrelation: 0.8706417752267828
Weighted FMeasure: 0.9153217503716867
Iteration time: 35.0
Weighted AreaUnderPRC: 0.8873482335445066
Mean absolute error: 0.07730530124293354
Coverage of cases: 95.98746081504702
Instances selection time: 2.0
Test time: 4.0
Accumulative iteration time: 861.0
Weighted Recall: 0.9141065830721004
Weighted FalsePositiveRate: 0.03342838151691176
Kappa statistic: 0.8626832675494134
Training time: 33.0
		
Iteration: 35
Labeled set size: 999
Unlabelled set size: 596
	
Mean region size: 46.269592476488235
Incorrectly Classified Instances: 8.589341692789969
Correctly Classified Instances: 91.41065830721003
Weighted Precision: 0.9192542209474621
Weighted AreaUnderROC: 0.9546110941279088
Root mean squared error: 0.22386642382359687
Relative absolute error: 17.34802202730278
Root relative squared error: 47.489239909693566
Weighted TruePositiveRate: 0.9141065830721004
Weighted MatthewsCorrelation: 0.8706417752267828
Weighted FMeasure: 0.9153217503716867
Iteration time: 35.0
Weighted AreaUnderPRC: 0.8860315204451236
Mean absolute error: 0.07710232012134743
Coverage of cases: 95.98746081504702
Instances selection time: 1.0
Test time: 5.0
Accumulative iteration time: 896.0
Weighted Recall: 0.9141065830721004
Weighted FalsePositiveRate: 0.03342838151691176
Kappa statistic: 0.8626832675494134
Training time: 34.0
		
Iteration: 36
Labeled set size: 1019
Unlabelled set size: 576
	
Mean region size: 46.14420062695844
Incorrectly Classified Instances: 8.275862068965518
Correctly Classified Instances: 91.72413793103448
Weighted Precision: 0.9212092686144694
Weighted AreaUnderROC: 0.95472394400165
Root mean squared error: 0.22101605602059018
Relative absolute error: 16.86321508855686
Root relative squared error: 46.88458558897903
Weighted TruePositiveRate: 0.9172413793103448
Weighted MatthewsCorrelation: 0.8754262882242722
Weighted FMeasure: 0.9182571743215451
Iteration time: 35.0
Weighted AreaUnderPRC: 0.8861957926308762
Mean absolute error: 0.07494762261580996
Coverage of cases: 95.98746081504702
Instances selection time: 1.0
Test time: 4.0
Accumulative iteration time: 931.0
Weighted Recall: 0.9172413793103448
Weighted FalsePositiveRate: 0.0333869976010137
Kappa statistic: 0.8672884330277449
Training time: 34.0
		
Iteration: 37
Labeled set size: 1039
Unlabelled set size: 556
	
Mean region size: 46.08150470219357
Incorrectly Classified Instances: 8.338557993730408
Correctly Classified Instances: 91.6614420062696
Weighted Precision: 0.9204776301852079
Weighted AreaUnderROC: 0.9542854032490831
Root mean squared error: 0.22205172113645105
Relative absolute error: 16.801160249493332
Root relative squared error: 47.104283336918094
Weighted TruePositiveRate: 0.9166144200626959
Weighted MatthewsCorrelation: 0.8742895982329678
Weighted FMeasure: 0.9176028148797541
Iteration time: 36.0
Weighted AreaUnderPRC: 0.8857025469739226
Mean absolute error: 0.07467182333108317
Coverage of cases: 95.92476489028213
Instances selection time: 2.0
Test time: 4.0
Accumulative iteration time: 967.0
Weighted Recall: 0.9166144200626959
Weighted FalsePositiveRate: 0.03406212168669812
Kappa statistic: 0.866245692794159
Training time: 34.0
		
Iteration: 38
Labeled set size: 1059
Unlabelled set size: 536
	
Mean region size: 46.03970741901698
Incorrectly Classified Instances: 8.338557993730408
Correctly Classified Instances: 91.6614420062696
Weighted Precision: 0.9204776301852079
Weighted AreaUnderROC: 0.9542486451098732
Root mean squared error: 0.22205707644776293
Relative absolute error: 16.899349937939057
Root relative squared error: 47.10541937000129
Weighted TruePositiveRate: 0.9166144200626959
Weighted MatthewsCorrelation: 0.8742895982329678
Weighted FMeasure: 0.9176028148797541
Iteration time: 36.0
Weighted AreaUnderPRC: 0.8857409997883242
Mean absolute error: 0.0751082219463975
Coverage of cases: 95.92476489028213
Instances selection time: 1.0
Test time: 5.0
Accumulative iteration time: 1003.0
Weighted Recall: 0.9166144200626959
Weighted FalsePositiveRate: 0.03406212168669812
Kappa statistic: 0.866245692794159
Training time: 35.0
		
Iteration: 39
Labeled set size: 1079
Unlabelled set size: 516
	
Mean region size: 46.03970741901698
Incorrectly Classified Instances: 8.338557993730408
Correctly Classified Instances: 91.6614420062696
Weighted Precision: 0.9204776301852079
Weighted AreaUnderROC: 0.9542491628301438
Root mean squared error: 0.22204371586311922
Relative absolute error: 16.8007404628042
Root relative squared error: 47.102585162000636
Weighted TruePositiveRate: 0.9166144200626959
Weighted MatthewsCorrelation: 0.8742895982329678
Weighted FMeasure: 0.9176028148797541
Iteration time: 37.0
Weighted AreaUnderPRC: 0.8857524618225059
Mean absolute error: 0.07466995761246481
Coverage of cases: 95.92476489028213
Instances selection time: 2.0
Test time: 4.0
Accumulative iteration time: 1040.0
Weighted Recall: 0.9166144200626959
Weighted FalsePositiveRate: 0.03406212168669812
Kappa statistic: 0.866245692794159
Training time: 35.0
		
Iteration: 40
Labeled set size: 1099
Unlabelled set size: 496
	
Mean region size: 45.496342737721385
Incorrectly Classified Instances: 8.652037617554859
Correctly Classified Instances: 91.34796238244515
Weighted Precision: 0.9168381745085938
Weighted AreaUnderROC: 0.9518157012774533
Root mean squared error: 0.2263768173133087
Relative absolute error: 16.91181371822761
Root relative squared error: 48.0217747877001
Weighted TruePositiveRate: 0.9134796238244514
Weighted MatthewsCorrelation: 0.8686147405476221
Weighted FMeasure: 0.914323213853186
Iteration time: 37.0
Weighted AreaUnderPRC: 0.8834555025380393
Mean absolute error: 0.07516361652545775
Coverage of cases: 95.61128526645768
Instances selection time: 1.0
Test time: 6.0
Accumulative iteration time: 1077.0
Weighted Recall: 0.9134796238244514
Weighted FalsePositiveRate: 0.03743774211512028
Kappa statistic: 0.8610232417176519
Training time: 36.0
		
Iteration: 41
Labeled set size: 1119
Unlabelled set size: 476
	
Mean region size: 46.269592476488235
Incorrectly Classified Instances: 8.652037617554859
Correctly Classified Instances: 91.34796238244515
Weighted Precision: 0.9168381745085938
Weighted AreaUnderROC: 0.9544464799794335
Root mean squared error: 0.2252910164786406
Relative absolute error: 16.935395780220805
Root relative squared error: 47.791441647736555
Weighted TruePositiveRate: 0.9134796238244514
Weighted MatthewsCorrelation: 0.8686147405476221
Weighted FMeasure: 0.914323213853186
Iteration time: 38.0
Weighted AreaUnderPRC: 0.8902366828309287
Mean absolute error: 0.07526842568987195
Coverage of cases: 96.1128526645768
Instances selection time: 1.0
Test time: 7.0
Accumulative iteration time: 1115.0
Weighted Recall: 0.9134796238244514
Weighted FalsePositiveRate: 0.03743774211512028
Kappa statistic: 0.8610232417176519
Training time: 37.0
		
Iteration: 42
Labeled set size: 1139
Unlabelled set size: 456
	
Mean region size: 46.31138975966482
Incorrectly Classified Instances: 8.714733542319749
Correctly Classified Instances: 91.28526645768025
Weighted Precision: 0.9166499372843915
Weighted AreaUnderROC: 0.9556417400265504
Root mean squared error: 0.2253110378399132
Relative absolute error: 16.851962433293437
Root relative squared error: 47.79568881983389
Weighted TruePositiveRate: 0.9128526645768025
Weighted MatthewsCorrelation: 0.8678603443120833
Weighted FMeasure: 0.9137662331884269
Iteration time: 38.0
Weighted AreaUnderPRC: 0.892343582381653
Mean absolute error: 0.07489761081463919
Coverage of cases: 96.23824451410658
Instances selection time: 1.0
Test time: 7.0
Accumulative iteration time: 1153.0
Weighted Recall: 0.9128526645768025
Weighted FalsePositiveRate: 0.037160227197226406
Kappa statistic: 0.8601335294069403
Training time: 37.0
		
Iteration: 43
Labeled set size: 1159
Unlabelled set size: 436
	
Mean region size: 45.28735632183823
Incorrectly Classified Instances: 8.77742946708464
Correctly Classified Instances: 91.22257053291536
Weighted Precision: 0.9156721577639131
Weighted AreaUnderROC: 0.9536496403974322
Root mean squared error: 0.226803713166283
Relative absolute error: 16.699441112491247
Root relative squared error: 48.11233307344966
Weighted TruePositiveRate: 0.9122257053291536
Weighted MatthewsCorrelation: 0.8665425619688772
Weighted FMeasure: 0.9130928921357331
Iteration time: 38.0
Weighted AreaUnderPRC: 0.8893701396419622
Mean absolute error: 0.07421973827774056
Coverage of cases: 95.92476489028213
Instances selection time: 1.0
Test time: 6.0
Accumulative iteration time: 1191.0
Weighted Recall: 0.9122257053291536
Weighted FalsePositiveRate: 0.038311670784699985
Kappa statistic: 0.8590090858005165
Training time: 37.0
		
Iteration: 44
Labeled set size: 1179
Unlabelled set size: 416
	
Mean region size: 47.419017763845126
Incorrectly Classified Instances: 8.589341692789969
Correctly Classified Instances: 91.41065830721003
Weighted Precision: 0.916428796706707
Weighted AreaUnderROC: 0.9517102980143487
Root mean squared error: 0.2271737007125321
Relative absolute error: 17.165255130668367
Root relative squared error: 48.190819284321854
Weighted TruePositiveRate: 0.9141065830721004
Weighted MatthewsCorrelation: 0.8660691551635292
Weighted FMeasure: 0.9147482963282105
Iteration time: 39.0
Weighted AreaUnderPRC: 0.8904052963208056
Mean absolute error: 0.07629002280297224
Coverage of cases: 95.92476489028213
Instances selection time: 1.0
Test time: 6.0
Accumulative iteration time: 1230.0
Weighted Recall: 0.9141065830721004
Weighted FalsePositiveRate: 0.041049493545538246
Kappa statistic: 0.8618757814386436
Training time: 38.0
		
Iteration: 45
Labeled set size: 1199
Unlabelled set size: 396
	
Mean region size: 46.62486938348997
Incorrectly Classified Instances: 8.275862068965518
Correctly Classified Instances: 91.72413793103448
Weighted Precision: 0.9192584286198403
Weighted AreaUnderROC: 0.9534413294447147
Root mean squared error: 0.2238172709374476
Relative absolute error: 16.5630686538113
Root relative squared error: 47.47881300796026
Weighted TruePositiveRate: 0.9172413793103448
Weighted MatthewsCorrelation: 0.8706545941906475
Weighted FMeasure: 0.9178069487773864
Iteration time: 40.0
Weighted AreaUnderPRC: 0.8972005928410052
Mean absolute error: 0.07361363846138522
Coverage of cases: 96.1128526645768
Instances selection time: 1.0
Test time: 6.0
Accumulative iteration time: 1270.0
Weighted Recall: 0.9172413793103448
Weighted FalsePositiveRate: 0.040055470626061865
Kappa statistic: 0.8668049186146038
Training time: 39.0
		
Iteration: 46
Labeled set size: 1219
Unlabelled set size: 376
	
Mean region size: 48.213166144200244
Incorrectly Classified Instances: 8.275862068965518
Correctly Classified Instances: 91.72413793103448
Weighted Precision: 0.9192584286198403
Weighted AreaUnderROC: 0.95383889142446
Root mean squared error: 0.22362119491772256
Relative absolute error: 16.59477296008421
Root relative squared error: 47.43721900300756
Weighted TruePositiveRate: 0.9172413793103448
Weighted MatthewsCorrelation: 0.8706545941906475
Weighted FMeasure: 0.9178069487773864
Iteration time: 41.0
Weighted AreaUnderPRC: 0.898749032514063
Mean absolute error: 0.07375454648926483
Coverage of cases: 96.61442006269593
Instances selection time: 1.0
Test time: 6.0
Accumulative iteration time: 1311.0
Weighted Recall: 0.9172413793103448
Weighted FalsePositiveRate: 0.040055470626061865
Kappa statistic: 0.8668049186146038
Training time: 40.0
		
Time end:Sun Oct 08 09.42.25 EEST 2017