Sun Oct 08 09.42.41 EEST 2017
Dataset: splice
Test set size: 1595
Initial Labelled set size: 319
Initial Unlabelled set size: 1276
Batch mode: QBestBatchMode
Batch size: 20
Classifiers: RandomForest-1cores
Scenario: PoolBasedSamplingScenario
Query strategy: RandomSelectionQueryStrategy-1cores
Time begining: Sun Oct 08 09.42.41 EEST 2017
		
Iteration: 1
Labeled set size: 319
Unlabelled set size: 1276
	
Mean region size: 88.25496342737716
Incorrectly Classified Instances: 21.504702194357368
Correctly Classified Instances: 78.49529780564264
Weighted Precision: 0.789694883729315
Weighted AreaUnderROC: 0.924337128290328
Root mean squared error: 0.33844949669106694
Relative absolute error: 61.349882528625265
Root relative squared error: 71.79598025982742
Weighted TruePositiveRate: 0.7849529780564264
Weighted MatthewsCorrelation: 0.6474081083631089
Weighted FMeasure: 0.7748631991061468
Iteration time: 57.0
Weighted AreaUnderPRC: 0.8797894756310313
Mean absolute error: 0.27266614457167404
Coverage of cases: 99.81191222570533
Instances selection time: 3.0
Test time: 10.0
Accumulative iteration time: 57.0
Weighted Recall: 0.7849529780564264
Weighted FalsePositiveRate: 0.17917241619295263
Kappa statistic: 0.631042510517364
Training time: 54.0
		
Iteration: 2
Labeled set size: 339
Unlabelled set size: 1256
	
Mean region size: 95.69487983281084
Incorrectly Classified Instances: 24.57680250783699
Correctly Classified Instances: 75.42319749216301
Weighted Precision: 0.7740847448747135
Weighted AreaUnderROC: 0.9188806205546164
Root mean squared error: 0.35814664809973856
Relative absolute error: 68.75810689518488
Root relative squared error: 75.97437705916633
Weighted TruePositiveRate: 0.7542319749216301
Weighted MatthewsCorrelation: 0.5932797323947335
Weighted FMeasure: 0.7394341761641644
Iteration time: 61.0
Weighted AreaUnderPRC: 0.8717887853093366
Mean absolute error: 0.30559158620082866
Coverage of cases: 100.0
Instances selection time: 4.0
Test time: 10.0
Accumulative iteration time: 118.0
Weighted Recall: 0.7542319749216301
Weighted FalsePositiveRate: 0.2270194009469535
Kappa statistic: 0.5670817624433527
Training time: 57.0
		
Iteration: 3
Labeled set size: 359
Unlabelled set size: 1236
	
Mean region size: 92.26750261233013
Incorrectly Classified Instances: 21.818181818181817
Correctly Classified Instances: 78.18181818181819
Weighted Precision: 0.7951593627288338
Weighted AreaUnderROC: 0.929581074104538
Root mean squared error: 0.34467289950766494
Relative absolute error: 64.36946049136851
Root relative squared error: 73.11616335992896
Weighted TruePositiveRate: 0.7818181818181819
Weighted MatthewsCorrelation: 0.6413252545153605
Weighted FMeasure: 0.7713199456044713
Iteration time: 64.0
Weighted AreaUnderPRC: 0.8868666740371677
Mean absolute error: 0.28608649107275547
Coverage of cases: 100.0
Instances selection time: 3.0
Test time: 11.0
Accumulative iteration time: 182.0
Weighted Recall: 0.7818181818181819
Weighted FalsePositiveRate: 0.19255074615894702
Kappa statistic: 0.6221647551177527
Training time: 61.0
		
Iteration: 4
Labeled set size: 379
Unlabelled set size: 1216
	
Mean region size: 97.8683385579937
Incorrectly Classified Instances: 28.58934169278997
Correctly Classified Instances: 71.41065830721003
Weighted Precision: 0.726103805692494
Weighted AreaUnderROC: 0.8709702022592881
Root mean squared error: 0.3788189887790945
Relative absolute error: 73.65284516826127
Root relative squared error: 80.3596427423776
Weighted TruePositiveRate: 0.7141065830721003
Weighted MatthewsCorrelation: 0.5219860639871297
Weighted FMeasure: 0.6956605596465457
Iteration time: 57.0
Weighted AreaUnderPRC: 0.8017851662603518
Mean absolute error: 0.3273459785256131
Coverage of cases: 100.0
Instances selection time: 3.0
Test time: 11.0
Accumulative iteration time: 239.0
Weighted Recall: 0.7141065830721003
Weighted FalsePositiveRate: 0.2530798403663475
Kappa statistic: 0.49500714455326755
Training time: 54.0
		
Iteration: 5
Labeled set size: 399
Unlabelled set size: 1196
	
Mean region size: 90.26123301985365
Incorrectly Classified Instances: 18.620689655172413
Correctly Classified Instances: 81.37931034482759
Weighted Precision: 0.8147975030423731
Weighted AreaUnderROC: 0.937441398514531
Root mean squared error: 0.33063123505286307
Relative absolute error: 61.27026358324964
Root relative squared error: 70.13747651338805
Weighted TruePositiveRate: 0.8137931034482758
Weighted MatthewsCorrelation: 0.6928180960748122
Weighted FMeasure: 0.8086786025549635
Iteration time: 56.0
Weighted AreaUnderPRC: 0.8977778203542177
Mean absolute error: 0.2723122825922268
Coverage of cases: 99.9373040752351
Instances selection time: 3.0
Test time: 10.0
Accumulative iteration time: 295.0
Weighted Recall: 0.8137931034482758
Weighted FalsePositiveRate: 0.14811670825146883
Kappa statistic: 0.6860575390526885
Training time: 53.0
		
Iteration: 6
Labeled set size: 419
Unlabelled set size: 1176
	
Mean region size: 91.4524555903868
Incorrectly Classified Instances: 16.927899686520377
Correctly Classified Instances: 83.07210031347962
Weighted Precision: 0.8334479401652078
Weighted AreaUnderROC: 0.9385261077568948
Root mean squared error: 0.3350297065762533
Relative absolute error: 63.64094931109712
Root relative squared error: 71.0705332257016
Weighted TruePositiveRate: 0.8307210031347962
Weighted MatthewsCorrelation: 0.7213013691873132
Weighted FMeasure: 0.826783270035943
Iteration time: 69.0
Weighted AreaUnderPRC: 0.9053566956580373
Mean absolute error: 0.2828486636048825
Coverage of cases: 99.81191222570533
Instances selection time: 3.0
Test time: 26.0
Accumulative iteration time: 364.0
Weighted Recall: 0.8307210031347962
Weighted FalsePositiveRate: 0.13750946996661564
Kappa statistic: 0.7147652451402794
Training time: 66.0
		
Iteration: 7
Labeled set size: 439
Unlabelled set size: 1156
	
Mean region size: 92.33019853709521
Incorrectly Classified Instances: 21.128526645768027
Correctly Classified Instances: 78.87147335423198
Weighted Precision: 0.792331334413606
Weighted AreaUnderROC: 0.9293994934943055
Root mean squared error: 0.33995178139762394
Relative absolute error: 63.77939397407759
Root relative squared error: 72.1146629708112
Weighted TruePositiveRate: 0.7887147335423198
Weighted MatthewsCorrelation: 0.6537030397139421
Weighted FMeasure: 0.7808514523334985
Iteration time: 74.0
Weighted AreaUnderPRC: 0.8916854240136398
Mean absolute error: 0.28346397321812905
Coverage of cases: 99.74921630094043
Instances selection time: 3.0
Test time: 27.0
Accumulative iteration time: 438.0
Weighted Recall: 0.7887147335423198
Weighted FalsePositiveRate: 0.17369271317347856
Kappa statistic: 0.6387915613311455
Training time: 71.0
		
Iteration: 8
Labeled set size: 459
Unlabelled set size: 1136
	
Mean region size: 91.55694879832816
Incorrectly Classified Instances: 18.432601880877744
Correctly Classified Instances: 81.56739811912226
Weighted Precision: 0.8180421954055336
Weighted AreaUnderROC: 0.934451276104966
Root mean squared error: 0.3375758371050742
Relative absolute error: 63.99300100006461
Root relative squared error: 71.61064907451618
Weighted TruePositiveRate: 0.8156739811912226
Weighted MatthewsCorrelation: 0.695054036345058
Weighted FMeasure: 0.8106075205073902
Iteration time: 62.0
Weighted AreaUnderPRC: 0.8975646001651355
Mean absolute error: 0.2844133377780714
Coverage of cases: 99.9373040752351
Instances selection time: 3.0
Test time: 10.0
Accumulative iteration time: 500.0
Weighted Recall: 0.8156739811912226
Weighted FalsePositiveRate: 0.1494255725069396
Kappa statistic: 0.6887718124547026
Training time: 59.0
		
Iteration: 9
Labeled set size: 479
Unlabelled set size: 1116
	
Mean region size: 97.9310344827586
Incorrectly Classified Instances: 24.63949843260188
Correctly Classified Instances: 75.36050156739812
Weighted Precision: 0.7697898525484732
Weighted AreaUnderROC: 0.9025321614168753
Root mean squared error: 0.3639003950918097
Relative absolute error: 70.75308658070045
Root relative squared error: 77.19493111376387
Weighted TruePositiveRate: 0.7536050156739812
Weighted MatthewsCorrelation: 0.5897955557793557
Weighted FMeasure: 0.7408022012706469
Iteration time: 94.0
Weighted AreaUnderPRC: 0.8554016141810485
Mean absolute error: 0.31445816258089804
Coverage of cases: 99.9373040752351
Instances selection time: 3.0
Test time: 10.0
Accumulative iteration time: 594.0
Weighted Recall: 0.7536050156739812
Weighted FalsePositiveRate: 0.22293133001474638
Kappa statistic: 0.5686237401977146
Training time: 91.0
		
Iteration: 10
Labeled set size: 499
Unlabelled set size: 1096
	
Mean region size: 96.551724137931
Incorrectly Classified Instances: 21.755485893416928
Correctly Classified Instances: 78.24451410658307
Weighted Precision: 0.799212989173871
Weighted AreaUnderROC: 0.9139679718960944
Root mean squared error: 0.35524383286109246
Relative absolute error: 68.34454321235388
Root relative squared error: 75.35859695723285
Weighted TruePositiveRate: 0.7824451410658307
Weighted MatthewsCorrelation: 0.6413141371437722
Weighted FMeasure: 0.773194366117094
Iteration time: 85.0
Weighted AreaUnderPRC: 0.8719391944640538
Mean absolute error: 0.30375352538824635
Coverage of cases: 99.9373040752351
Instances selection time: 2.0
Test time: 11.0
Accumulative iteration time: 679.0
Weighted Recall: 0.7824451410658307
Weighted FalsePositiveRate: 0.19806777559652158
Kappa statistic: 0.6216531963952583
Training time: 83.0
		
Iteration: 11
Labeled set size: 519
Unlabelled set size: 1076
	
Mean region size: 90.13584117032414
Incorrectly Classified Instances: 16.614420062695924
Correctly Classified Instances: 83.38557993730407
Weighted Precision: 0.8409970808211156
Weighted AreaUnderROC: 0.9477782964867503
Root mean squared error: 0.3237576976783641
Relative absolute error: 60.06442592530895
Root relative squared error: 68.67937904691385
Weighted TruePositiveRate: 0.8338557993730408
Weighted MatthewsCorrelation: 0.7274419185742741
Weighted FMeasure: 0.8293392546372326
Iteration time: 107.0
Weighted AreaUnderPRC: 0.9209615342125071
Mean absolute error: 0.2669530041124903
Coverage of cases: 99.81191222570533
Instances selection time: 3.0
Test time: 11.0
Accumulative iteration time: 786.0
Weighted Recall: 0.8338557993730408
Weighted FalsePositiveRate: 0.14175496156682
Kappa statistic: 0.7182285010696218
Training time: 104.0
		
Iteration: 12
Labeled set size: 539
Unlabelled set size: 1056
	
Mean region size: 92.12121212121204
Incorrectly Classified Instances: 21.9435736677116
Correctly Classified Instances: 78.0564263322884
Weighted Precision: 0.7817298484729381
Weighted AreaUnderROC: 0.9219747275524041
Root mean squared error: 0.3410877726120704
Relative absolute error: 63.44277572405981
Root relative squared error: 72.35564309814222
Weighted TruePositiveRate: 0.780564263322884
Weighted MatthewsCorrelation: 0.6362738571647374
Weighted FMeasure: 0.7726947891228212
Iteration time: 109.0
Weighted AreaUnderPRC: 0.8761865824019245
Mean absolute error: 0.28196789210693884
Coverage of cases: 99.9373040752351
Instances selection time: 3.0
Test time: 11.0
Accumulative iteration time: 895.0
Weighted Recall: 0.780564263322884
Weighted FalsePositiveRate: 0.1715139777462256
Kappa statistic: 0.6291631542621492
Training time: 106.0
		
Iteration: 13
Labeled set size: 559
Unlabelled set size: 1036
	
Mean region size: 90.65830721003142
Incorrectly Classified Instances: 13.981191222570533
Correctly Classified Instances: 86.01880877742947
Weighted Precision: 0.8660369721912172
Weighted AreaUnderROC: 0.9655151115131713
Root mean squared error: 0.3071941524600759
Relative absolute error: 57.003788213594135
Root relative squared error: 65.16572050361141
Weighted TruePositiveRate: 0.8601880877742947
Weighted MatthewsCorrelation: 0.7716009777079581
Weighted FMeasure: 0.8574549855535882
Iteration time: 114.0
Weighted AreaUnderPRC: 0.9479092062164722
Mean absolute error: 0.2533501698382019
Coverage of cases: 100.0
Instances selection time: 2.0
Test time: 12.0
Accumulative iteration time: 1009.0
Weighted Recall: 0.8601880877742947
Weighted FalsePositiveRate: 0.11816294498596544
Kappa statistic: 0.7646933905625964
Training time: 112.0
		
Iteration: 14
Labeled set size: 579
Unlabelled set size: 1016
	
Mean region size: 94.69174503657254
Incorrectly Classified Instances: 14.608150470219435
Correctly Classified Instances: 85.39184952978056
Weighted Precision: 0.8565808737846209
Weighted AreaUnderROC: 0.9526594353278939
Root mean squared error: 0.32762537614390164
Relative absolute error: 62.617785561196705
Root relative squared error: 69.49983754804306
Weighted TruePositiveRate: 0.8539184952978056
Weighted MatthewsCorrelation: 0.7581116584109115
Weighted FMeasure: 0.8505091231179114
Iteration time: 93.0
Weighted AreaUnderPRC: 0.9217601149098034
Mean absolute error: 0.27830126916088055
Coverage of cases: 99.9373040752351
Instances selection time: 2.0
Test time: 12.0
Accumulative iteration time: 1102.0
Weighted Recall: 0.8539184952978056
Weighted FalsePositiveRate: 0.12062731032670737
Kappa statistic: 0.7550031412811812
Training time: 91.0
		
Iteration: 15
Labeled set size: 599
Unlabelled set size: 996
	
Mean region size: 92.70637408568457
Incorrectly Classified Instances: 18.934169278996865
Correctly Classified Instances: 81.06583072100314
Weighted Precision: 0.8166066816719677
Weighted AreaUnderROC: 0.9394656820759634
Root mean squared error: 0.33485696266458936
Relative absolute error: 63.437346490138374
Root relative squared error: 71.03388870829771
Weighted TruePositiveRate: 0.8106583072100313
Weighted MatthewsCorrelation: 0.6865924738182433
Weighted FMeasure: 0.8054884011644293
Iteration time: 97.0
Weighted AreaUnderPRC: 0.9089190144041754
Mean absolute error: 0.28194376217839917
Coverage of cases: 100.0
Instances selection time: 3.0
Test time: 13.0
Accumulative iteration time: 1199.0
Weighted Recall: 0.8106583072100313
Weighted FalsePositiveRate: 0.16006607971209577
Kappa statistic: 0.6779356967919268
Training time: 94.0
		
Iteration: 16
Labeled set size: 619
Unlabelled set size: 976
	
Mean region size: 96.48902821316624
Incorrectly Classified Instances: 25.956112852664578
Correctly Classified Instances: 74.04388714733543
Weighted Precision: 0.7596039226742208
Weighted AreaUnderROC: 0.9008028415643307
Root mean squared error: 0.36492621006940423
Relative absolute error: 70.40986340618731
Root relative squared error: 77.41253933183381
Weighted TruePositiveRate: 0.7404388714733542
Weighted MatthewsCorrelation: 0.5690281874363176
Weighted FMeasure: 0.7247600791232964
Iteration time: 134.0
Weighted AreaUnderPRC: 0.8488706645374913
Mean absolute error: 0.3129327262497285
Coverage of cases: 99.9373040752351
Instances selection time: 2.0
Test time: 12.0
Accumulative iteration time: 1333.0
Weighted Recall: 0.7404388714733542
Weighted FalsePositiveRate: 0.23663261631233026
Kappa statistic: 0.542223667271415
Training time: 132.0
		
Iteration: 17
Labeled set size: 639
Unlabelled set size: 956
	
Mean region size: 100.0
Incorrectly Classified Instances: 21.818181818181817
Correctly Classified Instances: 78.18181818181819
Weighted Precision: 0.8014255436187345
Weighted AreaUnderROC: 0.9367196640998526
Root mean squared error: 0.35466607184646726
Relative absolute error: 69.33967981718857
Root relative squared error: 75.23603533782884
Weighted TruePositiveRate: 0.7818181818181819
Weighted MatthewsCorrelation: 0.6425386037726886
Weighted FMeasure: 0.7711338263889118
Iteration time: 107.0
Weighted AreaUnderPRC: 0.9002112346154987
Mean absolute error: 0.3081763547430673
Coverage of cases: 100.0
Instances selection time: 2.0
Test time: 12.0
Accumulative iteration time: 1440.0
Weighted Recall: 0.7818181818181819
Weighted FalsePositiveRate: 0.20207713619473014
Kappa statistic: 0.6185993458483359
Training time: 105.0
		
Iteration: 18
Labeled set size: 659
Unlabelled set size: 936
	
Mean region size: 94.6290491118079
Incorrectly Classified Instances: 20.50156739811912
Correctly Classified Instances: 79.49843260188088
Weighted Precision: 0.8037785353249162
Weighted AreaUnderROC: 0.9282087887788661
Root mean squared error: 0.34411405208853474
Relative absolute error: 65.56977030875497
Root relative squared error: 72.9976139200143
Weighted TruePositiveRate: 0.7949843260188088
Weighted MatthewsCorrelation: 0.6614733561148486
Weighted FMeasure: 0.7864981537626211
Iteration time: 130.0
Weighted AreaUnderPRC: 0.8881158875263335
Mean absolute error: 0.2914212013722509
Coverage of cases: 100.0
Instances selection time: 3.0
Test time: 11.0
Accumulative iteration time: 1570.0
Weighted Recall: 0.7949843260188088
Weighted FalsePositiveRate: 0.17646786235241738
Kappa statistic: 0.6483584126254274
Training time: 127.0
		
Iteration: 19
Labeled set size: 679
Unlabelled set size: 916
	
Mean region size: 94.52455590386639
Incorrectly Classified Instances: 21.755485893416928
Correctly Classified Instances: 78.24451410658307
Weighted Precision: 0.8013811836189718
Weighted AreaUnderROC: 0.9263880670304299
Root mean squared error: 0.3473965102855491
Relative absolute error: 66.01050682947411
Root relative squared error: 73.69392845503536
Weighted TruePositiveRate: 0.7824451410658307
Weighted MatthewsCorrelation: 0.642189244519672
Weighted FMeasure: 0.7727262913359793
Iteration time: 106.0
Weighted AreaUnderPRC: 0.8877290147546316
Mean absolute error: 0.2933800303532249
Coverage of cases: 100.0
Instances selection time: 2.0
Test time: 26.0
Accumulative iteration time: 1676.0
Weighted Recall: 0.7824451410658307
Weighted FalsePositiveRate: 0.20044937310546737
Kappa statistic: 0.6206191941126795
Training time: 104.0
		
Iteration: 20
Labeled set size: 699
Unlabelled set size: 896
	
Mean region size: 93.83490073145258
Incorrectly Classified Instances: 22.25705329153605
Correctly Classified Instances: 77.74294670846395
Weighted Precision: 0.7902594515361563
Weighted AreaUnderROC: 0.8988464683415134
Root mean squared error: 0.3557684954349756
Relative absolute error: 67.59836818846152
Root relative squared error: 75.4698946963811
Weighted TruePositiveRate: 0.7774294670846394
Weighted MatthewsCorrelation: 0.6267243571699779
Weighted FMeasure: 0.7702894060162575
Iteration time: 147.0
Weighted AreaUnderPRC: 0.8556032479805695
Mean absolute error: 0.30043719194872465
Coverage of cases: 99.81191222570533
Instances selection time: 3.0
Test time: 12.0
Accumulative iteration time: 1823.0
Weighted Recall: 0.7774294670846394
Weighted FalsePositiveRate: 0.19632397575515972
Kappa statistic: 0.6167604079947476
Training time: 144.0
		
Iteration: 21
Labeled set size: 719
Unlabelled set size: 876
	
Mean region size: 97.63845350052259
Incorrectly Classified Instances: 21.316614420062695
Correctly Classified Instances: 78.68338557993731
Weighted Precision: 0.8079100008225365
Weighted AreaUnderROC: 0.9299144900034688
Root mean squared error: 0.34855471782018294
Relative absolute error: 67.04809398456753
Root relative squared error: 73.93962137556363
Weighted TruePositiveRate: 0.786833855799373
Weighted MatthewsCorrelation: 0.6465494263881377
Weighted FMeasure: 0.7785309944326856
Iteration time: 125.0
Weighted AreaUnderPRC: 0.8959315760003951
Mean absolute error: 0.2979915288203069
Coverage of cases: 100.0
Instances selection time: 2.0
Test time: 12.0
Accumulative iteration time: 1948.0
Weighted Recall: 0.786833855799373
Weighted FalsePositiveRate: 0.19953406051998956
Kappa statistic: 0.6288359493223844
Training time: 123.0
		
Iteration: 22
Labeled set size: 739
Unlabelled set size: 856
	
Mean region size: 96.19644723093012
Incorrectly Classified Instances: 20.25078369905956
Correctly Classified Instances: 79.74921630094043
Weighted Precision: 0.8131302190191455
Weighted AreaUnderROC: 0.9418668211657204
Root mean squared error: 0.3423381508455175
Relative absolute error: 65.70461633200814
Root relative squared error: 72.62088837651777
Weighted TruePositiveRate: 0.7974921630094044
Weighted MatthewsCorrelation: 0.6660197503612684
Weighted FMeasure: 0.7892235515865054
Iteration time: 119.0
Weighted AreaUnderPRC: 0.9104669262834199
Mean absolute error: 0.2920205170311539
Coverage of cases: 100.0
Instances selection time: 2.0
Test time: 11.0
Accumulative iteration time: 2067.0
Weighted Recall: 0.7974921630094044
Weighted FalsePositiveRate: 0.1856753535544085
Kappa statistic: 0.6492023069433002
Training time: 117.0
		
Iteration: 23
Labeled set size: 759
Unlabelled set size: 836
	
Mean region size: 96.94879832810872
Incorrectly Classified Instances: 20.752351097178682
Correctly Classified Instances: 79.24764890282131
Weighted Precision: 0.8084352483537156
Weighted AreaUnderROC: 0.9299869715154621
Root mean squared error: 0.34884749694959444
Relative absolute error: 67.14366680180262
Root relative squared error: 74.00172920790267
Weighted TruePositiveRate: 0.7924764890282132
Weighted MatthewsCorrelation: 0.6582520533358499
Weighted FMeasure: 0.7839142459297745
Iteration time: 134.0
Weighted AreaUnderPRC: 0.8953695626117099
Mean absolute error: 0.2984162968969073
Coverage of cases: 100.0
Instances selection time: 2.0
Test time: 11.0
Accumulative iteration time: 2201.0
Weighted Recall: 0.7924764890282132
Weighted FalsePositiveRate: 0.18821842922914905
Kappa statistic: 0.640513819189574
Training time: 132.0
		
Iteration: 24
Labeled set size: 779
Unlabelled set size: 816
	
Mean region size: 100.0
Incorrectly Classified Instances: 28.526645768025077
Correctly Classified Instances: 71.47335423197492
Weighted Precision: 0.7531949812495145
Weighted AreaUnderROC: 0.9009683630715093
Root mean squared error: 0.3763011823270294
Relative absolute error: 73.71318819268988
Root relative squared error: 79.82553533758647
Weighted TruePositiveRate: 0.7147335423197492
Weighted MatthewsCorrelation: 0.53169022549832
Weighted FMeasure: 0.6876346656714999
Iteration time: 116.0
Weighted AreaUnderPRC: 0.8457718931205045
Mean absolute error: 0.32761416974529584
Coverage of cases: 100.0
Instances selection time: 2.0
Test time: 10.0
Accumulative iteration time: 2317.0
Weighted Recall: 0.7147335423197492
Weighted FalsePositiveRate: 0.27669701087190995
Kappa statistic: 0.4824235465282136
Training time: 114.0
		
Iteration: 25
Labeled set size: 799
Unlabelled set size: 796
	
Mean region size: 99.9373040752351
Incorrectly Classified Instances: 19.122257053291538
Correctly Classified Instances: 80.87774294670847
Weighted Precision: 0.823450910766933
Weighted AreaUnderROC: 0.9444899776501238
Root mean squared error: 0.3428751414431256
Relative absolute error: 66.27407768038034
Root relative squared error: 72.7348012844184
Weighted TruePositiveRate: 0.8087774294670846
Weighted MatthewsCorrelation: 0.6851930173111435
Weighted FMeasure: 0.7995228279448561
Iteration time: 130.0
Weighted AreaUnderPRC: 0.9105953005379845
Mean absolute error: 0.29455145635725266
Coverage of cases: 100.0
Instances selection time: 2.0
Test time: 11.0
Accumulative iteration time: 2447.0
Weighted Recall: 0.8087774294670846
Weighted FalsePositiveRate: 0.17542839801924537
Kappa statistic: 0.669747596806604
Training time: 128.0
		
Iteration: 26
Labeled set size: 819
Unlabelled set size: 776
	
Mean region size: 88.98641588296778
Incorrectly Classified Instances: 14.169278996865204
Correctly Classified Instances: 85.8307210031348
Weighted Precision: 0.8617054424578836
Weighted AreaUnderROC: 0.9603359855576539
Root mean squared error: 0.3075198675451401
Relative absolute error: 56.29781424361762
Root relative squared error: 65.2348151072265
Weighted TruePositiveRate: 0.8583072100313479
Weighted MatthewsCorrelation: 0.7679776813553046
Weighted FMeasure: 0.8554371386173747
Iteration time: 145.0
Weighted AreaUnderPRC: 0.9376853608472446
Mean absolute error: 0.25021250774941733
Coverage of cases: 99.87460815047022
Instances selection time: 1.0
Test time: 12.0
Accumulative iteration time: 2592.0
Weighted Recall: 0.8583072100313479
Weighted FalsePositiveRate: 0.11637776122870552
Kappa statistic: 0.7622246804277805
Training time: 144.0
		
Iteration: 27
Labeled set size: 839
Unlabelled set size: 756
	
Mean region size: 92.16300940438879
Incorrectly Classified Instances: 18.11912225705329
Correctly Classified Instances: 81.88087774294671
Weighted Precision: 0.8318654983273301
Weighted AreaUnderROC: 0.9498215102067473
Root mean squared error: 0.32703350869909587
Relative absolute error: 60.59727755152654
Root relative squared error: 69.37428350290735
Weighted TruePositiveRate: 0.8188087774294671
Weighted MatthewsCorrelation: 0.7030542128075308
Weighted FMeasure: 0.8107069704506086
Iteration time: 175.0
Weighted AreaUnderPRC: 0.9198392775938885
Mean absolute error: 0.2693212335623463
Coverage of cases: 99.9373040752351
Instances selection time: 1.0
Test time: 13.0
Accumulative iteration time: 2767.0
Weighted Recall: 0.8188087774294671
Weighted FalsePositiveRate: 0.16319745414292705
Kappa statistic: 0.6887571623225709
Training time: 174.0
		
Iteration: 28
Labeled set size: 859
Unlabelled set size: 736
	
Mean region size: 96.00835945663538
Incorrectly Classified Instances: 16.614420062695924
Correctly Classified Instances: 83.38557993730407
Weighted Precision: 0.8439568363085633
Weighted AreaUnderROC: 0.9537511735666915
Root mean squared error: 0.33126304779967836
Relative absolute error: 63.16963557715813
Root relative squared error: 70.27150423670201
Weighted TruePositiveRate: 0.8338557993730408
Weighted MatthewsCorrelation: 0.7283998721087754
Weighted FMeasure: 0.8283656708970727
Iteration time: 162.0
Weighted AreaUnderPRC: 0.925631381928052
Mean absolute error: 0.28075393589848696
Coverage of cases: 99.87460815047022
Instances selection time: 1.0
Test time: 13.0
Accumulative iteration time: 2929.0
Weighted Recall: 0.8338557993730408
Weighted FalsePositiveRate: 0.14842343459186816
Kappa statistic: 0.7161327022111663
Training time: 161.0
		
Iteration: 29
Labeled set size: 879
Unlabelled set size: 716
	
Mean region size: 92.1212121212122
Incorrectly Classified Instances: 15.799373040752352
Correctly Classified Instances: 84.20062695924764
Weighted Precision: 0.8537472811339671
Weighted AreaUnderROC: 0.9652270638864657
Root mean squared error: 0.3166115135823818
Relative absolute error: 59.15888029959613
Root relative squared error: 67.16344447675091
Weighted TruePositiveRate: 0.8420062695924765
Weighted MatthewsCorrelation: 0.7425648376151245
Weighted FMeasure: 0.8372342710283907
Iteration time: 147.0
Weighted AreaUnderPRC: 0.942408675381119
Mean absolute error: 0.26292835688709987
Coverage of cases: 100.0
Instances selection time: 1.0
Test time: 27.0
Accumulative iteration time: 3076.0
Weighted Recall: 0.8420062695924765
Weighted FalsePositiveRate: 0.14441001649586213
Kappa statistic: 0.7298171153469982
Training time: 146.0
		
Iteration: 30
Labeled set size: 899
Unlabelled set size: 696
	
Mean region size: 94.00208986415893
Incorrectly Classified Instances: 15.924764890282132
Correctly Classified Instances: 84.07523510971787
Weighted Precision: 0.8505008889065209
Weighted AreaUnderROC: 0.9676363570704842
Root mean squared error: 0.31624195362238544
Relative absolute error: 59.41818087137108
Root relative squared error: 67.08504897062036
Weighted TruePositiveRate: 0.8407523510971787
Weighted MatthewsCorrelation: 0.7403127607189383
Weighted FMeasure: 0.8355787207620796
Iteration time: 139.0
Weighted AreaUnderPRC: 0.9463818187523066
Mean absolute error: 0.26408080387276633
Coverage of cases: 100.0
Instances selection time: 1.0
Test time: 24.0
Accumulative iteration time: 3215.0
Weighted Recall: 0.8407523510971787
Weighted FalsePositiveRate: 0.1424260281547069
Kappa statistic: 0.7283200208154087
Training time: 138.0
		
Iteration: 31
Labeled set size: 919
Unlabelled set size: 676
	
Mean region size: 91.05538140020903
Incorrectly Classified Instances: 16.614420062695924
Correctly Classified Instances: 83.38557993730407
Weighted Precision: 0.8466690662963408
Weighted AreaUnderROC: 0.9544179767146679
Root mean squared error: 0.32283960711842163
Relative absolute error: 60.14110579079629
Root relative squared error: 68.48462262871024
Weighted TruePositiveRate: 0.8338557993730408
Weighted MatthewsCorrelation: 0.7275923504516879
Weighted FMeasure: 0.8275691098676127
Iteration time: 165.0
Weighted AreaUnderPRC: 0.9272722886376498
Mean absolute error: 0.2672938035146562
Coverage of cases: 100.0
Instances selection time: 2.0
Test time: 12.0
Accumulative iteration time: 3380.0
Weighted Recall: 0.8338557993730408
Weighted FalsePositiveRate: 0.15366294911154887
Kappa statistic: 0.7149453798457769
Training time: 163.0
		
Iteration: 32
Labeled set size: 939
Unlabelled set size: 656
	
Mean region size: 92.62277951933149
Incorrectly Classified Instances: 16.551724137931036
Correctly Classified Instances: 83.44827586206897
Weighted Precision: 0.8435701557184548
Weighted AreaUnderROC: 0.9530115167952771
Root mean squared error: 0.324782089871834
Relative absolute error: 61.13108624003439
Root relative squared error: 68.89668544689299
Weighted TruePositiveRate: 0.8344827586206897
Weighted MatthewsCorrelation: 0.7282887550693647
Weighted FMeasure: 0.8298391261919514
Iteration time: 174.0
Weighted AreaUnderPRC: 0.9262353203054284
Mean absolute error: 0.27169371662238123
Coverage of cases: 100.0
Instances selection time: 1.0
Test time: 12.0
Accumulative iteration time: 3554.0
Weighted Recall: 0.8344827586206897
Weighted FalsePositiveRate: 0.1458430324990271
Kappa statistic: 0.7181263852527109
Training time: 173.0
		
Iteration: 33
Labeled set size: 959
Unlabelled set size: 636
	
Mean region size: 100.0
Incorrectly Classified Instances: 18.808777429467085
Correctly Classified Instances: 81.19122257053291
Weighted Precision: 0.825538403537245
Weighted AreaUnderROC: 0.9464560840814391
Root mean squared error: 0.34274490797513646
Relative absolute error: 66.38485159232819
Root relative squared error: 72.70717459391263
Weighted TruePositiveRate: 0.8119122257053292
Weighted MatthewsCorrelation: 0.6916124779774466
Weighted FMeasure: 0.7988175402444995
Iteration time: 156.0
Weighted AreaUnderPRC: 0.9133649222857488
Mean absolute error: 0.29504378485479865
Coverage of cases: 100.0
Instances selection time: 1.0
Test time: 11.0
Accumulative iteration time: 3710.0
Weighted Recall: 0.8119122257053292
Weighted FalsePositiveRate: 0.17538701410334734
Kappa statistic: 0.6738865970458284
Training time: 155.0
		
Iteration: 34
Labeled set size: 979
Unlabelled set size: 616
	
Mean region size: 92.6227795193314
Incorrectly Classified Instances: 19.310344827586206
Correctly Classified Instances: 80.6896551724138
Weighted Precision: 0.8233684155476115
Weighted AreaUnderROC: 0.9378434962766206
Root mean squared error: 0.3360725066213914
Relative absolute error: 63.306045574880336
Root relative squared error: 71.29174452070322
Weighted TruePositiveRate: 0.8068965517241379
Weighted MatthewsCorrelation: 0.6832044562420895
Weighted FMeasure: 0.7993552401029347
Iteration time: 181.0
Weighted AreaUnderPRC: 0.9120609132505502
Mean absolute error: 0.2813602025550301
Coverage of cases: 99.9373040752351
Instances selection time: 2.0
Test time: 12.0
Accumulative iteration time: 3891.0
Weighted Recall: 0.8068965517241379
Weighted FalsePositiveRate: 0.178406409279877
Kappa statistic: 0.6657956554659751
Training time: 179.0
		
Iteration: 35
Labeled set size: 999
Unlabelled set size: 596
	
Mean region size: 97.70114942528733
Incorrectly Classified Instances: 17.304075235109718
Correctly Classified Instances: 82.69592476489028
Weighted Precision: 0.8490742225380088
Weighted AreaUnderROC: 0.9604627147838043
Root mean squared error: 0.32857582782956357
Relative absolute error: 62.847688181655485
Root relative squared error: 69.70145879767959
Weighted TruePositiveRate: 0.8269592476489028
Weighted MatthewsCorrelation: 0.7191955060115668
Weighted FMeasure: 0.8199192757125264
Iteration time: 158.0
Weighted AreaUnderPRC: 0.9368039200886109
Mean absolute error: 0.27932305858514184
Coverage of cases: 100.0
Instances selection time: 1.0
Test time: 11.0
Accumulative iteration time: 4049.0
Weighted Recall: 0.8269592476489028
Weighted FalsePositiveRate: 0.1672814675773366
Kappa statistic: 0.7001567260400213
Training time: 157.0
		
Iteration: 36
Labeled set size: 1019
Unlabelled set size: 576
	
Mean region size: 97.95193312434691
Incorrectly Classified Instances: 21.316614420062695
Correctly Classified Instances: 78.68338557993731
Weighted Precision: 0.8071889034126889
Weighted AreaUnderROC: 0.9481645889500591
Root mean squared error: 0.344527417383782
Relative absolute error: 66.347372824773
Root relative squared error: 73.08530194102725
Weighted TruePositiveRate: 0.786833855799373
Weighted MatthewsCorrelation: 0.6512634602708371
Weighted FMeasure: 0.7766622152438004
Iteration time: 164.0
Weighted AreaUnderPRC: 0.9138905695860531
Mean absolute error: 0.29487721255455335
Coverage of cases: 100.0
Instances selection time: 1.0
Test time: 13.0
Accumulative iteration time: 4213.0
Weighted Recall: 0.786833855799373
Weighted FalsePositiveRate: 0.19858142151641134
Kappa statistic: 0.6275938981160633
Training time: 163.0
		
Iteration: 37
Labeled set size: 1039
Unlabelled set size: 556
	
Mean region size: 99.97910135841171
Incorrectly Classified Instances: 24.38871473354232
Correctly Classified Instances: 75.61128526645768
Weighted Precision: 0.794830102325956
Weighted AreaUnderROC: 0.9391548544202956
Root mean squared error: 0.3555358796040169
Relative absolute error: 68.75358901464939
Root relative squared error: 75.42054942693642
Weighted TruePositiveRate: 0.7561128526645768
Weighted MatthewsCorrelation: 0.6030588983409825
Weighted FMeasure: 0.7399523588061528
Iteration time: 159.0
Weighted AreaUnderPRC: 0.9021379002916637
Mean absolute error: 0.305571506731782
Coverage of cases: 100.0
Instances selection time: 1.0
Test time: 11.0
Accumulative iteration time: 4372.0
Weighted Recall: 0.7561128526645768
Weighted FalsePositiveRate: 0.24023625274715318
Kappa statistic: 0.5638394194039105
Training time: 158.0
		
Iteration: 38
Labeled set size: 1059
Unlabelled set size: 536
	
Mean region size: 94.64994775339595
Incorrectly Classified Instances: 17.49216300940439
Correctly Classified Instances: 82.5078369905956
Weighted Precision: 0.8447503429494836
Weighted AreaUnderROC: 0.9562328050132796
Root mean squared error: 0.3290773987303748
Relative absolute error: 61.916121913598275
Root relative squared error: 69.80785805324243
Weighted TruePositiveRate: 0.8250783699059561
Weighted MatthewsCorrelation: 0.7151593453767638
Weighted FMeasure: 0.8188062390156348
Iteration time: 166.0
Weighted AreaUnderPRC: 0.9299442772716656
Mean absolute error: 0.275182764060443
Coverage of cases: 100.0
Instances selection time: 2.0
Test time: 12.0
Accumulative iteration time: 4538.0
Weighted Recall: 0.8250783699059561
Weighted FalsePositiveRate: 0.16740156182723331
Kappa statistic: 0.6972629476461267
Training time: 164.0
		
Iteration: 39
Labeled set size: 1079
Unlabelled set size: 516
	
Mean region size: 91.47335423197501
Incorrectly Classified Instances: 14.420062695924765
Correctly Classified Instances: 85.57993730407523
Weighted Precision: 0.8619595546159615
Weighted AreaUnderROC: 0.9683299532536346
Root mean squared error: 0.310764674845465
Relative absolute error: 58.25303617508001
Root relative squared error: 65.92314268093749
Weighted TruePositiveRate: 0.8557993730407524
Weighted MatthewsCorrelation: 0.7649520086901461
Weighted FMeasure: 0.8515741389719083
Iteration time: 196.0
Weighted AreaUnderPRC: 0.9496559828967107
Mean absolute error: 0.2589023830003615
Coverage of cases: 100.0
Instances selection time: 1.0
Test time: 12.0
Accumulative iteration time: 4734.0
Weighted Recall: 0.8557993730407524
Weighted FalsePositiveRate: 0.1257467305964914
Kappa statistic: 0.7558041853771406
Training time: 195.0
		
Iteration: 40
Labeled set size: 1099
Unlabelled set size: 496
	
Mean region size: 99.03866248693835
Incorrectly Classified Instances: 20.0
Correctly Classified Instances: 80.0
Weighted Precision: 0.8237187448066501
Weighted AreaUnderROC: 0.9567603312967512
Root mean squared error: 0.33738820582027584
Relative absolute error: 65.040460864084
Root relative squared error: 71.57084646836309
Weighted TruePositiveRate: 0.8
Weighted MatthewsCorrelation: 0.6705661549958013
Weighted FMeasure: 0.7920827014030509
Iteration time: 177.0
Weighted AreaUnderPRC: 0.9347983696739348
Mean absolute error: 0.289068714951491
Coverage of cases: 99.9373040752351
Instances selection time: 1.0
Test time: 23.0
Accumulative iteration time: 4911.0
Weighted Recall: 0.8
Weighted FalsePositiveRate: 0.19011964973850812
Kappa statistic: 0.6520772588771397
Training time: 176.0
		
Iteration: 41
Labeled set size: 1119
Unlabelled set size: 476
	
Mean region size: 92.91536050156776
Incorrectly Classified Instances: 17.053291536050157
Correctly Classified Instances: 82.94670846394985
Weighted Precision: 0.8432855942113262
Weighted AreaUnderROC: 0.95458471971811
Root mean squared error: 0.32736878182117324
Relative absolute error: 61.6889549961204
Root relative squared error: 69.4454056723585
Weighted TruePositiveRate: 0.8294670846394985
Weighted MatthewsCorrelation: 0.7230555255149786
Weighted FMeasure: 0.8225132590207912
Iteration time: 188.0
Weighted AreaUnderPRC: 0.9282586598645778
Mean absolute error: 0.2741731333160969
Coverage of cases: 100.0
Instances selection time: 1.0
Test time: 12.0
Accumulative iteration time: 5099.0
Weighted Recall: 0.8294670846394985
Weighted FalsePositiveRate: 0.15648353970418327
Kappa statistic: 0.706714655208546
Training time: 187.0
		
Iteration: 42
Labeled set size: 1139
Unlabelled set size: 456
	
Mean region size: 91.4106583072102
Incorrectly Classified Instances: 17.178683385579937
Correctly Classified Instances: 82.82131661442006
Weighted Precision: 0.835831996350364
Weighted AreaUnderROC: 0.9503024211053629
Root mean squared error: 0.32339717753084146
Relative absolute error: 60.18292945545826
Root relative squared error: 68.60290117459355
Weighted TruePositiveRate: 0.8282131661442006
Weighted MatthewsCorrelation: 0.7148622161852304
Weighted FMeasure: 0.8243429543360569
Iteration time: 195.0
Weighted AreaUnderPRC: 0.9235101191310039
Mean absolute error: 0.26747968646870945
Coverage of cases: 100.0
Instances selection time: 1.0
Test time: 13.0
Accumulative iteration time: 5294.0
Weighted Recall: 0.8282131661442006
Weighted FalsePositiveRate: 0.14926003684334732
Kappa statistic: 0.7083143394707703
Training time: 194.0
		
Iteration: 43
Labeled set size: 1159
Unlabelled set size: 436
	
Mean region size: 96.02925809822378
Incorrectly Classified Instances: 18.683385579937305
Correctly Classified Instances: 81.31661442006269
Weighted Precision: 0.8337196018954467
Weighted AreaUnderROC: 0.9523535179254172
Root mean squared error: 0.33267963420875235
Relative absolute error: 63.32741025201157
Root relative squared error: 70.57200759349988
Weighted TruePositiveRate: 0.8131661442006269
Weighted MatthewsCorrelation: 0.6950254833263126
Weighted FMeasure: 0.8059052260891431
Iteration time: 194.0
Weighted AreaUnderPRC: 0.9256517967946404
Mean absolute error: 0.2814551566756133
Coverage of cases: 100.0
Instances selection time: 1.0
Test time: 12.0
Accumulative iteration time: 5488.0
Weighted Recall: 0.8131661442006269
Weighted FalsePositiveRate: 0.17737100244450257
Kappa statistic: 0.675767010106743
Training time: 193.0
		
Iteration: 44
Labeled set size: 1179
Unlabelled set size: 416
	
Mean region size: 90.67920585161976
Incorrectly Classified Instances: 15.172413793103448
Correctly Classified Instances: 84.82758620689656
Weighted Precision: 0.8592985733610778
Weighted AreaUnderROC: 0.9587250881499655
Root mean squared error: 0.3176992043637865
Relative absolute error: 58.93524178615934
Root relative squared error: 67.3941785349605
Weighted TruePositiveRate: 0.8482758620689655
Weighted MatthewsCorrelation: 0.7509214227278154
Weighted FMeasure: 0.8444887953006195
Iteration time: 191.0
Weighted AreaUnderPRC: 0.9370925522522875
Mean absolute error: 0.2619344079384919
Coverage of cases: 100.0
Instances selection time: 1.0
Test time: 12.0
Accumulative iteration time: 5679.0
Weighted Recall: 0.8482758620689655
Weighted FalsePositiveRate: 0.13813509514080696
Kappa statistic: 0.7416924534766689
Training time: 190.0
		
Iteration: 45
Labeled set size: 1199
Unlabelled set size: 396
	
Mean region size: 90.0104493207943
Incorrectly Classified Instances: 15.61128526645768
Correctly Classified Instances: 84.38871473354232
Weighted Precision: 0.8532407147482294
Weighted AreaUnderROC: 0.9632041851805594
Root mean squared error: 0.31163349031635934
Relative absolute error: 57.37536573861649
Root relative squared error: 66.10744627425825
Weighted TruePositiveRate: 0.8438871473354232
Weighted MatthewsCorrelation: 0.7450690924234462
Weighted FMeasure: 0.8395046439404443
Iteration time: 207.0
Weighted AreaUnderPRC: 0.9411997386195274
Mean absolute error: 0.25500162550496797
Coverage of cases: 99.9373040752351
Instances selection time: 1.0
Test time: 13.0
Accumulative iteration time: 5886.0
Weighted Recall: 0.8438871473354232
Weighted FalsePositiveRate: 0.1395267272280739
Kappa statistic: 0.734063068745656
Training time: 206.0
		
Iteration: 46
Labeled set size: 1219
Unlabelled set size: 376
	
Mean region size: 90.57471264367834
Incorrectly Classified Instances: 14.796238244514107
Correctly Classified Instances: 85.2037617554859
Weighted Precision: 0.8619862928606176
Weighted AreaUnderROC: 0.9594925892387959
Root mean squared error: 0.31716123844504507
Relative absolute error: 58.95045998886922
Root relative squared error: 67.28005873020372
Weighted TruePositiveRate: 0.852037617554859
Weighted MatthewsCorrelation: 0.757320256565957
Weighted FMeasure: 0.8482371622218216
Iteration time: 215.0
Weighted AreaUnderPRC: 0.9383246490371364
Mean absolute error: 0.26200204439498026
Coverage of cases: 100.0
Instances selection time: 1.0
Test time: 12.0
Accumulative iteration time: 6101.0
Weighted Recall: 0.852037617554859
Weighted FalsePositiveRate: 0.13456067012848957
Kappa statistic: 0.7483206107380621
Training time: 214.0
		
Time end:Sun Oct 08 09.42.53 EEST 2017