Sun Oct 08 08.56.42 EEST 2017
Dataset: splice
Test set size: 1595
Initial Labelled set size: 319
Initial Unlabelled set size: 1276
Batch mode: QBestBatchMode
Batch size: 20
Classifiers: J48-1cores
Scenario: PoolBasedSamplingScenario
Query strategy: MarginSamplingQueryStrategy-1cores
Time begining: Sun Oct 08 08.56.42 EEST 2017
		
Iteration: 1
Labeled set size: 319
Unlabelled set size: 1276
	
Mean region size: 52.97805642633208
Incorrectly Classified Instances: 16.112852664576803
Correctly Classified Instances: 83.8871473354232
Weighted Precision: 0.8431675019818493
Weighted AreaUnderROC: 0.9075944875221866
Root mean squared error: 0.30757651581963613
Relative absolute error: 28.70345410490904
Root relative squared error: 65.2468320209381
Weighted TruePositiveRate: 0.838871473354232
Weighted MatthewsCorrelation: 0.742639638192508
Weighted FMeasure: 0.840357675519613
Iteration time: 13.0
Weighted AreaUnderPRC: 0.8237493716049451
Mean absolute error: 0.12757090713293195
Coverage of cases: 94.60815047021944
Instances selection time: 1.0
Test time: 4.0
Accumulative iteration time: 13.0
Weighted Recall: 0.838871473354232
Weighted FalsePositiveRate: 0.09110361621137483
Kappa statistic: 0.7408184878997202
Training time: 12.0
		
Iteration: 2
Labeled set size: 339
Unlabelled set size: 1256
	
Mean region size: 50.449320794148335
Incorrectly Classified Instances: 12.163009404388715
Correctly Classified Instances: 87.83699059561128
Weighted Precision: 0.8805064875319216
Weighted AreaUnderROC: 0.9322806951090319
Root mean squared error: 0.26778464468228463
Relative absolute error: 23.952002334520177
Root relative squared error: 56.80570144574144
Weighted TruePositiveRate: 0.8783699059561129
Weighted MatthewsCorrelation: 0.8068445933602215
Weighted FMeasure: 0.8790269961508433
Iteration time: 14.0
Weighted AreaUnderPRC: 0.8603428330413305
Mean absolute error: 0.10645334370898098
Coverage of cases: 95.29780564263324
Instances selection time: 2.0
Test time: 3.0
Accumulative iteration time: 27.0
Weighted Recall: 0.8783699059561129
Weighted FalsePositiveRate: 0.06619462037945444
Kappa statistic: 0.8040238973929599
Training time: 12.0
		
Iteration: 3
Labeled set size: 359
Unlabelled set size: 1236
	
Mean region size: 45.39184952977984
Incorrectly Classified Instances: 14.796238244514107
Correctly Classified Instances: 85.2037617554859
Weighted Precision: 0.8508566181293454
Weighted AreaUnderROC: 0.9011638493246339
Root mean squared error: 0.29338279638187204
Relative absolute error: 27.3560344564302
Root relative squared error: 62.23588944152744
Weighted TruePositiveRate: 0.852037617554859
Weighted MatthewsCorrelation: 0.7596153887423722
Weighted FMeasure: 0.849652995004569
Iteration time: 15.0
Weighted AreaUnderPRC: 0.8275225121355514
Mean absolute error: 0.12158237536191477
Coverage of cases: 92.47648902821317
Instances selection time: 2.0
Test time: 3.0
Accumulative iteration time: 42.0
Weighted Recall: 0.852037617554859
Weighted FalsePositiveRate: 0.09026295646209813
Kappa statistic: 0.7600476309468563
Training time: 13.0
		
Iteration: 4
Labeled set size: 379
Unlabelled set size: 1216
	
Mean region size: 44.9947753396024
Incorrectly Classified Instances: 12.601880877742946
Correctly Classified Instances: 87.39811912225706
Weighted Precision: 0.8735084010062475
Weighted AreaUnderROC: 0.9090729843747709
Root mean squared error: 0.27826880634141393
Relative absolute error: 24.190613770560162
Root relative squared error: 59.029727987009316
Weighted TruePositiveRate: 0.8739811912225706
Weighted MatthewsCorrelation: 0.7952263290924744
Weighted FMeasure: 0.8734249815514661
Iteration time: 15.0
Weighted AreaUnderPRC: 0.8257416310791793
Mean absolute error: 0.10751383898026982
Coverage of cases: 92.85266457680251
Instances selection time: 2.0
Test time: 3.0
Accumulative iteration time: 57.0
Weighted Recall: 0.8739811912225706
Weighted FalsePositiveRate: 0.08187583752039602
Kappa statistic: 0.7942392509832514
Training time: 13.0
		
Iteration: 5
Labeled set size: 399
Unlabelled set size: 1196
	
Mean region size: 50.53291536050119
Incorrectly Classified Instances: 11.786833855799372
Correctly Classified Instances: 88.21316614420063
Weighted Precision: 0.8818422789679145
Weighted AreaUnderROC: 0.935128809140373
Root mean squared error: 0.2591428351545441
Relative absolute error: 24.37206454802733
Root relative squared error: 54.97249681010511
Weighted TruePositiveRate: 0.8821316614420063
Weighted MatthewsCorrelation: 0.8085900979176953
Weighted FMeasure: 0.8817164805622475
Iteration time: 18.0
Weighted AreaUnderPRC: 0.8699657042607585
Mean absolute error: 0.10832028688012392
Coverage of cases: 96.23824451410658
Instances selection time: 2.0
Test time: 4.0
Accumulative iteration time: 75.0
Weighted Recall: 0.8821316614420063
Weighted FalsePositiveRate: 0.07786241942438997
Kappa statistic: 0.8072731783471873
Training time: 16.0
		
Iteration: 6
Labeled set size: 419
Unlabelled set size: 1176
	
Mean region size: 53.8557993730399
Incorrectly Classified Instances: 13.47962382445141
Correctly Classified Instances: 86.52037617554859
Weighted Precision: 0.8652171425348034
Weighted AreaUnderROC: 0.9264866586991675
Root mean squared error: 0.2817327003473817
Relative absolute error: 27.370512879386496
Root relative squared error: 59.76453086928868
Weighted TruePositiveRate: 0.8652037617554859
Weighted MatthewsCorrelation: 0.7919286986390073
Weighted FMeasure: 0.8649206173532682
Iteration time: 19.0
Weighted AreaUnderPRC: 0.8348415091093038
Mean absolute error: 0.12164672390838718
Coverage of cases: 95.86206896551724
Instances selection time: 2.0
Test time: 4.0
Accumulative iteration time: 94.0
Weighted Recall: 0.8652037617554859
Weighted FalsePositiveRate: 0.07179847514662269
Kappa statistic: 0.7813375757595079
Training time: 17.0
		
Iteration: 7
Labeled set size: 439
Unlabelled set size: 1156
	
Mean region size: 50.80459770114911
Incorrectly Classified Instances: 9.843260188087774
Correctly Classified Instances: 90.15673981191223
Weighted Precision: 0.9017880395400825
Weighted AreaUnderROC: 0.9452966724554264
Root mean squared error: 0.2449350723875653
Relative absolute error: 22.670917064679283
Root relative squared error: 51.958575190699
Weighted TruePositiveRate: 0.9015673981191222
Weighted MatthewsCorrelation: 0.84313158681423
Weighted FMeasure: 0.901424990221182
Iteration time: 19.0
Weighted AreaUnderPRC: 0.8816415939296559
Mean absolute error: 0.10075963139857688
Coverage of cases: 96.67711598746081
Instances selection time: 1.0
Test time: 4.0
Accumulative iteration time: 113.0
Weighted Recall: 0.9015673981191222
Weighted FalsePositiveRate: 0.055980933764594315
Kappa statistic: 0.8405507800063674
Training time: 18.0
		
Iteration: 8
Labeled set size: 459
Unlabelled set size: 1136
	
Mean region size: 45.53814002089879
Incorrectly Classified Instances: 11.347962382445141
Correctly Classified Instances: 88.65203761755485
Weighted Precision: 0.8867566148720465
Weighted AreaUnderROC: 0.9233429041475433
Root mean squared error: 0.2666965874970473
Relative absolute error: 22.54006609589285
Root relative squared error: 56.57488966154142
Weighted TruePositiveRate: 0.8865203761755486
Weighted MatthewsCorrelation: 0.8167658264715623
Weighted FMeasure: 0.8863961906179506
Iteration time: 18.0
Weighted AreaUnderPRC: 0.8434522318527726
Mean absolute error: 0.10017807153730383
Coverage of cases: 93.66771159874608
Instances selection time: 2.0
Test time: 4.0
Accumulative iteration time: 131.0
Weighted Recall: 0.8865203761755486
Weighted FalsePositiveRate: 0.07218391182102064
Kappa statistic: 0.8149759887612149
Training time: 16.0
		
Iteration: 9
Labeled set size: 479
Unlabelled set size: 1116
	
Mean region size: 42.6750261233027
Incorrectly Classified Instances: 12.664576802507836
Correctly Classified Instances: 87.33542319749216
Weighted Precision: 0.8731439606506624
Weighted AreaUnderROC: 0.9210388089586317
Root mean squared error: 0.2787985892675193
Relative absolute error: 23.624838650192928
Root relative squared error: 59.14211191689111
Weighted TruePositiveRate: 0.8733542319749217
Weighted MatthewsCorrelation: 0.7945741725237626
Weighted FMeasure: 0.8729975685376696
Iteration time: 19.0
Weighted AreaUnderPRC: 0.8370810580149626
Mean absolute error: 0.10499928288974873
Coverage of cases: 92.10031347962382
Instances selection time: 2.0
Test time: 4.0
Accumulative iteration time: 150.0
Weighted Recall: 0.8733542319749217
Weighted FalsePositiveRate: 0.08159832260250213
Kappa statistic: 0.7933330853082333
Training time: 17.0
		
Iteration: 10
Labeled set size: 499
Unlabelled set size: 1096
	
Mean region size: 43.343782654128056
Incorrectly Classified Instances: 10.846394984326018
Correctly Classified Instances: 89.15360501567397
Weighted Precision: 0.8921873682321174
Weighted AreaUnderROC: 0.9340381970105753
Root mean squared error: 0.26187320793229035
Relative absolute error: 22.08041716258967
Root relative squared error: 55.55169634199856
Weighted TruePositiveRate: 0.8915360501567398
Weighted MatthewsCorrelation: 0.8266108338331086
Weighted FMeasure: 0.8917987479198939
Iteration time: 21.0
Weighted AreaUnderPRC: 0.8572685028773964
Mean absolute error: 0.09813518738928964
Coverage of cases: 93.22884012539186
Instances selection time: 2.0
Test time: 4.0
Accumulative iteration time: 171.0
Weighted Recall: 0.8915360501567398
Weighted FalsePositiveRate: 0.06249604361944282
Kappa statistic: 0.8243507243738314
Training time: 19.0
		
Iteration: 11
Labeled set size: 519
Unlabelled set size: 1076
	
Mean region size: 47.25182863113951
Incorrectly Classified Instances: 9.655172413793103
Correctly Classified Instances: 90.34482758620689
Weighted Precision: 0.9041110419580746
Weighted AreaUnderROC: 0.942606341765918
Root mean squared error: 0.2458659457980782
Relative absolute error: 21.227707086152616
Root relative squared error: 52.15604326099898
Weighted TruePositiveRate: 0.903448275862069
Weighted MatthewsCorrelation: 0.8465971687971828
Weighted FMeasure: 0.9037115867269631
Iteration time: 21.0
Weighted AreaUnderPRC: 0.870935098062979
Mean absolute error: 0.09434536482734711
Coverage of cases: 94.98432601880877
Instances selection time: 2.0
Test time: 4.0
Accumulative iteration time: 192.0
Weighted Recall: 0.903448275862069
Weighted FalsePositiveRate: 0.05586083951469765
Kappa statistic: 0.843332427629825
Training time: 19.0
		
Iteration: 12
Labeled set size: 539
Unlabelled set size: 1056
	
Mean region size: 46.4785788923727
Incorrectly Classified Instances: 9.655172413793103
Correctly Classified Instances: 90.34482758620689
Weighted Precision: 0.9041110419580746
Weighted AreaUnderROC: 0.9435230915644384
Root mean squared error: 0.24479971454302651
Relative absolute error: 20.721068694118692
Root relative squared error: 51.929861455770954
Weighted TruePositiveRate: 0.903448275862069
Weighted MatthewsCorrelation: 0.8465971687971828
Weighted FMeasure: 0.9037115867269631
Iteration time: 22.0
Weighted AreaUnderPRC: 0.8716806492880486
Mean absolute error: 0.09209363864052961
Coverage of cases: 94.92163009404389
Instances selection time: 1.0
Test time: 4.0
Accumulative iteration time: 214.0
Weighted Recall: 0.903448275862069
Weighted FalsePositiveRate: 0.05586083951469765
Kappa statistic: 0.843332427629825
Training time: 21.0
		
Iteration: 13
Labeled set size: 559
Unlabelled set size: 1036
	
Mean region size: 46.4785788923727
Incorrectly Classified Instances: 9.655172413793103
Correctly Classified Instances: 90.34482758620689
Weighted Precision: 0.9041110419580746
Weighted AreaUnderROC: 0.9435642991992809
Root mean squared error: 0.24463477263206015
Relative absolute error: 20.495755214494864
Root relative squared error: 51.894871992647104
Weighted TruePositiveRate: 0.903448275862069
Weighted MatthewsCorrelation: 0.8465971687971828
Weighted FMeasure: 0.9037115867269631
Iteration time: 22.0
Weighted AreaUnderPRC: 0.8716969273819261
Mean absolute error: 0.09109224539775701
Coverage of cases: 94.92163009404389
Instances selection time: 1.0
Test time: 4.0
Accumulative iteration time: 236.0
Weighted Recall: 0.903448275862069
Weighted FalsePositiveRate: 0.05586083951469765
Kappa statistic: 0.843332427629825
Training time: 21.0
		
Iteration: 14
Labeled set size: 579
Unlabelled set size: 1016
	
Mean region size: 44.911180773250464
Incorrectly Classified Instances: 10.031347962382446
Correctly Classified Instances: 89.96865203761756
Weighted Precision: 0.9006624288277749
Weighted AreaUnderROC: 0.940773642006248
Root mean squared error: 0.2495217879276649
Relative absolute error: 20.710135922605925
Root relative squared error: 52.93156448923244
Weighted TruePositiveRate: 0.8996865203761756
Weighted MatthewsCorrelation: 0.8404375870486718
Weighted FMeasure: 0.9000604373320004
Iteration time: 23.0
Weighted AreaUnderPRC: 0.8665527489858161
Mean absolute error: 0.09204504854491731
Coverage of cases: 94.35736677115987
Instances selection time: 2.0
Test time: 4.0
Accumulative iteration time: 259.0
Weighted Recall: 0.8996865203761756
Weighted FalsePositiveRate: 0.05610102801449099
Kappa statistic: 0.8377328377996015
Training time: 21.0
		
Iteration: 15
Labeled set size: 599
Unlabelled set size: 996
	
Mean region size: 44.24242424242496
Incorrectly Classified Instances: 9.843260188087774
Correctly Classified Instances: 90.15673981191223
Weighted Precision: 0.9023179886718513
Weighted AreaUnderROC: 0.9442705471715431
Root mean squared error: 0.2455835780145543
Relative absolute error: 20.44020447746673
Root relative squared error: 52.09614400864347
Weighted TruePositiveRate: 0.9015673981191222
Weighted MatthewsCorrelation: 0.843581351919324
Weighted FMeasure: 0.9018724834171269
Iteration time: 24.0
Weighted AreaUnderPRC: 0.8738982759865414
Mean absolute error: 0.09084535323318753
Coverage of cases: 94.42006269592477
Instances selection time: 1.0
Test time: 4.0
Accumulative iteration time: 283.0
Weighted Recall: 0.9015673981191222
Weighted FalsePositiveRate: 0.05598093376459432
Kappa statistic: 0.840505790554101
Training time: 23.0
		
Iteration: 16
Labeled set size: 619
Unlabelled set size: 976
	
Mean region size: 44.117032392895176
Incorrectly Classified Instances: 9.655172413793103
Correctly Classified Instances: 90.34482758620689
Weighted Precision: 0.9041110419580746
Weighted AreaUnderROC: 0.9432426624476778
Root mean squared error: 0.24468861796901614
Relative absolute error: 19.995226258193775
Root relative squared error: 51.906294313516156
Weighted TruePositiveRate: 0.903448275862069
Weighted MatthewsCorrelation: 0.8465971687971828
Weighted FMeasure: 0.9037115867269631
Iteration time: 24.0
Weighted AreaUnderPRC: 0.8717986497441319
Mean absolute error: 0.08886767225864102
Coverage of cases: 94.29467084639498
Instances selection time: 1.0
Test time: 4.0
Accumulative iteration time: 307.0
Weighted Recall: 0.903448275862069
Weighted FalsePositiveRate: 0.05586083951469765
Kappa statistic: 0.843332427629825
Training time: 23.0
		
Iteration: 17
Labeled set size: 639
Unlabelled set size: 956
	
Mean region size: 46.4367816091948
Incorrectly Classified Instances: 10.031347962382446
Correctly Classified Instances: 89.96865203761756
Weighted Precision: 0.9000493150760734
Weighted AreaUnderROC: 0.9458241785154501
Root mean squared error: 0.24262150507314056
Relative absolute error: 20.71333550443689
Root relative squared error: 51.46779344967063
Weighted TruePositiveRate: 0.8996865203761756
Weighted MatthewsCorrelation: 0.8402463334862249
Weighted FMeasure: 0.8997876043331984
Iteration time: 25.0
Weighted AreaUnderPRC: 0.8957096102163632
Mean absolute error: 0.09205926890861049
Coverage of cases: 95.23510971786834
Instances selection time: 1.0
Test time: 4.0
Accumulative iteration time: 332.0
Weighted Recall: 0.8996865203761756
Weighted FalsePositiveRate: 0.058958945025225924
Kappa statistic: 0.8370904039736665
Training time: 24.0
		
Iteration: 18
Labeled set size: 659
Unlabelled set size: 936
	
Mean region size: 46.1233019853704
Incorrectly Classified Instances: 9.717868338557993
Correctly Classified Instances: 90.28213166144201
Weighted Precision: 0.902850609230198
Weighted AreaUnderROC: 0.946043165426403
Root mean squared error: 0.24004038212148288
Relative absolute error: 19.96770182776875
Root relative squared error: 50.92025458701262
Weighted TruePositiveRate: 0.9028213166144201
Weighted MatthewsCorrelation: 0.8431753376488691
Weighted FMeasure: 0.9027406111613402
Iteration time: 27.0
Weighted AreaUnderPRC: 0.8918843927175135
Mean absolute error: 0.088745341456752
Coverage of cases: 95.4858934169279
Instances selection time: 1.0
Test time: 4.0
Accumulative iteration time: 359.0
Weighted Recall: 0.9028213166144201
Weighted FalsePositiveRate: 0.05987020011290616
Kappa statistic: 0.8420026061821094
Training time: 26.0
		
Iteration: 19
Labeled set size: 679
Unlabelled set size: 916
	
Mean region size: 44.80668756530885
Incorrectly Classified Instances: 9.717868338557993
Correctly Classified Instances: 90.28213166144201
Weighted Precision: 0.9029700671318714
Weighted AreaUnderROC: 0.9442143256488547
Root mean squared error: 0.24250911944107995
Relative absolute error: 20.190918834633123
Root relative squared error: 51.44395285690923
Weighted TruePositiveRate: 0.9028213166144201
Weighted MatthewsCorrelation: 0.8451119392383815
Weighted FMeasure: 0.902564162504892
Iteration time: 27.0
Weighted AreaUnderPRC: 0.8824256857600346
Mean absolute error: 0.08973741704281592
Coverage of cases: 94.92163009404389
Instances selection time: 1.0
Test time: 4.0
Accumulative iteration time: 386.0
Weighted Recall: 0.9028213166144201
Weighted FalsePositiveRate: 0.056059644098592924
Kappa statistic: 0.8424041643930624
Training time: 26.0
		
Iteration: 20
Labeled set size: 699
Unlabelled set size: 896
	
Mean region size: 46.39498432601827
Incorrectly Classified Instances: 10.031347962382446
Correctly Classified Instances: 89.96865203761756
Weighted Precision: 0.8999455701328907
Weighted AreaUnderROC: 0.9425494208489836
Root mean squared error: 0.2445975208029505
Relative absolute error: 20.242986080207068
Root relative squared error: 51.88696968635459
Weighted TruePositiveRate: 0.8996865203761756
Weighted MatthewsCorrelation: 0.8388837473967736
Weighted FMeasure: 0.8996073175533444
Iteration time: 28.0
Weighted AreaUnderPRC: 0.8801524347071225
Mean absolute error: 0.08996882702314457
Coverage of cases: 95.36050156739812
Instances selection time: 1.0
Test time: 4.0
Accumulative iteration time: 414.0
Weighted Recall: 0.8996865203761756
Weighted FalsePositiveRate: 0.0613405425341717
Kappa statistic: 0.8368597287729065
Training time: 27.0
		
Iteration: 21
Labeled set size: 719
Unlabelled set size: 876
	
Mean region size: 46.39498432601827
Incorrectly Classified Instances: 10.031347962382446
Correctly Classified Instances: 89.96865203761756
Weighted Precision: 0.8999455701328907
Weighted AreaUnderROC: 0.9425494208489836
Root mean squared error: 0.24504952437708497
Relative absolute error: 19.768347288871404
Root relative squared error: 51.9828541240719
Weighted TruePositiveRate: 0.8996865203761756
Weighted MatthewsCorrelation: 0.8388837473967736
Weighted FMeasure: 0.8996073175533444
Iteration time: 28.0
Weighted AreaUnderPRC: 0.8801524347071225
Mean absolute error: 0.0878593212838749
Coverage of cases: 95.36050156739812
Instances selection time: 1.0
Test time: 4.0
Accumulative iteration time: 442.0
Weighted Recall: 0.8996865203761756
Weighted FalsePositiveRate: 0.0613405425341717
Kappa statistic: 0.8368597287729065
Training time: 27.0
		
Iteration: 22
Labeled set size: 739
Unlabelled set size: 856
	
Mean region size: 46.39498432601827
Incorrectly Classified Instances: 10.031347962382446
Correctly Classified Instances: 89.96865203761756
Weighted Precision: 0.8999455701328907
Weighted AreaUnderROC: 0.9427199820394209
Root mean squared error: 0.24519703161317782
Relative absolute error: 20.132478897627752
Root relative squared error: 52.0141451341465
Weighted TruePositiveRate: 0.8996865203761756
Weighted MatthewsCorrelation: 0.8388837473967736
Weighted FMeasure: 0.8996073175533444
Iteration time: 29.0
Weighted AreaUnderPRC: 0.880479643348491
Mean absolute error: 0.0894776839894587
Coverage of cases: 95.36050156739812
Instances selection time: 1.0
Test time: 4.0
Accumulative iteration time: 471.0
Weighted Recall: 0.8996865203761756
Weighted FalsePositiveRate: 0.0613405425341717
Kappa statistic: 0.8368597287729065
Training time: 28.0
		
Iteration: 23
Labeled set size: 759
Unlabelled set size: 836
	
Mean region size: 45.26645768025131
Incorrectly Classified Instances: 8.90282131661442
Correctly Classified Instances: 91.09717868338558
Weighted Precision: 0.9109686436455683
Weighted AreaUnderROC: 0.9533992643356743
Root mean squared error: 0.23116608509166217
Relative absolute error: 18.48902607976413
Root relative squared error: 49.03773190459768
Weighted TruePositiveRate: 0.9109717868338558
Weighted MatthewsCorrelation: 0.8564201548156742
Weighted FMeasure: 0.910939114488183
Iteration time: 29.0
Weighted AreaUnderPRC: 0.8992202647983066
Mean absolute error: 0.082173449243398
Coverage of cases: 95.4858934169279
Instances selection time: 1.0
Test time: 4.0
Accumulative iteration time: 500.0
Weighted Recall: 0.9109717868338558
Weighted FalsePositiveRate: 0.05347518450795434
Kappa statistic: 0.8554994612093029
Training time: 28.0
		
Iteration: 24
Labeled set size: 779
Unlabelled set size: 816
	
Mean region size: 46.43678160919487
Incorrectly Classified Instances: 9.905956112852664
Correctly Classified Instances: 90.09404388714734
Weighted Precision: 0.9010763106858599
Weighted AreaUnderROC: 0.944087323406155
Root mean squared error: 0.24376628824061658
Relative absolute error: 19.705615592200683
Root relative squared error: 51.71063863188378
Weighted TruePositiveRate: 0.9009404388714733
Weighted MatthewsCorrelation: 0.8409115602232584
Weighted FMeasure: 0.9008176098761609
Iteration time: 31.0
Weighted AreaUnderPRC: 0.8830383085935659
Mean absolute error: 0.08758051374311612
Coverage of cases: 95.4858934169279
Instances selection time: 1.0
Test time: 4.0
Accumulative iteration time: 531.0
Weighted Recall: 0.9009404388714733
Weighted FalsePositiveRate: 0.06094293336638115
Kappa statistic: 0.8388076847305763
Training time: 30.0
		
Iteration: 25
Labeled set size: 799
Unlabelled set size: 796
	
Mean region size: 45.85161964472244
Incorrectly Classified Instances: 10.470219435736677
Correctly Classified Instances: 89.52978056426332
Weighted Precision: 0.8953244121585993
Weighted AreaUnderROC: 0.9350844911392177
Root mean squared error: 0.25056441278111863
Relative absolute error: 20.328700153815888
Root relative squared error: 53.15273862046566
Weighted TruePositiveRate: 0.8952978056426333
Weighted MatthewsCorrelation: 0.8313050606812507
Weighted FMeasure: 0.8951363159443922
Iteration time: 32.0
Weighted AreaUnderPRC: 0.8685422813586923
Mean absolute error: 0.09034977846140599
Coverage of cases: 94.60815047021944
Instances selection time: 2.0
Test time: 3.0
Accumulative iteration time: 563.0
Weighted Recall: 0.8952978056426333
Weighted FalsePositiveRate: 0.06463745262859524
Kappa statistic: 0.8296741066147437
Training time: 30.0
		
Iteration: 26
Labeled set size: 819
Unlabelled set size: 776
	
Mean region size: 45.6635318704282
Incorrectly Classified Instances: 10.783699059561128
Correctly Classified Instances: 89.21630094043887
Weighted Precision: 0.8919530933836107
Weighted AreaUnderROC: 0.9366059624818904
Root mean squared error: 0.2513566224649278
Relative absolute error: 20.97062918929809
Root relative squared error: 53.320791672328596
Weighted TruePositiveRate: 0.8921630094043888
Weighted MatthewsCorrelation: 0.825613752845489
Weighted FMeasure: 0.8918008065043707
Iteration time: 33.0
Weighted AreaUnderPRC: 0.8723642553794929
Mean absolute error: 0.09320279639688252
Coverage of cases: 94.858934169279
Instances selection time: 1.0
Test time: 4.0
Accumulative iteration time: 596.0
Weighted Recall: 0.8921630094043888
Weighted FalsePositiveRate: 0.06944203156238486
Kappa statistic: 0.824026191450575
Training time: 32.0
		
Iteration: 27
Labeled set size: 839
Unlabelled set size: 756
	
Mean region size: 44.388714733541924
Incorrectly Classified Instances: 9.717868338557993
Correctly Classified Instances: 90.28213166144201
Weighted Precision: 0.9028708964636597
Weighted AreaUnderROC: 0.9408848271531554
Root mean squared error: 0.2425037191551554
Relative absolute error: 19.09202303782844
Root relative squared error: 51.44280728326995
Weighted TruePositiveRate: 0.9028213166144201
Weighted MatthewsCorrelation: 0.8438471426326288
Weighted FMeasure: 0.9025598708285882
Iteration time: 33.0
Weighted AreaUnderPRC: 0.8785391378233182
Mean absolute error: 0.08485343572368388
Coverage of cases: 94.858934169279
Instances selection time: 2.0
Test time: 3.0
Accumulative iteration time: 629.0
Weighted Recall: 0.9028213166144201
Weighted FalsePositiveRate: 0.06225179762185194
Kappa statistic: 0.8413738764317096
Training time: 31.0
		
Iteration: 28
Labeled set size: 859
Unlabelled set size: 736
	
Mean region size: 44.388714733541924
Incorrectly Classified Instances: 9.717868338557993
Correctly Classified Instances: 90.28213166144201
Weighted Precision: 0.9028708964636597
Weighted AreaUnderROC: 0.9407880566059166
Root mean squared error: 0.24281851487765987
Relative absolute error: 18.78746453742764
Root relative squared error: 51.50958554029138
Weighted TruePositiveRate: 0.9028213166144201
Weighted MatthewsCorrelation: 0.8438471426326288
Weighted FMeasure: 0.9025598708285882
Iteration time: 32.0
Weighted AreaUnderPRC: 0.8783369536693121
Mean absolute error: 0.08349984238856918
Coverage of cases: 94.858934169279
Instances selection time: 1.0
Test time: 4.0
Accumulative iteration time: 661.0
Weighted Recall: 0.9028213166144201
Weighted FalsePositiveRate: 0.06225179762185194
Kappa statistic: 0.8413738764317096
Training time: 31.0
		
Iteration: 29
Labeled set size: 879
Unlabelled set size: 716
	
Mean region size: 46.47857889237208
Incorrectly Classified Instances: 8.90282131661442
Correctly Classified Instances: 91.09717868338558
Weighted Precision: 0.9107585143903643
Weighted AreaUnderROC: 0.9471185927802181
Root mean squared error: 0.23531111951864933
Relative absolute error: 18.65551071366033
Root relative squared error: 49.917026490069965
Weighted TruePositiveRate: 0.9109717868338558
Weighted MatthewsCorrelation: 0.8561403532023845
Weighted FMeasure: 0.9107291836516367
Iteration time: 33.0
Weighted AreaUnderPRC: 0.8882561116629258
Mean absolute error: 0.08291338094960335
Coverage of cases: 95.17241379310344
Instances selection time: 1.0
Test time: 4.0
Accumulative iteration time: 694.0
Weighted Recall: 0.9109717868338558
Weighted FalsePositiveRate: 0.055380462515110966
Kappa statistic: 0.8551719948460695
Training time: 32.0
		
Iteration: 30
Labeled set size: 899
Unlabelled set size: 696
	
Mean region size: 44.388714733541924
Incorrectly Classified Instances: 9.717868338557993
Correctly Classified Instances: 90.28213166144201
Weighted Precision: 0.9028708964636597
Weighted AreaUnderROC: 0.9408092817887795
Root mean squared error: 0.24293481027199332
Relative absolute error: 18.64681228671136
Root relative squared error: 51.53425551887756
Weighted TruePositiveRate: 0.9028213166144201
Weighted MatthewsCorrelation: 0.8438471426326288
Weighted FMeasure: 0.9025598708285882
Iteration time: 33.0
Weighted AreaUnderPRC: 0.8783501989888849
Mean absolute error: 0.08287472127427459
Coverage of cases: 94.858934169279
Instances selection time: 1.0
Test time: 4.0
Accumulative iteration time: 727.0
Weighted Recall: 0.9028213166144201
Weighted FalsePositiveRate: 0.06225179762185194
Kappa statistic: 0.8413738764317096
Training time: 32.0
		
Iteration: 31
Labeled set size: 919
Unlabelled set size: 676
	
Mean region size: 44.388714733541924
Incorrectly Classified Instances: 9.717868338557993
Correctly Classified Instances: 90.28213166144201
Weighted Precision: 0.9028708964636597
Weighted AreaUnderROC: 0.9408092817887795
Root mean squared error: 0.24329063929847466
Relative absolute error: 18.44682587982841
Root relative squared error: 51.609738254147956
Weighted TruePositiveRate: 0.9028213166144201
Weighted MatthewsCorrelation: 0.8438471426326288
Weighted FMeasure: 0.9025598708285882
Iteration time: 33.0
Weighted AreaUnderPRC: 0.8783501989888849
Mean absolute error: 0.08198589279923925
Coverage of cases: 94.858934169279
Instances selection time: 1.0
Test time: 4.0
Accumulative iteration time: 760.0
Weighted Recall: 0.9028213166144201
Weighted FalsePositiveRate: 0.06225179762185194
Kappa statistic: 0.8413738764317096
Training time: 32.0
		
Iteration: 32
Labeled set size: 939
Unlabelled set size: 656
	
Mean region size: 39.31034482758589
Incorrectly Classified Instances: 9.717868338557993
Correctly Classified Instances: 90.28213166144201
Weighted Precision: 0.9028708964636597
Weighted AreaUnderROC: 0.9408092817887795
Root mean squared error: 0.24352146808174924
Relative absolute error: 18.325621753106958
Root relative squared error: 51.658704433531895
Weighted TruePositiveRate: 0.9028213166144201
Weighted MatthewsCorrelation: 0.8438471426326288
Weighted FMeasure: 0.9025598708285882
Iteration time: 33.0
Weighted AreaUnderPRC: 0.8783501989888849
Mean absolute error: 0.08144720779158833
Coverage of cases: 92.85266457680251
Instances selection time: 1.0
Test time: 4.0
Accumulative iteration time: 793.0
Weighted Recall: 0.9028213166144201
Weighted FalsePositiveRate: 0.06225179762185194
Kappa statistic: 0.8413738764317096
Training time: 32.0
		
Iteration: 33
Labeled set size: 959
Unlabelled set size: 636
	
Mean region size: 40.54336468129576
Incorrectly Classified Instances: 8.90282131661442
Correctly Classified Instances: 91.09717868338558
Weighted Precision: 0.9107585143903643
Weighted AreaUnderROC: 0.9438424326176282
Root mean squared error: 0.23615433814714795
Relative absolute error: 18.134664775200747
Root relative squared error: 50.09590017314022
Weighted TruePositiveRate: 0.9109717868338558
Weighted MatthewsCorrelation: 0.8561403532023845
Weighted FMeasure: 0.9107291836516367
Iteration time: 34.0
Weighted AreaUnderPRC: 0.881294596731453
Mean absolute error: 0.08059851011200514
Coverage of cases: 92.78996865203762
Instances selection time: 1.0
Test time: 3.0
Accumulative iteration time: 827.0
Weighted Recall: 0.9109717868338558
Weighted FalsePositiveRate: 0.055380462515110966
Kappa statistic: 0.8551719948460695
Training time: 33.0
		
Iteration: 34
Labeled set size: 979
Unlabelled set size: 616
	
Mean region size: 39.31034482758589
Incorrectly Classified Instances: 9.717868338557993
Correctly Classified Instances: 90.28213166144201
Weighted Precision: 0.9028708964636597
Weighted AreaUnderROC: 0.938218309573748
Root mean squared error: 0.2435258580910403
Relative absolute error: 18.20817217401062
Root relative squared error: 51.65963569513366
Weighted TruePositiveRate: 0.9028213166144201
Weighted MatthewsCorrelation: 0.8438471426326288
Weighted FMeasure: 0.9025598708285882
Iteration time: 34.0
Weighted AreaUnderPRC: 0.8728217321953089
Mean absolute error: 0.08092520966227125
Coverage of cases: 92.85266457680251
Instances selection time: 1.0
Test time: 4.0
Accumulative iteration time: 861.0
Weighted Recall: 0.9028213166144201
Weighted FalsePositiveRate: 0.06225179762185194
Kappa statistic: 0.8413738764317096
Training time: 33.0
		
Iteration: 35
Labeled set size: 999
Unlabelled set size: 596
	
Mean region size: 39.31034482758589
Incorrectly Classified Instances: 9.717868338557993
Correctly Classified Instances: 90.28213166144201
Weighted Precision: 0.9028708964636597
Weighted AreaUnderROC: 0.9409253461795911
Root mean squared error: 0.243576072134732
Relative absolute error: 18.00664955869492
Root relative squared error: 51.67028770237522
Weighted TruePositiveRate: 0.9028213166144201
Weighted MatthewsCorrelation: 0.8438471426326288
Weighted FMeasure: 0.9025598708285882
Iteration time: 35.0
Weighted AreaUnderPRC: 0.8786971648173414
Mean absolute error: 0.08002955359420147
Coverage of cases: 92.85266457680251
Instances selection time: 1.0
Test time: 4.0
Accumulative iteration time: 896.0
Weighted Recall: 0.9028213166144201
Weighted FalsePositiveRate: 0.06225179762185194
Kappa statistic: 0.8413738764317096
Training time: 34.0
		
Iteration: 36
Labeled set size: 1019
Unlabelled set size: 576
	
Mean region size: 39.31034482758589
Incorrectly Classified Instances: 9.717868338557993
Correctly Classified Instances: 90.28213166144201
Weighted Precision: 0.9028708964636597
Weighted AreaUnderROC: 0.9409253461795911
Root mean squared error: 0.24380834773743168
Relative absolute error: 17.900016181587386
Root relative squared error: 51.71956079850715
Weighted TruePositiveRate: 0.9028213166144201
Weighted MatthewsCorrelation: 0.8438471426326288
Weighted FMeasure: 0.9025598708285882
Iteration time: 34.0
Weighted AreaUnderPRC: 0.8786971648173414
Mean absolute error: 0.07955562747372352
Coverage of cases: 92.85266457680251
Instances selection time: 1.0
Test time: 4.0
Accumulative iteration time: 930.0
Weighted Recall: 0.9028213166144201
Weighted FalsePositiveRate: 0.06225179762185194
Kappa statistic: 0.8413738764317096
Training time: 33.0
		
Iteration: 37
Labeled set size: 1039
Unlabelled set size: 556
	
Mean region size: 39.31034482758589
Incorrectly Classified Instances: 9.717868338557993
Correctly Classified Instances: 90.28213166144201
Weighted Precision: 0.9028708964636597
Weighted AreaUnderROC: 0.9409253461795911
Root mean squared error: 0.24398222594287888
Relative absolute error: 17.813661848401907
Root relative squared error: 51.75644593595883
Weighted TruePositiveRate: 0.9028213166144201
Weighted MatthewsCorrelation: 0.8438471426326288
Weighted FMeasure: 0.9025598708285882
Iteration time: 34.0
Weighted AreaUnderPRC: 0.8786971648173414
Mean absolute error: 0.0791718304373436
Coverage of cases: 92.85266457680251
Instances selection time: 1.0
Test time: 4.0
Accumulative iteration time: 964.0
Weighted Recall: 0.9028213166144201
Weighted FalsePositiveRate: 0.06225179762185194
Kappa statistic: 0.8413738764317096
Training time: 33.0
		
Iteration: 38
Labeled set size: 1059
Unlabelled set size: 536
	
Mean region size: 39.31034482758589
Incorrectly Classified Instances: 9.717868338557993
Correctly Classified Instances: 90.28213166144201
Weighted Precision: 0.9028708964636597
Weighted AreaUnderROC: 0.9355112729679048
Root mean squared error: 0.24414138990669668
Relative absolute error: 17.74748452830613
Root relative squared error: 51.790209711399655
Weighted TruePositiveRate: 0.9028213166144201
Weighted MatthewsCorrelation: 0.8438471426326288
Weighted FMeasure: 0.9025598708285882
Iteration time: 34.0
Weighted AreaUnderPRC: 0.8729230906619365
Mean absolute error: 0.07887770901469571
Coverage of cases: 92.85266457680251
Instances selection time: 0.0
Test time: 4.0
Accumulative iteration time: 998.0
Weighted Recall: 0.9028213166144201
Weighted FalsePositiveRate: 0.06225179762185194
Kappa statistic: 0.8413738764317096
Training time: 34.0
		
Iteration: 39
Labeled set size: 1079
Unlabelled set size: 516
	
Mean region size: 39.31034482758589
Incorrectly Classified Instances: 9.717868338557993
Correctly Classified Instances: 90.28213166144201
Weighted Precision: 0.9028708964636597
Weighted AreaUnderROC: 0.9409253461795911
Root mean squared error: 0.24419499905165204
Relative absolute error: 17.623470611188733
Root relative squared error: 51.80158192837912
Weighted TruePositiveRate: 0.9028213166144201
Weighted MatthewsCorrelation: 0.8438471426326288
Weighted FMeasure: 0.9025598708285882
Iteration time: 35.0
Weighted AreaUnderPRC: 0.8786971648173414
Mean absolute error: 0.07832653604972947
Coverage of cases: 92.85266457680251
Instances selection time: 0.0
Test time: 4.0
Accumulative iteration time: 1033.0
Weighted Recall: 0.9028213166144201
Weighted FalsePositiveRate: 0.06225179762185194
Kappa statistic: 0.8413738764317096
Training time: 35.0
		
Iteration: 40
Labeled set size: 1099
Unlabelled set size: 496
	
Mean region size: 39.31034482758589
Incorrectly Classified Instances: 9.717868338557993
Correctly Classified Instances: 90.28213166144201
Weighted Precision: 0.9028708964636597
Weighted AreaUnderROC: 0.9409253461795911
Root mean squared error: 0.2443276696412652
Relative absolute error: 17.570205938916445
Root relative squared error: 51.829725610452975
Weighted TruePositiveRate: 0.9028213166144201
Weighted MatthewsCorrelation: 0.8438471426326288
Weighted FMeasure: 0.9025598708285882
Iteration time: 35.0
Weighted AreaUnderPRC: 0.8786971648173414
Mean absolute error: 0.07808980417296375
Coverage of cases: 92.85266457680251
Instances selection time: 1.0
Test time: 4.0
Accumulative iteration time: 1068.0
Weighted Recall: 0.9028213166144201
Weighted FalsePositiveRate: 0.06225179762185194
Kappa statistic: 0.8413738764317096
Training time: 34.0
		
Iteration: 41
Labeled set size: 1119
Unlabelled set size: 476
	
Mean region size: 39.582027168233694
Incorrectly Classified Instances: 8.087774294670846
Correctly Classified Instances: 91.91222570532915
Weighted Precision: 0.9198143583368371
Weighted AreaUnderROC: 0.9480799646057301
Root mean squared error: 0.22238108497724712
Relative absolute error: 14.69204835218033
Root relative squared error: 47.17415195850946
Weighted TruePositiveRate: 0.9191222570532915
Weighted MatthewsCorrelation: 0.8724346875435864
Weighted FMeasure: 0.9193859012653407
Iteration time: 37.0
Weighted AreaUnderPRC: 0.8933175684123756
Mean absolute error: 0.0652979926763585
Coverage of cases: 94.54545454545455
Instances selection time: 1.0
Test time: 6.0
Accumulative iteration time: 1105.0
Weighted Recall: 0.9191222570532915
Weighted FalsePositiveRate: 0.04374593239047843
Kappa statistic: 0.8690983561188909
Training time: 36.0
		
Iteration: 42
Labeled set size: 1139
Unlabelled set size: 456
	
Mean region size: 39.582027168233694
Incorrectly Classified Instances: 8.087774294670846
Correctly Classified Instances: 91.91222570532915
Weighted Precision: 0.9198143583368371
Weighted AreaUnderROC: 0.9480799646057301
Root mean squared error: 0.22243178317507434
Relative absolute error: 14.60803892445566
Root relative squared error: 47.184906670352724
Weighted TruePositiveRate: 0.9191222570532915
Weighted MatthewsCorrelation: 0.8724346875435864
Weighted FMeasure: 0.9193859012653407
Iteration time: 37.0
Weighted AreaUnderPRC: 0.8933175684123756
Mean absolute error: 0.06492461744202663
Coverage of cases: 94.54545454545455
Instances selection time: 1.0
Test time: 6.0
Accumulative iteration time: 1142.0
Weighted Recall: 0.9191222570532915
Weighted FalsePositiveRate: 0.04374593239047843
Kappa statistic: 0.8690983561188909
Training time: 36.0
		
Iteration: 43
Labeled set size: 1159
Unlabelled set size: 436
	
Mean region size: 39.582027168233694
Incorrectly Classified Instances: 8.087774294670846
Correctly Classified Instances: 91.91222570532915
Weighted Precision: 0.9198143583368371
Weighted AreaUnderROC: 0.9480799646057301
Root mean squared error: 0.22247382930700885
Relative absolute error: 14.547365448876745
Root relative squared error: 47.19382600185679
Weighted TruePositiveRate: 0.9191222570532915
Weighted MatthewsCorrelation: 0.8724346875435864
Weighted FMeasure: 0.9193859012653407
Iteration time: 39.0
Weighted AreaUnderPRC: 0.8933175684123756
Mean absolute error: 0.06465495755056477
Coverage of cases: 94.54545454545455
Instances selection time: 1.0
Test time: 5.0
Accumulative iteration time: 1181.0
Weighted Recall: 0.9191222570532915
Weighted FalsePositiveRate: 0.04374593239047843
Kappa statistic: 0.8690983561188909
Training time: 38.0
		
Iteration: 44
Labeled set size: 1179
Unlabelled set size: 416
	
Mean region size: 39.582027168233694
Incorrectly Classified Instances: 8.087774294670846
Correctly Classified Instances: 91.91222570532915
Weighted Precision: 0.9198143583368371
Weighted AreaUnderROC: 0.9480799646057301
Root mean squared error: 0.222508642433728
Relative absolute error: 14.501490381975632
Root relative squared error: 47.20121098125002
Weighted TruePositiveRate: 0.9191222570532915
Weighted MatthewsCorrelation: 0.8724346875435864
Weighted FMeasure: 0.9193859012653407
Iteration time: 37.0
Weighted AreaUnderPRC: 0.8933175684123756
Mean absolute error: 0.0644510683643376
Coverage of cases: 94.54545454545455
Instances selection time: 1.0
Test time: 6.0
Accumulative iteration time: 1218.0
Weighted Recall: 0.9191222570532915
Weighted FalsePositiveRate: 0.04374593239047843
Kappa statistic: 0.8690983561188909
Training time: 36.0
		
Iteration: 45
Labeled set size: 1199
Unlabelled set size: 396
	
Mean region size: 39.582027168233694
Incorrectly Classified Instances: 8.087774294670846
Correctly Classified Instances: 91.91222570532915
Weighted Precision: 0.9198143583368371
Weighted AreaUnderROC: 0.9480799646057301
Root mean squared error: 0.22253770190539335
Relative absolute error: 14.465588155705145
Root relative squared error: 47.2073754260917
Weighted TruePositiveRate: 0.9191222570532915
Weighted MatthewsCorrelation: 0.8724346875435864
Weighted FMeasure: 0.9193859012653407
Iteration time: 38.0
Weighted AreaUnderPRC: 0.8933175684123756
Mean absolute error: 0.06429150291424655
Coverage of cases: 94.54545454545455
Instances selection time: 1.0
Test time: 6.0
Accumulative iteration time: 1256.0
Weighted Recall: 0.9191222570532915
Weighted FalsePositiveRate: 0.04374593239047843
Kappa statistic: 0.8690983561188909
Training time: 37.0
		
Iteration: 46
Labeled set size: 1219
Unlabelled set size: 376
	
Mean region size: 39.582027168233694
Incorrectly Classified Instances: 8.087774294670846
Correctly Classified Instances: 91.91222570532915
Weighted Precision: 0.9198143583368371
Weighted AreaUnderROC: 0.9480799646057301
Root mean squared error: 0.22256221817873473
Relative absolute error: 14.43672558164461
Root relative squared error: 47.21257611303044
Weighted TruePositiveRate: 0.9191222570532915
Weighted MatthewsCorrelation: 0.8724346875435864
Weighted FMeasure: 0.9193859012653407
Iteration time: 38.0
Weighted AreaUnderPRC: 0.8933175684123756
Mean absolute error: 0.06416322480731083
Coverage of cases: 94.54545454545455
Instances selection time: 1.0
Test time: 6.0
Accumulative iteration time: 1294.0
Weighted Recall: 0.9191222570532915
Weighted FalsePositiveRate: 0.04374593239047843
Kappa statistic: 0.8690983561188909
Training time: 37.0
		
Time end:Sun Oct 08 08.56.46 EEST 2017