Sun Oct 08 07.08.12 EEST 2017
Dataset: splice
Test set size: 1595
Initial Labelled set size: 319
Initial Unlabelled set size: 1276
Batch mode: QBestBatchMode
Batch size: 20
Classifiers: RandomForest-1cores
Scenario: PoolBasedSamplingScenario
Query strategy: EntropySamplingQueryStrategy-1cores
Time begining: Sun Oct 08 07.08.12 EEST 2017
		
Iteration: 1
Labeled set size: 319
Unlabelled set size: 1276
	
Mean region size: 97.61755485893426
Incorrectly Classified Instances: 28.150470219435736
Correctly Classified Instances: 71.84952978056427
Weighted Precision: 0.7394149707898301
Weighted AreaUnderROC: 0.8704780740881436
Root mean squared error: 0.37977754477209535
Relative absolute error: 73.73150212443329
Root relative squared error: 80.56298317521698
Weighted TruePositiveRate: 0.7184952978056426
Weighted MatthewsCorrelation: 0.5300369178696199
Weighted FMeasure: 0.6928933693802632
Iteration time: 54.0
Weighted AreaUnderPRC: 0.80753376737881
Mean absolute error: 0.32769556499748875
Coverage of cases: 99.87460815047022
Instances selection time: 5.0
Test time: 11.0
Accumulative iteration time: 54.0
Weighted Recall: 0.7184952978056426
Weighted FalsePositiveRate: 0.2616909178166528
Kappa statistic: 0.4968786531630771
Training time: 49.0
		
Iteration: 2
Labeled set size: 339
Unlabelled set size: 1256
	
Mean region size: 93.3960292580984
Incorrectly Classified Instances: 21.692789968652036
Correctly Classified Instances: 78.30721003134796
Weighted Precision: 0.7885267792123304
Weighted AreaUnderROC: 0.911575657982017
Root mean squared error: 0.35132157341119385
Relative absolute error: 66.81409033423216
Root relative squared error: 74.52656008085395
Weighted TruePositiveRate: 0.7830721003134796
Weighted MatthewsCorrelation: 0.637414374085499
Weighted FMeasure: 0.7766788076151284
Iteration time: 71.0
Weighted AreaUnderPRC: 0.8651339726160081
Mean absolute error: 0.29695151259659414
Coverage of cases: 99.87460815047022
Instances selection time: 5.0
Test time: 11.0
Accumulative iteration time: 125.0
Weighted Recall: 0.7830721003134796
Weighted FalsePositiveRate: 0.1821504274535842
Kappa statistic: 0.6298062733102578
Training time: 66.0
		
Iteration: 3
Labeled set size: 359
Unlabelled set size: 1236
	
Mean region size: 99.9791013584117
Incorrectly Classified Instances: 22.63322884012539
Correctly Classified Instances: 77.3667711598746
Weighted Precision: 0.7824785759150898
Weighted AreaUnderROC: 0.9175051166671845
Root mean squared error: 0.36614849731726345
Relative absolute error: 72.56054353745171
Root relative squared error: 77.67182561228954
Weighted TruePositiveRate: 0.773667711598746
Weighted MatthewsCorrelation: 0.6270698946385703
Weighted FMeasure: 0.7638484423145275
Iteration time: 60.0
Weighted AreaUnderPRC: 0.869009596728296
Mean absolute error: 0.3224913046109038
Coverage of cases: 100.0
Instances selection time: 5.0
Test time: 10.0
Accumulative iteration time: 185.0
Weighted Recall: 0.773667711598746
Weighted FalsePositiveRate: 0.19513520574958557
Kappa statistic: 0.6087581053617184
Training time: 55.0
		
Iteration: 4
Labeled set size: 379
Unlabelled set size: 1216
	
Mean region size: 94.23197492163031
Incorrectly Classified Instances: 19.74921630094044
Correctly Classified Instances: 80.25078369905957
Weighted Precision: 0.8010796301802457
Weighted AreaUnderROC: 0.9204152705072235
Root mean squared error: 0.34787349148385266
Relative absolute error: 66.8294331435081
Root relative squared error: 73.79511144698104
Weighted TruePositiveRate: 0.8025078369905956
Weighted MatthewsCorrelation: 0.6745692892777975
Weighted FMeasure: 0.7985997914250875
Iteration time: 64.0
Weighted AreaUnderPRC: 0.8776519444490815
Mean absolute error: 0.29701970286004276
Coverage of cases: 100.0
Instances selection time: 6.0
Test time: 10.0
Accumulative iteration time: 249.0
Weighted Recall: 0.8025078369905956
Weighted FalsePositiveRate: 0.14693199574369223
Kappa statistic: 0.6699377813748799
Training time: 58.0
		
Iteration: 5
Labeled set size: 399
Unlabelled set size: 1196
	
Mean region size: 96.32183908046005
Incorrectly Classified Instances: 19.74921630094044
Correctly Classified Instances: 80.25078369905957
Weighted Precision: 0.7993339520284521
Weighted AreaUnderROC: 0.9128619198378112
Root mean squared error: 0.35068814558129574
Relative absolute error: 67.99413820109206
Root relative squared error: 74.39218974667999
Weighted TruePositiveRate: 0.8025078369905956
Weighted MatthewsCorrelation: 0.6690619305147064
Weighted FMeasure: 0.7993787605683567
Iteration time: 68.0
Weighted AreaUnderPRC: 0.8740494482442114
Mean absolute error: 0.3021961697826382
Coverage of cases: 100.0
Instances selection time: 5.0
Test time: 10.0
Accumulative iteration time: 317.0
Weighted Recall: 0.8025078369905956
Weighted FalsePositiveRate: 0.14264512022758982
Kappa statistic: 0.6738296364004632
Training time: 63.0
		
Iteration: 6
Labeled set size: 419
Unlabelled set size: 1176
	
Mean region size: 91.57784743991647
Incorrectly Classified Instances: 18.432601880877744
Correctly Classified Instances: 81.56739811912226
Weighted Precision: 0.8128142757789407
Weighted AreaUnderROC: 0.9318578467409939
Root mean squared error: 0.33525851128331646
Relative absolute error: 62.82983022803194
Root relative squared error: 71.11907003368111
Weighted TruePositiveRate: 0.8156739811912226
Weighted MatthewsCorrelation: 0.7053408249847853
Weighted FMeasure: 0.8120582901199597
Iteration time: 117.0
Weighted AreaUnderPRC: 0.8849038879471985
Mean absolute error: 0.2792436899023705
Coverage of cases: 99.87460815047022
Instances selection time: 5.0
Test time: 26.0
Accumulative iteration time: 434.0
Weighted Recall: 0.8156739811912226
Weighted FalsePositiveRate: 0.11751216588706626
Kappa statistic: 0.6967951179959886
Training time: 112.0
		
Iteration: 7
Labeled set size: 439
Unlabelled set size: 1156
	
Mean region size: 93.27063740856856
Incorrectly Classified Instances: 21.003134796238246
Correctly Classified Instances: 78.99686520376176
Weighted Precision: 0.7886592313485012
Weighted AreaUnderROC: 0.9153436240888123
Root mean squared error: 0.3504655098747029
Relative absolute error: 67.19087397866198
Root relative squared error: 74.34496158132016
Weighted TruePositiveRate: 0.7899686520376176
Weighted MatthewsCorrelation: 0.6524700925153576
Weighted FMeasure: 0.7877290515981187
Iteration time: 157.0
Weighted AreaUnderPRC: 0.8739956521828609
Mean absolute error: 0.2986261065718378
Coverage of cases: 99.74921630094043
Instances selection time: 5.0
Test time: 11.0
Accumulative iteration time: 591.0
Weighted Recall: 0.7899686520376176
Weighted FalsePositiveRate: 0.14995544841801944
Kappa statistic: 0.651919143225672
Training time: 152.0
		
Iteration: 8
Labeled set size: 459
Unlabelled set size: 1136
	
Mean region size: 99.9791013584117
Incorrectly Classified Instances: 23.009404388714735
Correctly Classified Instances: 76.99059561128527
Weighted Precision: 0.7649810434217093
Weighted AreaUnderROC: 0.9036180372151351
Root mean squared error: 0.3714170715559999
Relative absolute error: 73.99335609933972
Root relative squared error: 78.78945898370812
Weighted TruePositiveRate: 0.7699059561128526
Weighted MatthewsCorrelation: 0.6218865977944402
Weighted FMeasure: 0.760435888273486
Iteration time: 88.0
Weighted AreaUnderPRC: 0.8445863523009465
Mean absolute error: 0.32885936044151737
Coverage of cases: 100.0
Instances selection time: 5.0
Test time: 10.0
Accumulative iteration time: 679.0
Weighted Recall: 0.7699059561128526
Weighted FalsePositiveRate: 0.17298837766528866
Kappa statistic: 0.6111510788977393
Training time: 83.0
		
Iteration: 9
Labeled set size: 479
Unlabelled set size: 1116
	
Mean region size: 95.38140020898666
Incorrectly Classified Instances: 18.432601880877744
Correctly Classified Instances: 81.56739811912226
Weighted Precision: 0.8137588454096546
Weighted AreaUnderROC: 0.9285832316498364
Root mean squared error: 0.3419954488202349
Relative absolute error: 65.85105326096405
Root relative squared error: 72.54819029871666
Weighted TruePositiveRate: 0.8156739811912226
Weighted MatthewsCorrelation: 0.6953725963584991
Weighted FMeasure: 0.8110762383843466
Iteration time: 95.0
Weighted AreaUnderPRC: 0.8910179538297949
Mean absolute error: 0.29267134782651355
Coverage of cases: 99.87460815047022
Instances selection time: 5.0
Test time: 11.0
Accumulative iteration time: 774.0
Weighted Recall: 0.8156739811912226
Weighted FalsePositiveRate: 0.13751758496221075
Kappa statistic: 0.6926574808439352
Training time: 90.0
		
Iteration: 10
Labeled set size: 499
Unlabelled set size: 1096
	
Mean region size: 95.94566353187062
Incorrectly Classified Instances: 19.811912225705328
Correctly Classified Instances: 80.18808777429467
Weighted Precision: 0.8038480486930657
Weighted AreaUnderROC: 0.9161346801017234
Root mean squared error: 0.3526189625850481
Relative absolute error: 68.12967727000617
Root relative squared error: 74.80177788565506
Weighted TruePositiveRate: 0.8018808777429467
Weighted MatthewsCorrelation: 0.6725110658869368
Weighted FMeasure: 0.7977984068823218
Iteration time: 103.0
Weighted AreaUnderPRC: 0.8739901240784437
Mean absolute error: 0.30279856564447877
Coverage of cases: 99.9373040752351
Instances selection time: 6.0
Test time: 10.0
Accumulative iteration time: 877.0
Weighted Recall: 0.8018808777429467
Weighted FalsePositiveRate: 0.15570455135979228
Kappa statistic: 0.666267616265365
Training time: 97.0
		
Iteration: 11
Labeled set size: 519
Unlabelled set size: 1076
	
Mean region size: 94.73354231974938
Incorrectly Classified Instances: 21.316614420062695
Correctly Classified Instances: 78.68338557993731
Weighted Precision: 0.7856586946601597
Weighted AreaUnderROC: 0.9119135361847639
Root mean squared error: 0.3523579972594724
Relative absolute error: 67.72021713631129
Root relative squared error: 74.74641878024433
Weighted TruePositiveRate: 0.786833855799373
Weighted MatthewsCorrelation: 0.6450130625811262
Weighted FMeasure: 0.7807083284295578
Iteration time: 114.0
Weighted AreaUnderPRC: 0.8689120066276347
Mean absolute error: 0.300978742828057
Coverage of cases: 100.0
Instances selection time: 5.0
Test time: 11.0
Accumulative iteration time: 991.0
Weighted Recall: 0.786833855799373
Weighted FalsePositiveRate: 0.16142850037685721
Kappa statistic: 0.6430151298916735
Training time: 109.0
		
Iteration: 12
Labeled set size: 539
Unlabelled set size: 1056
	
Mean region size: 90.6165099268551
Incorrectly Classified Instances: 17.304075235109718
Correctly Classified Instances: 82.69592476489028
Weighted Precision: 0.8270020859134086
Weighted AreaUnderROC: 0.939424170415285
Root mean squared error: 0.3283206751182004
Relative absolute error: 61.65617135471751
Root relative squared error: 69.64733273394668
Weighted TruePositiveRate: 0.8269592476489028
Weighted MatthewsCorrelation: 0.7149914945996262
Weighted FMeasure: 0.8262674617564051
Iteration time: 79.0
Weighted AreaUnderPRC: 0.9088310066801988
Mean absolute error: 0.27402742824319515
Coverage of cases: 99.87460815047022
Instances selection time: 4.0
Test time: 10.0
Accumulative iteration time: 1070.0
Weighted Recall: 0.8269592476489028
Weighted FalsePositiveRate: 0.11583896138410787
Kappa statistic: 0.7171411608379746
Training time: 75.0
		
Iteration: 13
Labeled set size: 559
Unlabelled set size: 1036
	
Mean region size: 97.47126436781605
Incorrectly Classified Instances: 21.065830721003135
Correctly Classified Instances: 78.93416927899686
Weighted Precision: 0.7878099460344439
Weighted AreaUnderROC: 0.9283019814610843
Root mean squared error: 0.35275506220211694
Relative absolute error: 69.02331981649822
Root relative squared error: 74.83064897429894
Weighted TruePositiveRate: 0.7893416927899687
Weighted MatthewsCorrelation: 0.6530399380742548
Weighted FMeasure: 0.7862150329207721
Iteration time: 98.0
Weighted AreaUnderPRC: 0.8798536460740783
Mean absolute error: 0.30677031029555457
Coverage of cases: 100.0
Instances selection time: 5.0
Test time: 11.0
Accumulative iteration time: 1168.0
Weighted Recall: 0.7893416927899687
Weighted FalsePositiveRate: 0.1525358505108605
Kappa statistic: 0.6490570930517339
Training time: 93.0
		
Iteration: 14
Labeled set size: 579
Unlabelled set size: 1016
	
Mean region size: 97.0950888192269
Incorrectly Classified Instances: 22.19435736677116
Correctly Classified Instances: 77.80564263322884
Weighted Precision: 0.7760055055796414
Weighted AreaUnderROC: 0.900589857309822
Root mean squared error: 0.3629379288749329
Relative absolute error: 71.15508639740663
Root relative squared error: 76.99076119717891
Weighted TruePositiveRate: 0.7780564263322884
Weighted MatthewsCorrelation: 0.6318655795983354
Weighted FMeasure: 0.7756619198334309
Iteration time: 118.0
Weighted AreaUnderPRC: 0.8574069631462661
Mean absolute error: 0.31624482843292556
Coverage of cases: 100.0
Instances selection time: 5.0
Test time: 11.0
Accumulative iteration time: 1286.0
Weighted Recall: 0.7780564263322884
Weighted FalsePositiveRate: 0.15563801351918627
Kappa statistic: 0.6334466390024255
Training time: 113.0
		
Iteration: 15
Labeled set size: 599
Unlabelled set size: 996
	
Mean region size: 96.823406478579
Incorrectly Classified Instances: 16.300940438871475
Correctly Classified Instances: 83.69905956112852
Weighted Precision: 0.8363762223267698
Weighted AreaUnderROC: 0.9404396713107253
Root mean squared error: 0.342926726495937
Relative absolute error: 67.14124203792304
Root relative squared error: 72.74574412661364
Weighted TruePositiveRate: 0.8369905956112853
Weighted MatthewsCorrelation: 0.7333401968908653
Weighted FMeasure: 0.8365659681839894
Iteration time: 104.0
Weighted AreaUnderPRC: 0.9129662310008151
Mean absolute error: 0.2984055201685536
Coverage of cases: 100.0
Instances selection time: 5.0
Test time: 11.0
Accumulative iteration time: 1390.0
Weighted Recall: 0.8369905956112853
Weighted FalsePositiveRate: 0.10694225402031361
Kappa statistic: 0.7336903821578336
Training time: 99.0
		
Iteration: 16
Labeled set size: 619
Unlabelled set size: 976
	
Mean region size: 97.05329153605025
Incorrectly Classified Instances: 17.86833855799373
Correctly Classified Instances: 82.13166144200628
Weighted Precision: 0.8201283580117127
Weighted AreaUnderROC: 0.9302497597184722
Root mean squared error: 0.349317484985356
Relative absolute error: 68.45303951208011
Root relative squared error: 74.10142872605172
Weighted TruePositiveRate: 0.8213166144200627
Weighted MatthewsCorrelation: 0.7081324192260213
Weighted FMeasure: 0.8200578533622562
Iteration time: 120.0
Weighted AreaUnderPRC: 0.8929255786284626
Mean absolute error: 0.3042357311648074
Coverage of cases: 99.9373040752351
Instances selection time: 5.0
Test time: 21.0
Accumulative iteration time: 1510.0
Weighted Recall: 0.8213166144200627
Weighted FalsePositiveRate: 0.12143875865347861
Kappa statistic: 0.7059084216001635
Training time: 115.0
		
Iteration: 17
Labeled set size: 639
Unlabelled set size: 956
	
Mean region size: 90.55381400209015
Incorrectly Classified Instances: 14.357366771159874
Correctly Classified Instances: 85.64263322884013
Weighted Precision: 0.8557625101115426
Weighted AreaUnderROC: 0.9565421735471692
Root mean squared error: 0.3152651366945706
Relative absolute error: 59.118076416047394
Root relative squared error: 66.87783480852967
Weighted TruePositiveRate: 0.8564263322884013
Weighted MatthewsCorrelation: 0.7667526850269479
Weighted FMeasure: 0.8555821164802017
Iteration time: 115.0
Weighted AreaUnderPRC: 0.9297931192486163
Mean absolute error: 0.2627470062935499
Coverage of cases: 99.87460815047022
Instances selection time: 4.0
Test time: 11.0
Accumulative iteration time: 1625.0
Weighted Recall: 0.8564263322884013
Weighted FalsePositiveRate: 0.09601611690166853
Kappa statistic: 0.7645047607749282
Training time: 111.0
		
Iteration: 18
Labeled set size: 659
Unlabelled set size: 936
	
Mean region size: 96.11285266457689
Incorrectly Classified Instances: 19.184952978056426
Correctly Classified Instances: 80.81504702194357
Weighted Precision: 0.8057792612538148
Weighted AreaUnderROC: 0.9310684591625485
Root mean squared error: 0.34568319589886365
Relative absolute error: 67.066182101891
Root relative squared error: 73.33047958869643
Weighted TruePositiveRate: 0.8081504702194358
Weighted MatthewsCorrelation: 0.6833948485572837
Weighted FMeasure: 0.8045111734948155
Iteration time: 120.0
Weighted AreaUnderPRC: 0.8938687207185726
Mean absolute error: 0.29807192045285563
Coverage of cases: 100.0
Instances selection time: 5.0
Test time: 11.0
Accumulative iteration time: 1745.0
Weighted Recall: 0.8081504702194358
Weighted FalsePositiveRate: 0.13561636445285166
Kappa statistic: 0.6826925139826067
Training time: 115.0
		
Iteration: 19
Labeled set size: 679
Unlabelled set size: 916
	
Mean region size: 99.9373040752351
Incorrectly Classified Instances: 20.062695924764892
Correctly Classified Instances: 79.9373040752351
Weighted Precision: 0.7987649318191195
Weighted AreaUnderROC: 0.9255941460290424
Root mean squared error: 0.36205969486712486
Relative absolute error: 72.40154211697592
Root relative squared error: 76.80445963046199
Weighted TruePositiveRate: 0.799373040752351
Weighted MatthewsCorrelation: 0.6681099552607214
Weighted FMeasure: 0.7955482166380875
Iteration time: 126.0
Weighted AreaUnderPRC: 0.8861920072704486
Mean absolute error: 0.32178463163101134
Coverage of cases: 100.0
Instances selection time: 5.0
Test time: 10.0
Accumulative iteration time: 1871.0
Weighted Recall: 0.799373040752351
Weighted FalsePositiveRate: 0.1512602551756927
Kappa statistic: 0.664307921188655
Training time: 121.0
		
Iteration: 20
Labeled set size: 699
Unlabelled set size: 896
	
Mean region size: 95.96656217345874
Incorrectly Classified Instances: 19.122257053291538
Correctly Classified Instances: 80.87774294670847
Weighted Precision: 0.8077144602417299
Weighted AreaUnderROC: 0.9215487078106516
Root mean squared error: 0.35172275419860854
Relative absolute error: 68.4827699106836
Root relative squared error: 74.61166337743275
Weighted TruePositiveRate: 0.8087774294670846
Weighted MatthewsCorrelation: 0.6854750234594273
Weighted FMeasure: 0.8055998749680514
Iteration time: 142.0
Weighted AreaUnderPRC: 0.8745640996589675
Mean absolute error: 0.3043678662697118
Coverage of cases: 99.9373040752351
Instances selection time: 4.0
Test time: 11.0
Accumulative iteration time: 2013.0
Weighted Recall: 0.8087774294670846
Weighted FalsePositiveRate: 0.14113339389042623
Kappa statistic: 0.6810656691015751
Training time: 138.0
		
Iteration: 21
Labeled set size: 719
Unlabelled set size: 876
	
Mean region size: 96.50992685475455
Incorrectly Classified Instances: 16.112852664576803
Correctly Classified Instances: 83.8871473354232
Weighted Precision: 0.8378072254372305
Weighted AreaUnderROC: 0.9415010989826149
Root mean squared error: 0.33694863440231493
Relative absolute error: 65.36098570788253
Root relative squared error: 71.4775992892263
Weighted TruePositiveRate: 0.838871473354232
Weighted MatthewsCorrelation: 0.7331856837882474
Weighted FMeasure: 0.83769630118185
Iteration time: 133.0
Weighted AreaUnderPRC: 0.9086362352130005
Mean absolute error: 0.29049326981281787
Coverage of cases: 100.0
Instances selection time: 4.0
Test time: 11.0
Accumulative iteration time: 2146.0
Weighted Recall: 0.838871473354232
Weighted FalsePositiveRate: 0.11301431329367596
Kappa statistic: 0.7351811187623029
Training time: 129.0
		
Iteration: 22
Labeled set size: 739
Unlabelled set size: 856
	
Mean region size: 95.71577847439943
Incorrectly Classified Instances: 19.87460815047022
Correctly Classified Instances: 80.12539184952978
Weighted Precision: 0.8036705176507549
Weighted AreaUnderROC: 0.92070906833433
Root mean squared error: 0.3463335635090581
Relative absolute error: 66.64846224080115
Root relative squared error: 73.4684433929262
Weighted TruePositiveRate: 0.8012539184952978
Weighted MatthewsCorrelation: 0.6712764755859728
Weighted FMeasure: 0.8000370883787922
Iteration time: 194.0
Weighted AreaUnderPRC: 0.8819581032054277
Mean absolute error: 0.2962153877369007
Coverage of cases: 99.9373040752351
Instances selection time: 4.0
Test time: 11.0
Accumulative iteration time: 2340.0
Weighted Recall: 0.8012539184952978
Weighted FalsePositiveRate: 0.13827953437748883
Kappa statistic: 0.6733556990180934
Training time: 190.0
		
Iteration: 23
Labeled set size: 759
Unlabelled set size: 836
	
Mean region size: 96.34273772204797
Incorrectly Classified Instances: 17.93103448275862
Correctly Classified Instances: 82.06896551724138
Weighted Precision: 0.8194892804273778
Weighted AreaUnderROC: 0.9377261355627878
Root mean squared error: 0.3415050686921812
Relative absolute error: 66.04748722385762
Root relative squared error: 72.4441649645449
Weighted TruePositiveRate: 0.8206896551724138
Weighted MatthewsCorrelation: 0.7073909273160934
Weighted FMeasure: 0.8192908312652563
Iteration time: 142.0
Weighted AreaUnderPRC: 0.9046150676137793
Mean absolute error: 0.293544387661596
Coverage of cases: 100.0
Instances selection time: 4.0
Test time: 11.0
Accumulative iteration time: 2482.0
Weighted Recall: 0.8206896551724138
Weighted FalsePositiveRate: 0.1192559657284281
Kappa statistic: 0.7058040133757695
Training time: 138.0
		
Iteration: 24
Labeled set size: 779
Unlabelled set size: 816
	
Mean region size: 92.56008359456644
Incorrectly Classified Instances: 16.551724137931036
Correctly Classified Instances: 83.44827586206897
Weighted Precision: 0.832977496740477
Weighted AreaUnderROC: 0.9439616653486371
Root mean squared error: 0.33459049946766917
Relative absolute error: 64.18604076278102
Root relative squared error: 70.97736332825404
Weighted TruePositiveRate: 0.8344827586206897
Weighted MatthewsCorrelation: 0.7308353328659911
Weighted FMeasure: 0.8332881710495026
Iteration time: 147.0
Weighted AreaUnderPRC: 0.9110695619048238
Mean absolute error: 0.2852712922790332
Coverage of cases: 100.0
Instances selection time: 4.0
Test time: 12.0
Accumulative iteration time: 2629.0
Weighted Recall: 0.8344827586206897
Weighted FalsePositiveRate: 0.10964275036305135
Kappa statistic: 0.7284344738853258
Training time: 143.0
		
Iteration: 25
Labeled set size: 799
Unlabelled set size: 796
	
Mean region size: 89.21630094043914
Incorrectly Classified Instances: 15.297805642633229
Correctly Classified Instances: 84.70219435736676
Weighted Precision: 0.8470016981458077
Weighted AreaUnderROC: 0.945489677965588
Root mean squared error: 0.3188032540986859
Relative absolute error: 58.714049024094535
Root relative squared error: 67.62838285125487
Weighted TruePositiveRate: 0.8470219435736677
Weighted MatthewsCorrelation: 0.7465978000581749
Weighted FMeasure: 0.8442752923385289
Iteration time: 152.0
Weighted AreaUnderPRC: 0.9169038933162396
Mean absolute error: 0.2609513289959816
Coverage of cases: 100.0
Instances selection time: 4.0
Test time: 11.0
Accumulative iteration time: 2781.0
Weighted Recall: 0.8470219435736677
Weighted FalsePositiveRate: 0.11424040971735062
Kappa statistic: 0.7465455945055137
Training time: 148.0
		
Iteration: 26
Labeled set size: 819
Unlabelled set size: 776
	
Mean region size: 94.81713688610269
Incorrectly Classified Instances: 17.429467084639498
Correctly Classified Instances: 82.5705329153605
Weighted Precision: 0.8226860117263598
Weighted AreaUnderROC: 0.9299558874016655
Root mean squared error: 0.3391786418139408
Relative absolute error: 65.49793129734206
Root relative squared error: 71.95065529808338
Weighted TruePositiveRate: 0.8257053291536051
Weighted MatthewsCorrelation: 0.7078421424909789
Weighted FMeasure: 0.8216961861389414
Iteration time: 131.0
Weighted AreaUnderPRC: 0.8951442367053866
Mean absolute error: 0.2911019168770824
Coverage of cases: 99.9373040752351
Instances selection time: 3.0
Test time: 11.0
Accumulative iteration time: 2912.0
Weighted Recall: 0.8257053291536051
Weighted FalsePositiveRate: 0.12766823859483814
Kappa statistic: 0.7120589012638863
Training time: 128.0
		
Iteration: 27
Labeled set size: 839
Unlabelled set size: 756
	
Mean region size: 98.82967607105535
Incorrectly Classified Instances: 20.50156739811912
Correctly Classified Instances: 79.49843260188088
Weighted Precision: 0.791421147307744
Weighted AreaUnderROC: 0.9196382721501225
Root mean squared error: 0.3568931712032206
Relative absolute error: 70.39878520557497
Root relative squared error: 75.70847445508977
Weighted TruePositiveRate: 0.7949843260188088
Weighted MatthewsCorrelation: 0.6618194517536987
Weighted FMeasure: 0.7904666155083728
Iteration time: 162.0
Weighted AreaUnderPRC: 0.8768142905923345
Mean absolute error: 0.3128834898025625
Coverage of cases: 100.0
Instances selection time: 4.0
Test time: 12.0
Accumulative iteration time: 3074.0
Weighted Recall: 0.7949843260188088
Weighted FalsePositiveRate: 0.14264917772538738
Kappa statistic: 0.6612092316286563
Training time: 158.0
		
Iteration: 28
Labeled set size: 859
Unlabelled set size: 736
	
Mean region size: 99.9164054336468
Incorrectly Classified Instances: 18.808777429467085
Correctly Classified Instances: 81.19122257053291
Weighted Precision: 0.8133032826845985
Weighted AreaUnderROC: 0.9351890841161696
Root mean squared error: 0.3494489653333086
Relative absolute error: 69.2038870663656
Root relative squared error: 74.12931991974075
Weighted TruePositiveRate: 0.8119122257053292
Weighted MatthewsCorrelation: 0.6882669217321719
Weighted FMeasure: 0.8084046102772808
Iteration time: 145.0
Weighted AreaUnderPRC: 0.9014343340663131
Mean absolute error: 0.3075728314060763
Coverage of cases: 100.0
Instances selection time: 3.0
Test time: 11.0
Accumulative iteration time: 3219.0
Weighted Recall: 0.8119122257053292
Weighted FalsePositiveRate: 0.146807843995998
Kappa statistic: 0.6844612497312811
Training time: 142.0
		
Iteration: 29
Labeled set size: 879
Unlabelled set size: 716
	
Mean region size: 93.7095088819229
Incorrectly Classified Instances: 17.115987460815045
Correctly Classified Instances: 82.88401253918495
Weighted Precision: 0.8283772951406204
Weighted AreaUnderROC: 0.9381760031315604
Root mean squared error: 0.3327632610475507
Relative absolute error: 63.40270744553839
Root relative squared error: 70.58974752494093
Weighted TruePositiveRate: 0.8288401253918495
Weighted MatthewsCorrelation: 0.719252366029664
Weighted FMeasure: 0.8270281936099779
Iteration time: 185.0
Weighted AreaUnderPRC: 0.9042981875646168
Mean absolute error: 0.2817898108690659
Coverage of cases: 99.87460815047022
Instances selection time: 4.0
Test time: 11.0
Accumulative iteration time: 3404.0
Weighted Recall: 0.8288401253918495
Weighted FalsePositiveRate: 0.12333997916283772
Kappa statistic: 0.716340077912264
Training time: 181.0
		
Iteration: 30
Labeled set size: 899
Unlabelled set size: 696
	
Mean region size: 96.90700104493209
Incorrectly Classified Instances: 14.608150470219435
Correctly Classified Instances: 85.39184952978056
Weighted Precision: 0.8526468642782009
Weighted AreaUnderROC: 0.958568534056718
Root mean squared error: 0.33033455391620425
Relative absolute error: 64.1878988659064
Root relative squared error: 70.07454094031358
Weighted TruePositiveRate: 0.8539184952978056
Weighted MatthewsCorrelation: 0.76464679882842
Weighted FMeasure: 0.8519889373843772
Iteration time: 174.0
Weighted AreaUnderPRC: 0.9305570768324999
Mean absolute error: 0.28527955051514603
Coverage of cases: 100.0
Instances selection time: 4.0
Test time: 12.0
Accumulative iteration time: 3578.0
Weighted Recall: 0.8539184952978056
Weighted FalsePositiveRate: 0.10205084975693035
Kappa statistic: 0.7583204462716829
Training time: 170.0
		
Iteration: 31
Labeled set size: 919
Unlabelled set size: 676
	
Mean region size: 91.32706374085706
Incorrectly Classified Instances: 12.978056426332289
Correctly Classified Instances: 87.02194357366771
Weighted Precision: 0.8706379468965023
Weighted AreaUnderROC: 0.9553854930978181
Root mean squared error: 0.3173541059170329
Relative absolute error: 59.825250638250374
Root relative squared error: 67.32097209939758
Weighted TruePositiveRate: 0.8702194357366771
Weighted MatthewsCorrelation: 0.7877350326125481
Weighted FMeasure: 0.8688530178712434
Iteration time: 200.0
Weighted AreaUnderPRC: 0.9320237676315948
Mean absolute error: 0.26589000283667436
Coverage of cases: 99.9373040752351
Instances selection time: 3.0
Test time: 12.0
Accumulative iteration time: 3778.0
Weighted Recall: 0.8702194357366771
Weighted FalsePositiveRate: 0.09307137456133995
Kappa statistic: 0.786090106946848
Training time: 197.0
		
Iteration: 32
Labeled set size: 939
Unlabelled set size: 656
	
Mean region size: 97.65935214211073
Incorrectly Classified Instances: 14.043887147335424
Correctly Classified Instances: 85.95611285266457
Weighted Precision: 0.8595878073857249
Weighted AreaUnderROC: 0.9551671722124214
Root mean squared error: 0.32807702104171177
Relative absolute error: 63.91964310500304
Root relative squared error: 69.59564589902203
Weighted TruePositiveRate: 0.8595611285266458
Weighted MatthewsCorrelation: 0.7664362357085415
Weighted FMeasure: 0.8574517991942886
Iteration time: 195.0
Weighted AreaUnderPRC: 0.9316520128725067
Mean absolute error: 0.28408730268890886
Coverage of cases: 100.0
Instances selection time: 4.0
Test time: 12.0
Accumulative iteration time: 3973.0
Weighted Recall: 0.8595611285266458
Weighted FalsePositiveRate: 0.10835904003228848
Kappa statistic: 0.7669844151914058
Training time: 191.0
		
Iteration: 33
Labeled set size: 959
Unlabelled set size: 636
	
Mean region size: 96.73981191222579
Incorrectly Classified Instances: 16.990595611285265
Correctly Classified Instances: 83.00940438871473
Weighted Precision: 0.8302427306228896
Weighted AreaUnderROC: 0.937450981058341
Root mean squared error: 0.3427749878308246
Relative absolute error: 66.7815230755159
Root relative squared error: 72.7135554948929
Weighted TruePositiveRate: 0.8300940438871474
Weighted MatthewsCorrelation: 0.7205598527628487
Weighted FMeasure: 0.8274394579263987
Iteration time: 180.0
Weighted AreaUnderPRC: 0.9047203570854812
Mean absolute error: 0.29680676922452187
Coverage of cases: 100.0
Instances selection time: 4.0
Test time: 11.0
Accumulative iteration time: 4153.0
Weighted Recall: 0.8300940438871474
Weighted FalsePositiveRate: 0.128658204016517
Kappa statistic: 0.7165366775287878
Training time: 176.0
		
Iteration: 34
Labeled set size: 979
Unlabelled set size: 616
	
Mean region size: 99.95820271682341
Incorrectly Classified Instances: 18.746081504702193
Correctly Classified Instances: 81.25391849529781
Weighted Precision: 0.8166121767016771
Weighted AreaUnderROC: 0.9293963952620613
Root mean squared error: 0.3546403145824528
Relative absolute error: 70.39209394702995
Root relative squared error: 75.230571397014
Weighted TruePositiveRate: 0.812539184952978
Weighted MatthewsCorrelation: 0.6871641829577049
Weighted FMeasure: 0.8089035194484179
Iteration time: 175.0
Weighted AreaUnderPRC: 0.8970408292356324
Mean absolute error: 0.3128537508756958
Coverage of cases: 100.0
Instances selection time: 3.0
Test time: 11.0
Accumulative iteration time: 4328.0
Weighted Recall: 0.812539184952978
Weighted FalsePositiveRate: 0.1542301514407292
Kappa statistic: 0.6835718517918907
Training time: 172.0
		
Iteration: 35
Labeled set size: 999
Unlabelled set size: 596
	
Mean region size: 90.55381400209016
Incorrectly Classified Instances: 16.426332288401255
Correctly Classified Instances: 83.57366771159874
Weighted Precision: 0.8351246801458686
Weighted AreaUnderROC: 0.939255490005518
Root mean squared error: 0.32815247044048196
Relative absolute error: 61.59432970228336
Root relative squared error: 69.61165113347408
Weighted TruePositiveRate: 0.8357366771159874
Weighted MatthewsCorrelation: 0.727621678964043
Weighted FMeasure: 0.8336359356948031
Iteration time: 171.0
Weighted AreaUnderPRC: 0.9074719748467673
Mean absolute error: 0.27375257645459894
Coverage of cases: 99.9373040752351
Instances selection time: 4.0
Test time: 11.0
Accumulative iteration time: 4499.0
Weighted Recall: 0.8357366771159874
Weighted FalsePositiveRate: 0.12020048973641134
Kappa statistic: 0.7283184270047154
Training time: 167.0
		
Iteration: 36
Labeled set size: 1019
Unlabelled set size: 576
	
Mean region size: 97.01149425287367
Incorrectly Classified Instances: 21.065830721003135
Correctly Classified Instances: 78.93416927899686
Weighted Precision: 0.7913326350753558
Weighted AreaUnderROC: 0.9043869906845945
Root mean squared error: 0.3605567546506952
Relative absolute error: 70.6356432664895
Root relative squared error: 76.48563786483538
Weighted TruePositiveRate: 0.7893416927899687
Weighted MatthewsCorrelation: 0.6459347811897607
Weighted FMeasure: 0.7857731942432181
Iteration time: 206.0
Weighted AreaUnderPRC: 0.8625836164960708
Mean absolute error: 0.31393619229551595
Coverage of cases: 100.0
Instances selection time: 4.0
Test time: 26.0
Accumulative iteration time: 4705.0
Weighted Recall: 0.7893416927899687
Weighted FalsePositiveRate: 0.1673017550663243
Kappa statistic: 0.6457687502891779
Training time: 202.0
		
Iteration: 37
Labeled set size: 1039
Unlabelled set size: 556
	
Mean region size: 99.9582027168234
Incorrectly Classified Instances: 26.33228840125392
Correctly Classified Instances: 73.66771159874608
Weighted Precision: 0.736345875670175
Weighted AreaUnderROC: 0.864327578508504
Root mean squared error: 0.37871701423741383
Relative absolute error: 74.74966110760239
Root relative squared error: 80.33801067539837
Weighted TruePositiveRate: 0.7366771159874608
Weighted MatthewsCorrelation: 0.5577311910252021
Weighted FMeasure: 0.7308836786719423
Iteration time: 192.0
Weighted AreaUnderPRC: 0.8035838155248498
Mean absolute error: 0.332220716033796
Coverage of cases: 100.0
Instances selection time: 3.0
Test time: 12.0
Accumulative iteration time: 4897.0
Weighted Recall: 0.7366771159874608
Weighted FalsePositiveRate: 0.20400675918867192
Kappa statistic: 0.5546025730527575
Training time: 189.0
		
Iteration: 38
Labeled set size: 1059
Unlabelled set size: 536
	
Mean region size: 94.0229885057473
Incorrectly Classified Instances: 20.25078369905956
Correctly Classified Instances: 79.74921630094043
Weighted Precision: 0.7973466924279475
Weighted AreaUnderROC: 0.9084916013638046
Root mean squared error: 0.3525459749069504
Relative absolute error: 67.84848025505923
Root relative squared error: 74.78629486101727
Weighted TruePositiveRate: 0.7974921630094044
Weighted MatthewsCorrelation: 0.6621087819090105
Weighted FMeasure: 0.795134656732365
Iteration time: 222.0
Weighted AreaUnderPRC: 0.8668496069438305
Mean absolute error: 0.3015488011336034
Coverage of cases: 99.81191222570533
Instances selection time: 3.0
Test time: 12.0
Accumulative iteration time: 5119.0
Weighted Recall: 0.7974921630094044
Weighted FalsePositiveRate: 0.1518566689273785
Kappa statistic: 0.6627330806812833
Training time: 219.0
		
Iteration: 39
Labeled set size: 1079
Unlabelled set size: 516
	
Mean region size: 99.89550679205853
Incorrectly Classified Instances: 15.109717868338558
Correctly Classified Instances: 84.89028213166144
Weighted Precision: 0.8502441088794748
Weighted AreaUnderROC: 0.9440599300716309
Root mean squared error: 0.3407859021103553
Relative absolute error: 67.02524971862684
Root relative squared error: 72.29160669450135
Weighted TruePositiveRate: 0.8489028213166144
Weighted MatthewsCorrelation: 0.7490067438977223
Weighted FMeasure: 0.846966365479265
Iteration time: 195.0
Weighted AreaUnderPRC: 0.919418996901615
Mean absolute error: 0.2978899987494594
Coverage of cases: 100.0
Instances selection time: 3.0
Test time: 11.0
Accumulative iteration time: 5314.0
Weighted Recall: 0.8489028213166144
Weighted FalsePositiveRate: 0.11888351048534548
Kappa statistic: 0.748208978785479
Training time: 192.0
		
Iteration: 40
Labeled set size: 1099
Unlabelled set size: 496
	
Mean region size: 97.40856844305127
Incorrectly Classified Instances: 16.739811912225704
Correctly Classified Instances: 83.2601880877743
Weighted Precision: 0.8329023944894736
Weighted AreaUnderROC: 0.9373587082059525
Root mean squared error: 0.34164062588333205
Relative absolute error: 66.26248573047076
Root relative squared error: 72.4729209872753
Weighted TruePositiveRate: 0.8326018808777429
Weighted MatthewsCorrelation: 0.7237083808102386
Weighted FMeasure: 0.8301918696503254
Iteration time: 251.0
Weighted AreaUnderPRC: 0.904364225220504
Mean absolute error: 0.2944999365798767
Coverage of cases: 100.0
Instances selection time: 3.0
Test time: 12.0
Accumulative iteration time: 5565.0
Weighted Recall: 0.8326018808777429
Weighted FalsePositiveRate: 0.12738666617914676
Kappa statistic: 0.7209638317389594
Training time: 248.0
		
Iteration: 41
Labeled set size: 1119
Unlabelled set size: 476
	
Mean region size: 94.87983281086748
Incorrectly Classified Instances: 15.736677115987462
Correctly Classified Instances: 84.26332288401254
Weighted Precision: 0.8475535055045181
Weighted AreaUnderROC: 0.948915831734872
Root mean squared error: 0.33203120851354084
Relative absolute error: 63.940071472442206
Root relative squared error: 70.43445573164598
Weighted TruePositiveRate: 0.8426332288401254
Weighted MatthewsCorrelation: 0.7395877405002895
Weighted FMeasure: 0.8395154853498001
Iteration time: 219.0
Weighted AreaUnderPRC: 0.9218803481248881
Mean absolute error: 0.2841780954330829
Coverage of cases: 99.81191222570533
Instances selection time: 3.0
Test time: 12.0
Accumulative iteration time: 5784.0
Weighted Recall: 0.8426332288401254
Weighted FalsePositiveRate: 0.13277954386902713
Kappa statistic: 0.7346816239132149
Training time: 216.0
		
Iteration: 42
Labeled set size: 1139
Unlabelled set size: 456
	
Mean region size: 97.32497387669798
Incorrectly Classified Instances: 15.61128526645768
Correctly Classified Instances: 84.38871473354232
Weighted Precision: 0.8468421702141528
Weighted AreaUnderROC: 0.9595708870144538
Root mean squared error: 0.3258947386066916
Relative absolute error: 63.077704616732426
Root relative squared error: 69.13271388654191
Weighted TruePositiveRate: 0.8438871473354232
Weighted MatthewsCorrelation: 0.7409319006104099
Weighted FMeasure: 0.8393466944498127
Iteration time: 199.0
Weighted AreaUnderPRC: 0.9373506542100224
Mean absolute error: 0.2803453538521505
Coverage of cases: 100.0
Instances selection time: 3.0
Test time: 12.0
Accumulative iteration time: 5983.0
Weighted Recall: 0.8438871473354232
Weighted FalsePositiveRate: 0.12857137868692334
Kappa statistic: 0.737796448363419
Training time: 196.0
		
Iteration: 43
Labeled set size: 1159
Unlabelled set size: 436
	
Mean region size: 99.9582027168234
Incorrectly Classified Instances: 16.17554858934169
Correctly Classified Instances: 83.82445141065831
Weighted Precision: 0.8420145690407318
Weighted AreaUnderROC: 0.9557119265142455
Root mean squared error: 0.34179106947704674
Relative absolute error: 67.76048691301226
Root relative squared error: 72.50483489286583
Weighted TruePositiveRate: 0.8382445141065831
Weighted MatthewsCorrelation: 0.735431129576248
Weighted FMeasure: 0.8339078047922984
Iteration time: 192.0
Weighted AreaUnderPRC: 0.9277773620597096
Mean absolute error: 0.3011577196133946
Coverage of cases: 100.0
Instances selection time: 3.0
Test time: 11.0
Accumulative iteration time: 6175.0
Weighted Recall: 0.8382445141065831
Weighted FalsePositiveRate: 0.13321853695271577
Kappa statistic: 0.7269616647568823
Training time: 189.0
		
Iteration: 44
Labeled set size: 1179
Unlabelled set size: 416
	
Mean region size: 96.5726227795193
Incorrectly Classified Instances: 13.855799373040753
Correctly Classified Instances: 86.14420062695925
Weighted Precision: 0.8654736575084313
Weighted AreaUnderROC: 0.9576055278395447
Root mean squared error: 0.32099913415849324
Relative absolute error: 61.54901794886814
Root relative squared error: 68.0941993555435
Weighted TruePositiveRate: 0.8614420062695924
Weighted MatthewsCorrelation: 0.770604849887912
Weighted FMeasure: 0.8569964499051754
Iteration time: 213.0
Weighted AreaUnderPRC: 0.9374896696739689
Mean absolute error: 0.2735511908838646
Coverage of cases: 100.0
Instances selection time: 2.0
Test time: 12.0
Accumulative iteration time: 6388.0
Weighted Recall: 0.8614420062695924
Weighted FalsePositiveRate: 0.1177653358181749
Kappa statistic: 0.7672131017626675
Training time: 211.0
		
Iteration: 45
Labeled set size: 1199
Unlabelled set size: 396
	
Mean region size: 95.5694879832811
Incorrectly Classified Instances: 18.244514106583072
Correctly Classified Instances: 81.75548589341693
Weighted Precision: 0.8234248236266524
Weighted AreaUnderROC: 0.9300606398067998
Root mean squared error: 0.34493509175021986
Relative absolute error: 66.91228404922957
Root relative squared error: 73.17178273373449
Weighted TruePositiveRate: 0.8175548589341692
Weighted MatthewsCorrelation: 0.6964276469089272
Weighted FMeasure: 0.8135501668341742
Iteration time: 248.0
Weighted AreaUnderPRC: 0.8968290054886211
Mean absolute error: 0.29738792910769374
Coverage of cases: 100.0
Instances selection time: 3.0
Test time: 12.0
Accumulative iteration time: 6636.0
Weighted Recall: 0.8175548589341692
Weighted FalsePositiveRate: 0.15406867327493448
Kappa statistic: 0.6908568848108955
Training time: 245.0
		
Iteration: 46
Labeled set size: 1219
Unlabelled set size: 376
	
Mean region size: 91.20167189132715
Incorrectly Classified Instances: 14.231974921630094
Correctly Classified Instances: 85.7680250783699
Weighted Precision: 0.8606386182959539
Weighted AreaUnderROC: 0.96228802354732
Root mean squared error: 0.3126631798005618
Relative absolute error: 58.33513232975384
Root relative squared error: 66.32587639929706
Weighted TruePositiveRate: 0.857680250783699
Weighted MatthewsCorrelation: 0.7653567691196861
Weighted FMeasure: 0.8549335110809181
Iteration time: 236.0
Weighted AreaUnderPRC: 0.9399782104331011
Mean absolute error: 0.25926725479891183
Coverage of cases: 100.0
Instances selection time: 3.0
Test time: 12.0
Accumulative iteration time: 6872.0
Weighted Recall: 0.857680250783699
Weighted FalsePositiveRate: 0.11705288531438995
Kappa statistic: 0.7614514064263468
Training time: 233.0
		
Time end:Sun Oct 08 07.08.24 EEST 2017