Sun Oct 08 08.05.54 EEST 2017
Dataset: splice
Test set size: 1595
Initial Labelled set size: 319
Initial Unlabelled set size: 1276
Batch mode: QBestBatchMode
Batch size: 20
Classifiers: J48-1cores
Scenario: PoolBasedSamplingScenario
Query strategy: LeastConfidentSamplingQueryStrategy-1cores
Time begining: Sun Oct 08 08.05.54 EEST 2017
		
Iteration: 1
Labeled set size: 319
Unlabelled set size: 1276
	
Mean region size: 52.97805642633208
Incorrectly Classified Instances: 16.112852664576803
Correctly Classified Instances: 83.8871473354232
Weighted Precision: 0.8431675019818493
Weighted AreaUnderROC: 0.9075944875221866
Root mean squared error: 0.30757651581963613
Relative absolute error: 28.70345410490904
Root relative squared error: 65.2468320209381
Weighted TruePositiveRate: 0.838871473354232
Weighted MatthewsCorrelation: 0.742639638192508
Weighted FMeasure: 0.840357675519613
Iteration time: 12.0
Weighted AreaUnderPRC: 0.8237493716049451
Mean absolute error: 0.12757090713293195
Coverage of cases: 94.60815047021944
Instances selection time: 1.0
Test time: 4.0
Accumulative iteration time: 12.0
Weighted Recall: 0.838871473354232
Weighted FalsePositiveRate: 0.09110361621137483
Kappa statistic: 0.7408184878997202
Training time: 11.0
		
Iteration: 2
Labeled set size: 339
Unlabelled set size: 1256
	
Mean region size: 50.449320794148335
Incorrectly Classified Instances: 12.163009404388715
Correctly Classified Instances: 87.83699059561128
Weighted Precision: 0.8805064875319216
Weighted AreaUnderROC: 0.9322806951090319
Root mean squared error: 0.26778464468228463
Relative absolute error: 23.952002334520177
Root relative squared error: 56.80570144574144
Weighted TruePositiveRate: 0.8783699059561129
Weighted MatthewsCorrelation: 0.8068445933602215
Weighted FMeasure: 0.8790269961508433
Iteration time: 13.0
Weighted AreaUnderPRC: 0.8603428330413305
Mean absolute error: 0.10645334370898098
Coverage of cases: 95.29780564263324
Instances selection time: 2.0
Test time: 4.0
Accumulative iteration time: 25.0
Weighted Recall: 0.8783699059561129
Weighted FalsePositiveRate: 0.06619462037945444
Kappa statistic: 0.8040238973929599
Training time: 11.0
		
Iteration: 3
Labeled set size: 359
Unlabelled set size: 1236
	
Mean region size: 45.39184952977984
Incorrectly Classified Instances: 14.796238244514107
Correctly Classified Instances: 85.2037617554859
Weighted Precision: 0.8508566181293454
Weighted AreaUnderROC: 0.9011638493246339
Root mean squared error: 0.29338279638187204
Relative absolute error: 27.3560344564302
Root relative squared error: 62.23588944152744
Weighted TruePositiveRate: 0.852037617554859
Weighted MatthewsCorrelation: 0.7596153887423722
Weighted FMeasure: 0.849652995004569
Iteration time: 15.0
Weighted AreaUnderPRC: 0.8275225121355514
Mean absolute error: 0.12158237536191477
Coverage of cases: 92.47648902821317
Instances selection time: 2.0
Test time: 3.0
Accumulative iteration time: 40.0
Weighted Recall: 0.852037617554859
Weighted FalsePositiveRate: 0.09026295646209813
Kappa statistic: 0.7600476309468563
Training time: 13.0
		
Iteration: 4
Labeled set size: 379
Unlabelled set size: 1216
	
Mean region size: 44.9947753396024
Incorrectly Classified Instances: 12.601880877742946
Correctly Classified Instances: 87.39811912225706
Weighted Precision: 0.8735084010062475
Weighted AreaUnderROC: 0.9090729843747709
Root mean squared error: 0.27826880634141393
Relative absolute error: 24.190613770560162
Root relative squared error: 59.029727987009316
Weighted TruePositiveRate: 0.8739811912225706
Weighted MatthewsCorrelation: 0.7952263290924744
Weighted FMeasure: 0.8734249815514661
Iteration time: 15.0
Weighted AreaUnderPRC: 0.8257416310791793
Mean absolute error: 0.10751383898026982
Coverage of cases: 92.85266457680251
Instances selection time: 2.0
Test time: 4.0
Accumulative iteration time: 55.0
Weighted Recall: 0.8739811912225706
Weighted FalsePositiveRate: 0.08187583752039602
Kappa statistic: 0.7942392509832514
Training time: 13.0
		
Iteration: 5
Labeled set size: 399
Unlabelled set size: 1196
	
Mean region size: 50.53291536050119
Incorrectly Classified Instances: 11.786833855799372
Correctly Classified Instances: 88.21316614420063
Weighted Precision: 0.8818422789679145
Weighted AreaUnderROC: 0.935128809140373
Root mean squared error: 0.2591428351545441
Relative absolute error: 24.37206454802733
Root relative squared error: 54.97249681010511
Weighted TruePositiveRate: 0.8821316614420063
Weighted MatthewsCorrelation: 0.8085900979176953
Weighted FMeasure: 0.8817164805622475
Iteration time: 18.0
Weighted AreaUnderPRC: 0.8699657042607585
Mean absolute error: 0.10832028688012392
Coverage of cases: 96.23824451410658
Instances selection time: 1.0
Test time: 4.0
Accumulative iteration time: 73.0
Weighted Recall: 0.8821316614420063
Weighted FalsePositiveRate: 0.07786241942438997
Kappa statistic: 0.8072731783471873
Training time: 17.0
		
Iteration: 6
Labeled set size: 419
Unlabelled set size: 1176
	
Mean region size: 53.8557993730399
Incorrectly Classified Instances: 13.47962382445141
Correctly Classified Instances: 86.52037617554859
Weighted Precision: 0.8652171425348034
Weighted AreaUnderROC: 0.9264866586991675
Root mean squared error: 0.2817327003473817
Relative absolute error: 27.370512879386496
Root relative squared error: 59.76453086928868
Weighted TruePositiveRate: 0.8652037617554859
Weighted MatthewsCorrelation: 0.7919286986390073
Weighted FMeasure: 0.8649206173532682
Iteration time: 19.0
Weighted AreaUnderPRC: 0.8348415091093038
Mean absolute error: 0.12164672390838718
Coverage of cases: 95.86206896551724
Instances selection time: 2.0
Test time: 3.0
Accumulative iteration time: 92.0
Weighted Recall: 0.8652037617554859
Weighted FalsePositiveRate: 0.07179847514662269
Kappa statistic: 0.7813375757595079
Training time: 17.0
		
Iteration: 7
Labeled set size: 439
Unlabelled set size: 1156
	
Mean region size: 50.80459770114911
Incorrectly Classified Instances: 9.843260188087774
Correctly Classified Instances: 90.15673981191223
Weighted Precision: 0.9017880395400825
Weighted AreaUnderROC: 0.9452966724554264
Root mean squared error: 0.2449350723875653
Relative absolute error: 22.670917064679283
Root relative squared error: 51.958575190699
Weighted TruePositiveRate: 0.9015673981191222
Weighted MatthewsCorrelation: 0.84313158681423
Weighted FMeasure: 0.901424990221182
Iteration time: 19.0
Weighted AreaUnderPRC: 0.8816415939296559
Mean absolute error: 0.10075963139857688
Coverage of cases: 96.67711598746081
Instances selection time: 2.0
Test time: 3.0
Accumulative iteration time: 111.0
Weighted Recall: 0.9015673981191222
Weighted FalsePositiveRate: 0.055980933764594315
Kappa statistic: 0.8405507800063674
Training time: 17.0
		
Iteration: 8
Labeled set size: 459
Unlabelled set size: 1136
	
Mean region size: 45.53814002089879
Incorrectly Classified Instances: 11.347962382445141
Correctly Classified Instances: 88.65203761755485
Weighted Precision: 0.8867566148720465
Weighted AreaUnderROC: 0.9233429041475433
Root mean squared error: 0.2666965874970473
Relative absolute error: 22.54006609589285
Root relative squared error: 56.57488966154142
Weighted TruePositiveRate: 0.8865203761755486
Weighted MatthewsCorrelation: 0.8167658264715623
Weighted FMeasure: 0.8863961906179506
Iteration time: 19.0
Weighted AreaUnderPRC: 0.8434522318527726
Mean absolute error: 0.10017807153730383
Coverage of cases: 93.66771159874608
Instances selection time: 2.0
Test time: 4.0
Accumulative iteration time: 130.0
Weighted Recall: 0.8865203761755486
Weighted FalsePositiveRate: 0.07218391182102064
Kappa statistic: 0.8149759887612149
Training time: 17.0
		
Iteration: 9
Labeled set size: 479
Unlabelled set size: 1116
	
Mean region size: 42.6750261233027
Incorrectly Classified Instances: 12.664576802507836
Correctly Classified Instances: 87.33542319749216
Weighted Precision: 0.8731439606506624
Weighted AreaUnderROC: 0.9210388089586317
Root mean squared error: 0.2787985892675193
Relative absolute error: 23.624838650192928
Root relative squared error: 59.14211191689111
Weighted TruePositiveRate: 0.8733542319749217
Weighted MatthewsCorrelation: 0.7945741725237626
Weighted FMeasure: 0.8729975685376696
Iteration time: 20.0
Weighted AreaUnderPRC: 0.8370810580149626
Mean absolute error: 0.10499928288974873
Coverage of cases: 92.10031347962382
Instances selection time: 2.0
Test time: 4.0
Accumulative iteration time: 150.0
Weighted Recall: 0.8733542319749217
Weighted FalsePositiveRate: 0.08159832260250213
Kappa statistic: 0.7933330853082333
Training time: 18.0
		
Iteration: 10
Labeled set size: 499
Unlabelled set size: 1096
	
Mean region size: 43.343782654128056
Incorrectly Classified Instances: 10.846394984326018
Correctly Classified Instances: 89.15360501567397
Weighted Precision: 0.8921873682321174
Weighted AreaUnderROC: 0.9340381970105753
Root mean squared error: 0.26187320793229035
Relative absolute error: 22.08041716258967
Root relative squared error: 55.55169634199856
Weighted TruePositiveRate: 0.8915360501567398
Weighted MatthewsCorrelation: 0.8266108338331086
Weighted FMeasure: 0.8917987479198939
Iteration time: 20.0
Weighted AreaUnderPRC: 0.8572685028773964
Mean absolute error: 0.09813518738928964
Coverage of cases: 93.22884012539186
Instances selection time: 1.0
Test time: 4.0
Accumulative iteration time: 170.0
Weighted Recall: 0.8915360501567398
Weighted FalsePositiveRate: 0.06249604361944282
Kappa statistic: 0.8243507243738314
Training time: 19.0
		
Iteration: 11
Labeled set size: 519
Unlabelled set size: 1076
	
Mean region size: 47.25182863113951
Incorrectly Classified Instances: 9.655172413793103
Correctly Classified Instances: 90.34482758620689
Weighted Precision: 0.9041110419580746
Weighted AreaUnderROC: 0.942606341765918
Root mean squared error: 0.2458659457980782
Relative absolute error: 21.227707086152616
Root relative squared error: 52.15604326099898
Weighted TruePositiveRate: 0.903448275862069
Weighted MatthewsCorrelation: 0.8465971687971828
Weighted FMeasure: 0.9037115867269631
Iteration time: 22.0
Weighted AreaUnderPRC: 0.870935098062979
Mean absolute error: 0.09434536482734711
Coverage of cases: 94.98432601880877
Instances selection time: 1.0
Test time: 4.0
Accumulative iteration time: 192.0
Weighted Recall: 0.903448275862069
Weighted FalsePositiveRate: 0.05586083951469765
Kappa statistic: 0.843332427629825
Training time: 21.0
		
Iteration: 12
Labeled set size: 539
Unlabelled set size: 1056
	
Mean region size: 46.4785788923727
Incorrectly Classified Instances: 9.655172413793103
Correctly Classified Instances: 90.34482758620689
Weighted Precision: 0.9041110419580746
Weighted AreaUnderROC: 0.9435230915644384
Root mean squared error: 0.24479971454302651
Relative absolute error: 20.721068694118692
Root relative squared error: 51.929861455770954
Weighted TruePositiveRate: 0.903448275862069
Weighted MatthewsCorrelation: 0.8465971687971828
Weighted FMeasure: 0.9037115867269631
Iteration time: 22.0
Weighted AreaUnderPRC: 0.8716806492880486
Mean absolute error: 0.09209363864052961
Coverage of cases: 94.92163009404389
Instances selection time: 1.0
Test time: 4.0
Accumulative iteration time: 214.0
Weighted Recall: 0.903448275862069
Weighted FalsePositiveRate: 0.05586083951469765
Kappa statistic: 0.843332427629825
Training time: 21.0
		
Iteration: 13
Labeled set size: 559
Unlabelled set size: 1036
	
Mean region size: 46.4785788923727
Incorrectly Classified Instances: 9.655172413793103
Correctly Classified Instances: 90.34482758620689
Weighted Precision: 0.9041110419580746
Weighted AreaUnderROC: 0.9435642991992809
Root mean squared error: 0.24463477263206015
Relative absolute error: 20.495755214494864
Root relative squared error: 51.894871992647104
Weighted TruePositiveRate: 0.903448275862069
Weighted MatthewsCorrelation: 0.8465971687971828
Weighted FMeasure: 0.9037115867269631
Iteration time: 23.0
Weighted AreaUnderPRC: 0.8716969273819261
Mean absolute error: 0.09109224539775701
Coverage of cases: 94.92163009404389
Instances selection time: 2.0
Test time: 4.0
Accumulative iteration time: 237.0
Weighted Recall: 0.903448275862069
Weighted FalsePositiveRate: 0.05586083951469765
Kappa statistic: 0.843332427629825
Training time: 21.0
		
Iteration: 14
Labeled set size: 579
Unlabelled set size: 1016
	
Mean region size: 44.911180773250464
Incorrectly Classified Instances: 10.156739811912226
Correctly Classified Instances: 89.84326018808777
Weighted Precision: 0.8994806396934985
Weighted AreaUnderROC: 0.940937520358271
Root mean squared error: 0.25050060659789
Relative absolute error: 20.757655212271608
Root relative squared error: 53.13920328501288
Weighted TruePositiveRate: 0.8984326018808777
Weighted MatthewsCorrelation: 0.8384112932889528
Weighted FMeasure: 0.8988224536720438
Iteration time: 24.0
Weighted AreaUnderPRC: 0.8677218916664644
Mean absolute error: 0.0922562453878759
Coverage of cases: 94.35736677115987
Instances selection time: 2.0
Test time: 3.0
Accumulative iteration time: 261.0
Weighted Recall: 0.8984326018808777
Weighted FalsePositiveRate: 0.05649863718228154
Kappa statistic: 0.8357970031793319
Training time: 22.0
		
Iteration: 15
Labeled set size: 599
Unlabelled set size: 996
	
Mean region size: 44.24242424242496
Incorrectly Classified Instances: 9.843260188087774
Correctly Classified Instances: 90.15673981191223
Weighted Precision: 0.9023179886718513
Weighted AreaUnderROC: 0.9443668768476142
Root mean squared error: 0.2454491453070924
Relative absolute error: 20.395030431818505
Root relative squared error: 52.0676265249256
Weighted TruePositiveRate: 0.9015673981191222
Weighted MatthewsCorrelation: 0.843581351919324
Weighted FMeasure: 0.9018724834171269
Iteration time: 24.0
Weighted AreaUnderPRC: 0.8738632971386519
Mean absolute error: 0.09064457969697319
Coverage of cases: 94.42006269592477
Instances selection time: 1.0
Test time: 4.0
Accumulative iteration time: 285.0
Weighted Recall: 0.9015673981191222
Weighted FalsePositiveRate: 0.05598093376459432
Kappa statistic: 0.840505790554101
Training time: 23.0
		
Iteration: 16
Labeled set size: 619
Unlabelled set size: 976
	
Mean region size: 44.117032392895176
Incorrectly Classified Instances: 9.655172413793103
Correctly Classified Instances: 90.34482758620689
Weighted Precision: 0.9041110419580746
Weighted AreaUnderROC: 0.943436954506194
Root mean squared error: 0.24460054705268955
Relative absolute error: 19.973375830777133
Root relative squared error: 51.88761165086821
Weighted TruePositiveRate: 0.903448275862069
Weighted MatthewsCorrelation: 0.8465971687971828
Weighted FMeasure: 0.9037115867269631
Iteration time: 25.0
Weighted AreaUnderPRC: 0.8718266051380257
Mean absolute error: 0.0887705592479004
Coverage of cases: 94.29467084639498
Instances selection time: 2.0
Test time: 3.0
Accumulative iteration time: 310.0
Weighted Recall: 0.903448275862069
Weighted FalsePositiveRate: 0.05586083951469765
Kappa statistic: 0.843332427629825
Training time: 23.0
		
Iteration: 17
Labeled set size: 639
Unlabelled set size: 956
	
Mean region size: 46.4367816091948
Incorrectly Classified Instances: 10.031347962382446
Correctly Classified Instances: 89.96865203761756
Weighted Precision: 0.9000493150760734
Weighted AreaUnderROC: 0.9458241785154501
Root mean squared error: 0.24270982794288645
Relative absolute error: 20.68568450539941
Root relative squared error: 51.48652955970998
Weighted TruePositiveRate: 0.8996865203761756
Weighted MatthewsCorrelation: 0.8402463334862249
Weighted FMeasure: 0.8997876043331984
Iteration time: 24.0
Weighted AreaUnderPRC: 0.8957096102163632
Mean absolute error: 0.09193637557955503
Coverage of cases: 95.23510971786834
Instances selection time: 1.0
Test time: 4.0
Accumulative iteration time: 334.0
Weighted Recall: 0.8996865203761756
Weighted FalsePositiveRate: 0.058958945025225924
Kappa statistic: 0.8370904039736665
Training time: 23.0
		
Iteration: 18
Labeled set size: 659
Unlabelled set size: 936
	
Mean region size: 46.43678160919484
Incorrectly Classified Instances: 9.655172413793103
Correctly Classified Instances: 90.34482758620689
Weighted Precision: 0.903430385732272
Weighted AreaUnderROC: 0.9457631727990632
Root mean squared error: 0.24074302806155154
Relative absolute error: 20.275474026223414
Root relative squared error: 51.06930829971134
Weighted TruePositiveRate: 0.903448275862069
Weighted MatthewsCorrelation: 0.8441949063536116
Weighted FMeasure: 0.9033506994819398
Iteration time: 25.0
Weighted AreaUnderPRC: 0.8928558572346383
Mean absolute error: 0.09011321789432833
Coverage of cases: 95.61128526645768
Instances selection time: 1.0
Test time: 4.0
Accumulative iteration time: 359.0
Weighted Recall: 0.903448275862069
Weighted FalsePositiveRate: 0.05967139552901088
Kappa statistic: 0.8429774889439225
Training time: 24.0
		
Iteration: 19
Labeled set size: 679
Unlabelled set size: 916
	
Mean region size: 44.26332288401314
Incorrectly Classified Instances: 10.282131661442007
Correctly Classified Instances: 89.71786833855799
Weighted Precision: 0.8965889020651575
Weighted AreaUnderROC: 0.9395703930230291
Root mean squared error: 0.2513370116352877
Relative absolute error: 20.848816182051838
Root relative squared error: 53.316631587141636
Weighted TruePositiveRate: 0.8971786833855799
Weighted MatthewsCorrelation: 0.8325477360485644
Weighted FMeasure: 0.8966361417371043
Iteration time: 27.0
Weighted AreaUnderPRC: 0.8753104301799514
Mean absolute error: 0.09266140525356584
Coverage of cases: 94.29467084639498
Instances selection time: 1.0
Test time: 4.0
Accumulative iteration time: 386.0
Weighted Recall: 0.8971786833855799
Weighted FalsePositiveRate: 0.06499367788048774
Kappa statistic: 0.8327338532025028
Training time: 26.0
		
Iteration: 20
Labeled set size: 699
Unlabelled set size: 896
	
Mean region size: 46.917450365725685
Incorrectly Classified Instances: 9.655172413793103
Correctly Classified Instances: 90.34482758620689
Weighted Precision: 0.9035606531528394
Weighted AreaUnderROC: 0.9500504315495066
Root mean squared error: 0.23929388015220063
Relative absolute error: 19.96149541747282
Root relative squared error: 50.761897605618046
Weighted TruePositiveRate: 0.903448275862069
Weighted MatthewsCorrelation: 0.8445626531523623
Weighted FMeasure: 0.9033925210504602
Iteration time: 28.0
Weighted AreaUnderPRC: 0.8980680140712233
Mean absolute error: 0.08871775741099232
Coverage of cases: 96.17554858934169
Instances selection time: 1.0
Test time: 4.0
Accumulative iteration time: 414.0
Weighted Recall: 0.903448275862069
Weighted FalsePositiveRate: 0.058718756525432576
Kappa statistic: 0.8431107792596833
Training time: 27.0
		
Iteration: 21
Labeled set size: 719
Unlabelled set size: 876
	
Mean region size: 46.39498432601827
Incorrectly Classified Instances: 10.031347962382446
Correctly Classified Instances: 89.96865203761756
Weighted Precision: 0.8999455701328907
Weighted AreaUnderROC: 0.9425753550617295
Root mean squared error: 0.24528674475134246
Relative absolute error: 19.83874339635421
Root relative squared error: 52.033176164653824
Weighted TruePositiveRate: 0.8996865203761756
Weighted MatthewsCorrelation: 0.8388837473967736
Weighted FMeasure: 0.8996073175533444
Iteration time: 29.0
Weighted AreaUnderPRC: 0.8801807344553656
Mean absolute error: 0.08817219287268738
Coverage of cases: 95.36050156739812
Instances selection time: 1.0
Test time: 4.0
Accumulative iteration time: 443.0
Weighted Recall: 0.8996865203761756
Weighted FalsePositiveRate: 0.0613405425341717
Kappa statistic: 0.8368597287729065
Training time: 28.0
		
Iteration: 22
Labeled set size: 739
Unlabelled set size: 856
	
Mean region size: 46.39498432601827
Incorrectly Classified Instances: 10.031347962382446
Correctly Classified Instances: 89.96865203761756
Weighted Precision: 0.8999455701328907
Weighted AreaUnderROC: 0.9427459162521669
Root mean squared error: 0.24543410941674024
Relative absolute error: 20.202875005110545
Root relative squared error: 52.06443693091684
Weighted TruePositiveRate: 0.8996865203761756
Weighted MatthewsCorrelation: 0.8388837473967736
Weighted FMeasure: 0.8996073175533444
Iteration time: 29.0
Weighted AreaUnderPRC: 0.8805079701589359
Mean absolute error: 0.08979055557827113
Coverage of cases: 95.36050156739812
Instances selection time: 1.0
Test time: 4.0
Accumulative iteration time: 472.0
Weighted Recall: 0.8996865203761756
Weighted FalsePositiveRate: 0.0613405425341717
Kappa statistic: 0.8368597287729065
Training time: 28.0
		
Iteration: 23
Labeled set size: 759
Unlabelled set size: 836
	
Mean region size: 44.53500522466083
Incorrectly Classified Instances: 10.031347962382446
Correctly Classified Instances: 89.96865203761756
Weighted Precision: 0.8992287994457426
Weighted AreaUnderROC: 0.9417578926185601
Root mean squared error: 0.2462095662908043
Relative absolute error: 19.79375420757352
Root relative squared error: 52.22893617516736
Weighted TruePositiveRate: 0.8996865203761756
Weighted MatthewsCorrelation: 0.8392478083065403
Weighted FMeasure: 0.8990604991888079
Iteration time: 29.0
Weighted AreaUnderPRC: 0.8800461811604808
Mean absolute error: 0.08797224092255097
Coverage of cases: 94.54545454545455
Instances selection time: 1.0
Test time: 4.0
Accumulative iteration time: 501.0
Weighted Recall: 0.8996865203761756
Weighted FalsePositiveRate: 0.06086422303238253
Kappa statistic: 0.836813515319515
Training time: 28.0
		
Iteration: 24
Labeled set size: 779
Unlabelled set size: 816
	
Mean region size: 46.43678160919487
Incorrectly Classified Instances: 9.905956112852664
Correctly Classified Instances: 90.09404388714734
Weighted Precision: 0.9010763106858599
Weighted AreaUnderROC: 0.944087323406155
Root mean squared error: 0.24367595129395572
Relative absolute error: 19.76980531521768
Root relative squared error: 51.691475271611104
Weighted TruePositiveRate: 0.9009404388714733
Weighted MatthewsCorrelation: 0.8409115602232584
Weighted FMeasure: 0.9008176098761609
Iteration time: 30.0
Weighted AreaUnderPRC: 0.8830383085935659
Mean absolute error: 0.08786580140096946
Coverage of cases: 95.4858934169279
Instances selection time: 1.0
Test time: 4.0
Accumulative iteration time: 531.0
Weighted Recall: 0.9009404388714733
Weighted FalsePositiveRate: 0.06094293336638115
Kappa statistic: 0.8388076847305763
Training time: 29.0
		
Iteration: 25
Labeled set size: 799
Unlabelled set size: 796
	
Mean region size: 45.83072100313413
Incorrectly Classified Instances: 9.843260188087774
Correctly Classified Instances: 90.15673981191223
Weighted Precision: 0.9017085126895665
Weighted AreaUnderROC: 0.9443387281673047
Root mean squared error: 0.24051295323017463
Relative absolute error: 19.044057874833157
Root relative squared error: 51.020502057677255
Weighted TruePositiveRate: 0.9015673981191222
Weighted MatthewsCorrelation: 0.8419558837264599
Weighted FMeasure: 0.9014313389972214
Iteration time: 31.0
Weighted AreaUnderPRC: 0.8821699584250744
Mean absolute error: 0.08464025722148262
Coverage of cases: 95.29780564263324
Instances selection time: 2.0
Test time: 3.0
Accumulative iteration time: 562.0
Weighted Recall: 0.9015673981191222
Weighted FalsePositiveRate: 0.060744128782485876
Kappa statistic: 0.8397824908875352
Training time: 29.0
		
Iteration: 26
Labeled set size: 819
Unlabelled set size: 776
	
Mean region size: 44.78578892371948
Incorrectly Classified Instances: 10.219435736677116
Correctly Classified Instances: 89.78056426332289
Weighted Precision: 0.8977211097759593
Weighted AreaUnderROC: 0.9335642736503248
Root mean squared error: 0.24947429204204685
Relative absolute error: 19.69665527743057
Root relative squared error: 52.92148909039275
Weighted TruePositiveRate: 0.8978056426332288
Weighted MatthewsCorrelation: 0.8350522138448274
Weighted FMeasure: 0.8973799064859738
Iteration time: 31.0
Weighted AreaUnderPRC: 0.8674735396715451
Mean absolute error: 0.08754069012191563
Coverage of cases: 94.42006269592477
Instances selection time: 1.0
Test time: 4.0
Accumulative iteration time: 593.0
Weighted Recall: 0.8978056426332288
Weighted FalsePositiveRate: 0.06860542931090569
Kappa statistic: 0.8326157930960332
Training time: 30.0
		
Iteration: 27
Labeled set size: 839
Unlabelled set size: 756
	
Mean region size: 44.78578892371948
Incorrectly Classified Instances: 10.219435736677116
Correctly Classified Instances: 89.78056426332289
Weighted Precision: 0.8977211097759593
Weighted AreaUnderROC: 0.9335593964287655
Root mean squared error: 0.24946412054813236
Relative absolute error: 19.502095135378244
Root relative squared error: 52.91933139069623
Weighted TruePositiveRate: 0.8978056426332288
Weighted MatthewsCorrelation: 0.8350522138448274
Weighted FMeasure: 0.8973799064859738
Iteration time: 32.0
Weighted AreaUnderPRC: 0.8675008639745683
Mean absolute error: 0.08667597837946082
Coverage of cases: 94.42006269592477
Instances selection time: 1.0
Test time: 4.0
Accumulative iteration time: 625.0
Weighted Recall: 0.8978056426332288
Weighted FalsePositiveRate: 0.06860542931090569
Kappa statistic: 0.8326157930960332
Training time: 31.0
		
Iteration: 28
Labeled set size: 859
Unlabelled set size: 736
	
Mean region size: 45.977011494252814
Incorrectly Classified Instances: 9.905956112852664
Correctly Classified Instances: 90.09404388714734
Weighted Precision: 0.9005788994309978
Weighted AreaUnderROC: 0.9327793709585461
Root mean squared error: 0.2488436636758737
Relative absolute error: 19.560574183895238
Root relative squared error: 52.78771261215386
Weighted TruePositiveRate: 0.9009404388714733
Weighted MatthewsCorrelation: 0.8386257780911522
Weighted FMeasure: 0.9003399855733956
Iteration time: 31.0
Weighted AreaUnderPRC: 0.8707225296804506
Mean absolute error: 0.08693588526175858
Coverage of cases: 94.1692789968652
Instances selection time: 1.0
Test time: 4.0
Accumulative iteration time: 656.0
Weighted Recall: 0.9009404388714733
Weighted FalsePositiveRate: 0.06713508688964015
Kappa statistic: 0.8379351702095506
Training time: 30.0
		
Iteration: 29
Labeled set size: 879
Unlabelled set size: 716
	
Mean region size: 44.78578892371948
Incorrectly Classified Instances: 10.219435736677116
Correctly Classified Instances: 89.78056426332289
Weighted Precision: 0.8977211097759593
Weighted AreaUnderROC: 0.9335019112776302
Root mean squared error: 0.24974527907311891
Relative absolute error: 19.278893601070376
Root relative squared error: 52.978974120578144
Weighted TruePositiveRate: 0.8978056426332288
Weighted MatthewsCorrelation: 0.8350522138448274
Weighted FMeasure: 0.8973799064859738
Iteration time: 32.0
Weighted AreaUnderPRC: 0.8673447415413778
Mean absolute error: 0.08568397156031474
Coverage of cases: 94.42006269592477
Instances selection time: 1.0
Test time: 4.0
Accumulative iteration time: 688.0
Weighted Recall: 0.8978056426332288
Weighted FalsePositiveRate: 0.06860542931090569
Kappa statistic: 0.8326157930960332
Training time: 31.0
		
Iteration: 30
Labeled set size: 899
Unlabelled set size: 696
	
Mean region size: 44.78578892371948
Incorrectly Classified Instances: 10.219435736677116
Correctly Classified Instances: 89.78056426332289
Weighted Precision: 0.8977211097759593
Weighted AreaUnderROC: 0.9335019112776302
Root mean squared error: 0.2500757144719427
Relative absolute error: 19.093990837141355
Root relative squared error: 53.049070053953855
Weighted TruePositiveRate: 0.8978056426332288
Weighted MatthewsCorrelation: 0.8350522138448274
Weighted FMeasure: 0.8973799064859738
Iteration time: 32.0
Weighted AreaUnderPRC: 0.8673447415413778
Mean absolute error: 0.08486218149840795
Coverage of cases: 94.42006269592477
Instances selection time: 1.0
Test time: 4.0
Accumulative iteration time: 720.0
Weighted Recall: 0.8978056426332288
Weighted FalsePositiveRate: 0.06860542931090569
Kappa statistic: 0.8326157930960332
Training time: 31.0
		
Iteration: 31
Labeled set size: 919
Unlabelled set size: 676
	
Mean region size: 39.70741901776348
Incorrectly Classified Instances: 10.219435736677116
Correctly Classified Instances: 89.78056426332289
Weighted Precision: 0.8977211097759593
Weighted AreaUnderROC: 0.9280878380659437
Root mean squared error: 0.2503146453249531
Relative absolute error: 18.971618266274827
Root relative squared error: 53.099754941873364
Weighted TruePositiveRate: 0.8978056426332288
Weighted MatthewsCorrelation: 0.8350522138448274
Weighted FMeasure: 0.8973799064859738
Iteration time: 32.0
Weighted AreaUnderPRC: 0.8617045543233174
Mean absolute error: 0.08431830340566782
Coverage of cases: 92.41379310344827
Instances selection time: 1.0
Test time: 4.0
Accumulative iteration time: 752.0
Weighted Recall: 0.8978056426332288
Weighted FalsePositiveRate: 0.06860542931090569
Kappa statistic: 0.8326157930960332
Training time: 31.0
		
Iteration: 32
Labeled set size: 939
Unlabelled set size: 656
	
Mean region size: 39.70741901776348
Incorrectly Classified Instances: 10.219435736677116
Correctly Classified Instances: 89.78056426332289
Weighted Precision: 0.8977211097759593
Weighted AreaUnderROC: 0.9335019112776302
Root mean squared error: 0.2503634977822521
Relative absolute error: 18.770095650959128
Root relative squared error: 53.11011811302348
Weighted TruePositiveRate: 0.8978056426332288
Weighted MatthewsCorrelation: 0.8350522138448274
Weighted FMeasure: 0.8973799064859738
Iteration time: 33.0
Weighted AreaUnderPRC: 0.8673447415413778
Mean absolute error: 0.08342264733759801
Coverage of cases: 92.41379310344827
Instances selection time: 1.0
Test time: 3.0
Accumulative iteration time: 785.0
Weighted Recall: 0.8978056426332288
Weighted FalsePositiveRate: 0.06860542931090569
Kappa statistic: 0.8326157930960332
Training time: 32.0
		
Iteration: 33
Labeled set size: 959
Unlabelled set size: 636
	
Mean region size: 39.70741901776348
Incorrectly Classified Instances: 10.219435736677116
Correctly Classified Instances: 89.78056426332289
Weighted Precision: 0.8977211097759593
Weighted AreaUnderROC: 0.9335019112776302
Root mean squared error: 0.2505798876133191
Relative absolute error: 18.669414695221246
Root relative squared error: 53.15602132810167
Weighted TruePositiveRate: 0.8978056426332288
Weighted MatthewsCorrelation: 0.8350522138448274
Weighted FMeasure: 0.8973799064859738
Iteration time: 33.0
Weighted AreaUnderPRC: 0.8673447415413778
Mean absolute error: 0.08297517642320741
Coverage of cases: 92.41379310344827
Instances selection time: 1.0
Test time: 3.0
Accumulative iteration time: 818.0
Weighted Recall: 0.8978056426332288
Weighted FalsePositiveRate: 0.06860542931090569
Kappa statistic: 0.8326157930960332
Training time: 32.0
		
Iteration: 34
Labeled set size: 979
Unlabelled set size: 616
	
Mean region size: 39.70741901776348
Incorrectly Classified Instances: 10.219435736677116
Correctly Classified Instances: 89.78056426332289
Weighted Precision: 0.8977211097759593
Weighted AreaUnderROC: 0.9280878380659437
Root mean squared error: 0.2507428338258691
Relative absolute error: 18.586531141952428
Root relative squared error: 53.1905874396605
Weighted TruePositiveRate: 0.8978056426332288
Weighted MatthewsCorrelation: 0.8350522138448274
Weighted FMeasure: 0.8973799064859738
Iteration time: 34.0
Weighted AreaUnderPRC: 0.8617045543233174
Mean absolute error: 0.082606805075346
Coverage of cases: 92.41379310344827
Instances selection time: 1.0
Test time: 3.0
Accumulative iteration time: 852.0
Weighted Recall: 0.8978056426332288
Weighted FalsePositiveRate: 0.06860542931090569
Kappa statistic: 0.8326157930960332
Training time: 33.0
		
Iteration: 35
Labeled set size: 999
Unlabelled set size: 596
	
Mean region size: 39.70741901776348
Incorrectly Classified Instances: 10.219435736677116
Correctly Classified Instances: 89.78056426332289
Weighted Precision: 0.8977211097759593
Weighted AreaUnderROC: 0.9335019112776302
Root mean squared error: 0.2507950318712276
Relative absolute error: 18.462517224835025
Root relative squared error: 53.201660317211804
Weighted TruePositiveRate: 0.8978056426332288
Weighted MatthewsCorrelation: 0.8350522138448274
Weighted FMeasure: 0.8973799064859738
Iteration time: 33.0
Weighted AreaUnderPRC: 0.8673447415413778
Mean absolute error: 0.08205563211037974
Coverage of cases: 92.41379310344827
Instances selection time: 1.0
Test time: 4.0
Accumulative iteration time: 885.0
Weighted Recall: 0.8978056426332288
Weighted FalsePositiveRate: 0.06860542931090569
Kappa statistic: 0.8326157930960332
Training time: 32.0
		
Iteration: 36
Labeled set size: 1019
Unlabelled set size: 576
	
Mean region size: 39.70741901776348
Incorrectly Classified Instances: 10.219435736677116
Correctly Classified Instances: 89.78056426332289
Weighted Precision: 0.8977211097759593
Weighted AreaUnderROC: 0.9335019112776302
Root mean squared error: 0.25094418867447454
Relative absolute error: 18.399273660265184
Root relative squared error: 53.23330125332261
Weighted TruePositiveRate: 0.8978056426332288
Weighted MatthewsCorrelation: 0.8350522138448274
Weighted FMeasure: 0.8973799064859738
Iteration time: 33.0
Weighted AreaUnderPRC: 0.8673447415413778
Mean absolute error: 0.08177454960118044
Coverage of cases: 92.41379310344827
Instances selection time: 1.0
Test time: 4.0
Accumulative iteration time: 918.0
Weighted Recall: 0.8978056426332288
Weighted FalsePositiveRate: 0.06860542931090569
Kappa statistic: 0.8326157930960332
Training time: 32.0
		
Iteration: 37
Labeled set size: 1039
Unlabelled set size: 556
	
Mean region size: 39.70741901776348
Incorrectly Classified Instances: 10.219435736677116
Correctly Classified Instances: 89.78056426332289
Weighted Precision: 0.8977211097759593
Weighted AreaUnderROC: 0.9335019112776302
Root mean squared error: 0.25068849121495723
Relative absolute error: 18.509223656372605
Root relative squared error: 53.17905963105555
Weighted TruePositiveRate: 0.8978056426332288
Weighted MatthewsCorrelation: 0.8350522138448274
Weighted FMeasure: 0.8973799064859738
Iteration time: 35.0
Weighted AreaUnderPRC: 0.8673447415413778
Mean absolute error: 0.08226321625054676
Coverage of cases: 92.41379310344827
Instances selection time: 1.0
Test time: 3.0
Accumulative iteration time: 953.0
Weighted Recall: 0.8978056426332288
Weighted FalsePositiveRate: 0.06860542931090569
Kappa statistic: 0.8326157930960332
Training time: 34.0
		
Iteration: 38
Labeled set size: 1059
Unlabelled set size: 536
	
Mean region size: 39.9791013584113
Incorrectly Classified Instances: 8.589341692789969
Correctly Classified Instances: 91.41065830721003
Weighted Precision: 0.9141348434442714
Weighted AreaUnderROC: 0.9414248862444529
Root mean squared error: 0.22976667249811034
Relative absolute error: 15.480853000465187
Root relative squared error: 48.74087166422418
Weighted TruePositiveRate: 0.9141065830721004
Weighted MatthewsCorrelation: 0.863366545422017
Weighted FMeasure: 0.9141128419472063
Iteration time: 36.0
Weighted AreaUnderPRC: 0.8836697517612618
Mean absolute error: 0.06880379111318016
Coverage of cases: 94.1065830721003
Instances selection time: 1.0
Test time: 5.0
Accumulative iteration time: 989.0
Weighted Recall: 0.9141065830721004
Weighted FalsePositiveRate: 0.05009956407953219
Kappa statistic: 0.860508658402452
Training time: 35.0
		
Iteration: 39
Labeled set size: 1079
Unlabelled set size: 516
	
Mean region size: 39.9791013584113
Incorrectly Classified Instances: 8.589341692789969
Correctly Classified Instances: 91.41065830721003
Weighted Precision: 0.9141348434442714
Weighted AreaUnderROC: 0.9414248862444529
Root mean squared error: 0.22981574141394134
Relative absolute error: 15.396843572740515
Root relative squared error: 48.75128075316305
Weighted TruePositiveRate: 0.9141065830721004
Weighted MatthewsCorrelation: 0.863366545422017
Weighted FMeasure: 0.9141128419472063
Iteration time: 36.0
Weighted AreaUnderPRC: 0.8836697517612618
Mean absolute error: 0.06843041587884828
Coverage of cases: 94.1065830721003
Instances selection time: 1.0
Test time: 5.0
Accumulative iteration time: 1025.0
Weighted Recall: 0.9141065830721004
Weighted FalsePositiveRate: 0.05009956407953219
Kappa statistic: 0.860508658402452
Training time: 35.0
		
Iteration: 40
Labeled set size: 1099
Unlabelled set size: 496
	
Mean region size: 39.9791013584113
Incorrectly Classified Instances: 8.589341692789969
Correctly Classified Instances: 91.41065830721003
Weighted Precision: 0.9141348434442714
Weighted AreaUnderROC: 0.9414248862444529
Root mean squared error: 0.22985643685074467
Relative absolute error: 15.336170097161595
Root relative squared error: 48.759913558961145
Weighted TruePositiveRate: 0.9141065830721004
Weighted MatthewsCorrelation: 0.863366545422017
Weighted FMeasure: 0.9141128419472063
Iteration time: 36.0
Weighted AreaUnderPRC: 0.8836697517612618
Mean absolute error: 0.06816075598738641
Coverage of cases: 94.1065830721003
Instances selection time: 1.0
Test time: 5.0
Accumulative iteration time: 1061.0
Weighted Recall: 0.9141065830721004
Weighted FalsePositiveRate: 0.05009956407953219
Kappa statistic: 0.860508658402452
Training time: 35.0
		
Iteration: 41
Labeled set size: 1119
Unlabelled set size: 476
	
Mean region size: 39.9791013584113
Incorrectly Classified Instances: 8.589341692789969
Correctly Classified Instances: 91.41065830721003
Weighted Precision: 0.9141348434442714
Weighted AreaUnderROC: 0.9414248862444529
Root mean squared error: 0.22989013200417474
Relative absolute error: 15.290295030260477
Root relative squared error: 48.767061380406204
Weighted TruePositiveRate: 0.9141065830721004
Weighted MatthewsCorrelation: 0.863366545422017
Weighted FMeasure: 0.9141128419472063
Iteration time: 36.0
Weighted AreaUnderPRC: 0.8836697517612618
Mean absolute error: 0.06795686680115921
Coverage of cases: 94.1065830721003
Instances selection time: 1.0
Test time: 6.0
Accumulative iteration time: 1097.0
Weighted Recall: 0.9141065830721004
Weighted FalsePositiveRate: 0.05009956407953219
Kappa statistic: 0.860508658402452
Training time: 35.0
		
Iteration: 42
Labeled set size: 1139
Unlabelled set size: 456
	
Mean region size: 39.9791013584113
Incorrectly Classified Instances: 8.589341692789969
Correctly Classified Instances: 91.41065830721003
Weighted Precision: 0.9141348434442714
Weighted AreaUnderROC: 0.9414248862444529
Root mean squared error: 0.22991825852796027
Relative absolute error: 15.254392803989994
Root relative squared error: 48.77302791711619
Weighted TruePositiveRate: 0.9141065830721004
Weighted MatthewsCorrelation: 0.863366545422017
Weighted FMeasure: 0.9141128419472063
Iteration time: 36.0
Weighted AreaUnderPRC: 0.8836697517612618
Mean absolute error: 0.06779730135106818
Coverage of cases: 94.1065830721003
Instances selection time: 0.0
Test time: 6.0
Accumulative iteration time: 1133.0
Weighted Recall: 0.9141065830721004
Weighted FalsePositiveRate: 0.05009956407953219
Kappa statistic: 0.860508658402452
Training time: 36.0
		
Iteration: 43
Labeled set size: 1159
Unlabelled set size: 436
	
Mean region size: 39.9791013584113
Incorrectly Classified Instances: 8.589341692789969
Correctly Classified Instances: 91.41065830721003
Weighted Precision: 0.9141348434442714
Weighted AreaUnderROC: 0.9414248862444529
Root mean squared error: 0.22994198789223988
Relative absolute error: 15.225530229929456
Root relative squared error: 48.77806167543479
Weighted TruePositiveRate: 0.9141065830721004
Weighted MatthewsCorrelation: 0.863366545422017
Weighted FMeasure: 0.9141128419472063
Iteration time: 49.0
Weighted AreaUnderPRC: 0.8836697517612618
Mean absolute error: 0.06766902324413245
Coverage of cases: 94.1065830721003
Instances selection time: 1.0
Test time: 5.0
Accumulative iteration time: 1182.0
Weighted Recall: 0.9141065830721004
Weighted FalsePositiveRate: 0.05009956407953219
Kappa statistic: 0.860508658402452
Training time: 48.0
		
Iteration: 44
Labeled set size: 1179
Unlabelled set size: 416
	
Mean region size: 39.9791013584113
Incorrectly Classified Instances: 8.589341692789969
Correctly Classified Instances: 91.41065830721003
Weighted Precision: 0.9141348434442714
Weighted AreaUnderROC: 0.9414248862444529
Root mean squared error: 0.22995167066504918
Relative absolute error: 15.187824240921222
Root relative squared error: 48.780115701729045
Weighted TruePositiveRate: 0.9141065830721004
Weighted MatthewsCorrelation: 0.863366545422017
Weighted FMeasure: 0.9141128419472063
Iteration time: 99.0
Weighted AreaUnderPRC: 0.8836697517612618
Mean absolute error: 0.06750144107076252
Coverage of cases: 94.1065830721003
Instances selection time: 2.0
Test time: 14.0
Accumulative iteration time: 1281.0
Weighted Recall: 0.9141065830721004
Weighted FalsePositiveRate: 0.05009956407953219
Kappa statistic: 0.860508658402452
Training time: 97.0
		
Iteration: 45
Labeled set size: 1199
Unlabelled set size: 396
	
Mean region size: 39.9791013584113
Incorrectly Classified Instances: 8.589341692789969
Correctly Classified Instances: 91.41065830721003
Weighted Precision: 0.9141348434442714
Weighted AreaUnderROC: 0.9414248862444529
Root mean squared error: 0.22969224481676512
Relative absolute error: 15.647769974700614
Root relative squared error: 48.72508316876802
Weighted TruePositiveRate: 0.9141065830721004
Weighted MatthewsCorrelation: 0.863366545422017
Weighted FMeasure: 0.9141128419472063
Iteration time: 41.0
Weighted AreaUnderPRC: 0.8836697517612618
Mean absolute error: 0.0695456443320043
Coverage of cases: 94.1065830721003
Instances selection time: 0.0
Test time: 7.0
Accumulative iteration time: 1322.0
Weighted Recall: 0.9141065830721004
Weighted FalsePositiveRate: 0.05009956407953219
Kappa statistic: 0.860508658402452
Training time: 41.0
		
Iteration: 46
Labeled set size: 1219
Unlabelled set size: 376
	
Mean region size: 40.271682340647466
Incorrectly Classified Instances: 8.087774294670846
Correctly Classified Instances: 91.91222570532915
Weighted Precision: 0.9196137662447241
Weighted AreaUnderROC: 0.9461741928093832
Root mean squared error: 0.22210511534448166
Relative absolute error: 14.176940704021158
Root relative squared error: 47.11560995889045
Weighted TruePositiveRate: 0.9191222570532915
Weighted MatthewsCorrelation: 0.8723929788822473
Weighted FMeasure: 0.9191978403664803
Iteration time: 41.0
Weighted AreaUnderPRC: 0.8920000658545605
Mean absolute error: 0.06300862535120658
Coverage of cases: 94.7962382445141
Instances selection time: 1.0
Test time: 6.0
Accumulative iteration time: 1363.0
Weighted Recall: 0.9191222570532915
Weighted FalsePositiveRate: 0.04326961288868928
Kappa statistic: 0.8691721004759285
Training time: 40.0
		
Time end:Sun Oct 08 08.05.58 EEST 2017