Sun Oct 08 08.19.30 EEST 2017
Dataset: splice
Test set size: 1595
Initial Labelled set size: 319
Initial Unlabelled set size: 1276
Batch mode: QBestBatchMode
Batch size: 20
Classifiers: SMO-1cores
Scenario: PoolBasedSamplingScenario
Query strategy: MarginSamplingQueryStrategy-1cores
Time begining: Sun Oct 08 08.19.30 EEST 2017
		
Iteration: 1
Labeled set size: 319
Unlabelled set size: 1276
	
Mean region size: 67.0010449320783
Incorrectly Classified Instances: 9.404388714733543
Correctly Classified Instances: 90.59561128526646
Weighted Precision: 0.9063344854159125
Weighted AreaUnderROC: 0.9414053773012571
Root mean squared error: 0.3112504042056729
Relative absolute error: 55.297805642633186
Root relative squared error: 66.02618143826483
Weighted TruePositiveRate: 0.9059561128526645
Weighted MatthewsCorrelation: 0.8487563589014273
Weighted FMeasure: 0.9060622793015086
Iteration time: 895.0
Weighted AreaUnderPRC: 0.8703452579235401
Mean absolute error: 0.24576802507837528
Coverage of cases: 99.12225705329153
Instances selection time: 146.0
Test time: 180.0
Accumulative iteration time: 895.0
Weighted Recall: 0.9059561128526645
Weighted FalsePositiveRate: 0.0560836956582193
Kappa statistic: 0.8473151396372449
Training time: 749.0
		
Iteration: 2
Labeled set size: 339
Unlabelled set size: 1256
	
Mean region size: 67.0219435736666
Incorrectly Classified Instances: 9.278996865203762
Correctly Classified Instances: 90.72100313479623
Weighted Precision: 0.9076174480851968
Weighted AreaUnderROC: 0.941276688313357
Root mean squared error: 0.31206997580905516
Relative absolute error: 55.42319749216297
Root relative squared error: 66.20003882979067
Weighted TruePositiveRate: 0.9072100313479624
Weighted MatthewsCorrelation: 0.8515353417845501
Weighted FMeasure: 0.907299521670478
Iteration time: 929.0
Weighted AreaUnderPRC: 0.8704669210749708
Mean absolute error: 0.24632532218739656
Coverage of cases: 98.87147335423198
Instances selection time: 147.0
Test time: 188.0
Accumulative iteration time: 1824.0
Weighted Recall: 0.9072100313479624
Weighted FalsePositiveRate: 0.05521011332705507
Kappa statistic: 0.8492223832520981
Training time: 782.0
		
Iteration: 3
Labeled set size: 359
Unlabelled set size: 1236
	
Mean region size: 66.89655172413681
Incorrectly Classified Instances: 9.278996865203762
Correctly Classified Instances: 90.72100313479623
Weighted Precision: 0.9077086692472238
Weighted AreaUnderROC: 0.9394842042762581
Root mean squared error: 0.31318411707451077
Relative absolute error: 55.51724137931029
Root relative squared error: 66.4363838829917
Weighted TruePositiveRate: 0.9072100313479624
Weighted MatthewsCorrelation: 0.851698409351796
Weighted FMeasure: 0.9073153115314843
Iteration time: 1025.0
Weighted AreaUnderPRC: 0.8678964501463843
Mean absolute error: 0.24674329501916245
Coverage of cases: 98.62068965517241
Instances selection time: 145.0
Test time: 184.0
Accumulative iteration time: 2849.0
Weighted Recall: 0.9072100313479624
Weighted FalsePositiveRate: 0.05617023553332266
Kappa statistic: 0.8490078950078453
Training time: 880.0
		
Iteration: 4
Labeled set size: 379
Unlabelled set size: 1216
	
Mean region size: 66.91745036572509
Incorrectly Classified Instances: 9.153605015673982
Correctly Classified Instances: 90.84639498432603
Weighted Precision: 0.9089602772145836
Weighted AreaUnderROC: 0.9435706049053575
Root mean squared error: 0.31065299404992164
Relative absolute error: 55.172413793103416
Root relative squared error: 65.8994516065804
Weighted TruePositiveRate: 0.9084639498432602
Weighted MatthewsCorrelation: 0.8540624280482608
Weighted FMeasure: 0.9086556981895616
Iteration time: 1024.0
Weighted AreaUnderPRC: 0.871033286768894
Mean absolute error: 0.24521072796935406
Coverage of cases: 99.18495297805643
Instances selection time: 143.0
Test time: 187.0
Accumulative iteration time: 3873.0
Weighted Recall: 0.9084639498432602
Weighted FalsePositiveRate: 0.05289975430295623
Kappa statistic: 0.8514712870213575
Training time: 881.0
		
Iteration: 5
Labeled set size: 399
Unlabelled set size: 1196
	
Mean region size: 66.87565308254848
Incorrectly Classified Instances: 8.338557993730408
Correctly Classified Instances: 91.6614420062696
Weighted Precision: 0.9165855751122209
Weighted AreaUnderROC: 0.9477013774776905
Root mean squared error: 0.30719534034161244
Relative absolute error: 54.67084639498431
Root relative squared error: 65.16597249133834
Weighted TruePositiveRate: 0.9166144200626959
Weighted MatthewsCorrelation: 0.8662053534703904
Weighted FMeasure: 0.9165873827092899
Iteration time: 1104.0
Weighted AreaUnderPRC: 0.8809606240868645
Mean absolute error: 0.2429815395332691
Coverage of cases: 99.3103448275862
Instances selection time: 142.0
Test time: 190.0
Accumulative iteration time: 4977.0
Weighted Recall: 0.9166144200626959
Weighted FalsePositiveRate: 0.05127609824187859
Kappa statistic: 0.8642349033449278
Training time: 962.0
		
Iteration: 6
Labeled set size: 419
Unlabelled set size: 1176
	
Mean region size: 66.98014629048998
Incorrectly Classified Instances: 8.589341692789969
Correctly Classified Instances: 91.41065830721003
Weighted Precision: 0.9139661550572533
Weighted AreaUnderROC: 0.9451163087368616
Root mean squared error: 0.3088538303051106
Relative absolute error: 54.9529780564263
Root relative squared error: 65.51779134125414
Weighted TruePositiveRate: 0.9141065830721004
Weighted MatthewsCorrelation: 0.8620772307113779
Weighted FMeasure: 0.9140168916697186
Iteration time: 1247.0
Weighted AreaUnderPRC: 0.8771359439926384
Mean absolute error: 0.24423545802856692
Coverage of cases: 99.18495297805643
Instances selection time: 144.0
Test time: 191.0
Accumulative iteration time: 6224.0
Weighted Recall: 0.9141065830721004
Weighted FalsePositiveRate: 0.0535053679772209
Kappa statistic: 0.8600324241296504
Training time: 1103.0
		
Iteration: 7
Labeled set size: 439
Unlabelled set size: 1156
	
Mean region size: 66.98014629048998
Incorrectly Classified Instances: 8.589341692789969
Correctly Classified Instances: 91.41065830721003
Weighted Precision: 0.9140558730135533
Weighted AreaUnderROC: 0.9467175977419618
Root mean squared error: 0.30795030668131634
Relative absolute error: 54.827586206896534
Root relative squared error: 65.32612503684999
Weighted TruePositiveRate: 0.9141065830721004
Weighted MatthewsCorrelation: 0.8624148646296238
Weighted FMeasure: 0.9140686985286332
Iteration time: 1238.0
Weighted AreaUnderPRC: 0.8794599347726753
Mean absolute error: 0.24367816091954567
Coverage of cases: 99.3103448275862
Instances selection time: 140.0
Test time: 199.0
Accumulative iteration time: 7462.0
Weighted Recall: 0.9141065830721004
Weighted FalsePositiveRate: 0.05254728974083337
Kappa statistic: 0.8601517425432716
Training time: 1098.0
		
Iteration: 8
Labeled set size: 459
Unlabelled set size: 1136
	
Mean region size: 66.87565308254848
Incorrectly Classified Instances: 8.526645768025078
Correctly Classified Instances: 91.47335423197492
Weighted Precision: 0.9145299152749793
Weighted AreaUnderROC: 0.9446352055883274
Root mean squared error: 0.30877863764902236
Relative absolute error: 54.89028213166142
Root relative squared error: 65.50184057014951
Weighted TruePositiveRate: 0.9147335423197492
Weighted MatthewsCorrelation: 0.8629718540959226
Weighted FMeasure: 0.9145261623793611
Iteration time: 1327.0
Weighted AreaUnderPRC: 0.8772728886069215
Mean absolute error: 0.2439568094740563
Coverage of cases: 99.05956112852665
Instances selection time: 138.0
Test time: 200.0
Accumulative iteration time: 8789.0
Weighted Recall: 0.9147335423197492
Weighted FalsePositiveRate: 0.05522067589622063
Kappa statistic: 0.8606969008078709
Training time: 1189.0
		
Iteration: 9
Labeled set size: 479
Unlabelled set size: 1116
	
Mean region size: 67.0010449320783
Incorrectly Classified Instances: 8.77742946708464
Correctly Classified Instances: 91.22257053291536
Weighted Precision: 0.9119966983826937
Weighted AreaUnderROC: 0.9434759227322342
Root mean squared error: 0.30967974453846264
Relative absolute error: 55.078369905956094
Root relative squared error: 65.69299420777865
Weighted TruePositiveRate: 0.9122257053291536
Weighted MatthewsCorrelation: 0.8586908300664333
Weighted FMeasure: 0.9119993502273771
Iteration time: 1333.0
Weighted AreaUnderPRC: 0.8745742421196594
Mean absolute error: 0.2447927551375882
Coverage of cases: 99.12225705329153
Instances selection time: 134.0
Test time: 195.0
Accumulative iteration time: 10122.0
Weighted Recall: 0.9122257053291536
Weighted FalsePositiveRate: 0.056969203205135786
Kappa statistic: 0.8565996587418658
Training time: 1199.0
		
Iteration: 10
Labeled set size: 499
Unlabelled set size: 1096
	
Mean region size: 67.0010449320783
Incorrectly Classified Instances: 8.526645768025078
Correctly Classified Instances: 91.47335423197492
Weighted Precision: 0.9148458156455838
Weighted AreaUnderROC: 0.9464869804508456
Root mean squared error: 0.3085529497365581
Relative absolute error: 54.92163009404387
Root relative squared error: 65.45396493414893
Weighted TruePositiveRate: 0.9147335423197492
Weighted MatthewsCorrelation: 0.8635335784668174
Weighted FMeasure: 0.9146986236679724
Iteration time: 1350.0
Weighted AreaUnderPRC: 0.8789949109746743
Mean absolute error: 0.24409613375131162
Coverage of cases: 99.18495297805643
Instances selection time: 137.0
Test time: 197.0
Accumulative iteration time: 11472.0
Weighted Recall: 0.9147335423197492
Weighted FalsePositiveRate: 0.0523498478035248
Kappa statistic: 0.8611323614988642
Training time: 1213.0
		
Iteration: 11
Labeled set size: 519
Unlabelled set size: 1076
	
Mean region size: 67.14733542319641
Incorrectly Classified Instances: 8.275862068965518
Correctly Classified Instances: 91.72413793103448
Weighted Precision: 0.9170639650461613
Weighted AreaUnderROC: 0.9479070628935924
Root mean squared error: 0.30734648196962105
Relative absolute error: 54.827586206896534
Root relative squared error: 65.19803447236366
Weighted TruePositiveRate: 0.9172413793103448
Weighted MatthewsCorrelation: 0.8672846105517557
Weighted FMeasure: 0.9170437082215213
Iteration time: 1534.0
Weighted AreaUnderPRC: 0.8837706157605704
Mean absolute error: 0.24367816091954567
Coverage of cases: 99.24764890282131
Instances selection time: 131.0
Test time: 193.0
Accumulative iteration time: 13006.0
Weighted Recall: 0.9172413793103448
Weighted FalsePositiveRate: 0.05298936219099826
Kappa statistic: 0.8648709361477626
Training time: 1403.0
		
Iteration: 12
Labeled set size: 539
Unlabelled set size: 1056
	
Mean region size: 67.1264367816081
Incorrectly Classified Instances: 8.275862068965518
Correctly Classified Instances: 91.72413793103448
Weighted Precision: 0.917047492397991
Weighted AreaUnderROC: 0.946355274562968
Root mean squared error: 0.3081010779543304
Relative absolute error: 54.92163009404387
Root relative squared error: 65.3581084537169
Weighted TruePositiveRate: 0.9172413793103448
Weighted MatthewsCorrelation: 0.8665368170441597
Weighted FMeasure: 0.9170469919398654
Iteration time: 1575.0
Weighted AreaUnderPRC: 0.8813637673482285
Mean absolute error: 0.24409613375131162
Coverage of cases: 99.18495297805643
Instances selection time: 144.0
Test time: 197.0
Accumulative iteration time: 14581.0
Weighted Recall: 0.9172413793103448
Weighted FalsePositiveRate: 0.05394607778079909
Kappa statistic: 0.8648325911773316
Training time: 1431.0
		
Iteration: 13
Labeled set size: 559
Unlabelled set size: 1036
	
Mean region size: 67.06374085684321
Incorrectly Classified Instances: 8.526645768025078
Correctly Classified Instances: 91.47335423197492
Weighted Precision: 0.9144709211364866
Weighted AreaUnderROC: 0.9454848330855994
Root mean squared error: 0.3083270966260923
Relative absolute error: 54.92163009404387
Root relative squared error: 65.40605425436019
Weighted TruePositiveRate: 0.9147335423197492
Weighted MatthewsCorrelation: 0.8624625815832864
Weighted FMeasure: 0.914506652618136
Iteration time: 1589.0
Weighted AreaUnderPRC: 0.8781329423542267
Mean absolute error: 0.24409613375131162
Coverage of cases: 99.3103448275862
Instances selection time: 127.0
Test time: 194.0
Accumulative iteration time: 16170.0
Weighted Recall: 0.9147335423197492
Weighted FalsePositiveRate: 0.0556966490595943
Kappa statistic: 0.8606970797247849
Training time: 1462.0
		
Iteration: 14
Labeled set size: 579
Unlabelled set size: 1016
	
Mean region size: 67.08463949843151
Incorrectly Classified Instances: 8.025078369905955
Correctly Classified Instances: 91.97492163009404
Weighted Precision: 0.9196162433559746
Weighted AreaUnderROC: 0.9489729628380535
Root mean squared error: 0.3064385140123242
Relative absolute error: 54.67084639498431
Root relative squared error: 65.00542538245226
Weighted TruePositiveRate: 0.9197492163009404
Weighted MatthewsCorrelation: 0.8704748757350824
Weighted FMeasure: 0.9196632232719003
Iteration time: 1750.0
Weighted AreaUnderPRC: 0.8859948032285009
Mean absolute error: 0.2429815395332691
Coverage of cases: 99.3103448275862
Instances selection time: 125.0
Test time: 199.0
Accumulative iteration time: 17920.0
Weighted Recall: 0.9197492163009404
Weighted FalsePositiveRate: 0.050759411132362604
Kappa statistic: 0.8692273743693084
Training time: 1625.0
		
Iteration: 15
Labeled set size: 599
Unlabelled set size: 996
	
Mean region size: 67.14733542319641
Incorrectly Classified Instances: 7.962382445141066
Correctly Classified Instances: 92.03761755485894
Weighted Precision: 0.9201449944329398
Weighted AreaUnderROC: 0.9480821777307157
Root mean squared error: 0.3071197416348343
Relative absolute error: 54.79623824451408
Root relative squared error: 65.1499355838748
Weighted TruePositiveRate: 0.9203761755485893
Weighted MatthewsCorrelation: 0.871672621236749
Weighted FMeasure: 0.9202166772158646
Iteration time: 1767.0
Weighted AreaUnderPRC: 0.8850111381536655
Mean absolute error: 0.2435388366422903
Coverage of cases: 99.18495297805643
Instances selection time: 122.0
Test time: 198.0
Accumulative iteration time: 19687.0
Weighted Recall: 0.9203761755485893
Weighted FalsePositiveRate: 0.05103998632830776
Kappa statistic: 0.8701012628518404
Training time: 1645.0
		
Iteration: 16
Labeled set size: 619
Unlabelled set size: 976
	
Mean region size: 67.08463949843151
Incorrectly Classified Instances: 8.275862068965518
Correctly Classified Instances: 91.72413793103448
Weighted Precision: 0.9170546746796787
Weighted AreaUnderROC: 0.9466143362551942
Root mean squared error: 0.30825177548251675
Relative absolute error: 54.92163009404387
Root relative squared error: 65.39007622694349
Weighted TruePositiveRate: 0.9172413793103448
Weighted MatthewsCorrelation: 0.867147770871529
Weighted FMeasure: 0.9171302222489918
Iteration time: 1905.0
Weighted AreaUnderPRC: 0.881040286532127
Mean absolute error: 0.24409613375131162
Coverage of cases: 99.12225705329153
Instances selection time: 121.0
Test time: 198.0
Accumulative iteration time: 21592.0
Weighted Recall: 0.9172413793103448
Weighted FalsePositiveRate: 0.05155394814465034
Kappa statistic: 0.8651409025836143
Training time: 1784.0
		
Iteration: 17
Labeled set size: 639
Unlabelled set size: 956
	
Mean region size: 67.0010449320783
Incorrectly Classified Instances: 8.338557993730408
Correctly Classified Instances: 91.6614420062696
Weighted Precision: 0.9163293300100636
Weighted AreaUnderROC: 0.9460754898627718
Root mean squared error: 0.3083270966260923
Relative absolute error: 54.89028213166142
Root relative squared error: 65.40605425436019
Weighted TruePositiveRate: 0.9166144200626959
Weighted MatthewsCorrelation: 0.8662129392325523
Weighted FMeasure: 0.9164267919727638
Iteration time: 1887.0
Weighted AreaUnderPRC: 0.880270732298418
Mean absolute error: 0.2439568094740563
Coverage of cases: 99.05956112852665
Instances selection time: 118.0
Test time: 198.0
Accumulative iteration time: 23479.0
Weighted Recall: 0.9166144200626959
Weighted FalsePositiveRate: 0.05270878699505309
Kappa statistic: 0.8639644018755835
Training time: 1769.0
		
Iteration: 18
Labeled set size: 659
Unlabelled set size: 936
	
Mean region size: 66.98014629049
Incorrectly Classified Instances: 8.401253918495298
Correctly Classified Instances: 91.5987460815047
Weighted Precision: 0.915628963785993
Weighted AreaUnderROC: 0.9441921823338842
Root mean squared error: 0.3095297422315083
Relative absolute error: 55.04702194357365
Root relative squared error: 65.66117391324634
Weighted TruePositiveRate: 0.915987460815047
Weighted MatthewsCorrelation: 0.865268967292472
Weighted FMeasure: 0.9157040392472573
Iteration time: 2056.0
Weighted AreaUnderPRC: 0.8779458342953504
Mean absolute error: 0.24465343086033287
Coverage of cases: 98.80877742946709
Instances selection time: 115.0
Test time: 199.0
Accumulative iteration time: 25535.0
Weighted Recall: 0.915987460815047
Weighted FalsePositiveRate: 0.05434300562529629
Kappa statistic: 0.8627066819122011
Training time: 1941.0
		
Iteration: 19
Labeled set size: 679
Unlabelled set size: 916
	
Mean region size: 67.02194357366662
Incorrectly Classified Instances: 7.962382445141066
Correctly Classified Instances: 92.03761755485894
Weighted Precision: 0.9200714395990524
Weighted AreaUnderROC: 0.9482842513097482
Root mean squared error: 0.30757305515333744
Relative absolute error: 54.796238244514086
Root relative squared error: 65.24609790275593
Weighted TruePositiveRate: 0.9203761755485893
Weighted MatthewsCorrelation: 0.873087437549608
Weighted FMeasure: 0.9201785812935213
Iteration time: 2174.0
Weighted AreaUnderPRC: 0.8838772022680916
Mean absolute error: 0.24353883664229034
Coverage of cases: 98.99686520376176
Instances selection time: 114.0
Test time: 199.0
Accumulative iteration time: 27709.0
Weighted Recall: 0.9203761755485893
Weighted FalsePositiveRate: 0.049605253605253204
Kappa statistic: 0.870101346151873
Training time: 2060.0
		
Iteration: 20
Labeled set size: 699
Unlabelled set size: 896
	
Mean region size: 67.08463949843153
Incorrectly Classified Instances: 8.338557993730408
Correctly Classified Instances: 91.6614420062696
Weighted Precision: 0.9162030820534232
Weighted AreaUnderROC: 0.9468898956521573
Root mean squared error: 0.3080257015426936
Relative absolute error: 54.89028213166143
Root relative squared error: 65.34211870217393
Weighted TruePositiveRate: 0.9166144200626959
Weighted MatthewsCorrelation: 0.8670420577068267
Weighted FMeasure: 0.9163031791126883
Iteration time: 2227.0
Weighted AreaUnderPRC: 0.8809442156447533
Mean absolute error: 0.24395680947405632
Coverage of cases: 99.12225705329153
Instances selection time: 113.0
Test time: 204.0
Accumulative iteration time: 29936.0
Weighted Recall: 0.9166144200626959
Weighted FalsePositiveRate: 0.05318680412830683
Kappa statistic: 0.8637313464474822
Training time: 2114.0
		
Iteration: 21
Labeled set size: 719
Unlabelled set size: 876
	
Mean region size: 67.10553814001983
Incorrectly Classified Instances: 8.025078369905955
Correctly Classified Instances: 91.97492163009404
Weighted Precision: 0.9194445550545379
Weighted AreaUnderROC: 0.9499853022841108
Root mean squared error: 0.3063627285495571
Relative absolute error: 54.670846394984316
Root relative squared error: 64.98934885806086
Weighted TruePositiveRate: 0.9197492163009404
Weighted MatthewsCorrelation: 0.8725186306366672
Weighted FMeasure: 0.9195542563499424
Iteration time: 2314.0
Weighted AreaUnderPRC: 0.8870883987731023
Mean absolute error: 0.24298153953326912
Coverage of cases: 99.18495297805643
Instances selection time: 112.0
Test time: 201.0
Accumulative iteration time: 32250.0
Weighted Recall: 0.9197492163009404
Weighted FalsePositiveRate: 0.04932331576272133
Kappa statistic: 0.8691159557240613
Training time: 2202.0
		
Iteration: 22
Labeled set size: 739
Unlabelled set size: 856
	
Mean region size: 67.02194357366663
Incorrectly Classified Instances: 8.150470219435737
Correctly Classified Instances: 91.84952978056427
Weighted Precision: 0.9181995767092967
Weighted AreaUnderROC: 0.9480389043385544
Root mean squared error: 0.3075730551533375
Relative absolute error: 54.796238244514086
Root relative squared error: 65.24609790275593
Weighted TruePositiveRate: 0.9184952978056427
Weighted MatthewsCorrelation: 0.8701320469448621
Weighted FMeasure: 0.9183036592059876
Iteration time: 2298.0
Weighted AreaUnderPRC: 0.882474102253224
Mean absolute error: 0.24353883664229034
Coverage of cases: 99.12225705329153
Instances selection time: 107.0
Test time: 201.0
Accumulative iteration time: 34548.0
Weighted Recall: 0.9184952978056427
Weighted FalsePositiveRate: 0.05067968449019277
Kappa statistic: 0.8670327887459784
Training time: 2191.0
		
Iteration: 23
Labeled set size: 759
Unlabelled set size: 836
	
Mean region size: 67.04284221525492
Incorrectly Classified Instances: 7.962382445141066
Correctly Classified Instances: 92.03761755485894
Weighted Precision: 0.9199971817492697
Weighted AreaUnderROC: 0.9499316060604307
Root mean squared error: 0.30636272854955715
Relative absolute error: 54.63949843260186
Root relative squared error: 64.98934885806086
Weighted TruePositiveRate: 0.9203761755485893
Weighted MatthewsCorrelation: 0.8735115179232802
Weighted FMeasure: 0.9201107713947262
Iteration time: 2529.0
Weighted AreaUnderPRC: 0.8862073524090971
Mean absolute error: 0.2428422152560138
Coverage of cases: 99.18495297805643
Instances selection time: 106.0
Test time: 200.0
Accumulative iteration time: 37077.0
Weighted Recall: 0.9203761755485893
Weighted FalsePositiveRate: 0.049603209635373145
Kappa statistic: 0.8700275004138536
Training time: 2423.0
		
Iteration: 24
Labeled set size: 779
Unlabelled set size: 816
	
Mean region size: 67.1055381400198
Incorrectly Classified Instances: 8.213166144200628
Correctly Classified Instances: 91.78683385579937
Weighted Precision: 0.9174999711512565
Weighted AreaUnderROC: 0.9499340946983711
Root mean squared error: 0.3065900287380282
Relative absolute error: 54.70219435736676
Root relative squared error: 65.03756650945073
Weighted TruePositiveRate: 0.9178683385579938
Weighted MatthewsCorrelation: 0.86998634114464
Weighted FMeasure: 0.9176294688298952
Iteration time: 2384.0
Weighted AreaUnderPRC: 0.8840565029135936
Mean absolute error: 0.24312086381052442
Coverage of cases: 99.3730407523511
Instances selection time: 103.0
Test time: 204.0
Accumulative iteration time: 39461.0
Weighted Recall: 0.9178683385579938
Weighted FalsePositiveRate: 0.05039774664766089
Kappa statistic: 0.8659718890237363
Training time: 2281.0
		
Iteration: 25
Labeled set size: 799
Unlabelled set size: 796
	
Mean region size: 67.04284221525491
Incorrectly Classified Instances: 7.962382445141066
Correctly Classified Instances: 92.03761755485894
Weighted Precision: 0.9201592670083159
Weighted AreaUnderROC: 0.9522482680638942
Root mean squared error: 0.3054518363593652
Relative absolute error: 54.51410658307208
Root relative squared error: 64.79611944467649
Weighted TruePositiveRate: 0.9203761755485893
Weighted MatthewsCorrelation: 0.8746300867513987
Weighted FMeasure: 0.9202497763851136
Iteration time: 2501.0
Weighted AreaUnderPRC: 0.8879533956070983
Mean absolute error: 0.2422849181469925
Coverage of cases: 99.3730407523511
Instances selection time: 99.0
Test time: 202.0
Accumulative iteration time: 41962.0
Weighted Recall: 0.9203761755485893
Weighted FalsePositiveRate: 0.04721312396910446
Kappa statistic: 0.8702491186176645
Training time: 2402.0
		
Iteration: 26
Labeled set size: 819
Unlabelled set size: 776
	
Mean region size: 67.0219435736666
Incorrectly Classified Instances: 8.025078369905955
Correctly Classified Instances: 91.97492163009404
Weighted Precision: 0.919567443694461
Weighted AreaUnderROC: 0.9520599864840557
Root mean squared error: 0.30552784776687736
Relative absolute error: 54.514106583072085
Root relative squared error: 64.81224389918631
Weighted TruePositiveRate: 0.9197492163009404
Weighted MatthewsCorrelation: 0.8735647928086127
Weighted FMeasure: 0.9196281318190993
Iteration time: 2635.0
Weighted AreaUnderPRC: 0.8868596481357357
Mean absolute error: 0.24228491814699255
Coverage of cases: 99.43573667711598
Instances selection time: 99.0
Test time: 205.0
Accumulative iteration time: 44597.0
Weighted Recall: 0.9197492163009404
Weighted FalsePositiveRate: 0.04789130833284018
Kappa statistic: 0.8691900044658388
Training time: 2536.0
		
Iteration: 27
Labeled set size: 839
Unlabelled set size: 756
	
Mean region size: 67.04284221525492
Incorrectly Classified Instances: 7.7115987460815045
Correctly Classified Instances: 92.2884012539185
Weighted Precision: 0.9226050971026516
Weighted AreaUnderROC: 0.9527034062680618
Root mean squared error: 0.30453821964785827
Relative absolute error: 54.3887147335423
Root relative squared error: 64.60231207304294
Weighted TruePositiveRate: 0.922884012539185
Weighted MatthewsCorrelation: 0.8773682049508775
Weighted FMeasure: 0.9227005267518901
Iteration time: 2929.0
Weighted AreaUnderPRC: 0.8904933406574072
Mean absolute error: 0.24172762103797127
Coverage of cases: 99.43573667711598
Instances selection time: 95.0
Test time: 203.0
Accumulative iteration time: 47526.0
Weighted Recall: 0.922884012539185
Weighted FalsePositiveRate: 0.04785331967987128
Kappa statistic: 0.8741925616596565
Training time: 2834.0
		
Iteration: 28
Labeled set size: 859
Unlabelled set size: 736
	
Mean region size: 67.10553814001983
Incorrectly Classified Instances: 7.962382445141066
Correctly Classified Instances: 92.03761755485894
Weighted Precision: 0.9200123660601114
Weighted AreaUnderROC: 0.95050632791538
Root mean squared error: 0.30567981387812265
Relative absolute error: 54.57680250783698
Root relative squared error: 64.84448077951794
Weighted TruePositiveRate: 0.9203761755485893
Weighted MatthewsCorrelation: 0.8729871231917643
Weighted FMeasure: 0.9200895737774191
Iteration time: 2966.0
Weighted AreaUnderPRC: 0.8866180652593192
Mean absolute error: 0.24256356670150317
Coverage of cases: 99.43573667711598
Instances selection time: 91.0
Test time: 203.0
Accumulative iteration time: 50492.0
Weighted Recall: 0.9203761755485893
Weighted FalsePositiveRate: 0.05103930500501441
Kappa statistic: 0.8698787209167875
Training time: 2875.0
		
Iteration: 29
Labeled set size: 879
Unlabelled set size: 716
	
Mean region size: 67.1055381400198
Incorrectly Classified Instances: 8.087774294670846
Correctly Classified Instances: 91.91222570532915
Weighted Precision: 0.9186818808445694
Weighted AreaUnderROC: 0.9502557551224322
Root mean squared error: 0.3054518363593651
Relative absolute error: 54.54545454545454
Root relative squared error: 64.79611944467649
Weighted TruePositiveRate: 0.9191222570532915
Weighted MatthewsCorrelation: 0.8710071562712142
Weighted FMeasure: 0.9187152818952544
Iteration time: 2945.0
Weighted AreaUnderPRC: 0.8862845648996097
Mean absolute error: 0.2424242424242479
Coverage of cases: 99.49843260188088
Instances selection time: 94.0
Test time: 204.0
Accumulative iteration time: 53437.0
Weighted Recall: 0.9191222570532915
Weighted FalsePositiveRate: 0.052869602925979454
Kappa statistic: 0.8676409003159172
Training time: 2851.0
		
Iteration: 30
Labeled set size: 899
Unlabelled set size: 696
	
Mean region size: 67.0637408568432
Incorrectly Classified Instances: 8.275862068965518
Correctly Classified Instances: 91.72413793103448
Weighted Precision: 0.9167427056905441
Weighted AreaUnderROC: 0.9493511674390477
Root mean squared error: 0.3058317044782428
Relative absolute error: 54.57680250783698
Root relative squared error: 64.87670164152098
Weighted TruePositiveRate: 0.9172413793103448
Weighted MatthewsCorrelation: 0.8682333929982934
Weighted FMeasure: 0.9167623819433534
Iteration time: 2873.0
Weighted AreaUnderPRC: 0.8849985940834145
Mean absolute error: 0.24256356670150317
Coverage of cases: 99.43573667711598
Instances selection time: 88.0
Test time: 204.0
Accumulative iteration time: 56310.0
Weighted Recall: 0.9172413793103448
Weighted FalsePositiveRate: 0.05442341359075947
Kappa statistic: 0.8644463702351166
Training time: 2785.0
		
Iteration: 31
Labeled set size: 919
Unlabelled set size: 676
	
Mean region size: 67.0637408568432
Incorrectly Classified Instances: 8.213166144200628
Correctly Classified Instances: 91.78683385579937
Weighted Precision: 0.9173792744616275
Weighted AreaUnderROC: 0.9499319992872222
Root mean squared error: 0.30560384026842974
Relative absolute error: 54.54545454545453
Root relative squared error: 64.82836434313641
Weighted TruePositiveRate: 0.9178683385579938
Weighted MatthewsCorrelation: 0.8693336747080378
Weighted FMeasure: 0.9174428532436883
Iteration time: 3035.0
Weighted AreaUnderPRC: 0.8860022083411525
Mean absolute error: 0.24242424242424784
Coverage of cases: 99.43573667711598
Instances selection time: 84.0
Test time: 205.0
Accumulative iteration time: 59345.0
Weighted Recall: 0.9178683385579938
Weighted FalsePositiveRate: 0.05326789341706336
Kappa statistic: 0.8655887347863006
Training time: 2951.0
		
Iteration: 32
Labeled set size: 939
Unlabelled set size: 656
	
Mean region size: 67.0428422152549
Incorrectly Classified Instances: 8.025078369905955
Correctly Classified Instances: 91.97492163009404
Weighted Precision: 0.919289342055319
Weighted AreaUnderROC: 0.9494949729146923
Root mean squared error: 0.30567981387812265
Relative absolute error: 54.54545454545453
Root relative squared error: 64.84448077951794
Weighted TruePositiveRate: 0.9197492163009404
Weighted MatthewsCorrelation: 0.8720259098334591
Weighted FMeasure: 0.9192514237753586
Iteration time: 3162.0
Weighted AreaUnderPRC: 0.8865728530159644
Mean absolute error: 0.24242424242424784
Coverage of cases: 99.3103448275862
Instances selection time: 88.0
Test time: 203.0
Accumulative iteration time: 62507.0
Weighted Recall: 0.9197492163009404
Weighted FalsePositiveRate: 0.053630239225058426
Kappa statistic: 0.8684787769350839
Training time: 3074.0
		
Iteration: 33
Labeled set size: 959
Unlabelled set size: 636
	
Mean region size: 66.83385579937188
Incorrectly Classified Instances: 8.401253918495298
Correctly Classified Instances: 91.5987460815047
Weighted Precision: 0.9157292597127431
Weighted AreaUnderROC: 0.9460848932962701
Root mean squared error: 0.3071197416348342
Relative absolute error: 54.63949843260186
Root relative squared error: 65.14993558387478
Weighted TruePositiveRate: 0.915987460815047
Weighted MatthewsCorrelation: 0.8653905767103179
Weighted FMeasure: 0.9153858216944494
Iteration time: 3056.0
Weighted AreaUnderPRC: 0.8794931023404551
Mean absolute error: 0.2428422152560138
Coverage of cases: 99.24764890282131
Instances selection time: 81.0
Test time: 203.0
Accumulative iteration time: 65563.0
Weighted Recall: 0.915987460815047
Weighted FalsePositiveRate: 0.058649929087633376
Kappa statistic: 0.8619575635603621
Training time: 2975.0
		
Iteration: 34
Labeled set size: 979
Unlabelled set size: 616
	
Mean region size: 66.91745036572509
Incorrectly Classified Instances: 8.087774294670846
Correctly Classified Instances: 91.91222570532915
Weighted Precision: 0.918715118232753
Weighted AreaUnderROC: 0.9477674512799457
Root mean squared error: 0.30636272854955715
Relative absolute error: 54.57680250783698
Root relative squared error: 64.98934885806086
Weighted TruePositiveRate: 0.9191222570532915
Weighted MatthewsCorrelation: 0.8704564613119115
Weighted FMeasure: 0.9185369647287869
Iteration time: 3161.0
Weighted AreaUnderPRC: 0.8830117590543424
Mean absolute error: 0.24256356670150317
Coverage of cases: 99.24764890282131
Instances selection time: 82.0
Test time: 206.0
Accumulative iteration time: 68724.0
Weighted Recall: 0.9191222570532915
Weighted FalsePositiveRate: 0.055741793665261996
Kappa statistic: 0.8672613471855574
Training time: 3079.0
		
Iteration: 35
Labeled set size: 999
Unlabelled set size: 596
	
Mean region size: 66.95924764890168
Incorrectly Classified Instances: 8.401253918495298
Correctly Classified Instances: 91.5987460815047
Weighted Precision: 0.9155486818621555
Weighted AreaUnderROC: 0.9462069138165292
Root mean squared error: 0.30757305515333744
Relative absolute error: 54.76489028213164
Root relative squared error: 65.24609790275593
Weighted TruePositiveRate: 0.915987460815047
Weighted MatthewsCorrelation: 0.86582415349443
Weighted FMeasure: 0.9153983815999424
Iteration time: 3245.0
Weighted AreaUnderPRC: 0.879836180227598
Mean absolute error: 0.24339951236503501
Coverage of cases: 99.18495297805643
Instances selection time: 78.0
Test time: 208.0
Accumulative iteration time: 71969.0
Weighted Recall: 0.915987460815047
Weighted FalsePositiveRate: 0.05721315239469875
Kappa statistic: 0.8621161713028999
Training time: 3167.0
		
Iteration: 36
Labeled set size: 1019
Unlabelled set size: 576
	
Mean region size: 67.0219435736666
Incorrectly Classified Instances: 8.589341692789969
Correctly Classified Instances: 91.41065830721003
Weighted Precision: 0.9134801142171011
Weighted AreaUnderROC: 0.9472501080566524
Root mean squared error: 0.3071197416348342
Relative absolute error: 54.73354231974919
Root relative squared error: 65.14993558387478
Weighted TruePositiveRate: 0.9141065830721004
Weighted MatthewsCorrelation: 0.8635265709381602
Weighted FMeasure: 0.9134599754512653
Iteration time: 3666.0
Weighted AreaUnderPRC: 0.87920399402797
Mean absolute error: 0.24326018808777972
Coverage of cases: 99.43573667711598
Instances selection time: 74.0
Test time: 208.0
Accumulative iteration time: 75635.0
Weighted Recall: 0.9141065830721004
Weighted FalsePositiveRate: 0.056850125263410344
Kappa statistic: 0.8591508896411787
Training time: 3592.0
		
Iteration: 37
Labeled set size: 1039
Unlabelled set size: 556
	
Mean region size: 66.9592476489017
Incorrectly Classified Instances: 8.150470219435737
Correctly Classified Instances: 91.84952978056427
Weighted Precision: 0.9180908383812195
Weighted AreaUnderROC: 0.9469885947840371
Root mean squared error: 0.3068928337784902
Relative absolute error: 54.670846394984316
Root relative squared error: 65.10180115869717
Weighted TruePositiveRate: 0.9184952978056427
Weighted MatthewsCorrelation: 0.8694132137044814
Weighted FMeasure: 0.9178879390939136
Iteration time: 3652.0
Weighted AreaUnderPRC: 0.8837547080994794
Mean absolute error: 0.24298153953326912
Coverage of cases: 99.05956112852665
Instances selection time: 74.0
Test time: 205.0
Accumulative iteration time: 79287.0
Weighted Recall: 0.9184952978056427
Weighted FalsePositiveRate: 0.05497979471959633
Kappa statistic: 0.8664247043756781
Training time: 3578.0
		
Iteration: 38
Labeled set size: 1059
Unlabelled set size: 536
	
Mean region size: 67.0010449320783
Incorrectly Classified Instances: 8.90282131661442
Correctly Classified Instances: 91.09717868338558
Weighted Precision: 0.9107202850635272
Weighted AreaUnderROC: 0.9436174699516826
Root mean squared error: 0.30945471381149176
Relative absolute error: 55.04702194357364
Root relative squared error: 65.64525798187371
Weighted TruePositiveRate: 0.9109717868338558
Weighted MatthewsCorrelation: 0.8581647718430705
Weighted FMeasure: 0.9103961093462859
Iteration time: 4104.0
Weighted AreaUnderPRC: 0.8752948771546794
Mean absolute error: 0.24465343086033284
Coverage of cases: 98.99686520376176
Instances selection time: 72.0
Test time: 209.0
Accumulative iteration time: 83391.0
Weighted Recall: 0.9109717868338558
Weighted FalsePositiveRate: 0.05735795517011275
Kappa statistic: 0.8543454871795861
Training time: 4032.0
		
Iteration: 39
Labeled set size: 1079
Unlabelled set size: 516
	
Mean region size: 67.02194357366659
Incorrectly Classified Instances: 9.278996865203762
Correctly Classified Instances: 90.72100313479623
Weighted Precision: 0.9072712625709403
Weighted AreaUnderROC: 0.9418827105680169
Root mean squared error: 0.310279028591076
Relative absolute error: 55.17241379310343
Root relative squared error: 65.8201215530166
Weighted TruePositiveRate: 0.9072100313479624
Weighted MatthewsCorrelation: 0.8516321592647329
Weighted FMeasure: 0.9066925259065797
Iteration time: 4153.0
Weighted AreaUnderPRC: 0.8728524159762607
Mean absolute error: 0.24521072796935414
Coverage of cases: 98.99686520376176
Instances selection time: 68.0
Test time: 211.0
Accumulative iteration time: 87544.0
Weighted Recall: 0.9072100313479624
Weighted FalsePositiveRate: 0.06045944459003257
Kappa statistic: 0.8481479075147037
Training time: 4085.0
		
Iteration: 40
Labeled set size: 1099
Unlabelled set size: 496
	
Mean region size: 67.04284221525488
Incorrectly Classified Instances: 8.526645768025078
Correctly Classified Instances: 91.47335423197492
Weighted Precision: 0.9146786638522176
Weighted AreaUnderROC: 0.9471905339783135
Root mean squared error: 0.30749754930829315
Relative absolute error: 54.796238244514086
Root relative squared error: 65.23008069424093
Weighted TruePositiveRate: 0.9147335423197492
Weighted MatthewsCorrelation: 0.8646845771202911
Weighted FMeasure: 0.9141866557642115
Iteration time: 4466.0
Weighted AreaUnderPRC: 0.8827248151293706
Mean absolute error: 0.24353883664229034
Coverage of cases: 99.05956112852665
Instances selection time: 69.0
Test time: 207.0
Accumulative iteration time: 92010.0
Weighted Recall: 0.9147335423197492
Weighted FalsePositiveRate: 0.05425237781043279
Kappa statistic: 0.860579880234441
Training time: 4397.0
		
Iteration: 41
Labeled set size: 1119
Unlabelled set size: 476
	
Mean region size: 67.14733542319637
Incorrectly Classified Instances: 8.714733542319749
Correctly Classified Instances: 91.28526645768025
Weighted Precision: 0.9132725884128744
Weighted AreaUnderROC: 0.9471383871353125
Root mean squared error: 0.30734648196962117
Relative absolute error: 54.827586206896534
Root relative squared error: 65.19803447236369
Weighted TruePositiveRate: 0.9128526645768025
Weighted MatthewsCorrelation: 0.861040357497885
Weighted FMeasure: 0.9124285939516741
Iteration time: 4749.0
Weighted AreaUnderPRC: 0.8828350890507909
Mean absolute error: 0.24367816091954567
Coverage of cases: 99.24764890282131
Instances selection time: 66.0
Test time: 210.0
Accumulative iteration time: 96759.0
Weighted Recall: 0.9128526645768025
Weighted FalsePositiveRate: 0.05484538494565185
Kappa statistic: 0.8577487335944742
Training time: 4683.0
		
Iteration: 42
Labeled set size: 1139
Unlabelled set size: 456
	
Mean region size: 67.0637408568432
Incorrectly Classified Instances: 8.652037617554859
Correctly Classified Instances: 91.34796238244515
Weighted Precision: 0.9136800810770875
Weighted AreaUnderROC: 0.9467032363654196
Root mean squared error: 0.30787489335664425
Relative absolute error: 54.858934169278974
Root relative squared error: 65.31012745486976
Weighted TruePositiveRate: 0.9134796238244514
Weighted MatthewsCorrelation: 0.862253890636518
Weighted FMeasure: 0.9130274974739992
Iteration time: 4993.0
Weighted AreaUnderPRC: 0.8813006124824051
Mean absolute error: 0.24381748519680096
Coverage of cases: 99.12225705329153
Instances selection time: 62.0
Test time: 212.0
Accumulative iteration time: 101752.0
Weighted Recall: 0.9134796238244514
Weighted FalsePositiveRate: 0.05416992587508956
Kappa statistic: 0.8587719427696251
Training time: 4931.0
		
Iteration: 43
Labeled set size: 1159
Unlabelled set size: 436
	
Mean region size: 67.0637408568432
Incorrectly Classified Instances: 8.463949843260188
Correctly Classified Instances: 91.53605015673982
Weighted Precision: 0.9156665703215059
Weighted AreaUnderROC: 0.9473000684239279
Root mean squared error: 0.30719534034161244
Relative absolute error: 54.76489028213164
Root relative squared error: 65.16597249133834
Weighted TruePositiveRate: 0.9153605015673981
Weighted MatthewsCorrelation: 0.8649735108070727
Weighted FMeasure: 0.9148618326366083
Iteration time: 4826.0
Weighted AreaUnderPRC: 0.8836854198975226
Mean absolute error: 0.24339951236503501
Coverage of cases: 99.12225705329153
Instances selection time: 58.0
Test time: 213.0
Accumulative iteration time: 106578.0
Weighted Recall: 0.9153605015673981
Weighted FalsePositiveRate: 0.054052210579950806
Kappa statistic: 0.8617239410715696
Training time: 4768.0
		
Iteration: 44
Labeled set size: 1179
Unlabelled set size: 416
	
Mean region size: 67.12643678160809
Incorrectly Classified Instances: 8.714733542319749
Correctly Classified Instances: 91.28526645768025
Weighted Precision: 0.9134226565884577
Weighted AreaUnderROC: 0.9460139132748794
Root mean squared error: 0.3076485424670654
Relative absolute error: 54.858934169278974
Root relative squared error: 65.26211118018512
Weighted TruePositiveRate: 0.9128526645768025
Weighted MatthewsCorrelation: 0.8603631385735112
Weighted FMeasure: 0.9124252684090952
Iteration time: 5321.0
Weighted AreaUnderPRC: 0.882195946698368
Mean absolute error: 0.24381748519680096
Coverage of cases: 99.18495297805643
Instances selection time: 56.0
Test time: 212.0
Accumulative iteration time: 111899.0
Weighted Recall: 0.9128526645768025
Weighted FalsePositiveRate: 0.05580141921215933
Kappa statistic: 0.8577082886742973
Training time: 5265.0
		
Iteration: 45
Labeled set size: 1199
Unlabelled set size: 396
	
Mean region size: 66.95924764890168
Incorrectly Classified Instances: 8.275862068965518
Correctly Classified Instances: 91.72413793103448
Weighted Precision: 0.9176188139338031
Weighted AreaUnderROC: 0.9479677096858324
Root mean squared error: 0.3066657580287319
Relative absolute error: 54.63949843260186
Root relative squared error: 65.05363111794804
Weighted TruePositiveRate: 0.9172413793103448
Weighted MatthewsCorrelation: 0.867313015085093
Weighted FMeasure: 0.9168130234821732
Iteration time: 5340.0
Weighted AreaUnderPRC: 0.8850177567725356
Mean absolute error: 0.24284221525601377
Coverage of cases: 99.12225705329153
Instances selection time: 54.0
Test time: 213.0
Accumulative iteration time: 117239.0
Weighted Recall: 0.9172413793103448
Weighted FalsePositiveRate: 0.052500443885050874
Kappa statistic: 0.8649894769512526
Training time: 5286.0
		
Iteration: 46
Labeled set size: 1219
Unlabelled set size: 376
	
Mean region size: 67.0219435736666
Incorrectly Classified Instances: 8.401253918495298
Correctly Classified Instances: 91.5987460815047
Weighted Precision: 0.9162066874373478
Weighted AreaUnderROC: 0.9478976598669283
Root mean squared error: 0.3068928337784903
Relative absolute error: 54.70219435736674
Root relative squared error: 65.1018011586972
Weighted TruePositiveRate: 0.915987460815047
Weighted MatthewsCorrelation: 0.8658195220983869
Weighted FMeasure: 0.9155335177707429
Iteration time: 5586.0
Weighted AreaUnderPRC: 0.8839285335094711
Mean absolute error: 0.2431208638105244
Coverage of cases: 99.18495297805643
Instances selection time: 52.0
Test time: 215.0
Accumulative iteration time: 122825.0
Weighted Recall: 0.915987460815047
Weighted FalsePositiveRate: 0.05289805305284142
Kappa statistic: 0.8629046535316498
Training time: 5534.0
		
Time end:Sun Oct 08 08.21.45 EEST 2017