Sun Oct 08 09.42.30 EEST 2017
Dataset: splice
Test set size: 1595
Initial Labelled set size: 319
Initial Unlabelled set size: 1276
Batch mode: QBestBatchMode
Batch size: 20
Classifiers: RandomForest-1cores
Scenario: PoolBasedSamplingScenario
Query strategy: RandomSelectionQueryStrategy-1cores
Time begining: Sun Oct 08 09.42.30 EEST 2017
		
Iteration: 1
Labeled set size: 319
Unlabelled set size: 1276
	
Mean region size: 92.45559038662516
Incorrectly Classified Instances: 23.322884012539184
Correctly Classified Instances: 76.67711598746081
Weighted Precision: 0.7854530938903068
Weighted AreaUnderROC: 0.9140272923030218
Root mean squared error: 0.35232098158956043
Relative absolute error: 66.20995413259317
Root relative squared error: 74.73856657088284
Weighted TruePositiveRate: 0.7667711598746082
Weighted MatthewsCorrelation: 0.613345492469251
Weighted FMeasure: 0.7504750297963917
Iteration time: 76.0
Weighted AreaUnderPRC: 0.8714478898891559
Mean absolute error: 0.2942664628115319
Coverage of cases: 99.68652037617555
Instances selection time: 3.0
Test time: 11.0
Accumulative iteration time: 76.0
Weighted Recall: 0.7667711598746082
Weighted FalsePositiveRate: 0.2087111694492346
Kappa statistic: 0.5938275255885784
Training time: 73.0
		
Iteration: 2
Labeled set size: 339
Unlabelled set size: 1256
	
Mean region size: 95.27690700104516
Incorrectly Classified Instances: 21.191222570532915
Correctly Classified Instances: 78.80877742946709
Weighted Precision: 0.7937577328026887
Weighted AreaUnderROC: 0.9222132977432596
Root mean squared error: 0.3543948264928649
Relative absolute error: 68.74141550797874
Root relative squared error: 75.17849550915956
Weighted TruePositiveRate: 0.7880877742946708
Weighted MatthewsCorrelation: 0.6516810115146493
Weighted FMeasure: 0.7833051010013466
Iteration time: 63.0
Weighted AreaUnderPRC: 0.8761237994663303
Mean absolute error: 0.30551740225769025
Coverage of cases: 100.0
Instances selection time: 3.0
Test time: 10.0
Accumulative iteration time: 139.0
Weighted Recall: 0.7880877742946708
Weighted FalsePositiveRate: 0.1656000278008307
Kappa statistic: 0.6419458233100833
Training time: 60.0
		
Iteration: 3
Labeled set size: 359
Unlabelled set size: 1236
	
Mean region size: 94.54545454545449
Incorrectly Classified Instances: 22.13166144200627
Correctly Classified Instances: 77.86833855799372
Weighted Precision: 0.7821372209929757
Weighted AreaUnderROC: 0.9109617637136918
Root mean squared error: 0.3551647614041791
Relative absolute error: 67.52997308107646
Root relative squared error: 75.34182336821831
Weighted TruePositiveRate: 0.7786833855799373
Weighted MatthewsCorrelation: 0.6380984326816598
Weighted FMeasure: 0.7704452510240959
Iteration time: 70.0
Weighted AreaUnderPRC: 0.8553555593804514
Mean absolute error: 0.30013321369368
Coverage of cases: 99.9373040752351
Instances selection time: 4.0
Test time: 11.0
Accumulative iteration time: 209.0
Weighted Recall: 0.7786833855799373
Weighted FalsePositiveRate: 0.17815265907373481
Kappa statistic: 0.6216953311505459
Training time: 66.0
		
Iteration: 4
Labeled set size: 379
Unlabelled set size: 1216
	
Mean region size: 99.97910135841171
Incorrectly Classified Instances: 25.830721003134798
Correctly Classified Instances: 74.1692789968652
Weighted Precision: 0.7585705491298038
Weighted AreaUnderROC: 0.8957707751204819
Root mean squared error: 0.37331291689121193
Relative absolute error: 73.4535910034089
Root relative squared error: 79.1916285114909
Weighted TruePositiveRate: 0.7416927899686521
Weighted MatthewsCorrelation: 0.5670325049101985
Weighted FMeasure: 0.7292346558845424
Iteration time: 67.0
Weighted AreaUnderPRC: 0.8439534786668816
Mean absolute error: 0.32646040445960256
Coverage of cases: 100.0
Instances selection time: 3.0
Test time: 11.0
Accumulative iteration time: 276.0
Weighted Recall: 0.7416927899686521
Weighted FalsePositiveRate: 0.23196467033221868
Kappa statistic: 0.5476594470506039
Training time: 64.0
		
Iteration: 5
Labeled set size: 399
Unlabelled set size: 1196
	
Mean region size: 96.8025078369908
Incorrectly Classified Instances: 25.893416927899686
Correctly Classified Instances: 74.1065830721003
Weighted Precision: 0.7583553242452781
Weighted AreaUnderROC: 0.8849422372284621
Root mean squared error: 0.36987820541089245
Relative absolute error: 71.50595557808064
Root relative squared error: 78.46301617774495
Weighted TruePositiveRate: 0.7410658307210032
Weighted MatthewsCorrelation: 0.5644743019558277
Weighted FMeasure: 0.7186757735475742
Iteration time: 74.0
Weighted AreaUnderPRC: 0.8291604688392654
Mean absolute error: 0.31780424701369897
Coverage of cases: 100.0
Instances selection time: 3.0
Test time: 11.0
Accumulative iteration time: 350.0
Weighted Recall: 0.7410658307210032
Weighted FalsePositiveRate: 0.23359275705282168
Kappa statistic: 0.5456081815152993
Training time: 71.0
		
Iteration: 6
Labeled set size: 419
Unlabelled set size: 1176
	
Mean region size: 97.45036572622804
Incorrectly Classified Instances: 25.454545454545453
Correctly Classified Instances: 74.54545454545455
Weighted Precision: 0.752950043377302
Weighted AreaUnderROC: 0.8961154739935515
Root mean squared error: 0.3646001981041754
Relative absolute error: 70.51223120438411
Root relative squared error: 77.34338175042542
Weighted TruePositiveRate: 0.7454545454545455
Weighted MatthewsCorrelation: 0.5750090908103007
Weighted FMeasure: 0.7340005365614486
Iteration time: 86.0
Weighted AreaUnderPRC: 0.8486968175701084
Mean absolute error: 0.31338769424171425
Coverage of cases: 100.0
Instances selection time: 3.0
Test time: 19.0
Accumulative iteration time: 436.0
Weighted Recall: 0.7454545454545455
Weighted FalsePositiveRate: 0.20971592397370864
Kappa statistic: 0.5626876103714559
Training time: 83.0
		
Iteration: 7
Labeled set size: 439
Unlabelled set size: 1156
	
Mean region size: 97.45036572622791
Incorrectly Classified Instances: 24.764890282131663
Correctly Classified Instances: 75.23510971786834
Weighted Precision: 0.7602670238385993
Weighted AreaUnderROC: 0.9023282867080067
Root mean squared error: 0.36506461013699
Relative absolute error: 70.96752901740813
Root relative squared error: 77.44189841972577
Weighted TruePositiveRate: 0.7523510971786834
Weighted MatthewsCorrelation: 0.5876239145902878
Weighted FMeasure: 0.7409552630781631
Iteration time: 95.0
Weighted AreaUnderPRC: 0.8550123317875361
Mean absolute error: 0.3154112400773766
Coverage of cases: 100.0
Instances selection time: 3.0
Test time: 11.0
Accumulative iteration time: 531.0
Weighted Recall: 0.7523510971786834
Weighted FalsePositiveRate: 0.21329253208163954
Kappa statistic: 0.570264726886787
Training time: 92.0
		
Iteration: 8
Labeled set size: 459
Unlabelled set size: 1136
	
Mean region size: 92.47648902821308
Incorrectly Classified Instances: 18.244514106583072
Correctly Classified Instances: 81.75548589341693
Weighted Precision: 0.8176220185524474
Weighted AreaUnderROC: 0.9434183962139963
Root mean squared error: 0.3300787263117375
Relative absolute error: 61.813620950795965
Root relative squared error: 70.02027171013364
Weighted TruePositiveRate: 0.8175548589341692
Weighted MatthewsCorrelation: 0.7001510737124913
Weighted FMeasure: 0.8105068794180188
Iteration time: 80.0
Weighted AreaUnderPRC: 0.9042484041724463
Mean absolute error: 0.2747272042257661
Coverage of cases: 100.0
Instances selection time: 3.0
Test time: 11.0
Accumulative iteration time: 611.0
Weighted Recall: 0.8175548589341692
Weighted FalsePositiveRate: 0.14289694158850222
Kappa statistic: 0.6927339722117036
Training time: 77.0
		
Iteration: 9
Labeled set size: 479
Unlabelled set size: 1116
	
Mean region size: 93.47962382445158
Incorrectly Classified Instances: 20.12539184952978
Correctly Classified Instances: 79.87460815047022
Weighted Precision: 0.8001036988486926
Weighted AreaUnderROC: 0.932451844595837
Root mean squared error: 0.3409713257915909
Relative absolute error: 65.07864592607272
Root relative squared error: 72.33094099721961
Weighted TruePositiveRate: 0.7987460815047022
Weighted MatthewsCorrelation: 0.668072044812346
Weighted FMeasure: 0.7930972806261561
Iteration time: 85.0
Weighted AreaUnderPRC: 0.8920408387091819
Mean absolute error: 0.28923842633810753
Coverage of cases: 99.87460815047022
Instances selection time: 3.0
Test time: 20.0
Accumulative iteration time: 696.0
Weighted Recall: 0.7987460815047022
Weighted FalsePositiveRate: 0.1598581984633698
Kappa statistic: 0.6594374010562863
Training time: 82.0
		
Iteration: 10
Labeled set size: 499
Unlabelled set size: 1096
	
Mean region size: 93.96029258098238
Incorrectly Classified Instances: 22.884012539184955
Correctly Classified Instances: 77.11598746081505
Weighted Precision: 0.7744371910747551
Weighted AreaUnderROC: 0.9102387329281053
Root mean squared error: 0.3552920715627998
Relative absolute error: 67.70290300144578
Root relative squared error: 75.3688299311607
Weighted TruePositiveRate: 0.7711598746081505
Weighted MatthewsCorrelation: 0.6210819289365277
Weighted FMeasure: 0.7622315531729364
Iteration time: 107.0
Weighted AreaUnderPRC: 0.8571256958768267
Mean absolute error: 0.3009017911175436
Coverage of cases: 99.87460815047022
Instances selection time: 3.0
Test time: 11.0
Accumulative iteration time: 803.0
Weighted Recall: 0.7711598746081505
Weighted FalsePositiveRate: 0.18915624894491245
Kappa statistic: 0.6075348191292858
Training time: 104.0
		
Iteration: 11
Labeled set size: 519
Unlabelled set size: 1076
	
Mean region size: 92.72727272727273
Incorrectly Classified Instances: 18.181818181818183
Correctly Classified Instances: 81.81818181818181
Weighted Precision: 0.8203445621811307
Weighted AreaUnderROC: 0.936583582213036
Root mean squared error: 0.3353215803398428
Relative absolute error: 63.78184429604669
Root relative squared error: 71.13244900094695
Weighted TruePositiveRate: 0.8181818181818182
Weighted MatthewsCorrelation: 0.6966832643784516
Weighted FMeasure: 0.8112420745322348
Iteration time: 111.0
Weighted AreaUnderPRC: 0.905103212779726
Mean absolute error: 0.28347486353799173
Coverage of cases: 100.0
Instances selection time: 3.0
Test time: 11.0
Accumulative iteration time: 914.0
Weighted Recall: 0.8181818181818182
Weighted FalsePositiveRate: 0.145565558480836
Kappa statistic: 0.6944220378162226
Training time: 108.0
		
Iteration: 12
Labeled set size: 539
Unlabelled set size: 1056
	
Mean region size: 95.77847439916428
Incorrectly Classified Instances: 15.924764890282132
Correctly Classified Instances: 84.07523510971787
Weighted Precision: 0.8443364410637026
Weighted AreaUnderROC: 0.9430914882377794
Root mean squared error: 0.3389680208371162
Relative absolute error: 65.51712640803393
Root relative squared error: 71.90597584179153
Weighted TruePositiveRate: 0.8407523510971787
Weighted MatthewsCorrelation: 0.7379723434341334
Weighted FMeasure: 0.8360571260054154
Iteration time: 91.0
Weighted AreaUnderPRC: 0.9019355180676453
Mean absolute error: 0.29118722848015743
Coverage of cases: 99.87460815047022
Instances selection time: 3.0
Test time: 11.0
Accumulative iteration time: 1005.0
Weighted Recall: 0.8407523510971787
Weighted FalsePositiveRate: 0.12981109829497237
Kappa statistic: 0.7320372064351286
Training time: 88.0
		
Iteration: 13
Labeled set size: 559
Unlabelled set size: 1036
	
Mean region size: 96.13375130616517
Incorrectly Classified Instances: 18.871473354231973
Correctly Classified Instances: 81.12852664576802
Weighted Precision: 0.8161366880205585
Weighted AreaUnderROC: 0.9376646772725553
Root mean squared error: 0.3496241342291985
Relative absolute error: 67.76272902459641
Root relative squared error: 74.16647885398176
Weighted TruePositiveRate: 0.8112852664576803
Weighted MatthewsCorrelation: 0.6886644701763288
Weighted FMeasure: 0.8060976058577358
Iteration time: 108.0
Weighted AreaUnderPRC: 0.8961418457322542
Mean absolute error: 0.30116768455376863
Coverage of cases: 100.0
Instances selection time: 3.0
Test time: 17.0
Accumulative iteration time: 1113.0
Weighted Recall: 0.8112852664576803
Weighted FalsePositiveRate: 0.157320927448279
Kappa statistic: 0.6792389043632917
Training time: 105.0
		
Iteration: 14
Labeled set size: 579
Unlabelled set size: 1016
	
Mean region size: 93.10344827586216
Incorrectly Classified Instances: 17.115987460815045
Correctly Classified Instances: 82.88401253918495
Weighted Precision: 0.8290291249240085
Weighted AreaUnderROC: 0.9445441336472922
Root mean squared error: 0.3311038875896143
Relative absolute error: 63.08858289318081
Root relative squared error: 70.23774125755259
Weighted TruePositiveRate: 0.8288401253918495
Weighted MatthewsCorrelation: 0.7167968829855511
Weighted FMeasure: 0.8246747306110042
Iteration time: 116.0
Weighted AreaUnderPRC: 0.912608473938431
Mean absolute error: 0.28039370174747663
Coverage of cases: 99.87460815047022
Instances selection time: 3.0
Test time: 12.0
Accumulative iteration time: 1229.0
Weighted Recall: 0.8288401253918495
Weighted FalsePositiveRate: 0.13023477089997956
Kappa statistic: 0.7145111609689317
Training time: 113.0
		
Iteration: 15
Labeled set size: 599
Unlabelled set size: 996
	
Mean region size: 91.41065830721014
Incorrectly Classified Instances: 18.0564263322884
Correctly Classified Instances: 81.9435736677116
Weighted Precision: 0.8185160290793168
Weighted AreaUnderROC: 0.931881801078596
Root mean squared error: 0.3354014202316549
Relative absolute error: 63.10370628300713
Root relative squared error: 71.14938559961983
Weighted TruePositiveRate: 0.819435736677116
Weighted MatthewsCorrelation: 0.7037548607682169
Weighted FMeasure: 0.8154749988274042
Iteration time: 122.0
Weighted AreaUnderPRC: 0.8971733510690321
Mean absolute error: 0.2804609168133714
Coverage of cases: 99.87460815047022
Instances selection time: 3.0
Test time: 11.0
Accumulative iteration time: 1351.0
Weighted Recall: 0.819435736677116
Weighted FalsePositiveRate: 0.13321207039535524
Kappa statistic: 0.6989108327472486
Training time: 119.0
		
Iteration: 16
Labeled set size: 619
Unlabelled set size: 976
	
Mean region size: 90.88819226750292
Incorrectly Classified Instances: 16.927899686520377
Correctly Classified Instances: 83.07210031347962
Weighted Precision: 0.8339989432490394
Weighted AreaUnderROC: 0.9431777922429151
Root mean squared error: 0.3284034719818238
Relative absolute error: 61.530398674339544
Root relative squared error: 69.66489660106541
Weighted TruePositiveRate: 0.8307210031347962
Weighted MatthewsCorrelation: 0.7213692335561944
Weighted FMeasure: 0.8256783054880384
Iteration time: 112.0
Weighted AreaUnderPRC: 0.9123479563657503
Mean absolute error: 0.2734684385526264
Coverage of cases: 99.87460815047022
Instances selection time: 2.0
Test time: 12.0
Accumulative iteration time: 1463.0
Weighted Recall: 0.8307210031347962
Weighted FalsePositiveRate: 0.13537592539392526
Kappa statistic: 0.7153259918970534
Training time: 110.0
		
Iteration: 17
Labeled set size: 639
Unlabelled set size: 956
	
Mean region size: 100.0
Incorrectly Classified Instances: 26.08150470219436
Correctly Classified Instances: 73.91849529780565
Weighted Precision: 0.7607244475834931
Weighted AreaUnderROC: 0.9040076733701577
Root mean squared error: 0.37347271158557016
Relative absolute error: 73.86836307382988
Root relative squared error: 79.2255260850844
Weighted TruePositiveRate: 0.7391849529780564
Weighted MatthewsCorrelation: 0.5655697694152922
Weighted FMeasure: 0.7228637540435119
Iteration time: 112.0
Weighted AreaUnderPRC: 0.8579330617542537
Mean absolute error: 0.32830383588369577
Coverage of cases: 100.0
Instances selection time: 2.0
Test time: 11.0
Accumulative iteration time: 1575.0
Weighted Recall: 0.7391849529780564
Weighted FalsePositiveRate: 0.24137782353223405
Kappa statistic: 0.5384475192041086
Training time: 110.0
		
Iteration: 18
Labeled set size: 659
Unlabelled set size: 936
	
Mean region size: 90.38662486938375
Incorrectly Classified Instances: 18.557993730407524
Correctly Classified Instances: 81.44200626959248
Weighted Precision: 0.8149784150396737
Weighted AreaUnderROC: 0.9415150960321621
Root mean squared error: 0.325899632479135
Relative absolute error: 60.50312597836033
Root relative squared error: 69.13375203365922
Weighted TruePositiveRate: 0.8144200626959248
Weighted MatthewsCorrelation: 0.6933786481995857
Weighted FMeasure: 0.8103159530362728
Iteration time: 121.0
Weighted AreaUnderPRC: 0.9101262549444422
Mean absolute error: 0.268902782126052
Coverage of cases: 99.9373040752351
Instances selection time: 2.0
Test time: 24.0
Accumulative iteration time: 1696.0
Weighted Recall: 0.8144200626959248
Weighted FalsePositiveRate: 0.1438909645079786
Kappa statistic: 0.6885486957663285
Training time: 119.0
		
Iteration: 19
Labeled set size: 679
Unlabelled set size: 916
	
Mean region size: 89.61337513061683
Incorrectly Classified Instances: 13.981191222570533
Correctly Classified Instances: 86.01880877742947
Weighted Precision: 0.8607134477797276
Weighted AreaUnderROC: 0.9622544030551151
Root mean squared error: 0.31231687494869415
Relative absolute error: 58.13580934834783
Root relative squared error: 66.25241404656303
Weighted TruePositiveRate: 0.8601880877742947
Weighted MatthewsCorrelation: 0.7711543298668481
Weighted FMeasure: 0.8582087091022367
Iteration time: 137.0
Weighted AreaUnderPRC: 0.9409924998730752
Mean absolute error: 0.2583813748815518
Coverage of cases: 100.0
Instances selection time: 3.0
Test time: 11.0
Accumulative iteration time: 1833.0
Weighted Recall: 0.8601880877742947
Weighted FalsePositiveRate: 0.1069243697632716
Kappa statistic: 0.7672660293530678
Training time: 134.0
		
Iteration: 20
Labeled set size: 699
Unlabelled set size: 896
	
Mean region size: 89.42528735632185
Incorrectly Classified Instances: 16.614420062695924
Correctly Classified Instances: 83.38557993730407
Weighted Precision: 0.8394255123298723
Weighted AreaUnderROC: 0.9481787855067003
Root mean squared error: 0.32031836226158705
Relative absolute error: 59.36073203022628
Root relative squared error: 67.94978582812041
Weighted TruePositiveRate: 0.8338557993730408
Weighted MatthewsCorrelation: 0.7243539647774889
Weighted FMeasure: 0.825086026198061
Iteration time: 135.0
Weighted AreaUnderPRC: 0.9184954037348971
Mean absolute error: 0.26382547568990056
Coverage of cases: 100.0
Instances selection time: 2.0
Test time: 11.0
Accumulative iteration time: 1968.0
Weighted Recall: 0.8338557993730408
Weighted FalsePositiveRate: 0.14012492130642726
Kappa statistic: 0.7191171769972137
Training time: 133.0
		
Iteration: 21
Labeled set size: 719
Unlabelled set size: 876
	
Mean region size: 97.13688610240341
Incorrectly Classified Instances: 23.887147335423197
Correctly Classified Instances: 76.1128526645768
Weighted Precision: 0.785158449983218
Weighted AreaUnderROC: 0.8978750122930926
Root mean squared error: 0.3640809119202687
Relative absolute error: 70.28721200064344
Root relative squared error: 77.23322451582037
Weighted TruePositiveRate: 0.761128526645768
Weighted MatthewsCorrelation: 0.6047724038483017
Weighted FMeasure: 0.7485067894611376
Iteration time: 128.0
Weighted AreaUnderPRC: 0.8483589150520238
Mean absolute error: 0.31238760889175565
Coverage of cases: 99.9373040752351
Instances selection time: 2.0
Test time: 12.0
Accumulative iteration time: 2096.0
Weighted Recall: 0.761128526645768
Weighted FalsePositiveRate: 0.2239019235177305
Kappa statistic: 0.5792465841631459
Training time: 126.0
		
Iteration: 22
Labeled set size: 739
Unlabelled set size: 856
	
Mean region size: 90.13584117032423
Incorrectly Classified Instances: 19.3730407523511
Correctly Classified Instances: 80.6269592476489
Weighted Precision: 0.8117263830017871
Weighted AreaUnderROC: 0.9289005472897331
Root mean squared error: 0.33464063334872
Relative absolute error: 62.23265516412305
Root relative squared error: 70.98799833043151
Weighted TruePositiveRate: 0.806269592476489
Weighted MatthewsCorrelation: 0.6771317943306419
Weighted FMeasure: 0.8007432309743561
Iteration time: 132.0
Weighted AreaUnderPRC: 0.8936657832197231
Mean absolute error: 0.2765895785072198
Coverage of cases: 99.74921630094043
Instances selection time: 2.0
Test time: 23.0
Accumulative iteration time: 2228.0
Weighted Recall: 0.806269592476489
Weighted FalsePositiveRate: 0.16177537897920347
Kappa statistic: 0.6713064112106152
Training time: 130.0
		
Iteration: 23
Labeled set size: 759
Unlabelled set size: 836
	
Mean region size: 85.8934169278999
Incorrectly Classified Instances: 17.24137931034483
Correctly Classified Instances: 82.75862068965517
Weighted Precision: 0.8307047086543221
Weighted AreaUnderROC: 0.9381038845170255
Root mean squared error: 0.3208459355634949
Relative absolute error: 57.92169026537424
Root relative squared error: 68.06170102592603
Weighted TruePositiveRate: 0.8275862068965517
Weighted MatthewsCorrelation: 0.7153681304070797
Weighted FMeasure: 0.8219812243291346
Iteration time: 145.0
Weighted AreaUnderPRC: 0.9045181481886311
Mean absolute error: 0.25742973451278023
Coverage of cases: 99.87460815047022
Instances selection time: 2.0
Test time: 12.0
Accumulative iteration time: 2373.0
Weighted Recall: 0.8275862068965517
Weighted FalsePositiveRate: 0.141636312658713
Kappa statistic: 0.708769031682344
Training time: 143.0
		
Iteration: 24
Labeled set size: 779
Unlabelled set size: 816
	
Mean region size: 87.52351097178709
Incorrectly Classified Instances: 16.551724137931036
Correctly Classified Instances: 83.44827586206897
Weighted Precision: 0.8354288932660863
Weighted AreaUnderROC: 0.9430216426356978
Root mean squared error: 0.32194157870230333
Relative absolute error: 58.95139292082657
Root relative squared error: 68.29412203388961
Weighted TruePositiveRate: 0.8344827586206897
Weighted MatthewsCorrelation: 0.7261156251255095
Weighted FMeasure: 0.8309932160271711
Iteration time: 152.0
Weighted AreaUnderPRC: 0.9069360295921124
Mean absolute error: 0.26200619075923515
Coverage of cases: 99.81191222570533
Instances selection time: 2.0
Test time: 12.0
Accumulative iteration time: 2525.0
Weighted Recall: 0.8344827586206897
Weighted FalsePositiveRate: 0.12892899736452265
Kappa statistic: 0.7232753504896307
Training time: 150.0
		
Iteration: 25
Labeled set size: 799
Unlabelled set size: 796
	
Mean region size: 93.89759665621739
Incorrectly Classified Instances: 16.300940438871475
Correctly Classified Instances: 83.69905956112852
Weighted Precision: 0.8363064293835185
Weighted AreaUnderROC: 0.9483070600887635
Root mean squared error: 0.3245769300249219
Relative absolute error: 61.14298063972836
Root relative squared error: 68.85316447119935
Weighted TruePositiveRate: 0.8369905956112853
Weighted MatthewsCorrelation: 0.7338885472371477
Weighted FMeasure: 0.8344526620817113
Iteration time: 139.0
Weighted AreaUnderPRC: 0.9173408104316202
Mean absolute error: 0.2717465806210211
Coverage of cases: 100.0
Instances selection time: 2.0
Test time: 11.0
Accumulative iteration time: 2664.0
Weighted Recall: 0.8369905956112853
Weighted FalsePositiveRate: 0.12000612511704134
Kappa statistic: 0.7286502657225152
Training time: 137.0
		
Iteration: 26
Labeled set size: 819
Unlabelled set size: 776
	
Mean region size: 93.04075235109708
Incorrectly Classified Instances: 17.36677115987461
Correctly Classified Instances: 82.6332288401254
Weighted Precision: 0.8275105689512333
Weighted AreaUnderROC: 0.9439358350196465
Root mean squared error: 0.3283007563340482
Relative absolute error: 61.40590570498724
Root relative squared error: 69.64310732174258
Weighted TruePositiveRate: 0.826332288401254
Weighted MatthewsCorrelation: 0.7126392839943915
Weighted FMeasure: 0.8213773940424782
Iteration time: 135.0
Weighted AreaUnderPRC: 0.9083327811218508
Mean absolute error: 0.27291513646661614
Coverage of cases: 100.0
Instances selection time: 2.0
Test time: 12.0
Accumulative iteration time: 2799.0
Weighted Recall: 0.826332288401254
Weighted FalsePositiveRate: 0.1372489812309127
Kappa statistic: 0.7084583791944803
Training time: 133.0
		
Iteration: 27
Labeled set size: 839
Unlabelled set size: 756
	
Mean region size: 92.70637408568459
Incorrectly Classified Instances: 21.818181818181817
Correctly Classified Instances: 78.18181818181819
Weighted Precision: 0.7900726830158894
Weighted AreaUnderROC: 0.9259351108243536
Root mean squared error: 0.3419464497135306
Relative absolute error: 64.26364294446098
Root relative squared error: 72.53779601852986
Weighted TruePositiveRate: 0.7818181818181819
Weighted MatthewsCorrelation: 0.6385546320917408
Weighted FMeasure: 0.773362981257247
Iteration time: 151.0
Weighted AreaUnderPRC: 0.885421727056281
Mean absolute error: 0.28561619086427753
Coverage of cases: 100.0
Instances selection time: 1.0
Test time: 12.0
Accumulative iteration time: 2950.0
Weighted Recall: 0.7818181818181819
Weighted FalsePositiveRate: 0.18817619521106843
Kappa statistic: 0.6242378946598808
Training time: 150.0
		
Iteration: 28
Labeled set size: 859
Unlabelled set size: 736
	
Mean region size: 90.44932079414872
Incorrectly Classified Instances: 15.297805642633229
Correctly Classified Instances: 84.70219435736676
Weighted Precision: 0.8489237830524575
Weighted AreaUnderROC: 0.949609774222744
Root mean squared error: 0.3212307767657577
Relative absolute error: 60.17784829159018
Root relative squared error: 68.14333817306603
Weighted TruePositiveRate: 0.8470219435736677
Weighted MatthewsCorrelation: 0.7457157701378704
Weighted FMeasure: 0.844344739578838
Iteration time: 168.0
Weighted AreaUnderPRC: 0.9248712322674506
Mean absolute error: 0.26745710351818464
Coverage of cases: 100.0
Instances selection time: 2.0
Test time: 12.0
Accumulative iteration time: 3118.0
Weighted Recall: 0.8470219435736677
Weighted FalsePositiveRate: 0.12353043678284295
Kappa statistic: 0.7439376154708579
Training time: 166.0
		
Iteration: 29
Labeled set size: 879
Unlabelled set size: 716
	
Mean region size: 95.15151515151518
Incorrectly Classified Instances: 21.003134796238246
Correctly Classified Instances: 78.99686520376176
Weighted Precision: 0.7963579202504808
Weighted AreaUnderROC: 0.9101340707979445
Root mean squared error: 0.3499208899830236
Relative absolute error: 66.6741497488247
Root relative squared error: 74.22943025574752
Weighted TruePositiveRate: 0.7899686520376176
Weighted MatthewsCorrelation: 0.6465448491546474
Weighted FMeasure: 0.7781708652352325
Iteration time: 152.0
Weighted AreaUnderPRC: 0.8621158337340823
Mean absolute error: 0.2963295544392276
Coverage of cases: 99.9373040752351
Instances selection time: 1.0
Test time: 12.0
Accumulative iteration time: 3270.0
Weighted Recall: 0.7899686520376176
Weighted FalsePositiveRate: 0.18464115194026914
Kappa statistic: 0.6391629349949655
Training time: 151.0
		
Iteration: 30
Labeled set size: 899
Unlabelled set size: 696
	
Mean region size: 89.96865203761766
Incorrectly Classified Instances: 14.294670846394984
Correctly Classified Instances: 85.70532915360502
Weighted Precision: 0.8585461453078136
Weighted AreaUnderROC: 0.9550132926121346
Root mean squared error: 0.31375173779118387
Relative absolute error: 58.36525280812328
Root relative squared error: 66.55679442036215
Weighted TruePositiveRate: 0.8570532915360501
Weighted MatthewsCorrelation: 0.7663219140816645
Weighted FMeasure: 0.8538899636669791
Iteration time: 165.0
Weighted AreaUnderPRC: 0.928057412692395
Mean absolute error: 0.2594011235916649
Coverage of cases: 99.9373040752351
Instances selection time: 2.0
Test time: 11.0
Accumulative iteration time: 3435.0
Weighted Recall: 0.8570532915360501
Weighted FalsePositiveRate: 0.11317453717865902
Kappa statistic: 0.7607997284775007
Training time: 163.0
		
Iteration: 31
Labeled set size: 919
Unlabelled set size: 676
	
Mean region size: 92.14211076280057
Incorrectly Classified Instances: 15.862068965517242
Correctly Classified Instances: 84.13793103448276
Weighted Precision: 0.8427862630592153
Weighted AreaUnderROC: 0.9524112202812459
Root mean squared error: 0.3252948820418531
Relative absolute error: 61.61927695753737
Root relative squared error: 69.00546509312093
Weighted TruePositiveRate: 0.8413793103448276
Weighted MatthewsCorrelation: 0.7399285633768792
Weighted FMeasure: 0.8383752428405281
Iteration time: 161.0
Weighted AreaUnderPRC: 0.9235244008797608
Mean absolute error: 0.27386345314461674
Coverage of cases: 99.9373040752351
Instances selection time: 2.0
Test time: 12.0
Accumulative iteration time: 3596.0
Weighted Recall: 0.8413793103448276
Weighted FalsePositiveRate: 0.12483825428817993
Kappa statistic: 0.7341002793187495
Training time: 159.0
		
Iteration: 32
Labeled set size: 939
Unlabelled set size: 656
	
Mean region size: 95.04702194357363
Incorrectly Classified Instances: 16.426332288401255
Correctly Classified Instances: 83.57366771159874
Weighted Precision: 0.8376498997576309
Weighted AreaUnderROC: 0.9539829507263239
Root mean squared error: 0.3280585962701685
Relative absolute error: 62.615224102943
Root relative squared error: 69.591737414752
Weighted TruePositiveRate: 0.8357366771159874
Weighted MatthewsCorrelation: 0.7305947716794792
Weighted FMeasure: 0.832354069157784
Iteration time: 162.0
Weighted AreaUnderPRC: 0.9240972352398722
Mean absolute error: 0.2782898849019752
Coverage of cases: 100.0
Instances selection time: 2.0
Test time: 11.0
Accumulative iteration time: 3758.0
Weighted Recall: 0.8357366771159874
Weighted FalsePositiveRate: 0.1304441380530404
Kappa statistic: 0.7239966818046121
Training time: 160.0
		
Iteration: 33
Labeled set size: 959
Unlabelled set size: 636
	
Mean region size: 96.48902821316605
Incorrectly Classified Instances: 19.310344827586206
Correctly Classified Instances: 80.6896551724138
Weighted Precision: 0.8134979671249614
Weighted AreaUnderROC: 0.9373684255027075
Root mean squared error: 0.3427822937888515
Relative absolute error: 66.06786818025793
Root relative squared error: 72.71510532263206
Weighted TruePositiveRate: 0.8068965517241379
Weighted MatthewsCorrelation: 0.6803445151336492
Weighted FMeasure: 0.8008950494896088
Iteration time: 263.0
Weighted AreaUnderPRC: 0.9055967858151065
Mean absolute error: 0.2936349696900419
Coverage of cases: 100.0
Instances selection time: 2.0
Test time: 11.0
Accumulative iteration time: 4021.0
Weighted Recall: 0.8068965517241379
Weighted FalsePositiveRate: 0.16493155153089795
Kappa statistic: 0.6704116533358021
Training time: 261.0
		
Iteration: 34
Labeled set size: 979
Unlabelled set size: 616
	
Mean region size: 91.15987460815073
Incorrectly Classified Instances: 15.172413793103448
Correctly Classified Instances: 84.82758620689656
Weighted Precision: 0.8498464630239081
Weighted AreaUnderROC: 0.9577216670993534
Root mean squared error: 0.31585421348619236
Relative absolute error: 58.89058479346702
Root relative squared error: 67.00279686672827
Weighted TruePositiveRate: 0.8482758620689655
Weighted MatthewsCorrelation: 0.7522558098532884
Weighted FMeasure: 0.8451765694201423
Iteration time: 173.0
Weighted AreaUnderPRC: 0.9317782230103433
Mean absolute error: 0.26173593241541493
Coverage of cases: 99.9373040752351
Instances selection time: 2.0
Test time: 12.0
Accumulative iteration time: 4194.0
Weighted Recall: 0.8482758620689655
Weighted FalsePositiveRate: 0.12026063687576985
Kappa statistic: 0.7455130681765737
Training time: 171.0
		
Iteration: 35
Labeled set size: 999
Unlabelled set size: 596
	
Mean region size: 97.40856844305114
Incorrectly Classified Instances: 20.062695924764892
Correctly Classified Instances: 79.9373040752351
Weighted Precision: 0.8065165224281658
Weighted AreaUnderROC: 0.9329324912291107
Root mean squared error: 0.348820365261094
Relative absolute error: 67.54811036461332
Root relative squared error: 73.99597370762557
Weighted TruePositiveRate: 0.799373040752351
Weighted MatthewsCorrelation: 0.6685353313391722
Weighted FMeasure: 0.7904109464539806
Iteration time: 166.0
Weighted AreaUnderPRC: 0.89474189055719
Mean absolute error: 0.30021382384273265
Coverage of cases: 99.9373040752351
Instances selection time: 1.0
Test time: 19.0
Accumulative iteration time: 4360.0
Weighted Recall: 0.799373040752351
Weighted FalsePositiveRate: 0.1725713070636722
Kappa statistic: 0.6560380352924923
Training time: 165.0
		
Iteration: 36
Labeled set size: 1019
Unlabelled set size: 576
	
Mean region size: 100.0
Incorrectly Classified Instances: 30.344827586206897
Correctly Classified Instances: 69.65517241379311
Weighted Precision: 0.7550971777297932
Weighted AreaUnderROC: 0.9136571043999573
Root mean squared error: 0.37888548984161424
Relative absolute error: 74.99569840096434
Root relative squared error: 80.37374974805675
Weighted TruePositiveRate: 0.696551724137931
Weighted MatthewsCorrelation: 0.4988139565558765
Weighted FMeasure: 0.6652111368432212
Iteration time: 162.0
Weighted AreaUnderPRC: 0.8640961077426417
Mean absolute error: 0.33331421511540466
Coverage of cases: 100.0
Instances selection time: 1.0
Test time: 12.0
Accumulative iteration time: 4522.0
Weighted Recall: 0.696551724137931
Weighted FalsePositiveRate: 0.30748727709783735
Kappa statistic: 0.43979367618074516
Training time: 161.0
		
Iteration: 37
Labeled set size: 1039
Unlabelled set size: 556
	
Mean region size: 94.73354231974942
Incorrectly Classified Instances: 20.50156739811912
Correctly Classified Instances: 79.49843260188088
Weighted Precision: 0.8087368410006004
Weighted AreaUnderROC: 0.9275449006296755
Root mean squared error: 0.3448588611378973
Relative absolute error: 65.54739381715528
Root relative squared error: 73.15561177886231
Weighted TruePositiveRate: 0.7949843260188088
Weighted MatthewsCorrelation: 0.6580390616162517
Weighted FMeasure: 0.7872278786152789
Iteration time: 193.0
Weighted AreaUnderPRC: 0.8922515885334533
Mean absolute error: 0.2913217502984745
Coverage of cases: 99.9373040752351
Instances selection time: 2.0
Test time: 11.0
Accumulative iteration time: 4715.0
Weighted Recall: 0.7949843260188088
Weighted FalsePositiveRate: 0.18448272269898813
Kappa statistic: 0.646713729506531
Training time: 191.0
		
Iteration: 38
Labeled set size: 1059
Unlabelled set size: 536
	
Mean region size: 90.65830721003151
Incorrectly Classified Instances: 16.112852664576803
Correctly Classified Instances: 83.8871473354232
Weighted Precision: 0.8417439880593088
Weighted AreaUnderROC: 0.9516876558734919
Root mean squared error: 0.31845253543350577
Relative absolute error: 59.1999266435456
Root relative squared error: 67.5539841873236
Weighted TruePositiveRate: 0.838871473354232
Weighted MatthewsCorrelation: 0.7329490810893469
Weighted FMeasure: 0.8356407881051676
Iteration time: 193.0
Weighted AreaUnderPRC: 0.9293157702215574
Mean absolute error: 0.26311078508243085
Coverage of cases: 99.9373040752351
Instances selection time: 1.0
Test time: 12.0
Accumulative iteration time: 4908.0
Weighted Recall: 0.838871473354232
Weighted FalsePositiveRate: 0.13040887469324491
Kappa statistic: 0.7295848662783755
Training time: 192.0
		
Iteration: 39
Labeled set size: 1079
Unlabelled set size: 516
	
Mean region size: 94.33646812957171
Incorrectly Classified Instances: 16.927899686520377
Correctly Classified Instances: 83.07210031347962
Weighted Precision: 0.8363273637182198
Weighted AreaUnderROC: 0.9499251346411445
Root mean squared error: 0.3290914089087759
Relative absolute error: 62.58786276089809
Root relative squared error: 69.81083006088835
Weighted TruePositiveRate: 0.8307210031347962
Weighted MatthewsCorrelation: 0.7197690219418066
Weighted FMeasure: 0.8268173485122304
Iteration time: 187.0
Weighted AreaUnderPRC: 0.9250675860298316
Mean absolute error: 0.27816827893733115
Coverage of cases: 100.0
Instances selection time: 1.0
Test time: 13.0
Accumulative iteration time: 5095.0
Weighted Recall: 0.8307210031347962
Weighted FalsePositiveRate: 0.14399862952141307
Kappa statistic: 0.7132112613776515
Training time: 186.0
		
Iteration: 40
Labeled set size: 1099
Unlabelled set size: 496
	
Mean region size: 91.7032392894462
Incorrectly Classified Instances: 15.67398119122257
Correctly Classified Instances: 84.32601880877743
Weighted Precision: 0.8446796524131952
Weighted AreaUnderROC: 0.9574791661215918
Root mean squared error: 0.3154222861510295
Relative absolute error: 58.91933627612915
Root relative squared error: 66.91117124242624
Weighted TruePositiveRate: 0.8432601880877743
Weighted MatthewsCorrelation: 0.7408547116179554
Weighted FMeasure: 0.8407368091997589
Iteration time: 205.0
Weighted AreaUnderPRC: 0.9312802450581932
Mean absolute error: 0.2618637167828022
Coverage of cases: 100.0
Instances selection time: 1.0
Test time: 12.0
Accumulative iteration time: 5300.0
Weighted Recall: 0.8432601880877743
Weighted FalsePositiveRate: 0.1232817183302265
Kappa statistic: 0.738023657038639
Training time: 204.0
		
Iteration: 41
Labeled set size: 1119
Unlabelled set size: 476
	
Mean region size: 94.2319749216303
Incorrectly Classified Instances: 19.184952978056426
Correctly Classified Instances: 80.81504702194357
Weighted Precision: 0.813795592420087
Weighted AreaUnderROC: 0.932491455567247
Root mean squared error: 0.33774766948633356
Relative absolute error: 63.99350777963412
Root relative squared error: 71.64710022712096
Weighted TruePositiveRate: 0.8081504702194358
Weighted MatthewsCorrelation: 0.6812117115405357
Weighted FMeasure: 0.8024118318329035
Iteration time: 218.0
Weighted AreaUnderPRC: 0.8964318116405037
Mean absolute error: 0.28441559013171364
Coverage of cases: 100.0
Instances selection time: 1.0
Test time: 13.0
Accumulative iteration time: 5518.0
Weighted Recall: 0.8081504702194358
Weighted FalsePositiveRate: 0.16261914853691906
Kappa statistic: 0.673419490045407
Training time: 217.0
		
Iteration: 42
Labeled set size: 1139
Unlabelled set size: 456
	
Mean region size: 98.70428422152558
Incorrectly Classified Instances: 21.88087774294671
Correctly Classified Instances: 78.11912225705329
Weighted Precision: 0.8042279818828821
Weighted AreaUnderROC: 0.9420229976516686
Root mean squared error: 0.3494209793778053
Relative absolute error: 67.5116567758595
Root relative squared error: 74.12338320206644
Weighted TruePositiveRate: 0.7811912225705329
Weighted MatthewsCorrelation: 0.6446320315711627
Weighted FMeasure: 0.7684418609842977
Iteration time: 323.0
Weighted AreaUnderPRC: 0.9039305011681457
Mean absolute error: 0.30005180789271574
Coverage of cases: 100.0
Instances selection time: 1.0
Test time: 27.0
Accumulative iteration time: 5841.0
Weighted Recall: 0.7811912225705329
Weighted FalsePositiveRate: 0.2032153332712168
Kappa statistic: 0.6162233378789987
Training time: 322.0
		
Iteration: 43
Labeled set size: 1159
Unlabelled set size: 436
	
Mean region size: 91.82863113897623
Incorrectly Classified Instances: 16.489028213166144
Correctly Classified Instances: 83.51097178683385
Weighted Precision: 0.8369550359112903
Weighted AreaUnderROC: 0.9475463599259115
Root mean squared error: 0.3241214239929032
Relative absolute error: 60.90913039204978
Root relative squared error: 68.75653704996583
Weighted TruePositiveRate: 0.8351097178683385
Weighted MatthewsCorrelation: 0.7268058991459805
Weighted FMeasure: 0.8319454960328956
Iteration time: 201.0
Weighted AreaUnderPRC: 0.9186033063195875
Mean absolute error: 0.27070724618689407
Coverage of cases: 100.0
Instances selection time: 1.0
Test time: 12.0
Accumulative iteration time: 6042.0
Weighted Recall: 0.8351097178683385
Weighted FalsePositiveRate: 0.13208380726963043
Kappa statistic: 0.7233506957039013
Training time: 200.0
		
Iteration: 44
Labeled set size: 1179
Unlabelled set size: 416
	
Mean region size: 99.97910135841171
Incorrectly Classified Instances: 15.047021943573668
Correctly Classified Instances: 84.95297805642633
Weighted Precision: 0.8597061432975069
Weighted AreaUnderROC: 0.962301226352626
Root mean squared error: 0.325949419074181
Relative absolute error: 62.67701067984028
Root relative squared error: 69.14431336534999
Weighted TruePositiveRate: 0.8495297805642633
Weighted MatthewsCorrelation: 0.753508088748084
Weighted FMeasure: 0.8454828565997847
Iteration time: 174.0
Weighted AreaUnderPRC: 0.9366862896578685
Mean absolute error: 0.27856449191040755
Coverage of cases: 100.0
Instances selection time: 1.0
Test time: 11.0
Accumulative iteration time: 6216.0
Weighted Recall: 0.8495297805642633
Weighted FalsePositiveRate: 0.13708390832439415
Kappa statistic: 0.7435555606171549
Training time: 173.0
		
Iteration: 45
Labeled set size: 1199
Unlabelled set size: 396
	
Mean region size: 92.64367816091959
Incorrectly Classified Instances: 14.921630094043888
Correctly Classified Instances: 85.07836990595611
Weighted Precision: 0.8516486695629639
Weighted AreaUnderROC: 0.9613960702147192
Root mean squared error: 0.31608582813754704
Relative absolute error: 59.596962478846294
Root relative squared error: 67.05192975390679
Weighted TruePositiveRate: 0.8507836990595611
Weighted MatthewsCorrelation: 0.7559770070974244
Weighted FMeasure: 0.8478152158126983
Iteration time: 223.0
Weighted AreaUnderPRC: 0.9354229022826175
Mean absolute error: 0.26487538879487843
Coverage of cases: 100.0
Instances selection time: 1.0
Test time: 12.0
Accumulative iteration time: 6439.0
Weighted Recall: 0.8507836990595611
Weighted FalsePositiveRate: 0.11563719353439875
Kappa statistic: 0.7506723983356703
Training time: 222.0
		
Iteration: 46
Labeled set size: 1219
Unlabelled set size: 376
	
Mean region size: 89.44618599791028
Incorrectly Classified Instances: 14.921630094043888
Correctly Classified Instances: 85.07836990595611
Weighted Precision: 0.8528063474364932
Weighted AreaUnderROC: 0.9538630010542883
Root mean squared error: 0.3149760987943352
Relative absolute error: 58.317451274544624
Root relative squared error: 66.81652061074675
Weighted TruePositiveRate: 0.8507836990595611
Weighted MatthewsCorrelation: 0.753393720866179
Weighted FMeasure: 0.8485342104678595
Iteration time: 189.0
Weighted AreaUnderPRC: 0.9270051766309501
Mean absolute error: 0.2591886723313153
Coverage of cases: 99.9373040752351
Instances selection time: 1.0
Test time: 11.0
Accumulative iteration time: 6628.0
Weighted Recall: 0.8507836990595611
Weighted FalsePositiveRate: 0.1194674625100688
Kappa statistic: 0.7503774488142584
Training time: 188.0
		
Time end:Sun Oct 08 09.42.41 EEST 2017