Sun Oct 08 06.50.28 EEST 2017
Dataset: splice
Test set size: 1595
Initial Labelled set size: 319
Initial Unlabelled set size: 1276
Batch mode: QBestBatchMode
Batch size: 20
Classifiers: IBk-1cores
Scenario: PoolBasedSamplingScenario
Query strategy: EntropySamplingQueryStrategy-1cores
Time begining: Sun Oct 08 06.50.28 EEST 2017
		
Iteration: 1
Labeled set size: 319
Unlabelled set size: 1276
	
Mean region size: 38.82967607105548
Incorrectly Classified Instances: 34.79623824451411
Correctly Classified Instances: 65.2037617554859
Weighted Precision: 0.7185459754647519
Weighted AreaUnderROC: 0.7933951190045757
Root mean squared error: 0.448903161162764
Relative absolute error: 51.52134827600524
Root relative squared error: 95.22674080627934
Weighted TruePositiveRate: 0.6520376175548589
Weighted MatthewsCorrelation: 0.5017534373830833
Weighted FMeasure: 0.6537393109625718
Iteration time: 660.0
Weighted AreaUnderPRC: 0.6649653982777575
Mean absolute error: 0.22898377011558405
Coverage of cases: 72.03761755485894
Instances selection time: 659.0
Test time: 786.0
Accumulative iteration time: 660.0
Weighted Recall: 0.6520376175548589
Weighted FalsePositiveRate: 0.14027311675400472
Kappa statistic: 0.4819525366754604
Training time: 1.0
		
Iteration: 2
Labeled set size: 339
Unlabelled set size: 1256
	
Mean region size: 38.57889237199592
Incorrectly Classified Instances: 34.54545454545455
Correctly Classified Instances: 65.45454545454545
Weighted Precision: 0.7180716274573703
Weighted AreaUnderROC: 0.7951820981976859
Root mean squared error: 0.448952984420259
Relative absolute error: 51.317919811902144
Root relative squared error: 95.23730991524998
Weighted TruePositiveRate: 0.6545454545454545
Weighted MatthewsCorrelation: 0.5029721569348302
Weighted FMeasure: 0.6562169963444332
Iteration time: 651.0
Weighted AreaUnderPRC: 0.6658074604645854
Mean absolute error: 0.22807964360845914
Coverage of cases: 71.91222570532915
Instances selection time: 650.0
Test time: 833.0
Accumulative iteration time: 1311.0
Weighted Recall: 0.6545454545454545
Weighted FalsePositiveRate: 0.14091467511135822
Kappa statistic: 0.4847475374620602
Training time: 1.0
		
Iteration: 3
Labeled set size: 359
Unlabelled set size: 1236
	
Mean region size: 38.43260188087783
Incorrectly Classified Instances: 35.23510971786834
Correctly Classified Instances: 64.76489028213166
Weighted Precision: 0.7178881241236732
Weighted AreaUnderROC: 0.7929990795126686
Root mean squared error: 0.4513800238742921
Relative absolute error: 51.6722426698829
Root relative squared error: 95.75216273209622
Weighted TruePositiveRate: 0.6476489028213166
Weighted MatthewsCorrelation: 0.49808218760144796
Weighted FMeasure: 0.6486921673263385
Iteration time: 681.0
Weighted AreaUnderPRC: 0.6656907489698408
Mean absolute error: 0.2296544118661514
Coverage of cases: 71.34796238244515
Instances selection time: 680.0
Test time: 871.0
Accumulative iteration time: 1992.0
Weighted Recall: 0.6476489028213166
Weighted FalsePositiveRate: 0.14023819199773732
Kappa statistic: 0.4770455192498868
Training time: 1.0
		
Iteration: 4
Labeled set size: 379
Unlabelled set size: 1216
	
Mean region size: 38.7878787878789
Incorrectly Classified Instances: 35.10971786833856
Correctly Classified Instances: 64.89028213166144
Weighted Precision: 0.720532429195252
Weighted AreaUnderROC: 0.7969156840959393
Root mean squared error: 0.4463197058905834
Relative absolute error: 50.99069745948503
Root relative squared error: 94.67870718372403
Weighted TruePositiveRate: 0.6489028213166145
Weighted MatthewsCorrelation: 0.500931892072067
Weighted FMeasure: 0.6496161622472086
Iteration time: 725.0
Weighted AreaUnderPRC: 0.6714127496915077
Mean absolute error: 0.22662532204216082
Coverage of cases: 72.2257053291536
Instances selection time: 724.0
Test time: 927.0
Accumulative iteration time: 2717.0
Weighted Recall: 0.6489028213166145
Weighted FalsePositiveRate: 0.13887364739074565
Kappa statistic: 0.4794538111417399
Training time: 1.0
		
Iteration: 5
Labeled set size: 399
Unlabelled set size: 1196
	
Mean region size: 38.93416927899702
Incorrectly Classified Instances: 34.858934169278996
Correctly Classified Instances: 65.141065830721
Weighted Precision: 0.7188309572992332
Weighted AreaUnderROC: 0.797311146852397
Root mean squared error: 0.44432759565571783
Relative absolute error: 50.641308216771655
Root relative squared error: 94.25611678694067
Weighted TruePositiveRate: 0.65141065830721
Weighted MatthewsCorrelation: 0.5014806557861432
Weighted FMeasure: 0.6527098873212641
Iteration time: 724.0
Weighted AreaUnderPRC: 0.6734756278543762
Mean absolute error: 0.22507248096343468
Coverage of cases: 72.47648902821317
Instances selection time: 724.0
Test time: 1023.0
Accumulative iteration time: 3441.0
Weighted Recall: 0.65141065830721
Weighted FalsePositiveRate: 0.13999799214440636
Kappa statistic: 0.4815576537797558
Training time: 0.0
		
Iteration: 6
Labeled set size: 419
Unlabelled set size: 1176
	
Mean region size: 38.9968652037619
Incorrectly Classified Instances: 33.66771159874608
Correctly Classified Instances: 66.33228840125392
Weighted Precision: 0.7225613027903981
Weighted AreaUnderROC: 0.8035463788588313
Root mean squared error: 0.4363555404300961
Relative absolute error: 49.08054767665104
Root relative squared error: 92.56498849393145
Weighted TruePositiveRate: 0.6633228840125391
Weighted MatthewsCorrelation: 0.5131802939151588
Weighted FMeasure: 0.6655948590829948
Iteration time: 745.0
Weighted AreaUnderPRC: 0.6799379026140752
Mean absolute error: 0.2181357674517873
Coverage of cases: 73.66771159874608
Instances selection time: 745.0
Test time: 1016.0
Accumulative iteration time: 4186.0
Weighted Recall: 0.6633228840125391
Weighted FalsePositiveRate: 0.1386210105660651
Kappa statistic: 0.4958669465198653
Training time: 0.0
		
Iteration: 7
Labeled set size: 439
Unlabelled set size: 1156
	
Mean region size: 39.03866248693846
Incorrectly Classified Instances: 33.47962382445141
Correctly Classified Instances: 66.52037617554859
Weighted Precision: 0.7185739662806517
Weighted AreaUnderROC: 0.8012830682371178
Root mean squared error: 0.4359393483674497
Relative absolute error: 49.03464085358243
Root relative squared error: 92.47670082499947
Weighted TruePositiveRate: 0.6652037617554859
Weighted MatthewsCorrelation: 0.5109772915335451
Weighted FMeasure: 0.6678137945186379
Iteration time: 771.0
Weighted AreaUnderPRC: 0.6767217196118515
Mean absolute error: 0.21793173712703798
Coverage of cases: 73.79310344827586
Instances selection time: 771.0
Test time: 1077.0
Accumulative iteration time: 4957.0
Weighted Recall: 0.6652037617554859
Weighted FalsePositiveRate: 0.14185350314346265
Kappa statistic: 0.4964429443304382
Training time: 0.0
		
Iteration: 8
Labeled set size: 459
Unlabelled set size: 1136
	
Mean region size: 38.99686520376187
Incorrectly Classified Instances: 32.789968652037615
Correctly Classified Instances: 67.21003134796238
Weighted Precision: 0.7235461234428628
Weighted AreaUnderROC: 0.8047120842283457
Root mean squared error: 0.43207592219209007
Relative absolute error: 48.19495889894131
Root relative squared error: 91.65714437083635
Weighted TruePositiveRate: 0.6721003134796238
Weighted MatthewsCorrelation: 0.5202430805182372
Weighted FMeasure: 0.675134640515179
Iteration time: 782.0
Weighted AreaUnderPRC: 0.6806454940466944
Mean absolute error: 0.21419981732863289
Coverage of cases: 74.29467084639498
Instances selection time: 781.0
Test time: 1119.0
Accumulative iteration time: 5739.0
Weighted Recall: 0.6721003134796238
Weighted FalsePositiveRate: 0.13918931691065423
Kappa statistic: 0.5056485205634831
Training time: 1.0
		
Iteration: 9
Labeled set size: 479
Unlabelled set size: 1116
	
Mean region size: 38.89237199582036
Incorrectly Classified Instances: 32.03761755485893
Correctly Classified Instances: 67.96238244514106
Weighted Precision: 0.7255240930343242
Weighted AreaUnderROC: 0.8060663630086654
Root mean squared error: 0.4285893259813646
Relative absolute error: 47.354675920956154
Root relative squared error: 90.91752562367738
Weighted TruePositiveRate: 0.6796238244514107
Weighted MatthewsCorrelation: 0.5269735216510207
Weighted FMeasure: 0.6827989655358085
Iteration time: 800.0
Weighted AreaUnderPRC: 0.6822663739793411
Mean absolute error: 0.21046522631536546
Coverage of cases: 74.67084639498432
Instances selection time: 799.0
Test time: 1155.0
Accumulative iteration time: 6539.0
Weighted Recall: 0.6796238244514107
Weighted FalsePositiveRate: 0.13919987947981977
Kappa statistic: 0.51469008569564
Training time: 1.0
		
Iteration: 10
Labeled set size: 499
Unlabelled set size: 1096
	
Mean region size: 38.683385579937394
Incorrectly Classified Instances: 31.786833855799372
Correctly Classified Instances: 68.21316614420063
Weighted Precision: 0.7308994256496442
Weighted AreaUnderROC: 0.8104438797729989
Root mean squared error: 0.42649241626014006
Relative absolute error: 46.736827220771474
Root relative squared error: 90.47270389865321
Weighted TruePositiveRate: 0.6821316614420063
Weighted MatthewsCorrelation: 0.533357681545219
Weighted FMeasure: 0.6850016281667619
Iteration time: 813.0
Weighted AreaUnderPRC: 0.6864860533591238
Mean absolute error: 0.20771923209232238
Coverage of cases: 74.92163009404389
Instances selection time: 813.0
Test time: 1200.0
Accumulative iteration time: 7352.0
Weighted Recall: 0.6821316614420063
Weighted FalsePositiveRate: 0.13553110775836943
Kappa statistic: 0.5196373868616002
Training time: 0.0
		
Iteration: 11
Labeled set size: 519
Unlabelled set size: 1076
	
Mean region size: 38.68338557993738
Incorrectly Classified Instances: 31.661442006269592
Correctly Classified Instances: 68.3385579937304
Weighted Precision: 0.731643273576933
Weighted AreaUnderROC: 0.8134820930964178
Root mean squared error: 0.42378779678416834
Relative absolute error: 46.23624401129353
Root relative squared error: 89.89896746705658
Weighted TruePositiveRate: 0.6833855799373041
Weighted MatthewsCorrelation: 0.5345717379344533
Weighted FMeasure: 0.6861901167762626
Iteration time: 828.0
Weighted AreaUnderPRC: 0.6890038962914047
Mean absolute error: 0.2054944178279759
Coverage of cases: 75.36050156739812
Instances selection time: 827.0
Test time: 1246.0
Accumulative iteration time: 8180.0
Weighted Recall: 0.6833855799373041
Weighted FalsePositiveRate: 0.1356060651374858
Kappa statistic: 0.5212826338771248
Training time: 1.0
		
Iteration: 12
Labeled set size: 539
Unlabelled set size: 1056
	
Mean region size: 38.516196447230996
Incorrectly Classified Instances: 31.15987460815047
Correctly Classified Instances: 68.84012539184953
Weighted Precision: 0.7337531600182494
Weighted AreaUnderROC: 0.8154825396271939
Root mean squared error: 0.4212187105112045
Relative absolute error: 45.560125468813816
Root relative squared error: 89.35398196953679
Weighted TruePositiveRate: 0.6884012539184953
Weighted MatthewsCorrelation: 0.5398030486479861
Weighted FMeasure: 0.6913797232450692
Iteration time: 841.0
Weighted AreaUnderPRC: 0.6911733433799212
Mean absolute error: 0.202489446528066
Coverage of cases: 75.61128526645768
Instances selection time: 840.0
Test time: 1298.0
Accumulative iteration time: 9021.0
Weighted Recall: 0.6884012539184953
Weighted FalsePositiveRate: 0.13497575067259118
Kappa statistic: 0.5276172145019425
Training time: 1.0
		
Iteration: 13
Labeled set size: 559
Unlabelled set size: 1036
	
Mean region size: 38.5370950888193
Incorrectly Classified Instances: 31.22257053291536
Correctly Classified Instances: 68.77742946708464
Weighted Precision: 0.737535747564595
Weighted AreaUnderROC: 0.817780319564224
Root mean squared error: 0.42090634326961424
Relative absolute error: 45.49402342924497
Root relative squared error: 89.28771887111208
Weighted TruePositiveRate: 0.6877742946708464
Weighted MatthewsCorrelation: 0.5422297498967255
Weighted FMeasure: 0.6901114052164757
Iteration time: 861.0
Weighted AreaUnderPRC: 0.6962843987362443
Mean absolute error: 0.20219565968553777
Coverage of cases: 75.73667711598746
Instances selection time: 860.0
Test time: 1348.0
Accumulative iteration time: 9882.0
Weighted Recall: 0.6877742946708464
Weighted FalsePositiveRate: 0.1322996392240305
Kappa statistic: 0.5286668197604971
Training time: 1.0
		
Iteration: 14
Labeled set size: 579
Unlabelled set size: 1016
	
Mean region size: 38.47439916405439
Incorrectly Classified Instances: 31.41065830721003
Correctly Classified Instances: 68.58934169278997
Weighted Precision: 0.7376219340975504
Weighted AreaUnderROC: 0.8169094205916844
Root mean squared error: 0.4222008979047468
Relative absolute error: 45.70147245384743
Root relative squared error: 89.5623353794477
Weighted TruePositiveRate: 0.6858934169278997
Weighted MatthewsCorrelation: 0.5405919302472183
Weighted FMeasure: 0.6878523428962412
Iteration time: 882.0
Weighted AreaUnderPRC: 0.6944825074014459
Mean absolute error: 0.2031176553504376
Coverage of cases: 75.61128526645768
Instances selection time: 881.0
Test time: 1384.0
Accumulative iteration time: 10764.0
Weighted Recall: 0.6858934169278997
Weighted FalsePositiveRate: 0.1324119039328224
Kappa statistic: 0.5267039888365174
Training time: 1.0
		
Iteration: 15
Labeled set size: 599
Unlabelled set size: 996
	
Mean region size: 38.47439916405438
Incorrectly Classified Instances: 31.15987460815047
Correctly Classified Instances: 68.84012539184953
Weighted Precision: 0.7402569351802177
Weighted AreaUnderROC: 0.8170050659339485
Root mean squared error: 0.4218182304838782
Relative absolute error: 45.628092053625714
Root relative squared error: 89.48115936097709
Weighted TruePositiveRate: 0.6884012539184953
Weighted MatthewsCorrelation: 0.5451471706805547
Weighted FMeasure: 0.6907424985669377
Iteration time: 878.0
Weighted AreaUnderPRC: 0.6947364484124021
Mean absolute error: 0.2027915202383411
Coverage of cases: 75.61128526645768
Instances selection time: 878.0
Test time: 1425.0
Accumulative iteration time: 11642.0
Weighted Recall: 0.6884012539184953
Weighted FalsePositiveRate: 0.13018876610712027
Kappa statistic: 0.5303553993592052
Training time: 0.0
		
Iteration: 16
Labeled set size: 619
Unlabelled set size: 976
	
Mean region size: 38.578892371995885
Incorrectly Classified Instances: 31.28526645768025
Correctly Classified Instances: 68.71473354231975
Weighted Precision: 0.7419229859427228
Weighted AreaUnderROC: 0.8150459191620945
Root mean squared error: 0.4225493588658591
Relative absolute error: 45.900612469226076
Root relative squared error: 89.63625511202208
Weighted TruePositiveRate: 0.6871473354231975
Weighted MatthewsCorrelation: 0.5453672496931955
Weighted FMeasure: 0.6884977680308939
Iteration time: 887.0
Weighted AreaUnderPRC: 0.6938676258709097
Mean absolute error: 0.20400272208545384
Coverage of cases: 75.54858934169279
Instances selection time: 886.0
Test time: 1469.0
Accumulative iteration time: 12529.0
Weighted Recall: 0.6871473354231975
Weighted FalsePositiveRate: 0.12867839468165604
Kappa statistic: 0.5301942312062641
Training time: 1.0
		
Iteration: 17
Labeled set size: 639
Unlabelled set size: 956
	
Mean region size: 38.70428422152565
Incorrectly Classified Instances: 31.09717868338558
Correctly Classified Instances: 68.90282131661442
Weighted Precision: 0.7456944415964718
Weighted AreaUnderROC: 0.8169866820775682
Root mean squared error: 0.42177982127948394
Relative absolute error: 45.85514555090109
Root relative squared error: 89.47301153831094
Weighted TruePositiveRate: 0.6890282131661442
Weighted MatthewsCorrelation: 0.5498595070821065
Weighted FMeasure: 0.6901029308403707
Iteration time: 896.0
Weighted AreaUnderPRC: 0.6968425327347314
Mean absolute error: 0.20380064689289834
Coverage of cases: 75.73667711598746
Instances selection time: 896.0
Test time: 1512.0
Accumulative iteration time: 13425.0
Weighted Recall: 0.6890282131661442
Weighted FalsePositiveRate: 0.12617195636683531
Kappa statistic: 0.5337510667289022
Training time: 0.0
		
Iteration: 18
Labeled set size: 659
Unlabelled set size: 936
	
Mean region size: 38.64158829676074
Incorrectly Classified Instances: 31.661442006269592
Correctly Classified Instances: 68.3385579937304
Weighted Precision: 0.7421131913558091
Weighted AreaUnderROC: 0.8155479848840462
Root mean squared error: 0.42508082926736696
Relative absolute error: 46.44727644183622
Root relative squared error: 90.17326107820585
Weighted TruePositiveRate: 0.6833855799373041
Weighted MatthewsCorrelation: 0.5427193580685776
Weighted FMeasure: 0.683904404155575
Iteration time: 904.0
Weighted AreaUnderPRC: 0.6952514002960754
Mean absolute error: 0.20643233974149902
Coverage of cases: 75.29780564263324
Instances selection time: 903.0
Test time: 1558.0
Accumulative iteration time: 14329.0
Weighted Recall: 0.6833855799373041
Weighted FalsePositiveRate: 0.1279646042383596
Kappa statistic: 0.5264045729982842
Training time: 1.0
		
Iteration: 19
Labeled set size: 679
Unlabelled set size: 916
	
Mean region size: 38.620689655172434
Incorrectly Classified Instances: 31.661442006269592
Correctly Classified Instances: 68.3385579937304
Weighted Precision: 0.7436305770739049
Weighted AreaUnderROC: 0.8150507635154273
Root mean squared error: 0.4259677089116886
Relative absolute error: 46.54815432939971
Root relative squared error: 90.36139666138469
Weighted TruePositiveRate: 0.6833855799373041
Weighted MatthewsCorrelation: 0.5437944826281128
Weighted FMeasure: 0.683411533945917
Iteration time: 922.0
Weighted AreaUnderPRC: 0.6939453266952508
Mean absolute error: 0.20688068590844783
Coverage of cases: 75.17241379310344
Instances selection time: 921.0
Test time: 1608.0
Accumulative iteration time: 15251.0
Weighted Recall: 0.6833855799373041
Weighted FalsePositiveRate: 0.1270126579116122
Kappa statistic: 0.527143287369021
Training time: 1.0
		
Iteration: 20
Labeled set size: 699
Unlabelled set size: 896
	
Mean region size: 38.787878787878824
Incorrectly Classified Instances: 31.473354231974923
Correctly Classified Instances: 68.52664576802508
Weighted Precision: 0.7468406196454372
Weighted AreaUnderROC: 0.8193966522499059
Root mean squared error: 0.42296357251034933
Relative absolute error: 46.093293385311696
Root relative squared error: 89.72412309508579
Weighted TruePositiveRate: 0.6852664576802507
Weighted MatthewsCorrelation: 0.5479324229262258
Weighted FMeasure: 0.6853985145440931
Iteration time: 913.0
Weighted AreaUnderPRC: 0.6989697954957167
Mean absolute error: 0.20485908171250106
Coverage of cases: 75.67398119122257
Instances selection time: 913.0
Test time: 1658.0
Accumulative iteration time: 16164.0
Weighted Recall: 0.6852664576802507
Weighted FalsePositiveRate: 0.12498559937663192
Kappa statistic: 0.5301955929249753
Training time: 0.0
		
Iteration: 21
Labeled set size: 719
Unlabelled set size: 876
	
Mean region size: 38.76698014629051
Incorrectly Classified Instances: 31.41065830721003
Correctly Classified Instances: 68.58934169278997
Weighted Precision: 0.7448198498511571
Weighted AreaUnderROC: 0.8187145283946516
Root mean squared error: 0.42289370722974473
Relative absolute error: 46.036964554734794
Root relative squared error: 89.70930243098029
Weighted TruePositiveRate: 0.6858934169278997
Weighted MatthewsCorrelation: 0.5470482491299549
Weighted FMeasure: 0.6867701430416331
Iteration time: 922.0
Weighted AreaUnderPRC: 0.6976901831040982
Mean absolute error: 0.20460873135438148
Coverage of cases: 75.67398119122257
Instances selection time: 921.0
Test time: 1712.0
Accumulative iteration time: 17086.0
Weighted Recall: 0.6858934169278997
Weighted FalsePositiveRate: 0.12622289016237795
Kappa statistic: 0.5299042977758117
Training time: 1.0
		
Iteration: 22
Labeled set size: 739
Unlabelled set size: 856
	
Mean region size: 38.82967607105543
Incorrectly Classified Instances: 31.724137931034484
Correctly Classified Instances: 68.27586206896552
Weighted Precision: 0.7431612446760364
Weighted AreaUnderROC: 0.8188800003077358
Root mean squared error: 0.42502266947304534
Relative absolute error: 46.46558592185742
Root relative squared error: 90.16092352271868
Weighted TruePositiveRate: 0.6827586206896552
Weighted MatthewsCorrelation: 0.5431890019147877
Weighted FMeasure: 0.683226839561213
Iteration time: 937.0
Weighted AreaUnderPRC: 0.6974248318004616
Mean absolute error: 0.20651371520825987
Coverage of cases: 75.54858934169279
Instances selection time: 936.0
Test time: 1753.0
Accumulative iteration time: 18023.0
Weighted Recall: 0.6827586206896552
Weighted FalsePositiveRate: 0.12721895705173436
Kappa statistic: 0.5259550853500522
Training time: 1.0
		
Iteration: 23
Labeled set size: 759
Unlabelled set size: 836
	
Mean region size: 38.9759665621735
Incorrectly Classified Instances: 32.03761755485893
Correctly Classified Instances: 67.96238244514106
Weighted Precision: 0.7435104901733819
Weighted AreaUnderROC: 0.8207621322939278
Root mean squared error: 0.4259146155023637
Relative absolute error: 46.77863887636411
Root relative squared error: 90.3501338484537
Weighted TruePositiveRate: 0.6796238244514107
Weighted MatthewsCorrelation: 0.5413178950368909
Weighted FMeasure: 0.6801050400839225
Iteration time: 932.0
Weighted AreaUnderPRC: 0.6997475932708158
Mean absolute error: 0.2079050616727341
Coverage of cases: 75.54858934169279
Instances selection time: 931.0
Test time: 1796.0
Accumulative iteration time: 18955.0
Weighted Recall: 0.6796238244514107
Weighted FalsePositiveRate: 0.12678165386462295
Kappa statistic: 0.522265870448002
Training time: 1.0
		
Iteration: 24
Labeled set size: 779
Unlabelled set size: 816
	
Mean region size: 38.9132706374086
Incorrectly Classified Instances: 32.85266457680251
Correctly Classified Instances: 67.14733542319749
Weighted Precision: 0.7403088072781365
Weighted AreaUnderROC: 0.8166733555932482
Root mean squared error: 0.43250861841079735
Relative absolute error: 47.9367707037885
Root relative squared error: 91.74893309996885
Weighted TruePositiveRate: 0.671473354231975
Weighted MatthewsCorrelation: 0.5329131792712364
Weighted FMeasure: 0.6718009492560962
Iteration time: 934.0
Weighted AreaUnderPRC: 0.6933705916130819
Mean absolute error: 0.21305231423906482
Coverage of cases: 74.67084639498432
Instances selection time: 934.0
Test time: 1832.0
Accumulative iteration time: 19889.0
Weighted Recall: 0.671473354231975
Weighted FalsePositiveRate: 0.12841144183534078
Kappa statistic: 0.5116344568307952
Training time: 0.0
		
Iteration: 25
Labeled set size: 799
Unlabelled set size: 796
	
Mean region size: 38.9132706374086
Incorrectly Classified Instances: 32.97805642633229
Correctly Classified Instances: 67.02194357366771
Weighted Precision: 0.7406943144166155
Weighted AreaUnderROC: 0.8166270044714672
Root mean squared error: 0.4334828813706036
Relative absolute error: 48.13842071594838
Root relative squared error: 91.95560548363022
Weighted TruePositiveRate: 0.6702194357366771
Weighted MatthewsCorrelation: 0.532179940121694
Weighted FMeasure: 0.6704104971840891
Iteration time: 930.0
Weighted AreaUnderPRC: 0.6939765662087349
Mean absolute error: 0.21394853651533097
Coverage of cases: 74.54545454545455
Instances selection time: 929.0
Test time: 1877.0
Accumulative iteration time: 20819.0
Weighted Recall: 0.6702194357366771
Weighted FalsePositiveRate: 0.12833375916305098
Kappa statistic: 0.5102775348859472
Training time: 1.0
		
Iteration: 26
Labeled set size: 819
Unlabelled set size: 776
	
Mean region size: 38.746081504702225
Incorrectly Classified Instances: 32.66457680250784
Correctly Classified Instances: 67.33542319749216
Weighted Precision: 0.7402315825505068
Weighted AreaUnderROC: 0.8159725963263929
Root mean squared error: 0.43221170326646763
Relative absolute error: 47.75419284554536
Root relative squared error: 91.68594788637111
Weighted TruePositiveRate: 0.6733542319749216
Weighted MatthewsCorrelation: 0.5341316298227071
Weighted FMeasure: 0.6739359073775534
Iteration time: 933.0
Weighted AreaUnderPRC: 0.6929039920608323
Mean absolute error: 0.21224085709131751
Coverage of cases: 74.60815047021944
Instances selection time: 933.0
Test time: 1921.0
Accumulative iteration time: 21752.0
Weighted Recall: 0.6733542319749216
Weighted FalsePositiveRate: 0.12877583161321587
Kappa statistic: 0.5136711320235733
Training time: 0.0
		
Iteration: 27
Labeled set size: 839
Unlabelled set size: 756
	
Mean region size: 38.87147335423201
Incorrectly Classified Instances: 32.85266457680251
Correctly Classified Instances: 67.14733542319749
Weighted Precision: 0.7413127406407811
Weighted AreaUnderROC: 0.8148642274685292
Root mean squared error: 0.4322704398426985
Relative absolute error: 47.862019317177406
Root relative squared error: 91.69840779577805
Weighted TruePositiveRate: 0.671473354231975
Weighted MatthewsCorrelation: 0.5332387368029071
Weighted FMeasure: 0.6711623258739717
Iteration time: 927.0
Weighted AreaUnderPRC: 0.6917392114006868
Mean absolute error: 0.21272008585412663
Coverage of cases: 74.60815047021944
Instances selection time: 926.0
Test time: 1976.0
Accumulative iteration time: 22679.0
Weighted Recall: 0.671473354231975
Weighted FalsePositiveRate: 0.12841893639156765
Kappa statistic: 0.5121370345183858
Training time: 1.0
		
Iteration: 28
Labeled set size: 859
Unlabelled set size: 736
	
Mean region size: 38.829676071055445
Incorrectly Classified Instances: 32.789968652037615
Correctly Classified Instances: 67.21003134796238
Weighted Precision: 0.743549442172959
Weighted AreaUnderROC: 0.814342518722894
Root mean squared error: 0.4324913911927898
Relative absolute error: 47.871809360070664
Root relative squared error: 91.74527865516663
Weighted TruePositiveRate: 0.6721003134796238
Weighted MatthewsCorrelation: 0.5353208047857645
Weighted FMeasure: 0.6712836360214071
Iteration time: 918.0
Weighted AreaUnderPRC: 0.6914913205335325
Mean absolute error: 0.21276359715587442
Coverage of cases: 74.54545454545455
Instances selection time: 917.0
Test time: 2019.0
Accumulative iteration time: 23597.0
Weighted Recall: 0.6721003134796238
Weighted FalsePositiveRate: 0.12726546018775162
Kappa statistic: 0.5136976838138633
Training time: 1.0
		
Iteration: 29
Labeled set size: 879
Unlabelled set size: 716
	
Mean region size: 38.787878787878824
Incorrectly Classified Instances: 32.789968652037615
Correctly Classified Instances: 67.21003134796238
Weighted Precision: 0.7440803815622923
Weighted AreaUnderROC: 0.8142025102215054
Root mean squared error: 0.4333896487806223
Relative absolute error: 47.9906133269448
Root relative squared error: 91.93582786464921
Weighted TruePositiveRate: 0.6721003134796238
Weighted MatthewsCorrelation: 0.5353828909197552
Weighted FMeasure: 0.670520685775754
Iteration time: 922.0
Weighted AreaUnderPRC: 0.6917889548571444
Mean absolute error: 0.21329161478642616
Coverage of cases: 74.42006269592477
Instances selection time: 921.0
Test time: 2091.0
Accumulative iteration time: 24519.0
Weighted Recall: 0.6721003134796238
Weighted FalsePositiveRate: 0.1272675041576317
Kappa statistic: 0.514199807120694
Training time: 1.0
		
Iteration: 30
Labeled set size: 899
Unlabelled set size: 696
	
Mean region size: 38.87147335423204
Incorrectly Classified Instances: 32.789968652037615
Correctly Classified Instances: 67.21003134796238
Weighted Precision: 0.7452477824435648
Weighted AreaUnderROC: 0.8167041906718692
Root mean squared error: 0.43190742431375273
Relative absolute error: 47.77443005186876
Root relative squared error: 91.62140057311998
Weighted TruePositiveRate: 0.6721003134796238
Weighted MatthewsCorrelation: 0.5361726720817875
Weighted FMeasure: 0.6702745457534636
Iteration time: 918.0
Weighted AreaUnderPRC: 0.6965729517301774
Mean absolute error: 0.21233080023053266
Coverage of cases: 74.60815047021944
Instances selection time: 917.0
Test time: 2106.0
Accumulative iteration time: 25437.0
Weighted Recall: 0.6721003134796238
Weighted FalsePositiveRate: 0.126791530994258
Kappa statistic: 0.5145755077932923
Training time: 1.0
		
Iteration: 31
Labeled set size: 919
Unlabelled set size: 676
	
Mean region size: 38.99686520376182
Incorrectly Classified Instances: 32.72727272727273
Correctly Classified Instances: 67.27272727272727
Weighted Precision: 0.7469162631352426
Weighted AreaUnderROC: 0.8180696199370849
Root mean squared error: 0.4300799106099437
Relative absolute error: 47.53838537801051
Root relative squared error: 91.23372637331758
Weighted TruePositiveRate: 0.6727272727272727
Weighted MatthewsCorrelation: 0.5379343129574649
Weighted FMeasure: 0.671198760256522
Iteration time: 917.0
Weighted AreaUnderPRC: 0.6983389787376462
Mean absolute error: 0.21128171279116262
Coverage of cases: 74.98432601880877
Instances selection time: 917.0
Test time: 2152.0
Accumulative iteration time: 26354.0
Weighted Recall: 0.6727272727272727
Weighted FalsePositiveRate: 0.1261187972168691
Kappa statistic: 0.5155016881413453
Training time: 0.0
		
Iteration: 32
Labeled set size: 939
Unlabelled set size: 656
	
Mean region size: 39.038662486938414
Incorrectly Classified Instances: 32.16300940438872
Correctly Classified Instances: 67.83699059561128
Weighted Precision: 0.7485539835445767
Weighted AreaUnderROC: 0.8221458000676873
Root mean squared error: 0.4256544998979283
Relative absolute error: 46.68936598721936
Root relative squared error: 90.2949549961171
Weighted TruePositiveRate: 0.6783699059561129
Weighted MatthewsCorrelation: 0.5435029250916497
Weighted FMeasure: 0.6774529076588391
Iteration time: 914.0
Weighted AreaUnderPRC: 0.7033046522899238
Mean absolute error: 0.2075082932765352
Coverage of cases: 75.61128526645768
Instances selection time: 913.0
Test time: 2208.0
Accumulative iteration time: 27268.0
Weighted Recall: 0.6783699059561129
Weighted FalsePositiveRate: 0.1252883155214925
Kappa statistic: 0.522372856621671
Training time: 1.0
		
Iteration: 33
Labeled set size: 959
Unlabelled set size: 636
	
Mean region size: 38.95506792058522
Incorrectly Classified Instances: 31.849529780564264
Correctly Classified Instances: 68.15047021943573
Weighted Precision: 0.74976147319655
Weighted AreaUnderROC: 0.8241782255454715
Root mean squared error: 0.4238199598629044
Relative absolute error: 46.25915892964824
Root relative squared error: 89.90579028638001
Weighted TruePositiveRate: 0.6815047021943573
Weighted MatthewsCorrelation: 0.5468079320571564
Weighted FMeasure: 0.6810890215710382
Iteration time: 889.0
Weighted AreaUnderPRC: 0.7058066803293618
Mean absolute error: 0.20559626190955238
Coverage of cases: 75.79937304075236
Instances selection time: 888.0
Test time: 2247.0
Accumulative iteration time: 28157.0
Weighted Recall: 0.6815047021943573
Weighted FalsePositiveRate: 0.12477503502844328
Kappa statistic: 0.5261673449266174
Training time: 1.0
		
Iteration: 34
Labeled set size: 979
Unlabelled set size: 616
	
Mean region size: 38.89237199582033
Incorrectly Classified Instances: 31.22257053291536
Correctly Classified Instances: 68.77742946708464
Weighted Precision: 0.7517323386119409
Weighted AreaUnderROC: 0.8264507516989964
Root mean squared error: 0.420198107984424
Relative absolute error: 45.52922172553355
Root relative squared error: 89.137479479262
Weighted TruePositiveRate: 0.6877742946708464
Weighted MatthewsCorrelation: 0.5530737402830168
Weighted FMeasure: 0.6877093427154689
Iteration time: 891.0
Weighted AreaUnderPRC: 0.7088320416250672
Mean absolute error: 0.2023520965579315
Coverage of cases: 76.17554858934169
Instances selection time: 890.0
Test time: 2287.0
Accumulative iteration time: 29048.0
Weighted Recall: 0.6877742946708464
Weighted FalsePositiveRate: 0.12374438610258472
Kappa statistic: 0.5340423996719624
Training time: 1.0
		
Iteration: 35
Labeled set size: 999
Unlabelled set size: 596
	
Mean region size: 38.85057471264372
Incorrectly Classified Instances: 31.03448275862069
Correctly Classified Instances: 68.96551724137932
Weighted Precision: 0.7520704695662487
Weighted AreaUnderROC: 0.8273444439432364
Root mean squared error: 0.4191142295718034
Relative absolute error: 45.29504262155172
Root relative squared error: 88.90755414659829
Weighted TruePositiveRate: 0.6896551724137931
Weighted MatthewsCorrelation: 0.5549492537463917
Weighted FMeasure: 0.6901214458360334
Iteration time: 865.0
Weighted AreaUnderPRC: 0.7100240317143307
Mean absolute error: 0.20131130054023444
Coverage of cases: 76.30094043887148
Instances selection time: 864.0
Test time: 2336.0
Accumulative iteration time: 29913.0
Weighted Recall: 0.6896551724137931
Weighted FalsePositiveRate: 0.12362803345403267
Kappa statistic: 0.5360017724817507
Training time: 1.0
		
Iteration: 36
Labeled set size: 1019
Unlabelled set size: 576
	
Mean region size: 38.9759665621735
Incorrectly Classified Instances: 30.65830721003135
Correctly Classified Instances: 69.34169278996865
Weighted Precision: 0.7532580725335106
Weighted AreaUnderROC: 0.8306675219651543
Root mean squared error: 0.4148069776560087
Relative absolute error: 44.60403890633637
Root relative squared error: 87.99384803521714
Weighted TruePositiveRate: 0.6934169278996866
Weighted MatthewsCorrelation: 0.5588455430386116
Weighted FMeasure: 0.6942109386189699
Iteration time: 865.0
Weighted AreaUnderPRC: 0.7141913429749026
Mean absolute error: 0.19824017291705504
Coverage of cases: 76.92789968652038
Instances selection time: 864.0
Test time: 2399.0
Accumulative iteration time: 30778.0
Weighted Recall: 0.6934169278996866
Weighted FalsePositiveRate: 0.12291322308391475
Kappa statistic: 0.5406671429084633
Training time: 1.0
		
Iteration: 37
Labeled set size: 1039
Unlabelled set size: 556
	
Mean region size: 38.955067920585186
Incorrectly Classified Instances: 30.219435736677116
Correctly Classified Instances: 69.78056426332289
Weighted Precision: 0.7549914138716629
Weighted AreaUnderROC: 0.8342793768913548
Root mean squared error: 0.41125949657764677
Relative absolute error: 43.91741623351304
Root relative squared error: 87.24131365722495
Weighted TruePositiveRate: 0.6978056426332289
Weighted MatthewsCorrelation: 0.5635603228824565
Weighted FMeasure: 0.698792449475764
Iteration time: 832.0
Weighted AreaUnderPRC: 0.7194191683780993
Mean absolute error: 0.1951885165933957
Coverage of cases: 77.3667711598746
Instances selection time: 832.0
Test time: 2427.0
Accumulative iteration time: 31610.0
Weighted Recall: 0.6978056426332289
Weighted FalsePositiveRate: 0.12200028945319492
Kappa statistic: 0.5462931050762956
Training time: 0.0
		
Iteration: 38
Labeled set size: 1059
Unlabelled set size: 536
	
Mean region size: 39.0177638453501
Incorrectly Classified Instances: 29.843260188087775
Correctly Classified Instances: 70.15673981191223
Weighted Precision: 0.7567198529165394
Weighted AreaUnderROC: 0.8377232834086228
Root mean squared error: 0.40704186550366006
Relative absolute error: 43.181238118141835
Root relative squared error: 86.34661899733722
Weighted TruePositiveRate: 0.7015673981191223
Weighted MatthewsCorrelation: 0.567531474274466
Weighted FMeasure: 0.7024855846728779
Iteration time: 822.0
Weighted AreaUnderPRC: 0.7242674633144964
Mean absolute error: 0.1919166138584125
Coverage of cases: 77.93103448275862
Instances selection time: 821.0
Test time: 2458.0
Accumulative iteration time: 32432.0
Weighted Recall: 0.7015673981191223
Weighted FalsePositiveRate: 0.12128684172966371
Kappa statistic: 0.5513531145626753
Training time: 1.0
		
Iteration: 39
Labeled set size: 1079
Unlabelled set size: 516
	
Mean region size: 39.038662486938385
Incorrectly Classified Instances: 29.655172413793103
Correctly Classified Instances: 70.34482758620689
Weighted Precision: 0.7553149645621878
Weighted AreaUnderROC: 0.8380049913636819
Root mean squared error: 0.4058113395166349
Relative absolute error: 42.94348476942527
Root relative squared error: 86.0855850163817
Weighted TruePositiveRate: 0.7034482758620689
Weighted MatthewsCorrelation: 0.5676464675422422
Weighted FMeasure: 0.7045591848587212
Iteration time: 810.0
Weighted AreaUnderPRC: 0.7239755156251872
Mean absolute error: 0.19085993230856108
Coverage of cases: 78.11912225705329
Instances selection time: 809.0
Test time: 2508.0
Accumulative iteration time: 33242.0
Weighted Recall: 0.7034482758620689
Weighted FalsePositiveRate: 0.12260454048087287
Kappa statistic: 0.5530066080143429
Training time: 1.0
		
Iteration: 40
Labeled set size: 1099
Unlabelled set size: 496
	
Mean region size: 38.9968652037618
Incorrectly Classified Instances: 29.278996865203762
Correctly Classified Instances: 70.72100313479623
Weighted Precision: 0.7571935846923408
Weighted AreaUnderROC: 0.8401573508313119
Root mean squared error: 0.4027317401094034
Relative absolute error: 42.33015705951926
Root relative squared error: 85.43230332912427
Weighted TruePositiveRate: 0.7072100313479623
Weighted MatthewsCorrelation: 0.5719636143160175
Weighted FMeasure: 0.7086456790677371
Iteration time: 783.0
Weighted AreaUnderPRC: 0.7268838683512833
Mean absolute error: 0.18813403137564544
Coverage of cases: 78.49529780564264
Instances selection time: 782.0
Test time: 2577.0
Accumulative iteration time: 34025.0
Weighted Recall: 0.7072100313479623
Weighted FalsePositiveRate: 0.12189313672722174
Kappa statistic: 0.557744408312112
Training time: 1.0
		
Iteration: 41
Labeled set size: 1119
Unlabelled set size: 476
	
Mean region size: 39.017763845350096
Incorrectly Classified Instances: 29.0282131661442
Correctly Classified Instances: 70.9717868338558
Weighted Precision: 0.7578807682907883
Weighted AreaUnderROC: 0.8414650146009555
Root mean squared error: 0.40060141302787283
Relative absolute error: 41.961906036085914
Root relative squared error: 84.98039271147559
Weighted TruePositiveRate: 0.709717868338558
Weighted MatthewsCorrelation: 0.5744840097248143
Weighted FMeasure: 0.7112652123810539
Iteration time: 758.0
Weighted AreaUnderPRC: 0.7286931358630833
Mean absolute error: 0.18649736016038607
Coverage of cases: 78.74608150470219
Instances selection time: 757.0
Test time: 2603.0
Accumulative iteration time: 34783.0
Weighted Recall: 0.709717868338558
Weighted FalsePositiveRate: 0.12157593552489435
Kappa statistic: 0.5608375714210955
Training time: 1.0
		
Iteration: 42
Labeled set size: 1139
Unlabelled set size: 456
	
Mean region size: 38.99686520376178
Incorrectly Classified Instances: 28.71473354231975
Correctly Classified Instances: 71.28526645768025
Weighted Precision: 0.7593672320815952
Weighted AreaUnderROC: 0.8447732822698942
Root mean squared error: 0.3964129506792792
Relative absolute error: 41.18348759217347
Root relative squared error: 84.09188567264508
Weighted TruePositiveRate: 0.7128526645768025
Weighted MatthewsCorrelation: 0.5780238742838874
Weighted FMeasure: 0.7146270658036626
Iteration time: 737.0
Weighted AreaUnderPRC: 0.7330251659992352
Mean absolute error: 0.18303772263188622
Coverage of cases: 79.3103448275862
Instances selection time: 736.0
Test time: 2657.0
Accumulative iteration time: 35520.0
Weighted Recall: 0.7128526645768025
Weighted FalsePositiveRate: 0.12106265503184514
Kappa statistic: 0.564774439472303
Training time: 1.0
		
Iteration: 43
Labeled set size: 1159
Unlabelled set size: 436
	
Mean region size: 38.99686520376178
Incorrectly Classified Instances: 28.46394984326019
Correctly Classified Instances: 71.53605015673982
Weighted Precision: 0.760204772887462
Weighted AreaUnderROC: 0.8461418910879954
Root mean squared error: 0.3947094415912388
Relative absolute error: 40.865097367320075
Root relative squared error: 83.73051682425518
Weighted TruePositiveRate: 0.7153605015673982
Weighted MatthewsCorrelation: 0.5806386927138659
Weighted FMeasure: 0.7172425287321256
Iteration time: 717.0
Weighted AreaUnderPRC: 0.7349661584872379
Mean absolute error: 0.1816226549658711
Coverage of cases: 79.49843260188088
Instances selection time: 716.0
Test time: 2682.0
Accumulative iteration time: 36237.0
Weighted Recall: 0.7153605015673982
Weighted FalsePositiveRate: 0.12074613515281113
Kappa statistic: 0.5678891894423967
Training time: 1.0
		
Iteration: 44
Labeled set size: 1179
Unlabelled set size: 416
	
Mean region size: 39.038662486938364
Incorrectly Classified Instances: 28.338557993730408
Correctly Classified Instances: 71.6614420062696
Weighted Precision: 0.7596645925199187
Weighted AreaUnderROC: 0.8449482756031154
Root mean squared error: 0.3946686095314287
Relative absolute error: 40.894161685761844
Root relative squared error: 83.72185503634073
Weighted TruePositiveRate: 0.7166144200626959
Weighted MatthewsCorrelation: 0.5811242816621688
Weighted FMeasure: 0.7186376907122727
Iteration time: 687.0
Weighted AreaUnderPRC: 0.7334432461175043
Mean absolute error: 0.1817518297145012
Coverage of cases: 79.49843260188088
Instances selection time: 687.0
Test time: 2752.0
Accumulative iteration time: 36924.0
Weighted Recall: 0.7166144200626959
Weighted FalsePositiveRate: 0.12130456025152804
Kappa statistic: 0.5691077756520253
Training time: 0.0
		
Iteration: 45
Labeled set size: 1199
Unlabelled set size: 396
	
Mean region size: 38.87147335423199
Incorrectly Classified Instances: 27.962382445141067
Correctly Classified Instances: 72.03761755485894
Weighted Precision: 0.759897400921677
Weighted AreaUnderROC: 0.8455709078195001
Root mean squared error: 0.39305855149438296
Relative absolute error: 40.45297863299735
Root relative squared error: 83.38031014951105
Weighted TruePositiveRate: 0.7203761755485893
Weighted MatthewsCorrelation: 0.5839133941393766
Weighted FMeasure: 0.7226419736437915
Iteration time: 663.0
Weighted AreaUnderPRC: 0.7341719314850451
Mean absolute error: 0.17979101614665896
Coverage of cases: 79.62382445141066
Instances selection time: 663.0
Test time: 2779.0
Accumulative iteration time: 37587.0
Weighted Recall: 0.7203761755485893
Weighted FalsePositiveRate: 0.12202652657434475
Kappa statistic: 0.5733547164764354
Training time: 0.0
		
Iteration: 46
Labeled set size: 1219
Unlabelled set size: 376
	
Mean region size: 38.8087774294671
Incorrectly Classified Instances: 27.836990595611287
Correctly Classified Instances: 72.16300940438872
Weighted Precision: 0.7614046725698114
Weighted AreaUnderROC: 0.8482271288908819
Root mean squared error: 0.39083331109734587
Relative absolute error: 39.97324923729547
Root relative squared error: 82.90826537715651
Weighted TruePositiveRate: 0.7216300940438871
Weighted MatthewsCorrelation: 0.5859994618493054
Weighted FMeasure: 0.7238775889203158
Iteration time: 637.0
Weighted AreaUnderPRC: 0.7368084982337082
Mean absolute error: 0.177658885499095
Coverage of cases: 79.9373040752351
Instances selection time: 636.0
Test time: 2831.0
Accumulative iteration time: 38224.0
Weighted Recall: 0.7216300940438871
Weighted FalsePositiveRate: 0.12115158159659382
Kappa statistic: 0.5753812502923009
Training time: 1.0
		
Time end:Sun Oct 08 06.52.33 EEST 2017