Sun Oct 08 06.24.52 EEST 2017
Dataset: splice
Test set size: 1595
Initial Labelled set size: 319
Initial Unlabelled set size: 1276
Batch mode: QBestBatchMode
Batch size: 20
Classifiers: SMO-1cores
Scenario: PoolBasedSamplingScenario
Query strategy: EntropySamplingQueryStrategy-1cores
Time begining: Sun Oct 08 06.24.52 EEST 2017
		
Iteration: 1
Labeled set size: 319
Unlabelled set size: 1276
	
Mean region size: 67.21003134796126
Incorrectly Classified Instances: 9.717868338557993
Correctly Classified Instances: 90.28213166144201
Weighted Precision: 0.9055187183998599
Weighted AreaUnderROC: 0.9411607980511751
Root mean squared error: 0.31385070339176663
Relative absolute error: 55.76802507836988
Root relative squared error: 66.57778819454504
Weighted TruePositiveRate: 0.9028213166144201
Weighted MatthewsCorrelation: 0.8466574034033031
Weighted FMeasure: 0.9034873338928138
Iteration time: 949.0
Weighted AreaUnderPRC: 0.8700289859413317
Mean absolute error: 0.2478578892372051
Coverage of cases: 98.74608150470219
Instances selection time: 146.0
Test time: 186.0
Accumulative iteration time: 949.0
Weighted Recall: 0.9028213166144201
Weighted FalsePositiveRate: 0.04845910238996802
Kappa statistic: 0.8438660465727263
Training time: 803.0
		
Iteration: 2
Labeled set size: 339
Unlabelled set size: 1256
	
Mean region size: 67.12643678160809
Incorrectly Classified Instances: 10.219435736677116
Correctly Classified Instances: 89.78056426332289
Weighted Precision: 0.8996696298245191
Weighted AreaUnderROC: 0.9391531533443854
Root mean squared error: 0.3148110585006183
Relative absolute error: 55.862068965517224
Root relative squared error: 66.78151027748989
Weighted TruePositiveRate: 0.8978056426332288
Weighted MatthewsCorrelation: 0.83790376929787
Weighted FMeasure: 0.8983452183705329
Iteration time: 1032.0
Weighted AreaUnderPRC: 0.8621284941534719
Mean absolute error: 0.24827586206897106
Coverage of cases: 98.99686520376176
Instances selection time: 146.0
Test time: 186.0
Accumulative iteration time: 1981.0
Weighted Recall: 0.8978056426332288
Weighted FalsePositiveRate: 0.05387503877374682
Kappa statistic: 0.8353442548612663
Training time: 886.0
		
Iteration: 3
Labeled set size: 359
Unlabelled set size: 1236
	
Mean region size: 67.08463949843149
Incorrectly Classified Instances: 9.592476489028213
Correctly Classified Instances: 90.40752351097179
Weighted Precision: 0.9052085868386809
Weighted AreaUnderROC: 0.9428071835455201
Root mean squared error: 0.31184666989437115
Relative absolute error: 55.42319749216299
Root relative squared error: 66.15266849182504
Weighted TruePositiveRate: 0.9040752351097179
Weighted MatthewsCorrelation: 0.8473524226441547
Weighted FMeasure: 0.9043933316560866
Iteration time: 1134.0
Weighted AreaUnderPRC: 0.8703952623510843
Mean absolute error: 0.24632532218739667
Coverage of cases: 99.12225705329153
Instances selection time: 143.0
Test time: 186.0
Accumulative iteration time: 3115.0
Weighted Recall: 0.9040752351097179
Weighted FalsePositiveRate: 0.05237046065439463
Kappa statistic: 0.845008923411093
Training time: 991.0
		
Iteration: 4
Labeled set size: 379
Unlabelled set size: 1216
	
Mean region size: 67.04284221525488
Incorrectly Classified Instances: 9.216300940438872
Correctly Classified Instances: 90.78369905956113
Weighted Precision: 0.9085094723837133
Weighted AreaUnderROC: 0.9444894561360107
Root mean squared error: 0.30997953138943657
Relative absolute error: 55.141065830720976
Root relative squared error: 65.75658860234891
Weighted TruePositiveRate: 0.9078369905956113
Weighted MatthewsCorrelation: 0.8521170534319135
Weighted FMeasure: 0.9080573152920736
Iteration time: 1194.0
Weighted AreaUnderPRC: 0.8757687573384455
Mean absolute error: 0.2450714036920988
Coverage of cases: 99.18495297805643
Instances selection time: 142.0
Test time: 187.0
Accumulative iteration time: 4309.0
Weighted Recall: 0.9078369905956113
Weighted FalsePositiveRate: 0.052615091167250945
Kappa statistic: 0.8507924770364299
Training time: 1052.0
		
Iteration: 5
Labeled set size: 399
Unlabelled set size: 1196
	
Mean region size: 67.00104493207827
Incorrectly Classified Instances: 9.968652037617554
Correctly Classified Instances: 90.03134796238244
Weighted Precision: 0.9021288497658111
Weighted AreaUnderROC: 0.9406078084260717
Root mean squared error: 0.3130357940176127
Relative absolute error: 55.54858934169277
Root relative squared error: 66.40491981119003
Weighted TruePositiveRate: 0.9003134796238245
Weighted MatthewsCorrelation: 0.8399029745104852
Weighted FMeasure: 0.9007399603290095
Iteration time: 1316.0
Weighted AreaUnderPRC: 0.8671221894752839
Mean absolute error: 0.2468826192964179
Coverage of cases: 99.12225705329153
Instances selection time: 142.0
Test time: 187.0
Accumulative iteration time: 5625.0
Weighted Recall: 0.9003134796238245
Weighted FalsePositiveRate: 0.055002108820580965
Kappa statistic: 0.839247851979095
Training time: 1174.0
		
Iteration: 6
Labeled set size: 419
Unlabelled set size: 1176
	
Mean region size: 67.00104493207827
Incorrectly Classified Instances: 9.153605015673982
Correctly Classified Instances: 90.84639498432603
Weighted Precision: 0.9098102781079614
Weighted AreaUnderROC: 0.9447022181480034
Root mean squared error: 0.3101293161439566
Relative absolute error: 55.141065830720976
Root relative squared error: 65.78836274704076
Weighted TruePositiveRate: 0.9084639498432602
Weighted MatthewsCorrelation: 0.8525518881279631
Weighted FMeasure: 0.9087156902028258
Iteration time: 1418.0
Weighted AreaUnderPRC: 0.8751960460993321
Mean absolute error: 0.2450714036920988
Coverage of cases: 99.3103448275862
Instances selection time: 141.0
Test time: 201.0
Accumulative iteration time: 7043.0
Weighted Recall: 0.9084639498432602
Weighted FalsePositiveRate: 0.05146434025660832
Kappa statistic: 0.8521409622933102
Training time: 1277.0
		
Iteration: 7
Labeled set size: 439
Unlabelled set size: 1156
	
Mean region size: 66.95924764890168
Incorrectly Classified Instances: 8.652037617554859
Correctly Classified Instances: 91.34796238244515
Weighted Precision: 0.9155842578330704
Weighted AreaUnderROC: 0.9475826317690995
Root mean squared error: 0.3087034266778303
Relative absolute error: 54.921630094043856
Root relative squared error: 65.48588591382465
Weighted TruePositiveRate: 0.9134796238244514
Weighted MatthewsCorrelation: 0.8613692095976266
Weighted FMeasure: 0.9138584519933705
Iteration time: 2820.0
Weighted AreaUnderPRC: 0.8813383822496648
Mean absolute error: 0.24409613375131153
Coverage of cases: 99.24764890282131
Instances selection time: 141.0
Test time: 199.0
Accumulative iteration time: 9863.0
Weighted Recall: 0.9134796238244514
Weighted FalsePositiveRate: 0.04653119026913673
Kappa statistic: 0.8605179927416886
Training time: 2679.0
		
Iteration: 8
Labeled set size: 459
Unlabelled set size: 1136
	
Mean region size: 67.06374085684318
Incorrectly Classified Instances: 8.96551724137931
Correctly Classified Instances: 91.03448275862068
Weighted Precision: 0.9131221991623278
Weighted AreaUnderROC: 0.9464841018630636
Root mean squared error: 0.30990461186413937
Relative absolute error: 55.14106583072097
Root relative squared error: 65.74069577103464
Weighted TruePositiveRate: 0.9103448275862069
Weighted MatthewsCorrelation: 0.857369319440162
Weighted FMeasure: 0.9109023149472474
Iteration time: 1688.0
Weighted AreaUnderPRC: 0.8802179800268726
Mean absolute error: 0.24507140369209873
Coverage of cases: 99.12225705329153
Instances selection time: 157.0
Test time: 231.0
Accumulative iteration time: 11551.0
Weighted Recall: 0.9103448275862069
Weighted FalsePositiveRate: 0.046089117818971834
Kappa statistic: 0.8557893538862299
Training time: 1531.0
		
Iteration: 9
Labeled set size: 479
Unlabelled set size: 1116
	
Mean region size: 67.0637408568432
Incorrectly Classified Instances: 9.467084639498433
Correctly Classified Instances: 90.53291536050156
Weighted Precision: 0.9082244344030027
Weighted AreaUnderROC: 0.9424383947108629
Root mean squared error: 0.3125904025745618
Relative absolute error: 55.51724137931031
Root relative squared error: 66.31043801829088
Weighted TruePositiveRate: 0.9053291536050156
Weighted MatthewsCorrelation: 0.8492764971492766
Weighted FMeasure: 0.9058269937781314
Iteration time: 1734.0
Weighted AreaUnderPRC: 0.8708984004087875
Mean absolute error: 0.24674329501916253
Coverage of cases: 99.05956112852665
Instances selection time: 133.0
Test time: 193.0
Accumulative iteration time: 13285.0
Weighted Recall: 0.9053291536050156
Weighted FalsePositiveRate: 0.050070321479696075
Kappa statistic: 0.8475495703638061
Training time: 1601.0
		
Iteration: 10
Labeled set size: 499
Unlabelled set size: 1096
	
Mean region size: 67.02194357366659
Incorrectly Classified Instances: 9.090909090909092
Correctly Classified Instances: 90.9090909090909
Weighted Precision: 0.9121868253345662
Weighted AreaUnderROC: 0.9452848094444616
Root mean squared error: 0.3111757906593039
Relative absolute error: 55.29780564263321
Root relative squared error: 66.01035351488305
Weighted TruePositiveRate: 0.9090909090909091
Weighted MatthewsCorrelation: 0.8559106564845821
Weighted FMeasure: 0.9095712439376438
Iteration time: 1751.0
Weighted AreaUnderPRC: 0.8751390276132123
Mean absolute error: 0.2457680250783754
Coverage of cases: 99.12225705329153
Instances selection time: 133.0
Test time: 202.0
Accumulative iteration time: 15036.0
Weighted Recall: 0.9090909090909091
Weighted FalsePositiveRate: 0.047445486546443275
Kappa statistic: 0.8535656781123191
Training time: 1618.0
		
Iteration: 11
Labeled set size: 519
Unlabelled set size: 1076
	
Mean region size: 67.08463949843149
Incorrectly Classified Instances: 8.84012539184953
Correctly Classified Instances: 91.15987460815047
Weighted Precision: 0.9151205464324137
Weighted AreaUnderROC: 0.9476938931844886
Root mean squared error: 0.310279028591076
Relative absolute error: 55.20376175548587
Root relative squared error: 65.8201215530166
Weighted TruePositiveRate: 0.9115987460815047
Weighted MatthewsCorrelation: 0.861092012213909
Weighted FMeasure: 0.9122425950376268
Iteration time: 1988.0
Weighted AreaUnderPRC: 0.8778759368667843
Mean absolute error: 0.24535005224660944
Coverage of cases: 99.24764890282131
Instances selection time: 128.0
Test time: 194.0
Accumulative iteration time: 17024.0
Weighted Recall: 0.9115987460815047
Weighted FalsePositiveRate: 0.04330210430820596
Kappa statistic: 0.8579254891382285
Training time: 1860.0
		
Iteration: 12
Labeled set size: 539
Unlabelled set size: 1056
	
Mean region size: 67.02194357366659
Incorrectly Classified Instances: 8.589341692789969
Correctly Classified Instances: 91.41065830721003
Weighted Precision: 0.9171755561782574
Weighted AreaUnderROC: 0.9492171827424702
Root mean squared error: 0.3084776837396495
Relative absolute error: 54.92163009404387
Root relative squared error: 65.43799860510687
Weighted TruePositiveRate: 0.9141065830721004
Weighted MatthewsCorrelation: 0.8642957624736536
Weighted FMeasure: 0.9144795118967944
Iteration time: 2127.0
Weighted AreaUnderPRC: 0.8807100721940286
Mean absolute error: 0.24409613375131162
Coverage of cases: 99.43573667711598
Instances selection time: 128.0
Test time: 240.0
Accumulative iteration time: 19151.0
Weighted Recall: 0.9141065830721004
Weighted FalsePositiveRate: 0.04585981913833455
Kappa statistic: 0.8612929906669603
Training time: 1999.0
		
Iteration: 13
Labeled set size: 559
Unlabelled set size: 1036
	
Mean region size: 67.0428422152549
Incorrectly Classified Instances: 9.0282131661442
Correctly Classified Instances: 90.9717868338558
Weighted Precision: 0.9133080619263467
Weighted AreaUnderROC: 0.9480636117652315
Root mean squared error: 0.3099795313894365
Relative absolute error: 55.14106583072099
Root relative squared error: 65.7565886023489
Weighted TruePositiveRate: 0.909717868338558
Weighted MatthewsCorrelation: 0.8583574882554482
Weighted FMeasure: 0.9101231515773234
Iteration time: 2220.0
Weighted AreaUnderPRC: 0.8758760965287965
Mean absolute error: 0.24507140369209884
Coverage of cases: 99.49843260188088
Instances selection time: 126.0
Test time: 191.0
Accumulative iteration time: 21371.0
Weighted Recall: 0.909717868338558
Weighted FalsePositiveRate: 0.048686865271949396
Kappa statistic: 0.853999286778125
Training time: 2094.0
		
Iteration: 14
Labeled set size: 579
Unlabelled set size: 1016
	
Mean region size: 67.21003134796129
Incorrectly Classified Instances: 9.090909090909092
Correctly Classified Instances: 90.9090909090909
Weighted Precision: 0.9138699984085402
Weighted AreaUnderROC: 0.9471736061947392
Root mean squared error: 0.31072773313293484
Relative absolute error: 55.32915360501566
Root relative squared error: 65.91530616030589
Weighted TruePositiveRate: 0.9090909090909091
Weighted MatthewsCorrelation: 0.8569844803111292
Weighted FMeasure: 0.9098460456118805
Iteration time: 2290.0
Weighted AreaUnderPRC: 0.8778695137700618
Mean absolute error: 0.24590734935563074
Coverage of cases: 99.43573667711598
Instances selection time: 121.0
Test time: 196.0
Accumulative iteration time: 23661.0
Weighted Recall: 0.9090909090909091
Weighted FalsePositiveRate: 0.04793167955921726
Kappa statistic: 0.8533994343256088
Training time: 2169.0
		
Iteration: 15
Labeled set size: 599
Unlabelled set size: 996
	
Mean region size: 67.18913270637299
Incorrectly Classified Instances: 8.589341692789969
Correctly Classified Instances: 91.41065830721003
Weighted Precision: 0.9190527507853945
Weighted AreaUnderROC: 0.9501495177003499
Root mean squared error: 0.309004160725453
Relative absolute error: 55.0783699059561
Root relative squared error: 65.54968123914696
Weighted TruePositiveRate: 0.9141065830721004
Weighted MatthewsCorrelation: 0.8651325522505444
Weighted FMeasure: 0.9148390088511822
Iteration time: 2558.0
Weighted AreaUnderPRC: 0.8829867621715912
Mean absolute error: 0.24479275513758822
Coverage of cases: 99.49843260188088
Instances selection time: 120.0
Test time: 198.0
Accumulative iteration time: 26219.0
Weighted Recall: 0.9141065830721004
Weighted FalsePositiveRate: 0.04443053700162681
Kappa statistic: 0.8615656640527497
Training time: 2438.0
		
Iteration: 16
Labeled set size: 619
Unlabelled set size: 976
	
Mean region size: 67.21003134796129
Incorrectly Classified Instances: 8.96551724137931
Correctly Classified Instances: 91.03448275862068
Weighted Precision: 0.9155064880164429
Weighted AreaUnderROC: 0.9479254762625745
Root mean squared error: 0.3102790285910759
Relative absolute error: 55.266457680250774
Root relative squared error: 65.82012155301659
Weighted TruePositiveRate: 0.9103448275862069
Weighted MatthewsCorrelation: 0.859344019406007
Weighted FMeasure: 0.9111339561555082
Iteration time: 2509.0
Weighted AreaUnderPRC: 0.879355314720513
Mean absolute error: 0.24562870080112012
Coverage of cases: 99.43573667711598
Instances selection time: 119.0
Test time: 197.0
Accumulative iteration time: 28728.0
Weighted Recall: 0.9103448275862069
Weighted FalsePositiveRate: 0.04657871744821258
Kappa statistic: 0.8555027548776571
Training time: 2390.0
		
Iteration: 17
Labeled set size: 639
Unlabelled set size: 956
	
Mean region size: 67.08463949843151
Incorrectly Classified Instances: 8.463949843260188
Correctly Classified Instances: 91.53605015673982
Weighted Precision: 0.9195032768746666
Weighted AreaUnderROC: 0.9490355697124191
Root mean squared error: 0.3091544180456511
Relative absolute error: 55.04702194357365
Root relative squared error: 65.58155563015745
Weighted TruePositiveRate: 0.9153605015673981
Weighted MatthewsCorrelation: 0.866423023464086
Weighted FMeasure: 0.9160032396992392
Iteration time: 2643.0
Weighted AreaUnderPRC: 0.8831758002534227
Mean absolute error: 0.24465343086033287
Coverage of cases: 99.24764890282131
Instances selection time: 118.0
Test time: 196.0
Accumulative iteration time: 31371.0
Weighted Recall: 0.9153605015673981
Weighted FalsePositiveRate: 0.04546766055689082
Kappa statistic: 0.8633174767006524
Training time: 2525.0
		
Iteration: 18
Labeled set size: 659
Unlabelled set size: 936
	
Mean region size: 67.08463949843149
Incorrectly Classified Instances: 9.0282131661442
Correctly Classified Instances: 90.9717868338558
Weighted Precision: 0.9145402923590097
Weighted AreaUnderROC: 0.9465424780334102
Root mean squared error: 0.3107277331329348
Relative absolute error: 55.26645768025077
Root relative squared error: 65.91530616030587
Weighted TruePositiveRate: 0.909717868338558
Weighted MatthewsCorrelation: 0.8580274017641282
Weighted FMeasure: 0.9104796636350728
Iteration time: 2788.0
Weighted AreaUnderPRC: 0.8778905997714135
Mean absolute error: 0.2456287008011201
Coverage of cases: 99.24764890282131
Instances selection time: 114.0
Test time: 196.0
Accumulative iteration time: 34159.0
Weighted Recall: 0.909717868338558
Weighted FalsePositiveRate: 0.04773355629861533
Kappa statistic: 0.854369393732076
Training time: 2674.0
		
Iteration: 19
Labeled set size: 679
Unlabelled set size: 916
	
Mean region size: 67.10553814001979
Incorrectly Classified Instances: 9.0282131661442
Correctly Classified Instances: 90.9717868338558
Weighted Precision: 0.9156806397812037
Weighted AreaUnderROC: 0.9480579505370899
Root mean squared error: 0.310428668835411
Relative absolute error: 55.23510971786833
Root relative squared error: 65.85186504246892
Weighted TruePositiveRate: 0.909717868338558
Weighted MatthewsCorrelation: 0.8595396446384136
Weighted FMeasure: 0.9105676612438361
Iteration time: 2925.0
Weighted AreaUnderPRC: 0.8786293558119983
Mean absolute error: 0.24548937652386482
Coverage of cases: 99.3730407523511
Instances selection time: 112.0
Test time: 200.0
Accumulative iteration time: 37084.0
Weighted Recall: 0.909717868338558
Weighted FalsePositiveRate: 0.04630086754544083
Kappa statistic: 0.8544507906412011
Training time: 2813.0
		
Iteration: 20
Labeled set size: 699
Unlabelled set size: 896
	
Mean region size: 67.1264367816081
Incorrectly Classified Instances: 8.77742946708464
Correctly Classified Instances: 91.22257053291536
Weighted Precision: 0.917739188402943
Weighted AreaUnderROC: 0.9511823561460895
Root mean squared error: 0.30877863764902247
Relative absolute error: 55.015673981191206
Root relative squared error: 65.50184057014954
Weighted TruePositiveRate: 0.9122257053291536
Weighted MatthewsCorrelation: 0.8641806567585205
Weighted FMeasure: 0.9130415047822331
Iteration time: 2970.0
Weighted AreaUnderPRC: 0.8848453570766195
Mean absolute error: 0.2445141065830776
Coverage of cases: 99.3730407523511
Instances selection time: 110.0
Test time: 198.0
Accumulative iteration time: 40054.0
Weighted Recall: 0.9122257053291536
Weighted FalsePositiveRate: 0.04311283825041764
Kappa statistic: 0.8586534414057431
Training time: 2860.0
		
Iteration: 21
Labeled set size: 719
Unlabelled set size: 876
	
Mean region size: 67.21003134796129
Incorrectly Classified Instances: 8.96551724137931
Correctly Classified Instances: 91.03448275862068
Weighted Precision: 0.9149927137195408
Weighted AreaUnderROC: 0.9488897747807219
Root mean squared error: 0.3100544328116701
Relative absolute error: 55.23510971786832
Root relative squared error: 65.77247759342347
Weighted TruePositiveRate: 0.9103448275862069
Weighted MatthewsCorrelation: 0.8602466840102639
Weighted FMeasure: 0.9108587927071178
Iteration time: 3178.0
Weighted AreaUnderPRC: 0.8789927410681564
Mean absolute error: 0.2454893765238648
Coverage of cases: 99.43573667711598
Instances selection time: 110.0
Test time: 204.0
Accumulative iteration time: 43232.0
Weighted Recall: 0.9103448275862069
Weighted FalsePositiveRate: 0.04561927656523834
Kappa statistic: 0.8554620070112825
Training time: 3068.0
		
Iteration: 22
Labeled set size: 739
Unlabelled set size: 856
	
Mean region size: 67.1473354231964
Incorrectly Classified Instances: 10.407523510971787
Correctly Classified Instances: 89.59247648902821
Weighted Precision: 0.9003386521085124
Weighted AreaUnderROC: 0.937210956485823
Root mean squared error: 0.31606250456525187
Relative absolute error: 56.0501567398119
Root relative squared error: 67.04698207706737
Weighted TruePositiveRate: 0.8959247648902822
Weighted MatthewsCorrelation: 0.8354564429831437
Weighted FMeasure: 0.8964404556879413
Iteration time: 3339.0
Weighted AreaUnderPRC: 0.8619918807606793
Mean absolute error: 0.24911180773250297
Coverage of cases: 98.87147335423198
Instances selection time: 107.0
Test time: 201.0
Accumulative iteration time: 46571.0
Weighted Recall: 0.8959247648902822
Weighted FalsePositiveRate: 0.05783937480359609
Kappa statistic: 0.8317881459466706
Training time: 3232.0
		
Iteration: 23
Labeled set size: 759
Unlabelled set size: 836
	
Mean region size: 67.14733542319638
Incorrectly Classified Instances: 10.721003134796238
Correctly Classified Instances: 89.27899686520377
Weighted Precision: 0.8965672407278824
Weighted AreaUnderROC: 0.9384055591132633
Root mean squared error: 0.31495854553541386
Relative absolute error: 55.893416927899665
Root relative squared error: 66.81279700222218
Weighted TruePositiveRate: 0.8927899686520376
Weighted MatthewsCorrelation: 0.8296941008216863
Weighted FMeasure: 0.8931277430677783
Iteration time: 3515.0
Weighted AreaUnderPRC: 0.8596273791341383
Mean absolute error: 0.2484151863462264
Coverage of cases: 99.43573667711598
Instances selection time: 106.0
Test time: 204.0
Accumulative iteration time: 50086.0
Weighted Recall: 0.8927899686520376
Weighted FalsePositiveRate: 0.061222120742754446
Kappa statistic: 0.8264766771471798
Training time: 3409.0
		
Iteration: 24
Labeled set size: 779
Unlabelled set size: 816
	
Mean region size: 67.06374085684318
Incorrectly Classified Instances: 10.219435736677116
Correctly Classified Instances: 89.78056426332289
Weighted Precision: 0.9015749067885972
Weighted AreaUnderROC: 0.9390026297715102
Root mean squared error: 0.314146509963924
Relative absolute error: 55.73667711598745
Root relative squared error: 66.64053824447265
Weighted TruePositiveRate: 0.8978056426332288
Weighted MatthewsCorrelation: 0.837238968090676
Weighted FMeasure: 0.8983133685650823
Iteration time: 3756.0
Weighted AreaUnderPRC: 0.8641369411532749
Mean absolute error: 0.24771856495994982
Coverage of cases: 99.18495297805643
Instances selection time: 100.0
Test time: 203.0
Accumulative iteration time: 53842.0
Weighted Recall: 0.8978056426332288
Weighted FalsePositiveRate: 0.058678375098258184
Kappa statistic: 0.8345950430363994
Training time: 3656.0
		
Iteration: 25
Labeled set size: 799
Unlabelled set size: 796
	
Mean region size: 67.16823406478468
Incorrectly Classified Instances: 10.031347962382446
Correctly Classified Instances: 89.96865203761756
Weighted Precision: 0.9033990109024318
Weighted AreaUnderROC: 0.9416328292032203
Root mean squared error: 0.31288740064875376
Relative absolute error: 55.61128526645768
Root relative squared error: 66.37344082396903
Weighted TruePositiveRate: 0.8996865203761756
Weighted MatthewsCorrelation: 0.8409699182533236
Weighted FMeasure: 0.9001687388647992
Iteration time: 4486.0
Weighted AreaUnderPRC: 0.8679550366722899
Mean absolute error: 0.2471612678509286
Coverage of cases: 99.3730407523511
Instances selection time: 107.0
Test time: 210.0
Accumulative iteration time: 58328.0
Weighted Recall: 0.8996865203761756
Weighted FalsePositiveRate: 0.05616853016697071
Kappa statistic: 0.8377769853090279
Training time: 4379.0
		
Iteration: 26
Labeled set size: 819
Unlabelled set size: 776
	
Mean region size: 67.12643678160809
Incorrectly Classified Instances: 10.658307210031348
Correctly Classified Instances: 89.34169278996865
Weighted Precision: 0.896870506770828
Weighted AreaUnderROC: 0.9359117449923083
Root mean squared error: 0.31569494716149804
Relative absolute error: 55.987460815047015
Root relative squared error: 66.96901137726647
Weighted TruePositiveRate: 0.8934169278996865
Weighted MatthewsCorrelation: 0.8291706409466388
Weighted FMeasure: 0.893284225566493
Iteration time: 4435.0
Weighted AreaUnderPRC: 0.8566367842762717
Mean absolute error: 0.24883315917799237
Coverage of cases: 99.3103448275862
Instances selection time: 102.0
Test time: 211.0
Accumulative iteration time: 62763.0
Weighted Recall: 0.8934169278996865
Weighted FalsePositiveRate: 0.06532887697460955
Kappa statistic: 0.8267560477249872
Training time: 4333.0
		
Iteration: 27
Labeled set size: 839
Unlabelled set size: 756
	
Mean region size: 67.14733542319638
Incorrectly Classified Instances: 10.595611285266457
Correctly Classified Instances: 89.40438871473354
Weighted Precision: 0.8975872260811155
Weighted AreaUnderROC: 0.9376357979442924
Root mean squared error: 0.3145158769462564
Relative absolute error: 55.83072100313479
Root relative squared error: 66.71889281385873
Weighted TruePositiveRate: 0.8940438871473354
Weighted MatthewsCorrelation: 0.8304525040860529
Weighted FMeasure: 0.8938680370076008
Iteration time: 4587.0
Weighted AreaUnderPRC: 0.8593290595360676
Mean absolute error: 0.2481365377917158
Coverage of cases: 99.49843260188088
Instances selection time: 100.0
Test time: 210.0
Accumulative iteration time: 67350.0
Weighted Recall: 0.8940438871473354
Weighted FalsePositiveRate: 0.06513075371400763
Kappa statistic: 0.8276771398835475
Training time: 4487.0
		
Iteration: 28
Labeled set size: 859
Unlabelled set size: 736
	
Mean region size: 67.08463949843149
Incorrectly Classified Instances: 10.219435736677116
Correctly Classified Instances: 89.78056426332289
Weighted Precision: 0.9013315678073307
Weighted AreaUnderROC: 0.9398120643421376
Root mean squared error: 0.3134064700432908
Relative absolute error: 55.64263322884011
Root relative squared error: 66.4835520706041
Weighted TruePositiveRate: 0.8978056426332288
Weighted MatthewsCorrelation: 0.8366838683827682
Weighted FMeasure: 0.897813118795498
Iteration time: 4374.0
Weighted AreaUnderPRC: 0.8627361166095894
Mean absolute error: 0.2473005921281839
Coverage of cases: 99.49843260188088
Instances selection time: 95.0
Test time: 213.0
Accumulative iteration time: 71724.0
Weighted Recall: 0.8978056426332288
Weighted FalsePositiveRate: 0.06202653900091439
Kappa statistic: 0.8339369434969787
Training time: 4279.0
		
Iteration: 29
Labeled set size: 879
Unlabelled set size: 716
	
Mean region size: 67.06374085684318
Incorrectly Classified Instances: 10.407523510971787
Correctly Classified Instances: 89.59247648902821
Weighted Precision: 0.8991879123330035
Weighted AreaUnderROC: 0.9377938126048619
Root mean squared error: 0.31436818223186835
Relative absolute error: 55.76802507836989
Root relative squared error: 66.68756203363198
Weighted TruePositiveRate: 0.8959247648902822
Weighted MatthewsCorrelation: 0.8332955152774231
Weighted FMeasure: 0.8960308584446516
Iteration time: 4645.0
Weighted AreaUnderPRC: 0.8593859296924877
Mean absolute error: 0.24785788923720514
Coverage of cases: 99.43573667711598
Instances selection time: 99.0
Test time: 217.0
Accumulative iteration time: 76369.0
Weighted Recall: 0.8959247648902822
Weighted FalsePositiveRate: 0.06405700415236143
Kappa statistic: 0.8307367748122104
Training time: 4546.0
		
Iteration: 30
Labeled set size: 899
Unlabelled set size: 696
	
Mean region size: 67.12643678160809
Incorrectly Classified Instances: 10.344827586206897
Correctly Classified Instances: 89.65517241379311
Weighted Precision: 0.899822197959603
Weighted AreaUnderROC: 0.9391573680195286
Root mean squared error: 0.3137026955064352
Relative absolute error: 55.70532915360501
Root relative squared error: 66.54639098072896
Weighted TruePositiveRate: 0.896551724137931
Weighted MatthewsCorrelation: 0.8344424909838872
Weighted FMeasure: 0.8964351936044763
Iteration time: 4939.0
Weighted AreaUnderPRC: 0.8629589396955866
Mean absolute error: 0.24757924068269455
Coverage of cases: 99.43573667711598
Instances selection time: 92.0
Test time: 212.0
Accumulative iteration time: 81308.0
Weighted Recall: 0.896551724137931
Weighted FalsePositiveRate: 0.06290080265537197
Kappa statistic: 0.8318993599816042
Training time: 4847.0
		
Iteration: 31
Labeled set size: 919
Unlabelled set size: 676
	
Mean region size: 67.10553814001979
Incorrectly Classified Instances: 10.031347962382446
Correctly Classified Instances: 89.96865203761756
Weighted Precision: 0.9028149645555034
Weighted AreaUnderROC: 0.9396751478761167
Root mean squared error: 0.3133323699192989
Relative absolute error: 55.64263322884013
Root relative squared error: 66.46783306055566
Weighted TruePositiveRate: 0.8996865203761756
Weighted MatthewsCorrelation: 0.8391943285689267
Weighted FMeasure: 0.89940926398676
Iteration time: 4940.0
Weighted AreaUnderPRC: 0.863256087298317
Mean absolute error: 0.24730059212818395
Coverage of cases: 99.43573667711598
Instances selection time: 89.0
Test time: 214.0
Accumulative iteration time: 86248.0
Weighted Recall: 0.8996865203761756
Weighted FalsePositiveRate: 0.06334355642883022
Kappa statistic: 0.8365291919020457
Training time: 4851.0
		
Iteration: 32
Labeled set size: 939
Unlabelled set size: 656
	
Mean region size: 67.16823406478468
Incorrectly Classified Instances: 9.968652037617554
Correctly Classified Instances: 90.03134796238244
Weighted Precision: 0.9026209623493009
Weighted AreaUnderROC: 0.9393357376117586
Root mean squared error: 0.31333236991929897
Relative absolute error: 55.67398119122256
Root relative squared error: 66.46783306055568
Weighted TruePositiveRate: 0.9003134796238245
Weighted MatthewsCorrelation: 0.8401946727408222
Weighted FMeasure: 0.8998913728578293
Iteration time: 5090.0
Weighted AreaUnderPRC: 0.8635781091619434
Mean absolute error: 0.24743991640543922
Coverage of cases: 99.3730407523511
Instances selection time: 92.0
Test time: 213.0
Accumulative iteration time: 91338.0
Weighted Recall: 0.9003134796238245
Weighted FalsePositiveRate: 0.06457812192140279
Kappa statistic: 0.8371341048332199
Training time: 4998.0
		
Iteration: 33
Labeled set size: 959
Unlabelled set size: 636
	
Mean region size: 67.08463949843151
Incorrectly Classified Instances: 10.031347962382446
Correctly Classified Instances: 89.96865203761756
Weighted Precision: 0.9020969530251881
Weighted AreaUnderROC: 0.9385004032693132
Root mean squared error: 0.3134064700432908
Relative absolute error: 55.64263322884011
Root relative squared error: 66.4835520706041
Weighted TruePositiveRate: 0.8996865203761756
Weighted MatthewsCorrelation: 0.8388445943628503
Weighted FMeasure: 0.8991028827086278
Iteration time: 5042.0
Weighted AreaUnderPRC: 0.8628851902251904
Mean absolute error: 0.2473005921281839
Coverage of cases: 99.3103448275862
Instances selection time: 84.0
Test time: 213.0
Accumulative iteration time: 96380.0
Weighted Recall: 0.8996865203761756
Weighted FalsePositiveRate: 0.06621165922835263
Kappa statistic: 0.835922230223228
Training time: 4958.0
		
Iteration: 34
Labeled set size: 979
Unlabelled set size: 616
	
Mean region size: 67.08463949843149
Incorrectly Classified Instances: 10.094043887147336
Correctly Classified Instances: 89.90595611285266
Weighted Precision: 0.9016888866578646
Weighted AreaUnderROC: 0.9391778318059185
Root mean squared error: 0.3131841170745107
Relative absolute error: 55.61128526645768
Root relative squared error: 66.43638388299169
Weighted TruePositiveRate: 0.8990595611285267
Weighted MatthewsCorrelation: 0.8379274093011964
Weighted FMeasure: 0.8985344772707257
Iteration time: 5249.0
Weighted AreaUnderPRC: 0.8626639115949275
Mean absolute error: 0.2471612678509286
Coverage of cases: 99.43573667711598
Instances selection time: 86.0
Test time: 214.0
Accumulative iteration time: 101629.0
Weighted Recall: 0.8990595611285267
Weighted FalsePositiveRate: 0.06593244667899417
Kappa statistic: 0.8350380165119369
Training time: 5163.0
		
Iteration: 35
Labeled set size: 999
Unlabelled set size: 596
	
Mean region size: 67.1473354231964
Incorrectly Classified Instances: 10.344827586206897
Correctly Classified Instances: 89.65517241379311
Weighted Precision: 0.8983759583241661
Weighted AreaUnderROC: 0.9370578830594155
Root mean squared error: 0.3138507033917668
Relative absolute error: 55.73667711598745
Root relative squared error: 66.57778819454506
Weighted TruePositiveRate: 0.896551724137931
Weighted MatthewsCorrelation: 0.8331986172875349
Weighted FMeasure: 0.89593066078336
Iteration time: 5131.0
Weighted AreaUnderPRC: 0.8600442873085994
Mean absolute error: 0.24771856495994982
Coverage of cases: 99.43573667711598
Instances selection time: 83.0
Test time: 217.0
Accumulative iteration time: 106760.0
Weighted Recall: 0.896551724137931
Weighted FalsePositiveRate: 0.06911570671096388
Kappa statistic: 0.8306500964266479
Training time: 5048.0
		
Iteration: 36
Labeled set size: 1019
Unlabelled set size: 576
	
Mean region size: 67.08463949843149
Incorrectly Classified Instances: 9.780564263322884
Correctly Classified Instances: 90.21943573667711
Weighted Precision: 0.9041620288805786
Weighted AreaUnderROC: 0.9399015568396495
Root mean squared error: 0.3122931220483724
Relative absolute error: 55.48589341692789
Root relative squared error: 66.24737529549593
Weighted TruePositiveRate: 0.9021943573667711
Weighted MatthewsCorrelation: 0.8426424914796722
Weighted FMeasure: 0.9016316130793173
Iteration time: 5593.0
Weighted AreaUnderPRC: 0.8655780554321144
Mean absolute error: 0.2466039707419073
Coverage of cases: 99.3730407523511
Instances selection time: 78.0
Test time: 213.0
Accumulative iteration time: 112353.0
Weighted Recall: 0.9021943573667711
Weighted FalsePositiveRate: 0.06541644089277153
Kappa statistic: 0.8398873638942852
Training time: 5515.0
		
Iteration: 37
Labeled set size: 1039
Unlabelled set size: 556
	
Mean region size: 67.02194357366658
Incorrectly Classified Instances: 9.467084639498433
Correctly Classified Instances: 90.53291536050156
Weighted Precision: 0.9077234603421587
Weighted AreaUnderROC: 0.9419384028475962
Root mean squared error: 0.31162320396105564
Relative absolute error: 55.36050156739809
Root relative squared error: 66.10526420878156
Weighted TruePositiveRate: 0.9053291536050156
Weighted MatthewsCorrelation: 0.8485594209102207
Weighted FMeasure: 0.9051179030658791
Iteration time: 5967.0
Weighted AreaUnderPRC: 0.8688337902476162
Mean absolute error: 0.246046673632886
Coverage of cases: 99.3103448275862
Instances selection time: 78.0
Test time: 218.0
Accumulative iteration time: 118320.0
Weighted Recall: 0.9053291536050156
Weighted FalsePositiveRate: 0.0610776606871057
Kappa statistic: 0.8453730032415524
Training time: 5889.0
		
Iteration: 38
Labeled set size: 1059
Unlabelled set size: 536
	
Mean region size: 67.10553814001979
Incorrectly Classified Instances: 9.529780564263323
Correctly Classified Instances: 90.47021943573668
Weighted Precision: 0.9068095981081957
Weighted AreaUnderROC: 0.9416429261861996
Root mean squared error: 0.3117721990467675
Relative absolute error: 55.42319749216299
Root relative squared error: 66.13687083942267
Weighted TruePositiveRate: 0.9047021943573668
Weighted MatthewsCorrelation: 0.8471664752131407
Weighted FMeasure: 0.9045039979966666
Iteration time: 6241.0
Weighted AreaUnderPRC: 0.8683181196152434
Mean absolute error: 0.24632532218739667
Coverage of cases: 99.3730407523511
Instances selection time: 76.0
Test time: 218.0
Accumulative iteration time: 124561.0
Weighted Recall: 0.9047021943573668
Weighted FalsePositiveRate: 0.061275102624414275
Kappa statistic: 0.8444379708921139
Training time: 6165.0
		
Iteration: 39
Labeled set size: 1079
Unlabelled set size: 516
	
Mean region size: 67.10553814001979
Incorrectly Classified Instances: 9.592476489028213
Correctly Classified Instances: 90.40752351097179
Weighted Precision: 0.9061491168699624
Weighted AreaUnderROC: 0.9411353024734057
Root mean squared error: 0.31199555826279407
Relative absolute error: 55.45454545454544
Root relative squared error: 66.18425248431053
Weighted TruePositiveRate: 0.9040752351097179
Weighted MatthewsCorrelation: 0.8460656917285193
Weighted FMeasure: 0.9038768022992677
Iteration time: 6224.0
Weighted AreaUnderPRC: 0.8674035922356628
Mean absolute error: 0.24646464646465197
Coverage of cases: 99.3730407523511
Instances selection time: 73.0
Test time: 220.0
Accumulative iteration time: 130785.0
Weighted Recall: 0.9040752351097179
Weighted FalsePositiveRate: 0.06195192434156328
Kappa statistic: 0.8433699136219107
Training time: 6151.0
		
Iteration: 40
Labeled set size: 1099
Unlabelled set size: 496
	
Mean region size: 67.10553814001979
Incorrectly Classified Instances: 9.655172413793103
Correctly Classified Instances: 90.34482758620689
Weighted Precision: 0.9054895438606289
Weighted AreaUnderROC: 0.9406276787606118
Root mean squared error: 0.31221875768916874
Relative absolute error: 55.48589341692789
Root relative squared error: 66.23160023269448
Weighted TruePositiveRate: 0.903448275862069
Weighted MatthewsCorrelation: 0.8449653416895065
Weighted FMeasure: 0.90324910617848
Iteration time: 6280.0
Weighted AreaUnderPRC: 0.8664904056303718
Mean absolute error: 0.2466039707419073
Coverage of cases: 99.3730407523511
Instances selection time: 72.0
Test time: 218.0
Accumulative iteration time: 137065.0
Weighted Recall: 0.903448275862069
Weighted FalsePositiveRate: 0.0626287460587123
Kappa statistic: 0.8423012474399554
Training time: 6208.0
		
Iteration: 41
Labeled set size: 1119
Unlabelled set size: 476
	
Mean region size: 67.1473354231964
Incorrectly Classified Instances: 9.843260188087774
Correctly Classified Instances: 90.15673981191223
Weighted Precision: 0.9034401696868058
Weighted AreaUnderROC: 0.9387815810487387
Root mean squared error: 0.31296160612842844
Relative absolute error: 55.611285266457664
Root relative squared error: 66.38918218333278
Weighted TruePositiveRate: 0.9015673981191222
Weighted MatthewsCorrelation: 0.8415587932191485
Weighted FMeasure: 0.9011945905953928
Iteration time: 6196.0
Weighted AreaUnderPRC: 0.8644147247479582
Mean absolute error: 0.24716126785092854
Coverage of cases: 99.3103448275862
Instances selection time: 69.0
Test time: 218.0
Accumulative iteration time: 143261.0
Weighted Recall: 0.9015673981191222
Weighted FalsePositiveRate: 0.0656152454766668
Kappa statistic: 0.8389074410139988
Training time: 6127.0
		
Iteration: 42
Labeled set size: 1139
Unlabelled set size: 456
	
Mean region size: 67.1473354231964
Incorrectly Classified Instances: 9.655172413793103
Correctly Classified Instances: 90.34482758620689
Weighted Precision: 0.9053497224626317
Weighted AreaUnderROC: 0.9406069155626626
Root mean squared error: 0.31206997580905527
Relative absolute error: 55.48589341692789
Root relative squared error: 66.2000388297907
Weighted TruePositiveRate: 0.903448275862069
Weighted MatthewsCorrelation: 0.8448290110056313
Weighted FMeasure: 0.9031145442393751
Iteration time: 6628.0
Weighted AreaUnderPRC: 0.8672966311123924
Mean absolute error: 0.2466039707419073
Coverage of cases: 99.3730407523511
Instances selection time: 63.0
Test time: 220.0
Accumulative iteration time: 149889.0
Weighted Recall: 0.903448275862069
Weighted FalsePositiveRate: 0.06358478032521976
Kappa statistic: 0.8421210274763276
Training time: 6565.0
		
Iteration: 43
Labeled set size: 1159
Unlabelled set size: 436
	
Mean region size: 67.1682340647847
Incorrectly Classified Instances: 9.968652037617554
Correctly Classified Instances: 90.03134796238244
Weighted Precision: 0.9019674925324291
Weighted AreaUnderROC: 0.9375111167537223
Root mean squared error: 0.3135546177566195
Relative absolute error: 55.70532915360499
Root relative squared error: 66.5149789464177
Weighted TruePositiveRate: 0.9003134796238245
Weighted MatthewsCorrelation: 0.8392949787441248
Weighted FMeasure: 0.8999096927382568
Iteration time: 6204.0
Weighted AreaUnderPRC: 0.8630230885275888
Mean absolute error: 0.24757924068269446
Coverage of cases: 99.24764890282131
Instances selection time: 62.0
Test time: 219.0
Accumulative iteration time: 156093.0
Weighted Recall: 0.9003134796238245
Weighted FalsePositiveRate: 0.06696820758767147
Kappa statistic: 0.8367621614941375
Training time: 6142.0
		
Iteration: 44
Labeled set size: 1179
Unlabelled set size: 416
	
Mean region size: 67.06374085684318
Incorrectly Classified Instances: 8.90282131661442
Correctly Classified Instances: 91.09717868338558
Weighted Precision: 0.9123335569678152
Weighted AreaUnderROC: 0.9449145861181439
Root mean squared error: 0.3094547138114918
Relative absolute error: 55.078369905956094
Root relative squared error: 65.64525798187373
Weighted TruePositiveRate: 0.9109717868338558
Weighted MatthewsCorrelation: 0.8573017337237407
Weighted FMeasure: 0.9108654618087659
Iteration time: 6590.0
Weighted AreaUnderPRC: 0.8779784043262392
Mean absolute error: 0.2447927551375882
Coverage of cases: 99.18495297805643
Instances selection time: 56.0
Test time: 221.0
Accumulative iteration time: 162683.0
Weighted Recall: 0.9109717868338558
Weighted FalsePositiveRate: 0.05689628979589949
Kappa statistic: 0.8547145447745923
Training time: 6534.0
		
Iteration: 45
Labeled set size: 1199
Unlabelled set size: 396
	
Mean region size: 67.0219435736666
Incorrectly Classified Instances: 9.404388714733543
Correctly Classified Instances: 90.59561128526646
Weighted Precision: 0.9072153435404202
Weighted AreaUnderROC: 0.9407501334308346
Root mean squared error: 0.31139957766461146
Relative absolute error: 55.32915360501565
Root relative squared error: 66.05782590758137
Weighted TruePositiveRate: 0.9059561128526645
Weighted MatthewsCorrelation: 0.8485786640693382
Weighted FMeasure: 0.9057348652358809
Iteration time: 6413.0
Weighted AreaUnderPRC: 0.8703891076036769
Mean absolute error: 0.24590734935563066
Coverage of cases: 99.12225705329153
Instances selection time: 58.0
Test time: 219.0
Accumulative iteration time: 169096.0
Weighted Recall: 0.9059561128526645
Weighted FalsePositiveRate: 0.062310863533091586
Kappa statistic: 0.8461786731954202
Training time: 6355.0
		
Iteration: 46
Labeled set size: 1219
Unlabelled set size: 376
	
Mean region size: 66.98014629049
Incorrectly Classified Instances: 9.216300940438872
Correctly Classified Instances: 90.78369905956113
Weighted Precision: 0.9092350344998393
Weighted AreaUnderROC: 0.9415515165633483
Root mean squared error: 0.31087715739409993
Relative absolute error: 55.23510971786831
Root relative squared error: 65.94700383280897
Weighted TruePositiveRate: 0.9078369905956113
Weighted MatthewsCorrelation: 0.8518299239006734
Weighted FMeasure: 0.9076402533681658
Iteration time: 6819.0
Weighted AreaUnderPRC: 0.8725681403558527
Mean absolute error: 0.24548937652386474
Coverage of cases: 99.05956112852665
Instances selection time: 51.0
Test time: 219.0
Accumulative iteration time: 175915.0
Weighted Recall: 0.9078369905956113
Weighted FalsePositiveRate: 0.06123779529473872
Kappa statistic: 0.8492119586013787
Training time: 6768.0
		
Time end:Sun Oct 08 06.28.01 EEST 2017