Sun Oct 08 09.43.54 EEST 2017
Dataset: splice
Test set size: 1595
Initial Labelled set size: 319
Initial Unlabelled set size: 1276
Batch mode: QBestBatchMode
Batch size: 20
Classifiers: RandomForest-1cores
Scenario: PoolBasedSamplingScenario
Query strategy: RandomSelectionQueryStrategy-1cores
Time begining: Sun Oct 08 09.43.54 EEST 2017
		
Iteration: 1
Labeled set size: 319
Unlabelled set size: 1276
	
Mean region size: 95.8620689655173
Incorrectly Classified Instances: 20.188087774294672
Correctly Classified Instances: 79.81191222570533
Weighted Precision: 0.8041304543713582
Weighted AreaUnderROC: 0.9226899955195624
Root mean squared error: 0.35203376925919355
Relative absolute error: 68.17597574257216
Root relative squared error: 74.67763963495
Weighted TruePositiveRate: 0.7981191222570533
Weighted MatthewsCorrelation: 0.665689219927144
Weighted FMeasure: 0.7882454993415334
Iteration time: 67.0
Weighted AreaUnderPRC: 0.8796587234957247
Mean absolute error: 0.30300433663366094
Coverage of cases: 100.0
Instances selection time: 3.0
Test time: 12.0
Accumulative iteration time: 67.0
Weighted Recall: 0.7981191222570533
Weighted FalsePositiveRate: 0.17356856142578436
Kappa statistic: 0.6540451770830106
Training time: 64.0
		
Iteration: 2
Labeled set size: 339
Unlabelled set size: 1256
	
Mean region size: 91.57784743991667
Incorrectly Classified Instances: 16.551724137931036
Correctly Classified Instances: 83.44827586206897
Weighted Precision: 0.8369984475165039
Weighted AreaUnderROC: 0.9408500603494656
Root mean squared error: 0.3335166739339141
Relative absolute error: 63.21874534847038
Root relative squared error: 70.7495705332352
Weighted TruePositiveRate: 0.8344827586206897
Weighted MatthewsCorrelation: 0.7277522598298739
Weighted FMeasure: 0.8314922633368452
Iteration time: 60.0
Weighted AreaUnderPRC: 0.9095993436593525
Mean absolute error: 0.2809722015487636
Coverage of cases: 100.0
Instances selection time: 3.0
Test time: 11.0
Accumulative iteration time: 127.0
Weighted Recall: 0.8344827586206897
Weighted FalsePositiveRate: 0.1310771279435633
Kappa statistic: 0.722406992696274
Training time: 57.0
		
Iteration: 3
Labeled set size: 359
Unlabelled set size: 1236
	
Mean region size: 95.2769070010452
Incorrectly Classified Instances: 22.38244514106583
Correctly Classified Instances: 77.61755485893417
Weighted Precision: 0.778127936595281
Weighted AreaUnderROC: 0.9076821396537487
Root mean squared error: 0.35884924206126256
Relative absolute error: 69.40643853524836
Root relative squared error: 76.12341974555062
Weighted TruePositiveRate: 0.7761755485893417
Weighted MatthewsCorrelation: 0.6278120074265549
Weighted FMeasure: 0.7703878521107236
Iteration time: 52.0
Weighted AreaUnderPRC: 0.8599263994399534
Mean absolute error: 0.30847306015666637
Coverage of cases: 100.0
Instances selection time: 3.0
Test time: 11.0
Accumulative iteration time: 179.0
Weighted Recall: 0.7761755485893417
Weighted FalsePositiveRate: 0.1786214438549624
Kappa statistic: 0.6204059429503961
Training time: 49.0
		
Iteration: 4
Labeled set size: 379
Unlabelled set size: 1216
	
Mean region size: 100.0
Incorrectly Classified Instances: 27.147335423197493
Correctly Classified Instances: 72.85266457680251
Weighted Precision: 0.749464043534332
Weighted AreaUnderROC: 0.8966912028998592
Root mean squared error: 0.3766289989735385
Relative absolute error: 74.23920359736145
Root relative squared error: 79.8950757497062
Weighted TruePositiveRate: 0.7285266457680251
Weighted MatthewsCorrelation: 0.5501613734813632
Weighted FMeasure: 0.7108527362400524
Iteration time: 66.0
Weighted AreaUnderPRC: 0.8406145065277323
Mean absolute error: 0.3299520159882806
Coverage of cases: 100.0
Instances selection time: 4.0
Test time: 11.0
Accumulative iteration time: 245.0
Weighted Recall: 0.7285266457680251
Weighted FalsePositiveRate: 0.24850733493675617
Kappa statistic: 0.5182556240770695
Training time: 62.0
		
Iteration: 5
Labeled set size: 399
Unlabelled set size: 1196
	
Mean region size: 96.53082549634296
Incorrectly Classified Instances: 22.06896551724138
Correctly Classified Instances: 77.93103448275862
Weighted Precision: 0.7841892635574272
Weighted AreaUnderROC: 0.8997646445672377
Root mean squared error: 0.3626170767848937
Relative absolute error: 70.68249306123103
Root relative squared error: 76.92269819059152
Weighted TruePositiveRate: 0.7793103448275862
Weighted MatthewsCorrelation: 0.6300695520086714
Weighted FMeasure: 0.7738838111230958
Iteration time: 63.0
Weighted AreaUnderPRC: 0.8538133070350387
Mean absolute error: 0.31414441360547835
Coverage of cases: 100.0
Instances selection time: 4.0
Test time: 10.0
Accumulative iteration time: 308.0
Weighted Recall: 0.7793103448275862
Weighted FalsePositiveRate: 0.18286693545516672
Kappa statistic: 0.6245025715795317
Training time: 59.0
		
Iteration: 6
Labeled set size: 419
Unlabelled set size: 1176
	
Mean region size: 99.9791013584117
Incorrectly Classified Instances: 22.63322884012539
Correctly Classified Instances: 77.3667711598746
Weighted Precision: 0.783784465069674
Weighted AreaUnderROC: 0.9065003915664015
Root mean squared error: 0.3618492372479263
Relative absolute error: 70.69605946171531
Root relative squared error: 76.75981482755569
Weighted TruePositiveRate: 0.773667711598746
Weighted MatthewsCorrelation: 0.62015960908328
Weighted FMeasure: 0.7648410323801013
Iteration time: 79.0
Weighted AreaUnderPRC: 0.8569814116028015
Mean absolute error: 0.31420470871874184
Coverage of cases: 100.0
Instances selection time: 4.0
Test time: 11.0
Accumulative iteration time: 387.0
Weighted Recall: 0.773667711598746
Weighted FalsePositiveRate: 0.2003747202692663
Kappa statistic: 0.6091110899907674
Training time: 75.0
		
Iteration: 7
Labeled set size: 439
Unlabelled set size: 1156
	
Mean region size: 98.28631138975967
Incorrectly Classified Instances: 26.70846394984326
Correctly Classified Instances: 73.29153605015674
Weighted Precision: 0.7395916099715831
Weighted AreaUnderROC: 0.8854867854058107
Root mean squared error: 0.3703810538841644
Relative absolute error: 71.81047898830977
Root relative squared error: 78.56968644735292
Weighted TruePositiveRate: 0.7329153605015674
Weighted MatthewsCorrelation: 0.5527523338406204
Weighted FMeasure: 0.7204960627518551
Iteration time: 66.0
Weighted AreaUnderPRC: 0.8283822902886289
Mean absolute error: 0.3191576843924951
Coverage of cases: 100.0
Instances selection time: 3.0
Test time: 26.0
Accumulative iteration time: 453.0
Weighted Recall: 0.7329153605015674
Weighted FalsePositiveRate: 0.22472868626539894
Kappa statistic: 0.5376169788825556
Training time: 63.0
		
Iteration: 8
Labeled set size: 459
Unlabelled set size: 1136
	
Mean region size: 99.9582027168234
Incorrectly Classified Instances: 21.253918495297807
Correctly Classified Instances: 78.74608150470219
Weighted Precision: 0.8011303974676321
Weighted AreaUnderROC: 0.9357647425431023
Root mean squared error: 0.3589873199401184
Relative absolute error: 70.97311010603626
Root relative squared error: 76.15271048689186
Weighted TruePositiveRate: 0.7874608150470219
Weighted MatthewsCorrelation: 0.6485935886389743
Weighted FMeasure: 0.7793795806692769
Iteration time: 87.0
Weighted AreaUnderPRC: 0.8950453224639333
Mean absolute error: 0.31543604491572386
Coverage of cases: 100.0
Instances selection time: 3.0
Test time: 12.0
Accumulative iteration time: 540.0
Weighted Recall: 0.7874608150470219
Weighted FalsePositiveRate: 0.1902851854021004
Kappa statistic: 0.6323797868543165
Training time: 84.0
		
Iteration: 9
Labeled set size: 479
Unlabelled set size: 1116
	
Mean region size: 100.0
Incorrectly Classified Instances: 36.739811912225704
Correctly Classified Instances: 63.260188087774296
Weighted Precision: 0.669139680364048
Weighted AreaUnderROC: 0.8332510319890726
Root mean squared error: 0.4067422354363842
Relative absolute error: 81.99181708342286
Root relative squared error: 86.28305786161178
Weighted TruePositiveRate: 0.6326018808777429
Weighted MatthewsCorrelation: 0.37558911872505873
Weighted FMeasure: 0.5826717353558085
Iteration time: 88.0
Weighted AreaUnderPRC: 0.7498907514259372
Mean absolute error: 0.36440807592633206
Coverage of cases: 100.0
Instances selection time: 3.0
Test time: 11.0
Accumulative iteration time: 628.0
Weighted Recall: 0.6326018808777429
Weighted FalsePositiveRate: 0.35799347356973305
Kappa statistic: 0.31076006866811
Training time: 85.0
		
Iteration: 10
Labeled set size: 499
Unlabelled set size: 1096
	
Mean region size: 100.0
Incorrectly Classified Instances: 25.830721003134798
Correctly Classified Instances: 74.1692789968652
Weighted Precision: 0.7557289855774658
Weighted AreaUnderROC: 0.8941964649736351
Root mean squared error: 0.373032410302097
Relative absolute error: 73.69727652673578
Root relative squared error: 79.13212407809169
Weighted TruePositiveRate: 0.7416927899686521
Weighted MatthewsCorrelation: 0.5675643966307082
Weighted FMeasure: 0.7296191363640208
Iteration time: 82.0
Weighted AreaUnderPRC: 0.838417588817816
Mean absolute error: 0.3275434512299442
Coverage of cases: 100.0
Instances selection time: 3.0
Test time: 11.0
Accumulative iteration time: 710.0
Weighted Recall: 0.7416927899686521
Weighted FalsePositiveRate: 0.22956653411949152
Kappa statistic: 0.5485941049470279
Training time: 79.0
		
Iteration: 11
Labeled set size: 519
Unlabelled set size: 1076
	
Mean region size: 99.2267502612331
Incorrectly Classified Instances: 27.398119122257054
Correctly Classified Instances: 72.60188087774294
Weighted Precision: 0.7517403985064958
Weighted AreaUnderROC: 0.864558063797914
Root mean squared error: 0.3802990748845321
Relative absolute error: 74.34482924918943
Root relative squared error: 80.67361641894607
Weighted TruePositiveRate: 0.7260188087774294
Weighted MatthewsCorrelation: 0.5417530652616812
Weighted FMeasure: 0.7098718672017882
Iteration time: 98.0
Weighted AreaUnderPRC: 0.8087659754031155
Mean absolute error: 0.3304214633297383
Coverage of cases: 100.0
Instances selection time: 3.0
Test time: 12.0
Accumulative iteration time: 808.0
Weighted Recall: 0.7260188087774294
Weighted FalsePositiveRate: 0.25454206779201793
Kappa statistic: 0.5136550444120376
Training time: 95.0
		
Iteration: 12
Labeled set size: 539
Unlabelled set size: 1056
	
Mean region size: 91.72413793103469
Incorrectly Classified Instances: 15.360501567398119
Correctly Classified Instances: 84.63949843260188
Weighted Precision: 0.8499165923553479
Weighted AreaUnderROC: 0.9519964375587289
Root mean squared error: 0.32478293127148244
Relative absolute error: 61.44686572546095
Root relative squared error: 68.8968639347121
Weighted TruePositiveRate: 0.8463949843260188
Weighted MatthewsCorrelation: 0.7446494802677365
Weighted FMeasure: 0.843003083658776
Iteration time: 108.0
Weighted AreaUnderPRC: 0.9242617136216198
Mean absolute error: 0.2730971810020549
Coverage of cases: 99.81191222570533
Instances selection time: 3.0
Test time: 11.0
Accumulative iteration time: 916.0
Weighted Recall: 0.8463949843260188
Weighted FalsePositiveRate: 0.12872879935492054
Kappa statistic: 0.7417063804191921
Training time: 105.0
		
Iteration: 13
Labeled set size: 559
Unlabelled set size: 1036
	
Mean region size: 89.78056426332304
Incorrectly Classified Instances: 15.924764890282132
Correctly Classified Instances: 84.07523510971787
Weighted Precision: 0.8402988097059136
Weighted AreaUnderROC: 0.9406549185690729
Root mean squared error: 0.3256674782776704
Relative absolute error: 60.81241411574545
Root relative squared error: 69.08450469061823
Weighted TruePositiveRate: 0.8407523510971787
Weighted MatthewsCorrelation: 0.7331287070757875
Weighted FMeasure: 0.8398248262775571
Iteration time: 104.0
Weighted AreaUnderPRC: 0.9118523705736727
Mean absolute error: 0.2702773960699859
Coverage of cases: 99.81191222570533
Instances selection time: 3.0
Test time: 11.0
Accumulative iteration time: 1020.0
Weighted Recall: 0.8407523510971787
Weighted FalsePositiveRate: 0.11575213605451419
Kappa statistic: 0.7380474828944936
Training time: 101.0
		
Iteration: 14
Labeled set size: 579
Unlabelled set size: 1016
	
Mean region size: 94.62904911180772
Incorrectly Classified Instances: 17.74294670846395
Correctly Classified Instances: 82.25705329153605
Weighted Precision: 0.8233283327091103
Weighted AreaUnderROC: 0.9402944986369934
Root mean squared error: 0.3307448422907123
Relative absolute error: 62.269214010454114
Root relative squared error: 70.16157624787057
Weighted TruePositiveRate: 0.8225705329153605
Weighted MatthewsCorrelation: 0.7091807742034273
Weighted FMeasure: 0.8187601571008277
Iteration time: 109.0
Weighted AreaUnderPRC: 0.9071396857793709
Mean absolute error: 0.2767520622686912
Coverage of cases: 99.9373040752351
Instances selection time: 2.0
Test time: 12.0
Accumulative iteration time: 1129.0
Weighted Recall: 0.8225705329153605
Weighted FalsePositiveRate: 0.13771233204830846
Kappa statistic: 0.7020806864120123
Training time: 107.0
		
Iteration: 15
Labeled set size: 599
Unlabelled set size: 996
	
Mean region size: 91.7868338557995
Incorrectly Classified Instances: 15.109717868338558
Correctly Classified Instances: 84.89028213166144
Weighted Precision: 0.8516044989849462
Weighted AreaUnderROC: 0.9480585220208002
Root mean squared error: 0.3276567602243139
Relative absolute error: 61.68805521607217
Root relative squared error: 69.50649511686731
Weighted TruePositiveRate: 0.8489028213166144
Weighted MatthewsCorrelation: 0.7500338140110041
Weighted FMeasure: 0.8465084809861702
Iteration time: 113.0
Weighted AreaUnderPRC: 0.9180259043847323
Mean absolute error: 0.2741691342936603
Coverage of cases: 100.0
Instances selection time: 3.0
Test time: 12.0
Accumulative iteration time: 1242.0
Weighted Recall: 0.8489028213166144
Weighted FalsePositiveRate: 0.12269406649965876
Kappa statistic: 0.7468869121579489
Training time: 110.0
		
Iteration: 16
Labeled set size: 619
Unlabelled set size: 976
	
Mean region size: 94.31556948798308
Incorrectly Classified Instances: 18.495297805642632
Correctly Classified Instances: 81.50470219435736
Weighted Precision: 0.8175083747855171
Weighted AreaUnderROC: 0.9378335992581931
Root mean squared error: 0.34094025439231596
Relative absolute error: 65.28944663162095
Root relative squared error: 72.32434975808114
Weighted TruePositiveRate: 0.8150470219435737
Weighted MatthewsCorrelation: 0.6973181173567294
Weighted FMeasure: 0.8099513372320075
Iteration time: 141.0
Weighted AreaUnderPRC: 0.8964887323888411
Mean absolute error: 0.29017531836276633
Coverage of cases: 100.0
Instances selection time: 2.0
Test time: 12.0
Accumulative iteration time: 1383.0
Weighted Recall: 0.8150470219435737
Weighted FalsePositiveRate: 0.14819541858546742
Kappa statistic: 0.6872534468422252
Training time: 139.0
		
Iteration: 17
Labeled set size: 639
Unlabelled set size: 956
	
Mean region size: 91.64054336468153
Incorrectly Classified Instances: 16.677115987460816
Correctly Classified Instances: 83.32288401253919
Weighted Precision: 0.8389842880855807
Weighted AreaUnderROC: 0.9455123602478844
Root mean squared error: 0.32955562690349716
Relative absolute error: 62.024527880396754
Root relative squared error: 69.90930556849321
Weighted TruePositiveRate: 0.8332288401253919
Weighted MatthewsCorrelation: 0.7251944388369157
Weighted FMeasure: 0.8295527191925395
Iteration time: 189.0
Weighted AreaUnderPRC: 0.9134884945277134
Mean absolute error: 0.27566456835732517
Coverage of cases: 99.9373040752351
Instances selection time: 3.0
Test time: 11.0
Accumulative iteration time: 1572.0
Weighted Recall: 0.8332288401253919
Weighted FalsePositiveRate: 0.14052480764534783
Kappa statistic: 0.7179149629334133
Training time: 186.0
		
Iteration: 18
Labeled set size: 659
Unlabelled set size: 936
	
Mean region size: 94.60815047021953
Incorrectly Classified Instances: 17.36677115987461
Correctly Classified Instances: 82.6332288401254
Weighted Precision: 0.8293193350595477
Weighted AreaUnderROC: 0.9419117745202028
Root mean squared error: 0.3350809391004158
Relative absolute error: 64.24754416320967
Root relative squared error: 71.08140128527737
Weighted TruePositiveRate: 0.826332288401254
Weighted MatthewsCorrelation: 0.7135684273586784
Weighted FMeasure: 0.8218339286296653
Iteration time: 119.0
Weighted AreaUnderPRC: 0.9136440859240851
Mean absolute error: 0.28554464072538277
Coverage of cases: 100.0
Instances selection time: 2.0
Test time: 11.0
Accumulative iteration time: 1691.0
Weighted Recall: 0.826332288401254
Weighted FalsePositiveRate: 0.13556686554135852
Kappa statistic: 0.7091623264117458
Training time: 117.0
		
Iteration: 19
Labeled set size: 679
Unlabelled set size: 916
	
Mean region size: 91.30616509926863
Incorrectly Classified Instances: 16.802507836990596
Correctly Classified Instances: 83.1974921630094
Weighted Precision: 0.8328153678730166
Weighted AreaUnderROC: 0.9422695627075736
Root mean squared error: 0.3302914207566864
Relative absolute error: 62.5022727940193
Root relative squared error: 70.06539101543684
Weighted TruePositiveRate: 0.831974921630094
Weighted MatthewsCorrelation: 0.722360847110168
Weighted FMeasure: 0.8295239600930143
Iteration time: 115.0
Weighted AreaUnderPRC: 0.9156760583567786
Mean absolute error: 0.2777878790845365
Coverage of cases: 100.0
Instances selection time: 2.0
Test time: 11.0
Accumulative iteration time: 1806.0
Weighted Recall: 0.831974921630094
Weighted FalsePositiveRate: 0.12710915126125286
Kappa statistic: 0.7203246500459627
Training time: 113.0
		
Iteration: 20
Labeled set size: 699
Unlabelled set size: 896
	
Mean region size: 92.95715778474396
Incorrectly Classified Instances: 12.601880877742946
Correctly Classified Instances: 87.39811912225706
Weighted Precision: 0.874545757158831
Weighted AreaUnderROC: 0.9624074726692233
Root mean squared error: 0.3187645414045585
Relative absolute error: 60.62236089769875
Root relative squared error: 67.62017064869424
Weighted TruePositiveRate: 0.8739811912225706
Weighted MatthewsCorrelation: 0.793358796359159
Weighted FMeasure: 0.8726090074610987
Iteration time: 135.0
Weighted AreaUnderPRC: 0.9372472300546569
Mean absolute error: 0.26943271510088945
Coverage of cases: 99.9373040752351
Instances selection time: 2.0
Test time: 12.0
Accumulative iteration time: 1941.0
Weighted Recall: 0.8739811912225706
Weighted FalsePositiveRate: 0.09521278357049236
Kappa statistic: 0.7912719587798009
Training time: 133.0
		
Iteration: 21
Labeled set size: 719
Unlabelled set size: 876
	
Mean region size: 87.3772204806689
Incorrectly Classified Instances: 15.297805642633229
Correctly Classified Instances: 84.70219435736676
Weighted Precision: 0.8469988212111238
Weighted AreaUnderROC: 0.9484675301350948
Root mean squared error: 0.3173176099137614
Relative absolute error: 58.33379331370193
Root relative squared error: 67.31323012797775
Weighted TruePositiveRate: 0.8470219435736677
Weighted MatthewsCorrelation: 0.748960348839037
Weighted FMeasure: 0.843024251986026
Iteration time: 117.0
Weighted AreaUnderPRC: 0.9214977044951491
Mean absolute error: 0.25926130361645894
Coverage of cases: 100.0
Instances selection time: 2.0
Test time: 12.0
Accumulative iteration time: 2058.0
Weighted Recall: 0.8470219435736677
Weighted FalsePositiveRate: 0.11281145121198315
Kappa statistic: 0.7462527653154301
Training time: 115.0
		
Iteration: 22
Labeled set size: 739
Unlabelled set size: 856
	
Mean region size: 98.47439916405435
Incorrectly Classified Instances: 22.821316614420063
Correctly Classified Instances: 77.17868338557994
Weighted Precision: 0.7848921712550898
Weighted AreaUnderROC: 0.903427179098101
Root mean squared error: 0.3627964469895954
Relative absolute error: 70.8041508277545
Root relative squared error: 76.96074835701774
Weighted TruePositiveRate: 0.7717868338557994
Weighted MatthewsCorrelation: 0.6199844531913238
Weighted FMeasure: 0.7631569811268579
Iteration time: 118.0
Weighted AreaUnderPRC: 0.8572795033355889
Mean absolute error: 0.31468511479002714
Coverage of cases: 100.0
Instances selection time: 2.0
Test time: 11.0
Accumulative iteration time: 2176.0
Weighted Recall: 0.7717868338557994
Weighted FalsePositiveRate: 0.2024000925263196
Kappa statistic: 0.6047930197208677
Training time: 116.0
		
Iteration: 23
Labeled set size: 759
Unlabelled set size: 836
	
Mean region size: 96.57262277951926
Incorrectly Classified Instances: 19.247648902821318
Correctly Classified Instances: 80.75235109717869
Weighted Precision: 0.8151691596974409
Weighted AreaUnderROC: 0.9331917078523928
Root mean squared error: 0.3443719540024416
Relative absolute error: 66.26518091377874
Root relative squared error: 73.05232317767565
Weighted TruePositiveRate: 0.8075235109717869
Weighted MatthewsCorrelation: 0.6814115143558435
Weighted FMeasure: 0.8004109231544208
Iteration time: 137.0
Weighted AreaUnderPRC: 0.8998780756980788
Mean absolute error: 0.2945119151723566
Coverage of cases: 100.0
Instances selection time: 2.0
Test time: 20.0
Accumulative iteration time: 2313.0
Weighted Recall: 0.8075235109717869
Weighted FalsePositiveRate: 0.16582329764946369
Kappa statistic: 0.6712402252940889
Training time: 135.0
		
Iteration: 24
Labeled set size: 779
Unlabelled set size: 816
	
Mean region size: 92.43469174503676
Incorrectly Classified Instances: 15.67398119122257
Correctly Classified Instances: 84.32601880877743
Weighted Precision: 0.843538222343412
Weighted AreaUnderROC: 0.9517535778785032
Root mean squared error: 0.3231603410075695
Relative absolute error: 61.026982487959806
Root relative squared error: 68.55266056110209
Weighted TruePositiveRate: 0.8432601880877743
Weighted MatthewsCorrelation: 0.7434276248921474
Weighted FMeasure: 0.8405176154707463
Iteration time: 132.0
Weighted AreaUnderPRC: 0.9196699259085843
Mean absolute error: 0.2712310332798275
Coverage of cases: 100.0
Instances selection time: 2.0
Test time: 11.0
Accumulative iteration time: 2445.0
Weighted Recall: 0.8432601880877743
Weighted FalsePositiveRate: 0.11638587622430056
Kappa statistic: 0.7394863552916119
Training time: 130.0
		
Iteration: 25
Labeled set size: 799
Unlabelled set size: 796
	
Mean region size: 97.13688610240334
Incorrectly Classified Instances: 21.003134796238246
Correctly Classified Instances: 78.99686520376176
Weighted Precision: 0.8031534077748387
Weighted AreaUnderROC: 0.9277630484787868
Root mean squared error: 0.3509520378682958
Relative absolute error: 68.08702268278402
Root relative squared error: 74.44816975437215
Weighted TruePositiveRate: 0.7899686520376176
Weighted MatthewsCorrelation: 0.6527209119688104
Weighted FMeasure: 0.7809304568055228
Iteration time: 137.0
Weighted AreaUnderPRC: 0.8885532707249586
Mean absolute error: 0.30260898970126915
Coverage of cases: 100.0
Instances selection time: 2.0
Test time: 21.0
Accumulative iteration time: 2582.0
Weighted Recall: 0.7899686520376176
Weighted FalsePositiveRate: 0.18472677204862778
Kappa statistic: 0.6382429028040788
Training time: 135.0
		
Iteration: 26
Labeled set size: 819
Unlabelled set size: 776
	
Mean region size: 89.6342737722049
Incorrectly Classified Instances: 13.10344827586207
Correctly Classified Instances: 86.89655172413794
Weighted Precision: 0.8714090158014861
Weighted AreaUnderROC: 0.9631262703021846
Root mean squared error: 0.3054168745457623
Relative absolute error: 56.144321863159774
Root relative squared error: 64.78870292403214
Weighted TruePositiveRate: 0.8689655172413793
Weighted MatthewsCorrelation: 0.7844513813967854
Weighted FMeasure: 0.8669786370560636
Iteration time: 137.0
Weighted AreaUnderPRC: 0.942031920459584
Mean absolute error: 0.24953031939182685
Coverage of cases: 100.0
Instances selection time: 1.0
Test time: 11.0
Accumulative iteration time: 2719.0
Weighted Recall: 0.8689655172413793
Weighted FalsePositiveRate: 0.1068059297792268
Kappa statistic: 0.781070051278818
Training time: 136.0
		
Iteration: 27
Labeled set size: 839
Unlabelled set size: 756
	
Mean region size: 87.12643678160946
Incorrectly Classified Instances: 15.047021943573668
Correctly Classified Instances: 84.95297805642633
Weighted Precision: 0.852789962505113
Weighted AreaUnderROC: 0.9490760145888181
Root mean squared error: 0.3144196585156981
Relative absolute error: 57.388476623751586
Root relative squared error: 66.69848180244186
Weighted TruePositiveRate: 0.8495297805642633
Weighted MatthewsCorrelation: 0.7526035048374967
Weighted FMeasure: 0.8450140195894706
Iteration time: 143.0
Weighted AreaUnderPRC: 0.9215168188089581
Mean absolute error: 0.2550598961055684
Coverage of cases: 99.9373040752351
Instances selection time: 1.0
Test time: 11.0
Accumulative iteration time: 2862.0
Weighted Recall: 0.8495297805642633
Weighted FalsePositiveRate: 0.11868470590145021
Kappa statistic: 0.74859718807137
Training time: 142.0
		
Iteration: 28
Labeled set size: 859
Unlabelled set size: 736
	
Mean region size: 98.32810867293638
Incorrectly Classified Instances: 21.630094043887148
Correctly Classified Instances: 78.36990595611286
Weighted Precision: 0.8002643252367435
Weighted AreaUnderROC: 0.9176881813414478
Root mean squared error: 0.3546392795270402
Relative absolute error: 68.97779145277812
Root relative squared error: 75.23035182860365
Weighted TruePositiveRate: 0.7836990595611285
Weighted MatthewsCorrelation: 0.6401979751653006
Weighted FMeasure: 0.7760626317178139
Iteration time: 125.0
Weighted AreaUnderPRC: 0.879165331846045
Mean absolute error: 0.30656796201235414
Coverage of cases: 100.0
Instances selection time: 1.0
Test time: 12.0
Accumulative iteration time: 2987.0
Weighted Recall: 0.7836990595611285
Weighted FalsePositiveRate: 0.19671752742515278
Kappa statistic: 0.6251959075500266
Training time: 124.0
		
Iteration: 29
Labeled set size: 879
Unlabelled set size: 716
	
Mean region size: 99.97910135841171
Incorrectly Classified Instances: 20.940438871473354
Correctly Classified Instances: 79.05956112852665
Weighted Precision: 0.8030821870161504
Weighted AreaUnderROC: 0.9235399165968823
Root mean squared error: 0.36198000953868315
Relative absolute error: 71.71765008323864
Root relative squared error: 76.78755581963134
Weighted TruePositiveRate: 0.7905956112852665
Weighted MatthewsCorrelation: 0.656020456540418
Weighted FMeasure: 0.7806828616188802
Iteration time: 140.0
Weighted AreaUnderPRC: 0.8780386958288816
Mean absolute error: 0.3187451114810679
Coverage of cases: 100.0
Instances selection time: 2.0
Test time: 11.0
Accumulative iteration time: 3127.0
Weighted Recall: 0.7905956112852665
Weighted FalsePositiveRate: 0.18548060646831077
Kappa statistic: 0.6380199645174902
Training time: 138.0
		
Iteration: 30
Labeled set size: 899
Unlabelled set size: 696
	
Mean region size: 94.42006269592494
Incorrectly Classified Instances: 22.63322884012539
Correctly Classified Instances: 77.3667711598746
Weighted Precision: 0.7789442424728331
Weighted AreaUnderROC: 0.9000649290653122
Root mean squared error: 0.3559703791097937
Relative absolute error: 68.11327777390704
Root relative squared error: 75.51272069102352
Weighted TruePositiveRate: 0.773667711598746
Weighted MatthewsCorrelation: 0.6178439175128707
Weighted FMeasure: 0.7631028515066287
Iteration time: 167.0
Weighted AreaUnderPRC: 0.8559865151905793
Mean absolute error: 0.30272567899514924
Coverage of cases: 100.0
Instances selection time: 2.0
Test time: 12.0
Accumulative iteration time: 3294.0
Weighted Recall: 0.773667711598746
Weighted FalsePositiveRate: 0.19418256674600734
Kappa statistic: 0.6120280436489085
Training time: 165.0
		
Iteration: 31
Labeled set size: 919
Unlabelled set size: 676
	
Mean region size: 96.48902821316624
Incorrectly Classified Instances: 20.0
Correctly Classified Instances: 80.0
Weighted Precision: 0.8021459804584443
Weighted AreaUnderROC: 0.9314112604266707
Root mean squared error: 0.3433077984508431
Relative absolute error: 66.19118705575166
Root relative squared error: 72.82658169564388
Weighted TruePositiveRate: 0.8
Weighted MatthewsCorrelation: 0.667867909769415
Weighted FMeasure: 0.7953151534043689
Iteration time: 162.0
Weighted AreaUnderPRC: 0.8969738317643062
Mean absolute error: 0.2941830535811251
Coverage of cases: 100.0
Instances selection time: 2.0
Test time: 12.0
Accumulative iteration time: 3456.0
Weighted Recall: 0.8
Weighted FalsePositiveRate: 0.15963520162400222
Kappa statistic: 0.6625052898857386
Training time: 160.0
		
Iteration: 32
Labeled set size: 939
Unlabelled set size: 656
	
Mean region size: 93.73040752351116
Incorrectly Classified Instances: 15.862068965517242
Correctly Classified Instances: 84.13793103448276
Weighted Precision: 0.8477489195778788
Weighted AreaUnderROC: 0.9554601176211919
Root mean squared error: 0.3265618640506465
Relative absolute error: 62.38038332597274
Root relative squared error: 69.2742325641387
Weighted TruePositiveRate: 0.8413793103448276
Weighted MatthewsCorrelation: 0.7387804901929508
Weighted FMeasure: 0.8372891812469199
Iteration time: 156.0
Weighted AreaUnderPRC: 0.9291157204751511
Mean absolute error: 0.2772461481154407
Coverage of cases: 100.0
Instances selection time: 1.0
Test time: 12.0
Accumulative iteration time: 3612.0
Weighted Recall: 0.8413793103448276
Weighted FalsePositiveRate: 0.1350824310439743
Kappa statistic: 0.7318590292211762
Training time: 155.0
		
Iteration: 33
Labeled set size: 959
Unlabelled set size: 636
	
Mean region size: 90.80459770114943
Incorrectly Classified Instances: 13.47962382445141
Correctly Classified Instances: 86.52037617554859
Weighted Precision: 0.8646449118278449
Weighted AreaUnderROC: 0.9590484233341487
Root mean squared error: 0.3108658440182123
Relative absolute error: 57.653823621768986
Root relative squared error: 65.9446039033665
Weighted TruePositiveRate: 0.8652037617554859
Weighted MatthewsCorrelation: 0.7801129999124841
Weighted FMeasure: 0.863717136186178
Iteration time: 167.0
Weighted AreaUnderPRC: 0.9336020082564302
Mean absolute error: 0.25623921609675687
Coverage of cases: 100.0
Instances selection time: 1.0
Test time: 11.0
Accumulative iteration time: 3779.0
Weighted Recall: 0.8652037617554859
Weighted FalsePositiveRate: 0.09751972824323707
Kappa statistic: 0.7771835428027862
Training time: 166.0
		
Iteration: 34
Labeled set size: 979
Unlabelled set size: 616
	
Mean region size: 92.1839080459772
Incorrectly Classified Instances: 15.862068965517242
Correctly Classified Instances: 84.13793103448276
Weighted Precision: 0.8480229744399252
Weighted AreaUnderROC: 0.9531997020465913
Root mean squared error: 0.3232846615607279
Relative absolute error: 61.082333726166
Root relative squared error: 68.57903293295583
Weighted TruePositiveRate: 0.8413793103448276
Weighted MatthewsCorrelation: 0.738320489006543
Weighted FMeasure: 0.8376991322274318
Iteration time: 142.0
Weighted AreaUnderPRC: 0.9277055363150066
Mean absolute error: 0.27147703878296614
Coverage of cases: 99.9373040752351
Instances selection time: 1.0
Test time: 12.0
Accumulative iteration time: 3921.0
Weighted Recall: 0.8413793103448276
Weighted FalsePositiveRate: 0.13460611154218513
Kappa statistic: 0.7321743828266658
Training time: 141.0
		
Iteration: 35
Labeled set size: 999
Unlabelled set size: 596
	
Mean region size: 96.00835945663532
Incorrectly Classified Instances: 19.435736677115987
Correctly Classified Instances: 80.56426332288402
Weighted Precision: 0.8146617592672176
Weighted AreaUnderROC: 0.9347022093227183
Root mean squared error: 0.3425212827811124
Relative absolute error: 65.94579927395576
Root relative squared error: 72.65973652657105
Weighted TruePositiveRate: 0.8056426332288401
Weighted MatthewsCorrelation: 0.6771933658724576
Weighted FMeasure: 0.8001496033228672
Iteration time: 157.0
Weighted AreaUnderPRC: 0.8971156661374368
Mean absolute error: 0.29309244121758776
Coverage of cases: 100.0
Instances selection time: 1.0
Test time: 12.0
Accumulative iteration time: 4078.0
Weighted Recall: 0.8056426332288401
Weighted FalsePositiveRate: 0.1688013089100953
Kappa statistic: 0.6679288214545718
Training time: 156.0
		
Iteration: 36
Labeled set size: 1019
Unlabelled set size: 576
	
Mean region size: 94.39916405433657
Incorrectly Classified Instances: 18.11912225705329
Correctly Classified Instances: 81.88087774294671
Weighted Precision: 0.8243312563210771
Weighted AreaUnderROC: 0.9391346704079506
Root mean squared error: 0.3359201166279049
Relative absolute error: 63.88811048181355
Root relative squared error: 71.25941772136945
Weighted TruePositiveRate: 0.8188087774294671
Weighted MatthewsCorrelation: 0.700843844462849
Weighted FMeasure: 0.8108687313735733
Iteration time: 158.0
Weighted AreaUnderPRC: 0.9048478978851865
Mean absolute error: 0.28394715769695555
Coverage of cases: 100.0
Instances selection time: 1.0
Test time: 11.0
Accumulative iteration time: 4236.0
Weighted Recall: 0.8188087774294671
Weighted FalsePositiveRate: 0.14986050809283072
Kappa statistic: 0.6932531055332295
Training time: 157.0
		
Iteration: 37
Labeled set size: 1039
Unlabelled set size: 556
	
Mean region size: 98.39080459770118
Incorrectly Classified Instances: 13.730407523510971
Correctly Classified Instances: 86.26959247648902
Weighted Precision: 0.8662763549945612
Weighted AreaUnderROC: 0.9619772349903185
Root mean squared error: 0.31660499659135627
Relative absolute error: 60.47217305081932
Root relative squared error: 67.16206201418677
Weighted TruePositiveRate: 0.8626959247648903
Weighted MatthewsCorrelation: 0.7750615509293599
Weighted FMeasure: 0.859016997045969
Iteration time: 160.0
Weighted AreaUnderPRC: 0.9386571524559228
Mean absolute error: 0.2687652135592031
Coverage of cases: 100.0
Instances selection time: 1.0
Test time: 11.0
Accumulative iteration time: 4396.0
Weighted Recall: 0.8626959247648903
Weighted FalsePositiveRate: 0.1140334901378603
Kappa statistic: 0.7695220537778575
Training time: 159.0
		
Iteration: 38
Labeled set size: 1059
Unlabelled set size: 536
	
Mean region size: 95.0679205851621
Incorrectly Classified Instances: 21.316614420062695
Correctly Classified Instances: 78.68338557993731
Weighted Precision: 0.8021684332453874
Weighted AreaUnderROC: 0.9129451133731891
Root mean squared error: 0.34912750888814337
Relative absolute error: 66.56200454795653
Root relative squared error: 74.061128710071
Weighted TruePositiveRate: 0.786833855799373
Weighted MatthewsCorrelation: 0.6450164759512105
Weighted FMeasure: 0.7775791746650338
Iteration time: 177.0
Weighted AreaUnderPRC: 0.8761176139285579
Mean absolute error: 0.2958311313242579
Coverage of cases: 99.9373040752351
Instances selection time: 1.0
Test time: 12.0
Accumulative iteration time: 4573.0
Weighted Recall: 0.786833855799373
Weighted FalsePositiveRate: 0.19429454600030893
Kappa statistic: 0.6307392704666318
Training time: 176.0
		
Iteration: 39
Labeled set size: 1079
Unlabelled set size: 516
	
Mean region size: 96.21734587251834
Incorrectly Classified Instances: 19.811912225705328
Correctly Classified Instances: 80.18808777429467
Weighted Precision: 0.8208867190827523
Weighted AreaUnderROC: 0.9423802237301185
Root mean squared error: 0.3413946392585756
Relative absolute error: 65.44596592823828
Root relative squared error: 72.42073934414137
Weighted TruePositiveRate: 0.8018808777429467
Weighted MatthewsCorrelation: 0.6773682658979806
Weighted FMeasure: 0.7929703378901456
Iteration time: 166.0
Weighted AreaUnderPRC: 0.9082379873475431
Mean absolute error: 0.29087095968106563
Coverage of cases: 99.87460815047022
Instances selection time: 2.0
Test time: 19.0
Accumulative iteration time: 4739.0
Weighted Recall: 0.8018808777429467
Weighted FalsePositiveRate: 0.18476004096893073
Kappa statistic: 0.6553492595773547
Training time: 164.0
		
Iteration: 40
Labeled set size: 1099
Unlabelled set size: 496
	
Mean region size: 88.33855799373066
Incorrectly Classified Instances: 14.670846394984325
Correctly Classified Instances: 85.32915360501568
Weighted Precision: 0.8532529387415487
Weighted AreaUnderROC: 0.9584919542629734
Root mean squared error: 0.3075724255907371
Relative absolute error: 56.12439738586602
Root relative squared error: 65.24596435236076
Weighted TruePositiveRate: 0.8532915360501567
Weighted MatthewsCorrelation: 0.7576606718510139
Weighted FMeasure: 0.8513571957106199
Iteration time: 194.0
Weighted AreaUnderPRC: 0.9353959978275675
Mean absolute error: 0.2494417661594102
Coverage of cases: 99.87460815047022
Instances selection time: 1.0
Test time: 12.0
Accumulative iteration time: 4933.0
Weighted Recall: 0.8532915360501567
Weighted FalsePositiveRate: 0.1108234053730304
Kappa statistic: 0.7565819337267363
Training time: 193.0
		
Iteration: 41
Labeled set size: 1119
Unlabelled set size: 476
	
Mean region size: 87.94148380355298
Incorrectly Classified Instances: 15.924764890282132
Correctly Classified Instances: 84.07523510971787
Weighted Precision: 0.84506281569699
Weighted AreaUnderROC: 0.9553408114116549
Root mean squared error: 0.3136305779650236
Relative absolute error: 57.27773163870418
Root relative squared error: 66.53109253995656
Weighted TruePositiveRate: 0.8407523510971787
Weighted MatthewsCorrelation: 0.7389941788580188
Weighted FMeasure: 0.8358743365226714
Iteration time: 157.0
Weighted AreaUnderPRC: 0.9279261399568408
Mean absolute error: 0.25456769617202435
Coverage of cases: 99.9373040752351
Instances selection time: 1.0
Test time: 22.0
Accumulative iteration time: 5090.0
Weighted Recall: 0.8407523510971787
Weighted FalsePositiveRate: 0.13385227712250214
Kappa statistic: 0.7307199169421194
Training time: 156.0
		
Iteration: 42
Labeled set size: 1139
Unlabelled set size: 456
	
Mean region size: 90.74190177638465
Incorrectly Classified Instances: 13.855799373040753
Correctly Classified Instances: 86.14420062695925
Weighted Precision: 0.8631339013678396
Weighted AreaUnderROC: 0.9658221351382572
Root mean squared error: 0.3048485814739484
Relative absolute error: 56.22010794901024
Root relative squared error: 64.66814975859786
Weighted TruePositiveRate: 0.8614420062695924
Weighted MatthewsCorrelation: 0.7743553302155676
Weighted FMeasure: 0.8588080407893515
Iteration time: 169.0
Weighted AreaUnderPRC: 0.9443659484523399
Mean absolute error: 0.24986714644005117
Coverage of cases: 99.9373040752351
Instances selection time: 1.0
Test time: 12.0
Accumulative iteration time: 5259.0
Weighted Recall: 0.8614420062695924
Weighted FalsePositiveRate: 0.10633366777523519
Kappa statistic: 0.7692384236240359
Training time: 168.0
		
Iteration: 43
Labeled set size: 1159
Unlabelled set size: 436
	
Mean region size: 90.72100313479642
Incorrectly Classified Instances: 14.545454545454545
Correctly Classified Instances: 85.45454545454545
Weighted Precision: 0.855845205257496
Weighted AreaUnderROC: 0.9614552330787444
Root mean squared error: 0.3100181865815422
Relative absolute error: 57.54059298243287
Root relative squared error: 65.7647886068887
Weighted TruePositiveRate: 0.8545454545454545
Weighted MatthewsCorrelation: 0.7617693995708867
Weighted FMeasure: 0.8516080637402951
Iteration time: 187.0
Weighted AreaUnderPRC: 0.9368487606511972
Mean absolute error: 0.25573596881081856
Coverage of cases: 100.0
Instances selection time: 1.0
Test time: 11.0
Accumulative iteration time: 5446.0
Weighted Recall: 0.8545454545454545
Weighted FalsePositiveRate: 0.11423635221955307
Kappa statistic: 0.7569772818023243
Training time: 186.0
		
Iteration: 44
Labeled set size: 1179
Unlabelled set size: 416
	
Mean region size: 90.09404388714738
Incorrectly Classified Instances: 18.0564263322884
Correctly Classified Instances: 81.9435736677116
Weighted Precision: 0.8240585781578876
Weighted AreaUnderROC: 0.9445315321171005
Root mean squared error: 0.3259269336041357
Relative absolute error: 60.36432262954442
Root relative squared error: 69.13954347684582
Weighted TruePositiveRate: 0.819435736677116
Weighted MatthewsCorrelation: 0.701647082507651
Weighted FMeasure: 0.8150778760069006
Iteration time: 180.0
Weighted AreaUnderPRC: 0.9147759360139449
Mean absolute error: 0.26828587835353684
Coverage of cases: 99.87460815047022
Instances selection time: 1.0
Test time: 12.0
Accumulative iteration time: 5626.0
Weighted Recall: 0.819435736677116
Weighted FalsePositiveRate: 0.15013802301072457
Kappa statistic: 0.6942243712548543
Training time: 179.0
		
Iteration: 45
Labeled set size: 1199
Unlabelled set size: 396
	
Mean region size: 97.4921630094044
Incorrectly Classified Instances: 21.003134796238246
Correctly Classified Instances: 78.99686520376176
Weighted Precision: 0.8080588346373759
Weighted AreaUnderROC: 0.9278911488547166
Root mean squared error: 0.34965159426551906
Relative absolute error: 67.70743256311289
Root relative squared error: 74.17230400734992
Weighted TruePositiveRate: 0.7899686520376176
Weighted MatthewsCorrelation: 0.6506621448238097
Weighted FMeasure: 0.7828685437180071
Iteration time: 214.0
Weighted AreaUnderPRC: 0.8940589526093485
Mean absolute error: 0.3009219225027308
Coverage of cases: 100.0
Instances selection time: 1.0
Test time: 11.0
Accumulative iteration time: 5840.0
Weighted Recall: 0.7899686520376176
Weighted FalsePositiveRate: 0.19377684258262168
Kappa statistic: 0.6359499469927589
Training time: 213.0
		
Iteration: 46
Labeled set size: 1219
Unlabelled set size: 376
	
Mean region size: 91.11807732497402
Incorrectly Classified Instances: 15.423197492163009
Correctly Classified Instances: 84.57680250783699
Weighted Precision: 0.8505269863012618
Weighted AreaUnderROC: 0.9500609194296751
Root mean squared error: 0.32223197677845516
Relative absolute error: 60.231212675368674
Root relative squared error: 68.35572476855675
Weighted TruePositiveRate: 0.8457680250783699
Weighted MatthewsCorrelation: 0.7456119772408122
Weighted FMeasure: 0.8410252400663865
Iteration time: 196.0
Weighted AreaUnderPRC: 0.9210529407024756
Mean absolute error: 0.2676942785572002
Coverage of cases: 99.9373040752351
Instances selection time: 1.0
Test time: 25.0
Accumulative iteration time: 6036.0
Weighted Recall: 0.8457680250783699
Weighted FalsePositiveRate: 0.13035656244418328
Kappa statistic: 0.7398140761798284
Training time: 195.0
		
Time end:Sun Oct 08 09.44.06 EEST 2017