Sun Oct 08 06.33.14 EEST 2017
Dataset: splice
Test set size: 1595
Initial Labelled set size: 319
Initial Unlabelled set size: 1276
Batch mode: QBestBatchMode
Batch size: 20
Classifiers: SMO-1cores
Scenario: PoolBasedSamplingScenario
Query strategy: EntropySamplingQueryStrategy-1cores
Time begining: Sun Oct 08 06.33.14 EEST 2017
		
Iteration: 1
Labeled set size: 319
Unlabelled set size: 1276
	
Mean region size: 66.95924764890167
Incorrectly Classified Instances: 10.532915360501567
Correctly Classified Instances: 89.46708463949844
Weighted Precision: 0.894835337245707
Weighted AreaUnderROC: 0.9337584558281065
Root mean squared error: 0.3156213843160015
Relative absolute error: 55.89341692789967
Root relative squared error: 66.95340634119827
Weighted TruePositiveRate: 0.8946708463949843
Weighted MatthewsCorrelation: 0.8305475068521058
Weighted FMeasure: 0.8947060688622535
Iteration time: 923.0
Weighted AreaUnderPRC: 0.8551207478637924
Mean absolute error: 0.24841518634622642
Coverage of cases: 98.93416927899686
Instances selection time: 148.0
Test time: 184.0
Accumulative iteration time: 923.0
Weighted Recall: 0.8946708463949843
Weighted FalsePositiveRate: 0.0629309792053339
Kappa statistic: 0.8290899210507182
Training time: 775.0
		
Iteration: 2
Labeled set size: 339
Unlabelled set size: 1256
	
Mean region size: 66.93834900731339
Incorrectly Classified Instances: 9.655172413793103
Correctly Classified Instances: 90.34482758620689
Weighted Precision: 0.9033106650783581
Weighted AreaUnderROC: 0.9376243836432321
Root mean squared error: 0.3132582522671868
Relative absolute error: 55.54858934169276
Root relative squared error: 66.45211033223143
Weighted TruePositiveRate: 0.903448275862069
Weighted MatthewsCorrelation: 0.8447505252845053
Weighted FMeasure: 0.9033470368152765
Iteration time: 955.0
Weighted AreaUnderPRC: 0.8640515049498811
Mean absolute error: 0.24688261929641786
Coverage of cases: 98.80877742946709
Instances selection time: 146.0
Test time: 186.0
Accumulative iteration time: 1878.0
Weighted Recall: 0.903448275862069
Weighted FalsePositiveRate: 0.06014771503080005
Kappa statistic: 0.8427548344102075
Training time: 809.0
		
Iteration: 3
Labeled set size: 359
Unlabelled set size: 1236
	
Mean region size: 67.0219435736666
Incorrectly Classified Instances: 9.341692789968652
Correctly Classified Instances: 90.65830721003135
Weighted Precision: 0.9067562551204023
Weighted AreaUnderROC: 0.9419108580609477
Root mean squared error: 0.3116232039610555
Relative absolute error: 55.360501567398096
Root relative squared error: 66.10526420878152
Weighted TruePositiveRate: 0.9065830721003135
Weighted MatthewsCorrelation: 0.8511937853770789
Weighted FMeasure: 0.9066520330187574
Iteration time: 1050.0
Weighted AreaUnderPRC: 0.8694412820823085
Mean absolute error: 0.24604667363288601
Coverage of cases: 98.99686520376176
Instances selection time: 147.0
Test time: 184.0
Accumulative iteration time: 2928.0
Weighted Recall: 0.9065830721003135
Weighted FalsePositiveRate: 0.05439049709343211
Kappa statistic: 0.8483761952125783
Training time: 903.0
		
Iteration: 4
Labeled set size: 379
Unlabelled set size: 1216
	
Mean region size: 67.0010449320783
Incorrectly Classified Instances: 9.905956112852664
Correctly Classified Instances: 90.09404388714734
Weighted Precision: 0.9014342081819037
Weighted AreaUnderROC: 0.9385882709286263
Root mean squared error: 0.31481105850061836
Relative absolute error: 55.79937304075232
Root relative squared error: 66.7815102774899
Weighted TruePositiveRate: 0.9009404388714733
Weighted MatthewsCorrelation: 0.8440561211898294
Weighted FMeasure: 0.9011233415204554
Iteration time: 1153.0
Weighted AreaUnderPRC: 0.8614418776357551
Mean absolute error: 0.24799721351446039
Coverage of cases: 98.68338557993731
Instances selection time: 145.0
Test time: 192.0
Accumulative iteration time: 4081.0
Weighted Recall: 0.9009404388714733
Weighted FalsePositiveRate: 0.05475077984312212
Kappa statistic: 0.8394899038697323
Training time: 1008.0
		
Iteration: 5
Labeled set size: 399
Unlabelled set size: 1196
	
Mean region size: 67.0010449320783
Incorrectly Classified Instances: 8.96551724137931
Correctly Classified Instances: 91.03448275862068
Weighted Precision: 0.9109638915286442
Weighted AreaUnderROC: 0.9459227850147163
Root mean squared error: 0.31012931614395656
Relative absolute error: 55.14106583072098
Root relative squared error: 65.78836274704075
Weighted TruePositiveRate: 0.9103448275862069
Weighted MatthewsCorrelation: 0.8589083000450856
Weighted FMeasure: 0.9105799540797974
Iteration time: 1180.0
Weighted AreaUnderPRC: 0.8747461994590683
Mean absolute error: 0.24507140369209882
Coverage of cases: 99.05956112852665
Instances selection time: 143.0
Test time: 205.0
Accumulative iteration time: 5261.0
Weighted Recall: 0.9103448275862069
Weighted FalsePositiveRate: 0.04891079407395807
Kappa statistic: 0.8548101363321267
Training time: 1037.0
		
Iteration: 6
Labeled set size: 419
Unlabelled set size: 1176
	
Mean region size: 67.06374085684321
Incorrectly Classified Instances: 8.90282131661442
Correctly Classified Instances: 91.09717868338558
Weighted Precision: 0.9110670149603011
Weighted AreaUnderROC: 0.944766546784763
Root mean squared error: 0.3096797445384627
Relative absolute error: 55.10971786833854
Root relative squared error: 65.69299420777867
Weighted TruePositiveRate: 0.9109717868338558
Weighted MatthewsCorrelation: 0.8578423679593721
Weighted FMeasure: 0.9110073923770945
Iteration time: 1292.0
Weighted AreaUnderPRC: 0.8748947348968157
Mean absolute error: 0.24493207941484355
Coverage of cases: 99.18495297805643
Instances selection time: 139.0
Test time: 195.0
Accumulative iteration time: 6553.0
Weighted Recall: 0.9109717868338558
Weighted FalsePositiveRate: 0.05252254550437604
Kappa statistic: 0.8554177335266289
Training time: 1153.0
		
Iteration: 7
Labeled set size: 439
Unlabelled set size: 1156
	
Mean region size: 67.0637408568432
Incorrectly Classified Instances: 8.90282131661442
Correctly Classified Instances: 91.09717868338558
Weighted Precision: 0.911108659135812
Weighted AreaUnderROC: 0.9447728062789978
Root mean squared error: 0.3099046118641393
Relative absolute error: 55.14106583072099
Root relative squared error: 65.74069577103462
Weighted TruePositiveRate: 0.9109717868338558
Weighted MatthewsCorrelation: 0.8581206969852497
Weighted FMeasure: 0.9110166368977287
Iteration time: 1355.0
Weighted AreaUnderPRC: 0.8740521515019207
Mean absolute error: 0.24507140369209884
Coverage of cases: 99.18495297805643
Instances selection time: 138.0
Test time: 196.0
Accumulative iteration time: 7908.0
Weighted Recall: 0.9109717868338558
Weighted FalsePositiveRate: 0.05204622600258688
Kappa statistic: 0.8554586089207356
Training time: 1217.0
		
Iteration: 8
Labeled set size: 459
Unlabelled set size: 1136
	
Mean region size: 67.02194357366662
Incorrectly Classified Instances: 8.96551724137931
Correctly Classified Instances: 91.03448275862068
Weighted Precision: 0.910473432502619
Weighted AreaUnderROC: 0.9442634008791105
Root mean squared error: 0.31005443281167
Relative absolute error: 55.14106583072098
Root relative squared error: 65.77247759342345
Weighted TruePositiveRate: 0.9103448275862069
Weighted MatthewsCorrelation: 0.8572458773437897
Weighted FMeasure: 0.9103497566532703
Iteration time: 1428.0
Weighted AreaUnderPRC: 0.8742895985762273
Mean absolute error: 0.24507140369209882
Coverage of cases: 99.05956112852665
Instances selection time: 138.0
Test time: 199.0
Accumulative iteration time: 9336.0
Weighted Recall: 0.9103448275862069
Weighted FalsePositiveRate: 0.05272135008827131
Kappa statistic: 0.8543583620144695
Training time: 1290.0
		
Iteration: 9
Labeled set size: 479
Unlabelled set size: 1116
	
Mean region size: 67.0219435736666
Incorrectly Classified Instances: 8.96551724137931
Correctly Classified Instances: 91.03448275862068
Weighted Precision: 0.9104204765955666
Weighted AreaUnderROC: 0.9435108887358737
Root mean squared error: 0.3105034619141581
Relative absolute error: 55.20376175548587
Root relative squared error: 65.86773105041928
Weighted TruePositiveRate: 0.9103448275862069
Weighted MatthewsCorrelation: 0.8571789585945345
Weighted FMeasure: 0.9103106582625582
Iteration time: 1434.0
Weighted AreaUnderPRC: 0.8738378435134508
Mean absolute error: 0.2453500522466094
Coverage of cases: 98.93416927899686
Instances selection time: 140.0
Test time: 199.0
Accumulative iteration time: 10770.0
Weighted Recall: 0.9103448275862069
Weighted FalsePositiveRate: 0.05319766959006046
Kappa statistic: 0.8542759189973831
Training time: 1294.0
		
Iteration: 10
Labeled set size: 499
Unlabelled set size: 1096
	
Mean region size: 67.02194357366662
Incorrectly Classified Instances: 9.0282131661442
Correctly Classified Instances: 90.9717868338558
Weighted Precision: 0.9096273732518929
Weighted AreaUnderROC: 0.9424717166315263
Root mean squared error: 0.31117579065930395
Relative absolute error: 55.29780564263321
Root relative squared error: 66.01035351488306
Weighted TruePositiveRate: 0.909717868338558
Weighted MatthewsCorrelation: 0.855721569617999
Weighted FMeasure: 0.9096406363591927
Iteration time: 1566.0
Weighted AreaUnderPRC: 0.8704727422348845
Mean absolute error: 0.2457680250783754
Coverage of cases: 98.99686520376176
Instances selection time: 147.0
Test time: 201.0
Accumulative iteration time: 12336.0
Weighted Recall: 0.909717868338558
Weighted FalsePositiveRate: 0.054825432679323195
Kappa statistic: 0.8530905481088795
Training time: 1419.0
		
Iteration: 11
Labeled set size: 519
Unlabelled set size: 1076
	
Mean region size: 66.9383490073134
Incorrectly Classified Instances: 9.278996865203762
Correctly Classified Instances: 90.72100313479623
Weighted Precision: 0.9071445626564901
Weighted AreaUnderROC: 0.9413719085628345
Root mean squared error: 0.31147413760286746
Relative absolute error: 55.29780564263321
Root relative squared error: 66.07364245896507
Weighted TruePositiveRate: 0.9072100313479624
Weighted MatthewsCorrelation: 0.8512562342081291
Weighted FMeasure: 0.9071593805191048
Iteration time: 1695.0
Weighted AreaUnderPRC: 0.868711911914171
Mean absolute error: 0.2457680250783754
Coverage of cases: 98.99686520376176
Instances selection time: 133.0
Test time: 199.0
Accumulative iteration time: 14031.0
Weighted Recall: 0.9072100313479624
Weighted FalsePositiveRate: 0.056573290018482617
Kappa statistic: 0.8490525016705514
Training time: 1562.0
		
Iteration: 12
Labeled set size: 539
Unlabelled set size: 1056
	
Mean region size: 66.9383490073134
Incorrectly Classified Instances: 9.153605015673982
Correctly Classified Instances: 90.84639498432603
Weighted Precision: 0.9082688401576304
Weighted AreaUnderROC: 0.9417226485414957
Root mean squared error: 0.3112504042056728
Relative absolute error: 55.26645768025077
Root relative squared error: 66.0261814382648
Weighted TruePositiveRate: 0.9084639498432602
Weighted MatthewsCorrelation: 0.8532474234963212
Weighted FMeasure: 0.9083340510553067
Iteration time: 1654.0
Weighted AreaUnderPRC: 0.8691174193985132
Mean absolute error: 0.2456287008011201
Coverage of cases: 98.99686520376176
Instances selection time: 130.0
Test time: 195.0
Accumulative iteration time: 15685.0
Weighted Recall: 0.9084639498432602
Weighted FalsePositiveRate: 0.05665200035248122
Kappa statistic: 0.8509234144408457
Training time: 1524.0
		
Iteration: 13
Labeled set size: 559
Unlabelled set size: 1036
	
Mean region size: 67.04284221525492
Incorrectly Classified Instances: 8.77742946708464
Correctly Classified Instances: 91.22257053291536
Weighted Precision: 0.9119631316969874
Weighted AreaUnderROC: 0.9450494812496819
Root mean squared error: 0.3095297422315083
Relative absolute error: 55.078369905956094
Root relative squared error: 65.66117391324634
Weighted TruePositiveRate: 0.9122257053291536
Weighted MatthewsCorrelation: 0.8603109764388772
Weighted FMeasure: 0.9120598186388643
Iteration time: 1756.0
Weighted AreaUnderPRC: 0.8757529839801135
Mean absolute error: 0.2447927551375882
Coverage of cases: 99.05956112852665
Instances selection time: 129.0
Test time: 197.0
Accumulative iteration time: 17441.0
Weighted Recall: 0.9122257053291536
Weighted FalsePositiveRate: 0.05355389484195295
Kappa statistic: 0.8570092979175737
Training time: 1627.0
		
Iteration: 14
Labeled set size: 579
Unlabelled set size: 1016
	
Mean region size: 67.02194357366662
Incorrectly Classified Instances: 8.77742946708464
Correctly Classified Instances: 91.22257053291536
Weighted Precision: 0.911802209361546
Weighted AreaUnderROC: 0.9442866018928501
Root mean squared error: 0.3098296742226462
Relative absolute error: 55.10971786833853
Root relative squared error: 65.72479909669485
Weighted TruePositiveRate: 0.9122257053291536
Weighted MatthewsCorrelation: 0.8603454136989015
Weighted FMeasure: 0.9118950231476306
Iteration time: 1830.0
Weighted AreaUnderPRC: 0.8746572231601953
Mean absolute error: 0.24493207941484346
Coverage of cases: 98.99686520376176
Instances selection time: 128.0
Test time: 202.0
Accumulative iteration time: 19271.0
Weighted Recall: 0.9122257053291536
Weighted FalsePositiveRate: 0.055459172849109555
Kappa statistic: 0.8566432960357666
Training time: 1702.0
		
Iteration: 15
Labeled set size: 599
Unlabelled set size: 996
	
Mean region size: 67.0010449320783
Incorrectly Classified Instances: 8.526645768025078
Correctly Classified Instances: 91.47335423197492
Weighted Precision: 0.9142723739864195
Weighted AreaUnderROC: 0.9460430124023127
Root mean squared error: 0.30787489335664403
Relative absolute error: 54.827586206896534
Root relative squared error: 65.3101274548697
Weighted TruePositiveRate: 0.9147335423197492
Weighted MatthewsCorrelation: 0.8642104382221548
Weighted FMeasure: 0.9140796471922755
Iteration time: 2075.0
Weighted AreaUnderPRC: 0.8780428571229819
Mean absolute error: 0.24367816091954567
Coverage of cases: 99.24764890282131
Instances selection time: 125.0
Test time: 202.0
Accumulative iteration time: 21346.0
Weighted Recall: 0.9147335423197492
Weighted FalsePositiveRate: 0.057998191026052553
Kappa statistic: 0.8600626273286878
Training time: 1950.0
		
Iteration: 16
Labeled set size: 619
Unlabelled set size: 976
	
Mean region size: 67.06374085684322
Incorrectly Classified Instances: 9.0282131661442
Correctly Classified Instances: 90.9717868338558
Weighted Precision: 0.9092677832503442
Weighted AreaUnderROC: 0.9424321309172191
Root mean squared error: 0.30990461186413926
Relative absolute error: 55.14106583072099
Root relative squared error: 65.74069577103461
Weighted TruePositiveRate: 0.909717868338558
Weighted MatthewsCorrelation: 0.8556581330975996
Weighted FMeasure: 0.9090754898888179
Iteration time: 2075.0
Weighted AreaUnderPRC: 0.872725727540371
Mean absolute error: 0.24507140369209884
Coverage of cases: 99.12225705329153
Instances selection time: 123.0
Test time: 214.0
Accumulative iteration time: 23421.0
Weighted Recall: 0.909717868338558
Weighted FalsePositiveRate: 0.06101758620258222
Kappa statistic: 0.8519156574305223
Training time: 1952.0
		
Iteration: 17
Labeled set size: 639
Unlabelled set size: 956
	
Mean region size: 67.10553814001983
Incorrectly Classified Instances: 9.090909090909092
Correctly Classified Instances: 90.9090909090909
Weighted Precision: 0.9086437083955494
Weighted AreaUnderROC: 0.9438513895827778
Root mean squared error: 0.3093046023722386
Relative absolute error: 55.0783699059561
Root relative squared error: 65.61341453688485
Weighted TruePositiveRate: 0.9090909090909091
Weighted MatthewsCorrelation: 0.8551206026385421
Weighted FMeasure: 0.9085494727272074
Iteration time: 2127.0
Weighted AreaUnderPRC: 0.873441497513251
Mean absolute error: 0.24479275513758822
Coverage of cases: 99.3103448275862
Instances selection time: 118.0
Test time: 202.0
Accumulative iteration time: 25548.0
Weighted Recall: 0.9090909090909091
Weighted FalsePositiveRate: 0.05978743228111004
Kappa statistic: 0.8510999386437105
Training time: 2009.0
		
Iteration: 18
Labeled set size: 659
Unlabelled set size: 936
	
Mean region size: 67.06374085684321
Incorrectly Classified Instances: 9.216300940438872
Correctly Classified Instances: 90.78369905956113
Weighted Precision: 0.907403319548435
Weighted AreaUnderROC: 0.9411755870813044
Root mean squared error: 0.3108024542433409
Relative absolute error: 55.266457680250774
Root relative squared error: 65.93115690146566
Weighted TruePositiveRate: 0.9078369905956113
Weighted MatthewsCorrelation: 0.8524991503929567
Weighted FMeasure: 0.9072892742345332
Iteration time: 2253.0
Weighted AreaUnderPRC: 0.8703119601676723
Mean absolute error: 0.24562870080112012
Coverage of cases: 99.05956112852665
Instances selection time: 117.0
Test time: 201.0
Accumulative iteration time: 27801.0
Weighted Recall: 0.9078369905956113
Weighted FalsePositiveRate: 0.06113768045247889
Kappa statistic: 0.8490461446939687
Training time: 2136.0
		
Iteration: 19
Labeled set size: 679
Unlabelled set size: 916
	
Mean region size: 67.0219435736666
Incorrectly Classified Instances: 9.467084639498433
Correctly Classified Instances: 90.53291536050156
Weighted Precision: 0.9048289562222388
Weighted AreaUnderROC: 0.9377769820300372
Root mean squared error: 0.31296160612842805
Relative absolute error: 55.54858934169277
Root relative squared error: 66.38918218333271
Weighted TruePositiveRate: 0.9053291536050156
Weighted MatthewsCorrelation: 0.8483882213109213
Weighted FMeasure: 0.9047012938207881
Iteration time: 2343.0
Weighted AreaUnderPRC: 0.8660545694599174
Mean absolute error: 0.2468826192964179
Coverage of cases: 98.68338557993731
Instances selection time: 116.0
Test time: 203.0
Accumulative iteration time: 30144.0
Weighted Recall: 0.9053291536050156
Weighted FalsePositiveRate: 0.06383817679521663
Kappa statistic: 0.8447171130000619
Training time: 2227.0
		
Iteration: 20
Labeled set size: 699
Unlabelled set size: 896
	
Mean region size: 67.21003134796129
Incorrectly Classified Instances: 9.780564263322884
Correctly Classified Instances: 90.21943573667711
Weighted Precision: 0.9017736269364447
Weighted AreaUnderROC: 0.9373536860496822
Root mean squared error: 0.3129616061284281
Relative absolute error: 55.642633228840104
Root relative squared error: 66.38918218333272
Weighted TruePositiveRate: 0.9021943573667711
Weighted MatthewsCorrelation: 0.8432934113751721
Weighted FMeasure: 0.901507716203043
Iteration time: 2547.0
Weighted AreaUnderPRC: 0.8640942007670983
Mean absolute error: 0.24730059212818387
Coverage of cases: 98.99686520376176
Instances selection time: 115.0
Test time: 205.0
Accumulative iteration time: 32691.0
Weighted Recall: 0.9021943573667711
Weighted FalsePositiveRate: 0.06626115822006046
Kappa statistic: 0.8394836019358476
Training time: 2432.0
		
Iteration: 21
Labeled set size: 719
Unlabelled set size: 876
	
Mean region size: 67.21003134796129
Incorrectly Classified Instances: 9.341692789968652
Correctly Classified Instances: 90.65830721003135
Weighted Precision: 0.9063190869213661
Weighted AreaUnderROC: 0.9403959829329198
Root mean squared error: 0.31162320396105536
Relative absolute error: 55.454545454545446
Root relative squared error: 66.1052642087815
Weighted TruePositiveRate: 0.9065830721003135
Weighted MatthewsCorrelation: 0.8506670320414398
Weighted FMeasure: 0.9060558825519327
Iteration time: 2504.0
Weighted AreaUnderPRC: 0.868016065538753
Mean absolute error: 0.24646464646465202
Coverage of cases: 99.12225705329153
Instances selection time: 114.0
Test time: 203.0
Accumulative iteration time: 35195.0
Weighted Recall: 0.9065830721003135
Weighted FalsePositiveRate: 0.0620116091220586
Kappa statistic: 0.8469486984634012
Training time: 2390.0
		
Iteration: 22
Labeled set size: 739
Unlabelled set size: 856
	
Mean region size: 67.189132706373
Incorrectly Classified Instances: 9.216300940438872
Correctly Classified Instances: 90.78369905956113
Weighted Precision: 0.9076211757404652
Weighted AreaUnderROC: 0.9416246689691197
Root mean squared error: 0.3108024542433409
Relative absolute error: 55.32915360501566
Root relative squared error: 65.93115690146566
Weighted TruePositiveRate: 0.9078369905956113
Weighted MatthewsCorrelation: 0.8530597105483766
Weighted FMeasure: 0.907260107453041
Iteration time: 2644.0
Weighted AreaUnderPRC: 0.8707385553102278
Mean absolute error: 0.24590734935563074
Coverage of cases: 99.12225705329153
Instances selection time: 108.0
Test time: 206.0
Accumulative iteration time: 37839.0
Weighted Recall: 0.9078369905956113
Weighted FalsePositiveRate: 0.06113768045247889
Kappa statistic: 0.8489599874254107
Training time: 2536.0
		
Iteration: 23
Labeled set size: 759
Unlabelled set size: 836
	
Mean region size: 67.189132706373
Incorrectly Classified Instances: 9.090909090909092
Correctly Classified Instances: 90.9090909090909
Weighted Precision: 0.9089386196509175
Weighted AreaUnderROC: 0.9396186492036384
Root mean squared error: 0.3116977104065817
Relative absolute error: 55.454545454545446
Root relative squared error: 66.12106941264364
Weighted TruePositiveRate: 0.9090909090909091
Weighted MatthewsCorrelation: 0.853730595919557
Weighted FMeasure: 0.9085335389807571
Iteration time: 2772.0
Weighted AreaUnderPRC: 0.8696409619507541
Mean absolute error: 0.24646464646465202
Coverage of cases: 98.93416927899686
Instances selection time: 107.0
Test time: 207.0
Accumulative iteration time: 40611.0
Weighted Recall: 0.9090909090909091
Weighted FalsePositiveRate: 0.06264534929184495
Kappa statistic: 0.850844692096107
Training time: 2665.0
		
Iteration: 24
Labeled set size: 779
Unlabelled set size: 816
	
Mean region size: 67.1264367816081
Incorrectly Classified Instances: 8.652037617554859
Correctly Classified Instances: 91.34796238244515
Weighted Precision: 0.9132243508133743
Weighted AreaUnderROC: 0.944191656174742
Root mean squared error: 0.3092295193264977
Relative absolute error: 55.0783699059561
Root relative squared error: 65.59748701764619
Weighted TruePositiveRate: 0.9134796238244514
Weighted MatthewsCorrelation: 0.8616932510360349
Weighted FMeasure: 0.9129615629516966
Iteration time: 2899.0
Weighted AreaUnderPRC: 0.8760767855717702
Mean absolute error: 0.24479275513758822
Coverage of cases: 99.12225705329153
Instances selection time: 102.0
Test time: 205.0
Accumulative iteration time: 43510.0
Weighted Recall: 0.9134796238244514
Weighted FalsePositiveRate: 0.058395800193843106
Kappa statistic: 0.8581668593344648
Training time: 2797.0
		
Iteration: 25
Labeled set size: 799
Unlabelled set size: 796
	
Mean region size: 67.1264367816081
Incorrectly Classified Instances: 8.338557993730408
Correctly Classified Instances: 91.6614420062696
Weighted Precision: 0.9163822672481196
Weighted AreaUnderROC: 0.9459760094224011
Root mean squared error: 0.3083270966260922
Relative absolute error: 54.952978056426325
Root relative squared error: 65.40605425436016
Weighted TruePositiveRate: 0.9166144200626959
Weighted MatthewsCorrelation: 0.8670488394365722
Weighted FMeasure: 0.9160909319168722
Iteration time: 2901.0
Weighted AreaUnderPRC: 0.8794018607655743
Mean absolute error: 0.24423545802856697
Coverage of cases: 99.12225705329153
Instances selection time: 103.0
Test time: 206.0
Accumulative iteration time: 46411.0
Weighted Recall: 0.9166144200626959
Weighted FalsePositiveRate: 0.056449138270788415
Kappa statistic: 0.8632667096801638
Training time: 2798.0
		
Iteration: 26
Labeled set size: 819
Unlabelled set size: 776
	
Mean region size: 67.1055381400198
Incorrectly Classified Instances: 8.77742946708464
Correctly Classified Instances: 91.22257053291536
Weighted Precision: 0.9125457045198445
Weighted AreaUnderROC: 0.9408698021424129
Root mean squared error: 0.31042866883541087
Relative absolute error: 55.23510971786833
Root relative squared error: 65.85186504246889
Weighted TruePositiveRate: 0.9122257053291536
Weighted MatthewsCorrelation: 0.8592280410509349
Weighted FMeasure: 0.9113749339893626
Iteration time: 2927.0
Weighted AreaUnderPRC: 0.8718967288433676
Mean absolute error: 0.24548937652386482
Coverage of cases: 98.99686520376176
Instances selection time: 100.0
Test time: 206.0
Accumulative iteration time: 49338.0
Weighted Recall: 0.9122257053291536
Weighted FalsePositiveRate: 0.0635566043795252
Kappa statistic: 0.855451105187318
Training time: 2827.0
		
Iteration: 27
Labeled set size: 839
Unlabelled set size: 756
	
Mean region size: 67.1682340647847
Incorrectly Classified Instances: 8.652037617554859
Correctly Classified Instances: 91.34796238244515
Weighted Precision: 0.9137592487709182
Weighted AreaUnderROC: 0.9425781260111724
Root mean squared error: 0.30952974223150825
Relative absolute error: 55.141065830721
Root relative squared error: 65.66117391324633
Weighted TruePositiveRate: 0.9134796238244514
Weighted MatthewsCorrelation: 0.8616059168208783
Weighted FMeasure: 0.9125878632285305
Iteration time: 3210.0
Weighted AreaUnderPRC: 0.8737326481593528
Mean absolute error: 0.2450714036920989
Coverage of cases: 99.18495297805643
Instances selection time: 98.0
Test time: 219.0
Accumulative iteration time: 52548.0
Weighted Recall: 0.9134796238244514
Weighted FalsePositiveRate: 0.0626826757099455
Kappa statistic: 0.8574752179377516
Training time: 3112.0
		
Iteration: 28
Labeled set size: 859
Unlabelled set size: 736
	
Mean region size: 67.1682340647847
Incorrectly Classified Instances: 8.652037617554859
Correctly Classified Instances: 91.34796238244515
Weighted Precision: 0.9137592487709182
Weighted AreaUnderROC: 0.9425781260111724
Root mean squared error: 0.30952974223150825
Relative absolute error: 55.141065830721
Root relative squared error: 65.66117391324633
Weighted TruePositiveRate: 0.9134796238244514
Weighted MatthewsCorrelation: 0.8616059168208783
Weighted FMeasure: 0.9125878632285305
Iteration time: 3107.0
Weighted AreaUnderPRC: 0.8737326481593528
Mean absolute error: 0.2450714036920989
Coverage of cases: 99.18495297805643
Instances selection time: 93.0
Test time: 207.0
Accumulative iteration time: 55655.0
Weighted Recall: 0.9134796238244514
Weighted FalsePositiveRate: 0.0626826757099455
Kappa statistic: 0.8574752179377516
Training time: 3014.0
		
Iteration: 29
Labeled set size: 879
Unlabelled set size: 716
	
Mean region size: 67.1055381400198
Incorrectly Classified Instances: 8.589341692789969
Correctly Classified Instances: 91.41065830721003
Weighted Precision: 0.9143988208278637
Weighted AreaUnderROC: 0.9423887782486516
Root mean squared error: 0.3095297422315082
Relative absolute error: 55.10971786833856
Root relative squared error: 65.66117391324632
Weighted TruePositiveRate: 0.9141065830721004
Weighted MatthewsCorrelation: 0.8624412382121015
Weighted FMeasure: 0.9132028722629684
Iteration time: 3455.0
Weighted AreaUnderPRC: 0.8737926510044389
Mean absolute error: 0.24493207941484357
Coverage of cases: 99.12225705329153
Instances selection time: 98.0
Test time: 208.0
Accumulative iteration time: 59110.0
Weighted Recall: 0.9141065830721004
Weighted FalsePositiveRate: 0.06296019062783938
Kappa statistic: 0.8584267857570926
Training time: 3357.0
		
Iteration: 30
Labeled set size: 899
Unlabelled set size: 696
	
Mean region size: 67.0637408568432
Incorrectly Classified Instances: 8.714733542319749
Correctly Classified Instances: 91.28526645768025
Weighted Precision: 0.9131950265857197
Weighted AreaUnderROC: 0.9414209928936421
Root mean squared error: 0.3096797445384626
Relative absolute error: 55.109717868338564
Root relative squared error: 65.69299420777864
Weighted TruePositiveRate: 0.9128526645768025
Weighted MatthewsCorrelation: 0.8600681221450579
Weighted FMeasure: 0.9118782445135681
Iteration time: 3377.0
Weighted AreaUnderPRC: 0.8726722044348102
Mean absolute error: 0.2449320794148436
Coverage of cases: 99.12225705329153
Instances selection time: 94.0
Test time: 208.0
Accumulative iteration time: 62487.0
Weighted Recall: 0.9128526645768025
Weighted FalsePositiveRate: 0.06478675830099738
Kappa statistic: 0.8562362367295486
Training time: 3283.0
		
Iteration: 31
Labeled set size: 919
Unlabelled set size: 676
	
Mean region size: 66.98014629048997
Incorrectly Classified Instances: 9.090909090909092
Correctly Classified Instances: 90.9090909090909
Weighted Precision: 0.9097783820803899
Weighted AreaUnderROC: 0.938930570651236
Root mean squared error: 0.31065299404992125
Relative absolute error: 55.2037617554859
Root relative squared error: 65.89945160658031
Weighted TruePositiveRate: 0.9090909090909091
Weighted MatthewsCorrelation: 0.8542919851521686
Weighted FMeasure: 0.9078497924166069
Iteration time: 3829.0
Weighted AreaUnderPRC: 0.8685053543964537
Mean absolute error: 0.24535005224660955
Coverage of cases: 99.05956112852665
Instances selection time: 88.0
Test time: 214.0
Accumulative iteration time: 66316.0
Weighted Recall: 0.9090909090909091
Weighted FalsePositiveRate: 0.06931382231689312
Kappa statistic: 0.8495985609845236
Training time: 3741.0
		
Iteration: 32
Labeled set size: 939
Unlabelled set size: 656
	
Mean region size: 66.95924764890168
Incorrectly Classified Instances: 8.589341692789969
Correctly Classified Instances: 91.41065830721003
Weighted Precision: 0.9143161152736221
Weighted AreaUnderROC: 0.9423154631935402
Root mean squared error: 0.30892900465946815
Relative absolute error: 54.95297805642633
Root relative squared error: 65.5337382299754
Weighted TruePositiveRate: 0.9141065830721004
Weighted MatthewsCorrelation: 0.8621603733902862
Weighted FMeasure: 0.9131846491259985
Iteration time: 3758.0
Weighted AreaUnderPRC: 0.8767311355816014
Mean absolute error: 0.244235458028567
Coverage of cases: 98.93416927899686
Instances selection time: 91.0
Test time: 209.0
Accumulative iteration time: 70074.0
Weighted Recall: 0.9141065830721004
Weighted FalsePositiveRate: 0.06343651012962852
Kappa statistic: 0.8583861405516664
Training time: 3667.0
		
Iteration: 33
Labeled set size: 959
Unlabelled set size: 636
	
Mean region size: 66.95924764890168
Incorrectly Classified Instances: 8.589341692789969
Correctly Classified Instances: 91.41065830721003
Weighted Precision: 0.9142195198935807
Weighted AreaUnderROC: 0.9424449849408117
Root mean squared error: 0.3089290046594682
Relative absolute error: 54.95297805642633
Root relative squared error: 65.53373822997541
Weighted TruePositiveRate: 0.9141065830721004
Weighted MatthewsCorrelation: 0.8621181201587622
Weighted FMeasure: 0.9132281560305495
Iteration time: 3770.0
Weighted AreaUnderPRC: 0.8768127614530254
Mean absolute error: 0.244235458028567
Coverage of cases: 98.93416927899686
Instances selection time: 84.0
Test time: 213.0
Accumulative iteration time: 73844.0
Weighted Recall: 0.9141065830721004
Weighted FalsePositiveRate: 0.06296019062783938
Kappa statistic: 0.8584674076377014
Training time: 3686.0
		
Iteration: 34
Labeled set size: 979
Unlabelled set size: 616
	
Mean region size: 66.93834900731339
Incorrectly Classified Instances: 8.90282131661442
Correctly Classified Instances: 91.09717868338558
Weighted Precision: 0.9111581668747953
Weighted AreaUnderROC: 0.9401176924457926
Root mean squared error: 0.3103538577320626
Relative absolute error: 55.141065830721
Root relative squared error: 65.8359952109232
Weighted TruePositiveRate: 0.9109717868338558
Weighted MatthewsCorrelation: 0.8572799398298994
Weighted FMeasure: 0.9099746798754883
Iteration time: 3842.0
Weighted AreaUnderPRC: 0.8717201932334542
Mean absolute error: 0.2450714036920989
Coverage of cases: 98.87147335423198
Instances selection time: 86.0
Test time: 212.0
Accumulative iteration time: 77686.0
Weighted Recall: 0.9109717868338558
Weighted FalsePositiveRate: 0.06585949155447236
Kappa statistic: 0.853091220434519
Training time: 3756.0
		
Iteration: 35
Labeled set size: 999
Unlabelled set size: 596
	
Mean region size: 66.98014629048998
Incorrectly Classified Instances: 9.090909090909092
Correctly Classified Instances: 90.9090909090909
Weighted Precision: 0.9095171305433619
Weighted AreaUnderROC: 0.9383276850591107
Root mean squared error: 0.31132499986982465
Relative absolute error: 55.29780564263323
Root relative squared error: 66.04200556825546
Weighted TruePositiveRate: 0.9090909090909091
Weighted MatthewsCorrelation: 0.8541801093128799
Weighted FMeasure: 0.9079638561767158
Iteration time: 3717.0
Weighted AreaUnderPRC: 0.8684421856261995
Mean absolute error: 0.24576802507837547
Coverage of cases: 98.87147335423198
Instances selection time: 82.0
Test time: 216.0
Accumulative iteration time: 81403.0
Weighted Recall: 0.9090909090909091
Weighted FalsePositiveRate: 0.06883750281510397
Kappa statistic: 0.8496851691533364
Training time: 3635.0
		
Iteration: 36
Labeled set size: 1019
Unlabelled set size: 576
	
Mean region size: 67.0010449320783
Incorrectly Classified Instances: 9.153605015673982
Correctly Classified Instances: 90.84639498432603
Weighted Precision: 0.9093580116861052
Weighted AreaUnderROC: 0.9380917873008826
Root mean squared error: 0.3110265098684343
Relative absolute error: 55.26645768025078
Root relative squared error: 65.97868627702562
Weighted TruePositiveRate: 0.9084639498432602
Weighted MatthewsCorrelation: 0.8530820739644672
Weighted FMeasure: 0.9072096541962048
Iteration time: 3849.0
Weighted AreaUnderPRC: 0.86729396804814
Mean absolute error: 0.24562870080112018
Coverage of cases: 99.05956112852665
Instances selection time: 76.0
Test time: 216.0
Accumulative iteration time: 85252.0
Weighted Recall: 0.9084639498432602
Weighted FalsePositiveRate: 0.07094158540615586
Kappa statistic: 0.8483865969246316
Training time: 3773.0
		
Iteration: 37
Labeled set size: 1039
Unlabelled set size: 556
	
Mean region size: 66.98014629048998
Incorrectly Classified Instances: 9.278996865203762
Correctly Classified Instances: 90.72100313479623
Weighted Precision: 0.9079333190541989
Weighted AreaUnderROC: 0.9375351416115942
Root mean squared error: 0.31110115921785153
Relative absolute error: 55.266457680250774
Root relative squared error: 65.99452179538083
Weighted TruePositiveRate: 0.9072100313479624
Weighted MatthewsCorrelation: 0.8505826827840872
Weighted FMeasure: 0.9060263028293074
Iteration time: 4102.0
Weighted AreaUnderPRC: 0.8669486117038726
Mean absolute error: 0.24562870080112015
Coverage of cases: 99.05956112852665
Instances selection time: 77.0
Test time: 210.0
Accumulative iteration time: 89354.0
Weighted Recall: 0.9072100313479624
Weighted FalsePositiveRate: 0.07133919457394641
Kappa statistic: 0.8464425688312112
Training time: 4025.0
		
Iteration: 38
Labeled set size: 1059
Unlabelled set size: 536
	
Mean region size: 67.04284221525491
Incorrectly Classified Instances: 8.526645768025078
Correctly Classified Instances: 91.47335423197492
Weighted Precision: 0.9151110302124823
Weighted AreaUnderROC: 0.9441253492185013
Root mean squared error: 0.3077240112631144
Relative absolute error: 54.82758620689655
Root relative squared error: 65.27812052942137
Weighted TruePositiveRate: 0.9147335423197492
Weighted MatthewsCorrelation: 0.8637910754713938
Weighted FMeasure: 0.9136221559056841
Iteration time: 4273.0
Weighted AreaUnderPRC: 0.8787118271264305
Mean absolute error: 0.24367816091954572
Coverage of cases: 99.18495297805643
Instances selection time: 75.0
Test time: 215.0
Accumulative iteration time: 93627.0
Weighted Recall: 0.9147335423197492
Weighted FalsePositiveRate: 0.06276138604394409
Kappa statistic: 0.8593794466582522
Training time: 4198.0
		
Iteration: 39
Labeled set size: 1079
Unlabelled set size: 516
	
Mean region size: 66.98014629048998
Incorrectly Classified Instances: 8.213166144200628
Correctly Classified Instances: 91.78683385579937
Weighted Precision: 0.9180961841250689
Weighted AreaUnderROC: 0.9451172021619999
Root mean squared error: 0.30704412431456074
Relative absolute error: 54.70219435736677
Root relative squared error: 65.13389472789262
Weighted TruePositiveRate: 0.9178683385579938
Weighted MatthewsCorrelation: 0.8685944369352138
Weighted FMeasure: 0.9167762095962824
Iteration time: 4383.0
Weighted AreaUnderPRC: 0.8820054609318738
Mean absolute error: 0.24312086381052447
Coverage of cases: 99.05956112852665
Instances selection time: 70.0
Test time: 453.0
Accumulative iteration time: 98010.0
Weighted Recall: 0.9178683385579938
Weighted FalsePositiveRate: 0.060338404619100255
Kappa statistic: 0.8646659153324007
Training time: 4313.0
		
Iteration: 40
Labeled set size: 1099
Unlabelled set size: 496
	
Mean region size: 67.0010449320783
Incorrectly Classified Instances: 8.150470219435737
Correctly Classified Instances: 91.84952978056427
Weighted Precision: 0.9188016474778985
Weighted AreaUnderROC: 0.9451952289434538
Root mean squared error: 0.3069684883670369
Relative absolute error: 54.70219435736677
Root relative squared error: 65.11784992047394
Weighted TruePositiveRate: 0.9184952978056427
Weighted MatthewsCorrelation: 0.8691998170796549
Weighted FMeasure: 0.9174513998679981
Iteration time: 4508.0
Weighted AreaUnderPRC: 0.8819068081180294
Mean absolute error: 0.24312086381052447
Coverage of cases: 99.12225705329153
Instances selection time: 69.0
Test time: 209.0
Accumulative iteration time: 102518.0
Weighted Recall: 0.9184952978056427
Weighted FalsePositiveRate: 0.05966328053341583
Kappa statistic: 0.8658145062705105
Training time: 4439.0
		
Iteration: 41
Labeled set size: 1119
Unlabelled set size: 476
	
Mean region size: 66.98014629048998
Incorrectly Classified Instances: 8.025078369905955
Correctly Classified Instances: 91.97492163009404
Weighted Precision: 0.9199108790965294
Weighted AreaUnderROC: 0.9462979522221848
Root mean squared error: 0.3063627285495569
Relative absolute error: 54.60815047021943
Root relative squared error: 64.98934885806082
Weighted TruePositiveRate: 0.9197492163009404
Weighted MatthewsCorrelation: 0.8712892550218995
Weighted FMeasure: 0.9187747106860097
Iteration time: 4615.0
Weighted AreaUnderPRC: 0.8848480594599969
Mean absolute error: 0.24270289097875852
Coverage of cases: 99.05956112852665
Instances selection time: 65.0
Test time: 208.0
Accumulative iteration time: 107133.0
Weighted Recall: 0.9197492163009404
Weighted FalsePositiveRate: 0.05831303236204696
Kappa statistic: 0.8679546093969802
Training time: 4550.0
		
Iteration: 42
Labeled set size: 1139
Unlabelled set size: 456
	
Mean region size: 66.9592476489017
Incorrectly Classified Instances: 8.150470219435737
Correctly Classified Instances: 91.84952978056427
Weighted Precision: 0.9186693792633699
Weighted AreaUnderROC: 0.9460735649764825
Root mean squared error: 0.30666575802873164
Relative absolute error: 54.639498432601876
Root relative squared error: 65.05363111794799
Weighted TruePositiveRate: 0.9184952978056427
Weighted MatthewsCorrelation: 0.8686764721823861
Weighted FMeasure: 0.9177403981116631
Iteration time: 4634.0
Weighted AreaUnderPRC: 0.8834296132064032
Mean absolute error: 0.24284221525601385
Coverage of cases: 99.12225705329153
Instances selection time: 60.0
Test time: 209.0
Accumulative iteration time: 111767.0
Weighted Recall: 0.9184952978056427
Weighted FalsePositiveRate: 0.05823432202804837
Kappa statistic: 0.8661215540101228
Training time: 4574.0
		
Iteration: 43
Labeled set size: 1159
Unlabelled set size: 436
	
Mean region size: 66.9592476489017
Incorrectly Classified Instances: 8.589341692789969
Correctly Classified Instances: 91.41065830721003
Weighted Precision: 0.9145214054906299
Weighted AreaUnderROC: 0.9434123665009747
Root mean squared error: 0.30825177548251653
Relative absolute error: 54.858934169279
Root relative squared error: 65.39007622694344
Weighted TruePositiveRate: 0.9141065830721004
Weighted MatthewsCorrelation: 0.8619876219425662
Weighted FMeasure: 0.913166327670391
Iteration time: 4842.0
Weighted AreaUnderPRC: 0.8771823845743552
Mean absolute error: 0.24381748519680108
Coverage of cases: 99.12225705329153
Instances selection time: 58.0
Test time: 214.0
Accumulative iteration time: 116609.0
Weighted Recall: 0.9141065830721004
Weighted FalsePositiveRate: 0.061531232122471906
Kappa statistic: 0.858751109390241
Training time: 4784.0
		
Iteration: 44
Labeled set size: 1179
Unlabelled set size: 416
	
Mean region size: 66.87565308254848
Incorrectly Classified Instances: 8.77742946708464
Correctly Classified Instances: 91.22257053291536
Weighted Precision: 0.9125000430612837
Weighted AreaUnderROC: 0.9428763652445323
Root mean squared error: 0.30877863764902225
Relative absolute error: 54.89028213166144
Root relative squared error: 65.50184057014948
Weighted TruePositiveRate: 0.9122257053291536
Weighted MatthewsCorrelation: 0.8592139636729007
Weighted FMeasure: 0.9112889973004026
Iteration time: 5055.0
Weighted AreaUnderPRC: 0.874414816151107
Mean absolute error: 0.2439568094740564
Coverage of cases: 99.12225705329153
Instances selection time: 55.0
Test time: 221.0
Accumulative iteration time: 121664.0
Weighted Recall: 0.9122257053291536
Weighted FalsePositiveRate: 0.06165132637236859
Kappa statistic: 0.8557819614428263
Training time: 5000.0
		
Iteration: 45
Labeled set size: 1199
Unlabelled set size: 396
	
Mean region size: 66.87565308254848
Incorrectly Classified Instances: 8.652037617554859
Correctly Classified Instances: 91.34796238244515
Weighted Precision: 0.9137675477941742
Weighted AreaUnderROC: 0.9438914131347359
Root mean squared error: 0.3083270966260922
Relative absolute error: 54.82758620689655
Root relative squared error: 65.40605425436016
Weighted TruePositiveRate: 0.9134796238244514
Weighted MatthewsCorrelation: 0.8613824282179946
Weighted FMeasure: 0.9125719277023692
Iteration time: 5319.0
Weighted AreaUnderPRC: 0.8762784118756503
Mean absolute error: 0.24367816091954572
Coverage of cases: 99.12225705329153
Instances selection time: 53.0
Test time: 209.0
Accumulative iteration time: 126983.0
Weighted Recall: 0.9134796238244514
Weighted FalsePositiveRate: 0.05982475869921057
Kappa statistic: 0.8580047247894036
Training time: 5266.0
		
Iteration: 46
Labeled set size: 1219
Unlabelled set size: 376
	
Mean region size: 66.85475444096019
Incorrectly Classified Instances: 8.714733542319749
Correctly Classified Instances: 91.28526645768025
Weighted Precision: 0.9132885057187805
Weighted AreaUnderROC: 0.9432979402094567
Root mean squared error: 0.3086281973781441
Relative absolute error: 54.858934169278996
Root relative squared error: 65.46992736943905
Weighted TruePositiveRate: 0.9128526645768025
Weighted MatthewsCorrelation: 0.8606001463934876
Weighted FMeasure: 0.9118205644364415
Iteration time: 5393.0
Weighted AreaUnderPRC: 0.8754336312318882
Mean absolute error: 0.24381748519680105
Coverage of cases: 99.05956112852665
Instances selection time: 52.0
Test time: 214.0
Accumulative iteration time: 132376.0
Weighted Recall: 0.9128526645768025
Weighted FalsePositiveRate: 0.060499882784894994
Kappa statistic: 0.8568939787095058
Training time: 5341.0
		
Time end:Sun Oct 08 06.35.39 EEST 2017