Wed Nov 01 07.33.50 EET 2017
Dataset: segment
Test set size: 1155
Initial Labelled set size: 231
Initial Unlabelled set size: 924
Batch mode: QBestBatchMode
Batch size: 20
Classifiers: J48-1cores
Scenario: PoolBasedSamplingScenario
Query strategy: EntropySamplingQueryStrategy-1cores
Time begining: Wed Nov 01 07.33.50 EET 2017
		
Iteration: 1
Labeled set size: 231
Unlabelled set size: 924
	
Mean region size: 16.111317254174182
Incorrectly Classified Instances: 9.41125541125541
Correctly Classified Instances: 90.58874458874459
Weighted Precision: 0.911011973145419
Weighted AreaUnderROC: 0.9571044208316934
Root mean squared error: 0.15808268351478033
Relative absolute error: 12.564822109583048
Root relative squared error: 45.175889707794184
Weighted TruePositiveRate: 0.905887445887446
Weighted MatthewsCorrelation: 0.8919423027484565
Weighted FMeasure: 0.9058191594572153
Iteration time: 34.1
Weighted AreaUnderPRC: 0.8638903631143213
Mean absolute error: 0.030770992921428007
Coverage of cases: 92.70995670995671
Instances selection time: 4.1
Test time: 5.0
Accumulative iteration time: 34.1
Weighted Recall: 0.905887445887446
Weighted FalsePositiveRate: 0.015685425685425684
Kappa statistic: 0.89020202020202
Training time: 30.0
		
Iteration: 2
Labeled set size: 251
Unlabelled set size: 904
	
Mean region size: 16.017316017315814
Incorrectly Classified Instances: 9.03896103896104
Correctly Classified Instances: 90.96103896103895
Weighted Precision: 0.9147712177583138
Weighted AreaUnderROC: 0.9573134374043466
Root mean squared error: 0.15518812078572886
Relative absolute error: 11.802936713579294
Root relative squared error: 44.34869950775122
Weighted TruePositiveRate: 0.9096103896103896
Weighted MatthewsCorrelation: 0.8961623422762717
Weighted FMeasure: 0.90914426107708
Iteration time: 20.7
Weighted AreaUnderPRC: 0.8675268211540548
Mean absolute error: 0.028905151135296347
Coverage of cases: 92.94372294372293
Instances selection time: 2.2
Test time: 4.7
Accumulative iteration time: 54.8
Weighted Recall: 0.9096103896103896
Weighted FalsePositiveRate: 0.015064935064935068
Kappa statistic: 0.8945454545454545
Training time: 18.5
		
Iteration: 3
Labeled set size: 271
Unlabelled set size: 884
	
Mean region size: 15.226963512677608
Incorrectly Classified Instances: 9.61038961038961
Correctly Classified Instances: 90.38961038961041
Weighted Precision: 0.9076772816889477
Weighted AreaUnderROC: 0.9512743889107526
Root mean squared error: 0.16125283061688686
Relative absolute error: 12.168934618850155
Root relative squared error: 46.08183470226196
Weighted TruePositiveRate: 0.9038961038961038
Weighted MatthewsCorrelation: 0.8890827984649142
Weighted FMeasure: 0.9036062708808312
Iteration time: 21.8
Weighted AreaUnderPRC: 0.8522750166316466
Mean absolute error: 0.0298014725359597
Coverage of cases: 91.54112554112554
Instances selection time: 2.0
Test time: 4.2
Accumulative iteration time: 76.6
Weighted Recall: 0.9038961038961038
Weighted FalsePositiveRate: 0.016017316017316017
Kappa statistic: 0.8878787878787877
Training time: 19.8
		
Iteration: 4
Labeled set size: 291
Unlabelled set size: 864
	
Mean region size: 15.371675943104313
Incorrectly Classified Instances: 8.917748917748918
Correctly Classified Instances: 91.08225108225108
Weighted Precision: 0.9145038315423543
Weighted AreaUnderROC: 0.9565179500634045
Root mean squared error: 0.15503156640498225
Relative absolute error: 11.391507138577335
Root relative squared error: 44.303960366938114
Weighted TruePositiveRate: 0.910822510822511
Weighted MatthewsCorrelation: 0.8971014053061351
Weighted FMeasure: 0.9104418901022427
Iteration time: 25.2
Weighted AreaUnderPRC: 0.8639990404370174
Mean absolute error: 0.02789756850263849
Coverage of cases: 92.34632034632035
Instances selection time: 1.5
Test time: 4.3
Accumulative iteration time: 101.8
Weighted Recall: 0.910822510822511
Weighted FalsePositiveRate: 0.014862914862914864
Kappa statistic: 0.8959595959595958
Training time: 23.7
		
Iteration: 5
Labeled set size: 311
Unlabelled set size: 844
	
Mean region size: 15.393939393939203
Incorrectly Classified Instances: 9.021645021645021
Correctly Classified Instances: 90.97835497835499
Weighted Precision: 0.9127484458906558
Weighted AreaUnderROC: 0.9561069570160481
Root mean squared error: 0.15645447080645072
Relative absolute error: 11.52603248286194
Root relative squared error: 44.710589169513206
Weighted TruePositiveRate: 0.9097835497835499
Weighted MatthewsCorrelation: 0.8956275721199063
Weighted FMeasure: 0.9093435396505732
Iteration time: 25.9
Weighted AreaUnderPRC: 0.8624823994895058
Mean absolute error: 0.028227018325376302
Coverage of cases: 91.83549783549783
Instances selection time: 1.6
Test time: 4.5
Accumulative iteration time: 127.7
Weighted Recall: 0.9097835497835499
Weighted FalsePositiveRate: 0.015036075036075033
Kappa statistic: 0.8947474747474748
Training time: 24.3
		
Iteration: 6
Labeled set size: 331
Unlabelled set size: 824
	
Mean region size: 15.346938775510006
Incorrectly Classified Instances: 8.7012987012987
Correctly Classified Instances: 91.29870129870129
Weighted Precision: 0.9166098669323167
Weighted AreaUnderROC: 0.9583347763347764
Root mean squared error: 0.15252279869990143
Relative absolute error: 11.054249537113131
Root relative squared error: 43.58702027819897
Weighted TruePositiveRate: 0.9129870129870131
Weighted MatthewsCorrelation: 0.8996208427792396
Weighted FMeasure: 0.912632692152051
Iteration time: 27.4
Weighted AreaUnderPRC: 0.871011693816849
Mean absolute error: 0.027071631519460848
Coverage of cases: 92.5021645021645
Instances selection time: 2.2
Test time: 4.0
Accumulative iteration time: 155.1
Weighted Recall: 0.9129870129870131
Weighted FalsePositiveRate: 0.014502164502164502
Kappa statistic: 0.8984848484848487
Training time: 25.2
		
Iteration: 7
Labeled set size: 351
Unlabelled set size: 804
	
Mean region size: 15.4174397031538
Incorrectly Classified Instances: 8.424242424242426
Correctly Classified Instances: 91.57575757575758
Weighted Precision: 0.9184965442951984
Weighted AreaUnderROC: 0.9591853163671346
Root mean squared error: 0.15111096823090514
Relative absolute error: 10.774948532146164
Root relative squared error: 43.18355611542421
Weighted TruePositiveRate: 0.9157575757575757
Weighted MatthewsCorrelation: 0.902588992303115
Weighted FMeasure: 0.9155584264343244
Iteration time: 30.4
Weighted AreaUnderPRC: 0.873462615307053
Mean absolute error: 0.026387629058317246
Coverage of cases: 92.91774891774892
Instances selection time: 1.5
Test time: 4.6
Accumulative iteration time: 185.5
Weighted Recall: 0.9157575757575757
Weighted FalsePositiveRate: 0.014040404040404042
Kappa statistic: 0.9017171717171717
Training time: 28.9
		
Iteration: 8
Labeled set size: 371
Unlabelled set size: 784
	
Mean region size: 15.205936920222442
Incorrectly Classified Instances: 8.008658008658008
Correctly Classified Instances: 91.99134199134198
Weighted Precision: 0.9223794958377566
Weighted AreaUnderROC: 0.9612514757969304
Root mean squared error: 0.14725770674677355
Relative absolute error: 10.243744552514286
Root relative squared error: 42.08239492589932
Weighted TruePositiveRate: 0.9199134199134198
Weighted MatthewsCorrelation: 0.9073858201610576
Weighted FMeasure: 0.9198249207123075
Iteration time: 33.0
Weighted AreaUnderPRC: 0.8783743629198634
Mean absolute error: 0.02508672135309632
Coverage of cases: 93.16883116883116
Instances selection time: 1.8
Test time: 4.2
Accumulative iteration time: 218.5
Weighted Recall: 0.9199134199134198
Weighted FalsePositiveRate: 0.013347763347763348
Kappa statistic: 0.9065656565656566
Training time: 31.2
		
Iteration: 9
Labeled set size: 391
Unlabelled set size: 764
	
Mean region size: 14.949907235621328
Incorrectly Classified Instances: 7.5238095238095255
Correctly Classified Instances: 92.47619047619047
Weighted Precision: 0.926355850868441
Weighted AreaUnderROC: 0.963054834054834
Root mean squared error: 0.14172628269895665
Relative absolute error: 9.487536179214457
Root relative squared error: 40.501658837952974
Weighted TruePositiveRate: 0.9247619047619047
Weighted MatthewsCorrelation: 0.9126766155025624
Weighted FMeasure: 0.9244291773422375
Iteration time: 39.0
Weighted AreaUnderPRC: 0.8853214833448682
Mean absolute error: 0.02323478247970898
Coverage of cases: 93.35064935064936
Instances selection time: 1.9
Test time: 4.8
Accumulative iteration time: 257.5
Weighted Recall: 0.9247619047619047
Weighted FalsePositiveRate: 0.01253968253968254
Kappa statistic: 0.912222222222222
Training time: 37.1
		
Iteration: 10
Labeled set size: 411
Unlabelled set size: 744
	
Mean region size: 14.90290661719214
Incorrectly Classified Instances: 7.4112554112554125
Correctly Classified Instances: 92.58874458874458
Weighted Precision: 0.9274097567164812
Weighted AreaUnderROC: 0.9649344964799511
Root mean squared error: 0.1415332736392182
Relative absolute error: 9.514056999566522
Root relative squared error: 40.446501904875376
Weighted TruePositiveRate: 0.9258874458874459
Weighted MatthewsCorrelation: 0.9140150325705779
Weighted FMeasure: 0.9257427022432856
Iteration time: 38.7
Weighted AreaUnderPRC: 0.887407802304276
Mean absolute error: 0.023299731427509948
Coverage of cases: 93.44588744588745
Instances selection time: 1.9
Test time: 5.1
Accumulative iteration time: 296.2
Weighted Recall: 0.9258874458874459
Weighted FalsePositiveRate: 0.012352092352092352
Kappa statistic: 0.9135353535353536
Training time: 36.8
		
Iteration: 11
Labeled set size: 431
Unlabelled set size: 724
	
Mean region size: 14.794063079777171
Incorrectly Classified Instances: 7.108225108225108
Correctly Classified Instances: 92.8917748917749
Weighted Precision: 0.9302441143285499
Weighted AreaUnderROC: 0.9657257859985133
Root mean squared error: 0.13864799049711513
Relative absolute error: 8.855991780635103
Root relative squared error: 39.62196356768793
Weighted TruePositiveRate: 0.928917748917749
Weighted MatthewsCorrelation: 0.9174736334250744
Weighted FMeasure: 0.9287525424260444
Iteration time: 40.0
Weighted AreaUnderPRC: 0.8903846507662969
Mean absolute error: 0.021688143136249317
Coverage of cases: 93.67965367965368
Instances selection time: 2.0
Test time: 5.2
Accumulative iteration time: 336.2
Weighted Recall: 0.928917748917749
Weighted FalsePositiveRate: 0.011847041847041847
Kappa statistic: 0.917070707070707
Training time: 38.0
		
Iteration: 12
Labeled set size: 451
Unlabelled set size: 704
	
Mean region size: 14.909090909090718
Incorrectly Classified Instances: 6.865800865800866
Correctly Classified Instances: 93.13419913419912
Weighted Precision: 0.9320571016111818
Weighted AreaUnderROC: 0.9674066640430276
Root mean squared error: 0.13594128017197557
Relative absolute error: 8.556623298244222
Root relative squared error: 38.84845666357457
Weighted TruePositiveRate: 0.9313419913419914
Weighted MatthewsCorrelation: 0.9200512733557883
Weighted FMeasure: 0.9310260123962839
Iteration time: 41.0
Weighted AreaUnderPRC: 0.8953844843562953
Mean absolute error: 0.020954995832434924
Coverage of cases: 94.10389610389609
Instances selection time: 2.1
Test time: 4.6
Accumulative iteration time: 377.2
Weighted Recall: 0.9313419913419914
Weighted FalsePositiveRate: 0.011443001443001444
Kappa statistic: 0.91989898989899
Training time: 38.9
		
Iteration: 13
Labeled set size: 471
Unlabelled set size: 684
	
Mean region size: 14.822510822510628
Incorrectly Classified Instances: 6.787878787878787
Correctly Classified Instances: 93.21212121212122
Weighted Precision: 0.9323247235698646
Weighted AreaUnderROC: 0.9665550745550744
Root mean squared error: 0.13570201947235486
Relative absolute error: 8.297749556610153
Root relative squared error: 38.78008222345782
Weighted TruePositiveRate: 0.9321212121212122
Weighted MatthewsCorrelation: 0.9207631626872068
Weighted FMeasure: 0.9317271056942953
Iteration time: 41.9
Weighted AreaUnderPRC: 0.8957473375719569
Mean absolute error: 0.020321019322310667
Coverage of cases: 94.07792207792208
Instances selection time: 1.8
Test time: 5.0
Accumulative iteration time: 419.1
Weighted Recall: 0.9321212121212122
Weighted FalsePositiveRate: 0.011313131313131315
Kappa statistic: 0.9208080808080809
Training time: 40.1
		
Iteration: 14
Labeled set size: 491
Unlabelled set size: 664
	
Mean region size: 14.791589363017739
Incorrectly Classified Instances: 6.64069264069264
Correctly Classified Instances: 93.35930735930735
Weighted Precision: 0.9344017676510654
Weighted AreaUnderROC: 0.967692465783375
Root mean squared error: 0.13402822733439884
Relative absolute error: 8.195542863555907
Root relative squared error: 38.30175627821915
Weighted TruePositiveRate: 0.9335930735930736
Weighted MatthewsCorrelation: 0.9226999249981374
Weighted FMeasure: 0.9332592986617915
Iteration time: 39.2
Weighted AreaUnderPRC: 0.8981125251611243
Mean absolute error: 0.020070717216871696
Coverage of cases: 94.27705627705629
Instances selection time: 1.7
Test time: 4.1
Accumulative iteration time: 458.3
Weighted Recall: 0.9335930735930736
Weighted FalsePositiveRate: 0.01106782106782107
Kappa statistic: 0.9225252525252523
Training time: 37.5
		
Iteration: 15
Labeled set size: 511
Unlabelled set size: 644
	
Mean region size: 15.01051329622739
Incorrectly Classified Instances: 6.727272727272727
Correctly Classified Instances: 93.27272727272728
Weighted Precision: 0.9333596817328358
Weighted AreaUnderROC: 0.9667563951200316
Root mean squared error: 0.13526030060112743
Relative absolute error: 8.388518155398614
Root relative squared error: 38.65385054162686
Weighted TruePositiveRate: 0.9327272727272728
Weighted MatthewsCorrelation: 0.9216654344981734
Weighted FMeasure: 0.9325008938610327
Iteration time: 40.9
Weighted AreaUnderPRC: 0.8964319085475916
Mean absolute error: 0.020543309768323227
Coverage of cases: 94.22510822510822
Instances selection time: 1.9
Test time: 4.5
Accumulative iteration time: 499.2
Weighted Recall: 0.9327272727272728
Weighted FalsePositiveRate: 0.011212121212121211
Kappa statistic: 0.9215151515151515
Training time: 39.0
		
Iteration: 16
Labeled set size: 531
Unlabelled set size: 624
	
Mean region size: 15.020408163265111
Incorrectly Classified Instances: 6.987012987012987
Correctly Classified Instances: 93.01298701298701
Weighted Precision: 0.9309673536216898
Weighted AreaUnderROC: 0.9678023525296252
Root mean squared error: 0.13643478686812488
Relative absolute error: 8.63205768831003
Root relative squared error: 38.98948794909937
Weighted TruePositiveRate: 0.93012987012987
Weighted MatthewsCorrelation: 0.9186933511918525
Weighted FMeasure: 0.929868621251358
Iteration time: 43.1
Weighted AreaUnderPRC: 0.8983859327615121
Mean absolute error: 0.02113973311422873
Coverage of cases: 94.3030303030303
Instances selection time: 1.9
Test time: 4.2
Accumulative iteration time: 542.3
Weighted Recall: 0.93012987012987
Weighted FalsePositiveRate: 0.011645021645021644
Kappa statistic: 0.9184848484848486
Training time: 41.2
		
Iteration: 17
Labeled set size: 551
Unlabelled set size: 604
	
Mean region size: 15.020408163265117
Incorrectly Classified Instances: 6.432900432900432
Correctly Classified Instances: 93.56709956709958
Weighted Precision: 0.9364468665809536
Weighted AreaUnderROC: 0.9699798854344308
Root mean squared error: 0.13091195815676626
Relative absolute error: 8.22691860001794
Root relative squared error: 37.411208183143536
Weighted TruePositiveRate: 0.9356709956709957
Weighted MatthewsCorrelation: 0.9251651101212396
Weighted FMeasure: 0.9354977047935875
Iteration time: 43.6
Weighted AreaUnderPRC: 0.9054810972959562
Mean absolute error: 0.020147555755146058
Coverage of cases: 94.75324675324677
Instances selection time: 1.0
Test time: 5.2
Accumulative iteration time: 585.9
Weighted Recall: 0.9356709956709957
Weighted FalsePositiveRate: 0.010721500721500722
Kappa statistic: 0.9249494949494949
Training time: 42.6
		
Iteration: 18
Labeled set size: 571
Unlabelled set size: 584
	
Mean region size: 14.923933209647306
Incorrectly Classified Instances: 6.103896103896104
Correctly Classified Instances: 93.8961038961039
Weighted Precision: 0.9397810144937054
Weighted AreaUnderROC: 0.9701392715029078
Root mean squared error: 0.12866652913380944
Relative absolute error: 7.6593712589138985
Root relative squared error: 36.7695233911575
Weighted TruePositiveRate: 0.938961038961039
Weighted MatthewsCorrelation: 0.9290269199729367
Weighted FMeasure: 0.9388238445343919
Iteration time: 43.0
Weighted AreaUnderPRC: 0.9047190802939614
Mean absolute error: 0.018757643899381057
Coverage of cases: 94.70995670995671
Instances selection time: 1.5
Test time: 4.6
Accumulative iteration time: 628.9
Weighted Recall: 0.938961038961039
Weighted FalsePositiveRate: 0.010173160173160174
Kappa statistic: 0.9287878787878785
Training time: 41.5
		
Iteration: 19
Labeled set size: 591
Unlabelled set size: 564
	
Mean region size: 14.941249226963322
Incorrectly Classified Instances: 6.06926406926407
Correctly Classified Instances: 93.93073593073593
Weighted Precision: 0.9405726983850604
Weighted AreaUnderROC: 0.9705385019021382
Root mean squared error: 0.12862856543938606
Relative absolute error: 7.690527589346994
Root relative squared error: 36.75867436181386
Weighted TruePositiveRate: 0.9393073593073593
Weighted MatthewsCorrelation: 0.9296289840813952
Weighted FMeasure: 0.9393221171285419
Iteration time: 45.5
Weighted AreaUnderPRC: 0.9056419398043605
Mean absolute error: 0.01883394511676823
Coverage of cases: 94.75324675324674
Instances selection time: 0.8
Test time: 5.0
Accumulative iteration time: 674.4
Weighted Recall: 0.9393073593073593
Weighted FalsePositiveRate: 0.010115440115440114
Kappa statistic: 0.929191919191919
Training time: 44.7
		
Iteration: 20
Labeled set size: 611
Unlabelled set size: 544
	
Mean region size: 14.911564625850152
Incorrectly Classified Instances: 5.974025974025975
Correctly Classified Instances: 94.02597402597402
Weighted Precision: 0.9413726925561132
Weighted AreaUnderROC: 0.9740147798329616
Root mean squared error: 0.12599048353552872
Relative absolute error: 7.546891023869461
Root relative squared error: 36.00477966266648
Weighted TruePositiveRate: 0.9402597402597402
Weighted MatthewsCorrelation: 0.93065944021959
Weighted FMeasure: 0.9401766605846007
Iteration time: 45.2
Weighted AreaUnderPRC: 0.9141339791073481
Mean absolute error: 0.018482182099272233
Coverage of cases: 95.09956709956711
Instances selection time: 1.0
Test time: 4.7
Accumulative iteration time: 719.6
Weighted Recall: 0.9402597402597402
Weighted FalsePositiveRate: 0.009956709956709955
Kappa statistic: 0.9303030303030303
Training time: 44.2
		
Iteration: 21
Labeled set size: 631
Unlabelled set size: 524
	
Mean region size: 14.865800865800674
Incorrectly Classified Instances: 6.000000000000001
Correctly Classified Instances: 93.99999999999999
Weighted Precision: 0.9409396520442034
Weighted AreaUnderROC: 0.9720976430976431
Root mean squared error: 0.12740969596492302
Relative absolute error: 7.597449692342815
Root relative squared error: 36.41035339634018
Weighted TruePositiveRate: 0.9400000000000001
Weighted MatthewsCorrelation: 0.930305775035243
Weighted FMeasure: 0.9399483705028933
Iteration time: 47.1
Weighted AreaUnderPRC: 0.9090079577216443
Mean absolute error: 0.01860599924655391
Coverage of cases: 94.85714285714286
Instances selection time: 1.3
Test time: 4.8
Accumulative iteration time: 766.7
Weighted Recall: 0.9400000000000001
Weighted FalsePositiveRate: 0.009999999999999998
Kappa statistic: 0.9299999999999999
Training time: 45.8
		
Iteration: 22
Labeled set size: 651
Unlabelled set size: 504
	
Mean region size: 14.923933209647306
Incorrectly Classified Instances: 5.835497835497835
Correctly Classified Instances: 94.16450216450218
Weighted Precision: 0.942402123226171
Weighted AreaUnderROC: 0.9732431676068041
Root mean squared error: 0.12557958235026243
Relative absolute error: 7.416547480149229
Root relative squared error: 35.887354868162305
Weighted TruePositiveRate: 0.9416450216450217
Weighted MatthewsCorrelation: 0.9321655040667863
Weighted FMeasure: 0.9416047438836731
Iteration time: 47.3
Weighted AreaUnderPRC: 0.9131855149292614
Mean absolute error: 0.0181629734207737
Coverage of cases: 95.05627705627707
Instances selection time: 1.3
Test time: 4.7
Accumulative iteration time: 814.0
Weighted Recall: 0.9416450216450217
Weighted FalsePositiveRate: 0.009725829725829726
Kappa statistic: 0.9319191919191917
Training time: 46.0
		
Iteration: 23
Labeled set size: 671
Unlabelled set size: 484
	
Mean region size: 15.115646258503205
Incorrectly Classified Instances: 5.696969696969697
Correctly Classified Instances: 94.30303030303031
Weighted Precision: 0.9435825121761798
Weighted AreaUnderROC: 0.9742667803576894
Root mean squared error: 0.12447466699483409
Relative absolute error: 7.387974725626253
Root relative squared error: 35.57159900468968
Weighted TruePositiveRate: 0.9430303030303031
Weighted MatthewsCorrelation: 0.9336909131569359
Weighted FMeasure: 0.9429170532805025
Iteration time: 48.1
Weighted AreaUnderPRC: 0.9150298891670863
Mean absolute error: 0.01809299932806437
Coverage of cases: 95.2121212121212
Instances selection time: 1.2
Test time: 4.5
Accumulative iteration time: 862.1
Weighted Recall: 0.9430303030303031
Weighted FalsePositiveRate: 0.009494949494949495
Kappa statistic: 0.9335353535353533
Training time: 46.9
		
Iteration: 24
Labeled set size: 691
Unlabelled set size: 464
	
Mean region size: 15.016697588125968
Incorrectly Classified Instances: 5.818181818181818
Correctly Classified Instances: 94.18181818181819
Weighted Precision: 0.9425176493748129
Weighted AreaUnderROC: 0.9740884166338712
Root mean squared error: 0.12479370843871795
Relative absolute error: 7.434997227749866
Root relative squared error: 35.66277269152657
Weighted TruePositiveRate: 0.9418181818181818
Weighted MatthewsCorrelation: 0.932333923598837
Weighted FMeasure: 0.9417250646073443
Iteration time: 53.4
Weighted AreaUnderPRC: 0.9137587850634041
Mean absolute error: 0.0182081564761222
Coverage of cases: 95.1082251082251
Instances selection time: 7.5
Test time: 4.3
Accumulative iteration time: 915.5
Weighted Recall: 0.9418181818181818
Weighted FalsePositiveRate: 0.009696969696969697
Kappa statistic: 0.932121212121212
Training time: 45.9
		
Iteration: 25
Labeled set size: 711
Unlabelled set size: 444
	
Mean region size: 14.974644403215644
Incorrectly Classified Instances: 5.480519480519481
Correctly Classified Instances: 94.51948051948052
Weighted Precision: 0.9458235164353284
Weighted AreaUnderROC: 0.9746281866281865
Root mean squared error: 0.12192499810677355
Relative absolute error: 7.013753971321583
Root relative squared error: 34.84297042932995
Weighted TruePositiveRate: 0.9451948051948051
Weighted MatthewsCorrelation: 0.9362609144678642
Weighted FMeasure: 0.9451455279478054
Iteration time: 47.1
Weighted AreaUnderPRC: 0.9163524825904871
Mean absolute error: 0.01717654033793048
Coverage of cases: 95.30735930735929
Instances selection time: 0.9
Test time: 4.6
Accumulative iteration time: 962.6
Weighted Recall: 0.9451948051948051
Weighted FalsePositiveRate: 0.009134199134199134
Kappa statistic: 0.9360606060606059
Training time: 46.2
		
Iteration: 26
Labeled set size: 731
Unlabelled set size: 424
	
Mean region size: 14.94495980210247
Incorrectly Classified Instances: 5.367965367965368
Correctly Classified Instances: 94.63203463203462
Weighted Precision: 0.946974592525428
Weighted AreaUnderROC: 0.9749295115658752
Root mean squared error: 0.12065593827021212
Relative absolute error: 6.903955636959606
Root relative squared error: 34.480306373189165
Weighted TruePositiveRate: 0.9463203463203461
Weighted MatthewsCorrelation: 0.9375927147078975
Weighted FMeasure: 0.9463049332849254
Iteration time: 52.7
Weighted AreaUnderPRC: 0.9181540324913213
Mean absolute error: 0.01690764645786033
Coverage of cases: 95.44588744588745
Instances selection time: 0.9
Test time: 5.1
Accumulative iteration time: 1015.3
Weighted Recall: 0.9463203463203461
Weighted FalsePositiveRate: 0.008946608946608946
Kappa statistic: 0.9373737373737372
Training time: 51.8
		
Iteration: 27
Labeled set size: 751
Unlabelled set size: 404
	
Mean region size: 14.864564007420961
Incorrectly Classified Instances: 5.567099567099567
Correctly Classified Instances: 94.43290043290042
Weighted Precision: 0.9447536578107487
Weighted AreaUnderROC: 0.974428352791989
Root mean squared error: 0.12210671880143664
Relative absolute error: 7.0165586052291875
Root relative squared error: 34.894901443386644
Weighted TruePositiveRate: 0.9443290043290042
Weighted MatthewsCorrelation: 0.9351667986817525
Weighted FMeasure: 0.9442292029033525
Iteration time: 54.3
Weighted AreaUnderPRC: 0.916873007961035
Mean absolute error: 0.017183408829132774
Coverage of cases: 95.37662337662337
Instances selection time: 0.8
Test time: 4.4
Accumulative iteration time: 1069.6
Weighted Recall: 0.9443290043290042
Weighted FalsePositiveRate: 0.009278499278499278
Kappa statistic: 0.9350505050505049
Training time: 53.5
		
Iteration: 28
Labeled set size: 771
Unlabelled set size: 384
	
Mean region size: 14.785405071119168
Incorrectly Classified Instances: 5.4978354978354975
Correctly Classified Instances: 94.5021645021645
Weighted Precision: 0.9456241795065123
Weighted AreaUnderROC: 0.9738715291442563
Root mean squared error: 0.12209825987928072
Relative absolute error: 6.937467323250185
Root relative squared error: 34.8924841050301
Weighted TruePositiveRate: 0.945021645021645
Weighted MatthewsCorrelation: 0.9360601743250043
Weighted FMeasure: 0.9450061093256628
Iteration time: 48.7
Weighted AreaUnderPRC: 0.9156171311246781
Mean absolute error: 0.01698971589367399
Coverage of cases: 95.24675324675326
Instances selection time: 0.9
Test time: 4.4
Accumulative iteration time: 1118.3
Weighted Recall: 0.945021645021645
Weighted FalsePositiveRate: 0.009163059163059165
Kappa statistic: 0.935858585858586
Training time: 47.8
		
Iteration: 29
Labeled set size: 791
Unlabelled set size: 364
	
Mean region size: 14.891774891774702
Incorrectly Classified Instances: 5.411255411255411
Correctly Classified Instances: 94.58874458874458
Weighted Precision: 0.9465602976498113
Weighted AreaUnderROC: 0.97508041453496
Root mean squared error: 0.12073846184303234
Relative absolute error: 6.920526601056999
Root relative squared error: 34.50388944845794
Weighted TruePositiveRate: 0.9458874458874458
Weighted MatthewsCorrelation: 0.9371025029904473
Weighted FMeasure: 0.9458992000598248
Iteration time: 51.1
Weighted AreaUnderPRC: 0.9193121962234765
Mean absolute error: 0.016948228410751904
Coverage of cases: 95.41991341991343
Instances selection time: 1.3
Test time: 4.6
Accumulative iteration time: 1169.4
Weighted Recall: 0.9458874458874458
Weighted FalsePositiveRate: 0.00901875901875902
Kappa statistic: 0.9368686868686869
Training time: 49.8
		
Iteration: 30
Labeled set size: 811
Unlabelled set size: 344
	
Mean region size: 14.876932591218116
Incorrectly Classified Instances: 5.316017316017316
Correctly Classified Instances: 94.68398268398269
Weighted Precision: 0.9472078565329471
Weighted AreaUnderROC: 0.9758221172766627
Root mean squared error: 0.11938573133115929
Relative absolute error: 6.778449990163482
Root relative squared error: 34.11731450520661
Weighted TruePositiveRate: 0.9468398268398268
Weighted MatthewsCorrelation: 0.9380772408492639
Weighted FMeasure: 0.9467411158141521
Iteration time: 55.8
Weighted AreaUnderPRC: 0.9197869647600578
Mean absolute error: 0.01660028569019635
Coverage of cases: 95.56709956709958
Instances selection time: 1.1
Test time: 4.5
Accumulative iteration time: 1225.2
Weighted Recall: 0.9468398268398268
Weighted FalsePositiveRate: 0.00886002886002886
Kappa statistic: 0.9379797979797978
Training time: 54.7
		
Iteration: 31
Labeled set size: 831
Unlabelled set size: 324
	
Mean region size: 14.896722325293563
Incorrectly Classified Instances: 5.2987012987013
Correctly Classified Instances: 94.70129870129868
Weighted Precision: 0.9474399217858667
Weighted AreaUnderROC: 0.9756352704534521
Root mean squared error: 0.11943022362639447
Relative absolute error: 6.739893500101722
Root relative squared error: 34.1300292376346
Weighted TruePositiveRate: 0.9470129870129869
Weighted MatthewsCorrelation: 0.9383094752948168
Weighted FMeasure: 0.9469495608707007
Iteration time: 51.3
Weighted AreaUnderPRC: 0.9208055027815394
Mean absolute error: 0.016505861632902248
Coverage of cases: 95.54978354978356
Instances selection time: 0.3
Test time: 4.7
Accumulative iteration time: 1276.5
Weighted Recall: 0.9470129870129869
Weighted FalsePositiveRate: 0.00883116883116883
Kappa statistic: 0.9381818181818182
Training time: 51.0
		
Iteration: 32
Labeled set size: 851
Unlabelled set size: 304
	
Mean region size: 14.859616573902102
Incorrectly Classified Instances: 5.307359307359308
Correctly Classified Instances: 94.6926406926407
Weighted Precision: 0.9471616372268444
Weighted AreaUnderROC: 0.9760561458743278
Root mean squared error: 0.1190015758522314
Relative absolute error: 6.677246530571755
Root relative squared error: 34.00753293292536
Weighted TruePositiveRate: 0.946926406926407
Weighted MatthewsCorrelation: 0.9381209984250203
Weighted FMeasure: 0.9467872712729966
Iteration time: 53.6
Weighted AreaUnderPRC: 0.9222256062655199
Mean absolute error: 0.016352440483032936
Coverage of cases: 95.6103896103896
Instances selection time: 0.7
Test time: 4.4
Accumulative iteration time: 1330.1
Weighted Recall: 0.946926406926407
Weighted FalsePositiveRate: 0.008845598845598846
Kappa statistic: 0.9380808080808081
Training time: 52.9
		
Iteration: 33
Labeled set size: 871
Unlabelled set size: 284
	
Mean region size: 14.834879406307788
Incorrectly Classified Instances: 5.255411255411255
Correctly Classified Instances: 94.74458874458874
Weighted Precision: 0.9477599537506114
Weighted AreaUnderROC: 0.9759652805107351
Root mean squared error: 0.1184331863348855
Relative absolute error: 6.637410119622835
Root relative squared error: 33.84510209878353
Weighted TruePositiveRate: 0.9474458874458873
Weighted MatthewsCorrelation: 0.9387598911523499
Weighted FMeasure: 0.9473274879745152
Iteration time: 54.2
Weighted AreaUnderPRC: 0.9221448965674937
Mean absolute error: 0.016254881925607013
Coverage of cases: 95.67965367965368
Instances selection time: 0.8
Test time: 4.2
Accumulative iteration time: 1384.3
Weighted Recall: 0.9474458874458873
Weighted FalsePositiveRate: 0.008759018759018758
Kappa statistic: 0.9386868686868688
Training time: 53.4
		
Iteration: 34
Labeled set size: 891
Unlabelled set size: 264
	
Mean region size: 14.813852813852623
Incorrectly Classified Instances: 5.16883116883117
Correctly Classified Instances: 94.83116883116882
Weighted Precision: 0.9487033428630156
Weighted AreaUnderROC: 0.9762140014867289
Root mean squared error: 0.11783429858735273
Relative absolute error: 6.525129313178074
Root relative squared error: 33.67395566940653
Weighted TruePositiveRate: 0.9483116883116883
Weighted MatthewsCorrelation: 0.9398025849298722
Weighted FMeasure: 0.9482162107174059
Iteration time: 57.5
Weighted AreaUnderPRC: 0.9237217431572461
Mean absolute error: 0.01597990852206882
Coverage of cases: 95.72294372294371
Instances selection time: 0.6
Test time: 4.4
Accumulative iteration time: 1441.8
Weighted Recall: 0.9483116883116883
Weighted FalsePositiveRate: 0.008614718614718613
Kappa statistic: 0.9396969696969695
Training time: 56.9
		
Iteration: 35
Labeled set size: 911
Unlabelled set size: 244
	
Mean region size: 14.811379097093191
Incorrectly Classified Instances: 5.177489177489177
Correctly Classified Instances: 94.82251082251082
Weighted Precision: 0.9486085601626938
Weighted AreaUnderROC: 0.9761636713454894
Root mean squared error: 0.11777095054592097
Relative absolute error: 6.602887681008892
Root relative squared error: 33.65585245867341
Weighted TruePositiveRate: 0.9482251082251082
Weighted MatthewsCorrelation: 0.9396997494105873
Weighted FMeasure: 0.9481327336589013
Iteration time: 56.2
Weighted AreaUnderPRC: 0.9242623734270037
Mean absolute error: 0.01617033717798103
Coverage of cases: 95.71428571428572
Instances selection time: 0.9
Test time: 4.2
Accumulative iteration time: 1498.0
Weighted Recall: 0.9482251082251082
Weighted FalsePositiveRate: 0.008629148629148629
Kappa statistic: 0.9395959595959595
Training time: 55.3
		
Iteration: 36
Labeled set size: 931
Unlabelled set size: 224
	
Mean region size: 14.823747680890346
Incorrectly Classified Instances: 5.0476190476190474
Correctly Classified Instances: 94.95238095238093
Weighted Precision: 0.949818701459964
Weighted AreaUnderROC: 0.9765902750448205
Root mean squared error: 0.11629024834978438
Relative absolute error: 6.431809728995323
Root relative squared error: 33.232706560492204
Weighted TruePositiveRate: 0.9495238095238095
Weighted MatthewsCorrelation: 0.9411627757674086
Weighted FMeasure: 0.9493560320627721
Iteration time: 56.1
Weighted AreaUnderPRC: 0.9262150488857459
Mean absolute error: 0.015751370764886575
Coverage of cases: 95.85281385281385
Instances selection time: 0.6
Test time: 4.4
Accumulative iteration time: 1554.1
Weighted Recall: 0.9495238095238095
Weighted FalsePositiveRate: 0.008412698412698412
Kappa statistic: 0.9411111111111111
Training time: 55.5
		
Iteration: 37
Labeled set size: 951
Unlabelled set size: 204
	
Mean region size: 14.773036487322008
Incorrectly Classified Instances: 5.073593073593073
Correctly Classified Instances: 94.92640692640691
Weighted Precision: 0.9493339806868402
Weighted AreaUnderROC: 0.9755128339673794
Root mean squared error: 0.11723173152391472
Relative absolute error: 6.471248806757332
Root relative squared error: 33.50175778792965
Weighted TruePositiveRate: 0.9492640692640693
Weighted MatthewsCorrelation: 0.9407810944402077
Weighted FMeasure: 0.9490889340690283
Iteration time: 57.7
Weighted AreaUnderPRC: 0.9234770559862475
Mean absolute error: 0.015847956261446597
Coverage of cases: 95.64502164502163
Instances selection time: 0.6
Test time: 4.4
Accumulative iteration time: 1611.8
Weighted Recall: 0.9492640692640693
Weighted FalsePositiveRate: 0.008455988455988455
Kappa statistic: 0.9408080808080808
Training time: 57.1
		
Iteration: 38
Labeled set size: 971
Unlabelled set size: 184
	
Mean region size: 14.878169449597829
Incorrectly Classified Instances: 5.108225108225108
Correctly Classified Instances: 94.89177489177489
Weighted Precision: 0.9490376372757561
Weighted AreaUnderROC: 0.9762924482924482
Root mean squared error: 0.11725706539402056
Relative absolute error: 6.504595174459451
Root relative squared error: 33.50899754434273
Weighted TruePositiveRate: 0.9489177489177489
Weighted MatthewsCorrelation: 0.9404041318815464
Weighted FMeasure: 0.9487775332074502
Iteration time: 55.7
Weighted AreaUnderPRC: 0.925097543257222
Mean absolute error: 0.015929620835410968
Coverage of cases: 95.74025974025973
Instances selection time: 0.7
Test time: 4.4
Accumulative iteration time: 1667.5
Weighted Recall: 0.9489177489177489
Weighted FalsePositiveRate: 0.008513708513708512
Kappa statistic: 0.9404040404040404
Training time: 55.0
		
Iteration: 39
Labeled set size: 991
Unlabelled set size: 164
	
Mean region size: 14.867037724180388
Incorrectly Classified Instances: 5.203463203463203
Correctly Classified Instances: 94.7965367965368
Weighted Precision: 0.9482691940940008
Weighted AreaUnderROC: 0.9765355721719358
Root mean squared error: 0.11809534696711706
Relative absolute error: 6.568251997893681
Root relative squared error: 33.74855645774353
Weighted TruePositiveRate: 0.947965367965368
Weighted MatthewsCorrelation: 0.9393578591130154
Weighted FMeasure: 0.947833747859284
Iteration time: 57.1
Weighted AreaUnderPRC: 0.9248352783746825
Mean absolute error: 0.016085515096882552
Coverage of cases: 95.7142857142857
Instances selection time: 0.2
Test time: 4.7
Accumulative iteration time: 1724.6
Weighted Recall: 0.947965367965368
Weighted FalsePositiveRate: 0.008672438672438672
Kappa statistic: 0.9392929292929292
Training time: 56.9
		
Iteration: 40
Labeled set size: 1011
Unlabelled set size: 144
	
Mean region size: 14.970933828076497
Incorrectly Classified Instances: 5.108225108225108
Correctly Classified Instances: 94.89177489177489
Weighted Precision: 0.9491349050907141
Weighted AreaUnderROC: 0.9782082294809568
Root mean squared error: 0.11627178334370933
Relative absolute error: 6.514713575128323
Root relative squared error: 33.22742974547773
Weighted TruePositiveRate: 0.9489177489177489
Weighted MatthewsCorrelation: 0.9404354467378248
Weighted FMeasure: 0.9487709920674912
Iteration time: 61.4
Weighted AreaUnderPRC: 0.9304333525251198
Mean absolute error: 0.015954400592151065
Coverage of cases: 96.04329004329003
Instances selection time: 1.0
Test time: 4.9
Accumulative iteration time: 1786.0
Weighted Recall: 0.9489177489177489
Weighted FalsePositiveRate: 0.008513708513708513
Kappa statistic: 0.9404040404040404
Training time: 60.4
		
Iteration: 41
Labeled set size: 1031
Unlabelled set size: 124
	
Mean region size: 14.96722325293735
Incorrectly Classified Instances: 5.030303030303029
Correctly Classified Instances: 94.96969696969695
Weighted Precision: 0.9499074600773023
Weighted AreaUnderROC: 0.9779698281516463
Root mean squared error: 0.11587480608199038
Relative absolute error: 6.471407737545635
Root relative squared error: 33.11398404356287
Weighted TruePositiveRate: 0.9496969696969696
Weighted MatthewsCorrelation: 0.9413469732578033
Weighted FMeasure: 0.9495663968916208
Iteration time: 62.0
Weighted AreaUnderPRC: 0.9294929277069184
Mean absolute error: 0.015848345479703662
Coverage of cases: 95.99134199134198
Instances selection time: 1.0
Test time: 4.5
Accumulative iteration time: 1848.0
Weighted Recall: 0.9496969696969696
Weighted FalsePositiveRate: 0.008383838383838384
Kappa statistic: 0.9413131313131311
Training time: 61.0
		
Iteration: 42
Labeled set size: 1051
Unlabelled set size: 104
	
Mean region size: 14.993197278911376
Incorrectly Classified Instances: 4.97835497835498
Correctly Classified Instances: 95.02164502164501
Weighted Precision: 0.9505746563659427
Weighted AreaUnderROC: 0.9784456688093053
Root mean squared error: 0.11524948221966233
Relative absolute error: 6.4797106431912415
Root relative squared error: 32.935282865115695
Weighted TruePositiveRate: 0.9502164502164503
Weighted MatthewsCorrelation: 0.9420184212718589
Weighted FMeasure: 0.9501370777167786
Iteration time: 58.6
Weighted AreaUnderPRC: 0.930281562917474
Mean absolute error: 0.0158686791261827
Coverage of cases: 96.06060606060605
Instances selection time: 0.5
Test time: 4.9
Accumulative iteration time: 1906.6
Weighted Recall: 0.9502164502164503
Weighted FalsePositiveRate: 0.008297258297258296
Kappa statistic: 0.9419191919191918
Training time: 58.1
		
Iteration: 43
Labeled set size: 1071
Unlabelled set size: 84
	
Mean region size: 15.037724180581133
Incorrectly Classified Instances: 4.891774891774892
Correctly Classified Instances: 95.1082251082251
Weighted Precision: 0.9513992770053232
Weighted AreaUnderROC: 0.9797354060081332
Root mean squared error: 0.11364770129460348
Relative absolute error: 6.322888339855626
Root relative squared error: 32.47753583806867
Weighted TruePositiveRate: 0.9510822510822511
Weighted MatthewsCorrelation: 0.9429918376653326
Weighted FMeasure: 0.9509255672778201
Iteration time: 59.3
Weighted AreaUnderPRC: 0.9339702032037724
Mean absolute error: 0.015484624505768943
Coverage of cases: 96.3116883116883
Instances selection time: 1.4
Test time: 4.7
Accumulative iteration time: 1965.9
Weighted Recall: 0.9510822510822511
Weighted FalsePositiveRate: 0.008152958152958151
Kappa statistic: 0.9429292929292927
Training time: 57.9
		
Iteration: 44
Labeled set size: 1091
Unlabelled set size: 64
	
Mean region size: 15.06864564007402
Incorrectly Classified Instances: 4.874458874458875
Correctly Classified Instances: 95.12554112554112
Weighted Precision: 0.9517304495807652
Weighted AreaUnderROC: 0.9799907735362281
Root mean squared error: 0.11316109299951464
Relative absolute error: 6.306090624718978
Root relative squared error: 32.33847593485178
Weighted TruePositiveRate: 0.9512554112554114
Weighted MatthewsCorrelation: 0.9432564739272535
Weighted FMeasure: 0.9511281690118796
Iteration time: 65.5
Weighted AreaUnderPRC: 0.9353438161565577
Mean absolute error: 0.015443487244209802
Coverage of cases: 96.38095238095237
Instances selection time: 1.0
Test time: 4.6
Accumulative iteration time: 2031.4
Weighted Recall: 0.9512554112554114
Weighted FalsePositiveRate: 0.008124098124098124
Kappa statistic: 0.943131313131313
Training time: 64.5
		
Iteration: 45
Labeled set size: 1111
Unlabelled set size: 44
	
Mean region size: 14.914038342609581
Incorrectly Classified Instances: 4.77922077922078
Correctly Classified Instances: 95.22077922077922
Weighted Precision: 0.952674391264891
Weighted AreaUnderROC: 0.979692378328742
Root mean squared error: 0.11181126268952224
Relative absolute error: 6.187032465901368
Root relative squared error: 31.952729793322284
Weighted TruePositiveRate: 0.9522077922077921
Weighted MatthewsCorrelation: 0.9443728766236325
Weighted FMeasure: 0.9521083373613448
Iteration time: 62.0
Weighted AreaUnderPRC: 0.9355699478529435
Mean absolute error: 0.015151916243023821
Coverage of cases: 96.25108225108225
Instances selection time: 0.2
Test time: 4.6
Accumulative iteration time: 2093.4
Weighted Recall: 0.9522077922077921
Weighted FalsePositiveRate: 0.007965367965367965
Kappa statistic: 0.944242424242424
Training time: 61.8
		
Iteration: 46
Labeled set size: 1131
Unlabelled set size: 24
	
Mean region size: 14.926406926406733
Incorrectly Classified Instances: 4.666666666666666
Correctly Classified Instances: 95.33333333333333
Weighted Precision: 0.953725433256075
Weighted AreaUnderROC: 0.9810383051292144
Root mean squared error: 0.11069980578708791
Relative absolute error: 6.118040841037243
Root relative squared error: 31.635104527082138
Weighted TruePositiveRate: 0.9533333333333334
Weighted MatthewsCorrelation: 0.9456570118033844
Weighted FMeasure: 0.953221977412434
Iteration time: 59.8
Weighted AreaUnderPRC: 0.9381735887715033
Mean absolute error: 0.014982957161723926
Coverage of cases: 96.39826839826839
Instances selection time: 0.1
Test time: 4.4
Accumulative iteration time: 2153.2
Weighted Recall: 0.9533333333333334
Weighted FalsePositiveRate: 0.0077777777777777776
Kappa statistic: 0.9455555555555556
Training time: 59.7
		
Time end:Wed Nov 01 07.34.38 EET 2017