Wed Nov 01 08.09.43 EET 2017
Dataset: segment
Test set size: 1155
Initial Labelled set size: 231
Initial Unlabelled set size: 924
Batch mode: QBestBatchMode
Batch size: 20
Classifiers: RandomForest-1cores
Scenario: PoolBasedSamplingScenario
Query strategy: VoteEntropyQueryStrategy-1cores
Time begining: Wed Nov 01 08.09.43 EET 2017
		
Iteration: 1
Labeled set size: 231
Unlabelled set size: 924
	
Mean region size: 23.933209647495094
Incorrectly Classified Instances: 5.974025974025974
Correctly Classified Instances: 94.02597402597402
Weighted Precision: 0.9401113765164922
Weighted AreaUnderROC: 0.9924430451703179
Root mean squared error: 0.12304123929690404
Relative absolute error: 15.686868686868674
Root relative squared error: 35.161962919661235
Weighted TruePositiveRate: 0.9402597402597402
Weighted MatthewsCorrelation: 0.930140241756174
Weighted FMeasure: 0.9398673994610472
Iteration time: 50.0
Weighted AreaUnderPRC: 0.9666210930648096
Mean absolute error: 0.038416821273964265
Coverage of cases: 99.48051948051948
Instances selection time: 3.0
Test time: 7.0
Accumulative iteration time: 50.0
Weighted Recall: 0.9402597402597402
Weighted FalsePositiveRate: 0.009956709956709957
Kappa statistic: 0.9303030303030302
Training time: 47.0
		
Iteration: 2
Labeled set size: 251
Unlabelled set size: 904
	
Mean region size: 23.079777365491378
Incorrectly Classified Instances: 6.666666666666667
Correctly Classified Instances: 93.33333333333333
Weighted Precision: 0.9365022360891418
Weighted AreaUnderROC: 0.9896847260483624
Root mean squared error: 0.1264226403089414
Relative absolute error: 15.505050505050487
Root relative squared error: 36.12827874743715
Weighted TruePositiveRate: 0.9333333333333333
Weighted MatthewsCorrelation: 0.9234711491845538
Weighted FMeasure: 0.9339024437059735
Iteration time: 31.0
Weighted AreaUnderPRC: 0.9609322898839796
Mean absolute error: 0.037971552257266665
Coverage of cases: 99.04761904761905
Instances selection time: 2.0
Test time: 7.0
Accumulative iteration time: 81.0
Weighted Recall: 0.9333333333333333
Weighted FalsePositiveRate: 0.01111111111111111
Kappa statistic: 0.9222222222222223
Training time: 29.0
		
Iteration: 3
Labeled set size: 271
Unlabelled set size: 884
	
Mean region size: 25.38033395176231
Incorrectly Classified Instances: 6.233766233766234
Correctly Classified Instances: 93.76623376623377
Weighted Precision: 0.9400282680617726
Weighted AreaUnderROC: 0.9940010494555951
Root mean squared error: 0.1272223595008257
Relative absolute error: 17.666666666666643
Root relative squared error: 36.35681754249369
Weighted TruePositiveRate: 0.9376623376623376
Weighted MatthewsCorrelation: 0.9281576301589352
Weighted FMeasure: 0.9379272564844194
Iteration time: 36.0
Weighted AreaUnderPRC: 0.9709278832855902
Mean absolute error: 0.04326530612244911
Coverage of cases: 99.65367965367966
Instances selection time: 3.0
Test time: 7.0
Accumulative iteration time: 117.0
Weighted Recall: 0.9376623376623376
Weighted FalsePositiveRate: 0.01038961038961039
Kappa statistic: 0.9272727272727272
Training time: 33.0
		
Iteration: 4
Labeled set size: 291
Unlabelled set size: 864
	
Mean region size: 23.648732220160532
Incorrectly Classified Instances: 9.004329004329005
Correctly Classified Instances: 90.99567099567099
Weighted Precision: 0.9171864076994468
Weighted AreaUnderROC: 0.9896768551314007
Root mean squared error: 0.14078145714745793
Relative absolute error: 18.222222222222207
Root relative squared error: 40.231652446622824
Weighted TruePositiveRate: 0.90995670995671
Weighted MatthewsCorrelation: 0.8975590104936496
Weighted FMeasure: 0.9105017734258556
Iteration time: 37.0
Weighted AreaUnderPRC: 0.9571710954801654
Mean absolute error: 0.04462585034013621
Coverage of cases: 99.3073593073593
Instances selection time: 2.0
Test time: 7.0
Accumulative iteration time: 154.0
Weighted Recall: 0.90995670995671
Weighted FalsePositiveRate: 0.015007215007215009
Kappa statistic: 0.8949494949494948
Training time: 35.0
		
Iteration: 5
Labeled set size: 311
Unlabelled set size: 844
	
Mean region size: 22.090290661718967
Incorrectly Classified Instances: 6.666666666666667
Correctly Classified Instances: 93.33333333333333
Weighted Precision: 0.9364165398664757
Weighted AreaUnderROC: 0.9911920066465522
Root mean squared error: 0.12323208667448256
Relative absolute error: 14.626262626262596
Root relative squared error: 35.2165021006064
Weighted TruePositiveRate: 0.9333333333333333
Weighted MatthewsCorrelation: 0.9233921554404307
Weighted FMeasure: 0.9337266055023354
Iteration time: 41.0
Weighted AreaUnderPRC: 0.9694744411720965
Mean absolute error: 0.03581941867656161
Coverage of cases: 99.04761904761905
Instances selection time: 3.0
Test time: 6.0
Accumulative iteration time: 195.0
Weighted Recall: 0.9333333333333333
Weighted FalsePositiveRate: 0.01111111111111111
Kappa statistic: 0.9222222222222223
Training time: 38.0
		
Iteration: 6
Labeled set size: 331
Unlabelled set size: 824
	
Mean region size: 22.733457019171077
Incorrectly Classified Instances: 9.264069264069263
Correctly Classified Instances: 90.73593073593074
Weighted Precision: 0.9200591202832107
Weighted AreaUnderROC: 0.9901648519830338
Root mean squared error: 0.14094828588879943
Relative absolute error: 17.28282828282825
Root relative squared error: 40.279327730539855
Weighted TruePositiveRate: 0.9073593073593074
Weighted MatthewsCorrelation: 0.8968290497773842
Weighted FMeasure: 0.9092184927147398
Iteration time: 43.0
Weighted AreaUnderPRC: 0.9646666466500077
Mean absolute error: 0.042325293753865276
Coverage of cases: 99.22077922077922
Instances selection time: 3.0
Test time: 7.0
Accumulative iteration time: 238.0
Weighted Recall: 0.9073593073593074
Weighted FalsePositiveRate: 0.01544011544011544
Kappa statistic: 0.8919191919191919
Training time: 40.0
		
Iteration: 7
Labeled set size: 351
Unlabelled set size: 804
	
Mean region size: 22.7210884353739
Incorrectly Classified Instances: 9.61038961038961
Correctly Classified Instances: 90.3896103896104
Weighted Precision: 0.9176611241460546
Weighted AreaUnderROC: 0.9896405614587432
Root mean squared error: 0.13633601039477747
Relative absolute error: 16.949494949494923
Root relative squared error: 38.961260220631864
Weighted TruePositiveRate: 0.9038961038961039
Weighted MatthewsCorrelation: 0.8932470952136576
Weighted FMeasure: 0.905985096329688
Iteration time: 55.0
Weighted AreaUnderPRC: 0.9641158354468183
Mean absolute error: 0.04150896722325305
Coverage of cases: 98.87445887445888
Instances selection time: 2.0
Test time: 7.0
Accumulative iteration time: 293.0
Weighted Recall: 0.9038961038961039
Weighted FalsePositiveRate: 0.016017316017316017
Kappa statistic: 0.8878787878787877
Training time: 53.0
		
Iteration: 8
Labeled set size: 371
Unlabelled set size: 784
	
Mean region size: 23.413729128014644
Incorrectly Classified Instances: 7.0995670995671
Correctly Classified Instances: 92.9004329004329
Weighted Precision: 0.9411621759681906
Weighted AreaUnderROC: 0.9893891293891295
Root mean squared error: 0.13005873750344302
Relative absolute error: 16.020202020201978
Root relative squared error: 37.16738007196817
Weighted TruePositiveRate: 0.929004329004329
Weighted MatthewsCorrelation: 0.9217217791401451
Weighted FMeasure: 0.9301659638734059
Iteration time: 45.0
Weighted AreaUnderPRC: 0.9637905165322989
Mean absolute error: 0.039233147804576436
Coverage of cases: 98.7012987012987
Instances selection time: 2.0
Test time: 7.0
Accumulative iteration time: 338.0
Weighted Recall: 0.929004329004329
Weighted FalsePositiveRate: 0.011832611832611832
Kappa statistic: 0.9171717171717172
Training time: 43.0
		
Iteration: 9
Labeled set size: 391
Unlabelled set size: 764
	
Mean region size: 22.498453927025107
Incorrectly Classified Instances: 8.831168831168831
Correctly Classified Instances: 91.16883116883118
Weighted Precision: 0.9218584125596402
Weighted AreaUnderROC: 0.9915177751541389
Root mean squared error: 0.13918216819371843
Relative absolute error: 17.151515151515117
Root relative squared error: 39.7746175596975
Weighted TruePositiveRate: 0.9116883116883117
Weighted MatthewsCorrelation: 0.9007316801633859
Weighted FMeasure: 0.9125772951960844
Iteration time: 49.0
Weighted AreaUnderPRC: 0.9644353344153596
Mean absolute error: 0.04200371057513924
Coverage of cases: 99.3073593073593
Instances selection time: 2.0
Test time: 7.0
Accumulative iteration time: 387.0
Weighted Recall: 0.9116883116883117
Weighted FalsePositiveRate: 0.01471861471861472
Kappa statistic: 0.896969696969697
Training time: 47.0
		
Iteration: 10
Labeled set size: 411
Unlabelled set size: 744
	
Mean region size: 23.68583797155199
Incorrectly Classified Instances: 9.783549783549784
Correctly Classified Instances: 90.21645021645021
Weighted Precision: 0.9193263565028589
Weighted AreaUnderROC: 0.9935532817350998
Root mean squared error: 0.13769908845391454
Relative absolute error: 17.55555555555552
Root relative squared error: 39.35079222181992
Weighted TruePositiveRate: 0.9021645021645022
Weighted MatthewsCorrelation: 0.8923050615013153
Weighted FMeasure: 0.9040208805269827
Iteration time: 50.0
Weighted AreaUnderPRC: 0.9716623733437459
Mean absolute error: 0.04299319727891166
Coverage of cases: 99.56709956709956
Instances selection time: 2.0
Test time: 7.0
Accumulative iteration time: 437.0
Weighted Recall: 0.9021645021645022
Weighted FalsePositiveRate: 0.016305916305916306
Kappa statistic: 0.8858585858585859
Training time: 48.0
		
Iteration: 11
Labeled set size: 431
Unlabelled set size: 724
	
Mean region size: 23.562152133580465
Incorrectly Classified Instances: 7.2727272727272725
Correctly Classified Instances: 92.72727272727273
Weighted Precision: 0.9354020382628578
Weighted AreaUnderROC: 0.9893309720582446
Root mean squared error: 0.13438055046712177
Relative absolute error: 17.161616161616134
Root relative squared error: 38.40244099985665
Weighted TruePositiveRate: 0.9272727272727272
Weighted MatthewsCorrelation: 0.9183088695210763
Weighted FMeasure: 0.9284779108040079
Iteration time: 50.0
Weighted AreaUnderPRC: 0.9640550641866864
Mean absolute error: 0.04202844774273357
Coverage of cases: 98.87445887445888
Instances selection time: 2.0
Test time: 9.0
Accumulative iteration time: 487.0
Weighted Recall: 0.9272727272727272
Weighted FalsePositiveRate: 0.01212121212121212
Kappa statistic: 0.9151515151515152
Training time: 48.0
		
Iteration: 12
Labeled set size: 451
Unlabelled set size: 704
	
Mean region size: 23.116883116882857
Incorrectly Classified Instances: 8.398268398268398
Correctly Classified Instances: 91.6017316017316
Weighted Precision: 0.9281021041020974
Weighted AreaUnderROC: 0.9917574008483099
Root mean squared error: 0.13495916604547756
Relative absolute error: 16.999999999999975
Root relative squared error: 38.567794174346304
Weighted TruePositiveRate: 0.9160173160173161
Weighted MatthewsCorrelation: 0.9068573908344143
Weighted FMeasure: 0.9182200290634285
Iteration time: 52.0
Weighted AreaUnderPRC: 0.9692866103832501
Mean absolute error: 0.04163265306122461
Coverage of cases: 99.22077922077922
Instances selection time: 2.0
Test time: 7.0
Accumulative iteration time: 539.0
Weighted Recall: 0.9160173160173161
Weighted FalsePositiveRate: 0.013997113997113998
Kappa statistic: 0.9020202020202019
Training time: 50.0
		
Iteration: 13
Labeled set size: 471
Unlabelled set size: 684
	
Mean region size: 22.89424860853408
Incorrectly Classified Instances: 8.658008658008658
Correctly Classified Instances: 91.34199134199135
Weighted Precision: 0.9308296348680158
Weighted AreaUnderROC: 0.9905457169093534
Root mean squared error: 0.1362089413207989
Relative absolute error: 16.7474747474747
Root relative squared error: 38.92494720807606
Weighted TruePositiveRate: 0.9134199134199135
Weighted MatthewsCorrelation: 0.9057431413733773
Weighted FMeasure: 0.9157894984840087
Iteration time: 54.0
Weighted AreaUnderPRC: 0.9640059494192895
Mean absolute error: 0.041014223871366794
Coverage of cases: 98.96103896103897
Instances selection time: 2.0
Test time: 7.0
Accumulative iteration time: 593.0
Weighted Recall: 0.9134199134199135
Weighted FalsePositiveRate: 0.014430014430014432
Kappa statistic: 0.898989898989899
Training time: 52.0
		
Iteration: 14
Labeled set size: 491
Unlabelled set size: 664
	
Mean region size: 22.671614100185288
Incorrectly Classified Instances: 6.666666666666667
Correctly Classified Instances: 93.33333333333333
Weighted Precision: 0.945049344535429
Weighted AreaUnderROC: 0.9892601338055885
Root mean squared error: 0.12944866676944147
Relative absolute error: 15.343434343434314
Root relative squared error: 36.993037838015454
Weighted TruePositiveRate: 0.9333333333333333
Weighted MatthewsCorrelation: 0.9267542943779659
Weighted FMeasure: 0.9349364073232609
Iteration time: 56.0
Weighted AreaUnderPRC: 0.9666842062281449
Mean absolute error: 0.037575757575757665
Coverage of cases: 98.61471861471861
Instances selection time: 2.0
Test time: 7.0
Accumulative iteration time: 649.0
Weighted Recall: 0.9333333333333333
Weighted FalsePositiveRate: 0.01111111111111111
Kappa statistic: 0.9222222222222223
Training time: 54.0
		
Iteration: 15
Labeled set size: 511
Unlabelled set size: 644
	
Mean region size: 23.19109461966583
Incorrectly Classified Instances: 8.13852813852814
Correctly Classified Instances: 91.86147186147186
Weighted Precision: 0.9277760130478618
Weighted AreaUnderROC: 0.9905483405483407
Root mean squared error: 0.1388618815217661
Relative absolute error: 17.87878787878787
Root relative squared error: 39.68308801929947
Weighted TruePositiveRate: 0.9186147186147187
Weighted MatthewsCorrelation: 0.9085673269108845
Weighted FMeasure: 0.919848799582457
Iteration time: 57.0
Weighted AreaUnderPRC: 0.9641797608031336
Mean absolute error: 0.043784786641929654
Coverage of cases: 99.04761904761905
Instances selection time: 2.0
Test time: 7.0
Accumulative iteration time: 706.0
Weighted Recall: 0.9186147186147187
Weighted FalsePositiveRate: 0.013564213564213563
Kappa statistic: 0.9050505050505051
Training time: 55.0
		
Iteration: 16
Labeled set size: 531
Unlabelled set size: 624
	
Mean region size: 21.19975262832377
Incorrectly Classified Instances: 5.887445887445887
Correctly Classified Instances: 94.11255411255411
Weighted Precision: 0.9520573263261429
Weighted AreaUnderROC: 0.9911229174865539
Root mean squared error: 0.12286016305559846
Relative absolute error: 13.141414141414078
Root relative squared error: 35.1102160734916
Weighted TruePositiveRate: 0.9411255411255411
Weighted MatthewsCorrelation: 0.9353675396882326
Weighted FMeasure: 0.9421000171676573
Iteration time: 57.0
Weighted AreaUnderPRC: 0.9694121732029333
Mean absolute error: 0.03218305504019788
Coverage of cases: 98.87445887445888
Instances selection time: 2.0
Test time: 7.0
Accumulative iteration time: 763.0
Weighted Recall: 0.9411255411255411
Weighted FalsePositiveRate: 0.00981240981240981
Kappa statistic: 0.9313131313131312
Training time: 55.0
		
Iteration: 17
Labeled set size: 551
Unlabelled set size: 604
	
Mean region size: 21.892393320964484
Incorrectly Classified Instances: 6.666666666666667
Correctly Classified Instances: 93.33333333333333
Weighted Precision: 0.9419955018335225
Weighted AreaUnderROC: 0.9912156193974374
Root mean squared error: 0.12672556649005895
Relative absolute error: 14.757575757575713
Root relative squared error: 36.214847114341744
Weighted TruePositiveRate: 0.9333333333333333
Weighted MatthewsCorrelation: 0.9253898763555533
Weighted FMeasure: 0.933994279058477
Iteration time: 59.0
Weighted AreaUnderPRC: 0.969188745193358
Mean absolute error: 0.03614100185528762
Coverage of cases: 98.96103896103897
Instances selection time: 2.0
Test time: 7.0
Accumulative iteration time: 822.0
Weighted Recall: 0.9333333333333333
Weighted FalsePositiveRate: 0.01111111111111111
Kappa statistic: 0.9222222222222223
Training time: 57.0
		
Iteration: 18
Labeled set size: 571
Unlabelled set size: 584
	
Mean region size: 22.21397649969052
Incorrectly Classified Instances: 6.666666666666667
Correctly Classified Instances: 93.33333333333333
Weighted Precision: 0.9426417934025741
Weighted AreaUnderROC: 0.9914469369014824
Root mean squared error: 0.12696933535784188
Relative absolute error: 14.88888888888883
Root relative squared error: 36.28450987082023
Weighted TruePositiveRate: 0.9333333333333333
Weighted MatthewsCorrelation: 0.9254012165851935
Weighted FMeasure: 0.9332887986296635
Iteration time: 61.0
Weighted AreaUnderPRC: 0.9701892319881866
Mean absolute error: 0.03646258503401362
Coverage of cases: 98.96103896103897
Instances selection time: 2.0
Test time: 7.0
Accumulative iteration time: 883.0
Weighted Recall: 0.9333333333333333
Weighted FalsePositiveRate: 0.01111111111111111
Kappa statistic: 0.9222222222222223
Training time: 59.0
		
Iteration: 19
Labeled set size: 591
Unlabelled set size: 564
	
Mean region size: 23.15398886827433
Incorrectly Classified Instances: 8.311688311688311
Correctly Classified Instances: 91.68831168831169
Weighted Precision: 0.9311621039298283
Weighted AreaUnderROC: 0.9920232629323539
Root mean squared error: 0.13898652515404872
Relative absolute error: 17.5252525252525
Root relative squared error: 39.71870790415707
Weighted TruePositiveRate: 0.9168831168831169
Weighted MatthewsCorrelation: 0.9083473033414038
Weighted FMeasure: 0.9182188102683241
Iteration time: 65.0
Weighted AreaUnderPRC: 0.9685029969620439
Mean absolute error: 0.04291898577612875
Coverage of cases: 99.22077922077922
Instances selection time: 2.0
Test time: 7.0
Accumulative iteration time: 948.0
Weighted Recall: 0.9168831168831169
Weighted FalsePositiveRate: 0.013852813852813853
Kappa statistic: 0.903030303030303
Training time: 63.0
		
Iteration: 20
Labeled set size: 611
Unlabelled set size: 544
	
Mean region size: 22.139764996907555
Incorrectly Classified Instances: 7.532467532467533
Correctly Classified Instances: 92.46753246753246
Weighted Precision: 0.9375284145721392
Weighted AreaUnderROC: 0.9921758712667805
Root mean squared error: 0.1335218210077272
Relative absolute error: 16.373737373737338
Root relative squared error: 38.15703861621849
Weighted TruePositiveRate: 0.9246753246753247
Weighted MatthewsCorrelation: 0.9170924121887799
Weighted FMeasure: 0.9264482351175547
Iteration time: 64.0
Weighted AreaUnderPRC: 0.9719153379977077
Mean absolute error: 0.040098948670377325
Coverage of cases: 99.13419913419914
Instances selection time: 2.0
Test time: 7.0
Accumulative iteration time: 1012.0
Weighted Recall: 0.9246753246753247
Weighted FalsePositiveRate: 0.012554112554112554
Kappa statistic: 0.912121212121212
Training time: 62.0
		
Iteration: 21
Labeled set size: 631
Unlabelled set size: 524
	
Mean region size: 21.372912801483974
Incorrectly Classified Instances: 6.58008658008658
Correctly Classified Instances: 93.41991341991341
Weighted Precision: 0.9419363225398528
Weighted AreaUnderROC: 0.991062136516682
Root mean squared error: 0.1291138150695184
Relative absolute error: 14.838383838383779
Root relative squared error: 36.89734599417869
Weighted TruePositiveRate: 0.9341991341991343
Weighted MatthewsCorrelation: 0.9260871862059361
Weighted FMeasure: 0.9348599248064476
Iteration time: 65.0
Weighted AreaUnderPRC: 0.9675109958956234
Mean absolute error: 0.036338899196042065
Coverage of cases: 98.96103896103897
Instances selection time: 2.0
Test time: 7.0
Accumulative iteration time: 1077.0
Weighted Recall: 0.9341991341991343
Weighted FalsePositiveRate: 0.010966810966810967
Kappa statistic: 0.9232323232323233
Training time: 63.0
		
Iteration: 22
Labeled set size: 651
Unlabelled set size: 504
	
Mean region size: 21.249226963512406
Incorrectly Classified Instances: 6.406926406926407
Correctly Classified Instances: 93.5930735930736
Weighted Precision: 0.9442277661896525
Weighted AreaUnderROC: 0.9928164764528401
Root mean squared error: 0.11882750213158733
Relative absolute error: 13.030303030302976
Root relative squared error: 33.95778722371802
Weighted TruePositiveRate: 0.935930735930736
Weighted MatthewsCorrelation: 0.9282495645009217
Weighted FMeasure: 0.9364257119985276
Iteration time: 69.0
Weighted AreaUnderPRC: 0.9748500105014057
Mean absolute error: 0.03191094619666049
Coverage of cases: 99.13419913419914
Instances selection time: 1.0
Test time: 8.0
Accumulative iteration time: 1146.0
Weighted Recall: 0.935930735930736
Weighted FalsePositiveRate: 0.010678210678210676
Kappa statistic: 0.9252525252525251
Training time: 68.0
		
Iteration: 23
Labeled set size: 671
Unlabelled set size: 484
	
Mean region size: 22.17687074829902
Incorrectly Classified Instances: 5.800865800865801
Correctly Classified Instances: 94.19913419913419
Weighted Precision: 0.9476298406168057
Weighted AreaUnderROC: 0.9936717827626917
Root mean squared error: 0.12059428190712483
Relative absolute error: 14.303030303030255
Root relative squared error: 34.46268659981054
Weighted TruePositiveRate: 0.941991341991342
Weighted MatthewsCorrelation: 0.9345148202796323
Weighted FMeasure: 0.9428429179311351
Iteration time: 71.0
Weighted AreaUnderPRC: 0.9771639873714552
Mean absolute error: 0.03502782931354363
Coverage of cases: 99.3073593073593
Instances selection time: 2.0
Test time: 7.0
Accumulative iteration time: 1217.0
Weighted Recall: 0.941991341991342
Weighted FalsePositiveRate: 0.009668109668109668
Kappa statistic: 0.9323232323232322
Training time: 69.0
		
Iteration: 24
Labeled set size: 691
Unlabelled set size: 464
	
Mean region size: 21.929499072355938
Incorrectly Classified Instances: 6.83982683982684
Correctly Classified Instances: 93.16017316017316
Weighted Precision: 0.9411219451085823
Weighted AreaUnderROC: 0.9885005903187719
Root mean squared error: 0.12904674046441397
Relative absolute error: 14.909090909090864
Root relative squared error: 36.87817782917149
Weighted TruePositiveRate: 0.9316017316017317
Weighted MatthewsCorrelation: 0.9237015160237663
Weighted FMeasure: 0.9323675702934688
Iteration time: 72.0
Weighted AreaUnderPRC: 0.9621380074084989
Mean absolute error: 0.03651205936920227
Coverage of cases: 98.52813852813853
Instances selection time: 2.0
Test time: 7.0
Accumulative iteration time: 1289.0
Weighted Recall: 0.9316017316017317
Weighted FalsePositiveRate: 0.011399711399711401
Kappa statistic: 0.9202020202020201
Training time: 70.0
		
Iteration: 25
Labeled set size: 711
Unlabelled set size: 444
	
Mean region size: 22.411873840444994
Incorrectly Classified Instances: 6.83982683982684
Correctly Classified Instances: 93.16017316017316
Weighted Precision: 0.944609036977822
Weighted AreaUnderROC: 0.9946289737198829
Root mean squared error: 0.12537143330689351
Relative absolute error: 15.09090909090903
Root relative squared error: 35.82787132438037
Weighted TruePositiveRate: 0.9316017316017317
Weighted MatthewsCorrelation: 0.9250407616312543
Weighted FMeasure: 0.9327470421999975
Iteration time: 73.0
Weighted AreaUnderPRC: 0.977623664817333
Mean absolute error: 0.036957328385899824
Coverage of cases: 99.48051948051948
Instances selection time: 2.0
Test time: 7.0
Accumulative iteration time: 1362.0
Weighted Recall: 0.9316017316017317
Weighted FalsePositiveRate: 0.0113997113997114
Kappa statistic: 0.9202020202020201
Training time: 71.0
		
Iteration: 26
Labeled set size: 731
Unlabelled set size: 424
	
Mean region size: 21.607915893629905
Incorrectly Classified Instances: 6.666666666666667
Correctly Classified Instances: 93.33333333333333
Weighted Precision: 0.9419666553110752
Weighted AreaUnderROC: 0.990881979972889
Root mean squared error: 0.12768816374828953
Relative absolute error: 14.838383838383779
Root relative squared error: 36.48993219389623
Weighted TruePositiveRate: 0.9333333333333333
Weighted MatthewsCorrelation: 0.9253734421595274
Weighted FMeasure: 0.9339324324358962
Iteration time: 77.0
Weighted AreaUnderPRC: 0.9674277114264268
Mean absolute error: 0.036338899196042065
Coverage of cases: 98.87445887445888
Instances selection time: 1.0
Test time: 7.0
Accumulative iteration time: 1439.0
Weighted Recall: 0.9333333333333333
Weighted FalsePositiveRate: 0.011111111111111112
Kappa statistic: 0.9222222222222223
Training time: 76.0
		
Iteration: 27
Labeled set size: 751
Unlabelled set size: 404
	
Mean region size: 20.803957946814823
Incorrectly Classified Instances: 6.4935064935064934
Correctly Classified Instances: 93.50649350649351
Weighted Precision: 0.9449696380621083
Weighted AreaUnderROC: 0.9908666754121299
Root mean squared error: 0.12032732105781258
Relative absolute error: 13.040404040403978
Root relative squared error: 34.386396182563786
Weighted TruePositiveRate: 0.935064935064935
Weighted MatthewsCorrelation: 0.9280100609177272
Weighted FMeasure: 0.9362294438182722
Iteration time: 76.0
Weighted AreaUnderPRC: 0.9707845001801994
Mean absolute error: 0.03193568336425478
Coverage of cases: 98.7012987012987
Instances selection time: 2.0
Test time: 7.0
Accumulative iteration time: 1515.0
Weighted Recall: 0.935064935064935
Weighted FalsePositiveRate: 0.010822510822510822
Kappa statistic: 0.9242424242424241
Training time: 74.0
		
Iteration: 28
Labeled set size: 771
Unlabelled set size: 384
	
Mean region size: 21.682127396412827
Incorrectly Classified Instances: 6.32034632034632
Correctly Classified Instances: 93.67965367965368
Weighted Precision: 0.9473561413110945
Weighted AreaUnderROC: 0.9930149984695439
Root mean squared error: 0.12014215451405948
Relative absolute error: 13.383838383838329
Root relative squared error: 34.33348043510697
Weighted TruePositiveRate: 0.9367965367965368
Weighted MatthewsCorrelation: 0.9299850713464776
Weighted FMeasure: 0.9371157483993064
Iteration time: 73.0
Weighted AreaUnderPRC: 0.9778635070863303
Mean absolute error: 0.03277674706246136
Coverage of cases: 99.04761904761905
Instances selection time: 2.0
Test time: 7.0
Accumulative iteration time: 1588.0
Weighted Recall: 0.9367965367965368
Weighted FalsePositiveRate: 0.010533910533910534
Kappa statistic: 0.9262626262626262
Training time: 71.0
		
Iteration: 29
Labeled set size: 791
Unlabelled set size: 364
	
Mean region size: 21.66975881261568
Incorrectly Classified Instances: 7.878787878787879
Correctly Classified Instances: 92.12121212121212
Weighted Precision: 0.936892045117754
Weighted AreaUnderROC: 0.992301368665005
Root mean squared error: 0.12744576980984598
Relative absolute error: 14.232323232323171
Root relative squared error: 36.42066235620436
Weighted TruePositiveRate: 0.9212121212121213
Weighted MatthewsCorrelation: 0.9138267114106624
Weighted FMeasure: 0.9223986908865843
Iteration time: 79.0
Weighted AreaUnderPRC: 0.9721621272388493
Mean absolute error: 0.034854669140383425
Coverage of cases: 99.13419913419914
Instances selection time: 2.0
Test time: 7.0
Accumulative iteration time: 1667.0
Weighted Recall: 0.9212121212121213
Weighted FalsePositiveRate: 0.013131313131313133
Kappa statistic: 0.908080808080808
Training time: 77.0
		
Iteration: 30
Labeled set size: 811
Unlabelled set size: 344
	
Mean region size: 21.410018552875385
Incorrectly Classified Instances: 4.761904761904762
Correctly Classified Instances: 95.23809523809524
Weighted Precision: 0.9580094277995321
Weighted AreaUnderROC: 0.9912934540207265
Root mean squared error: 0.12052246600272952
Relative absolute error: 13.424242424242376
Root relative squared error: 34.44216349567229
Weighted TruePositiveRate: 0.9523809523809523
Weighted MatthewsCorrelation: 0.9464913005851958
Weighted FMeasure: 0.9527591744221482
Iteration time: 81.0
Weighted AreaUnderPRC: 0.9695784218768322
Mean absolute error: 0.03287569573283861
Coverage of cases: 98.87445887445888
Instances selection time: 1.0
Test time: 8.0
Accumulative iteration time: 1748.0
Weighted Recall: 0.9523809523809523
Weighted FalsePositiveRate: 0.007936507936507938
Kappa statistic: 0.9444444444444444
Training time: 80.0
		
Iteration: 31
Labeled set size: 831
Unlabelled set size: 324
	
Mean region size: 20.890538033394908
Incorrectly Classified Instances: 6.926406926406926
Correctly Classified Instances: 93.07359307359307
Weighted Precision: 0.9433768272171084
Weighted AreaUnderROC: 0.9909497573133939
Root mean squared error: 0.12684263401293555
Relative absolute error: 13.555555555555493
Root relative squared error: 36.24830194559999
Weighted TruePositiveRate: 0.9307359307359307
Weighted MatthewsCorrelation: 0.9234181200671522
Weighted FMeasure: 0.9304404089831442
Iteration time: 87.0
Weighted AreaUnderPRC: 0.9695440905920324
Mean absolute error: 0.03319727891156461
Coverage of cases: 98.87445887445888
Instances selection time: 2.0
Test time: 7.0
Accumulative iteration time: 1835.0
Weighted Recall: 0.9307359307359307
Weighted FalsePositiveRate: 0.011544011544011544
Kappa statistic: 0.9191919191919191
Training time: 85.0
		
Iteration: 32
Labeled set size: 851
Unlabelled set size: 304
	
Mean region size: 20.816326530611978
Incorrectly Classified Instances: 5.974025974025974
Correctly Classified Instances: 94.02597402597402
Weighted Precision: 0.9484906712215523
Weighted AreaUnderROC: 0.9881372163190345
Root mean squared error: 0.1254897640867096
Relative absolute error: 13.313131313131258
Root relative squared error: 35.86168716137878
Weighted TruePositiveRate: 0.9402597402597402
Weighted MatthewsCorrelation: 0.9332387074488645
Weighted FMeasure: 0.9406129824284383
Iteration time: 82.0
Weighted AreaUnderPRC: 0.9603926519039662
Mean absolute error: 0.03260358688930118
Coverage of cases: 98.35497835497836
Instances selection time: 1.0
Test time: 7.0
Accumulative iteration time: 1917.0
Weighted Recall: 0.9402597402597402
Weighted FalsePositiveRate: 0.009956709956709957
Kappa statistic: 0.9303030303030302
Training time: 81.0
		
Iteration: 33
Labeled set size: 871
Unlabelled set size: 284
	
Mean region size: 21.570810142238436
Incorrectly Classified Instances: 7.619047619047619
Correctly Classified Instances: 92.38095238095238
Weighted Precision: 0.935858963667089
Weighted AreaUnderROC: 0.9902208229480958
Root mean squared error: 0.129276565651769
Relative absolute error: 14.424242424242363
Root relative squared error: 36.94385584706176
Weighted TruePositiveRate: 0.9238095238095239
Weighted MatthewsCorrelation: 0.9154406680316931
Weighted FMeasure: 0.9244321838815598
Iteration time: 88.0
Weighted AreaUnderPRC: 0.9659795508279079
Mean absolute error: 0.03532467532467533
Coverage of cases: 98.78787878787878
Instances selection time: 1.0
Test time: 7.0
Accumulative iteration time: 2005.0
Weighted Recall: 0.9238095238095239
Weighted FalsePositiveRate: 0.0126984126984127
Kappa statistic: 0.9111111111111112
Training time: 87.0
		
Iteration: 34
Labeled set size: 891
Unlabelled set size: 264
	
Mean region size: 21.38528138528112
Incorrectly Classified Instances: 7.532467532467533
Correctly Classified Instances: 92.46753246753246
Weighted Precision: 0.9358752922171838
Weighted AreaUnderROC: 0.9933556342647251
Root mean squared error: 0.12807503984690874
Relative absolute error: 13.898989898989836
Root relative squared error: 36.60049124801406
Weighted TruePositiveRate: 0.9246753246753247
Weighted MatthewsCorrelation: 0.9157662043570716
Weighted FMeasure: 0.9241253532440317
Iteration time: 87.0
Weighted AreaUnderPRC: 0.9708554042780461
Mean absolute error: 0.03403834260977117
Coverage of cases: 99.48051948051948
Instances selection time: 1.0
Test time: 7.0
Accumulative iteration time: 2092.0
Weighted Recall: 0.9246753246753247
Weighted FalsePositiveRate: 0.012554112554112554
Kappa statistic: 0.912121212121212
Training time: 86.0
		
Iteration: 35
Labeled set size: 911
Unlabelled set size: 244
	
Mean region size: 21.125541125540845
Incorrectly Classified Instances: 5.974025974025974
Correctly Classified Instances: 94.02597402597402
Weighted Precision: 0.9459291707869419
Weighted AreaUnderROC: 0.9949792295246841
Root mean squared error: 0.11505154662026719
Relative absolute error: 12.242424242424176
Root relative squared error: 32.87871805606319
Weighted TruePositiveRate: 0.9402597402597402
Weighted MatthewsCorrelation: 0.9321942021724811
Weighted FMeasure: 0.940128602489755
Iteration time: 92.0
Weighted AreaUnderPRC: 0.9776293746142014
Mean absolute error: 0.029981447124304235
Coverage of cases: 99.56709956709956
Instances selection time: 1.0
Test time: 7.0
Accumulative iteration time: 2184.0
Weighted Recall: 0.9402597402597402
Weighted FalsePositiveRate: 0.009956709956709957
Kappa statistic: 0.9303030303030302
Training time: 91.0
		
Iteration: 36
Labeled set size: 931
Unlabelled set size: 224
	
Mean region size: 20.65553494124893
Incorrectly Classified Instances: 6.32034632034632
Correctly Classified Instances: 93.67965367965368
Weighted Precision: 0.9437770149358596
Weighted AreaUnderROC: 0.9917635226726137
Root mean squared error: 0.12106515518359907
Relative absolute error: 12.777777777777713
Root relative squared error: 34.597249846912554
Weighted TruePositiveRate: 0.9367965367965368
Weighted MatthewsCorrelation: 0.9285750268377269
Weighted FMeasure: 0.9365949659442167
Iteration time: 97.0
Weighted AreaUnderPRC: 0.9749332095877276
Mean absolute error: 0.031292517006802696
Coverage of cases: 98.87445887445888
Instances selection time: 1.0
Test time: 7.0
Accumulative iteration time: 2281.0
Weighted Recall: 0.9367965367965368
Weighted FalsePositiveRate: 0.010533910533910533
Kappa statistic: 0.9262626262626262
Training time: 96.0
		
Iteration: 37
Labeled set size: 951
Unlabelled set size: 204
	
Mean region size: 20.29684601113146
Incorrectly Classified Instances: 5.714285714285714
Correctly Classified Instances: 94.28571428571429
Weighted Precision: 0.9502362657840712
Weighted AreaUnderROC: 0.9937557392102848
Root mean squared error: 0.11574821799526133
Relative absolute error: 12.020202020201946
Root relative squared error: 33.077808484562716
Weighted TruePositiveRate: 0.9428571428571428
Weighted MatthewsCorrelation: 0.9358586514328565
Weighted FMeasure: 0.9429478381108665
Iteration time: 101.0
Weighted AreaUnderPRC: 0.9778080753551923
Mean absolute error: 0.029437229437229383
Coverage of cases: 99.22077922077922
Instances selection time: 1.0
Test time: 7.0
Accumulative iteration time: 2382.0
Weighted Recall: 0.9428571428571428
Weighted FalsePositiveRate: 0.009523809523809525
Kappa statistic: 0.9333333333333333
Training time: 100.0
		
Iteration: 38
Labeled set size: 971
Unlabelled set size: 184
	
Mean region size: 20.643166357451825
Incorrectly Classified Instances: 6.58008658008658
Correctly Classified Instances: 93.41991341991341
Weighted Precision: 0.942767973224381
Weighted AreaUnderROC: 0.9934094188639644
Root mean squared error: 0.12174773436294746
Relative absolute error: 12.909090909090846
Root relative squared error: 34.7923130950652
Weighted TruePositiveRate: 0.9341991341991343
Weighted MatthewsCorrelation: 0.9257266341031397
Weighted FMeasure: 0.9329715649693969
Iteration time: 106.0
Weighted AreaUnderPRC: 0.975192465000658
Mean absolute error: 0.03161410018552874
Coverage of cases: 99.3073593073593
Instances selection time: 2.0
Test time: 7.0
Accumulative iteration time: 2488.0
Weighted Recall: 0.9341991341991343
Weighted FalsePositiveRate: 0.010966810966810965
Kappa statistic: 0.9232323232323233
Training time: 104.0
		
Iteration: 39
Labeled set size: 991
Unlabelled set size: 164
	
Mean region size: 20.606060606060332
Incorrectly Classified Instances: 6.233766233766234
Correctly Classified Instances: 93.76623376623377
Weighted Precision: 0.9455339881881037
Weighted AreaUnderROC: 0.9932004022913113
Root mean squared error: 0.12129990636886677
Relative absolute error: 12.818181818181744
Root relative squared error: 34.66433558596148
Weighted TruePositiveRate: 0.9376623376623376
Weighted MatthewsCorrelation: 0.9297634827448239
Weighted FMeasure: 0.9371031580271661
Iteration time: 106.0
Weighted AreaUnderPRC: 0.9730218609020829
Mean absolute error: 0.03139146567717992
Coverage of cases: 99.3073593073593
Instances selection time: 1.0
Test time: 7.0
Accumulative iteration time: 2594.0
Weighted Recall: 0.9376623376623376
Weighted FalsePositiveRate: 0.01038961038961039
Kappa statistic: 0.9272727272727272
Training time: 105.0
		
Iteration: 40
Labeled set size: 1011
Unlabelled set size: 144
	
Mean region size: 20.16079158936274
Incorrectly Classified Instances: 5.108225108225108
Correctly Classified Instances: 94.89177489177489
Weighted Precision: 0.9544717504298981
Weighted AreaUnderROC: 0.9946202282565919
Root mean squared error: 0.1112919575462272
Relative absolute error: 11.424242424242346
Root relative squared error: 31.804325987436783
Weighted TruePositiveRate: 0.9489177489177489
Weighted MatthewsCorrelation: 0.9421748790336996
Weighted FMeasure: 0.9485659306215476
Iteration time: 105.0
Weighted AreaUnderPRC: 0.9783620682226002
Mean absolute error: 0.02797773654916505
Coverage of cases: 99.48051948051948
Instances selection time: 1.0
Test time: 7.0
Accumulative iteration time: 2699.0
Weighted Recall: 0.9489177489177489
Weighted FalsePositiveRate: 0.008513708513708515
Kappa statistic: 0.9404040404040405
Training time: 104.0
		
Iteration: 41
Labeled set size: 1031
Unlabelled set size: 124
	
Mean region size: 20.27210884353714
Incorrectly Classified Instances: 5.021645021645021
Correctly Classified Instances: 94.97835497835497
Weighted Precision: 0.9521951722375613
Weighted AreaUnderROC: 0.9952044252044253
Root mean squared error: 0.10960095156428687
Relative absolute error: 11.656565656565581
Root relative squared error: 31.321080776532874
Weighted TruePositiveRate: 0.9497835497835497
Weighted MatthewsCorrelation: 0.9421125259424691
Weighted FMeasure: 0.9494046659998803
Iteration time: 119.0
Weighted AreaUnderPRC: 0.9820653783068373
Mean absolute error: 0.0285466914038342
Coverage of cases: 99.48051948051948
Instances selection time: 1.0
Test time: 7.0
Accumulative iteration time: 2818.0
Weighted Recall: 0.9497835497835497
Weighted FalsePositiveRate: 0.008369408369408369
Kappa statistic: 0.9414141414141413
Training time: 118.0
		
Iteration: 42
Labeled set size: 1051
Unlabelled set size: 104
	
Mean region size: 19.826839826839567
Incorrectly Classified Instances: 3.54978354978355
Correctly Classified Instances: 96.45021645021644
Weighted Precision: 0.9648786414527961
Weighted AreaUnderROC: 0.9943639861821679
Root mean squared error: 0.09871155107381753
Relative absolute error: 9.69696969696963
Root relative squared error: 28.209175382445558
Weighted TruePositiveRate: 0.9645021645021645
Weighted MatthewsCorrelation: 0.958650890809139
Weighted FMeasure: 0.9642896646049386
Iteration time: 120.0
Weighted AreaUnderPRC: 0.9816596182048464
Mean absolute error: 0.023747680890537973
Coverage of cases: 99.3073593073593
Instances selection time: 1.0
Test time: 6.0
Accumulative iteration time: 2938.0
Weighted Recall: 0.9645021645021645
Weighted FalsePositiveRate: 0.005916305916305917
Kappa statistic: 0.9585858585858587
Training time: 119.0
		
Iteration: 43
Labeled set size: 1071
Unlabelled set size: 84
	
Mean region size: 19.171304885590356
Incorrectly Classified Instances: 4.242424242424242
Correctly Classified Instances: 95.75757575757575
Weighted Precision: 0.9581425260803863
Weighted AreaUnderROC: 0.9952096724823999
Root mean squared error: 0.09544998074900031
Relative absolute error: 8.78787878787873
Root relative squared error: 27.27710402591155
Weighted TruePositiveRate: 0.9575757575757575
Weighted MatthewsCorrelation: 0.9507270550692114
Weighted FMeasure: 0.9576723950460386
Iteration time: 128.0
Weighted AreaUnderPRC: 0.9836634468476355
Mean absolute error: 0.021521335807050044
Coverage of cases: 99.39393939393939
Instances selection time: 0.0
Test time: 7.0
Accumulative iteration time: 3066.0
Weighted Recall: 0.9575757575757575
Weighted FalsePositiveRate: 0.007070707070707072
Kappa statistic: 0.9505050505050504
Training time: 128.0
		
Iteration: 44
Labeled set size: 1091
Unlabelled set size: 64
	
Mean region size: 20.04947433518834
Incorrectly Classified Instances: 3.6363636363636362
Correctly Classified Instances: 96.36363636363636
Weighted Precision: 0.9635218238838414
Weighted AreaUnderROC: 0.9956036556036556
Root mean squared error: 0.09626288475226934
Relative absolute error: 9.84848484848478
Root relative squared error: 27.509410694663618
Weighted TruePositiveRate: 0.9636363636363636
Weighted MatthewsCorrelation: 0.9574673029975517
Weighted FMeasure: 0.9633963413879162
Iteration time: 128.0
Weighted AreaUnderPRC: 0.9846061376798806
Mean absolute error: 0.024118738404452625
Coverage of cases: 99.48051948051948
Instances selection time: 1.0
Test time: 7.0
Accumulative iteration time: 3194.0
Weighted Recall: 0.9636363636363636
Weighted FalsePositiveRate: 0.006060606060606061
Kappa statistic: 0.9575757575757575
Training time: 127.0
		
Iteration: 45
Labeled set size: 1111
Unlabelled set size: 44
	
Mean region size: 19.233147804576095
Incorrectly Classified Instances: 3.116883116883117
Correctly Classified Instances: 96.88311688311688
Weighted Precision: 0.9690006757101787
Weighted AreaUnderROC: 0.9953552844461937
Root mean squared error: 0.08926276761409199
Relative absolute error: 8.151515151515097
Root relative squared error: 25.508960596368237
Weighted TruePositiveRate: 0.9688311688311688
Weighted MatthewsCorrelation: 0.96362567646641
Weighted FMeasure: 0.9685966972611384
Iteration time: 124.0
Weighted AreaUnderPRC: 0.9847845538776523
Mean absolute error: 0.019962894248608486
Coverage of cases: 99.39393939393939
Instances selection time: 0.0
Test time: 7.0
Accumulative iteration time: 3318.0
Weighted Recall: 0.9688311688311688
Weighted FalsePositiveRate: 0.005194805194805196
Kappa statistic: 0.9636363636363636
Training time: 124.0
		
Iteration: 46
Labeled set size: 1131
Unlabelled set size: 24
	
Mean region size: 19.764996907853803
Incorrectly Classified Instances: 4.06926406926407
Correctly Classified Instances: 95.93073593073593
Weighted Precision: 0.9594844225234447
Weighted AreaUnderROC: 0.9952131706677162
Root mean squared error: 0.09843550450265091
Relative absolute error: 9.474747474747407
Root relative squared error: 28.130288503908528
Weighted TruePositiveRate: 0.9593073593073593
Weighted MatthewsCorrelation: 0.9525751935262917
Weighted FMeasure: 0.9592711480272719
Iteration time: 131.0
Weighted AreaUnderPRC: 0.9827734044485615
Mean absolute error: 0.02320346320346314
Coverage of cases: 99.48051948051948
Instances selection time: 0.0
Test time: 7.0
Accumulative iteration time: 3449.0
Weighted Recall: 0.9593073593073593
Weighted FalsePositiveRate: 0.006782106782106781
Kappa statistic: 0.9525252525252526
Training time: 131.0
		
Time end:Wed Nov 01 08.09.49 EET 2017