Wed Nov 01 07.30.21 EET 2017
Dataset: segment
Test set size: 1155
Initial Labelled set size: 231
Initial Unlabelled set size: 924
Batch mode: QBestBatchMode
Batch size: 20
Classifiers: SMO-1cores
Scenario: PoolBasedSamplingScenario
Query strategy: EntropySamplingQueryStrategy-1cores
Time begining: Wed Nov 01 07.30.21 EET 2017
		
Iteration: 1
Labeled set size: 231
Unlabelled set size: 924
	
Mean region size: 72.03463203463042
Incorrectly Classified Instances: 13.16017316017316
Correctly Classified Instances: 86.83982683982684
Weighted Precision: 0.8657826673895044
Weighted AreaUnderROC: 0.961714985351349
Root mean squared error: 0.30539091227244003
Relative absolute error: 84.41077441077567
Root relative squared error: 87.27272250089607
Weighted TruePositiveRate: 0.8683982683982684
Weighted MatthewsCorrelation: 0.8448596711575148
Weighted FMeasure: 0.8658830958160142
Iteration time: 300.0
Weighted AreaUnderPRC: 0.8223168973955269
Mean absolute error: 0.206720263863125
Coverage of cases: 99.82683982683983
Instances selection time: 12.0
Test time: 14.0
Accumulative iteration time: 300.0
Weighted Recall: 0.8683982683982684
Weighted FalsePositiveRate: 0.021933621933621934
Kappa statistic: 0.8464646464646464
Training time: 288.0
		
Iteration: 2
Labeled set size: 251
Unlabelled set size: 904
	
Mean region size: 71.89857761286171
Incorrectly Classified Instances: 13.41991341991342
Correctly Classified Instances: 86.58008658008659
Weighted Precision: 0.8633536827894075
Weighted AreaUnderROC: 0.9610057282784558
Root mean squared error: 0.30557086292000923
Relative absolute error: 84.45406445406573
Root relative squared error: 87.32414768186266
Weighted TruePositiveRate: 0.8658008658008658
Weighted MatthewsCorrelation: 0.8419543087087468
Weighted FMeasure: 0.863525813301258
Iteration time: 273.0
Weighted AreaUnderPRC: 0.8171894250946528
Mean absolute error: 0.20682628029567204
Coverage of cases: 99.82683982683983
Instances selection time: 8.0
Test time: 15.0
Accumulative iteration time: 573.0
Weighted Recall: 0.8658008658008658
Weighted FalsePositiveRate: 0.022366522366522364
Kappa statistic: 0.8434343434343434
Training time: 265.0
		
Iteration: 3
Labeled set size: 271
Unlabelled set size: 884
	
Mean region size: 71.7377860234987
Incorrectly Classified Instances: 13.073593073593074
Correctly Classified Instances: 86.92640692640693
Weighted Precision: 0.8671267876731157
Weighted AreaUnderROC: 0.9630451703178978
Root mean squared error: 0.30533396702831767
Relative absolute error: 84.39153439153566
Root relative squared error: 87.25644904190196
Weighted TruePositiveRate: 0.8692640692640693
Weighted MatthewsCorrelation: 0.8461501998477747
Weighted FMeasure: 0.867158485820787
Iteration time: 276.0
Weighted AreaUnderPRC: 0.8224942252275695
Mean absolute error: 0.20667314544865964
Coverage of cases: 99.82683982683983
Instances selection time: 10.0
Test time: 17.0
Accumulative iteration time: 849.0
Weighted Recall: 0.8692640692640693
Weighted FalsePositiveRate: 0.02178932178932179
Kappa statistic: 0.8474747474747474
Training time: 266.0
		
Iteration: 4
Labeled set size: 291
Unlabelled set size: 864
	
Mean region size: 71.62646876932436
Incorrectly Classified Instances: 12.987012987012987
Correctly Classified Instances: 87.01298701298701
Weighted Precision: 0.8683249014758995
Weighted AreaUnderROC: 0.9640259740259741
Root mean squared error: 0.3052108555269739
Relative absolute error: 84.35305435305561
Root relative squared error: 87.22126699992994
Weighted TruePositiveRate: 0.8701298701298701
Weighted MatthewsCorrelation: 0.8473930390368476
Weighted FMeasure: 0.8684476824324555
Iteration time: 279.0
Weighted AreaUnderPRC: 0.8258524571845421
Mean absolute error: 0.2065789086197289
Coverage of cases: 99.82683982683983
Instances selection time: 9.0
Test time: 14.0
Accumulative iteration time: 1128.0
Weighted Recall: 0.8701298701298701
Weighted FalsePositiveRate: 0.021645021645021644
Kappa statistic: 0.8484848484848484
Training time: 270.0
		
Iteration: 5
Labeled set size: 311
Unlabelled set size: 844
	
Mean region size: 71.67594310451295
Incorrectly Classified Instances: 13.073593073593074
Correctly Classified Instances: 86.92640692640693
Weighted Precision: 0.8672821276879742
Weighted AreaUnderROC: 0.963617998163453
Root mean squared error: 0.3052402598014958
Relative absolute error: 84.36267436267562
Root relative squared error: 87.22966997129406
Weighted TruePositiveRate: 0.8692640692640693
Weighted MatthewsCorrelation: 0.8462891600438208
Weighted FMeasure: 0.8674653615309917
Iteration time: 278.0
Weighted AreaUnderPRC: 0.8247743393852193
Mean absolute error: 0.2066024678269616
Coverage of cases: 99.82683982683983
Instances selection time: 10.0
Test time: 17.0
Accumulative iteration time: 1406.0
Weighted Recall: 0.8692640692640693
Weighted FalsePositiveRate: 0.02178932178932179
Kappa statistic: 0.8474747474747474
Training time: 268.0
		
Iteration: 6
Labeled set size: 331
Unlabelled set size: 824
	
Mean region size: 71.7748917748902
Incorrectly Classified Instances: 12.380952380952381
Correctly Classified Instances: 87.61904761904762
Weighted Precision: 0.8768855224559217
Weighted AreaUnderROC: 0.9685106476015567
Root mean squared error: 0.30479153638672635
Relative absolute error: 84.25685425685552
Root relative squared error: 87.10143657441455
Weighted TruePositiveRate: 0.8761904761904762
Weighted MatthewsCorrelation: 0.8555057894801927
Weighted FMeasure: 0.8750754709667012
Iteration time: 283.0
Weighted AreaUnderPRC: 0.8375228687080573
Mean absolute error: 0.20634331654740215
Coverage of cases: 99.82683982683983
Instances selection time: 8.0
Test time: 14.0
Accumulative iteration time: 1689.0
Weighted Recall: 0.8761904761904762
Weighted FalsePositiveRate: 0.020634920634920638
Kappa statistic: 0.8555555555555555
Training time: 275.0
		
Iteration: 7
Labeled set size: 351
Unlabelled set size: 804
	
Mean region size: 71.88620902906455
Incorrectly Classified Instances: 12.207792207792208
Correctly Classified Instances: 87.79220779220779
Weighted Precision: 0.8797934950693826
Weighted AreaUnderROC: 0.9697280160916524
Root mean squared error: 0.30463138089011316
Relative absolute error: 84.22318422318548
Root relative squared error: 87.05566832902404
Weighted TruePositiveRate: 0.8779220779220779
Weighted MatthewsCorrelation: 0.8581188668892361
Weighted FMeasure: 0.8774821012714793
Iteration time: 286.0
Weighted AreaUnderPRC: 0.8412334144384873
Mean absolute error: 0.20626085932208776
Coverage of cases: 99.82683982683983
Instances selection time: 8.0
Test time: 14.0
Accumulative iteration time: 1975.0
Weighted Recall: 0.8779220779220779
Weighted FalsePositiveRate: 0.020346320346320345
Kappa statistic: 0.8575757575757574
Training time: 278.0
		
Iteration: 8
Labeled set size: 371
Unlabelled set size: 784
	
Mean region size: 72.00989486703612
Incorrectly Classified Instances: 10.822510822510823
Correctly Classified Instances: 89.17748917748918
Weighted Precision: 0.8925531133216347
Weighted AreaUnderROC: 0.9741615287069832
Root mean squared error: 0.30423246706280105
Relative absolute error: 84.12217412217538
Root relative squared error: 86.94166920739424
Weighted TruePositiveRate: 0.8917748917748918
Weighted MatthewsCorrelation: 0.8738612131517891
Weighted FMeasure: 0.8912401997178291
Iteration time: 283.0
Weighted AreaUnderPRC: 0.8589031833662665
Mean absolute error: 0.20601348764614466
Coverage of cases: 99.82683982683983
Instances selection time: 9.0
Test time: 14.0
Accumulative iteration time: 2258.0
Weighted Recall: 0.8917748917748918
Weighted FalsePositiveRate: 0.018037518037518036
Kappa statistic: 0.8737373737373737
Training time: 274.0
		
Iteration: 9
Labeled set size: 391
Unlabelled set size: 764
	
Mean region size: 72.31910946196487
Incorrectly Classified Instances: 10.822510822510823
Correctly Classified Instances: 89.17748917748918
Weighted Precision: 0.8925497459967875
Weighted AreaUnderROC: 0.972531374349556
Root mean squared error: 0.30430713042757823
Relative absolute error: 84.1558441558454
Root relative squared error: 86.96300604111563
Weighted TruePositiveRate: 0.8917748917748918
Weighted MatthewsCorrelation: 0.8738799784124215
Weighted FMeasure: 0.8913023107786313
Iteration time: 275.0
Weighted AreaUnderPRC: 0.8573480548895864
Mean absolute error: 0.20609594487145902
Coverage of cases: 99.82683982683983
Instances selection time: 8.0
Test time: 18.0
Accumulative iteration time: 2533.0
Weighted Recall: 0.8917748917748918
Weighted FalsePositiveRate: 0.01803751803751804
Kappa statistic: 0.8737373737373737
Training time: 267.0
		
Iteration: 10
Labeled set size: 411
Unlabelled set size: 744
	
Mean region size: 72.38095238095065
Incorrectly Classified Instances: 11.168831168831169
Correctly Classified Instances: 88.83116883116882
Weighted Precision: 0.8906096260800966
Weighted AreaUnderROC: 0.9718046263500809
Root mean squared error: 0.3043476806274543
Relative absolute error: 84.16546416546541
Root relative squared error: 86.9745942259598
Weighted TruePositiveRate: 0.8883116883116883
Weighted MatthewsCorrelation: 0.8706101851444521
Weighted FMeasure: 0.8887340070023497
Iteration time: 297.0
Weighted AreaUnderPRC: 0.8561287970195229
Mean absolute error: 0.20611950407869167
Coverage of cases: 99.82683982683983
Instances selection time: 5.0
Test time: 18.0
Accumulative iteration time: 2830.0
Weighted Recall: 0.8883116883116883
Weighted FalsePositiveRate: 0.018614718614718615
Kappa statistic: 0.8696969696969695
Training time: 292.0
		
Iteration: 11
Labeled set size: 431
Unlabelled set size: 724
	
Mean region size: 72.00989486703605
Incorrectly Classified Instances: 12.727272727272727
Correctly Classified Instances: 87.27272727272727
Weighted Precision: 0.8766106276665895
Weighted AreaUnderROC: 0.9687179150815515
Root mean squared error: 0.3045319316663179
Relative absolute error: 84.22318422318548
Root relative squared error: 87.02724834610238
Weighted TruePositiveRate: 0.8727272727272727
Weighted MatthewsCorrelation: 0.8528210018017489
Weighted FMeasure: 0.8725321226334025
Iteration time: 247.0
Weighted AreaUnderPRC: 0.8354243257036221
Mean absolute error: 0.20626085932208776
Coverage of cases: 99.82683982683983
Instances selection time: 3.0
Test time: 10.0
Accumulative iteration time: 3077.0
Weighted Recall: 0.8727272727272727
Weighted FalsePositiveRate: 0.021212121212121217
Kappa statistic: 0.8515151515151513
Training time: 244.0
		
Iteration: 12
Labeled set size: 451
Unlabelled set size: 704
	
Mean region size: 72.30674087816772
Incorrectly Classified Instances: 11.341991341991342
Correctly Classified Instances: 88.65800865800865
Weighted Precision: 0.8872369693798267
Weighted AreaUnderROC: 0.9703100266736632
Root mean squared error: 0.30421034106516737
Relative absolute error: 84.15103415103543
Root relative squared error: 86.93534617689811
Weighted TruePositiveRate: 0.8865800865800866
Weighted MatthewsCorrelation: 0.8675890705970046
Weighted FMeasure: 0.8854552254415912
Iteration time: 268.0
Weighted AreaUnderPRC: 0.847842568799126
Mean absolute error: 0.20608416526784273
Coverage of cases: 99.82683982683983
Instances selection time: 8.0
Test time: 18.0
Accumulative iteration time: 3345.0
Weighted Recall: 0.8865800865800866
Weighted FalsePositiveRate: 0.018903318903318905
Kappa statistic: 0.8676767676767677
Training time: 260.0
		
Iteration: 13
Labeled set size: 471
Unlabelled set size: 684
	
Mean region size: 72.7149041434738
Incorrectly Classified Instances: 11.515151515151516
Correctly Classified Instances: 88.48484848484848
Weighted Precision: 0.8855916083851012
Weighted AreaUnderROC: 0.9700179281997464
Root mean squared error: 0.3042084971593896
Relative absolute error: 84.15584415584543
Root relative squared error: 86.93481923693102
Weighted TruePositiveRate: 0.8848484848484849
Weighted MatthewsCorrelation: 0.8656315664198493
Weighted FMeasure: 0.8838420955230529
Iteration time: 288.0
Weighted AreaUnderPRC: 0.8465776244111639
Mean absolute error: 0.20609594487145907
Coverage of cases: 99.82683982683983
Instances selection time: 7.0
Test time: 14.0
Accumulative iteration time: 3633.0
Weighted Recall: 0.8848484848484849
Weighted FalsePositiveRate: 0.019191919191919198
Kappa statistic: 0.8656565656565656
Training time: 281.0
		
Iteration: 14
Labeled set size: 491
Unlabelled set size: 664
	
Mean region size: 72.6654298082852
Incorrectly Classified Instances: 11.341991341991342
Correctly Classified Instances: 88.65800865800865
Weighted Precision: 0.8872369693798267
Weighted AreaUnderROC: 0.9704162840526477
Root mean squared error: 0.3041762269988903
Relative absolute error: 84.14622414622542
Root relative squared error: 86.92559727043124
Weighted TruePositiveRate: 0.8865800865800866
Weighted MatthewsCorrelation: 0.8675890705970046
Weighted FMeasure: 0.8854552254415912
Iteration time: 291.0
Weighted AreaUnderPRC: 0.8478410250405932
Mean absolute error: 0.20607238566422642
Coverage of cases: 99.82683982683983
Instances selection time: 8.0
Test time: 14.0
Accumulative iteration time: 3924.0
Weighted Recall: 0.8865800865800866
Weighted FalsePositiveRate: 0.018903318903318905
Kappa statistic: 0.8676767676767677
Training time: 283.0
		
Iteration: 15
Labeled set size: 511
Unlabelled set size: 644
	
Mean region size: 72.80148423005389
Incorrectly Classified Instances: 11.255411255411255
Correctly Classified Instances: 88.74458874458874
Weighted Precision: 0.8881807752686876
Weighted AreaUnderROC: 0.970785779876689
Root mean squared error: 0.3040821629982846
Relative absolute error: 84.1269841269854
Root relative squared error: 86.89871624322222
Weighted TruePositiveRate: 0.8874458874458875
Weighted MatthewsCorrelation: 0.8686717041781881
Weighted FMeasure: 0.8864866833346245
Iteration time: 298.0
Weighted AreaUnderPRC: 0.8479505365517203
Mean absolute error: 0.20602526724976106
Coverage of cases: 99.82683982683983
Instances selection time: 7.0
Test time: 14.0
Accumulative iteration time: 4222.0
Weighted Recall: 0.8874458874458875
Weighted FalsePositiveRate: 0.01875901875901876
Kappa statistic: 0.8686868686868687
Training time: 291.0
		
Iteration: 16
Labeled set size: 531
Unlabelled set size: 624
	
Mean region size: 72.70253555967663
Incorrectly Classified Instances: 10.909090909090908
Correctly Classified Instances: 89.0909090909091
Weighted Precision: 0.8932638093427635
Weighted AreaUnderROC: 0.9714526214526215
Root mean squared error: 0.3039733075453529
Relative absolute error: 84.09331409331537
Root relative squared error: 86.86760820642529
Weighted TruePositiveRate: 0.8909090909090909
Weighted MatthewsCorrelation: 0.873624726678622
Weighted FMeasure: 0.8912231169422751
Iteration time: 291.0
Weighted AreaUnderPRC: 0.8524140236431477
Mean absolute error: 0.20594281002444667
Coverage of cases: 99.82683982683983
Instances selection time: 11.0
Test time: 17.0
Accumulative iteration time: 4513.0
Weighted Recall: 0.8909090909090909
Weighted FalsePositiveRate: 0.018181818181818184
Kappa statistic: 0.8727272727272727
Training time: 280.0
		
Iteration: 17
Labeled set size: 551
Unlabelled set size: 604
	
Mean region size: 72.81385281385106
Incorrectly Classified Instances: 11.86147186147186
Correctly Classified Instances: 88.13852813852814
Weighted Precision: 0.8874275177702398
Weighted AreaUnderROC: 0.9709987319078229
Root mean squared error: 0.30415040840532426
Relative absolute error: 84.14141414141537
Root relative squared error: 86.91821899275139
Weighted TruePositiveRate: 0.8813852813852814
Weighted MatthewsCorrelation: 0.8641990418439869
Weighted FMeasure: 0.88319413352613
Iteration time: 298.0
Weighted AreaUnderPRC: 0.8484195652995513
Mean absolute error: 0.20606060606060997
Coverage of cases: 99.82683982683983
Instances selection time: 7.0
Test time: 19.0
Accumulative iteration time: 4811.0
Weighted Recall: 0.8813852813852814
Weighted FalsePositiveRate: 0.01976911976911977
Kappa statistic: 0.8616161616161616
Training time: 291.0
		
Iteration: 18
Labeled set size: 571
Unlabelled set size: 584
	
Mean region size: 72.5046382189222
Incorrectly Classified Instances: 12.121212121212121
Correctly Classified Instances: 87.87878787878788
Weighted Precision: 0.8848542904294417
Weighted AreaUnderROC: 0.9707341816432725
Root mean squared error: 0.30424721683395445
Relative absolute error: 84.16065416065538
Root relative squared error: 86.94588430559492
Weighted TruePositiveRate: 0.8787878787878788
Weighted MatthewsCorrelation: 0.8611613098077704
Weighted FMeasure: 0.8805041511275165
Iteration time: 298.0
Weighted AreaUnderPRC: 0.8464858175310102
Mean absolute error: 0.2061077244750753
Coverage of cases: 99.82683982683983
Instances selection time: 7.0
Test time: 19.0
Accumulative iteration time: 5109.0
Weighted Recall: 0.8787878787878788
Weighted FalsePositiveRate: 0.020202020202020204
Kappa statistic: 0.8585858585858585
Training time: 291.0
		
Iteration: 19
Labeled set size: 591
Unlabelled set size: 564
	
Mean region size: 72.43042671613928
Incorrectly Classified Instances: 13.67965367965368
Correctly Classified Instances: 86.32034632034632
Weighted Precision: 0.8797407826073613
Weighted AreaUnderROC: 0.9696729196729196
Root mean squared error: 0.30458442280299763
Relative absolute error: 84.24242424242543
Root relative squared error: 87.04224893787219
Weighted TruePositiveRate: 0.8632034632034632
Weighted MatthewsCorrelation: 0.8468475683502678
Weighted FMeasure: 0.8654755282782106
Iteration time: 174.0
Weighted AreaUnderPRC: 0.8392620739584787
Mean absolute error: 0.20630797773655296
Coverage of cases: 99.82683982683983
Instances selection time: 3.0
Test time: 10.0
Accumulative iteration time: 5283.0
Weighted Recall: 0.8632034632034632
Weighted FalsePositiveRate: 0.022799422799422802
Kappa statistic: 0.8404040404040403
Training time: 171.0
		
Iteration: 20
Labeled set size: 611
Unlabelled set size: 544
	
Mean region size: 72.47990105132789
Incorrectly Classified Instances: 13.41991341991342
Correctly Classified Instances: 86.58008658008659
Weighted Precision: 0.8853377108287599
Weighted AreaUnderROC: 0.9694953867681139
Root mean squared error: 0.3045337736137497
Relative absolute error: 84.23280423280542
Root relative squared error: 87.02777472642549
Weighted TruePositiveRate: 0.8658008658008658
Weighted MatthewsCorrelation: 0.8512778568105339
Weighted FMeasure: 0.8690988708998593
Iteration time: 213.0
Weighted AreaUnderPRC: 0.842164042822062
Mean absolute error: 0.20628441852932028
Coverage of cases: 99.82683982683983
Instances selection time: 3.0
Test time: 9.0
Accumulative iteration time: 5496.0
Weighted Recall: 0.8658008658008658
Weighted FalsePositiveRate: 0.022366522366522364
Kappa statistic: 0.8434343434343434
Training time: 210.0
		
Iteration: 21
Labeled set size: 631
Unlabelled set size: 524
	
Mean region size: 72.2696351267763
Incorrectly Classified Instances: 13.852813852813853
Correctly Classified Instances: 86.14718614718615
Weighted Precision: 0.8905584049546191
Weighted AreaUnderROC: 0.9692199046744501
Root mean squared error: 0.3046645234175082
Relative absolute error: 84.25685425685543
Root relative squared error: 87.06513959512951
Weighted TruePositiveRate: 0.8614718614718615
Weighted MatthewsCorrelation: 0.8498642258196022
Weighted FMeasure: 0.8655047705431905
Iteration time: 209.0
Weighted AreaUnderPRC: 0.8449106247602848
Mean absolute error: 0.20634331654740193
Coverage of cases: 99.82683982683983
Instances selection time: 3.0
Test time: 9.0
Accumulative iteration time: 5705.0
Weighted Recall: 0.8614718614718615
Weighted FalsePositiveRate: 0.023088023088023088
Kappa statistic: 0.8383838383838385
Training time: 206.0
		
Iteration: 22
Labeled set size: 651
Unlabelled set size: 504
	
Mean region size: 72.38095238095065
Incorrectly Classified Instances: 13.67965367965368
Correctly Classified Instances: 86.32034632034632
Weighted Precision: 0.8924634400336843
Weighted AreaUnderROC: 0.9696781669508941
Root mean squared error: 0.3045660058905533
Relative absolute error: 84.2376142376154
Root relative squared error: 87.03698586675748
Weighted TruePositiveRate: 0.8632034632034632
Weighted MatthewsCorrelation: 0.8517768174294401
Weighted FMeasure: 0.8666502563072238
Iteration time: 239.0
Weighted AreaUnderPRC: 0.8462566604795956
Mean absolute error: 0.2062961981329366
Coverage of cases: 99.82683982683983
Instances selection time: 3.0
Test time: 9.0
Accumulative iteration time: 5944.0
Weighted Recall: 0.8632034632034632
Weighted FalsePositiveRate: 0.022799422799422802
Kappa statistic: 0.8404040404040403
Training time: 236.0
		
Iteration: 23
Labeled set size: 671
Unlabelled set size: 484
	
Mean region size: 72.44279529993644
Incorrectly Classified Instances: 14.458874458874458
Correctly Classified Instances: 85.54112554112554
Weighted Precision: 0.907007114923197
Weighted AreaUnderROC: 0.9701512965149329
Root mean squared error: 0.30475288586943594
Relative absolute error: 84.28571428571543
Root relative squared error: 87.090391269088
Weighted TruePositiveRate: 0.8554112554112554
Weighted MatthewsCorrelation: 0.8485290530039926
Weighted FMeasure: 0.8541410239100806
Iteration time: 170.0
Weighted AreaUnderPRC: 0.8478184190402829
Mean absolute error: 0.2064139941690999
Coverage of cases: 99.82683982683983
Instances selection time: 3.0
Test time: 10.0
Accumulative iteration time: 6114.0
Weighted Recall: 0.8554112554112554
Weighted FalsePositiveRate: 0.0240981240981241
Kappa statistic: 0.8313131313131313
Training time: 167.0
		
Iteration: 24
Labeled set size: 691
Unlabelled set size: 464
	
Mean region size: 72.46753246753077
Incorrectly Classified Instances: 18.7012987012987
Correctly Classified Instances: 81.2987012987013
Weighted Precision: 0.9078013256584686
Weighted AreaUnderROC: 0.9643163234072324
Root mean squared error: 0.3056699741294174
Relative absolute error: 84.51659451659559
Root relative squared error: 87.35247106912733
Weighted TruePositiveRate: 0.812987012987013
Weighted MatthewsCorrelation: 0.8019886095923033
Weighted FMeasure: 0.7947198840046918
Iteration time: 194.0
Weighted AreaUnderPRC: 0.8216090830527194
Mean absolute error: 0.20697941514268398
Coverage of cases: 99.82683982683983
Instances selection time: 3.0
Test time: 9.0
Accumulative iteration time: 6308.0
Weighted Recall: 0.812987012987013
Weighted FalsePositiveRate: 0.03116883116883117
Kappa statistic: 0.7818181818181817
Training time: 191.0
		
Iteration: 25
Labeled set size: 711
Unlabelled set size: 444
	
Mean region size: 72.41805813234215
Incorrectly Classified Instances: 18.874458874458874
Correctly Classified Instances: 81.12554112554112
Weighted Precision: 0.9085324740088746
Weighted AreaUnderROC: 0.9646486510122874
Root mean squared error: 0.3056910769958883
Relative absolute error: 84.5214045214056
Root relative squared error: 87.35850171553979
Weighted TruePositiveRate: 0.8112554112554112
Weighted MatthewsCorrelation: 0.8003450564416326
Weighted FMeasure: 0.79254194179963
Iteration time: 255.0
Weighted AreaUnderPRC: 0.8222302472261391
Mean absolute error: 0.20699119474630032
Coverage of cases: 99.82683982683983
Instances selection time: 2.0
Test time: 9.0
Accumulative iteration time: 6563.0
Weighted Recall: 0.8112554112554112
Weighted FalsePositiveRate: 0.03145743145743146
Kappa statistic: 0.7797979797979796
Training time: 253.0
		
Iteration: 26
Labeled set size: 731
Unlabelled set size: 424
	
Mean region size: 72.41805813234214
Incorrectly Classified Instances: 19.047619047619047
Correctly Classified Instances: 80.95238095238095
Weighted Precision: 0.90822821284254
Weighted AreaUnderROC: 0.9647640911277274
Root mean squared error: 0.3057828116579808
Relative absolute error: 84.53583453583562
Root relative squared error: 87.38471707882266
Weighted TruePositiveRate: 0.8095238095238095
Weighted MatthewsCorrelation: 0.7967713876869618
Weighted FMeasure: 0.7884877485276397
Iteration time: 179.0
Weighted AreaUnderPRC: 0.822358067630137
Mean absolute error: 0.2070265335571493
Coverage of cases: 99.82683982683983
Instances selection time: 2.0
Test time: 10.0
Accumulative iteration time: 6742.0
Weighted Recall: 0.8095238095238095
Weighted FalsePositiveRate: 0.031746031746031744
Kappa statistic: 0.7777777777777778
Training time: 177.0
		
Iteration: 27
Labeled set size: 751
Unlabelled set size: 404
	
Mean region size: 72.56648113790796
Incorrectly Classified Instances: 18.874458874458874
Correctly Classified Instances: 81.12554112554112
Weighted Precision: 0.9089304872683488
Weighted AreaUnderROC: 0.9643530543530544
Root mean squared error: 0.30570116915619905
Relative absolute error: 84.5262145262156
Root relative squared error: 87.36138579057555
Weighted TruePositiveRate: 0.8112554112554112
Weighted MatthewsCorrelation: 0.7997300156183722
Weighted FMeasure: 0.7914918418046132
Iteration time: 175.0
Weighted AreaUnderPRC: 0.8212446710574941
Mean absolute error: 0.20700297434991666
Coverage of cases: 99.82683982683983
Instances selection time: 2.0
Test time: 10.0
Accumulative iteration time: 6917.0
Weighted Recall: 0.8112554112554112
Weighted FalsePositiveRate: 0.03145743145743146
Kappa statistic: 0.7797979797979796
Training time: 173.0
		
Iteration: 28
Labeled set size: 771
Unlabelled set size: 384
	
Mean region size: 72.56648113790799
Incorrectly Classified Instances: 19.047619047619047
Correctly Classified Instances: 80.95238095238095
Weighted Precision: 0.9085905510588473
Weighted AreaUnderROC: 0.9645384581748219
Root mean squared error: 0.30576446692732195
Relative absolute error: 84.53583453583562
Root relative squared error: 87.37947463537131
Weighted TruePositiveRate: 0.8095238095238095
Weighted MatthewsCorrelation: 0.7968398258375956
Weighted FMeasure: 0.7883206732785426
Iteration time: 178.0
Weighted AreaUnderPRC: 0.8217433674410047
Mean absolute error: 0.2070265335571493
Coverage of cases: 99.82683982683983
Instances selection time: 2.0
Test time: 9.0
Accumulative iteration time: 7095.0
Weighted Recall: 0.8095238095238095
Weighted FalsePositiveRate: 0.031746031746031744
Kappa statistic: 0.7777777777777778
Training time: 176.0
		
Iteration: 29
Labeled set size: 791
Unlabelled set size: 364
	
Mean region size: 72.56648113790799
Incorrectly Classified Instances: 19.134199134199132
Correctly Classified Instances: 80.86580086580086
Weighted Precision: 0.9071158363597325
Weighted AreaUnderROC: 0.9641466614193887
Root mean squared error: 0.30578006001854263
Relative absolute error: 84.54064454064562
Root relative squared error: 87.38393073235504
Weighted TruePositiveRate: 0.8086580086580086
Weighted MatthewsCorrelation: 0.796989500625875
Weighted FMeasure: 0.7889197532269654
Iteration time: 198.0
Weighted AreaUnderPRC: 0.8193810576986529
Mean absolute error: 0.20703831316076565
Coverage of cases: 99.82683982683983
Instances selection time: 2.0
Test time: 9.0
Accumulative iteration time: 7293.0
Weighted Recall: 0.8086580086580086
Weighted FalsePositiveRate: 0.03189033189033189
Kappa statistic: 0.7767676767676768
Training time: 196.0
		
Iteration: 30
Labeled set size: 811
Unlabelled set size: 344
	
Mean region size: 72.56648113790799
Incorrectly Classified Instances: 19.134199134199132
Correctly Classified Instances: 80.86580086580086
Weighted Precision: 0.9071158363597325
Weighted AreaUnderROC: 0.9637706064978792
Root mean squared error: 0.30576721870708434
Relative absolute error: 84.54064454064562
Root relative squared error: 87.38026102193992
Weighted TruePositiveRate: 0.8086580086580086
Weighted MatthewsCorrelation: 0.796989500625875
Weighted FMeasure: 0.7889197532269654
Iteration time: 177.0
Weighted AreaUnderPRC: 0.8179490032507813
Mean absolute error: 0.20703831316076565
Coverage of cases: 99.82683982683983
Instances selection time: 2.0
Test time: 9.0
Accumulative iteration time: 7470.0
Weighted Recall: 0.8086580086580086
Weighted FalsePositiveRate: 0.03189033189033189
Kappa statistic: 0.7767676767676768
Training time: 175.0
		
Iteration: 31
Labeled set size: 831
Unlabelled set size: 324
	
Mean region size: 72.5046382189222
Incorrectly Classified Instances: 19.22077922077922
Correctly Classified Instances: 80.77922077922078
Weighted Precision: 0.9063180425467192
Weighted AreaUnderROC: 0.9638991648082555
Root mean squared error: 0.3058066581626441
Relative absolute error: 84.54545454545563
Root relative squared error: 87.39153178515629
Weighted TruePositiveRate: 0.8077922077922078
Weighted MatthewsCorrelation: 0.7959777086017571
Weighted FMeasure: 0.7879756230073219
Iteration time: 183.0
Weighted AreaUnderPRC: 0.8179838483102405
Mean absolute error: 0.207050092764382
Coverage of cases: 99.82683982683983
Instances selection time: 2.0
Test time: 10.0
Accumulative iteration time: 7653.0
Weighted Recall: 0.8077922077922078
Weighted FalsePositiveRate: 0.032034632034632034
Kappa statistic: 0.7757575757575756
Training time: 181.0
		
Iteration: 32
Labeled set size: 851
Unlabelled set size: 304
	
Mean region size: 73.16017316017133
Incorrectly Classified Instances: 18.181818181818183
Correctly Classified Instances: 81.81818181818181
Weighted Precision: 0.9090068597167988
Weighted AreaUnderROC: 0.9658109230836502
Root mean squared error: 0.3054891637745719
Relative absolute error: 84.48292448292557
Root relative squared error: 87.30080020634266
Weighted TruePositiveRate: 0.8181818181818182
Weighted MatthewsCorrelation: 0.8047438837739578
Weighted FMeasure: 0.7966453901522482
Iteration time: 180.0
Weighted AreaUnderPRC: 0.8265040525727976
Mean absolute error: 0.20689695791736962
Coverage of cases: 99.82683982683983
Instances selection time: 2.0
Test time: 10.0
Accumulative iteration time: 7833.0
Weighted Recall: 0.8181818181818182
Weighted FalsePositiveRate: 0.030303030303030304
Kappa statistic: 0.7878787878787878
Training time: 178.0
		
Iteration: 33
Labeled set size: 871
Unlabelled set size: 284
	
Mean region size: 73.43228200370865
Incorrectly Classified Instances: 16.796536796536795
Correctly Classified Instances: 83.2034632034632
Weighted Precision: 0.9116670718920479
Weighted AreaUnderROC: 0.9684730421094057
Root mean squared error: 0.3051217065065532
Relative absolute error: 84.40115440115551
Root relative squared error: 87.19579054530163
Weighted TruePositiveRate: 0.832034632034632
Weighted MatthewsCorrelation: 0.8157306815555556
Weighted FMeasure: 0.8069287072640763
Iteration time: 184.0
Weighted AreaUnderPRC: 0.8366633793013349
Mean absolute error: 0.20669670465589193
Coverage of cases: 99.82683982683983
Instances selection time: 2.0
Test time: 10.0
Accumulative iteration time: 8017.0
Weighted Recall: 0.832034632034632
Weighted FalsePositiveRate: 0.02799422799422799
Kappa statistic: 0.8040404040404039
Training time: 182.0
		
Iteration: 34
Labeled set size: 891
Unlabelled set size: 264
	
Mean region size: 73.33333333333145
Incorrectly Classified Instances: 16.883116883116884
Correctly Classified Instances: 83.11688311688312
Weighted Precision: 0.9071892483571499
Weighted AreaUnderROC: 0.9675914994096811
Root mean squared error: 0.3051722581170768
Relative absolute error: 84.41558441558553
Root relative squared error: 87.21023687130517
Weighted TruePositiveRate: 0.8311688311688312
Weighted MatthewsCorrelation: 0.8133038111146459
Weighted FMeasure: 0.8059509882455387
Iteration time: 194.0
Weighted AreaUnderPRC: 0.8340259762636312
Mean absolute error: 0.20673204346674096
Coverage of cases: 99.82683982683983
Instances selection time: 2.0
Test time: 9.0
Accumulative iteration time: 8211.0
Weighted Recall: 0.8311688311688312
Weighted FalsePositiveRate: 0.02813852813852814
Kappa statistic: 0.8030303030303031
Training time: 192.0
		
Iteration: 35
Labeled set size: 911
Unlabelled set size: 244
	
Mean region size: 73.48175633889727
Incorrectly Classified Instances: 16.883116883116884
Correctly Classified Instances: 83.11688311688312
Weighted Precision: 0.9064502108058138
Weighted AreaUnderROC: 0.9670737679828588
Root mean squared error: 0.3051722581170767
Relative absolute error: 84.42520442520555
Root relative squared error: 87.21023687130514
Weighted TruePositiveRate: 0.8311688311688312
Weighted MatthewsCorrelation: 0.8136594642286125
Weighted FMeasure: 0.806589946613187
Iteration time: 201.0
Weighted AreaUnderPRC: 0.8335672077253928
Mean absolute error: 0.20675560267397364
Coverage of cases: 99.82683982683983
Instances selection time: 6.0
Test time: 14.0
Accumulative iteration time: 8412.0
Weighted Recall: 0.8311688311688312
Weighted FalsePositiveRate: 0.02813852813852814
Kappa statistic: 0.8030303030303031
Training time: 195.0
		
Iteration: 36
Labeled set size: 931
Unlabelled set size: 224
	
Mean region size: 73.64254792826026
Incorrectly Classified Instances: 16.70995670995671
Correctly Classified Instances: 83.29004329004329
Weighted Precision: 0.905357391640772
Weighted AreaUnderROC: 0.9683768420132056
Root mean squared error: 0.3050904522306176
Relative absolute error: 84.41077441077552
Root relative squared error: 87.18685889199736
Weighted TruePositiveRate: 0.8329004329004329
Weighted MatthewsCorrelation: 0.8137382995098014
Weighted FMeasure: 0.8067655122706748
Iteration time: 238.0
Weighted AreaUnderPRC: 0.8361275825066147
Mean absolute error: 0.20672026386312461
Coverage of cases: 99.82683982683983
Instances selection time: 1.0
Test time: 10.0
Accumulative iteration time: 8650.0
Weighted Recall: 0.8329004329004329
Weighted FalsePositiveRate: 0.027849927849927847
Kappa statistic: 0.8050505050505049
Training time: 237.0
		
Iteration: 37
Labeled set size: 951
Unlabelled set size: 204
	
Mean region size: 73.49412492269443
Incorrectly Classified Instances: 16.796536796536795
Correctly Classified Instances: 83.2034632034632
Weighted Precision: 0.9044860078833653
Weighted AreaUnderROC: 0.9676286676286676
Root mean squared error: 0.30516766286215213
Relative absolute error: 84.42039442039552
Root relative squared error: 87.20892366782809
Weighted TruePositiveRate: 0.832034632034632
Weighted MatthewsCorrelation: 0.8119821855979625
Weighted FMeasure: 0.804950752709029
Iteration time: 184.0
Weighted AreaUnderPRC: 0.8323570487140679
Mean absolute error: 0.2067438230703573
Coverage of cases: 99.82683982683983
Instances selection time: 1.0
Test time: 10.0
Accumulative iteration time: 8834.0
Weighted Recall: 0.832034632034632
Weighted FalsePositiveRate: 0.027994227994227995
Kappa statistic: 0.8040404040404039
Training time: 183.0
		
Iteration: 38
Labeled set size: 971
Unlabelled set size: 184
	
Mean region size: 73.43228200370865
Incorrectly Classified Instances: 16.623376623376622
Correctly Classified Instances: 83.37662337662337
Weighted Precision: 0.897200703407031
Weighted AreaUnderROC: 0.968698237789147
Root mean squared error: 0.3051014835171231
Relative absolute error: 84.40115440115552
Root relative squared error: 87.1900113446976
Weighted TruePositiveRate: 0.8337662337662337
Weighted MatthewsCorrelation: 0.812692556347293
Weighted FMeasure: 0.8075960518020777
Iteration time: 185.0
Weighted AreaUnderPRC: 0.8358965156575605
Mean absolute error: 0.20669670465589196
Coverage of cases: 99.82683982683983
Instances selection time: 1.0
Test time: 10.0
Accumulative iteration time: 9019.0
Weighted Recall: 0.8337662337662337
Weighted FalsePositiveRate: 0.027705627705627706
Kappa statistic: 0.806060606060606
Training time: 184.0
		
Iteration: 39
Labeled set size: 991
Unlabelled set size: 164
	
Mean region size: 73.3951762523172
Incorrectly Classified Instances: 16.450216450216452
Correctly Classified Instances: 83.54978354978356
Weighted Precision: 0.8953028203884776
Weighted AreaUnderROC: 0.9698329616511435
Root mean squared error: 0.3050729852112071
Relative absolute error: 84.39634439634553
Root relative squared error: 87.18186727542769
Weighted TruePositiveRate: 0.8354978354978355
Weighted MatthewsCorrelation: 0.8124770048340179
Weighted FMeasure: 0.8076315378190582
Iteration time: 192.0
Weighted AreaUnderPRC: 0.837223014628597
Mean absolute error: 0.20668492505227565
Coverage of cases: 99.82683982683983
Instances selection time: 1.0
Test time: 10.0
Accumulative iteration time: 9211.0
Weighted Recall: 0.8354978354978355
Weighted FalsePositiveRate: 0.02741702741702742
Kappa statistic: 0.8080808080808081
Training time: 191.0
		
Iteration: 40
Labeled set size: 1011
Unlabelled set size: 144
	
Mean region size: 73.61781076066595
Incorrectly Classified Instances: 15.064935064935066
Correctly Classified Instances: 84.93506493506493
Weighted Precision: 0.8914127984866409
Weighted AreaUnderROC: 0.9716039179675543
Root mean squared error: 0.3046516350852887
Relative absolute error: 84.30495430495546
Root relative squared error: 87.06145644741264
Weighted TruePositiveRate: 0.8493506493506493
Weighted MatthewsCorrelation: 0.8322096412939645
Weighted FMeasure: 0.8346818649440642
Iteration time: 194.0
Weighted AreaUnderPRC: 0.8463713509424227
Mean absolute error: 0.20646111258356528
Coverage of cases: 99.82683982683983
Instances selection time: 2.0
Test time: 9.0
Accumulative iteration time: 9405.0
Weighted Recall: 0.8493506493506493
Weighted FalsePositiveRate: 0.025108225108225107
Kappa statistic: 0.8242424242424242
Training time: 192.0
		
Iteration: 41
Labeled set size: 1031
Unlabelled set size: 124
	
Mean region size: 73.45701917130295
Incorrectly Classified Instances: 10.476190476190476
Correctly Classified Instances: 89.52380952380952
Weighted Precision: 0.8962643043700117
Weighted AreaUnderROC: 0.9742393633302724
Root mean squared error: 0.3036465070424829
Relative absolute error: 84.05002405002531
Root relative squared error: 86.7742171837917
Weighted TruePositiveRate: 0.8952380952380953
Weighted MatthewsCorrelation: 0.8782321805899286
Weighted FMeasure: 0.8955955663058697
Iteration time: 192.0
Weighted AreaUnderPRC: 0.8610554836860487
Mean absolute error: 0.2058367935918996
Coverage of cases: 99.82683982683983
Instances selection time: 1.0
Test time: 10.0
Accumulative iteration time: 9597.0
Weighted Recall: 0.8952380952380953
Weighted FalsePositiveRate: 0.017460317460317457
Kappa statistic: 0.8777777777777777
Training time: 191.0
		
Iteration: 42
Labeled set size: 1051
Unlabelled set size: 104
	
Mean region size: 73.60544217686879
Incorrectly Classified Instances: 9.61038961038961
Correctly Classified Instances: 90.3896103896104
Weighted Precision: 0.9051780132634598
Weighted AreaUnderROC: 0.9749197603743058
Root mean squared error: 0.303432141781017
Relative absolute error: 84.00192400192527
Root relative squared error: 86.7129572077219
Weighted TruePositiveRate: 0.9038961038961039
Weighted MatthewsCorrelation: 0.8883503064380206
Weighted FMeasure: 0.9039888346923319
Iteration time: 199.0
Weighted AreaUnderPRC: 0.8672283147425902
Mean absolute error: 0.20571899755573625
Coverage of cases: 99.82683982683983
Instances selection time: 1.0
Test time: 9.0
Accumulative iteration time: 9796.0
Weighted Recall: 0.9038961038961039
Weighted FalsePositiveRate: 0.016017316017316017
Kappa statistic: 0.8878787878787877
Training time: 198.0
		
Iteration: 43
Labeled set size: 1071
Unlabelled set size: 84
	
Mean region size: 73.63017934446309
Incorrectly Classified Instances: 9.956709956709958
Correctly Classified Instances: 90.04329004329004
Weighted Precision: 0.9017471458780456
Weighted AreaUnderROC: 0.9742809042809043
Root mean squared error: 0.3035042297551177
Relative absolute error: 84.0211640211653
Root relative squared error: 86.73355806225463
Weighted TruePositiveRate: 0.9004329004329005
Weighted MatthewsCorrelation: 0.8843334628692825
Weighted FMeasure: 0.9005669608401535
Iteration time: 197.0
Weighted AreaUnderPRC: 0.8647273506187202
Mean absolute error: 0.2057661159702016
Coverage of cases: 99.82683982683983
Instances selection time: 0.0
Test time: 10.0
Accumulative iteration time: 9993.0
Weighted Recall: 0.9004329004329005
Weighted FalsePositiveRate: 0.016594516594516592
Kappa statistic: 0.8838383838383838
Training time: 197.0
		
Iteration: 44
Labeled set size: 1091
Unlabelled set size: 64
	
Mean region size: 73.6301793444631
Incorrectly Classified Instances: 9.696969696969697
Correctly Classified Instances: 90.3030303030303
Weighted Precision: 0.9038659576354482
Weighted AreaUnderROC: 0.9754803445712537
Root mean squared error: 0.30340256227269713
Relative absolute error: 83.99711399711529
Root relative squared error: 86.70450415912886
Weighted TruePositiveRate: 0.9030303030303031
Weighted MatthewsCorrelation: 0.8870608054198958
Weighted FMeasure: 0.9026780551775017
Iteration time: 201.0
Weighted AreaUnderPRC: 0.8686324377050083
Mean absolute error: 0.20570721795211994
Coverage of cases: 99.82683982683983
Instances selection time: 1.0
Test time: 9.0
Accumulative iteration time: 10194.0
Weighted Recall: 0.9030303030303031
Weighted FalsePositiveRate: 0.016161616161616158
Kappa statistic: 0.8868686868686869
Training time: 200.0
		
Iteration: 45
Labeled set size: 1111
Unlabelled set size: 44
	
Mean region size: 73.65491651205737
Incorrectly Classified Instances: 9.264069264069263
Correctly Classified Instances: 90.73593073593074
Weighted Precision: 0.9092226571012912
Weighted AreaUnderROC: 0.9757755039573223
Root mean squared error: 0.30332767625076523
Relative absolute error: 83.97787397787526
Root relative squared error: 86.68310369582552
Weighted TruePositiveRate: 0.9073593073593074
Weighted MatthewsCorrelation: 0.8924235732639463
Weighted FMeasure: 0.9068515427540695
Iteration time: 203.0
Weighted AreaUnderPRC: 0.8715548101723435
Mean absolute error: 0.2056600995376546
Coverage of cases: 99.82683982683983
Instances selection time: 1.0
Test time: 9.0
Accumulative iteration time: 10397.0
Weighted Recall: 0.9073593073593074
Weighted FalsePositiveRate: 0.01544011544011544
Kappa statistic: 0.8919191919191919
Training time: 202.0
		
Iteration: 46
Labeled set size: 1131
Unlabelled set size: 24
	
Mean region size: 73.67965367965168
Incorrectly Classified Instances: 9.35064935064935
Correctly Classified Instances: 90.64935064935065
Weighted Precision: 0.9084434081818094
Weighted AreaUnderROC: 0.9756277056277057
Root mean squared error: 0.3033452437673852
Relative absolute error: 83.98268398268527
Root relative squared error: 86.68812403186499
Weighted TruePositiveRate: 0.9064935064935065
Weighted MatthewsCorrelation: 0.8914780682812365
Weighted FMeasure: 0.9061033291804454
Iteration time: 200.0
Weighted AreaUnderPRC: 0.8713037072581716
Mean absolute error: 0.20567187914127094
Coverage of cases: 99.82683982683983
Instances selection time: 0.0
Test time: 10.0
Accumulative iteration time: 10597.0
Weighted Recall: 0.9064935064935065
Weighted FalsePositiveRate: 0.015584415584415581
Kappa statistic: 0.8909090909090909
Training time: 200.0
		
Time end:Wed Nov 01 07.30.36 EET 2017