Wed Nov 01 07.45.50 EET 2017
Dataset: segment
Test set size: 1155
Initial Labelled set size: 231
Initial Unlabelled set size: 924
Batch mode: QBestBatchMode
Batch size: 20
Classifiers: SMO-1cores
Scenario: PoolBasedSamplingScenario
Query strategy: LeastConfidentSamplingQueryStrategy-1cores
Time begining: Wed Nov 01 07.45.50 EET 2017
		
Iteration: 1
Labeled set size: 231
Unlabelled set size: 924
	
Mean region size: 71.81199752628189
Incorrectly Classified Instances: 12.987012987012987
Correctly Classified Instances: 87.01298701298701
Weighted Precision: 0.8702611632650772
Weighted AreaUnderROC: 0.9647562202107658
Root mean squared error: 0.30510424127642843
Relative absolute error: 84.3386243386256
Root relative squared error: 87.19079944006295
Weighted TruePositiveRate: 0.8701298701298701
Weighted MatthewsCorrelation: 0.8482256617402504
Weighted FMeasure: 0.8690592006289328
Iteration time: 151.0
Weighted AreaUnderPRC: 0.8209909671317746
Mean absolute error: 0.20654356980887992
Coverage of cases: 99.91341991341992
Instances selection time: 4.0
Test time: 9.0
Accumulative iteration time: 151.0
Weighted Recall: 0.8701298701298701
Weighted FalsePositiveRate: 0.021645021645021644
Kappa statistic: 0.8484848484848484
Training time: 147.0
		
Iteration: 2
Labeled set size: 251
Unlabelled set size: 904
	
Mean region size: 72.92517006802566
Incorrectly Classified Instances: 11.774891774891774
Correctly Classified Instances: 88.22510822510823
Weighted Precision: 0.8835743006540906
Weighted AreaUnderROC: 0.9683624119987756
Root mean squared error: 0.3047059465073929
Relative absolute error: 84.2568542568555
Root relative squared error: 87.07697722907133
Weighted TruePositiveRate: 0.8822510822510823
Weighted MatthewsCorrelation: 0.8624249346906889
Weighted FMeasure: 0.8799517730348839
Iteration time: 152.0
Weighted AreaUnderPRC: 0.8351008650125296
Mean absolute error: 0.20634331654740212
Coverage of cases: 100.0
Instances selection time: 4.0
Test time: 9.0
Accumulative iteration time: 303.0
Weighted Recall: 0.8822510822510823
Weighted FalsePositiveRate: 0.019624819624819625
Kappa statistic: 0.8626262626262626
Training time: 148.0
		
Iteration: 3
Labeled set size: 271
Unlabelled set size: 884
	
Mean region size: 72.91280148422851
Incorrectly Classified Instances: 11.688311688311689
Correctly Classified Instances: 88.31168831168831
Weighted Precision: 0.8873509213257381
Weighted AreaUnderROC: 0.9692225283134374
Root mean squared error: 0.30470502605546357
Relative absolute error: 84.2568542568555
Root relative squared error: 87.0767141880227
Weighted TruePositiveRate: 0.8831168831168831
Weighted MatthewsCorrelation: 0.8644350740648942
Weighted FMeasure: 0.8807158433511096
Iteration time: 143.0
Weighted AreaUnderPRC: 0.8393552527630338
Mean absolute error: 0.20634331654740212
Coverage of cases: 100.0
Instances selection time: 4.0
Test time: 9.0
Accumulative iteration time: 446.0
Weighted Recall: 0.8831168831168831
Weighted FalsePositiveRate: 0.01948051948051948
Kappa statistic: 0.8636363636363634
Training time: 139.0
		
Iteration: 4
Labeled set size: 291
Unlabelled set size: 864
	
Mean region size: 72.83858998144568
Incorrectly Classified Instances: 10.735930735930737
Correctly Classified Instances: 89.26406926406926
Weighted Precision: 0.8973877352471237
Weighted AreaUnderROC: 0.9705675805675807
Root mean squared error: 0.3044204731128461
Relative absolute error: 84.18470418470541
Root relative squared error: 86.99539641136367
Weighted TruePositiveRate: 0.8926406926406927
Weighted MatthewsCorrelation: 0.8755502880439889
Weighted FMeasure: 0.8896738877578843
Iteration time: 142.0
Weighted AreaUnderPRC: 0.8512163169658004
Mean absolute error: 0.20616662249315698
Coverage of cases: 100.0
Instances selection time: 4.0
Test time: 10.0
Accumulative iteration time: 588.0
Weighted Recall: 0.8926406926406927
Weighted FalsePositiveRate: 0.017893217893217895
Kappa statistic: 0.8747474747474748
Training time: 138.0
		
Iteration: 5
Labeled set size: 311
Unlabelled set size: 844
	
Mean region size: 72.92517006802585
Incorrectly Classified Instances: 11.255411255411255
Correctly Classified Instances: 88.74458874458874
Weighted Precision: 0.8916565904666693
Weighted AreaUnderROC: 0.9710249682976956
Root mean squared error: 0.3043909896466579
Relative absolute error: 84.17989417989541
Root relative squared error: 86.98697080909588
Weighted TruePositiveRate: 0.8874458874458875
Weighted MatthewsCorrelation: 0.8691823342699024
Weighted FMeasure: 0.8840242516295838
Iteration time: 141.0
Weighted AreaUnderPRC: 0.8456130987530027
Mean absolute error: 0.20615484288954067
Coverage of cases: 100.0
Instances selection time: 4.0
Test time: 9.0
Accumulative iteration time: 729.0
Weighted Recall: 0.8874458874458875
Weighted FalsePositiveRate: 0.01875901875901876
Kappa statistic: 0.8686868686868687
Training time: 137.0
		
Iteration: 6
Labeled set size: 331
Unlabelled set size: 824
	
Mean region size: 72.90043290043153
Incorrectly Classified Instances: 11.688311688311689
Correctly Classified Instances: 88.31168831168831
Weighted Precision: 0.8897754192721786
Weighted AreaUnderROC: 0.9703817394726485
Root mean squared error: 0.30449140600380764
Relative absolute error: 84.20394420394543
Root relative squared error: 87.01566717339458
Weighted TruePositiveRate: 0.8831168831168831
Weighted MatthewsCorrelation: 0.865187270993332
Weighted FMeasure: 0.8803664555045689
Iteration time: 139.0
Weighted AreaUnderPRC: 0.8409973345681075
Mean absolute error: 0.20621374090762234
Coverage of cases: 100.0
Instances selection time: 4.0
Test time: 9.0
Accumulative iteration time: 868.0
Weighted Recall: 0.8831168831168831
Weighted FalsePositiveRate: 0.019480519480519484
Kappa statistic: 0.8636363636363634
Training time: 135.0
		
Iteration: 7
Labeled set size: 351
Unlabelled set size: 804
	
Mean region size: 72.90043290043153
Incorrectly Classified Instances: 12.294372294372295
Correctly Classified Instances: 87.7056277056277
Weighted Precision: 0.8857950763980341
Weighted AreaUnderROC: 0.9691608727972366
Root mean squared error: 0.30462125328751566
Relative absolute error: 84.23761423761546
Root relative squared error: 87.05277412551119
Weighted TruePositiveRate: 0.8770562770562771
Weighted MatthewsCorrelation: 0.85893698511926
Weighted FMeasure: 0.874580979908122
Iteration time: 140.0
Weighted AreaUnderPRC: 0.8357084704941397
Mean absolute error: 0.2062961981329367
Coverage of cases: 100.0
Instances selection time: 3.0
Test time: 9.0
Accumulative iteration time: 1008.0
Weighted Recall: 0.8770562770562771
Weighted FalsePositiveRate: 0.020490620490620493
Kappa statistic: 0.8565656565656566
Training time: 137.0
		
Iteration: 8
Labeled set size: 371
Unlabelled set size: 784
	
Mean region size: 72.90043290043153
Incorrectly Classified Instances: 13.16017316017316
Correctly Classified Instances: 86.83982683982684
Weighted Precision: 0.8834447757597663
Weighted AreaUnderROC: 0.9690821636276185
Root mean squared error: 0.3047942969504158
Relative absolute error: 84.28090428090549
Root relative squared error: 87.1022254711994
Weighted TruePositiveRate: 0.8683982683982684
Weighted MatthewsCorrelation: 0.8514710196351474
Weighted FMeasure: 0.8673201891630836
Iteration time: 141.0
Weighted AreaUnderPRC: 0.8312335886842668
Mean absolute error: 0.20640221456548372
Coverage of cases: 100.0
Instances selection time: 3.0
Test time: 10.0
Accumulative iteration time: 1149.0
Weighted Recall: 0.8683982683982684
Weighted FalsePositiveRate: 0.021933621933621937
Kappa statistic: 0.8464646464646464
Training time: 138.0
		
Iteration: 9
Labeled set size: 391
Unlabelled set size: 764
	
Mean region size: 72.73964131106854
Incorrectly Classified Instances: 13.16017316017316
Correctly Classified Instances: 86.83982683982684
Weighted Precision: 0.8834447757597663
Weighted AreaUnderROC: 0.9689321789321789
Root mean squared error: 0.3048274217646727
Relative absolute error: 84.28571428571547
Root relative squared error: 87.11169167535402
Weighted TruePositiveRate: 0.8683982683982684
Weighted MatthewsCorrelation: 0.8514710196351474
Weighted FMeasure: 0.8673201891630836
Iteration time: 144.0
Weighted AreaUnderPRC: 0.8315135645124321
Mean absolute error: 0.20641399416910003
Coverage of cases: 100.0
Instances selection time: 3.0
Test time: 9.0
Accumulative iteration time: 1293.0
Weighted Recall: 0.8683982683982684
Weighted FalsePositiveRate: 0.021933621933621937
Kappa statistic: 0.8464646464646464
Training time: 141.0
		
Iteration: 10
Labeled set size: 411
Unlabelled set size: 744
	
Mean region size: 72.75200989486565
Incorrectly Classified Instances: 13.506493506493506
Correctly Classified Instances: 86.49350649350649
Weighted Precision: 0.8811973381662206
Weighted AreaUnderROC: 0.9683956447592811
Root mean squared error: 0.3049267746169496
Relative absolute error: 84.30976430976553
Root relative squared error: 87.14008411782035
Weighted TruePositiveRate: 0.8649350649350649
Weighted MatthewsCorrelation: 0.8479018677627898
Weighted FMeasure: 0.8639892645458722
Iteration time: 141.0
Weighted AreaUnderPRC: 0.828812285948493
Mean absolute error: 0.20647289218718173
Coverage of cases: 100.0
Instances selection time: 3.0
Test time: 9.0
Accumulative iteration time: 1434.0
Weighted Recall: 0.8649350649350649
Weighted FalsePositiveRate: 0.022510822510822513
Kappa statistic: 0.8424242424242424
Training time: 138.0
		
Iteration: 11
Labeled set size: 431
Unlabelled set size: 724
	
Mean region size: 72.66542980828561
Incorrectly Classified Instances: 13.333333333333334
Correctly Classified Instances: 86.66666666666667
Weighted Precision: 0.8820635820583448
Weighted AreaUnderROC: 0.9688630897721807
Root mean squared error: 0.30485042299025306
Relative absolute error: 84.29052429052548
Root relative squared error: 87.11826482306925
Weighted TruePositiveRate: 0.8666666666666667
Weighted MatthewsCorrelation: 0.8495923647085302
Weighted FMeasure: 0.8656385732548864
Iteration time: 146.0
Weighted AreaUnderPRC: 0.8305547415627839
Mean absolute error: 0.20642577377271637
Coverage of cases: 100.0
Instances selection time: 4.0
Test time: 10.0
Accumulative iteration time: 1580.0
Weighted Recall: 0.8666666666666667
Weighted FalsePositiveRate: 0.022222222222222223
Kappa statistic: 0.8444444444444444
Training time: 142.0
		
Iteration: 12
Labeled set size: 451
Unlabelled set size: 704
	
Mean region size: 72.44279529993682
Incorrectly Classified Instances: 13.333333333333334
Correctly Classified Instances: 86.66666666666667
Weighted Precision: 0.8820635820583448
Weighted AreaUnderROC: 0.9688001224364862
Root mean squared error: 0.3048761823027364
Relative absolute error: 84.29052429052548
Root relative squared error: 87.12562615976864
Weighted TruePositiveRate: 0.8666666666666667
Weighted MatthewsCorrelation: 0.8495923647085302
Weighted FMeasure: 0.8656385732548864
Iteration time: 150.0
Weighted AreaUnderPRC: 0.8305130590705835
Mean absolute error: 0.20642577377271637
Coverage of cases: 100.0
Instances selection time: 3.0
Test time: 10.0
Accumulative iteration time: 1730.0
Weighted Recall: 0.8666666666666667
Weighted FalsePositiveRate: 0.022222222222222223
Kappa statistic: 0.8444444444444444
Training time: 147.0
		
Iteration: 13
Labeled set size: 471
Unlabelled set size: 684
	
Mean region size: 72.45516388373397
Incorrectly Classified Instances: 13.333333333333334
Correctly Classified Instances: 86.66666666666667
Weighted Precision: 0.8820635820583448
Weighted AreaUnderROC: 0.9688232979142072
Root mean squared error: 0.3048743424240227
Relative absolute error: 84.29052429052548
Root relative squared error: 87.12510037063099
Weighted TruePositiveRate: 0.8666666666666667
Weighted MatthewsCorrelation: 0.8495923647085302
Weighted FMeasure: 0.8656385732548864
Iteration time: 147.0
Weighted AreaUnderPRC: 0.8305352925543519
Mean absolute error: 0.20642577377271637
Coverage of cases: 100.0
Instances selection time: 3.0
Test time: 9.0
Accumulative iteration time: 1877.0
Weighted Recall: 0.8666666666666667
Weighted FalsePositiveRate: 0.022222222222222223
Kappa statistic: 0.8444444444444444
Training time: 144.0
		
Iteration: 14
Labeled set size: 491
Unlabelled set size: 664
	
Mean region size: 72.4799010513283
Incorrectly Classified Instances: 13.506493506493506
Correctly Classified Instances: 86.49350649350649
Weighted Precision: 0.8811973381662206
Weighted AreaUnderROC: 0.9686413922777559
Root mean squared error: 0.30490469900308703
Relative absolute error: 84.30014430014549
Root relative squared error: 87.13377548568612
Weighted TruePositiveRate: 0.8649350649350649
Weighted MatthewsCorrelation: 0.8479018677627898
Weighted FMeasure: 0.8639892645458722
Iteration time: 147.0
Weighted AreaUnderPRC: 0.8293435720322694
Mean absolute error: 0.20644933297994905
Coverage of cases: 100.0
Instances selection time: 3.0
Test time: 9.0
Accumulative iteration time: 2024.0
Weighted Recall: 0.8649350649350649
Weighted FalsePositiveRate: 0.022510822510822513
Kappa statistic: 0.8424242424242424
Training time: 144.0
		
Iteration: 15
Labeled set size: 511
Unlabelled set size: 644
	
Mean region size: 72.50463821892257
Incorrectly Classified Instances: 13.333333333333334
Correctly Classified Instances: 86.66666666666667
Weighted Precision: 0.8814690878020713
Weighted AreaUnderROC: 0.9684393720757359
Root mean squared error: 0.3049056188522419
Relative absolute error: 84.30014430014549
Root relative squared error: 87.13403835447758
Weighted TruePositiveRate: 0.8666666666666667
Weighted MatthewsCorrelation: 0.8493196659654701
Weighted FMeasure: 0.8654275460216102
Iteration time: 145.0
Weighted AreaUnderPRC: 0.8299582376379044
Mean absolute error: 0.20644933297994905
Coverage of cases: 100.0
Instances selection time: 3.0
Test time: 9.0
Accumulative iteration time: 2169.0
Weighted Recall: 0.8666666666666667
Weighted FalsePositiveRate: 0.022222222222222223
Kappa statistic: 0.8444444444444444
Training time: 142.0
		
Iteration: 16
Labeled set size: 531
Unlabelled set size: 624
	
Mean region size: 72.52937538651686
Incorrectly Classified Instances: 11.688311688311689
Correctly Classified Instances: 88.31168831168831
Weighted Precision: 0.8898193847591964
Weighted AreaUnderROC: 0.9698530762167127
Root mean squared error: 0.30463322223623096
Relative absolute error: 84.23280423280545
Root relative squared error: 87.05619453750735
Weighted TruePositiveRate: 0.8831168831168831
Weighted MatthewsCorrelation: 0.8650142288338137
Weighted FMeasure: 0.8797442001448901
Iteration time: 148.0
Weighted AreaUnderPRC: 0.844793089245523
Mean absolute error: 0.20628441852932036
Coverage of cases: 100.0
Instances selection time: 3.0
Test time: 10.0
Accumulative iteration time: 2317.0
Weighted Recall: 0.8831168831168831
Weighted FalsePositiveRate: 0.01948051948051948
Kappa statistic: 0.8636363636363634
Training time: 145.0
		
Iteration: 17
Labeled set size: 551
Unlabelled set size: 604
	
Mean region size: 72.49226963512542
Incorrectly Classified Instances: 11.688311688311689
Correctly Classified Instances: 88.31168831168831
Weighted Precision: 0.8898193847591964
Weighted AreaUnderROC: 0.9698242161878526
Root mean squared error: 0.3046359842345378
Relative absolute error: 84.23280423280545
Root relative squared error: 87.05698384426829
Weighted TruePositiveRate: 0.8831168831168831
Weighted MatthewsCorrelation: 0.8650142288338137
Weighted FMeasure: 0.8797442001448901
Iteration time: 150.0
Weighted AreaUnderPRC: 0.8447849817024984
Mean absolute error: 0.20628441852932036
Coverage of cases: 100.0
Instances selection time: 3.0
Test time: 9.0
Accumulative iteration time: 2467.0
Weighted Recall: 0.8831168831168831
Weighted FalsePositiveRate: 0.01948051948051948
Kappa statistic: 0.8636363636363634
Training time: 147.0
		
Iteration: 18
Labeled set size: 571
Unlabelled set size: 584
	
Mean region size: 72.64069264069127
Incorrectly Classified Instances: 11.688311688311689
Correctly Classified Instances: 88.31168831168831
Weighted Precision: 0.8898193847591964
Weighted AreaUnderROC: 0.9700362936726573
Root mean squared error: 0.3046203325796742
Relative absolute error: 84.23280423280545
Root relative squared error: 87.05251101132959
Weighted TruePositiveRate: 0.8831168831168831
Weighted MatthewsCorrelation: 0.8650142288338137
Weighted FMeasure: 0.8797442001448901
Iteration time: 151.0
Weighted AreaUnderPRC: 0.8452271238892717
Mean absolute error: 0.20628441852932036
Coverage of cases: 100.0
Instances selection time: 2.0
Test time: 10.0
Accumulative iteration time: 2618.0
Weighted Recall: 0.8831168831168831
Weighted FalsePositiveRate: 0.01948051948051948
Kappa statistic: 0.8636363636363634
Training time: 149.0
		
Iteration: 19
Labeled set size: 591
Unlabelled set size: 564
	
Mean region size: 72.5788497217055
Incorrectly Classified Instances: 11.774891774891774
Correctly Classified Instances: 88.22510822510823
Weighted Precision: 0.8887928116768766
Weighted AreaUnderROC: 0.9699295990205081
Root mean squared error: 0.3046396668599933
Relative absolute error: 84.23761423761546
Root relative squared error: 87.05803624215092
Weighted TruePositiveRate: 0.8822510822510823
Weighted MatthewsCorrelation: 0.863945734439235
Weighted FMeasure: 0.8788826275202948
Iteration time: 151.0
Weighted AreaUnderPRC: 0.8440553714834363
Mean absolute error: 0.20629619813293668
Coverage of cases: 100.0
Instances selection time: 3.0
Test time: 9.0
Accumulative iteration time: 2769.0
Weighted Recall: 0.8822510822510823
Weighted FalsePositiveRate: 0.01962481962481962
Kappa statistic: 0.8626262626262626
Training time: 148.0
		
Iteration: 20
Labeled set size: 611
Unlabelled set size: 544
	
Mean region size: 72.5788497217055
Incorrectly Classified Instances: 11.86147186147186
Correctly Classified Instances: 88.13852813852814
Weighted Precision: 0.8877747509675332
Weighted AreaUnderROC: 0.9696077659714024
Root mean squared error: 0.3046534763089875
Relative absolute error: 84.24242424242546
Root relative squared error: 87.0619826209118
Weighted TruePositiveRate: 0.8813852813852814
Weighted MatthewsCorrelation: 0.8628803780101714
Weighted FMeasure: 0.8780213784071095
Iteration time: 152.0
Weighted AreaUnderPRC: 0.8428514947740969
Mean absolute error: 0.20630797773655304
Coverage of cases: 100.0
Instances selection time: 2.0
Test time: 10.0
Accumulative iteration time: 2921.0
Weighted Recall: 0.8813852813852814
Weighted FalsePositiveRate: 0.01976911976911977
Kappa statistic: 0.8616161616161616
Training time: 150.0
		
Iteration: 21
Labeled set size: 631
Unlabelled set size: 524
	
Mean region size: 72.59121830550265
Incorrectly Classified Instances: 11.774891774891774
Correctly Classified Instances: 88.22510822510823
Weighted Precision: 0.8887928116768766
Weighted AreaUnderROC: 0.9699672045126592
Root mean squared error: 0.3046276981644901
Relative absolute error: 84.23761423761546
Root relative squared error: 87.05461590251613
Weighted TruePositiveRate: 0.8822510822510823
Weighted MatthewsCorrelation: 0.863945734439235
Weighted FMeasure: 0.8788826275202948
Iteration time: 152.0
Weighted AreaUnderPRC: 0.8443368123508402
Mean absolute error: 0.20629619813293668
Coverage of cases: 100.0
Instances selection time: 3.0
Test time: 9.0
Accumulative iteration time: 3073.0
Weighted Recall: 0.8822510822510823
Weighted FalsePositiveRate: 0.01962481962481962
Kappa statistic: 0.8626262626262626
Training time: 149.0
		
Iteration: 22
Labeled set size: 651
Unlabelled set size: 504
	
Mean region size: 72.51700680271972
Incorrectly Classified Instances: 12.121212121212121
Correctly Classified Instances: 87.87878787878788
Weighted Precision: 0.8860626250253497
Weighted AreaUnderROC: 0.9692828720101447
Root mean squared error: 0.30465439691666424
Relative absolute error: 84.23761423761543
Root relative squared error: 87.06224570646897
Weighted TruePositiveRate: 0.8787878787878788
Weighted MatthewsCorrelation: 0.8598289171625615
Weighted FMeasure: 0.8743541758779488
Iteration time: 152.0
Weighted AreaUnderPRC: 0.8382864870318812
Mean absolute error: 0.20629619813293665
Coverage of cases: 100.0
Instances selection time: 3.0
Test time: 9.0
Accumulative iteration time: 3225.0
Weighted Recall: 0.8787878787878788
Weighted FalsePositiveRate: 0.020202020202020204
Kappa statistic: 0.8585858585858585
Training time: 149.0
		
Iteration: 23
Labeled set size: 671
Unlabelled set size: 484
	
Mean region size: 72.69016697587993
Incorrectly Classified Instances: 12.813852813852813
Correctly Classified Instances: 87.18614718614718
Weighted Precision: 0.8796478199689056
Weighted AreaUnderROC: 0.9679251388342298
Root mean squared error: 0.3047547264814121
Relative absolute error: 84.27128427128547
Root relative squared error: 87.09091726777288
Weighted TruePositiveRate: 0.8718614718614719
Weighted MatthewsCorrelation: 0.8514796947182867
Weighted FMeasure: 0.8659557420841081
Iteration time: 154.0
Weighted AreaUnderPRC: 0.8312801624179468
Mean absolute error: 0.20637865535825098
Coverage of cases: 100.0
Instances selection time: 2.0
Test time: 9.0
Accumulative iteration time: 3379.0
Weighted Recall: 0.8718614718614719
Weighted FalsePositiveRate: 0.021356421356421358
Kappa statistic: 0.8505050505050505
Training time: 152.0
		
Iteration: 24
Labeled set size: 691
Unlabelled set size: 464
	
Mean region size: 73.34570191712959
Incorrectly Classified Instances: 12.987012987012987
Correctly Classified Instances: 87.01298701298701
Weighted Precision: 0.8793725361463605
Weighted AreaUnderROC: 0.9679745507018234
Root mean squared error: 0.3046654439918044
Relative absolute error: 84.29533429533546
Root relative squared error: 87.06540267114738
Weighted TruePositiveRate: 0.8701298701298701
Weighted MatthewsCorrelation: 0.8495788000080752
Weighted FMeasure: 0.8630891678277435
Iteration time: 157.0
Weighted AreaUnderPRC: 0.8304937450955769
Mean absolute error: 0.20643755337633263
Coverage of cases: 100.0
Instances selection time: 2.0
Test time: 9.0
Accumulative iteration time: 3536.0
Weighted Recall: 0.8701298701298701
Weighted FalsePositiveRate: 0.021645021645021644
Kappa statistic: 0.8484848484848484
Training time: 155.0
		
Iteration: 25
Labeled set size: 711
Unlabelled set size: 444
	
Mean region size: 73.45701917130395
Incorrectly Classified Instances: 14.285714285714286
Correctly Classified Instances: 85.71428571428571
Weighted Precision: 0.872529903342012
Weighted AreaUnderROC: 0.9671734662643754
Root mean squared error: 0.30488170187225955
Relative absolute error: 84.36267436267552
Root relative squared error: 87.12720350814399
Weighted TruePositiveRate: 0.8571428571428571
Weighted MatthewsCorrelation: 0.8349488758836895
Weighted FMeasure: 0.845594667395376
Iteration time: 164.0
Weighted AreaUnderPRC: 0.8224895805506937
Mean absolute error: 0.20660246782696134
Coverage of cases: 100.0
Instances selection time: 2.0
Test time: 9.0
Accumulative iteration time: 3700.0
Weighted Recall: 0.8571428571428571
Weighted FalsePositiveRate: 0.023809523809523805
Kappa statistic: 0.8333333333333331
Training time: 162.0
		
Iteration: 26
Labeled set size: 731
Unlabelled set size: 424
	
Mean region size: 73.23438466295512
Incorrectly Classified Instances: 14.285714285714286
Correctly Classified Instances: 85.71428571428571
Weighted Precision: 0.8733345481049563
Weighted AreaUnderROC: 0.9666596702960341
Root mean squared error: 0.3048734224805036
Relative absolute error: 84.3482443482455
Root relative squared error: 87.12483747487266
Weighted TruePositiveRate: 0.8571428571428571
Weighted MatthewsCorrelation: 0.8353524468865546
Weighted FMeasure: 0.8459062099031195
Iteration time: 158.0
Weighted AreaUnderPRC: 0.8221233541003953
Mean absolute error: 0.20656712901611232
Coverage of cases: 100.0
Instances selection time: 1.0
Test time: 9.0
Accumulative iteration time: 3858.0
Weighted Recall: 0.8571428571428571
Weighted FalsePositiveRate: 0.023809523809523805
Kappa statistic: 0.8333333333333331
Training time: 157.0
		
Iteration: 27
Labeled set size: 751
Unlabelled set size: 404
	
Mean region size: 73.16017316017194
Incorrectly Classified Instances: 15.238095238095237
Correctly Classified Instances: 84.76190476190476
Weighted Precision: 0.8644009854010427
Weighted AreaUnderROC: 0.9644440071712799
Root mean squared error: 0.3052117744534347
Relative absolute error: 84.42520442520555
Root relative squared error: 87.22152960503962
Weighted TruePositiveRate: 0.8476190476190476
Weighted MatthewsCorrelation: 0.8227099710796751
Weighted FMeasure: 0.8312731326396577
Iteration time: 163.0
Weighted AreaUnderPRC: 0.8149980320639082
Mean absolute error: 0.20675560267397367
Coverage of cases: 100.0
Instances selection time: 2.0
Test time: 9.0
Accumulative iteration time: 4021.0
Weighted Recall: 0.8476190476190476
Weighted FalsePositiveRate: 0.025396825396825397
Kappa statistic: 0.8222222222222221
Training time: 161.0
		
Iteration: 28
Labeled set size: 771
Unlabelled set size: 384
	
Mean region size: 73.67965367965274
Incorrectly Classified Instances: 13.073593073593074
Correctly Classified Instances: 86.92640692640693
Weighted Precision: 0.8936847929256669
Weighted AreaUnderROC: 0.969795793432157
Root mean squared error: 0.30447574691686446
Relative absolute error: 84.27609427609544
Root relative squared error: 87.01119221656224
Weighted TruePositiveRate: 0.8692640692640693
Weighted MatthewsCorrelation: 0.8513218883009398
Weighted FMeasure: 0.8568899620701148
Iteration time: 159.0
Weighted AreaUnderPRC: 0.8372021811622197
Mean absolute error: 0.20639043496186726
Coverage of cases: 100.0
Instances selection time: 2.0
Test time: 9.0
Accumulative iteration time: 4180.0
Weighted Recall: 0.8692640692640693
Weighted FalsePositiveRate: 0.02178932178932179
Kappa statistic: 0.8474747474747474
Training time: 157.0
		
Iteration: 29
Labeled set size: 791
Unlabelled set size: 364
	
Mean region size: 73.56833642547845
Incorrectly Classified Instances: 11.428571428571429
Correctly Classified Instances: 88.57142857142857
Weighted Precision: 0.9146153311999657
Weighted AreaUnderROC: 0.9738265774629411
Root mean squared error: 0.3039465489661008
Relative absolute error: 84.15103415103533
Root relative squared error: 86.85996130546084
Weighted TruePositiveRate: 0.8857142857142857
Weighted MatthewsCorrelation: 0.8710646800448868
Weighted FMeasure: 0.8723774458080766
Iteration time: 163.0
Weighted AreaUnderPRC: 0.855696552733215
Mean absolute error: 0.2060841652678425
Coverage of cases: 99.91341991341992
Instances selection time: 1.0
Test time: 9.0
Accumulative iteration time: 4343.0
Weighted Recall: 0.8857142857142857
Weighted FalsePositiveRate: 0.01904761904761905
Kappa statistic: 0.8666666666666666
Training time: 162.0
		
Iteration: 30
Labeled set size: 811
Unlabelled set size: 344
	
Mean region size: 73.27149041434667
Incorrectly Classified Instances: 10.909090909090908
Correctly Classified Instances: 89.0909090909091
Weighted Precision: 0.9172207983904305
Weighted AreaUnderROC: 0.974026848572303
Root mean squared error: 0.30410706512405483
Relative absolute error: 84.18470418470537
Root relative squared error: 86.90583261841445
Weighted TruePositiveRate: 0.8909090909090909
Weighted MatthewsCorrelation: 0.8766167608253346
Weighted FMeasure: 0.8782584958124653
Iteration time: 166.0
Weighted AreaUnderPRC: 0.8606512264634868
Mean absolute error: 0.20616662249315687
Coverage of cases: 99.91341991341992
Instances selection time: 1.0
Test time: 9.0
Accumulative iteration time: 4509.0
Weighted Recall: 0.8909090909090909
Weighted FalsePositiveRate: 0.018181818181818184
Kappa statistic: 0.8727272727272727
Training time: 165.0
		
Iteration: 31
Labeled set size: 831
Unlabelled set size: 324
	
Mean region size: 73.41991341991259
Incorrectly Classified Instances: 10.822510822510823
Correctly Classified Instances: 89.17748917748918
Weighted Precision: 0.918219997307531
Weighted AreaUnderROC: 0.9740360313087585
Root mean squared error: 0.3040480345504829
Relative absolute error: 84.17989417989537
Root relative squared error: 86.88896322689236
Weighted TruePositiveRate: 0.8917748917748918
Weighted MatthewsCorrelation: 0.8774806860956041
Weighted FMeasure: 0.878677631825924
Iteration time: 165.0
Weighted AreaUnderPRC: 0.8617689906141591
Mean absolute error: 0.20615484288954056
Coverage of cases: 99.91341991341992
Instances selection time: 1.0
Test time: 10.0
Accumulative iteration time: 4674.0
Weighted Recall: 0.8917748917748918
Weighted FalsePositiveRate: 0.018037518037518036
Kappa statistic: 0.8737373737373737
Training time: 164.0
		
Iteration: 32
Labeled set size: 851
Unlabelled set size: 304
	
Mean region size: 73.46938775510121
Incorrectly Classified Instances: 11.082251082251082
Correctly Classified Instances: 88.91774891774892
Weighted Precision: 0.9161208164061684
Weighted AreaUnderROC: 0.9734977480432025
Root mean squared error: 0.30415317478803855
Relative absolute error: 84.20875420875538
Root relative squared error: 86.91900955246109
Weighted TruePositiveRate: 0.8891774891774892
Weighted MatthewsCorrelation: 0.8740096060538141
Weighted FMeasure: 0.8747128322336644
Iteration time: 167.0
Weighted AreaUnderPRC: 0.8597025762562253
Mean absolute error: 0.20622552051123855
Coverage of cases: 99.91341991341992
Instances selection time: 1.0
Test time: 9.0
Accumulative iteration time: 4841.0
Weighted Recall: 0.8891774891774892
Weighted FalsePositiveRate: 0.018470418470418474
Kappa statistic: 0.8707070707070705
Training time: 166.0
		
Iteration: 33
Labeled set size: 871
Unlabelled set size: 284
	
Mean region size: 73.95176252319021
Incorrectly Classified Instances: 10.995670995670995
Correctly Classified Instances: 89.00432900432901
Weighted Precision: 0.9142648795898038
Weighted AreaUnderROC: 0.9723367877913333
Root mean squared error: 0.30409230855494757
Relative absolute error: 84.19432419432539
Root relative squared error: 86.90161557753663
Weighted TruePositiveRate: 0.8900432900432901
Weighted MatthewsCorrelation: 0.8751036671911263
Weighted FMeasure: 0.8775238835454325
Iteration time: 169.0
Weighted AreaUnderPRC: 0.8562567035652199
Mean absolute error: 0.20619018170038958
Coverage of cases: 99.91341991341992
Instances selection time: 1.0
Test time: 9.0
Accumulative iteration time: 5010.0
Weighted Recall: 0.8900432900432901
Weighted FalsePositiveRate: 0.018326118326118326
Kappa statistic: 0.8717171717171717
Training time: 168.0
		
Iteration: 34
Labeled set size: 891
Unlabelled set size: 264
	
Mean region size: 74.013605442176
Incorrectly Classified Instances: 10.995670995670995
Correctly Classified Instances: 89.00432900432901
Weighted Precision: 0.9142648795898038
Weighted AreaUnderROC: 0.9723048668503214
Root mean squared error: 0.30412919863521665
Relative absolute error: 84.20875420875541
Root relative squared error: 86.9121577960801
Weighted TruePositiveRate: 0.8900432900432901
Weighted MatthewsCorrelation: 0.8751036671911263
Weighted FMeasure: 0.8775238835454325
Iteration time: 167.0
Weighted AreaUnderPRC: 0.857962466533788
Mean absolute error: 0.2062255205112386
Coverage of cases: 99.91341991341992
Instances selection time: 2.0
Test time: 9.0
Accumulative iteration time: 5177.0
Weighted Recall: 0.8900432900432901
Weighted FalsePositiveRate: 0.018326118326118326
Kappa statistic: 0.8717171717171717
Training time: 165.0
		
Iteration: 35
Labeled set size: 911
Unlabelled set size: 244
	
Mean region size: 73.91465677179878
Incorrectly Classified Instances: 10.822510822510823
Correctly Classified Instances: 89.17748917748918
Weighted Precision: 0.9117411002504069
Weighted AreaUnderROC: 0.9729183611001793
Root mean squared error: 0.3040268176384842
Relative absolute error: 84.17989417989537
Root relative squared error: 86.88289998925569
Weighted TruePositiveRate: 0.8917748917748918
Weighted MatthewsCorrelation: 0.8762807726407974
Weighted FMeasure: 0.8802781003036548
Iteration time: 169.0
Weighted AreaUnderPRC: 0.8579046541671795
Mean absolute error: 0.20615484288954058
Coverage of cases: 99.91341991341992
Instances selection time: 1.0
Test time: 18.0
Accumulative iteration time: 5346.0
Weighted Recall: 0.8917748917748918
Weighted FalsePositiveRate: 0.018037518037518036
Kappa statistic: 0.8737373737373737
Training time: 168.0
		
Iteration: 36
Labeled set size: 931
Unlabelled set size: 224
	
Mean region size: 73.55596784168131
Incorrectly Classified Instances: 9.87012987012987
Correctly Classified Instances: 90.12987012987013
Weighted Precision: 0.9176355281481189
Weighted AreaUnderROC: 0.9732904805632078
Root mean squared error: 0.30388010368565294
Relative absolute error: 84.12698412698533
Root relative squared error: 86.84097298495429
Weighted TruePositiveRate: 0.9012987012987013
Weighted MatthewsCorrelation: 0.8873931659134473
Weighted FMeasure: 0.8928625457853263
Iteration time: 170.0
Weighted AreaUnderPRC: 0.8648780479993877
Mean absolute error: 0.2060252672497609
Coverage of cases: 99.91341991341992
Instances selection time: 1.0
Test time: 9.0
Accumulative iteration time: 5516.0
Weighted Recall: 0.9012987012987013
Weighted FalsePositiveRate: 0.016450216450216448
Kappa statistic: 0.8848484848484848
Training time: 169.0
		
Iteration: 37
Labeled set size: 951
Unlabelled set size: 204
	
Mean region size: 73.9146567717988
Incorrectly Classified Instances: 10.909090909090908
Correctly Classified Instances: 89.0909090909091
Weighted Precision: 0.9147443432083752
Weighted AreaUnderROC: 0.9727220254492982
Root mean squared error: 0.3040784736210283
Relative absolute error: 84.18951418951538
Root relative squared error: 86.89766191585178
Weighted TruePositiveRate: 0.8909090909090909
Weighted MatthewsCorrelation: 0.8761295554282277
Weighted FMeasure: 0.8787231432157813
Iteration time: 183.0
Weighted AreaUnderPRC: 0.8575519995381882
Mean absolute error: 0.20617840209677327
Coverage of cases: 99.91341991341992
Instances selection time: 2.0
Test time: 9.0
Accumulative iteration time: 5699.0
Weighted Recall: 0.8909090909090909
Weighted FalsePositiveRate: 0.01818181818181818
Kappa statistic: 0.8727272727272727
Training time: 181.0
		
Iteration: 38
Labeled set size: 971
Unlabelled set size: 184
	
Mean region size: 73.97649969078456
Incorrectly Classified Instances: 10.562770562770563
Correctly Classified Instances: 89.43722943722943
Weighted Precision: 0.9133580286789293
Weighted AreaUnderROC: 0.972544055271328
Root mean squared error: 0.30400928950737477
Relative absolute error: 84.17027417027536
Root relative squared error: 86.87789090856337
Weighted TruePositiveRate: 0.8943722943722944
Weighted MatthewsCorrelation: 0.8793505934611042
Weighted FMeasure: 0.8837830298590047
Iteration time: 172.0
Weighted AreaUnderPRC: 0.8587202655381905
Mean absolute error: 0.2061312836823079
Coverage of cases: 99.91341991341992
Instances selection time: 1.0
Test time: 8.0
Accumulative iteration time: 5871.0
Weighted Recall: 0.8943722943722944
Weighted FalsePositiveRate: 0.017604617604617602
Kappa statistic: 0.8767676767676766
Training time: 171.0
		
Iteration: 39
Labeled set size: 991
Unlabelled set size: 164
	
Mean region size: 74.0630797773646
Incorrectly Classified Instances: 10.12987012987013
Correctly Classified Instances: 89.87012987012987
Weighted Precision: 0.9160331697907034
Weighted AreaUnderROC: 0.9734334688880145
Root mean squared error: 0.3038237983966452
Relative absolute error: 84.13660413660536
Root relative squared error: 86.82488240836726
Weighted TruePositiveRate: 0.8987012987012987
Weighted MatthewsCorrelation: 0.884398849295818
Weighted FMeasure: 0.8895011641963859
Iteration time: 182.0
Weighted AreaUnderPRC: 0.8631393004696851
Mean absolute error: 0.20604882645699357
Coverage of cases: 100.0
Instances selection time: 9.0
Test time: 13.0
Accumulative iteration time: 6053.0
Weighted Recall: 0.8987012987012987
Weighted FalsePositiveRate: 0.01688311688311688
Kappa statistic: 0.8818181818181816
Training time: 173.0
		
Iteration: 40
Labeled set size: 1011
Unlabelled set size: 144
	
Mean region size: 73.85281385281301
Incorrectly Classified Instances: 10.822510822510823
Correctly Classified Instances: 89.17748917748918
Weighted Precision: 0.9117411002504069
Weighted AreaUnderROC: 0.97292710656347
Root mean squared error: 0.3040314301366092
Relative absolute error: 84.17989417989537
Root relative squared error: 86.8842181203877
Weighted TruePositiveRate: 0.8917748917748918
Weighted MatthewsCorrelation: 0.8762807726407974
Weighted FMeasure: 0.8802781003036548
Iteration time: 267.0
Weighted AreaUnderPRC: 0.8578731231208978
Mean absolute error: 0.20615484288954058
Coverage of cases: 100.0
Instances selection time: 1.0
Test time: 11.0
Accumulative iteration time: 6320.0
Weighted Recall: 0.8917748917748918
Weighted FalsePositiveRate: 0.018037518037518036
Kappa statistic: 0.8737373737373737
Training time: 266.0
		
Iteration: 41
Labeled set size: 1031
Unlabelled set size: 124
	
Mean region size: 74.32282003710485
Incorrectly Classified Instances: 9.87012987012987
Correctly Classified Instances: 90.12987012987013
Weighted Precision: 0.9176355281481189
Weighted AreaUnderROC: 0.9735235471599106
Root mean squared error: 0.303780408514777
Relative absolute error: 84.12217412217532
Root relative squared error: 86.81248271679996
Weighted TruePositiveRate: 0.9012987012987013
Weighted MatthewsCorrelation: 0.8873931659134473
Weighted FMeasure: 0.8928625457853263
Iteration time: 170.0
Weighted AreaUnderPRC: 0.8652800388700692
Mean absolute error: 0.20601348764614455
Coverage of cases: 100.0
Instances selection time: 1.0
Test time: 9.0
Accumulative iteration time: 6490.0
Weighted Recall: 0.9012987012987013
Weighted FalsePositiveRate: 0.016450216450216448
Kappa statistic: 0.8848484848484848
Training time: 169.0
		
Iteration: 42
Labeled set size: 1051
Unlabelled set size: 104
	
Mean region size: 74.31045145330769
Incorrectly Classified Instances: 9.177489177489177
Correctly Classified Instances: 90.82251082251082
Weighted Precision: 0.9211336086509536
Weighted AreaUnderROC: 0.976089466089466
Root mean squared error: 0.30346726370240773
Relative absolute error: 84.05002405002527
Root relative squared error: 86.7229941327778
Weighted TruePositiveRate: 0.9082251082251083
Weighted MatthewsCorrelation: 0.8950448969815504
Weighted FMeasure: 0.9015879927767197
Iteration time: 169.0
Weighted AreaUnderPRC: 0.8730571621927234
Mean absolute error: 0.20583679359189952
Coverage of cases: 100.0
Instances selection time: 0.0
Test time: 9.0
Accumulative iteration time: 6659.0
Weighted Recall: 0.9082251082251083
Weighted FalsePositiveRate: 0.015295815295815293
Kappa statistic: 0.892929292929293
Training time: 169.0
		
Iteration: 43
Labeled set size: 1071
Unlabelled set size: 84
	
Mean region size: 74.03834260977021
Incorrectly Classified Instances: 9.004329004329005
Correctly Classified Instances: 90.99567099567099
Weighted Precision: 0.9170029616207854
Weighted AreaUnderROC: 0.9774323319777867
Root mean squared error: 0.3031630469165133
Relative absolute error: 83.95863395863523
Root relative squared error: 86.63605694483753
Weighted TruePositiveRate: 0.90995670995671
Weighted MatthewsCorrelation: 0.8955154455992321
Weighted FMeasure: 0.9042568909696858
Iteration time: 173.0
Weighted AreaUnderPRC: 0.8741154457683687
Mean absolute error: 0.20561298112318918
Coverage of cases: 100.0
Instances selection time: 1.0
Test time: 9.0
Accumulative iteration time: 6832.0
Weighted Recall: 0.90995670995671
Weighted FalsePositiveRate: 0.015007215007215005
Kappa statistic: 0.8949494949494948
Training time: 172.0
		
Iteration: 44
Labeled set size: 1091
Unlabelled set size: 64
	
Mean region size: 74.01360544217587
Incorrectly Classified Instances: 7.705627705627705
Correctly Classified Instances: 92.2943722943723
Weighted Precision: 0.9261711733202924
Weighted AreaUnderROC: 0.9783401110673837
Root mean squared error: 0.30294371057160246
Relative absolute error: 83.88167388167516
Root relative squared error: 86.57337636334503
Weighted TruePositiveRate: 0.922943722943723
Weighted MatthewsCorrelation: 0.910403491795135
Weighted FMeasure: 0.9202466974383505
Iteration time: 177.0
Weighted AreaUnderPRC: 0.8861320350930892
Mean absolute error: 0.2054245074653278
Coverage of cases: 100.0
Instances selection time: 1.0
Test time: 10.0
Accumulative iteration time: 7009.0
Weighted Recall: 0.922943722943723
Weighted FalsePositiveRate: 0.012842712842712841
Kappa statistic: 0.9101010101010101
Training time: 176.0
		
Iteration: 45
Labeled set size: 1111
Unlabelled set size: 44
	
Mean region size: 74.1372912801475
Incorrectly Classified Instances: 7.2727272727272725
Correctly Classified Instances: 92.72727272727273
Weighted Precision: 0.9298265247280229
Weighted AreaUnderROC: 0.9786020376929468
Root mean squared error: 0.3028520420235635
Relative absolute error: 83.85281385281513
Root relative squared error: 86.54717989372666
Weighted TruePositiveRate: 0.9272727272727272
Weighted MatthewsCorrelation: 0.9153385218241759
Weighted FMeasure: 0.9249533192691131
Iteration time: 179.0
Weighted AreaUnderPRC: 0.8903899017240032
Mean absolute error: 0.2053538298436298
Coverage of cases: 100.0
Instances selection time: 0.0
Test time: 9.0
Accumulative iteration time: 7188.0
Weighted Recall: 0.9272727272727272
Weighted FalsePositiveRate: 0.012121212121212121
Kappa statistic: 0.9151515151515152
Training time: 179.0
		
Iteration: 46
Labeled set size: 1131
Unlabelled set size: 24
	
Mean region size: 74.14965986394465
Incorrectly Classified Instances: 7.359307359307359
Correctly Classified Instances: 92.64069264069263
Weighted Precision: 0.9284888362868658
Weighted AreaUnderROC: 0.9783060037605492
Root mean squared error: 0.3028668590221302
Relative absolute error: 83.85762385762514
Root relative squared error: 86.55141420376093
Weighted TruePositiveRate: 0.9264069264069265
Weighted MatthewsCorrelation: 0.9142366877512782
Weighted FMeasure: 0.9242921729048499
Iteration time: 187.0
Weighted AreaUnderPRC: 0.8899313094174401
Mean absolute error: 0.20536560944724613
Coverage of cases: 100.0
Instances selection time: 0.0
Test time: 9.0
Accumulative iteration time: 7375.0
Weighted Recall: 0.9264069264069265
Weighted FalsePositiveRate: 0.012265512265512264
Kappa statistic: 0.914141414141414
Training time: 187.0
		
Time end:Wed Nov 01 07.46.00 EET 2017