Wed Nov 01 08.00.42 EET 2017
Dataset: segment
Test set size: 1155
Initial Labelled set size: 231
Initial Unlabelled set size: 924
Batch mode: QBestBatchMode
Batch size: 20
Classifiers: IBk-1cores
Scenario: PoolBasedSamplingScenario
Query strategy: RandomSelectionQueryStrategy-1cores
Time begining: Wed Nov 01 08.00.42 EET 2017
		
Iteration: 1
Labeled set size: 231
Unlabelled set size: 924
	
Mean region size: 14.285714285714091
Incorrectly Classified Instances: 11.86147186147186
Correctly Classified Instances: 88.13852813852814
Weighted Precision: 0.88343752526283
Weighted AreaUnderROC: 0.9278407451134723
Root mean squared error: 0.1817316381752037
Relative absolute error: 16.35917053388502
Root relative squared error: 51.93414142575685
Weighted TruePositiveRate: 0.8813852813852814
Weighted MatthewsCorrelation: 0.861670126693677
Weighted FMeasure: 0.8791319799083335
Iteration time: 10.0
Weighted AreaUnderPRC: 0.8006304215680089
Mean absolute error: 0.040063274776861446
Coverage of cases: 88.13852813852814
Instances selection time: 6.0
Test time: 128.0
Accumulative iteration time: 10.0
Weighted Recall: 0.8813852813852814
Weighted FalsePositiveRate: 0.01976911976911977
Kappa statistic: 0.8616161616161616
Training time: 4.0
		
Iteration: 2
Labeled set size: 251
Unlabelled set size: 904
	
Mean region size: 14.285714285714091
Incorrectly Classified Instances: 10.735930735930737
Correctly Classified Instances: 89.26406926406926
Weighted Precision: 0.8942762558192962
Weighted AreaUnderROC: 0.9350277668459487
Root mean squared error: 0.17306365897640097
Relative absolute error: 14.890489703848797
Root relative squared error: 49.45706004297558
Weighted TruePositiveRate: 0.8926406926406927
Weighted MatthewsCorrelation: 0.8748585404155096
Weighted FMeasure: 0.8910556032669313
Iteration time: 3.0
Weighted AreaUnderPRC: 0.8176972363565308
Mean absolute error: 0.03646650539718088
Coverage of cases: 89.26406926406926
Instances selection time: 3.0
Test time: 100.0
Accumulative iteration time: 13.0
Weighted Recall: 0.8926406926406927
Weighted FalsePositiveRate: 0.01789321789321789
Kappa statistic: 0.8747474747474748
Training time: 0.0
		
Iteration: 3
Labeled set size: 271
Unlabelled set size: 884
	
Mean region size: 14.285714285714091
Incorrectly Classified Instances: 9.35064935064935
Correctly Classified Instances: 90.64935064935065
Weighted Precision: 0.9068260242578656
Weighted AreaUnderROC: 0.9439507630416722
Root mean squared error: 0.16165632402321123
Relative absolute error: 13.144495498153425
Root relative squared error: 46.19714254760371
Weighted TruePositiveRate: 0.9064935064935065
Weighted MatthewsCorrelation: 0.890685876733092
Weighted FMeasure: 0.9052876143496725
Iteration time: 3.0
Weighted AreaUnderPRC: 0.838648104502404
Mean absolute error: 0.03219060121996771
Coverage of cases: 90.64935064935065
Instances selection time: 3.0
Test time: 103.0
Accumulative iteration time: 16.0
Weighted Recall: 0.9064935064935065
Weighted FalsePositiveRate: 0.015584415584415588
Kappa statistic: 0.8909090909090909
Training time: 0.0
		
Iteration: 4
Labeled set size: 291
Unlabelled set size: 864
	
Mean region size: 14.285714285714091
Incorrectly Classified Instances: 8.311688311688311
Correctly Classified Instances: 91.68831168831169
Weighted Precision: 0.9176560024824303
Weighted AreaUnderROC: 0.9502142638506276
Root mean squared error: 0.15253889318865813
Relative absolute error: 11.804784550878708
Root relative squared error: 43.59161966146355
Weighted TruePositiveRate: 0.9168831168831169
Weighted MatthewsCorrelation: 0.9030746755204078
Weighted FMeasure: 0.9161013645023779
Iteration time: 3.0
Weighted AreaUnderPRC: 0.8554875297248316
Mean absolute error: 0.028909676451131655
Coverage of cases: 91.68831168831169
Instances selection time: 3.0
Test time: 106.0
Accumulative iteration time: 19.0
Weighted Recall: 0.9168831168831169
Weighted FalsePositiveRate: 0.013852813852813853
Kappa statistic: 0.903030303030303
Training time: 0.0
		
Iteration: 5
Labeled set size: 311
Unlabelled set size: 844
	
Mean region size: 14.285714285714091
Incorrectly Classified Instances: 7.532467532467533
Correctly Classified Instances: 92.46753246753246
Weighted Precision: 0.9253494434299872
Weighted AreaUnderROC: 0.954682758319122
Root mean squared error: 0.14531692900330112
Relative absolute error: 10.78312850232943
Root relative squared error: 41.527771488739276
Weighted TruePositiveRate: 0.9246753246753247
Weighted MatthewsCorrelation: 0.9120575835000388
Weighted FMeasure: 0.9236486563741079
Iteration time: 2.0
Weighted AreaUnderPRC: 0.8680570527474656
Mean absolute error: 0.0264076616383579
Coverage of cases: 92.46753246753246
Instances selection time: 2.0
Test time: 109.0
Accumulative iteration time: 21.0
Weighted Recall: 0.9246753246753247
Weighted FalsePositiveRate: 0.012554112554112554
Kappa statistic: 0.912121212121212
Training time: 0.0
		
Iteration: 6
Labeled set size: 331
Unlabelled set size: 824
	
Mean region size: 14.285714285714091
Incorrectly Classified Instances: 7.619047619047619
Correctly Classified Instances: 92.38095238095238
Weighted Precision: 0.9246490336861704
Weighted AreaUnderROC: 0.9541505968778695
Root mean squared error: 0.14621887256871946
Relative absolute error: 10.76486376934792
Root relative squared error: 41.785523331813124
Weighted TruePositiveRate: 0.9238095238095239
Weighted MatthewsCorrelation: 0.9110922970208225
Weighted FMeasure: 0.9227371806424804
Iteration time: 2.0
Weighted AreaUnderPRC: 0.8665206542408749
Mean absolute error: 0.026362931680035836
Coverage of cases: 92.38095238095238
Instances selection time: 2.0
Test time: 112.0
Accumulative iteration time: 23.0
Weighted Recall: 0.9238095238095239
Weighted FalsePositiveRate: 0.012698412698412698
Kappa statistic: 0.9111111111111112
Training time: 0.0
		
Iteration: 7
Labeled set size: 351
Unlabelled set size: 804
	
Mean region size: 14.285714285714091
Incorrectly Classified Instances: 6.4935064935064934
Correctly Classified Instances: 93.50649350649351
Weighted Precision: 0.9351492185838892
Weighted AreaUnderROC: 0.9610319646683283
Root mean squared error: 0.1350691892863268
Relative absolute error: 9.374135489365832
Root relative squared error: 38.599235934337905
Weighted TruePositiveRate: 0.935064935064935
Weighted MatthewsCorrelation: 0.924000527639172
Weighted FMeasure: 0.9341373309056149
Iteration time: 2.0
Weighted AreaUnderPRC: 0.8853460518837248
Mean absolute error: 0.022957066504569485
Coverage of cases: 93.50649350649351
Instances selection time: 2.0
Test time: 117.0
Accumulative iteration time: 25.0
Weighted Recall: 0.935064935064935
Weighted FalsePositiveRate: 0.010822510822510822
Kappa statistic: 0.9242424242424241
Training time: 0.0
		
Iteration: 8
Labeled set size: 371
Unlabelled set size: 784
	
Mean region size: 14.285714285714091
Incorrectly Classified Instances: 6.4935064935064934
Correctly Classified Instances: 93.50649350649351
Weighted Precision: 0.9351492185838892
Weighted AreaUnderROC: 0.9612610958065504
Root mean squared error: 0.13512054361637152
Relative absolute error: 9.274213729042222
Root relative squared error: 38.61391165655198
Weighted TruePositiveRate: 0.935064935064935
Weighted MatthewsCorrelation: 0.924000527639172
Weighted FMeasure: 0.9341373309056149
Iteration time: 2.0
Weighted AreaUnderPRC: 0.8857773080957063
Mean absolute error: 0.02271236015275656
Coverage of cases: 93.50649350649351
Instances selection time: 2.0
Test time: 117.0
Accumulative iteration time: 27.0
Weighted Recall: 0.935064935064935
Weighted FalsePositiveRate: 0.010822510822510822
Kappa statistic: 0.9242424242424241
Training time: 0.0
		
Iteration: 9
Labeled set size: 391
Unlabelled set size: 764
	
Mean region size: 14.285714285714091
Incorrectly Classified Instances: 6.32034632034632
Correctly Classified Instances: 93.67965367965368
Weighted Precision: 0.9365775667848381
Weighted AreaUnderROC: 0.9625151952424681
Root mean squared error: 0.13335737127515854
Relative absolute error: 8.984354116860843
Root relative squared error: 38.11004319068662
Weighted TruePositiveRate: 0.9367965367965368
Weighted MatthewsCorrelation: 0.9259543454227889
Weighted FMeasure: 0.935986080632647
Iteration time: 2.0
Weighted AreaUnderPRC: 0.8886396688799348
Mean absolute error: 0.02200249987802665
Coverage of cases: 93.67965367965368
Instances selection time: 2.0
Test time: 121.0
Accumulative iteration time: 29.0
Weighted Recall: 0.9367965367965368
Weighted FalsePositiveRate: 0.010533910533910534
Kappa statistic: 0.9262626262626262
Training time: 0.0
		
Iteration: 10
Labeled set size: 411
Unlabelled set size: 744
	
Mean region size: 14.285714285714091
Incorrectly Classified Instances: 5.974025974025974
Correctly Classified Instances: 94.02597402597402
Weighted Precision: 0.9401732416827859
Weighted AreaUnderROC: 0.9644890463072281
Root mean squared error: 0.12970230348944026
Relative absolute error: 8.510009334314768
Root relative squared error: 37.06552056815231
Weighted TruePositiveRate: 0.9402597402597402
Weighted MatthewsCorrelation: 0.9300985325556982
Weighted FMeasure: 0.9396503948233283
Iteration time: 2.0
Weighted AreaUnderPRC: 0.8946768359121267
Mean absolute error: 0.020840839186077074
Coverage of cases: 94.02597402597402
Instances selection time: 2.0
Test time: 123.0
Accumulative iteration time: 31.0
Weighted Recall: 0.9402597402597402
Weighted FalsePositiveRate: 0.009956709956709957
Kappa statistic: 0.9303030303030302
Training time: 0.0
		
Iteration: 11
Labeled set size: 431
Unlabelled set size: 724
	
Mean region size: 14.285714285714091
Incorrectly Classified Instances: 5.887445887445887
Correctly Classified Instances: 94.11255411255411
Weighted Precision: 0.9409894468884776
Weighted AreaUnderROC: 0.9649787922515194
Root mean squared error: 0.12879842012322307
Relative absolute error: 8.340273063935847
Root relative squared error: 36.80721438082649
Weighted TruePositiveRate: 0.9411255411255411
Weighted MatthewsCorrelation: 0.9310874453285224
Weighted FMeasure: 0.9405013980477628
Iteration time: 2.0
Weighted AreaUnderPRC: 0.8960195593981218
Mean absolute error: 0.020425158523924607
Coverage of cases: 94.11255411255411
Instances selection time: 2.0
Test time: 127.0
Accumulative iteration time: 33.0
Weighted Recall: 0.9411255411255411
Weighted FalsePositiveRate: 0.009812409812409812
Kappa statistic: 0.9313131313131312
Training time: 0.0
		
Iteration: 12
Labeled set size: 451
Unlabelled set size: 704
	
Mean region size: 14.285714285714091
Incorrectly Classified Instances: 5.800865800865801
Correctly Classified Instances: 94.19913419913419
Weighted Precision: 0.941936407996375
Weighted AreaUnderROC: 0.9654729109274562
Root mean squared error: 0.1278839437619953
Relative absolute error: 8.17653963358499
Root relative squared error: 36.54588099302789
Weighted TruePositiveRate: 0.941991341991342
Weighted MatthewsCorrelation: 0.9321554528115367
Weighted FMeasure: 0.9414706849971674
Iteration time: 2.0
Weighted AreaUnderPRC: 0.897565056611046
Mean absolute error: 0.02002417869449394
Coverage of cases: 94.19913419913419
Instances selection time: 2.0
Test time: 128.0
Accumulative iteration time: 35.0
Weighted Recall: 0.941991341991342
Weighted FalsePositiveRate: 0.009668109668109668
Kappa statistic: 0.9323232323232322
Training time: 0.0
		
Iteration: 13
Labeled set size: 471
Unlabelled set size: 684
	
Mean region size: 14.285714285714091
Incorrectly Classified Instances: 5.800865800865801
Correctly Classified Instances: 94.19913419913419
Weighted Precision: 0.941936407996375
Weighted AreaUnderROC: 0.9655874764965673
Root mean squared error: 0.12791520287885233
Relative absolute error: 8.115069241337226
Root relative squared error: 36.55481402974069
Weighted TruePositiveRate: 0.941991341991342
Weighted MatthewsCorrelation: 0.9321554528115367
Weighted FMeasure: 0.9414706849971674
Iteration time: 2.0
Weighted AreaUnderPRC: 0.8977184085344404
Mean absolute error: 0.019873638958376964
Coverage of cases: 94.19913419913419
Instances selection time: 2.0
Test time: 133.0
Accumulative iteration time: 37.0
Weighted Recall: 0.941991341991342
Weighted FalsePositiveRate: 0.009668109668109668
Kappa statistic: 0.9323232323232322
Training time: 0.0
		
Iteration: 14
Labeled set size: 491
Unlabelled set size: 664
	
Mean region size: 14.285714285714091
Incorrectly Classified Instances: 5.541125541125541
Correctly Classified Instances: 94.45887445887446
Weighted Precision: 0.9443950361659866
Weighted AreaUnderROC: 0.9672268135904498
Root mean squared error: 0.12505210858341304
Relative absolute error: 7.758555952728004
Root relative squared error: 35.73661668365575
Weighted TruePositiveRate: 0.9445887445887445
Weighted MatthewsCorrelation: 0.9351664369389124
Weighted FMeasure: 0.9441674091760323
Iteration time: 5.0
Weighted AreaUnderPRC: 0.902087858448454
Mean absolute error: 0.01900054519035438
Coverage of cases: 94.45887445887446
Instances selection time: 5.0
Test time: 289.0
Accumulative iteration time: 42.0
Weighted Recall: 0.9445887445887445
Weighted FalsePositiveRate: 0.009235209235209235
Kappa statistic: 0.9353535353535352
Training time: 0.0
		
Iteration: 15
Labeled set size: 511
Unlabelled set size: 644
	
Mean region size: 14.285714285714091
Incorrectly Classified Instances: 5.2813852813852815
Correctly Classified Instances: 94.71861471861472
Weighted Precision: 0.9469328030837726
Weighted AreaUnderROC: 0.9691158336612882
Root mean squared error: 0.12211033124410024
Relative absolute error: 7.410722410722421
Root relative squared error: 34.8959337848659
Weighted TruePositiveRate: 0.9471861471861471
Weighted MatthewsCorrelation: 0.9381832973392283
Weighted FMeasure: 0.9467876859202403
Iteration time: 1.0
Weighted AreaUnderPRC: 0.9066654898672615
Mean absolute error: 0.018148707944626415
Coverage of cases: 94.71861471861472
Instances selection time: 1.0
Test time: 139.0
Accumulative iteration time: 43.0
Weighted Recall: 0.9471861471861471
Weighted FalsePositiveRate: 0.008802308802308801
Kappa statistic: 0.9383838383838383
Training time: 0.0
		
Iteration: 16
Labeled set size: 531
Unlabelled set size: 624
	
Mean region size: 14.285714285714091
Incorrectly Classified Instances: 5.454545454545454
Correctly Classified Instances: 94.54545454545455
Weighted Precision: 0.9450995600658864
Weighted AreaUnderROC: 0.968529450347632
Root mean squared error: 0.12411106752091847
Relative absolute error: 7.565259671386583
Root relative squared error: 35.46769180014195
Weighted TruePositiveRate: 0.9454545454545454
Weighted MatthewsCorrelation: 0.9361155059465331
Weighted FMeasure: 0.9450112599413433
Iteration time: 1.0
Weighted AreaUnderPRC: 0.9043743649046943
Mean absolute error: 0.018527166542171302
Coverage of cases: 94.54545454545455
Instances selection time: 1.0
Test time: 141.0
Accumulative iteration time: 44.0
Weighted Recall: 0.9454545454545454
Weighted FalsePositiveRate: 0.009090909090909089
Kappa statistic: 0.9363636363636362
Training time: 0.0
		
Iteration: 17
Labeled set size: 551
Unlabelled set size: 604
	
Mean region size: 14.285714285714091
Incorrectly Classified Instances: 5.454545454545454
Correctly Classified Instances: 94.54545454545455
Weighted Precision: 0.945045538998729
Weighted AreaUnderROC: 0.9685001530456077
Root mean squared error: 0.1241344038866817
Relative absolute error: 7.522726546355177
Root relative squared error: 35.47436072214189
Weighted TruePositiveRate: 0.9454545454545454
Weighted MatthewsCorrelation: 0.9360981553626789
Weighted FMeasure: 0.9450161322292815
Iteration time: 5.0
Weighted AreaUnderPRC: 0.9042857071116971
Mean absolute error: 0.01842300378699235
Coverage of cases: 94.54545454545455
Instances selection time: 5.0
Test time: 142.0
Accumulative iteration time: 49.0
Weighted Recall: 0.9454545454545454
Weighted FalsePositiveRate: 0.00909090909090909
Kappa statistic: 0.9363636363636362
Training time: 0.0
		
Iteration: 18
Labeled set size: 571
Unlabelled set size: 584
	
Mean region size: 14.285714285714091
Incorrectly Classified Instances: 5.800865800865801
Correctly Classified Instances: 94.19913419913419
Weighted Precision: 0.9416663038055451
Weighted AreaUnderROC: 0.9665407319952776
Root mean squared error: 0.12803234047185194
Relative absolute error: 7.881763479078518
Root relative squared error: 36.58828888520449
Weighted TruePositiveRate: 0.941991341991342
Weighted MatthewsCorrelation: 0.9320953541540885
Weighted FMeasure: 0.9415840882978184
Iteration time: 1.0
Weighted AreaUnderPRC: 0.898851794037955
Mean absolute error: 0.019302277907947474
Coverage of cases: 94.19913419913419
Instances selection time: 1.0
Test time: 145.0
Accumulative iteration time: 50.0
Weighted Recall: 0.941991341991342
Weighted FalsePositiveRate: 0.00966810966810967
Kappa statistic: 0.9323232323232322
Training time: 0.0
		
Iteration: 19
Labeled set size: 591
Unlabelled set size: 564
	
Mean region size: 14.285714285714091
Incorrectly Classified Instances: 5.800865800865801
Correctly Classified Instances: 94.19913419913419
Weighted Precision: 0.9416663038055451
Weighted AreaUnderROC: 0.9665407319952776
Root mean squared error: 0.12805383818536234
Relative absolute error: 7.84450005936812
Root relative squared error: 36.59443236855714
Weighted TruePositiveRate: 0.941991341991342
Weighted MatthewsCorrelation: 0.9320953541540885
Weighted FMeasure: 0.9415840882978184
Iteration time: 2.0
Weighted AreaUnderPRC: 0.898851794037955
Mean absolute error: 0.019211020553554663
Coverage of cases: 94.19913419913419
Instances selection time: 2.0
Test time: 267.0
Accumulative iteration time: 52.0
Weighted Recall: 0.941991341991342
Weighted FalsePositiveRate: 0.00966810966810967
Kappa statistic: 0.9323232323232322
Training time: 0.0
		
Iteration: 20
Labeled set size: 611
Unlabelled set size: 544
	
Mean region size: 14.285714285714091
Incorrectly Classified Instances: 5.800865800865801
Correctly Classified Instances: 94.19913419913419
Weighted Precision: 0.941562115960996
Weighted AreaUnderROC: 0.966537233809961
Root mean squared error: 0.12807408034299342
Relative absolute error: 7.809648700103644
Root relative squared error: 36.60021704693088
Weighted TruePositiveRate: 0.941991341991342
Weighted MatthewsCorrelation: 0.9320575633378859
Weighted FMeasure: 0.9415771045376274
Iteration time: 1.0
Weighted AreaUnderPRC: 0.8987941590398861
Mean absolute error: 0.019125670285968187
Coverage of cases: 94.19913419913419
Instances selection time: 1.0
Test time: 150.0
Accumulative iteration time: 53.0
Weighted Recall: 0.941991341991342
Weighted FalsePositiveRate: 0.009668109668109668
Kappa statistic: 0.9323232323232322
Training time: 0.0
		
Iteration: 21
Labeled set size: 631
Unlabelled set size: 524
	
Mean region size: 14.285714285714091
Incorrectly Classified Instances: 5.714285714285714
Correctly Classified Instances: 94.28571428571429
Weighted Precision: 0.942481998245004
Weighted AreaUnderROC: 0.9669679478770389
Root mean squared error: 0.12713466234422732
Relative absolute error: 7.6780254030006345
Root relative squared error: 36.33175599251181
Weighted TruePositiveRate: 0.9428571428571428
Weighted MatthewsCorrelation: 0.9330841044615138
Weighted FMeasure: 0.9424350547701553
Iteration time: 1.0
Weighted AreaUnderPRC: 0.9000245583853459
Mean absolute error: 0.018803327517552655
Coverage of cases: 94.28571428571429
Instances selection time: 1.0
Test time: 153.0
Accumulative iteration time: 54.0
Weighted Recall: 0.9428571428571428
Weighted FalsePositiveRate: 0.009523809523809525
Kappa statistic: 0.9333333333333333
Training time: 0.0
		
Iteration: 22
Labeled set size: 651
Unlabelled set size: 504
	
Mean region size: 14.285714285714091
Incorrectly Classified Instances: 5.541125541125541
Correctly Classified Instances: 94.45887445887446
Weighted Precision: 0.9443952156274581
Weighted AreaUnderROC: 0.9680598189689098
Root mean squared error: 0.12521279406966
Relative absolute error: 7.445579603390413
Root relative squared error: 35.78253638619962
Weighted TruePositiveRate: 0.9445887445887445
Weighted MatthewsCorrelation: 0.9351740826473617
Weighted FMeasure: 0.9441934529197538
Iteration time: 1.0
Weighted AreaUnderPRC: 0.9032118391189581
Mean absolute error: 0.01823407249809905
Coverage of cases: 94.45887445887446
Instances selection time: 1.0
Test time: 156.0
Accumulative iteration time: 55.0
Weighted Recall: 0.9445887445887445
Weighted FalsePositiveRate: 0.009235209235209235
Kappa statistic: 0.9353535353535352
Training time: 0.0
		
Iteration: 23
Labeled set size: 671
Unlabelled set size: 484
	
Mean region size: 14.285714285714091
Incorrectly Classified Instances: 5.541125541125541
Correctly Classified Instances: 94.45887445887446
Weighted Precision: 0.9443952156274581
Weighted AreaUnderROC: 0.9680090952818226
Root mean squared error: 0.12522939612538742
Relative absolute error: 7.417530593695061
Root relative squared error: 35.78728081880785
Weighted TruePositiveRate: 0.9445887445887445
Weighted MatthewsCorrelation: 0.9351740826473617
Weighted FMeasure: 0.9441934529197538
Iteration time: 1.0
Weighted AreaUnderPRC: 0.9030554408450835
Mean absolute error: 0.018165381045783902
Coverage of cases: 94.45887445887446
Instances selection time: 1.0
Test time: 158.0
Accumulative iteration time: 56.0
Weighted Recall: 0.9445887445887445
Weighted FalsePositiveRate: 0.009235209235209235
Kappa statistic: 0.9353535353535352
Training time: 0.0
		
Iteration: 24
Labeled set size: 691
Unlabelled set size: 464
	
Mean region size: 14.285714285714091
Incorrectly Classified Instances: 5.367965367965368
Correctly Classified Instances: 94.63203463203463
Weighted Precision: 0.9460075990175845
Weighted AreaUnderROC: 0.9691608727972364
Root mean squared error: 0.12327403800586743
Relative absolute error: 7.187207570932846
Root relative squared error: 35.228490692130784
Weighted TruePositiveRate: 0.9463203463203463
Weighted MatthewsCorrelation: 0.9371692341272476
Weighted FMeasure: 0.9459811659419867
Iteration time: 1.0
Weighted AreaUnderPRC: 0.9064809022302588
Mean absolute error: 0.017601324663509086
Coverage of cases: 94.63203463203463
Instances selection time: 1.0
Test time: 160.0
Accumulative iteration time: 57.0
Weighted Recall: 0.9463203463203463
Weighted FalsePositiveRate: 0.008946608946608946
Kappa statistic: 0.9373737373737373
Training time: 0.0
		
Iteration: 25
Labeled set size: 711
Unlabelled set size: 444
	
Mean region size: 14.285714285714091
Incorrectly Classified Instances: 5.367965367965368
Correctly Classified Instances: 94.63203463203463
Weighted Precision: 0.9460824481879707
Weighted AreaUnderROC: 0.9691897328260964
Root mean squared error: 0.12328856699185475
Relative absolute error: 7.161031103178429
Root relative squared error: 35.23264269571484
Weighted TruePositiveRate: 0.9463203463203463
Weighted MatthewsCorrelation: 0.9372077644240324
Weighted FMeasure: 0.9460260453364833
Iteration time: 2.0
Weighted AreaUnderPRC: 0.906769934904668
Mean absolute error: 0.017537219028192146
Coverage of cases: 94.63203463203463
Instances selection time: 2.0
Test time: 162.0
Accumulative iteration time: 59.0
Weighted Recall: 0.9463203463203463
Weighted FalsePositiveRate: 0.008946608946608946
Kappa statistic: 0.9373737373737373
Training time: 0.0
		
Iteration: 26
Labeled set size: 731
Unlabelled set size: 424
	
Mean region size: 14.285714285714091
Incorrectly Classified Instances: 5.454545454545454
Correctly Classified Instances: 94.54545454545455
Weighted Precision: 0.9450551314020779
Weighted AreaUnderROC: 0.9686776859504134
Root mean squared error: 0.1242920594410397
Relative absolute error: 7.237142735380093
Root relative squared error: 35.51941454952603
Weighted TruePositiveRate: 0.9454545454545454
Weighted MatthewsCorrelation: 0.936128233513507
Weighted FMeasure: 0.945110328096541
Iteration time: 1.0
Weighted AreaUnderPRC: 0.9052175127712708
Mean absolute error: 0.017723614862155405
Coverage of cases: 94.54545454545455
Instances selection time: 1.0
Test time: 165.0
Accumulative iteration time: 60.0
Weighted Recall: 0.9454545454545454
Weighted FalsePositiveRate: 0.00909090909090909
Kappa statistic: 0.9363636363636362
Training time: 0.0
		
Iteration: 27
Labeled set size: 751
Unlabelled set size: 404
	
Mean region size: 14.285714285714091
Incorrectly Classified Instances: 5.2813852813852815
Correctly Classified Instances: 94.71861471861472
Weighted Precision: 0.9467924523467158
Weighted AreaUnderROC: 0.9696904105995016
Root mean squared error: 0.1223178009896287
Relative absolute error: 7.013540762655568
Root relative squared error: 34.955223203120376
Weighted TruePositiveRate: 0.9471861471861471
Weighted MatthewsCorrelation: 0.9381484415940523
Weighted FMeasure: 0.9468352298922718
Iteration time: 1.0
Weighted AreaUnderPRC: 0.9078975227179567
Mean absolute error: 0.017176018194258607
Coverage of cases: 94.71861471861472
Instances selection time: 1.0
Test time: 168.0
Accumulative iteration time: 61.0
Weighted Recall: 0.9471861471861471
Weighted FalsePositiveRate: 0.008802308802308801
Kappa statistic: 0.9383838383838383
Training time: 0.0
		
Iteration: 28
Labeled set size: 771
Unlabelled set size: 384
	
Mean region size: 14.285714285714091
Incorrectly Classified Instances: 5.194805194805195
Correctly Classified Instances: 94.8051948051948
Weighted Precision: 0.9476782563603878
Weighted AreaUnderROC: 0.9701797192706283
Root mean squared error: 0.12132408942042787
Relative absolute error: 6.891537398979707
Root relative squared error: 34.6712464685821
Weighted TruePositiveRate: 0.948051948051948
Weighted MatthewsCorrelation: 0.9391782824740129
Weighted FMeasure: 0.9477462495607694
Iteration time: 1.0
Weighted AreaUnderPRC: 0.9094069209420302
Mean absolute error: 0.016877234446480986
Coverage of cases: 94.8051948051948
Instances selection time: 1.0
Test time: 170.0
Accumulative iteration time: 62.0
Weighted Recall: 0.948051948051948
Weighted FalsePositiveRate: 0.008658008658008658
Kappa statistic: 0.9393939393939393
Training time: 0.0
		
Iteration: 29
Labeled set size: 791
Unlabelled set size: 364
	
Mean region size: 14.285714285714091
Incorrectly Classified Instances: 5.108225108225108
Correctly Classified Instances: 94.89177489177489
Weighted Precision: 0.9485736345007141
Weighted AreaUnderROC: 0.9706668415759326
Root mean squared error: 0.12032112705637614
Relative absolute error: 6.770586413526249
Root relative squared error: 34.384626099215495
Weighted TruePositiveRate: 0.9489177489177489
Weighted MatthewsCorrelation: 0.9402005333651003
Weighted FMeasure: 0.9486192417629744
Iteration time: 1.0
Weighted AreaUnderPRC: 0.9108382517462276
Mean absolute error: 0.016581027951492924
Coverage of cases: 94.89177489177489
Instances selection time: 1.0
Test time: 172.0
Accumulative iteration time: 63.0
Weighted Recall: 0.9489177489177489
Weighted FalsePositiveRate: 0.008513708513708513
Kappa statistic: 0.9404040404040405
Training time: 0.0
		
Iteration: 30
Labeled set size: 811
Unlabelled set size: 344
	
Mean region size: 14.285714285714091
Incorrectly Classified Instances: 5.108225108225108
Correctly Classified Instances: 94.89177489177489
Weighted Precision: 0.9485183871651316
Weighted AreaUnderROC: 0.970796274432638
Root mean squared error: 0.12033205965197447
Relative absolute error: 6.748912015992019
Root relative squared error: 34.38775034863984
Weighted TruePositiveRate: 0.9489177489177489
Weighted MatthewsCorrelation: 0.9401820293709896
Weighted FMeasure: 0.9486207941450184
Iteration time: 1.0
Weighted AreaUnderPRC: 0.911331605778175
Mean absolute error: 0.01652794779426624
Coverage of cases: 94.89177489177489
Instances selection time: 1.0
Test time: 174.0
Accumulative iteration time: 64.0
Weighted Recall: 0.9489177489177489
Weighted FalsePositiveRate: 0.008513708513708513
Kappa statistic: 0.9404040404040405
Training time: 0.0
		
Iteration: 31
Labeled set size: 831
Unlabelled set size: 324
	
Mean region size: 14.285714285714091
Incorrectly Classified Instances: 5.021645021645021
Correctly Classified Instances: 94.97835497835497
Weighted Precision: 0.949385065177318
Weighted AreaUnderROC: 0.9712820849184486
Root mean squared error: 0.11931908421026188
Relative absolute error: 6.629906024817468
Root relative squared error: 34.098268503987114
Weighted TruePositiveRate: 0.9497835497835497
Weighted MatthewsCorrelation: 0.9411897673591416
Weighted FMeasure: 0.9494774145417958
Iteration time: 1.0
Weighted AreaUnderPRC: 0.912786967124916
Mean absolute error: 0.01623650455057346
Coverage of cases: 94.97835497835497
Instances selection time: 1.0
Test time: 177.0
Accumulative iteration time: 65.0
Weighted Recall: 0.9497835497835497
Weighted FalsePositiveRate: 0.008369408369408369
Kappa statistic: 0.9414141414141413
Training time: 0.0
		
Iteration: 32
Labeled set size: 851
Unlabelled set size: 304
	
Mean region size: 14.285714285714091
Incorrectly Classified Instances: 4.935064935064935
Correctly Classified Instances: 95.06493506493507
Weighted Precision: 0.9503059311229572
Weighted AreaUnderROC: 0.9718177445450172
Root mean squared error: 0.1182965209059643
Relative absolute error: 6.511035603008464
Root relative squared error: 33.806046699377724
Weighted TruePositiveRate: 0.9506493506493506
Weighted MatthewsCorrelation: 0.9422294961050414
Weighted FMeasure: 0.9503806370089053
Iteration time: 1.0
Weighted AreaUnderPRC: 0.9144647600032746
Mean absolute error: 0.015945393313490184
Coverage of cases: 95.06493506493507
Instances selection time: 1.0
Test time: 179.0
Accumulative iteration time: 66.0
Weighted Recall: 0.9506493506493506
Weighted FalsePositiveRate: 0.008225108225108226
Kappa statistic: 0.9424242424242423
Training time: 0.0
		
Iteration: 33
Labeled set size: 871
Unlabelled set size: 284
	
Mean region size: 14.285714285714091
Incorrectly Classified Instances: 4.848484848484849
Correctly Classified Instances: 95.15151515151516
Weighted Precision: 0.9511362297788225
Weighted AreaUnderROC: 0.9723022432113341
Root mean squared error: 0.11726426826898934
Relative absolute error: 6.3936663101106
Root relative squared error: 33.51105593731743
Weighted TruePositiveRate: 0.9515151515151515
Weighted MatthewsCorrelation: 0.9432168461344725
Weighted FMeasure: 0.9512093208165208
Iteration time: 1.0
Weighted AreaUnderPRC: 0.9158808000729249
Mean absolute error: 0.015657958310475006
Coverage of cases: 95.15151515151516
Instances selection time: 1.0
Test time: 182.0
Accumulative iteration time: 67.0
Weighted Recall: 0.9515151515151515
Weighted FalsePositiveRate: 0.00808080808080808
Kappa statistic: 0.9434343434343433
Training time: 0.0
		
Iteration: 34
Labeled set size: 891
Unlabelled set size: 264
	
Mean region size: 14.285714285714091
Incorrectly Classified Instances: 4.935064935064935
Correctly Classified Instances: 95.06493506493507
Weighted Precision: 0.9502432605759132
Weighted AreaUnderROC: 0.9720153920153919
Root mean squared error: 0.11831493312643725
Relative absolute error: 6.475118299033593
Root relative squared error: 33.81130842964993
Weighted TruePositiveRate: 0.9506493506493506
Weighted MatthewsCorrelation: 0.942190088204417
Weighted FMeasure: 0.9503180382839008
Iteration time: 1.0
Weighted AreaUnderPRC: 0.9148027975995252
Mean absolute error: 0.015857432569061927
Coverage of cases: 95.06493506493507
Instances selection time: 1.0
Test time: 188.0
Accumulative iteration time: 68.0
Weighted Recall: 0.9506493506493506
Weighted FalsePositiveRate: 0.008225108225108226
Kappa statistic: 0.9424242424242423
Training time: 0.0
		
Iteration: 35
Labeled set size: 911
Unlabelled set size: 244
	
Mean region size: 14.285714285714091
Incorrectly Classified Instances: 4.675324675324675
Correctly Classified Instances: 95.32467532467533
Weighted Precision: 0.9529236816009881
Weighted AreaUnderROC: 0.9735427871791508
Root mean squared error: 0.11516949524090898
Relative absolute error: 6.157449173544234
Root relative squared error: 32.9124246819809
Weighted TruePositiveRate: 0.9532467532467532
Weighted MatthewsCorrelation: 0.9452500811629642
Weighted FMeasure: 0.9529201099103627
Iteration time: 0.0
Weighted AreaUnderPRC: 0.9195464898744843
Mean absolute error: 0.015079467363781863
Coverage of cases: 95.32467532467533
Instances selection time: 0.0
Test time: 187.0
Accumulative iteration time: 68.0
Weighted Recall: 0.9532467532467532
Weighted FalsePositiveRate: 0.007792207792207792
Kappa statistic: 0.9454545454545454
Training time: 0.0
		
Iteration: 36
Labeled set size: 931
Unlabelled set size: 224
	
Mean region size: 14.285714285714091
Incorrectly Classified Instances: 4.675324675324675
Correctly Classified Instances: 95.32467532467533
Weighted Precision: 0.9529236816009881
Weighted AreaUnderROC: 0.9735541562814292
Root mean squared error: 0.11517756116249665
Relative absolute error: 6.142138586377973
Root relative squared error: 32.91472971107032
Weighted TruePositiveRate: 0.9532467532467532
Weighted MatthewsCorrelation: 0.9452500811629642
Weighted FMeasure: 0.9529201099103627
Iteration time: 0.0
Weighted AreaUnderPRC: 0.9194320510648633
Mean absolute error: 0.015041972048272652
Coverage of cases: 95.32467532467533
Instances selection time: 0.0
Test time: 189.0
Accumulative iteration time: 68.0
Weighted Recall: 0.9532467532467532
Weighted FalsePositiveRate: 0.007792207792207792
Kappa statistic: 0.9454545454545454
Training time: 0.0
		
Iteration: 37
Labeled set size: 951
Unlabelled set size: 204
	
Mean region size: 14.285714285714091
Incorrectly Classified Instances: 4.588744588744588
Correctly Classified Instances: 95.41125541125541
Weighted Precision: 0.9538661306290488
Weighted AreaUnderROC: 0.9740137303773669
Root mean squared error: 0.11411442206315815
Relative absolute error: 6.027825562028456
Root relative squared error: 32.61091240718916
Weighted TruePositiveRate: 0.9541125541125541
Weighted MatthewsCorrelation: 0.9463052660320911
Weighted FMeasure: 0.9538518826243946
Iteration time: 1.0
Weighted AreaUnderPRC: 0.9209162155236579
Mean absolute error: 0.014762021784559548
Coverage of cases: 95.41125541125541
Instances selection time: 1.0
Test time: 191.0
Accumulative iteration time: 69.0
Weighted Recall: 0.9541125541125541
Weighted FalsePositiveRate: 0.007647907647907648
Kappa statistic: 0.9464646464646465
Training time: 0.0
		
Iteration: 38
Labeled set size: 971
Unlabelled set size: 184
	
Mean region size: 14.285714285714091
Incorrectly Classified Instances: 4.5021645021645025
Correctly Classified Instances: 95.4978354978355
Weighted Precision: 0.9547290935142286
Weighted AreaUnderROC: 0.9744912326730509
Root mean squared error: 0.11304063807536187
Relative absolute error: 5.913747992791141
Root relative squared error: 32.304053073047456
Weighted TruePositiveRate: 0.9549783549783549
Weighted MatthewsCorrelation: 0.9473085124870007
Weighted FMeasure: 0.9546972082498534
Iteration time: 1.0
Weighted AreaUnderPRC: 0.9222536880889725
Mean absolute error: 0.014482648145611019
Coverage of cases: 95.4978354978355
Instances selection time: 1.0
Test time: 193.0
Accumulative iteration time: 70.0
Weighted Recall: 0.9549783549783549
Weighted FalsePositiveRate: 0.0075036075036075045
Kappa statistic: 0.9474747474747472
Training time: 0.0
		
Iteration: 39
Labeled set size: 991
Unlabelled set size: 164
	
Mean region size: 14.285714285714091
Incorrectly Classified Instances: 4.5021645021645025
Correctly Classified Instances: 95.4978354978355
Weighted Precision: 0.9547290935142286
Weighted AreaUnderROC: 0.9744501289955836
Root mean squared error: 0.11304769448892449
Relative absolute error: 5.901100971437634
Root relative squared error: 32.30606961118907
Weighted TruePositiveRate: 0.9549783549783549
Weighted MatthewsCorrelation: 0.9473085124870007
Weighted FMeasure: 0.9546972082498534
Iteration time: 0.0
Weighted AreaUnderPRC: 0.922061260865142
Mean absolute error: 0.014451675848418756
Coverage of cases: 95.4978354978355
Instances selection time: 0.0
Test time: 197.0
Accumulative iteration time: 70.0
Weighted Recall: 0.9549783549783549
Weighted FalsePositiveRate: 0.0075036075036075045
Kappa statistic: 0.9474747474747472
Training time: 0.0
		
Iteration: 40
Labeled set size: 1011
Unlabelled set size: 144
	
Mean region size: 14.285714285714091
Incorrectly Classified Instances: 4.5021645021645025
Correctly Classified Instances: 95.4978354978355
Weighted Precision: 0.9547290935142286
Weighted AreaUnderROC: 0.974558572740391
Root mean squared error: 0.11305439258127001
Relative absolute error: 5.887171143735824
Root relative squared error: 32.30798375051367
Weighted TruePositiveRate: 0.9549783549783549
Weighted MatthewsCorrelation: 0.9473085124870007
Weighted FMeasure: 0.9546972082498534
Iteration time: 0.0
Weighted AreaUnderPRC: 0.922171914206945
Mean absolute error: 0.014417561984659223
Coverage of cases: 95.4978354978355
Instances selection time: 0.0
Test time: 199.0
Accumulative iteration time: 70.0
Weighted Recall: 0.9549783549783549
Weighted FalsePositiveRate: 0.0075036075036075045
Kappa statistic: 0.9474747474747472
Training time: 0.0
		
Iteration: 41
Labeled set size: 1031
Unlabelled set size: 124
	
Mean region size: 14.285714285714091
Incorrectly Classified Instances: 4.5021645021645025
Correctly Classified Instances: 95.4978354978355
Weighted Precision: 0.9548411349969986
Weighted AreaUnderROC: 0.974581748218112
Root mean squared error: 0.11306090125963397
Relative absolute error: 5.874650843556075
Root relative squared error: 32.30984376028436
Weighted TruePositiveRate: 0.9549783549783549
Weighted MatthewsCorrelation: 0.947357854421024
Weighted FMeasure: 0.954736230410174
Iteration time: 1.0
Weighted AreaUnderPRC: 0.922356230954961
Mean absolute error: 0.014386900025035346
Coverage of cases: 95.4978354978355
Instances selection time: 1.0
Test time: 213.0
Accumulative iteration time: 71.0
Weighted Recall: 0.9549783549783549
Weighted FalsePositiveRate: 0.0075036075036075045
Kappa statistic: 0.9474747474747472
Training time: 0.0
		
Iteration: 42
Labeled set size: 1051
Unlabelled set size: 104
	
Mean region size: 14.285714285714091
Incorrectly Classified Instances: 4.588744588744588
Correctly Classified Instances: 95.41125541125541
Weighted Precision: 0.9541255707105851
Weighted AreaUnderROC: 0.9742008832917924
Root mean squared error: 0.11414864030913592
Relative absolute error: 5.962089295090923
Root relative squared error: 32.620691085485326
Weighted TruePositiveRate: 0.9541125541125541
Weighted MatthewsCorrelation: 0.9464211348653512
Weighted FMeasure: 0.9539476903217571
Iteration time: 1.0
Weighted AreaUnderPRC: 0.9211545839603458
Mean absolute error: 0.014601035008385997
Coverage of cases: 95.41125541125541
Instances selection time: 1.0
Test time: 207.0
Accumulative iteration time: 72.0
Weighted Recall: 0.9541125541125541
Weighted FalsePositiveRate: 0.007647907647907648
Kappa statistic: 0.9464646464646465
Training time: 0.0
		
Iteration: 43
Labeled set size: 1071
Unlabelled set size: 84
	
Mean region size: 14.285714285714091
Incorrectly Classified Instances: 4.5021645021645025
Correctly Classified Instances: 95.4978354978355
Weighted Precision: 0.9551467578630188
Weighted AreaUnderROC: 0.9747173028991211
Root mean squared error: 0.11307318548897631
Relative absolute error: 5.849883227310435
Root relative squared error: 32.31335427122443
Weighted TruePositiveRate: 0.9549783549783549
Weighted MatthewsCorrelation: 0.9475206236173236
Weighted FMeasure: 0.9549389822510076
Iteration time: 0.0
Weighted AreaUnderPRC: 0.9230945161711405
Mean absolute error: 0.01432624463831133
Coverage of cases: 95.4978354978355
Instances selection time: 0.0
Test time: 219.0
Accumulative iteration time: 72.0
Weighted Recall: 0.9549783549783549
Weighted FalsePositiveRate: 0.007503607503607503
Kappa statistic: 0.9474747474747472
Training time: 0.0
		
Iteration: 44
Labeled set size: 1091
Unlabelled set size: 64
	
Mean region size: 14.285714285714091
Incorrectly Classified Instances: 4.588744588744588
Correctly Classified Instances: 95.41125541125541
Weighted Precision: 0.9543261331164516
Weighted AreaUnderROC: 0.9736770300406665
Root mean squared error: 0.11416418326733856
Relative absolute error: 5.940238634147775
Root relative squared error: 32.62513285576582
Weighted TruePositiveRate: 0.9541125541125541
Weighted MatthewsCorrelation: 0.9465243207551459
Weighted FMeasure: 0.9540679542315063
Iteration time: 0.0
Weighted AreaUnderPRC: 0.9208180587847644
Mean absolute error: 0.014547523185668083
Coverage of cases: 95.41125541125541
Instances selection time: 0.0
Test time: 216.0
Accumulative iteration time: 72.0
Weighted Recall: 0.9541125541125541
Weighted FalsePositiveRate: 0.007647907647907647
Kappa statistic: 0.9464646464646465
Training time: 0.0
		
Iteration: 45
Labeled set size: 1111
Unlabelled set size: 44
	
Mean region size: 14.285714285714091
Incorrectly Classified Instances: 4.5021645021645025
Correctly Classified Instances: 95.4978354978355
Weighted Precision: 0.9552057432070994
Weighted AreaUnderROC: 0.9741274214001486
Root mean squared error: 0.11308819101465908
Relative absolute error: 5.829634641178037
Root relative squared error: 32.317642457369686
Weighted TruePositiveRate: 0.9549783549783549
Weighted MatthewsCorrelation: 0.947533136291446
Weighted FMeasure: 0.9549138225117988
Iteration time: 1.0
Weighted AreaUnderPRC: 0.9222786466485688
Mean absolute error: 0.014276656264109538
Coverage of cases: 95.4978354978355
Instances selection time: 1.0
Test time: 223.0
Accumulative iteration time: 73.0
Weighted Recall: 0.9549783549783549
Weighted FalsePositiveRate: 0.007503607503607503
Kappa statistic: 0.9474747474747472
Training time: 0.0
		
Iteration: 46
Labeled set size: 1131
Unlabelled set size: 24
	
Mean region size: 14.285714285714091
Incorrectly Classified Instances: 4.415584415584416
Correctly Classified Instances: 95.58441558441558
Weighted Precision: 0.9559891611881083
Weighted AreaUnderROC: 0.9746145437054528
Root mean squared error: 0.11200140071906524
Relative absolute error: 5.718837006340145
Root relative squared error: 32.00706626118146
Weighted TruePositiveRate: 0.9558441558441558
Weighted MatthewsCorrelation: 0.948511518192244
Weighted FMeasure: 0.9557666317375612
Iteration time: 0.0
Weighted AreaUnderPRC: 0.9236578423910076
Mean absolute error: 0.014005315117567762
Coverage of cases: 95.58441558441558
Instances selection time: 0.0
Test time: 220.0
Accumulative iteration time: 73.0
Weighted Recall: 0.9558441558441558
Weighted FalsePositiveRate: 0.00735930735930736
Kappa statistic: 0.9484848484848484
Training time: 0.0
		
Time end:Wed Nov 01 08.00.53 EET 2017