Wed Nov 01 07.55.05 EET 2017
Dataset: segment
Test set size: 1155
Initial Labelled set size: 231
Initial Unlabelled set size: 924
Batch mode: QBestBatchMode
Batch size: 20
Classifiers: IBk-1cores
Scenario: PoolBasedSamplingScenario
Query strategy: MarginSamplingQueryStrategy-1cores
Time begining: Wed Nov 01 07.55.05 EET 2017
		
Iteration: 1
Labeled set size: 231
Unlabelled set size: 924
	
Mean region size: 14.285714285714091
Incorrectly Classified Instances: 10.64935064935065
Correctly Classified Instances: 89.35064935064935
Weighted Precision: 0.8961100551357132
Weighted AreaUnderROC: 0.9384782893873803
Root mean squared error: 0.17215396721350731
Relative absolute error: 14.986203436598293
Root relative squared error: 49.1970939680403
Weighted TruePositiveRate: 0.8935064935064935
Weighted MatthewsCorrelation: 0.876844347368174
Weighted FMeasure: 0.8941656449163439
Iteration time: 64.0
Weighted AreaUnderPRC: 0.8269981949938073
Mean absolute error: 0.036700906375342915
Coverage of cases: 89.35064935064935
Instances selection time: 64.0
Test time: 82.0
Accumulative iteration time: 64.0
Weighted Recall: 0.8935064935064935
Weighted FalsePositiveRate: 0.01774891774891775
Kappa statistic: 0.8757575757575756
Training time: 0.0
		
Iteration: 2
Labeled set size: 251
Unlabelled set size: 904
	
Mean region size: 14.285714285714091
Incorrectly Classified Instances: 10.562770562770563
Correctly Classified Instances: 89.43722943722943
Weighted Precision: 0.8967849997719787
Weighted AreaUnderROC: 0.9389785298876209
Root mean squared error: 0.17161009862558432
Relative absolute error: 14.689317136888409
Root relative squared error: 49.04167057316071
Weighted TruePositiveRate: 0.8943722943722944
Weighted MatthewsCorrelation: 0.8777735452125284
Weighted FMeasure: 0.8949845651403525
Iteration time: 66.0
Weighted AreaUnderPRC: 0.8285020659712682
Mean absolute error: 0.03597383788625748
Coverage of cases: 89.43722943722943
Instances selection time: 66.0
Test time: 87.0
Accumulative iteration time: 130.0
Weighted Recall: 0.8943722943722944
Weighted FalsePositiveRate: 0.017604617604617602
Kappa statistic: 0.8767676767676766
Training time: 0.0
		
Iteration: 3
Labeled set size: 271
Unlabelled set size: 884
	
Mean region size: 14.285714285714091
Incorrectly Classified Instances: 10.562770562770563
Correctly Classified Instances: 89.43722943722943
Weighted Precision: 0.8967849997719787
Weighted AreaUnderROC: 0.9389785298876209
Root mean squared error: 0.171745506054126
Relative absolute error: 14.519083193454877
Root relative squared error: 49.080366469013484
Weighted TruePositiveRate: 0.8943722943722944
Weighted MatthewsCorrelation: 0.8777735452125284
Weighted FMeasure: 0.8949845651403525
Iteration time: 68.0
Weighted AreaUnderPRC: 0.8285020659712682
Mean absolute error: 0.03555693843295087
Coverage of cases: 89.43722943722943
Instances selection time: 67.0
Test time: 88.0
Accumulative iteration time: 198.0
Weighted Recall: 0.8943722943722944
Weighted FalsePositiveRate: 0.017604617604617602
Kappa statistic: 0.8767676767676766
Training time: 1.0
		
Iteration: 4
Labeled set size: 291
Unlabelled set size: 864
	
Mean region size: 14.285714285714091
Incorrectly Classified Instances: 10.562770562770563
Correctly Classified Instances: 89.43722943722943
Weighted Precision: 0.8967849997719787
Weighted AreaUnderROC: 0.9389785298876209
Root mean squared error: 0.17186482902507447
Relative absolute error: 14.371700966087696
Root relative squared error: 49.11446584824542
Weighted TruePositiveRate: 0.8943722943722944
Weighted MatthewsCorrelation: 0.8777735452125284
Weighted FMeasure: 0.8949845651403525
Iteration time: 68.0
Weighted AreaUnderPRC: 0.8285020659712682
Mean absolute error: 0.0351960023659292
Coverage of cases: 89.43722943722943
Instances selection time: 68.0
Test time: 91.0
Accumulative iteration time: 266.0
Weighted Recall: 0.8943722943722944
Weighted FalsePositiveRate: 0.017604617604617602
Kappa statistic: 0.8767676767676766
Training time: 0.0
		
Iteration: 5
Labeled set size: 311
Unlabelled set size: 844
	
Mean region size: 14.285714285714091
Incorrectly Classified Instances: 10.562770562770563
Correctly Classified Instances: 89.43722943722943
Weighted Precision: 0.8967849997719787
Weighted AreaUnderROC: 0.9391884210066029
Root mean squared error: 0.17197028452677082
Relative absolute error: 14.239089255737037
Root relative squared error: 49.144602268046704
Weighted TruePositiveRate: 0.8943722943722944
Weighted MatthewsCorrelation: 0.8777735452125284
Weighted FMeasure: 0.8949845651403525
Iteration time: 69.0
Weighted AreaUnderPRC: 0.8285546449712156
Mean absolute error: 0.03487123899364187
Coverage of cases: 89.43722943722943
Instances selection time: 69.0
Test time: 93.0
Accumulative iteration time: 335.0
Weighted Recall: 0.8943722943722944
Weighted FalsePositiveRate: 0.017604617604617602
Kappa statistic: 0.8767676767676766
Training time: 0.0
		
Iteration: 6
Labeled set size: 331
Unlabelled set size: 824
	
Mean region size: 14.285714285714091
Incorrectly Classified Instances: 10.562770562770563
Correctly Classified Instances: 89.43722943722943
Weighted Precision: 0.8967849997719787
Weighted AreaUnderROC: 0.9391884210066029
Root mean squared error: 0.1720649286217353
Relative absolute error: 14.125715991877014
Root relative squared error: 49.171649071026934
Weighted TruePositiveRate: 0.8943722943722944
Weighted MatthewsCorrelation: 0.8777735452125284
Weighted FMeasure: 0.8949845651403525
Iteration time: 74.0
Weighted AreaUnderPRC: 0.8285546449712156
Mean absolute error: 0.034593590184188755
Coverage of cases: 89.43722943722943
Instances selection time: 74.0
Test time: 96.0
Accumulative iteration time: 409.0
Weighted Recall: 0.8943722943722944
Weighted FalsePositiveRate: 0.017604617604617602
Kappa statistic: 0.8767676767676766
Training time: 0.0
		
Iteration: 7
Labeled set size: 351
Unlabelled set size: 804
	
Mean region size: 14.285714285714091
Incorrectly Classified Instances: 10.562770562770563
Correctly Classified Instances: 89.43722943722943
Weighted Precision: 0.8967849997719787
Weighted AreaUnderROC: 0.9392408937863483
Root mean squared error: 0.17214986899976686
Relative absolute error: 14.024172988801313
Root relative squared error: 49.19592280591285
Weighted TruePositiveRate: 0.8943722943722944
Weighted MatthewsCorrelation: 0.8777735452125284
Weighted FMeasure: 0.8949845651403525
Iteration time: 71.0
Weighted AreaUnderPRC: 0.8285678474242314
Mean absolute error: 0.03434491344196255
Coverage of cases: 89.43722943722943
Instances selection time: 71.0
Test time: 99.0
Accumulative iteration time: 480.0
Weighted Recall: 0.8943722943722944
Weighted FalsePositiveRate: 0.017604617604617602
Kappa statistic: 0.8767676767676766
Training time: 0.0
		
Iteration: 8
Labeled set size: 371
Unlabelled set size: 784
	
Mean region size: 14.285714285714091
Incorrectly Classified Instances: 10.562770562770563
Correctly Classified Instances: 89.43722943722943
Weighted Precision: 0.8967849997719787
Weighted AreaUnderROC: 0.9398215925488653
Root mean squared error: 0.17222580586100508
Relative absolute error: 13.925433437375057
Root relative squared error: 49.21762357156144
Weighted TruePositiveRate: 0.8943722943722944
Weighted MatthewsCorrelation: 0.8777735452125284
Weighted FMeasure: 0.8949845651403525
Iteration time: 71.0
Weighted AreaUnderPRC: 0.8287154956919769
Mean absolute error: 0.03410310229561253
Coverage of cases: 89.43722943722943
Instances selection time: 71.0
Test time: 102.0
Accumulative iteration time: 551.0
Weighted Recall: 0.8943722943722944
Weighted FalsePositiveRate: 0.017604617604617602
Kappa statistic: 0.8767676767676766
Training time: 0.0
		
Iteration: 9
Labeled set size: 391
Unlabelled set size: 764
	
Mean region size: 14.285714285714091
Incorrectly Classified Instances: 10.562770562770563
Correctly Classified Instances: 89.43722943722943
Weighted Precision: 0.8967849997719787
Weighted AreaUnderROC: 0.9396615505706414
Root mean squared error: 0.17229580090328406
Relative absolute error: 13.847174961491396
Root relative squared error: 49.23762632100737
Weighted TruePositiveRate: 0.8943722943722944
Weighted MatthewsCorrelation: 0.8777735452125284
Weighted FMeasure: 0.8949845651403525
Iteration time: 72.0
Weighted AreaUnderPRC: 0.8286745260269757
Mean absolute error: 0.033911448885285196
Coverage of cases: 89.43722943722943
Instances selection time: 72.0
Test time: 103.0
Accumulative iteration time: 623.0
Weighted Recall: 0.8943722943722944
Weighted FalsePositiveRate: 0.017604617604617602
Kappa statistic: 0.8767676767676766
Training time: 0.0
		
Iteration: 10
Labeled set size: 411
Unlabelled set size: 744
	
Mean region size: 14.285714285714091
Incorrectly Classified Instances: 10.562770562770563
Correctly Classified Instances: 89.43722943722943
Weighted Precision: 0.8967849997719787
Weighted AreaUnderROC: 0.9396615505706414
Root mean squared error: 0.17235938174636292
Relative absolute error: 13.7742515976508
Root relative squared error: 49.25579606035261
Weighted TruePositiveRate: 0.8943722943722944
Weighted MatthewsCorrelation: 0.8777735452125284
Weighted FMeasure: 0.8949845651403525
Iteration time: 73.0
Weighted AreaUnderPRC: 0.8286745260269757
Mean absolute error: 0.03373286105547149
Coverage of cases: 89.43722943722943
Instances selection time: 73.0
Test time: 106.0
Accumulative iteration time: 696.0
Weighted Recall: 0.8943722943722944
Weighted FalsePositiveRate: 0.017604617604617602
Kappa statistic: 0.8767676767676766
Training time: 0.0
		
Iteration: 11
Labeled set size: 431
Unlabelled set size: 724
	
Mean region size: 14.285714285714091
Incorrectly Classified Instances: 10.562770562770563
Correctly Classified Instances: 89.43722943722943
Weighted Precision: 0.8967849997719787
Weighted AreaUnderROC: 0.9397682452227908
Root mean squared error: 0.1724174480914707
Relative absolute error: 13.706616002121716
Root relative squared error: 49.27238990063922
Weighted TruePositiveRate: 0.8943722943722944
Weighted MatthewsCorrelation: 0.8777735452125284
Weighted FMeasure: 0.8949845651403525
Iteration time: 72.0
Weighted AreaUnderPRC: 0.8287018149487587
Mean absolute error: 0.03356722286233904
Coverage of cases: 89.43722943722943
Instances selection time: 72.0
Test time: 109.0
Accumulative iteration time: 768.0
Weighted Recall: 0.8943722943722944
Weighted FalsePositiveRate: 0.017604617604617602
Kappa statistic: 0.8767676767676766
Training time: 0.0
		
Iteration: 12
Labeled set size: 451
Unlabelled set size: 704
	
Mean region size: 14.285714285714091
Incorrectly Classified Instances: 10.562770562770563
Correctly Classified Instances: 89.43722943722943
Weighted Precision: 0.8967849997719787
Weighted AreaUnderROC: 0.9398215925488653
Root mean squared error: 0.17247084616077465
Relative absolute error: 13.645543593660715
Root relative squared error: 49.28764966999441
Weighted TruePositiveRate: 0.8943722943722944
Weighted MatthewsCorrelation: 0.8777735452125284
Weighted FMeasure: 0.8949845651403525
Iteration time: 73.0
Weighted AreaUnderPRC: 0.8287154956919769
Mean absolute error: 0.03341765778039373
Coverage of cases: 89.43722943722943
Instances selection time: 73.0
Test time: 113.0
Accumulative iteration time: 841.0
Weighted Recall: 0.8943722943722944
Weighted FalsePositiveRate: 0.017604617604617602
Kappa statistic: 0.8767676767676766
Training time: 0.0
		
Iteration: 13
Labeled set size: 471
Unlabelled set size: 684
	
Mean region size: 14.285714285714091
Incorrectly Classified Instances: 10.562770562770563
Correctly Classified Instances: 89.43722943722943
Weighted Precision: 0.8967849997719787
Weighted AreaUnderROC: 0.9397148978967161
Root mean squared error: 0.17252021153137367
Relative absolute error: 13.591469763304277
Root relative squared error: 49.301756999703024
Weighted TruePositiveRate: 0.8943722943722944
Weighted MatthewsCorrelation: 0.8777735452125284
Weighted FMeasure: 0.8949845651403525
Iteration time: 74.0
Weighted AreaUnderPRC: 0.8286881584151602
Mean absolute error: 0.03328523207339837
Coverage of cases: 89.43722943722943
Instances selection time: 73.0
Test time: 114.0
Accumulative iteration time: 915.0
Weighted Recall: 0.8943722943722944
Weighted FalsePositiveRate: 0.017604617604617602
Kappa statistic: 0.8767676767676766
Training time: 1.0
		
Iteration: 14
Labeled set size: 491
Unlabelled set size: 664
	
Mean region size: 14.285714285714091
Incorrectly Classified Instances: 10.562770562770563
Correctly Classified Instances: 89.43722943722943
Weighted Precision: 0.8967849997719787
Weighted AreaUnderROC: 0.9397148978967161
Root mean squared error: 0.17256575292854293
Relative absolute error: 13.540531994489125
Root relative squared error: 49.31477153798081
Weighted TruePositiveRate: 0.8943722943722944
Weighted MatthewsCorrelation: 0.8777735452125284
Weighted FMeasure: 0.8949845651403525
Iteration time: 73.0
Weighted AreaUnderPRC: 0.8286881584151602
Mean absolute error: 0.033160486517116367
Coverage of cases: 89.43722943722943
Instances selection time: 73.0
Test time: 117.0
Accumulative iteration time: 988.0
Weighted Recall: 0.8943722943722944
Weighted FalsePositiveRate: 0.017604617604617602
Kappa statistic: 0.8767676767676766
Training time: 0.0
		
Iteration: 15
Labeled set size: 511
Unlabelled set size: 644
	
Mean region size: 14.285714285714091
Incorrectly Classified Instances: 10.38961038961039
Correctly Classified Instances: 89.6103896103896
Weighted Precision: 0.898737969584598
Weighted AreaUnderROC: 0.9407022607022607
Root mean squared error: 0.17118836855730463
Relative absolute error: 13.294237784033422
Root relative squared error: 48.921151167572035
Weighted TruePositiveRate: 0.8961038961038961
Weighted MatthewsCorrelation: 0.8798626558206956
Weighted FMeasure: 0.8966962544328138
Iteration time: 72.0
Weighted AreaUnderPRC: 0.8314674468719343
Mean absolute error: 0.032557317022122806
Coverage of cases: 89.6103896103896
Instances selection time: 72.0
Test time: 120.0
Accumulative iteration time: 1060.0
Weighted Recall: 0.8961038961038961
Weighted FalsePositiveRate: 0.017316017316017313
Kappa statistic: 0.8787878787878788
Training time: 0.0
		
Iteration: 16
Labeled set size: 531
Unlabelled set size: 624
	
Mean region size: 14.285714285714091
Incorrectly Classified Instances: 10.64935064935065
Correctly Classified Instances: 89.35064935064935
Weighted Precision: 0.8959066221211426
Weighted AreaUnderROC: 0.9393956884865976
Root mean squared error: 0.17335277226153464
Relative absolute error: 13.548036132096401
Root relative squared error: 49.53968104605992
Weighted TruePositiveRate: 0.8935064935064935
Weighted MatthewsCorrelation: 0.8766745588647148
Weighted FMeasure: 0.893836144649344
Iteration time: 73.0
Weighted AreaUnderPRC: 0.8273590237160876
Mean absolute error: 0.03317886399697092
Coverage of cases: 89.35064935064935
Instances selection time: 73.0
Test time: 122.0
Accumulative iteration time: 1133.0
Weighted Recall: 0.8935064935064935
Weighted FalsePositiveRate: 0.017748917748917747
Kappa statistic: 0.8757575757575756
Training time: 0.0
		
Iteration: 17
Labeled set size: 551
Unlabelled set size: 604
	
Mean region size: 14.285714285714091
Incorrectly Classified Instances: 10.562770562770563
Correctly Classified Instances: 89.43722943722943
Weighted Precision: 0.8959651453662536
Weighted AreaUnderROC: 0.940142551051642
Root mean squared error: 0.17268358886182683
Relative absolute error: 13.405851698220232
Root relative squared error: 49.34844596080366
Weighted TruePositiveRate: 0.8943722943722944
Weighted MatthewsCorrelation: 0.8772636182344521
Weighted FMeasure: 0.8941950827898095
Iteration time: 72.0
Weighted AreaUnderPRC: 0.8284924182263064
Mean absolute error: 0.03283065722013132
Coverage of cases: 89.43722943722943
Instances selection time: 72.0
Test time: 125.0
Accumulative iteration time: 1205.0
Weighted Recall: 0.8943722943722944
Weighted FalsePositiveRate: 0.017604617604617602
Kappa statistic: 0.8767676767676766
Training time: 0.0
		
Iteration: 18
Labeled set size: 571
Unlabelled set size: 584
	
Mean region size: 14.285714285714091
Incorrectly Classified Instances: 10.303030303030303
Correctly Classified Instances: 89.6969696969697
Weighted Precision: 0.8988043744540527
Weighted AreaUnderROC: 0.9416275307184396
Root mean squared error: 0.17058227073234386
Relative absolute error: 13.069026747823388
Root relative squared error: 48.74794428694616
Weighted TruePositiveRate: 0.896969696969697
Weighted MatthewsCorrelation: 0.8803756258918136
Weighted FMeasure: 0.896774739899931
Iteration time: 70.0
Weighted AreaUnderPRC: 0.8332801601272815
Mean absolute error: 0.032005779790588024
Coverage of cases: 89.6969696969697
Instances selection time: 70.0
Test time: 128.0
Accumulative iteration time: 1275.0
Weighted Recall: 0.896969696969697
Weighted FalsePositiveRate: 0.01717171717171717
Kappa statistic: 0.8797979797979798
Training time: 0.0
		
Iteration: 19
Labeled set size: 591
Unlabelled set size: 564
	
Mean region size: 14.285714285714091
Incorrectly Classified Instances: 10.64935064935065
Correctly Classified Instances: 89.35064935064935
Weighted Precision: 0.8952943223811937
Weighted AreaUnderROC: 0.9396755433119071
Root mean squared error: 0.1734559933669341
Relative absolute error: 13.433256508365158
Root relative squared error: 49.5691789339333
Weighted TruePositiveRate: 0.8935064935064935
Weighted MatthewsCorrelation: 0.8762697177135633
Weighted FMeasure: 0.8931216333000528
Iteration time: 69.0
Weighted AreaUnderPRC: 0.8283768006324856
Mean absolute error: 0.032897771040894405
Coverage of cases: 89.35064935064935
Instances selection time: 69.0
Test time: 130.0
Accumulative iteration time: 1344.0
Weighted Recall: 0.8935064935064935
Weighted FalsePositiveRate: 0.017748917748917754
Kappa statistic: 0.8757575757575756
Training time: 0.0
		
Iteration: 20
Labeled set size: 611
Unlabelled set size: 544
	
Mean region size: 14.285714285714091
Incorrectly Classified Instances: 10.735930735930737
Correctly Classified Instances: 89.26406926406926
Weighted Precision: 0.8948337305170424
Weighted AreaUnderROC: 0.9392784992784994
Root mean squared error: 0.17418961296568933
Relative absolute error: 13.499977750493281
Root relative squared error: 49.77882819686313
Weighted TruePositiveRate: 0.8926406926406927
Weighted MatthewsCorrelation: 0.8753304195136875
Weighted FMeasure: 0.8919635652249446
Iteration time: 180.0
Weighted AreaUnderPRC: 0.8267027695561852
Mean absolute error: 0.03306117000120817
Coverage of cases: 89.26406926406926
Instances selection time: 180.0
Test time: 183.0
Accumulative iteration time: 1524.0
Weighted Recall: 0.8926406926406927
Weighted FalsePositiveRate: 0.017893217893217895
Kappa statistic: 0.8747474747474748
Training time: 0.0
		
Iteration: 21
Labeled set size: 631
Unlabelled set size: 524
	
Mean region size: 14.285714285714091
Incorrectly Classified Instances: 10.043290043290042
Correctly Classified Instances: 89.95670995670996
Weighted Precision: 0.9026993148312101
Weighted AreaUnderROC: 0.9432139577594122
Root mean squared error: 0.1685072801119397
Relative absolute error: 12.670204569090574
Root relative squared error: 48.15496632549017
Weighted TruePositiveRate: 0.8995670995670996
Weighted MatthewsCorrelation: 0.8837745794333248
Weighted FMeasure: 0.8990155635664183
Iteration time: 67.0
Weighted AreaUnderPRC: 0.8362674189692623
Mean absolute error: 0.0310290724140995
Coverage of cases: 89.95670995670996
Instances selection time: 67.0
Test time: 136.0
Accumulative iteration time: 1591.0
Weighted Recall: 0.8995670995670996
Weighted FalsePositiveRate: 0.016738816738816737
Kappa statistic: 0.8828282828282827
Training time: 0.0
		
Iteration: 22
Labeled set size: 651
Unlabelled set size: 504
	
Mean region size: 14.285714285714091
Incorrectly Classified Instances: 9.264069264069263
Correctly Classified Instances: 90.73593073593074
Weighted Precision: 0.9114197611133272
Weighted AreaUnderROC: 0.9480388298570117
Root mean squared error: 0.16186623184473445
Relative absolute error: 11.738150157196484
Root relative squared error: 46.257128704108
Weighted TruePositiveRate: 0.9073593073593074
Weighted MatthewsCorrelation: 0.8930634277905284
Weighted FMeasure: 0.9064782643240102
Iteration time: 66.0
Weighted AreaUnderPRC: 0.8488891888798897
Mean absolute error: 0.028746490180889473
Coverage of cases: 90.73593073593074
Instances selection time: 66.0
Test time: 139.0
Accumulative iteration time: 1657.0
Weighted Recall: 0.9073593073593074
Weighted FalsePositiveRate: 0.015440115440115441
Kappa statistic: 0.8919191919191919
Training time: 0.0
		
Iteration: 23
Labeled set size: 671
Unlabelled set size: 484
	
Mean region size: 14.285714285714091
Incorrectly Classified Instances: 9.004329004329005
Correctly Classified Instances: 90.99567099567099
Weighted Precision: 0.9148591900944401
Weighted AreaUnderROC: 0.9493502120774847
Root mean squared error: 0.15960504804561632
Relative absolute error: 11.41214379030636
Root relative squared error: 45.610941609817814
Weighted TruePositiveRate: 0.90995670995671
Weighted MatthewsCorrelation: 0.8963485749771353
Weighted FMeasure: 0.908985501231175
Iteration time: 65.0
Weighted AreaUnderPRC: 0.8525508537788062
Mean absolute error: 0.027948107241566714
Coverage of cases: 90.99567099567099
Instances selection time: 65.0
Test time: 143.0
Accumulative iteration time: 1722.0
Weighted Recall: 0.90995670995671
Weighted FalsePositiveRate: 0.015007215007215005
Kappa statistic: 0.8949494949494948
Training time: 0.0
		
Iteration: 24
Labeled set size: 691
Unlabelled set size: 464
	
Mean region size: 14.285714285714091
Incorrectly Classified Instances: 8.484848484848484
Correctly Classified Instances: 91.51515151515152
Weighted Precision: 0.9209664007481664
Weighted AreaUnderROC: 0.9518811491538764
Root mean squared error: 0.15495978800517185
Relative absolute error: 10.785807518310795
Root relative squared error: 44.283447980627734
Weighted TruePositiveRate: 0.9151515151515152
Weighted MatthewsCorrelation: 0.9026062456901347
Weighted FMeasure: 0.9138223408341279
Iteration time: 64.0
Weighted AreaUnderPRC: 0.8598469468675033
Mean absolute error: 0.02641422249382247
Coverage of cases: 91.51515151515152
Instances selection time: 64.0
Test time: 144.0
Accumulative iteration time: 1786.0
Weighted Recall: 0.9151515151515152
Weighted FalsePositiveRate: 0.01414141414141414
Kappa statistic: 0.9010101010101009
Training time: 0.0
		
Iteration: 25
Labeled set size: 711
Unlabelled set size: 444
	
Mean region size: 14.285714285714091
Incorrectly Classified Instances: 8.398268398268398
Correctly Classified Instances: 91.6017316017316
Weighted Precision: 0.9224040847333119
Weighted AreaUnderROC: 0.9524356115265205
Root mean squared error: 0.15418705281343584
Relative absolute error: 10.660657462421709
Root relative squared error: 44.06262050592249
Weighted TruePositiveRate: 0.9160173160173161
Weighted MatthewsCorrelation: 0.903668192707442
Weighted FMeasure: 0.9142081019467189
Iteration time: 61.0
Weighted AreaUnderPRC: 0.8614600697019563
Mean absolute error: 0.026107732561032864
Coverage of cases: 91.6017316017316
Instances selection time: 61.0
Test time: 147.0
Accumulative iteration time: 1847.0
Weighted Recall: 0.9160173160173161
Weighted FalsePositiveRate: 0.013997113997113996
Kappa statistic: 0.9020202020202019
Training time: 0.0
		
Iteration: 26
Labeled set size: 731
Unlabelled set size: 424
	
Mean region size: 14.285714285714091
Incorrectly Classified Instances: 8.13852813852814
Correctly Classified Instances: 91.86147186147186
Weighted Precision: 0.9256299004251933
Weighted AreaUnderROC: 0.9541978223796405
Root mean squared error: 0.15180328441722016
Relative absolute error: 10.335077182692139
Root relative squared error: 43.3814019450907
Weighted TruePositiveRate: 0.9186147186147187
Weighted MatthewsCorrelation: 0.906860267347297
Weighted FMeasure: 0.9166445255961743
Iteration time: 59.0
Weighted AreaUnderPRC: 0.8664467668785205
Mean absolute error: 0.025310393100470653
Coverage of cases: 91.86147186147186
Instances selection time: 59.0
Test time: 151.0
Accumulative iteration time: 1906.0
Weighted Recall: 0.9186147186147187
Weighted FalsePositiveRate: 0.013564213564213565
Kappa statistic: 0.9050505050505051
Training time: 0.0
		
Iteration: 27
Labeled set size: 751
Unlabelled set size: 404
	
Mean region size: 14.285714285714091
Incorrectly Classified Instances: 8.13852813852814
Correctly Classified Instances: 91.86147186147186
Weighted Precision: 0.9256239792946521
Weighted AreaUnderROC: 0.9538418820237003
Root mean squared error: 0.15182417195384393
Relative absolute error: 10.311780516672638
Root relative squared error: 43.38737105587376
Weighted TruePositiveRate: 0.9186147186147187
Weighted MatthewsCorrelation: 0.9069123104033033
Weighted FMeasure: 0.9168186445743808
Iteration time: 58.0
Weighted AreaUnderPRC: 0.8662632503455805
Mean absolute error: 0.02525334004083106
Coverage of cases: 91.86147186147186
Instances selection time: 58.0
Test time: 153.0
Accumulative iteration time: 1964.0
Weighted Recall: 0.9186147186147187
Weighted FalsePositiveRate: 0.013564213564213565
Kappa statistic: 0.9050505050505051
Training time: 0.0
		
Iteration: 28
Labeled set size: 771
Unlabelled set size: 384
	
Mean region size: 14.285714285714091
Incorrectly Classified Instances: 6.4935064935064934
Correctly Classified Instances: 93.50649350649351
Weighted Precision: 0.9387210452006766
Weighted AreaUnderROC: 0.9630040666404303
Root mean squared error: 0.1356382532331279
Relative absolute error: 8.387692723477658
Root relative squared error: 38.76185950275022
Weighted TruePositiveRate: 0.935064935064935
Weighted MatthewsCorrelation: 0.9253904354048903
Weighted FMeasure: 0.9346849236529602
Iteration time: 55.0
Weighted AreaUnderPRC: 0.8904413411422321
Mean absolute error: 0.020541288302394354
Coverage of cases: 93.50649350649351
Instances selection time: 55.0
Test time: 156.0
Accumulative iteration time: 2019.0
Weighted Recall: 0.935064935064935
Weighted FalsePositiveRate: 0.010822510822510822
Kappa statistic: 0.9242424242424241
Training time: 0.0
		
Iteration: 29
Labeled set size: 791
Unlabelled set size: 364
	
Mean region size: 14.285714285714091
Incorrectly Classified Instances: 6.147186147186147
Correctly Classified Instances: 93.85281385281385
Weighted Precision: 0.9412578798838215
Weighted AreaUnderROC: 0.9649665486029122
Root mean squared error: 0.13198701104291718
Relative absolute error: 7.966088964234002
Root relative squared error: 37.71843013519408
Weighted TruePositiveRate: 0.9385281385281385
Weighted MatthewsCorrelation: 0.9291747773671195
Weighted FMeasure: 0.9383876599969684
Iteration time: 53.0
Weighted AreaUnderPRC: 0.8956642224642914
Mean absolute error: 0.019508789300164985
Coverage of cases: 93.85281385281385
Instances selection time: 53.0
Test time: 158.0
Accumulative iteration time: 2072.0
Weighted Recall: 0.9385281385281385
Weighted FalsePositiveRate: 0.010245310245310247
Kappa statistic: 0.9282828282828283
Training time: 0.0
		
Iteration: 30
Labeled set size: 811
Unlabelled set size: 344
	
Mean region size: 14.285714285714091
Incorrectly Classified Instances: 6.147186147186147
Correctly Classified Instances: 93.85281385281385
Weighted Precision: 0.9410925377906809
Weighted AreaUnderROC: 0.9635633390178844
Root mean squared error: 0.13201128387975192
Relative absolute error: 7.946111269313483
Root relative squared error: 37.72536667609383
Weighted TruePositiveRate: 0.9385281385281385
Weighted MatthewsCorrelation: 0.9291533614519558
Weighted FMeasure: 0.9385203630631453
Iteration time: 51.0
Weighted AreaUnderPRC: 0.8942310156209112
Mean absolute error: 0.019459864333012694
Coverage of cases: 93.85281385281385
Instances selection time: 51.0
Test time: 160.0
Accumulative iteration time: 2123.0
Weighted Recall: 0.9385281385281385
Weighted FalsePositiveRate: 0.010245310245310247
Kappa statistic: 0.9282828282828283
Training time: 0.0
		
Iteration: 31
Labeled set size: 831
Unlabelled set size: 324
	
Mean region size: 14.285714285714091
Incorrectly Classified Instances: 6.233766233766234
Correctly Classified Instances: 93.76623376623377
Weighted Precision: 0.9401437870753766
Weighted AreaUnderROC: 0.9630827758100486
Root mean squared error: 0.13294863567438808
Relative absolute error: 8.02779363393292
Root relative squared error: 37.99323726350024
Weighted TruePositiveRate: 0.9376623376623376
Weighted MatthewsCorrelation: 0.9281222718930353
Weighted FMeasure: 0.9376838401693466
Iteration time: 49.0
Weighted AreaUnderPRC: 0.8928937766620022
Mean absolute error: 0.019659902776978662
Coverage of cases: 93.76623376623377
Instances selection time: 49.0
Test time: 163.0
Accumulative iteration time: 2172.0
Weighted Recall: 0.9376623376623376
Weighted FalsePositiveRate: 0.01038961038961039
Kappa statistic: 0.9272727272727272
Training time: 0.0
		
Iteration: 32
Labeled set size: 851
Unlabelled set size: 304
	
Mean region size: 14.285714285714091
Incorrectly Classified Instances: 5.887445887445887
Correctly Classified Instances: 94.11255411255411
Weighted Precision: 0.9438208269977484
Weighted AreaUnderROC: 0.9644986663168482
Root mean squared error: 0.12922035790008135
Relative absolute error: 7.609857462509013
Root relative squared error: 36.92779314408564
Weighted TruePositiveRate: 0.9411255411255411
Weighted MatthewsCorrelation: 0.9322948442157484
Weighted FMeasure: 0.9413575275287452
Iteration time: 46.0
Weighted AreaUnderPRC: 0.8982898726845281
Mean absolute error: 0.018636385622471132
Coverage of cases: 94.11255411255411
Instances selection time: 46.0
Test time: 166.0
Accumulative iteration time: 2218.0
Weighted Recall: 0.9411255411255411
Weighted FalsePositiveRate: 0.009812409812409812
Kappa statistic: 0.9313131313131312
Training time: 0.0
		
Iteration: 33
Labeled set size: 871
Unlabelled set size: 284
	
Mean region size: 14.285714285714091
Incorrectly Classified Instances: 6.32034632034632
Correctly Classified Instances: 93.67965367965368
Weighted Precision: 0.9408502147991926
Weighted AreaUnderROC: 0.9630477939568849
Root mean squared error: 0.13388644613070508
Relative absolute error: 8.093881913200814
Root relative squared error: 38.26123892439962
Weighted TruePositiveRate: 0.9367965367965368
Weighted MatthewsCorrelation: 0.9278509053516736
Weighted FMeasure: 0.9375245295764169
Iteration time: 44.0
Weighted AreaUnderPRC: 0.8939079406872166
Mean absolute error: 0.019821751624165343
Coverage of cases: 93.67965367965368
Instances selection time: 44.0
Test time: 169.0
Accumulative iteration time: 2262.0
Weighted Recall: 0.9367965367965368
Weighted FalsePositiveRate: 0.010533910533910533
Kappa statistic: 0.9262626262626262
Training time: 0.0
		
Iteration: 34
Labeled set size: 891
Unlabelled set size: 264
	
Mean region size: 14.285714285714091
Incorrectly Classified Instances: 4.415584415584416
Correctly Classified Instances: 95.58441558441558
Weighted Precision: 0.9562513816952308
Weighted AreaUnderROC: 0.9740342822161004
Root mean squared error: 0.11192700700071298
Relative absolute error: 5.872549520019077
Root relative squared error: 31.98580648534446
Weighted TruePositiveRate: 0.9558441558441558
Weighted MatthewsCorrelation: 0.9486612922828972
Weighted FMeasure: 0.9559727425309276
Iteration time: 42.0
Weighted AreaUnderPRC: 0.9232309675177015
Mean absolute error: 0.014381753926577392
Coverage of cases: 95.58441558441558
Instances selection time: 41.0
Test time: 171.0
Accumulative iteration time: 2304.0
Weighted Recall: 0.9558441558441558
Weighted FalsePositiveRate: 0.00735930735930736
Kappa statistic: 0.9484848484848484
Training time: 1.0
		
Iteration: 35
Labeled set size: 911
Unlabelled set size: 244
	
Mean region size: 14.285714285714091
Incorrectly Classified Instances: 4.415584415584416
Correctly Classified Instances: 95.58441558441558
Weighted Precision: 0.9560148784594606
Weighted AreaUnderROC: 0.9739774367047095
Root mean squared error: 0.11193496099338662
Relative absolute error: 5.857496840783515
Root relative squared error: 31.98807952808243
Weighted TruePositiveRate: 0.9558441558441558
Weighted MatthewsCorrelation: 0.9485420741473714
Weighted FMeasure: 0.9558398583209874
Iteration time: 39.0
Weighted AreaUnderPRC: 0.9229987622949599
Mean absolute error: 0.014344890222327038
Coverage of cases: 95.58441558441558
Instances selection time: 39.0
Test time: 173.0
Accumulative iteration time: 2343.0
Weighted Recall: 0.9558441558441558
Weighted FalsePositiveRate: 0.007359307359307361
Kappa statistic: 0.9484848484848484
Training time: 0.0
		
Iteration: 36
Labeled set size: 931
Unlabelled set size: 224
	
Mean region size: 14.285714285714091
Incorrectly Classified Instances: 4.242424242424242
Correctly Classified Instances: 95.75757575757575
Weighted Precision: 0.9579486437075335
Weighted AreaUnderROC: 0.9749429358520267
Root mean squared error: 0.10972732596008308
Relative absolute error: 5.641929948487057
Root relative squared error: 31.357195268262416
Weighted TruePositiveRate: 0.9575757575757575
Weighted MatthewsCorrelation: 0.950661854276787
Weighted FMeasure: 0.9576771173693476
Iteration time: 36.0
Weighted AreaUnderPRC: 0.9261155658095126
Mean absolute error: 0.013816971302417342
Coverage of cases: 95.75757575757575
Instances selection time: 36.0
Test time: 175.0
Accumulative iteration time: 2379.0
Weighted Recall: 0.9575757575757575
Weighted FalsePositiveRate: 0.00707070707070707
Kappa statistic: 0.9505050505050504
Training time: 0.0
		
Iteration: 37
Labeled set size: 951
Unlabelled set size: 204
	
Mean region size: 14.285714285714091
Incorrectly Classified Instances: 4.5021645021645025
Correctly Classified Instances: 95.4978354978355
Weighted Precision: 0.955169978580949
Weighted AreaUnderROC: 0.9735130526039618
Root mean squared error: 0.11304129253993671
Relative absolute error: 5.927973738219958
Root relative squared error: 32.30424010187814
Weighted TruePositiveRate: 0.9549783549783549
Weighted MatthewsCorrelation: 0.9475299875577731
Weighted FMeasure: 0.9549431052081334
Iteration time: 33.0
Weighted AreaUnderPRC: 0.9214099924712618
Mean absolute error: 0.014517486705844858
Coverage of cases: 95.4978354978355
Instances selection time: 33.0
Test time: 178.0
Accumulative iteration time: 2412.0
Weighted Recall: 0.9549783549783549
Weighted FalsePositiveRate: 0.0075036075036075045
Kappa statistic: 0.9474747474747472
Training time: 0.0
		
Iteration: 38
Labeled set size: 971
Unlabelled set size: 184
	
Mean region size: 14.285714285714091
Incorrectly Classified Instances: 4.5021645021645025
Correctly Classified Instances: 95.4978354978355
Weighted Precision: 0.955169978580949
Weighted AreaUnderROC: 0.9736092527001619
Root mean squared error: 0.11304835130756889
Relative absolute error: 5.912924701874154
Root relative squared error: 32.30625731275118
Weighted TruePositiveRate: 0.9549783549783549
Weighted MatthewsCorrelation: 0.9475299875577731
Weighted FMeasure: 0.9549431052081334
Iteration time: 30.0
Weighted AreaUnderPRC: 0.921534933359498
Mean absolute error: 0.014480631922957173
Coverage of cases: 95.4978354978355
Instances selection time: 30.0
Test time: 180.0
Accumulative iteration time: 2442.0
Weighted Recall: 0.9549783549783549
Weighted FalsePositiveRate: 0.0075036075036075045
Kappa statistic: 0.9474747474747472
Training time: 0.0
		
Iteration: 39
Labeled set size: 991
Unlabelled set size: 164
	
Mean region size: 14.285714285714091
Incorrectly Classified Instances: 4.5021645021645025
Correctly Classified Instances: 95.4978354978355
Weighted Precision: 0.9550179316106879
Weighted AreaUnderROC: 0.9735808299444663
Root mean squared error: 0.1130552377360426
Relative absolute error: 5.899991551883494
Root relative squared error: 32.30822527360744
Weighted TruePositiveRate: 0.9549783549783549
Weighted MatthewsCorrelation: 0.9474522365662755
Weighted FMeasure: 0.954853921108691
Iteration time: 27.0
Weighted AreaUnderPRC: 0.9213724168553303
Mean absolute error: 0.014448958902571881
Coverage of cases: 95.4978354978355
Instances selection time: 27.0
Test time: 183.0
Accumulative iteration time: 2469.0
Weighted Recall: 0.9549783549783549
Weighted FalsePositiveRate: 0.007503607503607503
Kappa statistic: 0.9474747474747472
Training time: 0.0
		
Iteration: 40
Labeled set size: 1011
Unlabelled set size: 144
	
Mean region size: 14.285714285714091
Incorrectly Classified Instances: 4.5021645021645025
Correctly Classified Instances: 95.4978354978355
Weighted Precision: 0.9550179316106879
Weighted AreaUnderROC: 0.9737054527963619
Root mean squared error: 0.11306177312170058
Relative absolute error: 5.885786799275007
Root relative squared error: 32.310092915623116
Weighted TruePositiveRate: 0.9549783549783549
Weighted MatthewsCorrelation: 0.9474522365662755
Weighted FMeasure: 0.954853921108691
Iteration time: 24.0
Weighted AreaUnderPRC: 0.9215533045759682
Mean absolute error: 0.014414171753326608
Coverage of cases: 95.4978354978355
Instances selection time: 24.0
Test time: 186.0
Accumulative iteration time: 2493.0
Weighted Recall: 0.9549783549783549
Weighted FalsePositiveRate: 0.007503607503607503
Kappa statistic: 0.9474747474747472
Training time: 0.0
		
Iteration: 41
Labeled set size: 1031
Unlabelled set size: 124
	
Mean region size: 14.285714285714091
Incorrectly Classified Instances: 4.5021645021645025
Correctly Classified Instances: 95.4978354978355
Weighted Precision: 0.9550179316106879
Weighted AreaUnderROC: 0.9737054527963619
Root mean squared error: 0.11306815781658144
Relative absolute error: 5.873584030536324
Root relative squared error: 32.31191749416229
Weighted TruePositiveRate: 0.9549783549783549
Weighted MatthewsCorrelation: 0.9474522365662755
Weighted FMeasure: 0.954853921108691
Iteration time: 21.0
Weighted AreaUnderPRC: 0.9215533045759682
Mean absolute error: 0.01438428742172167
Coverage of cases: 95.4978354978355
Instances selection time: 21.0
Test time: 192.0
Accumulative iteration time: 2514.0
Weighted Recall: 0.9549783549783549
Weighted FalsePositiveRate: 0.007503607503607503
Kappa statistic: 0.9474747474747472
Training time: 0.0
		
Iteration: 42
Labeled set size: 1051
Unlabelled set size: 104
	
Mean region size: 14.285714285714091
Incorrectly Classified Instances: 4.5021645021645025
Correctly Classified Instances: 95.4978354978355
Weighted Precision: 0.9550179316106879
Weighted AreaUnderROC: 0.9737054527963619
Root mean squared error: 0.11307431794858372
Relative absolute error: 5.861842658678676
Root relative squared error: 32.31367789851355
Weighted TruePositiveRate: 0.9549783549783549
Weighted MatthewsCorrelation: 0.9474522365662755
Weighted FMeasure: 0.954853921108691
Iteration time: 18.0
Weighted AreaUnderPRC: 0.9215533045759682
Mean absolute error: 0.014355533041662125
Coverage of cases: 95.4978354978355
Instances selection time: 18.0
Test time: 190.0
Accumulative iteration time: 2532.0
Weighted Recall: 0.9549783549783549
Weighted FalsePositiveRate: 0.007503607503607503
Kappa statistic: 0.9474747474747472
Training time: 0.0
		
Iteration: 43
Labeled set size: 1071
Unlabelled set size: 84
	
Mean region size: 14.285714285714091
Incorrectly Classified Instances: 4.588744588744588
Correctly Classified Instances: 95.41125541125541
Weighted Precision: 0.9541432213366593
Weighted AreaUnderROC: 0.9732253268616904
Root mean squared error: 0.11416177871901252
Relative absolute error: 5.950891191806682
Root relative squared error: 32.624445698845406
Weighted TruePositiveRate: 0.9541125541125541
Weighted MatthewsCorrelation: 0.9464301855169618
Weighted FMeasure: 0.9539577519009855
Iteration time: 14.0
Weighted AreaUnderPRC: 0.9199889924812507
Mean absolute error: 0.01457361108197561
Coverage of cases: 95.41125541125541
Instances selection time: 14.0
Test time: 194.0
Accumulative iteration time: 2546.0
Weighted Recall: 0.9541125541125541
Weighted FalsePositiveRate: 0.007647907647907647
Kappa statistic: 0.9464646464646465
Training time: 0.0
		
Iteration: 44
Labeled set size: 1091
Unlabelled set size: 64
	
Mean region size: 14.285714285714091
Incorrectly Classified Instances: 4.588744588744588
Correctly Classified Instances: 95.41125541125541
Weighted Precision: 0.9541432213366593
Weighted AreaUnderROC: 0.9732498141589051
Root mean squared error: 0.11416758327407273
Relative absolute error: 5.939734281692536
Root relative squared error: 32.62610448862157
Weighted TruePositiveRate: 0.9541125541125541
Weighted MatthewsCorrelation: 0.9464301855169618
Weighted FMeasure: 0.9539577519009855
Iteration time: 11.0
Weighted AreaUnderPRC: 0.9200103391005566
Mean absolute error: 0.014546288036798109
Coverage of cases: 95.41125541125541
Instances selection time: 11.0
Test time: 195.0
Accumulative iteration time: 2557.0
Weighted Recall: 0.9541125541125541
Weighted FalsePositiveRate: 0.007647907647907647
Kappa statistic: 0.9464646464646465
Training time: 0.0
		
Iteration: 45
Labeled set size: 1111
Unlabelled set size: 44
	
Mean region size: 14.285714285714091
Incorrectly Classified Instances: 4.588744588744588
Correctly Classified Instances: 95.41125541125541
Weighted Precision: 0.9540737852782122
Weighted AreaUnderROC: 0.9733696270059906
Root mean squared error: 0.11417313947115879
Relative absolute error: 5.927895767640479
Root relative squared error: 32.62769230419487
Weighted TruePositiveRate: 0.9541125541125541
Weighted MatthewsCorrelation: 0.9463968225746777
Weighted FMeasure: 0.9539245790373543
Iteration time: 8.0
Weighted AreaUnderPRC: 0.9199727810185071
Mean absolute error: 0.014517295757486948
Coverage of cases: 95.41125541125541
Instances selection time: 8.0
Test time: 197.0
Accumulative iteration time: 2565.0
Weighted Recall: 0.9541125541125541
Weighted FalsePositiveRate: 0.007647907647907647
Kappa statistic: 0.9464646464646465
Training time: 0.0
		
Iteration: 46
Labeled set size: 1131
Unlabelled set size: 24
	
Mean region size: 14.285714285714091
Incorrectly Classified Instances: 4.588744588744588
Correctly Classified Instances: 95.41125541125541
Weighted Precision: 0.9540737852782122
Weighted AreaUnderROC: 0.9733945515763697
Root mean squared error: 0.11417856768987347
Relative absolute error: 5.917535103204928
Root relative squared error: 32.629243546902245
Weighted TruePositiveRate: 0.9541125541125541
Weighted MatthewsCorrelation: 0.9463968225746777
Weighted FMeasure: 0.9539245790373543
Iteration time: 5.0
Weighted AreaUnderPRC: 0.9199992240184383
Mean absolute error: 0.014491922701726417
Coverage of cases: 95.41125541125541
Instances selection time: 5.0
Test time: 199.0
Accumulative iteration time: 2570.0
Weighted Recall: 0.9541125541125541
Weighted FalsePositiveRate: 0.007647907647907647
Kappa statistic: 0.9464646464646465
Training time: 0.0
		
Time end:Wed Nov 01 07.55.16 EET 2017