Wed Nov 01 07.40.09 EET 2017
Dataset: segment
Test set size: 1155
Initial Labelled set size: 231
Initial Unlabelled set size: 924
Batch mode: QBestBatchMode
Batch size: 20
Classifiers: IBk-1cores
Scenario: PoolBasedSamplingScenario
Query strategy: KullbackLeiblerDivergenceQueryStrategy-1cores
Time begining: Wed Nov 01 07.40.09 EET 2017
		
Iteration: 1
Labeled set size: 231
Unlabelled set size: 924
	
Mean region size: 14.285714285714091
Incorrectly Classified Instances: 7.792207792207792
Correctly Classified Instances: 92.20779220779221
Weighted Precision: 0.9210619173699287
Weighted AreaUnderROC: 0.9545454545454546
Root mean squared error: 0.1473586379558822
Relative absolute error: 11.764705882353182
Root relative squared error: 42.111238421400465
Weighted TruePositiveRate: 0.922077922077922
Weighted MatthewsCorrelation: 0.9083010226590639
Weighted FMeasure: 0.920560900065287
Iteration time: 110.0
Weighted AreaUnderPRC: 0.8654841354586328
Mean absolute error: 0.02881152460984465
Coverage of cases: 92.20779220779221
Instances selection time: 110.0
Test time: 71.0
Accumulative iteration time: 110.0
Weighted Recall: 0.922077922077922
Weighted FalsePositiveRate: 0.012987012987012988
Kappa statistic: 0.9090909090909091
Training time: 0.0
		
Iteration: 2
Labeled set size: 251
Unlabelled set size: 904
	
Mean region size: 14.285714285714091
Incorrectly Classified Instances: 7.2727272727272725
Correctly Classified Instances: 92.72727272727273
Weighted Precision: 0.9266900018268364
Weighted AreaUnderROC: 0.9575757575757575
Root mean squared error: 0.1424976571211987
Relative absolute error: 10.967817712003612
Root relative squared error: 40.72209744038447
Weighted TruePositiveRate: 0.9272727272727272
Weighted MatthewsCorrelation: 0.9147586282809184
Weighted FMeasure: 0.9265995243608857
Iteration time: 113.0
Weighted AreaUnderPRC: 0.8742806423342878
Mean absolute error: 0.026859961743682426
Coverage of cases: 92.72727272727273
Instances selection time: 112.0
Test time: 74.0
Accumulative iteration time: 223.0
Weighted Recall: 0.9272727272727272
Weighted FalsePositiveRate: 0.01212121212121212
Kappa statistic: 0.9151515151515152
Training time: 1.0
		
Iteration: 3
Labeled set size: 271
Unlabelled set size: 884
	
Mean region size: 14.285714285714091
Incorrectly Classified Instances: 7.878787878787879
Correctly Classified Instances: 92.12121212121212
Weighted Precision: 0.9213802033367189
Weighted AreaUnderROC: 0.9540404040404039
Root mean squared error: 0.14839689677384604
Relative absolute error: 11.478453600755662
Root relative squared error: 42.40794559264541
Weighted TruePositiveRate: 0.9212121212121213
Weighted MatthewsCorrelation: 0.9080576395732215
Weighted FMeasure: 0.9209356905148515
Iteration time: 117.0
Weighted AreaUnderPRC: 0.865741420972092
Mean absolute error: 0.02811049861409562
Coverage of cases: 92.12121212121212
Instances selection time: 116.0
Test time: 76.0
Accumulative iteration time: 340.0
Weighted Recall: 0.9212121212121213
Weighted FalsePositiveRate: 0.013131313131313131
Kappa statistic: 0.908080808080808
Training time: 1.0
		
Iteration: 4
Labeled set size: 291
Unlabelled set size: 864
	
Mean region size: 14.285714285714091
Incorrectly Classified Instances: 7.965367965367966
Correctly Classified Instances: 92.03463203463204
Weighted Precision: 0.9230853397037125
Weighted AreaUnderROC: 0.9535856399492765
Root mean squared error: 0.14930213238075404
Relative absolute error: 11.422627501067685
Root relative squared error: 42.666638214936455
Weighted TruePositiveRate: 0.9203463203463204
Weighted MatthewsCorrelation: 0.9080390045857991
Weighted FMeasure: 0.9204367914541395
Iteration time: 120.0
Weighted AreaUnderPRC: 0.8659807497362689
Mean absolute error: 0.027973781635267925
Coverage of cases: 92.03463203463204
Instances selection time: 119.0
Test time: 79.0
Accumulative iteration time: 460.0
Weighted Recall: 0.9203463203463204
Weighted FalsePositiveRate: 0.013275613275613274
Kappa statistic: 0.9070707070707069
Training time: 1.0
		
Iteration: 5
Labeled set size: 311
Unlabelled set size: 844
	
Mean region size: 14.285714285714091
Incorrectly Classified Instances: 7.965367965367966
Correctly Classified Instances: 92.03463203463204
Weighted Precision: 0.9243102008936502
Weighted AreaUnderROC: 0.9532764878219423
Root mean squared error: 0.14939565551200099
Relative absolute error: 11.286013589010313
Root relative squared error: 42.693364675851726
Weighted TruePositiveRate: 0.9203463203463204
Weighted MatthewsCorrelation: 0.9085240218696511
Weighted FMeasure: 0.9206433697753453
Iteration time: 121.0
Weighted AreaUnderPRC: 0.8668737956332954
Mean absolute error: 0.027639216952678434
Coverage of cases: 92.03463203463204
Instances selection time: 121.0
Test time: 83.0
Accumulative iteration time: 581.0
Weighted Recall: 0.9203463203463204
Weighted FalsePositiveRate: 0.013275613275613276
Kappa statistic: 0.9070707070707069
Training time: 0.0
		
Iteration: 6
Labeled set size: 331
Unlabelled set size: 824
	
Mean region size: 14.285714285714091
Incorrectly Classified Instances: 7.965367965367966
Correctly Classified Instances: 92.03463203463204
Weighted Precision: 0.9263656102699565
Weighted AreaUnderROC: 0.9524010669465217
Root mean squared error: 0.1494882039165527
Relative absolute error: 11.167485881180086
Root relative squared error: 42.71981258541211
Weighted TruePositiveRate: 0.9203463203463204
Weighted MatthewsCorrelation: 0.9093517181219501
Weighted FMeasure: 0.9210426342257326
Iteration time: 124.0
Weighted AreaUnderPRC: 0.8674744621149467
Mean absolute error: 0.027348945015135025
Coverage of cases: 92.03463203463204
Instances selection time: 123.0
Test time: 86.0
Accumulative iteration time: 705.0
Weighted Recall: 0.9203463203463204
Weighted FalsePositiveRate: 0.013275613275613276
Kappa statistic: 0.9070707070707069
Training time: 1.0
		
Iteration: 7
Labeled set size: 351
Unlabelled set size: 804
	
Mean region size: 14.285714285714091
Incorrectly Classified Instances: 7.965367965367966
Correctly Classified Instances: 92.03463203463204
Weighted Precision: 0.9288152695515309
Weighted AreaUnderROC: 0.9523520923520924
Root mean squared error: 0.14955597238366317
Relative absolute error: 11.06359789716629
Root relative squared error: 42.73917903800375
Weighted TruePositiveRate: 0.9203463203463204
Weighted MatthewsCorrelation: 0.910245802545058
Weighted FMeasure: 0.9211601084304565
Iteration time: 125.0
Weighted AreaUnderPRC: 0.8685238365640672
Mean absolute error: 0.02709452546244817
Coverage of cases: 92.03463203463204
Instances selection time: 125.0
Test time: 89.0
Accumulative iteration time: 830.0
Weighted Recall: 0.9203463203463204
Weighted FalsePositiveRate: 0.013275613275613274
Kappa statistic: 0.9070707070707069
Training time: 0.0
		
Iteration: 8
Labeled set size: 371
Unlabelled set size: 784
	
Mean region size: 14.285714285714091
Incorrectly Classified Instances: 8.658008658008658
Correctly Classified Instances: 91.34199134199135
Weighted Precision: 0.9254448637782747
Weighted AreaUnderROC: 0.947870042415497
Root mean squared error: 0.15598052287654357
Relative absolute error: 11.763158959420569
Root relative squared error: 44.575147267005775
Weighted TruePositiveRate: 0.9134199134199135
Weighted MatthewsCorrelation: 0.9034929636483799
Weighted FMeasure: 0.9145126536016662
Iteration time: 127.0
Weighted AreaUnderPRC: 0.8598084754675043
Mean absolute error: 0.028807736227152537
Coverage of cases: 91.34199134199135
Instances selection time: 127.0
Test time: 91.0
Accumulative iteration time: 957.0
Weighted Recall: 0.9134199134199135
Weighted FalsePositiveRate: 0.014430014430014432
Kappa statistic: 0.898989898989899
Training time: 0.0
		
Iteration: 9
Labeled set size: 391
Unlabelled set size: 764
	
Mean region size: 14.285714285714091
Incorrectly Classified Instances: 8.744588744588745
Correctly Classified Instances: 91.25541125541126
Weighted Precision: 0.9245231333347966
Weighted AreaUnderROC: 0.9474117801390528
Root mean squared error: 0.15681643663585795
Relative absolute error: 11.778111602423344
Root relative squared error: 44.8140295212565
Weighted TruePositiveRate: 0.9125541125541126
Weighted MatthewsCorrelation: 0.9024317685759334
Weighted FMeasure: 0.9135426236432362
Iteration time: 130.0
Weighted AreaUnderPRC: 0.8582557276244559
Mean absolute error: 0.028844354944710354
Coverage of cases: 91.25541125541126
Instances selection time: 130.0
Test time: 94.0
Accumulative iteration time: 1087.0
Weighted Recall: 0.9125541125541126
Weighted FalsePositiveRate: 0.014574314574314576
Kappa statistic: 0.897979797979798
Training time: 0.0
		
Iteration: 10
Labeled set size: 411
Unlabelled set size: 744
	
Mean region size: 14.285714285714091
Incorrectly Classified Instances: 8.744588744588745
Correctly Classified Instances: 91.25541125541126
Weighted Precision: 0.9245231333347966
Weighted AreaUnderROC: 0.9474117801390528
Root mean squared error: 0.15687094514757918
Relative absolute error: 11.702699185831543
Root relative squared error: 44.829606625964644
Weighted TruePositiveRate: 0.9125541125541126
Weighted MatthewsCorrelation: 0.9024317685759334
Weighted FMeasure: 0.9135426236432362
Iteration time: 131.0
Weighted AreaUnderPRC: 0.8582557276244559
Mean absolute error: 0.028659671475505945
Coverage of cases: 91.25541125541126
Instances selection time: 130.0
Test time: 97.0
Accumulative iteration time: 1218.0
Weighted Recall: 0.9125541125541126
Weighted FalsePositiveRate: 0.014574314574314576
Kappa statistic: 0.897979797979798
Training time: 1.0
		
Iteration: 11
Labeled set size: 431
Unlabelled set size: 724
	
Mean region size: 14.285714285714091
Incorrectly Classified Instances: 8.744588744588745
Correctly Classified Instances: 91.25541125541126
Weighted Precision: 0.9245231333347966
Weighted AreaUnderROC: 0.9475866894048711
Root mean squared error: 0.15692067731095952
Relative absolute error: 11.63142875810555
Root relative squared error: 44.843818775441406
Weighted TruePositiveRate: 0.9125541125541126
Weighted MatthewsCorrelation: 0.9024317685759334
Weighted FMeasure: 0.9135426236432362
Iteration time: 134.0
Weighted AreaUnderPRC: 0.8583591799227678
Mean absolute error: 0.028485131652503506
Coverage of cases: 91.25541125541126
Instances selection time: 133.0
Test time: 100.0
Accumulative iteration time: 1352.0
Weighted Recall: 0.9125541125541126
Weighted FalsePositiveRate: 0.014574314574314576
Kappa statistic: 0.897979797979798
Training time: 1.0
		
Iteration: 12
Labeled set size: 451
Unlabelled set size: 704
	
Mean region size: 14.285714285714091
Incorrectly Classified Instances: 8.744588744588745
Correctly Classified Instances: 91.25541125541126
Weighted Precision: 0.9246577746577748
Weighted AreaUnderROC: 0.9475875639512004
Root mean squared error: 0.15696670413996358
Relative absolute error: 11.5690072161026
Root relative squared error: 44.856972037420874
Weighted TruePositiveRate: 0.9125541125541126
Weighted MatthewsCorrelation: 0.9024650973225308
Weighted FMeasure: 0.9135095449867108
Iteration time: 134.0
Weighted AreaUnderPRC: 0.8582776217015698
Mean absolute error: 0.028332262570047305
Coverage of cases: 91.25541125541126
Instances selection time: 134.0
Test time: 103.0
Accumulative iteration time: 1486.0
Weighted Recall: 0.9125541125541126
Weighted FalsePositiveRate: 0.014574314574314576
Kappa statistic: 0.897979797979798
Training time: 0.0
		
Iteration: 13
Labeled set size: 471
Unlabelled set size: 684
	
Mean region size: 14.285714285714091
Incorrectly Classified Instances: 8.571428571428571
Correctly Classified Instances: 91.42857142857143
Weighted Precision: 0.9248320369350715
Weighted AreaUnderROC: 0.9496305041759587
Root mean squared error: 0.15543742818036607
Relative absolute error: 11.311279328416846
Root relative squared error: 44.41994503011366
Weighted TruePositiveRate: 0.9142857142857143
Weighted MatthewsCorrelation: 0.9037817646736732
Weighted FMeasure: 0.9147153050831902
Iteration time: 137.0
Weighted AreaUnderPRC: 0.8604708981794891
Mean absolute error: 0.027701092232857702
Coverage of cases: 91.42857142857143
Instances selection time: 137.0
Test time: 105.0
Accumulative iteration time: 1623.0
Weighted Recall: 0.9142857142857143
Weighted FalsePositiveRate: 0.014285714285714289
Kappa statistic: 0.8999999999999998
Training time: 0.0
		
Iteration: 14
Labeled set size: 491
Unlabelled set size: 664
	
Mean region size: 14.285714285714091
Incorrectly Classified Instances: 8.571428571428571
Correctly Classified Instances: 91.42857142857143
Weighted Precision: 0.9250211717154123
Weighted AreaUnderROC: 0.9499969390878481
Root mean squared error: 0.15547629772500748
Relative absolute error: 11.253782069684773
Root relative squared error: 44.431052927719335
Weighted TruePositiveRate: 0.9142857142857143
Weighted MatthewsCorrelation: 0.9038363606709574
Weighted FMeasure: 0.9146923303573822
Iteration time: 137.0
Weighted AreaUnderPRC: 0.860806162743982
Mean absolute error: 0.027560282619636296
Coverage of cases: 91.42857142857143
Instances selection time: 136.0
Test time: 109.0
Accumulative iteration time: 1760.0
Weighted Recall: 0.9142857142857143
Weighted FalsePositiveRate: 0.014285714285714289
Kappa statistic: 0.8999999999999998
Training time: 1.0
		
Iteration: 15
Labeled set size: 511
Unlabelled set size: 644
	
Mean region size: 14.285714285714091
Incorrectly Classified Instances: 8.571428571428571
Correctly Classified Instances: 91.42857142857143
Weighted Precision: 0.9250211717154123
Weighted AreaUnderROC: 0.9505164196073288
Root mean squared error: 0.1555122403287549
Relative absolute error: 11.198398239214585
Root relative squared error: 44.44132438229363
Weighted TruePositiveRate: 0.9142857142857143
Weighted MatthewsCorrelation: 0.9038363606709574
Weighted FMeasure: 0.9146923303573822
Iteration time: 138.0
Weighted AreaUnderPRC: 0.8609359403133704
Mean absolute error: 0.02742464874909706
Coverage of cases: 91.42857142857143
Instances selection time: 137.0
Test time: 115.0
Accumulative iteration time: 1898.0
Weighted Recall: 0.9142857142857143
Weighted FalsePositiveRate: 0.014285714285714289
Kappa statistic: 0.8999999999999998
Training time: 1.0
		
Iteration: 16
Labeled set size: 531
Unlabelled set size: 624
	
Mean region size: 14.285714285714091
Incorrectly Classified Instances: 8.571428571428571
Correctly Classified Instances: 91.42857142857143
Weighted Precision: 0.9250211717154123
Weighted AreaUnderROC: 0.9502999693908786
Root mean squared error: 0.15554647895952675
Relative absolute error: 11.156641547358626
Root relative squared error: 44.45110888602993
Weighted TruePositiveRate: 0.9142857142857143
Weighted MatthewsCorrelation: 0.9038363606709574
Weighted FMeasure: 0.9146923303573822
Iteration time: 137.0
Weighted AreaUnderPRC: 0.8608815308078507
Mean absolute error: 0.027322387462919203
Coverage of cases: 91.42857142857143
Instances selection time: 137.0
Test time: 116.0
Accumulative iteration time: 2035.0
Weighted Recall: 0.9142857142857143
Weighted FalsePositiveRate: 0.014285714285714289
Kappa statistic: 0.8999999999999998
Training time: 0.0
		
Iteration: 17
Labeled set size: 551
Unlabelled set size: 604
	
Mean region size: 14.285714285714091
Incorrectly Classified Instances: 8.571428571428571
Correctly Classified Instances: 91.42857142857143
Weighted Precision: 0.9250211717154123
Weighted AreaUnderROC: 0.9502999693908786
Root mean squared error: 0.15557821525708146
Relative absolute error: 11.115181568995231
Root relative squared error: 44.46017828848559
Weighted TruePositiveRate: 0.9142857142857143
Weighted MatthewsCorrelation: 0.9038363606709574
Weighted FMeasure: 0.9146923303573822
Iteration time: 136.0
Weighted AreaUnderPRC: 0.8608815308078507
Mean absolute error: 0.027220852822029254
Coverage of cases: 91.42857142857143
Instances selection time: 135.0
Test time: 119.0
Accumulative iteration time: 2171.0
Weighted Recall: 0.9142857142857143
Weighted FalsePositiveRate: 0.014285714285714289
Kappa statistic: 0.8999999999999998
Training time: 1.0
		
Iteration: 18
Labeled set size: 571
Unlabelled set size: 584
	
Mean region size: 14.285714285714091
Incorrectly Classified Instances: 8.571428571428571
Correctly Classified Instances: 91.42857142857143
Weighted Precision: 0.9250211717154123
Weighted AreaUnderROC: 0.9501700992610084
Root mean squared error: 0.15560801227864599
Relative absolute error: 11.078154254182111
Root relative squared error: 44.46869349666582
Weighted TruePositiveRate: 0.9142857142857143
Weighted MatthewsCorrelation: 0.9038363606709574
Weighted FMeasure: 0.9146923303573822
Iteration time: 134.0
Weighted AreaUnderPRC: 0.8608491159877897
Mean absolute error: 0.02713017368371141
Coverage of cases: 91.42857142857143
Instances selection time: 134.0
Test time: 121.0
Accumulative iteration time: 2305.0
Weighted Recall: 0.9142857142857143
Weighted FalsePositiveRate: 0.014285714285714289
Kappa statistic: 0.8999999999999998
Training time: 0.0
		
Iteration: 19
Labeled set size: 591
Unlabelled set size: 564
	
Mean region size: 14.285714285714091
Incorrectly Classified Instances: 8.571428571428571
Correctly Classified Instances: 91.42857142857143
Weighted Precision: 0.9250211717154123
Weighted AreaUnderROC: 0.9501700992610084
Root mean squared error: 0.15563583040667445
Relative absolute error: 11.042093229353117
Root relative squared error: 44.47664318891389
Weighted TruePositiveRate: 0.9142857142857143
Weighted MatthewsCorrelation: 0.9038363606709574
Weighted FMeasure: 0.9146923303573822
Iteration time: 133.0
Weighted AreaUnderPRC: 0.8608491159877897
Mean absolute error: 0.027041860969844483
Coverage of cases: 91.42857142857143
Instances selection time: 132.0
Test time: 123.0
Accumulative iteration time: 2438.0
Weighted Recall: 0.9142857142857143
Weighted FalsePositiveRate: 0.014285714285714289
Kappa statistic: 0.8999999999999998
Training time: 1.0
		
Iteration: 20
Labeled set size: 611
Unlabelled set size: 544
	
Mean region size: 14.285714285714091
Incorrectly Classified Instances: 8.571428571428571
Correctly Classified Instances: 91.42857142857143
Weighted Precision: 0.9250211717154123
Weighted AreaUnderROC: 0.9502566793475885
Root mean squared error: 0.1556618930255522
Relative absolute error: 11.007391304775735
Root relative squared error: 44.48409120263519
Weighted TruePositiveRate: 0.9142857142857143
Weighted MatthewsCorrelation: 0.9038363606709574
Weighted FMeasure: 0.9146923303573822
Iteration time: 129.0
Weighted AreaUnderPRC: 0.8608707067297969
Mean absolute error: 0.026956876664757018
Coverage of cases: 91.42857142857143
Instances selection time: 128.0
Test time: 125.0
Accumulative iteration time: 2567.0
Weighted Recall: 0.9142857142857143
Weighted FalsePositiveRate: 0.014285714285714289
Kappa statistic: 0.8999999999999998
Training time: 1.0
		
Iteration: 21
Labeled set size: 631
Unlabelled set size: 524
	
Mean region size: 14.285714285714091
Incorrectly Classified Instances: 8.571428571428571
Correctly Classified Instances: 91.42857142857143
Weighted Precision: 0.9250211717154123
Weighted AreaUnderROC: 0.9501268092177183
Root mean squared error: 0.155686575475359
Relative absolute error: 10.97722658402826
Root relative squared error: 44.49114480019185
Weighted TruePositiveRate: 0.9142857142857143
Weighted MatthewsCorrelation: 0.9038363606709574
Weighted FMeasure: 0.9146923303573822
Iteration time: 127.0
Weighted AreaUnderPRC: 0.8608383492224115
Mean absolute error: 0.026883003879253
Coverage of cases: 91.42857142857143
Instances selection time: 126.0
Test time: 127.0
Accumulative iteration time: 2694.0
Weighted Recall: 0.9142857142857143
Weighted FalsePositiveRate: 0.014285714285714289
Kappa statistic: 0.8999999999999998
Training time: 1.0
		
Iteration: 22
Labeled set size: 651
Unlabelled set size: 504
	
Mean region size: 14.285714285714091
Incorrectly Classified Instances: 8.571428571428571
Correctly Classified Instances: 91.42857142857143
Weighted Precision: 0.9250211717154123
Weighted AreaUnderROC: 0.9502999693908786
Root mean squared error: 0.15570963559808765
Relative absolute error: 10.945689687867247
Root relative squared error: 44.49773477916916
Weighted TruePositiveRate: 0.9142857142857143
Weighted MatthewsCorrelation: 0.9038363606709574
Weighted FMeasure: 0.9146923303573822
Iteration time: 125.0
Weighted AreaUnderPRC: 0.8608815308078507
Mean absolute error: 0.026805770664164803
Coverage of cases: 91.42857142857143
Instances selection time: 124.0
Test time: 129.0
Accumulative iteration time: 2819.0
Weighted Recall: 0.9142857142857143
Weighted FalsePositiveRate: 0.014285714285714289
Kappa statistic: 0.8999999999999998
Training time: 1.0
		
Iteration: 23
Labeled set size: 671
Unlabelled set size: 484
	
Mean region size: 14.285714285714091
Incorrectly Classified Instances: 8.571428571428571
Correctly Classified Instances: 91.42857142857143
Weighted Precision: 0.9250211717154123
Weighted AreaUnderROC: 0.9502566793475885
Root mean squared error: 0.15573155282968876
Relative absolute error: 10.918236046026529
Root relative squared error: 44.50399814980215
Weighted TruePositiveRate: 0.9142857142857143
Weighted MatthewsCorrelation: 0.9038363606709574
Weighted FMeasure: 0.9146923303573822
Iteration time: 131.0
Weighted AreaUnderPRC: 0.8608707067297969
Mean absolute error: 0.026738537255575286
Coverage of cases: 91.42857142857143
Instances selection time: 130.0
Test time: 132.0
Accumulative iteration time: 2950.0
Weighted Recall: 0.9142857142857143
Weighted FalsePositiveRate: 0.014285714285714289
Kappa statistic: 0.8999999999999998
Training time: 1.0
		
Iteration: 24
Labeled set size: 691
Unlabelled set size: 464
	
Mean region size: 14.285714285714091
Incorrectly Classified Instances: 8.571428571428571
Correctly Classified Instances: 91.42857142857143
Weighted Precision: 0.9250211717154123
Weighted AreaUnderROC: 0.9503865494774586
Root mean squared error: 0.15575217693605942
Relative absolute error: 10.89062809854096
Root relative squared error: 44.509891979119864
Weighted TruePositiveRate: 0.9142857142857143
Weighted MatthewsCorrelation: 0.9038363606709574
Weighted FMeasure: 0.9146923303573822
Iteration time: 119.0
Weighted AreaUnderPRC: 0.8609032366329713
Mean absolute error: 0.02667092595561063
Coverage of cases: 91.42857142857143
Instances selection time: 118.0
Test time: 133.0
Accumulative iteration time: 3069.0
Weighted Recall: 0.9142857142857143
Weighted FalsePositiveRate: 0.014285714285714289
Kappa statistic: 0.8999999999999998
Training time: 1.0
		
Iteration: 25
Labeled set size: 711
Unlabelled set size: 444
	
Mean region size: 14.285714285714091
Incorrectly Classified Instances: 8.571428571428571
Correctly Classified Instances: 91.42857142857143
Weighted Precision: 0.9250211717154123
Weighted AreaUnderROC: 0.9503432594341685
Root mean squared error: 0.15577181241082616
Relative absolute error: 10.866237849586907
Root relative squared error: 44.515503283424046
Weighted TruePositiveRate: 0.9142857142857143
Weighted MatthewsCorrelation: 0.9038363606709574
Weighted FMeasure: 0.9146923303573822
Iteration time: 116.0
Weighted AreaUnderPRC: 0.8608923740918542
Mean absolute error: 0.02661119473368234
Coverage of cases: 91.42857142857143
Instances selection time: 116.0
Test time: 137.0
Accumulative iteration time: 3185.0
Weighted Recall: 0.9142857142857143
Weighted FalsePositiveRate: 0.014285714285714289
Kappa statistic: 0.8999999999999998
Training time: 0.0
		
Iteration: 26
Labeled set size: 731
Unlabelled set size: 424
	
Mean region size: 14.285714285714091
Incorrectly Classified Instances: 8.571428571428571
Correctly Classified Instances: 91.42857142857143
Weighted Precision: 0.9250211717154123
Weighted AreaUnderROC: 0.9503432594341685
Root mean squared error: 0.15579041249104367
Relative absolute error: 10.842761108607649
Root relative squared error: 44.52081869908995
Weighted TruePositiveRate: 0.9142857142857143
Weighted MatthewsCorrelation: 0.9038363606709574
Weighted FMeasure: 0.9146923303573822
Iteration time: 116.0
Weighted AreaUnderPRC: 0.8608923740918542
Mean absolute error: 0.026553700674141294
Coverage of cases: 91.42857142857143
Instances selection time: 115.0
Test time: 139.0
Accumulative iteration time: 3301.0
Weighted Recall: 0.9142857142857143
Weighted FalsePositiveRate: 0.014285714285714289
Kappa statistic: 0.8999999999999998
Training time: 1.0
		
Iteration: 27
Labeled set size: 751
Unlabelled set size: 404
	
Mean region size: 14.285714285714091
Incorrectly Classified Instances: 8.571428571428571
Correctly Classified Instances: 91.42857142857143
Weighted Precision: 0.9250211717154123
Weighted AreaUnderROC: 0.9503432594341685
Root mean squared error: 0.15580807858785534
Relative absolute error: 10.820523321165835
Root relative squared error: 44.52586720676572
Weighted TruePositiveRate: 0.9142857142857143
Weighted MatthewsCorrelation: 0.9038363606709574
Weighted FMeasure: 0.9146923303573822
Iteration time: 110.0
Weighted AreaUnderPRC: 0.8608923740918542
Mean absolute error: 0.02649924078652869
Coverage of cases: 91.42857142857143
Instances selection time: 109.0
Test time: 142.0
Accumulative iteration time: 3411.0
Weighted Recall: 0.9142857142857143
Weighted FalsePositiveRate: 0.014285714285714289
Kappa statistic: 0.8999999999999998
Training time: 1.0
		
Iteration: 28
Labeled set size: 771
Unlabelled set size: 384
	
Mean region size: 14.285714285714091
Incorrectly Classified Instances: 8.571428571428571
Correctly Classified Instances: 91.42857142857143
Weighted Precision: 0.9250211717154123
Weighted AreaUnderROC: 0.9505164196073288
Root mean squared error: 0.1558247967765143
Relative absolute error: 10.79787797669471
Root relative squared error: 44.530644827123496
Weighted TruePositiveRate: 0.9142857142857143
Weighted MatthewsCorrelation: 0.9038363606709574
Weighted FMeasure: 0.9146923303573822
Iteration time: 104.0
Weighted AreaUnderPRC: 0.8609359403133704
Mean absolute error: 0.02644378280006879
Coverage of cases: 91.42857142857143
Instances selection time: 104.0
Test time: 144.0
Accumulative iteration time: 3515.0
Weighted Recall: 0.9142857142857143
Weighted FalsePositiveRate: 0.014285714285714289
Kappa statistic: 0.8999999999999998
Training time: 0.0
		
Iteration: 29
Labeled set size: 791
Unlabelled set size: 364
	
Mean region size: 14.285714285714091
Incorrectly Classified Instances: 8.484848484848484
Correctly Classified Instances: 91.51515151515152
Weighted Precision: 0.9257109580503647
Weighted AreaUnderROC: 0.9510507674144038
Root mean squared error: 0.15505207644642122
Relative absolute error: 10.677377598314155
Root relative squared error: 44.30982159948647
Weighted TruePositiveRate: 0.9151515151515152
Weighted MatthewsCorrelation: 0.9047378084273967
Weighted FMeasure: 0.9154149877193529
Iteration time: 102.0
Weighted AreaUnderPRC: 0.8621110748169408
Mean absolute error: 0.026148679832606207
Coverage of cases: 91.51515151515152
Instances selection time: 101.0
Test time: 146.0
Accumulative iteration time: 3617.0
Weighted Recall: 0.9151515151515152
Weighted FalsePositiveRate: 0.01414141414141414
Kappa statistic: 0.9010101010101009
Training time: 1.0
		
Iteration: 30
Labeled set size: 811
Unlabelled set size: 344
	
Mean region size: 14.285714285714091
Incorrectly Classified Instances: 8.658008658008658
Correctly Classified Instances: 91.34199134199135
Weighted Precision: 0.9237187746561344
Weighted AreaUnderROC: 0.9500690891599983
Root mean squared error: 0.1566408556595563
Relative absolute error: 10.858636268047926
Root relative squared error: 44.76385307786731
Weighted TruePositiveRate: 0.9134199134199135
Weighted MatthewsCorrelation: 0.9024963144873123
Weighted FMeasure: 0.9132636559708086
Iteration time: 97.0
Weighted AreaUnderPRC: 0.858738820129999
Mean absolute error: 0.02659257861562769
Coverage of cases: 91.34199134199135
Instances selection time: 97.0
Test time: 149.0
Accumulative iteration time: 3714.0
Weighted Recall: 0.9134199134199135
Weighted FalsePositiveRate: 0.014430014430014432
Kappa statistic: 0.898989898989899
Training time: 0.0
		
Iteration: 31
Labeled set size: 831
Unlabelled set size: 324
	
Mean region size: 14.285714285714091
Incorrectly Classified Instances: 8.658008658008658
Correctly Classified Instances: 91.34199134199135
Weighted Precision: 0.9237187746561344
Weighted AreaUnderROC: 0.9500690891599983
Root mean squared error: 0.15665550152971938
Relative absolute error: 10.8405533186494
Root relative squared error: 44.76803848388682
Weighted TruePositiveRate: 0.9134199134199135
Weighted MatthewsCorrelation: 0.9024963144873123
Weighted FMeasure: 0.9132636559708086
Iteration time: 93.0
Weighted AreaUnderPRC: 0.858738820129999
Mean absolute error: 0.02654829384159048
Coverage of cases: 91.34199134199135
Instances selection time: 93.0
Test time: 151.0
Accumulative iteration time: 3807.0
Weighted Recall: 0.9134199134199135
Weighted FalsePositiveRate: 0.014430014430014432
Kappa statistic: 0.898989898989899
Training time: 0.0
		
Iteration: 32
Labeled set size: 851
Unlabelled set size: 304
	
Mean region size: 14.285714285714091
Incorrectly Classified Instances: 8.658008658008658
Correctly Classified Instances: 91.34199134199135
Weighted Precision: 0.9237187746561344
Weighted AreaUnderROC: 0.9500690891599983
Root mean squared error: 0.15666949299499025
Relative absolute error: 10.823313451112702
Root relative squared error: 44.77203687813136
Weighted TruePositiveRate: 0.9134199134199135
Weighted MatthewsCorrelation: 0.9024963144873123
Weighted FMeasure: 0.9132636559708086
Iteration time: 89.0
Weighted AreaUnderPRC: 0.858738820129999
Mean absolute error: 0.02650607375782714
Coverage of cases: 91.34199134199135
Instances selection time: 88.0
Test time: 154.0
Accumulative iteration time: 3896.0
Weighted Recall: 0.9134199134199135
Weighted FalsePositiveRate: 0.014430014430014432
Kappa statistic: 0.898989898989899
Training time: 1.0
		
Iteration: 33
Labeled set size: 871
Unlabelled set size: 284
	
Mean region size: 14.285714285714091
Incorrectly Classified Instances: 8.658008658008658
Correctly Classified Instances: 91.34199134199135
Weighted Precision: 0.9237187746561344
Weighted AreaUnderROC: 0.9500205518387336
Root mean squared error: 0.15668288895805677
Relative absolute error: 10.807202803709702
Root relative squared error: 44.77586509344607
Weighted TruePositiveRate: 0.9134199134199135
Weighted MatthewsCorrelation: 0.9024963144873123
Weighted FMeasure: 0.9132636559708086
Iteration time: 84.0
Weighted AreaUnderPRC: 0.8586736559757046
Mean absolute error: 0.026466619111125914
Coverage of cases: 91.34199134199135
Instances selection time: 83.0
Test time: 157.0
Accumulative iteration time: 3980.0
Weighted Recall: 0.9134199134199135
Weighted FalsePositiveRate: 0.014430014430014432
Kappa statistic: 0.898989898989899
Training time: 1.0
		
Iteration: 34
Labeled set size: 891
Unlabelled set size: 264
	
Mean region size: 14.285714285714091
Incorrectly Classified Instances: 8.658008658008658
Correctly Classified Instances: 91.34199134199135
Weighted Precision: 0.9237187746561344
Weighted AreaUnderROC: 0.9501661638025274
Root mean squared error: 0.15669564957976057
Relative absolute error: 10.790465365553628
Root relative squared error: 44.779511744843155
Weighted TruePositiveRate: 0.9134199134199135
Weighted MatthewsCorrelation: 0.9024963144873123
Weighted FMeasure: 0.9132636559708086
Iteration time: 79.0
Weighted AreaUnderPRC: 0.8588692076358189
Mean absolute error: 0.026425629466662055
Coverage of cases: 91.34199134199135
Instances selection time: 79.0
Test time: 158.0
Accumulative iteration time: 4059.0
Weighted Recall: 0.9134199134199135
Weighted FalsePositiveRate: 0.014430014430014432
Kappa statistic: 0.898989898989899
Training time: 0.0
		
Iteration: 35
Labeled set size: 911
Unlabelled set size: 244
	
Mean region size: 14.285714285714091
Incorrectly Classified Instances: 8.051948051948052
Correctly Classified Instances: 91.94805194805195
Weighted Precision: 0.9261364731833386
Weighted AreaUnderROC: 0.9535620271983908
Root mean squared error: 0.15112569263076575
Relative absolute error: 10.073764502324657
Root relative squared error: 43.18776396317404
Weighted TruePositiveRate: 0.9194805194805195
Weighted MatthewsCorrelation: 0.9083416551854856
Weighted FMeasure: 0.9194656282518131
Iteration time: 75.0
Weighted AreaUnderPRC: 0.8666880915528197
Mean absolute error: 0.02467044367916253
Coverage of cases: 91.94805194805195
Instances selection time: 75.0
Test time: 162.0
Accumulative iteration time: 4134.0
Weighted Recall: 0.9194805194805195
Weighted FalsePositiveRate: 0.013419913419913422
Kappa statistic: 0.9060606060606059
Training time: 0.0
		
Iteration: 36
Labeled set size: 931
Unlabelled set size: 224
	
Mean region size: 14.285714285714091
Incorrectly Classified Instances: 7.532467532467533
Correctly Classified Instances: 92.46753246753246
Weighted Precision: 0.9299169328865885
Weighted AreaUnderROC: 0.956583584765403
Root mean squared error: 0.14618212986030926
Relative absolute error: 9.456765090674132
Root relative squared error: 41.77502322828629
Weighted TruePositiveRate: 0.9246753246753247
Weighted MatthewsCorrelation: 0.9138707649216096
Weighted FMeasure: 0.9245540724071168
Iteration time: 70.0
Weighted AreaUnderPRC: 0.874264193759579
Mean absolute error: 0.023159424711855118
Coverage of cases: 92.46753246753246
Instances selection time: 69.0
Test time: 164.0
Accumulative iteration time: 4204.0
Weighted Recall: 0.9246753246753247
Weighted FalsePositiveRate: 0.012554112554112555
Kappa statistic: 0.912121212121212
Training time: 1.0
		
Iteration: 37
Labeled set size: 951
Unlabelled set size: 204
	
Mean region size: 14.285714285714091
Incorrectly Classified Instances: 7.186147186147186
Correctly Classified Instances: 92.81385281385282
Weighted Precision: 0.9325048733318737
Weighted AreaUnderROC: 0.9590069526433164
Root mean squared error: 0.14279041390739536
Relative absolute error: 9.041659305577896
Root relative squared error: 40.80575966062501
Weighted TruePositiveRate: 0.9281385281385282
Weighted MatthewsCorrelation: 0.9175547417493368
Weighted FMeasure: 0.9278439230247004
Iteration time: 69.0
Weighted AreaUnderPRC: 0.8795598553340094
Mean absolute error: 0.022142839115701064
Coverage of cases: 92.81385281385282
Instances selection time: 67.0
Test time: 170.0
Accumulative iteration time: 4273.0
Weighted Recall: 0.9281385281385282
Weighted FalsePositiveRate: 0.011976911976911978
Kappa statistic: 0.9161616161616162
Training time: 2.0
		
Iteration: 38
Labeled set size: 971
Unlabelled set size: 184
	
Mean region size: 14.285714285714091
Incorrectly Classified Instances: 6.83982683982684
Correctly Classified Instances: 93.16017316017316
Weighted Precision: 0.9350971875672475
Weighted AreaUnderROC: 0.9609230836503564
Root mean squared error: 0.13931795777777073
Relative absolute error: 8.627366310903795
Root relative squared error: 39.813422665584
Weighted TruePositiveRate: 0.9316017316017317
Weighted MatthewsCorrelation: 0.9212192420686469
Weighted FMeasure: 0.9310821111069736
Iteration time: 61.0
Weighted AreaUnderPRC: 0.8843712006788638
Mean absolute error: 0.021128244026703262
Coverage of cases: 93.16017316017316
Instances selection time: 60.0
Test time: 170.0
Accumulative iteration time: 4334.0
Weighted Recall: 0.9316017316017317
Weighted FalsePositiveRate: 0.011399711399711401
Kappa statistic: 0.9202020202020201
Training time: 1.0
		
Iteration: 39
Labeled set size: 991
Unlabelled set size: 164
	
Mean region size: 14.285714285714091
Incorrectly Classified Instances: 6.753246753246753
Correctly Classified Instances: 93.24675324675324
Weighted Precision: 0.935454650003054
Weighted AreaUnderROC: 0.9614084568630024
Root mean squared error: 0.13844276535168884
Relative absolute error: 8.51408659043525
Root relative squared error: 39.56331559734161
Weighted TruePositiveRate: 0.9324675324675324
Weighted MatthewsCorrelation: 0.922006634011407
Weighted FMeasure: 0.9317894846615907
Iteration time: 56.0
Weighted AreaUnderPRC: 0.8853360512348097
Mean absolute error: 0.020850824303106825
Coverage of cases: 93.24675324675324
Instances selection time: 56.0
Test time: 172.0
Accumulative iteration time: 4390.0
Weighted Recall: 0.9324675324675324
Weighted FalsePositiveRate: 0.011255411255411256
Kappa statistic: 0.9212121212121211
Training time: 0.0
		
Iteration: 40
Labeled set size: 1011
Unlabelled set size: 144
	
Mean region size: 14.285714285714091
Incorrectly Classified Instances: 6.666666666666667
Correctly Classified Instances: 93.33333333333333
Weighted Precision: 0.9361788200581546
Weighted AreaUnderROC: 0.961409768682496
Root mean squared error: 0.13756447781116685
Relative absolute error: 8.40133844807236
Root relative squared error: 39.31232402647393
Weighted TruePositiveRate: 0.9333333333333333
Weighted MatthewsCorrelation: 0.9229513730599216
Weighted FMeasure: 0.9325985617182253
Iteration time: 51.0
Weighted AreaUnderPRC: 0.8859866363229787
Mean absolute error: 0.020574706403442604
Coverage of cases: 93.33333333333333
Instances selection time: 50.0
Test time: 174.0
Accumulative iteration time: 4441.0
Weighted Recall: 0.9333333333333333
Weighted FalsePositiveRate: 0.011111111111111112
Kappa statistic: 0.9222222222222223
Training time: 1.0
		
Iteration: 41
Labeled set size: 1031
Unlabelled set size: 124
	
Mean region size: 14.285714285714091
Incorrectly Classified Instances: 6.406926406926407
Correctly Classified Instances: 93.5930735930736
Weighted Precision: 0.9380135618853518
Weighted AreaUnderROC: 0.9631439940530849
Root mean squared error: 0.13486701231747986
Relative absolute error: 8.085135911988136
Root relative squared error: 38.54145905300586
Weighted TruePositiveRate: 0.935930735930736
Weighted MatthewsCorrelation: 0.9257319940951289
Weighted FMeasure: 0.9352068133077976
Iteration time: 46.0
Weighted AreaUnderPRC: 0.8903299736976542
Mean absolute error: 0.019800332845685314
Coverage of cases: 93.5930735930736
Instances selection time: 45.0
Test time: 177.0
Accumulative iteration time: 4487.0
Weighted Recall: 0.935930735930736
Weighted FalsePositiveRate: 0.010678210678210677
Kappa statistic: 0.9252525252525251
Training time: 1.0
		
Iteration: 42
Labeled set size: 1051
Unlabelled set size: 104
	
Mean region size: 14.285714285714091
Incorrectly Classified Instances: 4.935064935064935
Correctly Classified Instances: 95.06493506493507
Weighted Precision: 0.9515097935370439
Weighted AreaUnderROC: 0.9713411167956622
Root mean squared error: 0.11837958755915551
Relative absolute error: 6.368642455101528
Root relative squared error: 33.829784972789625
Weighted TruePositiveRate: 0.9506493506493506
Weighted MatthewsCorrelation: 0.9427254626116057
Weighted FMeasure: 0.9506811945845965
Iteration time: 40.0
Weighted AreaUnderPRC: 0.9143479005780879
Mean absolute error: 0.015596675400248707
Coverage of cases: 95.06493506493507
Instances selection time: 39.0
Test time: 184.0
Accumulative iteration time: 4527.0
Weighted Recall: 0.9506493506493506
Weighted FalsePositiveRate: 0.008225108225108226
Kappa statistic: 0.9424242424242423
Training time: 1.0
		
Iteration: 43
Labeled set size: 1071
Unlabelled set size: 84
	
Mean region size: 14.285714285714091
Incorrectly Classified Instances: 4.761904761904762
Correctly Classified Instances: 95.23809523809524
Weighted Precision: 0.9527951748224249
Weighted AreaUnderROC: 0.9723722069176615
Root mean squared error: 0.11629142462222793
Relative absolute error: 6.155755704171564
Root relative squared error: 33.23304270834215
Weighted TruePositiveRate: 0.9523809523809523
Weighted MatthewsCorrelation: 0.9445758082020766
Weighted FMeasure: 0.9523473396152442
Iteration time: 33.0
Weighted AreaUnderPRC: 0.9170389342976024
Mean absolute error: 0.015075320091848792
Coverage of cases: 95.23809523809524
Instances selection time: 33.0
Test time: 181.0
Accumulative iteration time: 4560.0
Weighted Recall: 0.9523809523809523
Weighted FalsePositiveRate: 0.007936507936507938
Kappa statistic: 0.9444444444444444
Training time: 0.0
		
Iteration: 44
Labeled set size: 1091
Unlabelled set size: 64
	
Mean region size: 14.285714285714091
Incorrectly Classified Instances: 4.761904761904762
Correctly Classified Instances: 95.23809523809524
Weighted Precision: 0.9527951748224249
Weighted AreaUnderROC: 0.971891206436661
Root mean squared error: 0.11630080789568054
Relative absolute error: 6.144868180355957
Root relative squared error: 33.235724202084334
Weighted TruePositiveRate: 0.9523809523809523
Weighted MatthewsCorrelation: 0.9445758082020766
Weighted FMeasure: 0.9523473396152442
Iteration time: 25.0
Weighted AreaUnderPRC: 0.9162634612645109
Mean absolute error: 0.015048656768218732
Coverage of cases: 95.23809523809524
Instances selection time: 24.0
Test time: 183.0
Accumulative iteration time: 4585.0
Weighted Recall: 0.9523809523809523
Weighted FalsePositiveRate: 0.007936507936507938
Kappa statistic: 0.9444444444444444
Training time: 1.0
		
Iteration: 45
Labeled set size: 1111
Unlabelled set size: 44
	
Mean region size: 14.285714285714091
Incorrectly Classified Instances: 4.588744588744588
Correctly Classified Instances: 95.41125541125541
Weighted Precision: 0.9543869368436351
Weighted AreaUnderROC: 0.9728225982771438
Root mean squared error: 0.11417345277707282
Relative absolute error: 5.934110266014143
Root relative squared error: 32.62778183881753
Weighted TruePositiveRate: 0.9541125541125541
Weighted MatthewsCorrelation: 0.9465423086159792
Weighted FMeasure: 0.954056827264381
Iteration time: 18.0
Weighted AreaUnderPRC: 0.9189461599362612
Mean absolute error: 0.014532514937177554
Coverage of cases: 95.41125541125541
Instances selection time: 17.0
Test time: 187.0
Accumulative iteration time: 4603.0
Weighted Recall: 0.9541125541125541
Weighted FalsePositiveRate: 0.007647907647907648
Kappa statistic: 0.9464646464646465
Training time: 1.0
		
Iteration: 46
Labeled set size: 1131
Unlabelled set size: 24
	
Mean region size: 14.285714285714091
Incorrectly Classified Instances: 4.242424242424242
Correctly Classified Instances: 95.75757575757575
Weighted Precision: 0.9576799159267273
Weighted AreaUnderROC: 0.9748183130001312
Root mean squared error: 0.10978801454298034
Relative absolute error: 5.521554705311415
Root relative squared error: 31.374538475415353
Weighted TruePositiveRate: 0.9575757575757575
Weighted MatthewsCorrelation: 0.9505267549791966
Weighted FMeasure: 0.9575264547053529
Iteration time: 10.0
Weighted AreaUnderPRC: 0.9247670144727419
Mean absolute error: 0.01352217478851781
Coverage of cases: 95.75757575757575
Instances selection time: 9.0
Test time: 189.0
Accumulative iteration time: 4613.0
Weighted Recall: 0.9575757575757575
Weighted FalsePositiveRate: 0.00707070707070707
Kappa statistic: 0.9505050505050504
Training time: 1.0
		
Time end:Wed Nov 01 07.40.22 EET 2017