Correctly Classified Instances: 86.15584415584415
Correctly Classified Instances: 86.33766233766235
Correctly Classified Instances: 85.86147186147187
Correctly Classified Instances: 84.77922077922078
Correctly Classified Instances: 84.38095238095238
Correctly Classified Instances: 83.41991341991343
Correctly Classified Instances: 83.83549783549783
Correctly Classified Instances: 83.57575757575758
Correctly Classified Instances: 83.24675324675323
Correctly Classified Instances: 83.04761904761905
Correctly Classified Instances: 83.04761904761905
Correctly Classified Instances: 83.0995670995671
Correctly Classified Instances: 83.15151515151516
Correctly Classified Instances: 83.12554112554112
Correctly Classified Instances: 83.15151515151516
Correctly Classified Instances: 83.05627705627707
Correctly Classified Instances: 82.87445887445887
Correctly Classified Instances: 82.83116883116882
Correctly Classified Instances: 82.84848484848484
Correctly Classified Instances: 83.12554112554115
Correctly Classified Instances: 83.2034632034632
Correctly Classified Instances: 83.04761904761905
Correctly Classified Instances: 83.43722943722943
Correctly Classified Instances: 84.64069264069263
Correctly Classified Instances: 85.53246753246754
Correctly Classified Instances: 85.83549783549783
Correctly Classified Instances: 86.53679653679654
Correctly Classified Instances: 87.12554112554112
Correctly Classified Instances: 87.48051948051948
Correctly Classified Instances: 88.13852813852813
Correctly Classified Instances: 88.7186147186147
Correctly Classified Instances: 89.15151515151516
Correctly Classified Instances: 89.73160173160174
Correctly Classified Instances: 90.71861471861473
Correctly Classified Instances: 90.83982683982684
Correctly Classified Instances: 90.9004329004329
Correctly Classified Instances: 90.8917748917749
Correctly Classified Instances: 90.96103896103897
Correctly Classified Instances: 91.1255411255411
Correctly Classified Instances: 91.3073593073593
Correctly Classified Instances: 91.31601731601732
Correctly Classified Instances: 91.31601731601731
Correctly Classified Instances: 91.36796536796535
Correctly Classified Instances: 91.4891774891775
Correctly Classified Instances: 91.59307359307358
Correctly Classified Instances: 91.66233766233765
