Correctly Classified Instances: 86.15584415584415
Correctly Classified Instances: 87.14285714285714
Correctly Classified Instances: 86.93506493506496
Correctly Classified Instances: 86.14718614718615
Correctly Classified Instances: 85.46320346320348
Correctly Classified Instances: 85.01298701298701
Correctly Classified Instances: 84.42424242424242
Correctly Classified Instances: 84.36363636363637
Correctly Classified Instances: 84.58008658008657
Correctly Classified Instances: 84.6060606060606
Correctly Classified Instances: 84.64935064935064
Correctly Classified Instances: 84.45887445887445
Correctly Classified Instances: 84.38961038961038
Correctly Classified Instances: 84.48484848484848
Correctly Classified Instances: 84.46753246753246
Correctly Classified Instances: 84.7099567099567
Correctly Classified Instances: 84.3896103896104
Correctly Classified Instances: 84.6926406926407
Correctly Classified Instances: 84.73593073593074
Correctly Classified Instances: 84.5974025974026
Correctly Classified Instances: 84.90043290043292
Correctly Classified Instances: 84.19047619047619
Correctly Classified Instances: 84.37229437229436
Correctly Classified Instances: 84.2943722943723
Correctly Classified Instances: 84.12987012987011
Correctly Classified Instances: 83.45454545454544
Correctly Classified Instances: 83.33333333333334
Correctly Classified Instances: 83.4891774891775
Correctly Classified Instances: 84.38095238095238
Correctly Classified Instances: 85.25541125541126
Correctly Classified Instances: 85.24675324675324
Correctly Classified Instances: 85.34199134199135
Correctly Classified Instances: 85.45454545454545
Correctly Classified Instances: 85.55844155844156
Correctly Classified Instances: 86.52813852813853
Correctly Classified Instances: 88.17316017316018
Correctly Classified Instances: 88.56277056277057
Correctly Classified Instances: 88.61471861471861
Correctly Classified Instances: 88.72727272727272
Correctly Classified Instances: 88.78787878787878
Correctly Classified Instances: 88.96969696969697
Correctly Classified Instances: 90.49350649350649
Correctly Classified Instances: 91.3939393939394
Correctly Classified Instances: 91.67099567099567
Correctly Classified Instances: 91.7056277056277
Correctly Classified Instances: 91.67099567099567
