Sat Oct 07 13.20.47 EEST 2017
Dataset: kr-vs-kp
Test set size: 1598
Initial Labelled set size: 319
Initial Unlabelled set size: 1279
Batch mode: QBestBatchMode
Batch size: 20
Classifiers: IBk-1cores
Scenario: PoolBasedSamplingScenario
Query strategy: MarginSamplingQueryStrategy-1cores
Time begining: Sat Oct 07 13.20.47 EEST 2017
		
Iteration: 1
Labeled set size: 319
Unlabelled set size: 1279
	
Mean region size: 58.79224030037547
Incorrectly Classified Instances: 15.456821026282853
Correctly Classified Instances: 84.54317897371715
Weighted Precision: 0.8513307159767165
Weighted AreaUnderROC: 0.8905871088753031
Root mean squared error: 0.359571847612471
Relative absolute error: 34.08916842154286
Root relative squared error: 71.9143695224942
Weighted TruePositiveRate: 0.8454317897371715
Weighted MatthewsCorrelation: 0.6951339550528495
Weighted FMeasure: 0.844185916411919
Iteration time: 193.0
Weighted AreaUnderPRC: 0.8624307944248725
Mean absolute error: 0.1704458421077143
Coverage of cases: 90.4881101376721
Instances selection time: 193.0
Test time: 247.0
Accumulative iteration time: 193.0
Weighted Recall: 0.8454317897371715
Weighted FalsePositiveRate: 0.16146917760887236
Kappa statistic: 0.6882795853478627
Training time: 0.0
		
Iteration: 2
Labeled set size: 339
Unlabelled set size: 1259
	
Mean region size: 58.97997496871089
Incorrectly Classified Instances: 15.39424280350438
Correctly Classified Instances: 84.60575719649562
Weighted Precision: 0.8579187081037799
Weighted AreaUnderROC: 0.895449729636402
Root mean squared error: 0.3523017826098953
Relative absolute error: 33.180221823611085
Root relative squared error: 70.46035652197907
Weighted TruePositiveRate: 0.8460575719649562
Weighted MatthewsCorrelation: 0.701913238417068
Weighted FMeasure: 0.8439638701330134
Iteration time: 198.0
Weighted AreaUnderPRC: 0.8703411615887595
Mean absolute error: 0.16590110911805542
Coverage of cases: 91.17647058823529
Instances selection time: 198.0
Test time: 263.0
Accumulative iteration time: 391.0
Weighted Recall: 0.8460575719649562
Weighted FalsePositiveRate: 0.16315757902815614
Kappa statistic: 0.68881613215269
Training time: 0.0
		
Iteration: 3
Labeled set size: 359
Unlabelled set size: 1239
	
Mean region size: 58.79224030037547
Incorrectly Classified Instances: 15.5819774718398
Correctly Classified Instances: 84.4180225281602
Weighted Precision: 0.8606885059027855
Weighted AreaUnderROC: 0.8970075576239395
Root mean squared error: 0.3518601342496553
Relative absolute error: 32.84081211709727
Root relative squared error: 70.37202684993106
Weighted TruePositiveRate: 0.844180225281602
Weighted MatthewsCorrelation: 0.7024573526759468
Weighted FMeasure: 0.8414239896649471
Iteration time: 210.0
Weighted AreaUnderPRC: 0.8732384639550143
Mean absolute error: 0.16420406058548637
Coverage of cases: 91.11389236545682
Instances selection time: 210.0
Test time: 272.0
Accumulative iteration time: 601.0
Weighted Recall: 0.844180225281602
Weighted FalsePositiveRate: 0.16645520350340218
Kappa statistic: 0.6845717601584188
Training time: 0.0
		
Iteration: 4
Labeled set size: 379
Unlabelled set size: 1219
	
Mean region size: 59.04255319148936
Incorrectly Classified Instances: 14.392991239048811
Correctly Classified Instances: 85.60700876095119
Weighted Precision: 0.869131647021618
Weighted AreaUnderROC: 0.9042277175661781
Root mean squared error: 0.33942337246414056
Relative absolute error: 31.2892514193166
Root relative squared error: 67.88467449282811
Weighted TruePositiveRate: 0.8560700876095119
Weighted MatthewsCorrelation: 0.7232173654002527
Weighted FMeasure: 0.8540236940229939
Iteration time: 210.0
Weighted AreaUnderPRC: 0.8804192106192437
Mean absolute error: 0.156446257096583
Coverage of cases: 91.80225281602003
Instances selection time: 210.0
Test time: 282.0
Accumulative iteration time: 811.0
Weighted Recall: 0.8560700876095119
Weighted FalsePositiveRate: 0.1533303508314298
Kappa statistic: 0.7089893885720892
Training time: 0.0
		
Iteration: 5
Labeled set size: 399
Unlabelled set size: 1199
	
Mean region size: 58.97997496871089
Incorrectly Classified Instances: 13.14142678347935
Correctly Classified Instances: 86.85857321652065
Weighted Precision: 0.8807822215221986
Weighted AreaUnderROC: 0.9153828646769372
Root mean squared error: 0.32565864538195577
Relative absolute error: 29.400837450264106
Root relative squared error: 65.13172907639115
Weighted TruePositiveRate: 0.8685857321652065
Weighted MatthewsCorrelation: 0.7476287419827197
Weighted FMeasure: 0.8668777480805967
Iteration time: 217.0
Weighted AreaUnderPRC: 0.8935926604636117
Mean absolute error: 0.14700418725132053
Coverage of cases: 92.67834793491865
Instances selection time: 217.0
Test time: 298.0
Accumulative iteration time: 1028.0
Weighted Recall: 0.8685857321652065
Weighted FalsePositiveRate: 0.1403117427913984
Kappa statistic: 0.7344157827841152
Training time: 0.0
		
Iteration: 6
Labeled set size: 419
Unlabelled set size: 1179
	
Mean region size: 59.16770963704631
Incorrectly Classified Instances: 12.76595744680851
Correctly Classified Instances: 87.23404255319149
Weighted Precision: 0.882625596994017
Weighted AreaUnderROC: 0.9152667142778663
Root mean squared error: 0.3227236801696695
Relative absolute error: 29.10036597081971
Root relative squared error: 64.5447360339339
Weighted TruePositiveRate: 0.8723404255319149
Weighted MatthewsCorrelation: 0.7533922425113704
Weighted FMeasure: 0.87090188173205
Iteration time: 223.0
Weighted AreaUnderPRC: 0.893144980980607
Mean absolute error: 0.14550182985409854
Coverage of cases: 92.86608260325407
Instances selection time: 223.0
Test time: 305.0
Accumulative iteration time: 1251.0
Weighted Recall: 0.8723404255319149
Weighted FalsePositiveRate: 0.13586370662372865
Kappa statistic: 0.7421801967387368
Training time: 0.0
		
Iteration: 7
Labeled set size: 439
Unlabelled set size: 1159
	
Mean region size: 59.386733416770966
Incorrectly Classified Instances: 11.889862327909887
Correctly Classified Instances: 88.11013767209012
Weighted Precision: 0.8894968764016705
Weighted AreaUnderROC: 0.9200337652585034
Root mean squared error: 0.3155255981256531
Relative absolute error: 28.298102268141108
Root relative squared error: 63.10511962513063
Weighted TruePositiveRate: 0.8811013767209012
Weighted MatthewsCorrelation: 0.769249098497218
Weighted FMeasure: 0.8799828837131326
Iteration time: 225.0
Weighted AreaUnderPRC: 0.8997159029731636
Mean absolute error: 0.14149051134070553
Coverage of cases: 93.30413016270337
Instances selection time: 225.0
Test time: 321.0
Accumulative iteration time: 1476.0
Weighted Recall: 0.8811013767209012
Weighted FalsePositiveRate: 0.12627603395950387
Kappa statistic: 0.7600649899717566
Training time: 0.0
		
Iteration: 8
Labeled set size: 459
Unlabelled set size: 1139
	
Mean region size: 59.073842302878596
Incorrectly Classified Instances: 11.764705882352942
Correctly Classified Instances: 88.23529411764706
Weighted Precision: 0.8913973337674139
Weighted AreaUnderROC: 0.9201366811205086
Root mean squared error: 0.31615389001458816
Relative absolute error: 28.039822646639763
Root relative squared error: 63.23077800291763
Weighted TruePositiveRate: 0.8823529411764706
Weighted MatthewsCorrelation: 0.772381154338733
Weighted FMeasure: 0.8811856412943799
Iteration time: 230.0
Weighted AreaUnderPRC: 0.899238809071441
Mean absolute error: 0.1401991132331988
Coverage of cases: 93.11639549436796
Instances selection time: 230.0
Test time: 331.0
Accumulative iteration time: 1706.0
Weighted Recall: 0.8823529411764706
Weighted FalsePositiveRate: 0.1252454000333309
Kappa statistic: 0.7625365770374457
Training time: 0.0
		
Iteration: 9
Labeled set size: 479
Unlabelled set size: 1119
	
Mean region size: 59.73091364205256
Incorrectly Classified Instances: 11.451814768460576
Correctly Classified Instances: 88.54818523153942
Weighted Precision: 0.8919099532395401
Weighted AreaUnderROC: 0.9252831165977351
Root mean squared error: 0.3087424644953649
Relative absolute error: 27.64928893711671
Root relative squared error: 61.748492899072986
Weighted TruePositiveRate: 0.8854818523153942
Weighted MatthewsCorrelation: 0.7762081280389683
Weighted FMeasure: 0.884612008459578
Iteration time: 234.0
Weighted AreaUnderPRC: 0.9050710906501037
Mean absolute error: 0.13824644468558356
Coverage of cases: 93.80475594493116
Instances selection time: 234.0
Test time: 341.0
Accumulative iteration time: 1940.0
Weighted Recall: 0.8854818523153942
Weighted FalsePositiveRate: 0.12103015283100782
Kappa statistic: 0.7691017650133517
Training time: 0.0
		
Iteration: 10
Labeled set size: 499
Unlabelled set size: 1099
	
Mean region size: 59.60575719649562
Incorrectly Classified Instances: 11.702127659574469
Correctly Classified Instances: 88.29787234042553
Weighted Precision: 0.8904193106880677
Weighted AreaUnderROC: 0.9280577951467516
Root mean squared error: 0.30878070935763885
Relative absolute error: 27.536719715238682
Root relative squared error: 61.75614187152777
Weighted TruePositiveRate: 0.8829787234042553
Weighted MatthewsCorrelation: 0.7721263463080302
Weighted FMeasure: 0.8819795541902996
Iteration time: 239.0
Weighted AreaUnderPRC: 0.9084911736839294
Mean absolute error: 0.13768359857619342
Coverage of cases: 93.86733416770964
Instances selection time: 239.0
Test time: 355.0
Accumulative iteration time: 2179.0
Weighted Recall: 0.8829787234042553
Weighted FalsePositiveRate: 0.12399551027612102
Kappa statistic: 0.7639474536506757
Training time: 0.0
		
Iteration: 11
Labeled set size: 519
Unlabelled set size: 1079
	
Mean region size: 59.60575719649562
Incorrectly Classified Instances: 10.951188986232792
Correctly Classified Instances: 89.0488110137672
Weighted Precision: 0.897856899995491
Weighted AreaUnderROC: 0.9328901829368785
Root mean squared error: 0.30133464685805333
Relative absolute error: 26.554638650323042
Root relative squared error: 60.266929371610665
Weighted TruePositiveRate: 0.890488110137672
Weighted MatthewsCorrelation: 0.787167728201498
Weighted FMeasure: 0.8895794155515968
Iteration time: 242.0
Weighted AreaUnderPRC: 0.9129871652036455
Mean absolute error: 0.1327731932516152
Coverage of cases: 94.180225281602
Instances selection time: 242.0
Test time: 366.0
Accumulative iteration time: 2421.0
Weighted Recall: 0.890488110137672
Weighted FalsePositiveRate: 0.11634256113083648
Kappa statistic: 0.7791203357781613
Training time: 0.0
		
Iteration: 12
Labeled set size: 539
Unlabelled set size: 1059
	
Mean region size: 59.16770963704631
Incorrectly Classified Instances: 10.200250312891114
Correctly Classified Instances: 89.79974968710889
Weighted Precision: 0.9034566562028464
Weighted AreaUnderROC: 0.9389934035448738
Root mean squared error: 0.2919182366732725
Relative absolute error: 25.053737766422646
Root relative squared error: 58.3836473346545
Weighted TruePositiveRate: 0.8979974968710889
Weighted MatthewsCorrelation: 0.8004642269402615
Weighted FMeasure: 0.8973352796202173
Iteration time: 455.0
Weighted AreaUnderPRC: 0.9203503446327558
Mean absolute error: 0.12526868883211323
Coverage of cases: 94.61827284105131
Instances selection time: 455.0
Test time: 379.0
Accumulative iteration time: 2876.0
Weighted Recall: 0.8979974968710889
Weighted FalsePositiveRate: 0.10789853359188056
Kappa statistic: 0.7944533966316979
Training time: 0.0
		
Iteration: 13
Labeled set size: 559
Unlabelled set size: 1039
	
Mean region size: 58.88610763454318
Incorrectly Classified Instances: 10.200250312891114
Correctly Classified Instances: 89.79974968710889
Weighted Precision: 0.9032178285441311
Weighted AreaUnderROC: 0.9389362820885098
Root mean squared error: 0.29285765480552034
Relative absolute error: 24.9502509423952
Root relative squared error: 58.57153096110407
Weighted TruePositiveRate: 0.8979974968710889
Weighted MatthewsCorrelation: 0.8002384372466936
Weighted FMeasure: 0.8973567794060778
Iteration time: 518.0
Weighted AreaUnderPRC: 0.9197245229459119
Mean absolute error: 0.124751254711976
Coverage of cases: 94.49311639549437
Instances selection time: 518.0
Test time: 388.0
Accumulative iteration time: 3394.0
Weighted Recall: 0.8979974968710889
Weighted FalsePositiveRate: 0.10778552239278466
Kappa statistic: 0.7944767510671706
Training time: 0.0
		
Iteration: 14
Labeled set size: 579
Unlabelled set size: 1019
	
Mean region size: 59.26157697121402
Incorrectly Classified Instances: 10.262828535669588
Correctly Classified Instances: 89.73717146433042
Weighted Precision: 0.9005903860571315
Weighted AreaUnderROC: 0.9391254188869966
Root mean squared error: 0.2949130689512584
Relative absolute error: 25.449214470670068
Root relative squared error: 58.98261379025168
Weighted TruePositiveRate: 0.8973717146433041
Weighted MatthewsCorrelation: 0.7970991412133496
Weighted FMeasure: 0.8969157510798124
Iteration time: 250.0
Weighted AreaUnderPRC: 0.9199018688389777
Mean absolute error: 0.12724607235335034
Coverage of cases: 94.4305381727159
Instances selection time: 250.0
Test time: 411.0
Accumulative iteration time: 3644.0
Weighted Recall: 0.8973717146433041
Weighted FalsePositiveRate: 0.1073402441635559
Kappa statistic: 0.7934388344953804
Training time: 0.0
		
Iteration: 15
Labeled set size: 599
Unlabelled set size: 999
	
Mean region size: 59.292866082603254
Incorrectly Classified Instances: 10.32540675844806
Correctly Classified Instances: 89.67459324155195
Weighted Precision: 0.9002368482472133
Weighted AreaUnderROC: 0.9410371916717025
Root mean squared error: 0.29219587272265723
Relative absolute error: 25.139995973691466
Root relative squared error: 58.43917454453145
Weighted TruePositiveRate: 0.8967459324155194
Weighted MatthewsCorrelation: 0.7960960152675661
Weighted FMeasure: 0.8962592419175963
Iteration time: 254.0
Weighted AreaUnderPRC: 0.9220773958505345
Mean absolute error: 0.12569997986845732
Coverage of cases: 94.55569461827284
Instances selection time: 254.0
Test time: 415.0
Accumulative iteration time: 3898.0
Weighted Recall: 0.8967459324155194
Weighted FalsePositiveRate: 0.10813808912438214
Kappa statistic: 0.7921439281305329
Training time: 0.0
		
Iteration: 16
Labeled set size: 619
Unlabelled set size: 979
	
Mean region size: 59.230287859824784
Incorrectly Classified Instances: 9.637046307884857
Correctly Classified Instances: 90.36295369211514
Weighted Precision: 0.9065695632465461
Weighted AreaUnderROC: 0.9467324852261401
Root mean squared error: 0.2836272604625997
Relative absolute error: 24.089324131697616
Root relative squared error: 56.72545209251994
Weighted TruePositiveRate: 0.9036295369211514
Weighted MatthewsCorrelation: 0.8094116373898654
Weighted FMeasure: 0.9032350556606984
Iteration time: 252.0
Weighted AreaUnderPRC: 0.9291000545208569
Mean absolute error: 0.12044662065848809
Coverage of cases: 95.05632040050062
Instances selection time: 252.0
Test time: 429.0
Accumulative iteration time: 4150.0
Weighted Recall: 0.9036295369211514
Weighted FalsePositiveRate: 0.10083094014354022
Kappa statistic: 0.806078047258291
Training time: 0.0
		
Iteration: 17
Labeled set size: 639
Unlabelled set size: 959
	
Mean region size: 59.355444305381724
Incorrectly Classified Instances: 9.762202753441802
Correctly Classified Instances: 90.2377972465582
Weighted Precision: 0.9054808841579948
Weighted AreaUnderROC: 0.9451621004387032
Root mean squared error: 0.28597854291997354
Relative absolute error: 24.471659094200295
Root relative squared error: 57.19570858399471
Weighted TruePositiveRate: 0.9023779724655819
Weighted MatthewsCorrelation: 0.8070495806131947
Weighted FMeasure: 0.901961468345402
Iteration time: 254.0
Weighted AreaUnderPRC: 0.9266208794308145
Mean absolute error: 0.12235829547100147
Coverage of cases: 94.93116395494368
Instances selection time: 254.0
Test time: 437.0
Accumulative iteration time: 4404.0
Weighted Recall: 0.9023779724655819
Weighted FalsePositiveRate: 0.10220060766700088
Kappa statistic: 0.803537287155149
Training time: 0.0
		
Iteration: 18
Labeled set size: 659
Unlabelled set size: 939
	
Mean region size: 59.13642052565707
Incorrectly Classified Instances: 9.51188986232791
Correctly Classified Instances: 90.4881101376721
Weighted Precision: 0.9082019045872286
Weighted AreaUnderROC: 0.9479583428163333
Root mean squared error: 0.28029957051921683
Relative absolute error: 23.6360369353541
Root relative squared error: 56.05991410384337
Weighted TruePositiveRate: 0.904881101376721
Weighted MatthewsCorrelation: 0.8122830980887255
Weighted FMeasure: 0.9044585010008017
Iteration time: 261.0
Weighted AreaUnderPRC: 0.9299713394825855
Mean absolute error: 0.1181801846767705
Coverage of cases: 95.18147684605758
Instances selection time: 261.0
Test time: 445.0
Accumulative iteration time: 4665.0
Weighted Recall: 0.904881101376721
Weighted FalsePositiveRate: 0.09980030621736727
Kappa statistic: 0.8085530661176697
Training time: 0.0
		
Iteration: 19
Labeled set size: 679
Unlabelled set size: 919
	
Mean region size: 59.04255319148936
Incorrectly Classified Instances: 9.261576971214017
Correctly Classified Instances: 90.73842302878599
Weighted Precision: 0.9109314685985859
Weighted AreaUnderROC: 0.9496385996028912
Root mean squared error: 0.2770263042330476
Relative absolute error: 23.140951107063202
Root relative squared error: 55.405260846609515
Weighted TruePositiveRate: 0.9073842302878599
Weighted MatthewsCorrelation: 0.8175256606469823
Weighted FMeasure: 0.9069561149256968
Iteration time: 252.0
Weighted AreaUnderPRC: 0.9324218260688674
Mean absolute error: 0.115704755535316
Coverage of cases: 95.30663329161452
Instances selection time: 252.0
Test time: 459.0
Accumulative iteration time: 4917.0
Weighted Recall: 0.9073842302878599
Weighted FalsePositiveRate: 0.09740000476773363
Kappa statistic: 0.8135699837773157
Training time: 0.0
		
Iteration: 20
Labeled set size: 699
Unlabelled set size: 899
	
Mean region size: 58.854818523153945
Incorrectly Classified Instances: 9.449311639549437
Correctly Classified Instances: 90.55068836045056
Weighted Precision: 0.909956512597067
Weighted AreaUnderROC: 0.9519239371846085
Root mean squared error: 0.2742586868444385
Relative absolute error: 22.699203568223165
Root relative squared error: 54.8517373688877
Weighted TruePositiveRate: 0.9055068836045056
Weighted MatthewsCorrelation: 0.8146053434991447
Weighted FMeasure: 0.9049898914009388
Iteration time: 254.0
Weighted AreaUnderPRC: 0.9352253789811313
Mean absolute error: 0.11349601784111582
Coverage of cases: 95.43178973717147
Instances selection time: 254.0
Test time: 463.0
Accumulative iteration time: 5171.0
Weighted Recall: 0.9055068836045056
Weighted FalsePositiveRate: 0.09979353965021238
Kappa statistic: 0.8096937882212648
Training time: 0.0
		
Iteration: 21
Labeled set size: 719
Unlabelled set size: 879
	
Mean region size: 58.917396745932415
Incorrectly Classified Instances: 9.51188986232791
Correctly Classified Instances: 90.4881101376721
Weighted Precision: 0.9101194631151951
Weighted AreaUnderROC: 0.954462765164298
Root mean squared error: 0.27372663392748564
Relative absolute error: 22.716488933465204
Root relative squared error: 54.74532678549713
Weighted TruePositiveRate: 0.904881101376721
Weighted MatthewsCorrelation: 0.8140949183286689
Weighted FMeasure: 0.9042935292901582
Iteration time: 251.0
Weighted AreaUnderPRC: 0.9394184821079191
Mean absolute error: 0.11358244466732602
Coverage of cases: 95.49436795994994
Instances selection time: 251.0
Test time: 481.0
Accumulative iteration time: 5422.0
Weighted Recall: 0.904881101376721
Weighted FalsePositiveRate: 0.10081740700923043
Kappa statistic: 0.8083573055019482
Training time: 0.0
		
Iteration: 22
Labeled set size: 739
Unlabelled set size: 859
	
Mean region size: 59.011264080100126
Incorrectly Classified Instances: 9.762202753441802
Correctly Classified Instances: 90.2377972465582
Weighted Precision: 0.9083020098995953
Weighted AreaUnderROC: 0.9552444259580447
Root mean squared error: 0.2756616480766056
Relative absolute error: 23.012703993739102
Root relative squared error: 55.13232961532112
Weighted TruePositiveRate: 0.9023779724655819
Weighted MatthewsCorrelation: 0.8097129603595462
Weighted FMeasure: 0.9017127246174698
Iteration time: 253.0
Weighted AreaUnderPRC: 0.9410858737681514
Mean absolute error: 0.11506351996869552
Coverage of cases: 95.43178973717147
Instances selection time: 253.0
Test time: 485.0
Accumulative iteration time: 5675.0
Weighted Recall: 0.9023779724655819
Weighted FalsePositiveRate: 0.10366975325524773
Kappa statistic: 0.8032470146249832
Training time: 0.0
		
Iteration: 23
Labeled set size: 759
Unlabelled set size: 839
	
Mean region size: 59.10513141426784
Incorrectly Classified Instances: 10.137672090112641
Correctly Classified Instances: 89.86232790988736
Weighted Precision: 0.9055127567875004
Weighted AreaUnderROC: 0.9537630997631368
Root mean squared error: 0.2796102659724075
Relative absolute error: 23.549177195082006
Root relative squared error: 55.9220531944815
Weighted TruePositiveRate: 0.8986232790988736
Weighted MatthewsCorrelation: 0.8030786068332862
Weighted FMeasure: 0.8978416035762591
Iteration time: 252.0
Weighted AreaUnderPRC: 0.9398991735343769
Mean absolute error: 0.11774588597541003
Coverage of cases: 95.30663329161452
Instances selection time: 252.0
Test time: 505.0
Accumulative iteration time: 5927.0
Weighted Recall: 0.8986232790988736
Weighted FalsePositiveRate: 0.10789176702472571
Kappa statistic: 0.7955866630238924
Training time: 0.0
		
Iteration: 24
Labeled set size: 779
Unlabelled set size: 819
	
Mean region size: 59.011264080100126
Incorrectly Classified Instances: 10.075093867334168
Correctly Classified Instances: 89.92490613266584
Weighted Precision: 0.9060180496742309
Weighted AreaUnderROC: 0.9535060939719514
Root mean squared error: 0.280189209394935
Relative absolute error: 23.537019867789304
Root relative squared error: 56.037841878987
Weighted TruePositiveRate: 0.8992490613266583
Weighted MatthewsCorrelation: 0.8042228671438166
Weighted FMeasure: 0.8984837888633447
Iteration time: 252.0
Weighted AreaUnderPRC: 0.9391557980337556
Mean absolute error: 0.11768509933894652
Coverage of cases: 95.18147684605758
Instances selection time: 252.0
Test time: 515.0
Accumulative iteration time: 6179.0
Weighted Recall: 0.8992490613266583
Weighted FalsePositiveRate: 0.10720693326299535
Kappa statistic: 0.7968600227713093
Training time: 0.0
		
Iteration: 25
Labeled set size: 799
Unlabelled set size: 799
	
Mean region size: 58.8235294117647
Incorrectly Classified Instances: 9.824780976220275
Correctly Classified Instances: 90.17521902377972
Weighted Precision: 0.9088591936955093
Weighted AreaUnderROC: 0.9535484731716122
Root mean squared error: 0.2789494767934809
Relative absolute error: 23.198309198911673
Root relative squared error: 55.789895358696185
Weighted TruePositiveRate: 0.9017521902377973
Weighted MatthewsCorrelation: 0.8095791037369362
Weighted FMeasure: 0.9009832684767838
Iteration time: 250.0
Weighted AreaUnderPRC: 0.9391669705131099
Mean absolute error: 0.11599154599455837
Coverage of cases: 95.1188986232791
Instances selection time: 250.0
Test time: 517.0
Accumulative iteration time: 6429.0
Weighted Recall: 0.9017521902377973
Weighted FalsePositiveRate: 0.10480663181336171
Kappa statistic: 0.8018844532606001
Training time: 0.0
		
Iteration: 26
Labeled set size: 819
Unlabelled set size: 779
	
Mean region size: 58.97997496871089
Incorrectly Classified Instances: 9.949937421777221
Correctly Classified Instances: 90.05006257822278
Weighted Precision: 0.9078563773336238
Weighted AreaUnderROC: 0.9544855243641158
Root mean squared error: 0.2785345861983967
Relative absolute error: 23.276283294036418
Root relative squared error: 55.70691723967934
Weighted TruePositiveRate: 0.9005006257822278
Weighted MatthewsCorrelation: 0.8072982365490905
Weighted FMeasure: 0.8996986263542313
Iteration time: 250.0
Weighted AreaUnderPRC: 0.9403127378350992
Mean absolute error: 0.11638141647018209
Coverage of cases: 95.18147684605758
Instances selection time: 250.0
Test time: 531.0
Accumulative iteration time: 6679.0
Weighted Recall: 0.9005006257822278
Weighted FalsePositiveRate: 0.1061762993368224
Kappa statistic: 0.7993378707300006
Training time: 0.0
		
Iteration: 27
Labeled set size: 839
Unlabelled set size: 759
	
Mean region size: 59.011264080100126
Incorrectly Classified Instances: 9.824780976220275
Correctly Classified Instances: 90.17521902377972
Weighted Precision: 0.9088591936955093
Weighted AreaUnderROC: 0.9541449211668406
Root mean squared error: 0.2800476789198243
Relative absolute error: 23.44485623852108
Root relative squared error: 56.00953578396486
Weighted TruePositiveRate: 0.9017521902377973
Weighted MatthewsCorrelation: 0.8095791037369362
Weighted FMeasure: 0.9009832684767838
Iteration time: 247.0
Weighted AreaUnderPRC: 0.940023113636663
Mean absolute error: 0.1172242811926054
Coverage of cases: 95.05632040050062
Instances selection time: 247.0
Test time: 551.0
Accumulative iteration time: 6926.0
Weighted Recall: 0.9017521902377973
Weighted FalsePositiveRate: 0.10480663181336171
Kappa statistic: 0.8018844532606001
Training time: 0.0
		
Iteration: 28
Labeled set size: 859
Unlabelled set size: 739
	
Mean region size: 59.011264080100126
Incorrectly Classified Instances: 9.887359198998748
Correctly Classified Instances: 90.11264080100125
Weighted Precision: 0.9086415643516881
Weighted AreaUnderROC: 0.9541025419671798
Root mean squared error: 0.28115782063445904
Relative absolute error: 23.570948119383157
Root relative squared error: 56.23156412689181
Weighted TruePositiveRate: 0.9011264080100125
Weighted MatthewsCorrelation: 0.8087088203671223
Weighted FMeasure: 0.900317760881915
Iteration time: 247.0
Weighted AreaUnderPRC: 0.9399138658191891
Mean absolute error: 0.11785474059691578
Coverage of cases: 94.99374217772215
Instances selection time: 247.0
Test time: 568.0
Accumulative iteration time: 7173.0
Weighted Recall: 0.9011264080100125
Weighted FalsePositiveRate: 0.10560447677418798
Kappa statistic: 0.8005885577176725
Training time: 0.0
		
Iteration: 29
Labeled set size: 879
Unlabelled set size: 719
	
Mean region size: 58.854818523153945
Incorrectly Classified Instances: 9.887359198998748
Correctly Classified Instances: 90.11264080100125
Weighted Precision: 0.9086415643516881
Weighted AreaUnderROC: 0.9541606171667152
Root mean squared error: 0.28180512818647296
Relative absolute error: 23.538804366135516
Root relative squared error: 56.361025637294595
Weighted TruePositiveRate: 0.9011264080100125
Weighted MatthewsCorrelation: 0.8087088203671223
Weighted FMeasure: 0.900317760881915
Iteration time: 245.0
Weighted AreaUnderPRC: 0.939987674686382
Mean absolute error: 0.11769402183067758
Coverage of cases: 94.93116395494368
Instances selection time: 245.0
Test time: 560.0
Accumulative iteration time: 7418.0
Weighted Recall: 0.9011264080100125
Weighted FalsePositiveRate: 0.10560447677418798
Kappa statistic: 0.8005885577176725
Training time: 0.0
		
Iteration: 30
Labeled set size: 899
Unlabelled set size: 699
	
Mean region size: 58.729662077597
Incorrectly Classified Instances: 9.887359198998748
Correctly Classified Instances: 90.11264080100125
Weighted Precision: 0.9086415643516881
Weighted AreaUnderROC: 0.9550890355592877
Root mean squared error: 0.28132342544884764
Relative absolute error: 23.382973603246686
Root relative squared error: 56.26468508976953
Weighted TruePositiveRate: 0.9011264080100125
Weighted MatthewsCorrelation: 0.8087088203671223
Weighted FMeasure: 0.900317760881915
Iteration time: 242.0
Weighted AreaUnderPRC: 0.9410718769982714
Mean absolute error: 0.11691486801623344
Coverage of cases: 94.93116395494368
Instances selection time: 242.0
Test time: 574.0
Accumulative iteration time: 7660.0
Weighted Recall: 0.9011264080100125
Weighted FalsePositiveRate: 0.10560447677418798
Kappa statistic: 0.8005885577176725
Training time: 0.0
		
Iteration: 31
Labeled set size: 919
Unlabelled set size: 679
	
Mean region size: 58.729662077597
Incorrectly Classified Instances: 10.075093867334168
Correctly Classified Instances: 89.92490613266584
Weighted Precision: 0.9074458467268075
Weighted AreaUnderROC: 0.9543105139655159
Root mean squared error: 0.2836515285996551
Relative absolute error: 23.64315236611175
Root relative squared error: 56.73030571993102
Weighted TruePositiveRate: 0.8992490613266583
Weighted MatthewsCorrelation: 0.805580809693641
Weighted FMeasure: 0.898364228510009
Iteration time: 239.0
Weighted AreaUnderPRC: 0.9403767989049009
Mean absolute error: 0.11821576183055875
Coverage of cases: 94.80600750938673
Instances selection time: 239.0
Test time: 585.0
Accumulative iteration time: 7899.0
Weighted Recall: 0.8992490613266583
Weighted FalsePositiveRate: 0.10777198925847489
Kappa statistic: 0.7967444733943967
Training time: 0.0
		
Iteration: 32
Labeled set size: 939
Unlabelled set size: 659
	
Mean region size: 58.76095118898623
Incorrectly Classified Instances: 9.887359198998748
Correctly Classified Instances: 90.11264080100125
Weighted Precision: 0.9092276352645458
Weighted AreaUnderROC: 0.9549673915602609
Root mean squared error: 0.2824667782419076
Relative absolute error: 23.548515963006526
Root relative squared error: 56.49335564838152
Weighted TruePositiveRate: 0.9011264080100125
Weighted MatthewsCorrelation: 0.809267046636707
Weighted FMeasure: 0.9002701678703456
Iteration time: 236.0
Weighted AreaUnderPRC: 0.9411626589020605
Mean absolute error: 0.11774257981503264
Coverage of cases: 94.8685857321652
Instances selection time: 236.0
Test time: 590.0
Accumulative iteration time: 8135.0
Weighted Recall: 0.9011264080100125
Weighted FalsePositiveRate: 0.10583049917237979
Kappa statistic: 0.8005431888884852
Training time: 0.0
		
Iteration: 33
Labeled set size: 959
Unlabelled set size: 639
	
Mean region size: 58.69837296620776
Incorrectly Classified Instances: 9.449311639549437
Correctly Classified Instances: 90.55068836045056
Weighted Precision: 0.9138858197913248
Weighted AreaUnderROC: 0.9563690443490477
Root mean squared error: 0.27993127649347543
Relative absolute error: 23.174450729754252
Root relative squared error: 55.986255298695085
Weighted TruePositiveRate: 0.9055068836045056
Weighted MatthewsCorrelation: 0.8183453899834398
Weighted FMeasure: 0.9046770093478965
Iteration time: 235.0
Weighted AreaUnderPRC: 0.9430388215102886
Mean absolute error: 0.11587225364877125
Coverage of cases: 94.93116395494368
Instances selection time: 235.0
Test time: 601.0
Accumulative iteration time: 8370.0
Weighted Recall: 0.9055068836045056
Weighted FalsePositiveRate: 0.10148870763665103
Kappa statistic: 0.80936904026431
Training time: 0.0
		
Iteration: 34
Labeled set size: 979
Unlabelled set size: 619
	
Mean region size: 58.60450563204005
Incorrectly Classified Instances: 9.51188986232791
Correctly Classified Instances: 90.4881101376721
Weighted Precision: 0.9133952173454168
Weighted AreaUnderROC: 0.956331373949349
Root mean squared error: 0.28051463955627776
Relative absolute error: 23.161979878182194
Root relative squared error: 56.10292791125555
Weighted TruePositiveRate: 0.904881101376721
Weighted MatthewsCorrelation: 0.8172154192212852
Weighted FMeasure: 0.9040340061160447
Iteration time: 230.0
Weighted AreaUnderPRC: 0.9431141131410994
Mean absolute error: 0.11580989939091098
Coverage of cases: 94.8685857321652
Instances selection time: 230.0
Test time: 608.0
Accumulative iteration time: 8600.0
Weighted Recall: 0.904881101376721
Weighted FalsePositiveRate: 0.10217354139838139
Kappa statistic: 0.8080956677416858
Training time: 0.0
		
Iteration: 35
Labeled set size: 999
Unlabelled set size: 599
	
Mean region size: 58.94868585732165
Incorrectly Classified Instances: 9.449311639549437
Correctly Classified Instances: 90.55068836045056
Weighted Precision: 0.9138858197913248
Weighted AreaUnderROC: 0.9569105563447157
Root mean squared error: 0.2774467809465125
Relative absolute error: 23.067403029853153
Root relative squared error: 55.4893561893025
Weighted TruePositiveRate: 0.9055068836045056
Weighted MatthewsCorrelation: 0.8183453899834398
Weighted FMeasure: 0.9046770093478965
Iteration time: 226.0
Weighted AreaUnderPRC: 0.9439395958869374
Mean absolute error: 0.11533701514926577
Coverage of cases: 95.05632040050062
Instances selection time: 226.0
Test time: 621.0
Accumulative iteration time: 8826.0
Weighted Recall: 0.9055068836045056
Weighted FalsePositiveRate: 0.10148870763665103
Kappa statistic: 0.80936904026431
Training time: 0.0
		
Iteration: 36
Labeled set size: 1019
Unlabelled set size: 579
	
Mean region size: 59.16770963704631
Incorrectly Classified Instances: 9.386733416770964
Correctly Classified Instances: 90.61326658322903
Weighted Precision: 0.9143773528110257
Weighted AreaUnderROC: 0.9571318699429452
Root mean squared error: 0.27746369681520694
Relative absolute error: 23.26672886975289
Root relative squared error: 55.49273936304139
Weighted TruePositiveRate: 0.9061326658322904
Weighted MatthewsCorrelation: 0.8194761796164397
Weighted FMeasure: 0.9053197796237458
Iteration time: 224.0
Weighted AreaUnderPRC: 0.9443243378058945
Mean absolute error: 0.11633364434876445
Coverage of cases: 95.1188986232791
Instances selection time: 223.0
Test time: 630.0
Accumulative iteration time: 9050.0
Weighted Recall: 0.9061326658322904
Weighted FalsePositiveRate: 0.10080387387492071
Kappa statistic: 0.8106422679321061
Training time: 1.0
		
Iteration: 37
Labeled set size: 1039
Unlabelled set size: 559
	
Mean region size: 59.230287859824784
Incorrectly Classified Instances: 9.386733416770964
Correctly Classified Instances: 90.61326658322903
Weighted Precision: 0.9137824274188611
Weighted AreaUnderROC: 0.9566918161832615
Root mean squared error: 0.277760925882449
Relative absolute error: 23.31806851869962
Root relative squared error: 55.5521851764898
Weighted TruePositiveRate: 0.9061326658322904
Weighted MatthewsCorrelation: 0.8189080125629167
Weighted FMeasure: 0.9053649628625773
Iteration time: 218.0
Weighted AreaUnderPRC: 0.9443118040856968
Mean absolute error: 0.1165903425934981
Coverage of cases: 95.1188986232791
Instances selection time: 218.0
Test time: 638.0
Accumulative iteration time: 9268.0
Weighted Recall: 0.9061326658322904
Weighted FalsePositiveRate: 0.10057785147672889
Kappa statistic: 0.8106853396053851
Training time: 0.0
		
Iteration: 38
Labeled set size: 1059
Unlabelled set size: 539
	
Mean region size: 59.26157697121402
Incorrectly Classified Instances: 9.386733416770964
Correctly Classified Instances: 90.61326658322903
Weighted Precision: 0.9129344406955023
Weighted AreaUnderROC: 0.9573414115412687
Root mean squared error: 0.2775087119266001
Relative absolute error: 23.31721835129181
Root relative squared error: 55.50174238532002
Weighted TruePositiveRate: 0.9061326658322904
Weighted MatthewsCorrelation: 0.8180989790563238
Weighted FMeasure: 0.905430387861111
Iteration time: 212.0
Weighted AreaUnderPRC: 0.9448716619407115
Mean absolute error: 0.11658609175645905
Coverage of cases: 95.1188986232791
Instances selection time: 212.0
Test time: 649.0
Accumulative iteration time: 9480.0
Weighted Recall: 0.9061326658322904
Weighted FalsePositiveRate: 0.10023881787944114
Kappa statistic: 0.810749910388464
Training time: 0.0
		
Iteration: 39
Labeled set size: 1079
Unlabelled set size: 519
	
Mean region size: 59.26157697121402
Incorrectly Classified Instances: 9.073842302878598
Correctly Classified Instances: 90.9261576971214
Weighted Precision: 0.9160020504353846
Weighted AreaUnderROC: 0.959516877123865
Root mean squared error: 0.2741219960768319
Relative absolute error: 22.932887404571275
Root relative squared error: 54.824399215366384
Weighted TruePositiveRate: 0.909261576971214
Weighted MatthewsCorrelation: 0.8243332098426657
Weighted FMeasure: 0.9085929846916291
Iteration time: 209.0
Weighted AreaUnderPRC: 0.9476488239275205
Mean absolute error: 0.11466443702285638
Coverage of cases: 95.30663329161452
Instances selection time: 209.0
Test time: 673.0
Accumulative iteration time: 9689.0
Weighted Recall: 0.909261576971214
Weighted FalsePositiveRate: 0.09704067146898127
Kappa statistic: 0.8170686456400742
Training time: 0.0
		
Iteration: 40
Labeled set size: 1099
Unlabelled set size: 499
	
Mean region size: 59.19899874843554
Incorrectly Classified Instances: 8.635794743429287
Correctly Classified Instances: 91.36420525657071
Weighted Precision: 0.9193003492338812
Weighted AreaUnderROC: 0.9605347627157219
Root mean squared error: 0.27034436090119884
Relative absolute error: 22.451984849567513
Root relative squared error: 54.068872180239765
Weighted TruePositiveRate: 0.9136420525657072
Weighted MatthewsCorrelation: 0.8321079420838933
Weighted FMeasure: 0.9130905391395218
Iteration time: 204.0
Weighted AreaUnderPRC: 0.9488607723573522
Mean absolute error: 0.11225992424783757
Coverage of cases: 95.43178973717147
Instances selection time: 204.0
Test time: 667.0
Accumulative iteration time: 9893.0
Weighted Recall: 0.9136420525657072
Weighted FalsePositiveRate: 0.09213382393777295
Kappa statistic: 0.8259888360906433
Training time: 0.0
		
Iteration: 41
Labeled set size: 1119
Unlabelled set size: 479
	
Mean region size: 59.386733416770966
Incorrectly Classified Instances: 8.385481852315394
Correctly Classified Instances: 91.6145181476846
Weighted Precision: 0.9216050184162027
Weighted AreaUnderROC: 0.961780240305758
Root mean squared error: 0.26746144751750817
Relative absolute error: 22.295940741593373
Root relative squared error: 53.49228950350163
Weighted TruePositiveRate: 0.9161451814768461
Weighted MatthewsCorrelation: 0.836950530698251
Weighted FMeasure: 0.9156271902952711
Iteration time: 197.0
Weighted AreaUnderPRC: 0.9505482215780519
Mean absolute error: 0.11147970370796687
Coverage of cases: 95.61952440550688
Instances selection time: 197.0
Test time: 693.0
Accumulative iteration time: 10090.0
Weighted Recall: 0.9161451814768461
Weighted FalsePositiveRate: 0.08950750008994751
Kappa statistic: 0.8310518351135595
Training time: 0.0
		
Iteration: 42
Labeled set size: 1139
Unlabelled set size: 459
	
Mean region size: 59.48060075093867
Incorrectly Classified Instances: 8.260325406758447
Correctly Classified Instances: 91.73967459324155
Weighted Precision: 0.9226365771269007
Weighted AreaUnderROC: 0.961489864308081
Root mean squared error: 0.2680753443601371
Relative absolute error: 22.383448501081286
Root relative squared error: 53.615068872027415
Weighted TruePositiveRate: 0.9173967459324155
Weighted MatthewsCorrelation: 0.8392561411637802
Weighted FMeasure: 0.9169034883429467
Iteration time: 192.0
Weighted AreaUnderPRC: 0.9502744937866258
Mean absolute error: 0.11191724250540643
Coverage of cases: 95.55694618272841
Instances selection time: 192.0
Test time: 687.0
Accumulative iteration time: 10282.0
Weighted Recall: 0.9173967459324155
Weighted FalsePositiveRate: 0.08813783256648683
Kappa statistic: 0.833592355863823
Training time: 0.0
		
Iteration: 43
Labeled set size: 1159
Unlabelled set size: 439
	
Mean region size: 59.57446808510638
Incorrectly Classified Instances: 8.07259073842303
Correctly Classified Instances: 91.92740926157697
Weighted Precision: 0.9241914694580862
Weighted AreaUnderROC: 0.9637752018897985
Root mean squared error: 0.2638339191162429
Relative absolute error: 22.036521597133014
Root relative squared error: 52.76678382324857
Weighted TruePositiveRate: 0.9192740926157698
Weighted MatthewsCorrelation: 0.8427213923500321
Weighted FMeasure: 0.9188164713369509
Iteration time: 188.0
Weighted AreaUnderPRC: 0.9530298994046343
Mean absolute error: 0.11018260798566507
Coverage of cases: 95.8072590738423
Instances selection time: 188.0
Test time: 700.0
Accumulative iteration time: 10470.0
Weighted Recall: 0.9192740926157698
Weighted FalsePositiveRate: 0.08608333128129579
Kappa statistic: 0.8374020548950073
Training time: 0.0
		
Iteration: 44
Labeled set size: 1179
Unlabelled set size: 419
	
Mean region size: 59.54317897371715
Incorrectly Classified Instances: 7.509386733416771
Correctly Classified Instances: 92.49061326658322
Weighted Precision: 0.9289114913952228
Weighted AreaUnderROC: 0.9670605868247169
Root mean squared error: 0.25568183641560605
Relative absolute error: 21.162057794186037
Root relative squared error: 51.13636728312121
Weighted TruePositiveRate: 0.9249061326658323
Weighted MatthewsCorrelation: 0.853167450577357
Weighted FMeasure: 0.9245452785157499
Iteration time: 180.0
Weighted AreaUnderPRC: 0.9573309355875989
Mean absolute error: 0.10581028897093019
Coverage of cases: 96.18272841051314
Instances selection time: 180.0
Test time: 711.0
Accumulative iteration time: 10650.0
Weighted Recall: 0.9249061326658323
Weighted FalsePositiveRate: 0.07991982742572273
Kappa statistic: 0.8488233671015808
Training time: 0.0
		
Iteration: 45
Labeled set size: 1199
Unlabelled set size: 399
	
Mean region size: 59.57446808510638
Incorrectly Classified Instances: 7.321652065081351
Correctly Classified Instances: 92.67834793491865
Weighted Precision: 0.9303021550225542
Weighted AreaUnderROC: 0.9675053562599571
Root mean squared error: 0.2551598225271432
Relative absolute error: 21.177348646236208
Root relative squared error: 51.03196450542864
Weighted TruePositiveRate: 0.9267834793491865
Weighted MatthewsCorrelation: 0.8564740779170694
Weighted FMeasure: 0.9264646745568488
Iteration time: 174.0
Weighted AreaUnderPRC: 0.9576223101524031
Mean absolute error: 0.10588674323118104
Coverage of cases: 96.24530663329162
Instances selection time: 174.0
Test time: 716.0
Accumulative iteration time: 10824.0
Weighted Recall: 0.9267834793491865
Weighted FalsePositiveRate: 0.0777523149414358
Kappa statistic: 0.8526446039990228
Training time: 0.0
		
Iteration: 46
Labeled set size: 1219
Unlabelled set size: 379
	
Mean region size: 59.57446808510638
Incorrectly Classified Instances: 7.196495619524406
Correctly Classified Instances: 92.8035043804756
Weighted Precision: 0.9315703615591556
Weighted AreaUnderROC: 0.9693739650450083
Root mean squared error: 0.2507488184248168
Relative absolute error: 20.748558444940066
Root relative squared error: 50.149763684963354
Weighted TruePositiveRate: 0.928035043804756
Weighted MatthewsCorrelation: 0.859004286665302
Weighted FMeasure: 0.927721688666988
Iteration time: 164.0
Weighted AreaUnderPRC: 0.9599276664216674
Mean absolute error: 0.10374279222470033
Coverage of cases: 96.49561952440551
Instances selection time: 164.0
Test time: 724.0
Accumulative iteration time: 10988.0
Weighted Recall: 0.928035043804756
Weighted FalsePositiveRate: 0.07649565861707103
Kappa statistic: 0.8551634996571592
Training time: 0.0
		
Time end:Sat Oct 07 13.21.24 EEST 2017