Sat Oct 07 13.34.39 EEST 2017
Dataset: kr-vs-kp
Test set size: 1598
Initial Labelled set size: 319
Initial Unlabelled set size: 1279
Batch mode: QBestBatchMode
Batch size: 20
Classifiers: RandomForest-1cores
Scenario: PoolBasedSamplingScenario
Query strategy: RandomSelectionQueryStrategy-1cores
Time begining: Sat Oct 07 13.34.39 EEST 2017
		
Iteration: 1
Labeled set size: 319
Unlabelled set size: 1279
	
Mean region size: 86.35794743429287
Incorrectly Classified Instances: 7.133917396745932
Correctly Classified Instances: 92.86608260325407
Weighted Precision: 0.9292272276955692
Weighted AreaUnderROC: 0.9797952214144915
Root mean squared error: 0.2541617086083625
Relative absolute error: 35.85725823033315
Root relative squared error: 50.832341721672506
Weighted TruePositiveRate: 0.9286608260325406
Weighted MatthewsCorrelation: 0.8574886975181456
Weighted FMeasure: 0.9285692677344007
Iteration time: 30.0
Weighted AreaUnderPRC: 0.9744205729685053
Mean absolute error: 0.17928629115166575
Coverage of cases: 99.93742177722153
Instances selection time: 5.0
Test time: 8.0
Accumulative iteration time: 30.0
Weighted Recall: 0.9286608260325406
Weighted FalsePositiveRate: 0.07337123571526571
Kappa statistic: 0.8567956280579068
Training time: 25.0
		
Iteration: 2
Labeled set size: 339
Unlabelled set size: 1259
	
Mean region size: 81.38297872340425
Incorrectly Classified Instances: 3.566958698372966
Correctly Classified Instances: 96.43304130162703
Weighted Precision: 0.9644400304990652
Weighted AreaUnderROC: 0.9886860145391541
Root mean squared error: 0.222165394272235
Relative absolute error: 29.188843510528308
Root relative squared error: 44.433078854447
Weighted TruePositiveRate: 0.9643304130162703
Weighted MatthewsCorrelation: 0.9286550782252108
Weighted FMeasure: 0.964339490837988
Iteration time: 14.0
Weighted AreaUnderPRC: 0.9850737496464924
Mean absolute error: 0.14594421755264153
Coverage of cases: 99.87484355444306
Instances selection time: 4.0
Test time: 7.0
Accumulative iteration time: 44.0
Weighted Recall: 0.9643304130162703
Weighted FalsePositiveRate: 0.03520251114928225
Kappa statistic: 0.9285668351734186
Training time: 10.0
		
Iteration: 3
Labeled set size: 359
Unlabelled set size: 1239
	
Mean region size: 80.819774718398
Incorrectly Classified Instances: 6.07008760951189
Correctly Classified Instances: 93.92991239048811
Weighted Precision: 0.9393249893539889
Weighted AreaUnderROC: 0.9860391791279017
Root mean squared error: 0.23492200106751818
Relative absolute error: 30.403935377652314
Root relative squared error: 46.98440021350363
Weighted TruePositiveRate: 0.9392991239048811
Weighted MatthewsCorrelation: 0.8783606795911362
Weighted FMeasure: 0.9392821815519837
Iteration time: 15.0
Weighted AreaUnderPRC: 0.9835195250489165
Mean absolute error: 0.15201967688826157
Coverage of cases: 99.93742177722153
Instances selection time: 3.0
Test time: 8.0
Accumulative iteration time: 59.0
Weighted Recall: 0.9392991239048811
Weighted FalsePositiveRate: 0.06142864541856021
Kappa statistic: 0.8783046850097589
Training time: 12.0
		
Iteration: 4
Labeled set size: 379
Unlabelled set size: 1219
	
Mean region size: 81.07008760951189
Incorrectly Classified Instances: 4.130162703379224
Correctly Classified Instances: 95.86983729662077
Weighted Precision: 0.9590311816085104
Weighted AreaUnderROC: 0.9885439815686717
Root mean squared error: 0.21519291833627166
Relative absolute error: 27.261323105346612
Root relative squared error: 43.03858366725433
Weighted TruePositiveRate: 0.9586983729662077
Weighted MatthewsCorrelation: 0.9176167518853168
Weighted FMeasure: 0.9587145626735005
Iteration time: 15.0
Weighted AreaUnderPRC: 0.9849543825599968
Mean absolute error: 0.13630661552673307
Coverage of cases: 99.93742177722153
Instances selection time: 3.0
Test time: 7.0
Accumulative iteration time: 74.0
Weighted Recall: 0.9586983729662077
Weighted FalsePositiveRate: 0.040361838005694504
Kappa statistic: 0.9173287598216581
Training time: 12.0
		
Iteration: 5
Labeled set size: 399
Unlabelled set size: 1199
	
Mean region size: 81.13266583229036
Incorrectly Classified Instances: 3.1914893617021276
Correctly Classified Instances: 96.80851063829788
Weighted Precision: 0.9684453087924293
Weighted AreaUnderROC: 0.9890768013861163
Root mean squared error: 0.2123855635103973
Relative absolute error: 27.65154165273852
Root relative squared error: 42.47711270207946
Weighted TruePositiveRate: 0.9680851063829787
Weighted MatthewsCorrelation: 0.9364451789117817
Weighted FMeasure: 0.9680979789084233
Iteration time: 15.0
Weighted AreaUnderPRC: 0.9870126127295388
Mean absolute error: 0.1382577082636926
Coverage of cases: 99.87484355444306
Instances selection time: 3.0
Test time: 7.0
Accumulative iteration time: 89.0
Weighted Recall: 0.9680851063829787
Weighted FalsePositiveRate: 0.030884081862281147
Kappa statistic: 0.936121183049046
Training time: 12.0
		
Iteration: 6
Labeled set size: 419
Unlabelled set size: 1179
	
Mean region size: 86.07634543178973
Incorrectly Classified Instances: 5.381727158948686
Correctly Classified Instances: 94.61827284105131
Weighted Precision: 0.946318889845658
Weighted AreaUnderROC: 0.9854922344846636
Root mean squared error: 0.2470128038398346
Relative absolute error: 35.5556116598529
Root relative squared error: 49.40256076796692
Weighted TruePositiveRate: 0.9461827284105131
Weighted MatthewsCorrelation: 0.8923304608979618
Weighted FMeasure: 0.946197415977576
Iteration time: 18.0
Weighted AreaUnderPRC: 0.9822937527472184
Mean absolute error: 0.17777805829926452
Coverage of cases: 100.0
Instances selection time: 3.0
Test time: 9.0
Accumulative iteration time: 107.0
Weighted Recall: 0.9461827284105131
Weighted FalsePositiveRate: 0.053365045384159364
Kappa statistic: 0.8922295622933644
Training time: 15.0
		
Iteration: 7
Labeled set size: 439
Unlabelled set size: 1159
	
Mean region size: 77.15894868585733
Incorrectly Classified Instances: 3.254067584480601
Correctly Classified Instances: 96.7459324155194
Weighted Precision: 0.9676279349751489
Weighted AreaUnderROC: 0.9951700942910594
Root mean squared error: 0.1861173930350229
Relative absolute error: 22.43574691196699
Root relative squared error: 37.22347860700458
Weighted TruePositiveRate: 0.967459324155194
Weighted MatthewsCorrelation: 0.9349875035657679
Weighted FMeasure: 0.9674693269820722
Iteration time: 16.0
Weighted AreaUnderPRC: 0.9936147322359431
Mean absolute error: 0.11217873455983496
Coverage of cases: 100.0
Instances selection time: 3.0
Test time: 7.0
Accumulative iteration time: 123.0
Weighted Recall: 0.967459324155194
Weighted FalsePositiveRate: 0.03189677942657898
Kappa statistic: 0.934843632873636
Training time: 13.0
		
Iteration: 8
Labeled set size: 459
Unlabelled set size: 1139
	
Mean region size: 82.97872340425532
Incorrectly Classified Instances: 3.566958698372966
Correctly Classified Instances: 96.43304130162703
Weighted Precision: 0.9643291822848657
Weighted AreaUnderROC: 0.9926299797858049
Root mean squared error: 0.21296769184283917
Relative absolute error: 28.770665713093486
Root relative squared error: 42.593538368567835
Weighted TruePositiveRate: 0.9643304130162703
Weighted MatthewsCorrelation: 0.9285204769094049
Weighted FMeasure: 0.9643294193030775
Iteration time: 18.0
Weighted AreaUnderPRC: 0.9903235488203087
Mean absolute error: 0.14385332856546743
Coverage of cases: 100.0
Instances selection time: 3.0
Test time: 8.0
Accumulative iteration time: 141.0
Weighted Recall: 0.9643304130162703
Weighted FalsePositiveRate: 0.035861669686326966
Kappa statistic: 0.9285197468064368
Training time: 15.0
		
Iteration: 9
Labeled set size: 479
Unlabelled set size: 1119
	
Mean region size: 82.1964956195244
Incorrectly Classified Instances: 3.1289111389236544
Correctly Classified Instances: 96.87108886107634
Weighted Precision: 0.9687716697773507
Weighted AreaUnderROC: 0.9934468655442137
Root mean squared error: 0.20952505223915258
Relative absolute error: 27.77439213546816
Root relative squared error: 41.90501044783051
Weighted TruePositiveRate: 0.9687108886107635
Weighted MatthewsCorrelation: 0.9373761346026308
Weighted FMeasure: 0.9687169752225423
Iteration time: 18.0
Weighted AreaUnderPRC: 0.9915627043523408
Mean absolute error: 0.1388719606773408
Coverage of cases: 100.0
Instances selection time: 2.0
Test time: 9.0
Accumulative iteration time: 159.0
Weighted Recall: 0.9687108886107635
Weighted FalsePositiveRate: 0.030969981859724497
Kappa statistic: 0.937329007806029
Training time: 16.0
		
Iteration: 10
Labeled set size: 499
Unlabelled set size: 1099
	
Mean region size: 80.66332916145181
Incorrectly Classified Instances: 3.6295369211514394
Correctly Classified Instances: 96.37046307884856
Weighted Precision: 0.9637046307884856
Weighted AreaUnderROC: 0.9944057842731051
Root mean squared error: 0.20861374613283862
Relative absolute error: 27.482809343286917
Root relative squared error: 41.72274922656772
Weighted TruePositiveRate: 0.9637046307884856
Weighted MatthewsCorrelation: 0.9272697025625571
Weighted FMeasure: 0.9637046307884856
Iteration time: 19.0
Weighted AreaUnderPRC: 0.9927528051839464
Mean absolute error: 0.1374140467164346
Coverage of cases: 100.0
Instances selection time: 3.0
Test time: 8.0
Accumulative iteration time: 178.0
Weighted Recall: 0.9637046307884856
Weighted FalsePositiveRate: 0.03643492822592832
Kappa statistic: 0.9272697025625571
Training time: 16.0
		
Iteration: 11
Labeled set size: 519
Unlabelled set size: 1079
	
Mean region size: 81.44555694618273
Incorrectly Classified Instances: 2.753441802252816
Correctly Classified Instances: 97.24655819774718
Weighted Precision: 0.972525091308747
Weighted AreaUnderROC: 0.9935214132359034
Root mean squared error: 0.2018682623255609
Relative absolute error: 26.310209190058785
Root relative squared error: 40.37365246511218
Weighted TruePositiveRate: 0.9724655819774718
Weighted MatthewsCorrelation: 0.9448970317807095
Weighted FMeasure: 0.9724709381958372
Iteration time: 18.0
Weighted AreaUnderPRC: 0.9915325619077107
Mean absolute error: 0.13155104595029393
Coverage of cases: 100.0
Instances selection time: 3.0
Test time: 8.0
Accumulative iteration time: 196.0
Weighted Recall: 0.9724655819774718
Weighted FalsePositiveRate: 0.02720085135359398
Kappa statistic: 0.9448495268693053
Training time: 15.0
		
Iteration: 12
Labeled set size: 539
Unlabelled set size: 1059
	
Mean region size: 80.66332916145181
Incorrectly Classified Instances: 4.192740926157697
Correctly Classified Instances: 95.8072590738423
Weighted Precision: 0.9581020638080954
Weighted AreaUnderROC: 0.9921309026077567
Root mean squared error: 0.20825251831776004
Relative absolute error: 26.833988914714592
Root relative squared error: 41.65050366355201
Weighted TruePositiveRate: 0.958072590738423
Weighted MatthewsCorrelation: 0.9160250306178028
Weighted FMeasure: 0.9580779357295013
Iteration time: 19.0
Weighted AreaUnderPRC: 0.9898946473068242
Mean absolute error: 0.13416994457357295
Coverage of cases: 99.93742177722153
Instances selection time: 3.0
Test time: 8.0
Accumulative iteration time: 215.0
Weighted Recall: 0.958072590738423
Weighted FalsePositiveRate: 0.0418139745946888
Kappa statistic: 0.9160070353698354
Training time: 16.0
		
Iteration: 13
Labeled set size: 559
Unlabelled set size: 1039
	
Mean region size: 81.19524405506884
Incorrectly Classified Instances: 3.6295369211514394
Correctly Classified Instances: 96.37046307884856
Weighted Precision: 0.9637972555380887
Weighted AreaUnderROC: 0.9924957939407635
Root mean squared error: 0.2015808961414518
Relative absolute error: 26.119658058038485
Root relative squared error: 40.31617922829036
Weighted TruePositiveRate: 0.9637046307884856
Weighted MatthewsCorrelation: 0.9273824668924947
Weighted FMeasure: 0.9637131708619627
Iteration time: 20.0
Weighted AreaUnderPRC: 0.9902447427763703
Mean absolute error: 0.13059829029019243
Coverage of cases: 99.93742177722153
Instances selection time: 3.0
Test time: 8.0
Accumulative iteration time: 235.0
Weighted Recall: 0.9637046307884856
Weighted FalsePositiveRate: 0.03588562944505773
Kappa statistic: 0.9273096312934688
Training time: 17.0
		
Iteration: 14
Labeled set size: 579
Unlabelled set size: 1019
	
Mean region size: 75.28160200250313
Incorrectly Classified Instances: 2.3779724655819776
Correctly Classified Instances: 97.62202753441802
Weighted Precision: 0.9763434398724946
Weighted AreaUnderROC: 0.996412294248371
Root mean squared error: 0.17143826622631794
Relative absolute error: 19.55986649979122
Root relative squared error: 34.28765324526359
Weighted TruePositiveRate: 0.9762202753441802
Weighted MatthewsCorrelation: 0.9524882050986196
Weighted FMeasure: 0.9762267651993939
Iteration time: 20.0
Weighted AreaUnderPRC: 0.9950694976625236
Mean absolute error: 0.0977993324989561
Coverage of cases: 99.93742177722153
Instances selection time: 2.0
Test time: 8.0
Accumulative iteration time: 255.0
Weighted Recall: 0.9762202753441802
Weighted FalsePositiveRate: 0.023212001335115227
Kappa statistic: 0.952380504269161
Training time: 18.0
		
Iteration: 15
Labeled set size: 599
Unlabelled set size: 999
	
Mean region size: 79.47434292866083
Incorrectly Classified Instances: 3.7546933667083855
Correctly Classified Instances: 96.24530663329162
Weighted Precision: 0.9625666556466023
Weighted AreaUnderROC: 0.993222437756601
Root mean squared error: 0.20433050741451464
Relative absolute error: 25.84411731595689
Root relative squared error: 40.86610148290293
Weighted TruePositiveRate: 0.9624530663329162
Weighted MatthewsCorrelation: 0.9248466058920908
Weighted FMeasure: 0.962435727098002
Iteration time: 22.0
Weighted AreaUnderPRC: 0.991695732985055
Mean absolute error: 0.12922058657978444
Coverage of cases: 100.0
Instances selection time: 2.0
Test time: 9.0
Accumulative iteration time: 277.0
Weighted Recall: 0.9624530663329162
Weighted FalsePositiveRate: 0.03846032335452399
Kappa statistic: 0.9247038571603585
Training time: 20.0
		
Iteration: 16
Labeled set size: 619
Unlabelled set size: 979
	
Mean region size: 77.94117647058823
Incorrectly Classified Instances: 3.1289111389236544
Correctly Classified Instances: 96.87108886107634
Weighted Precision: 0.9687716697773507
Weighted AreaUnderROC: 0.9946459063116
Root mean squared error: 0.18573707945844894
Relative absolute error: 22.07751230391351
Root relative squared error: 37.14741589168979
Weighted TruePositiveRate: 0.9687108886107635
Weighted MatthewsCorrelation: 0.9373761346026308
Weighted FMeasure: 0.9687169752225423
Iteration time: 21.0
Weighted AreaUnderPRC: 0.9931021907809164
Mean absolute error: 0.11038756151956755
Coverage of cases: 100.0
Instances selection time: 2.0
Test time: 8.0
Accumulative iteration time: 298.0
Weighted Recall: 0.9687108886107635
Weighted FalsePositiveRate: 0.030969981859724497
Kappa statistic: 0.937329007806029
Training time: 19.0
		
Iteration: 17
Labeled set size: 639
Unlabelled set size: 959
	
Mean region size: 79.63078848560701
Incorrectly Classified Instances: 2.6282853566958697
Correctly Classified Instances: 97.37171464330413
Weighted Precision: 0.9737232698390887
Weighted AreaUnderROC: 0.9927798598817282
Root mean squared error: 0.1917233476054451
Relative absolute error: 23.978699807640165
Root relative squared error: 38.34466952108902
Weighted TruePositiveRate: 0.9737171464330413
Weighted MatthewsCorrelation: 0.9473335807639199
Weighted FMeasure: 0.9737140933192825
Iteration time: 24.0
Weighted AreaUnderPRC: 0.9906241260627958
Mean absolute error: 0.11989349903820083
Coverage of cases: 99.93742177722153
Instances selection time: 3.0
Test time: 9.0
Accumulative iteration time: 322.0
Weighted Recall: 0.9737171464330413
Weighted FalsePositiveRate: 0.026603633055261852
Kappa statistic: 0.9473216584306068
Training time: 21.0
		
Iteration: 18
Labeled set size: 659
Unlabelled set size: 939
	
Mean region size: 80.94493116395495
Incorrectly Classified Instances: 3.44180225281602
Correctly Classified Instances: 96.55819774718398
Weighted Precision: 0.9656241957604792
Weighted AreaUnderROC: 0.9944191243863548
Root mean squared error: 0.2030650309296944
Relative absolute error: 26.604715424932284
Root relative squared error: 40.613006185938886
Weighted TruePositiveRate: 0.9655819774718398
Weighted MatthewsCorrelation: 0.9310568557175511
Weighted FMeasure: 0.9655723709830837
Iteration time: 24.0
Weighted AreaUnderPRC: 0.992660229618252
Mean absolute error: 0.13302357712466142
Coverage of cases: 100.0
Instances selection time: 3.0
Test time: 9.0
Accumulative iteration time: 346.0
Weighted Recall: 0.9655819774718398
Weighted FalsePositiveRate: 0.0350447318756466
Kappa statistic: 0.9309975018096571
Training time: 21.0
		
Iteration: 19
Labeled set size: 679
Unlabelled set size: 919
	
Mean region size: 77.37797246558198
Incorrectly Classified Instances: 1.6270337922403004
Correctly Classified Instances: 98.3729662077597
Weighted Precision: 0.9837309116145021
Weighted AreaUnderROC: 0.9955585270003893
Root mean squared error: 0.17775456485574345
Relative absolute error: 21.90019386978803
Root relative squared error: 35.55091297114869
Weighted TruePositiveRate: 0.983729662077597
Weighted MatthewsCorrelation: 0.9673962240635188
Weighted FMeasure: 0.9837287427123979
Iteration time: 23.0
Weighted AreaUnderPRC: 0.9941813770653709
Mean absolute error: 0.10950096934894014
Coverage of cases: 99.93742177722153
Instances selection time: 2.0
Test time: 9.0
Accumulative iteration time: 369.0
Weighted Recall: 0.983729662077597
Weighted FalsePositiveRate: 0.01644275861607302
Kappa statistic: 0.9673931810405176
Training time: 21.0
		
Iteration: 20
Labeled set size: 699
Unlabelled set size: 899
	
Mean region size: 79.03629536921152
Incorrectly Classified Instances: 2.127659574468085
Correctly Classified Instances: 97.87234042553192
Weighted Precision: 0.9787400933521319
Weighted AreaUnderROC: 0.9961211658945095
Root mean squared error: 0.18854621586139395
Relative absolute error: 23.912074091213263
Root relative squared error: 37.70924317227879
Weighted TruePositiveRate: 0.9787234042553191
Weighted MatthewsCorrelation: 0.957386402002598
Weighted FMeasure: 0.978725607658549
Iteration time: 24.0
Weighted AreaUnderPRC: 0.9951061843538217
Mean absolute error: 0.11956037045606631
Coverage of cases: 100.0
Instances selection time: 2.0
Test time: 9.0
Accumulative iteration time: 393.0
Weighted Recall: 0.9787234042553191
Weighted FalsePositiveRate: 0.021138686689058023
Kappa statistic: 0.9573743637379258
Training time: 22.0
		
Iteration: 21
Labeled set size: 719
Unlabelled set size: 879
	
Mean region size: 80.75719649561952
Incorrectly Classified Instances: 3.1914893617021276
Correctly Classified Instances: 96.80851063829788
Weighted Precision: 0.9680947122430145
Weighted AreaUnderROC: 0.994321035318342
Root mean squared error: 0.19533433923136012
Relative absolute error: 25.01570590689318
Root relative squared error: 39.066867846272025
Weighted TruePositiveRate: 0.9680851063829787
Weighted MatthewsCorrelation: 0.9360483365569118
Weighted FMeasure: 0.9680804092935967
Iteration time: 26.0
Weighted AreaUnderPRC: 0.9926767260335578
Mean absolute error: 0.1250785295344659
Coverage of cases: 100.0
Instances selection time: 2.0
Test time: 9.0
Accumulative iteration time: 419.0
Weighted Recall: 0.9680851063829787
Weighted FalsePositiveRate: 0.03231225869254468
Kappa statistic: 0.9360299277395169
Training time: 24.0
		
Iteration: 22
Labeled set size: 739
Unlabelled set size: 859
	
Mean region size: 75.96996245306633
Incorrectly Classified Instances: 2.690863579474343
Correctly Classified Instances: 97.30913642052566
Weighted Precision: 0.9731174212221694
Weighted AreaUnderROC: 0.9960364169397466
Root mean squared error: 0.17671635197751667
Relative absolute error: 20.54516675255819
Root relative squared error: 35.34327039550333
Weighted TruePositiveRate: 0.9730913642052565
Weighted MatthewsCorrelation: 0.9460949981581793
Weighted FMeasure: 0.9730856712676985
Iteration time: 23.0
Weighted AreaUnderPRC: 0.9947571577230435
Mean absolute error: 0.10272583376279094
Coverage of cases: 100.0
Instances selection time: 2.0
Test time: 9.0
Accumulative iteration time: 442.0
Weighted Recall: 0.9730913642052565
Weighted FalsePositiveRate: 0.027396611107211446
Kappa statistic: 0.9460585212526945
Training time: 21.0
		
Iteration: 23
Labeled set size: 759
Unlabelled set size: 839
	
Mean region size: 74.2177722152691
Incorrectly Classified Instances: 3.44180225281602
Correctly Classified Instances: 96.55819774718398
Weighted Precision: 0.9659261879004408
Weighted AreaUnderROC: 0.9939443732971738
Root mean squared error: 0.18151754216824817
Relative absolute error: 20.438208668694823
Root relative squared error: 36.30350843364963
Weighted TruePositiveRate: 0.9655819774718398
Weighted MatthewsCorrelation: 0.9313327836609895
Weighted FMeasure: 0.965553049592884
Iteration time: 25.0
Weighted AreaUnderPRC: 0.9920329186586885
Mean absolute error: 0.10219104334347412
Coverage of cases: 99.87484355444306
Instances selection time: 1.0
Test time: 9.0
Accumulative iteration time: 467.0
Weighted Recall: 0.9655819774718398
Weighted FalsePositiveRate: 0.03581375016886543
Kappa statistic: 0.9309443705008557
Training time: 24.0
		
Iteration: 24
Labeled set size: 779
Unlabelled set size: 819
	
Mean region size: 77.34668335419273
Incorrectly Classified Instances: 2.690863579474343
Correctly Classified Instances: 97.30913642052566
Weighted Precision: 0.9731382547337621
Weighted AreaUnderROC: 0.9949762702926666
Root mean squared error: 0.18190715200368127
Relative absolute error: 21.809780961946807
Root relative squared error: 36.38143040073626
Weighted TruePositiveRate: 0.9730913642052565
Weighted MatthewsCorrelation: 0.9461129060393841
Weighted FMeasure: 0.9730838536776835
Iteration time: 27.0
Weighted AreaUnderPRC: 0.9935592951172592
Mean absolute error: 0.10904890480973403
Coverage of cases: 100.0
Instances selection time: 2.0
Test time: 10.0
Accumulative iteration time: 494.0
Weighted Recall: 0.9730913642052565
Weighted FalsePositiveRate: 0.027506470863385566
Kappa statistic: 0.9460525923239137
Training time: 25.0
		
Iteration: 25
Labeled set size: 799
Unlabelled set size: 799
	
Mean region size: 75.96996245306633
Incorrectly Classified Instances: 2.753441802252816
Correctly Classified Instances: 97.24655819774718
Weighted Precision: 0.9724655230370519
Weighted AreaUnderROC: 0.9949707773048577
Root mean squared error: 0.17900563122314103
Relative absolute error: 20.811952440550513
Root relative squared error: 35.80112624462821
Weighted TruePositiveRate: 0.9724655819774718
Weighted MatthewsCorrelation: 0.9448222014677725
Weighted FMeasure: 0.9724640261286732
Iteration time: 27.0
Weighted AreaUnderPRC: 0.9934378852503591
Mean absolute error: 0.10405976220275256
Coverage of cases: 100.0
Instances selection time: 2.0
Test time: 9.0
Accumulative iteration time: 521.0
Weighted Recall: 0.9724655819774718
Weighted FalsePositiveRate: 0.02775015013446457
Kappa statistic: 0.9448192294531835
Training time: 25.0
		
Iteration: 26
Labeled set size: 819
Unlabelled set size: 779
	
Mean region size: 76.09511889862328
Incorrectly Classified Instances: 2.1902377972465583
Correctly Classified Instances: 97.80976220275345
Weighted Precision: 0.9781476273826174
Weighted AreaUnderROC: 0.9976050573154043
Root mean squared error: 0.16972676023747293
Relative absolute error: 20.29616972514329
Root relative squared error: 33.94535204749459
Weighted TruePositiveRate: 0.9780976220275344
Weighted MatthewsCorrelation: 0.9561502729206062
Weighted FMeasure: 0.9780915088074168
Iteration time: 27.0
Weighted AreaUnderPRC: 0.9968464934651781
Mean absolute error: 0.10148084862571645
Coverage of cases: 100.0
Instances selection time: 2.0
Test time: 9.0
Accumulative iteration time: 548.0
Weighted Recall: 0.9780976220275344
Weighted FalsePositiveRate: 0.02248096352187821
Kappa statistic: 0.956089319333418
Training time: 25.0
		
Iteration: 27
Labeled set size: 839
Unlabelled set size: 759
	
Mean region size: 74.4055068836045
Incorrectly Classified Instances: 2.002503128911139
Correctly Classified Instances: 97.99749687108886
Weighted Precision: 0.9803164438393044
Weighted AreaUnderROC: 0.9982226260876117
Root mean squared error: 0.16136808075497597
Relative absolute error: 18.6523886695976
Root relative squared error: 32.273616150995196
Weighted TruePositiveRate: 0.9799749687108886
Weighted MatthewsCorrelation: 0.9601907258090984
Weighted FMeasure: 0.9799590439824537
Iteration time: 28.0
Weighted AreaUnderPRC: 0.9976095089297986
Mean absolute error: 0.09326194334798799
Coverage of cases: 100.0
Instances selection time: 2.0
Test time: 9.0
Accumulative iteration time: 576.0
Weighted Recall: 0.9799749687108886
Weighted FalsePositiveRate: 0.02131048668394472
Kappa statistic: 0.9598243888335434
Training time: 26.0
		
Iteration: 28
Labeled set size: 859
Unlabelled set size: 739
	
Mean region size: 77.53441802252816
Incorrectly Classified Instances: 2.1902377972465583
Correctly Classified Instances: 97.80976220275345
Weighted Precision: 0.9781476273826174
Weighted AreaUnderROC: 0.9971350145014878
Root mean squared error: 0.16897841460133514
Relative absolute error: 20.58204057592983
Root relative squared error: 33.795682920267026
Weighted TruePositiveRate: 0.9780976220275344
Weighted MatthewsCorrelation: 0.9561502729206062
Weighted FMeasure: 0.9780915088074168
Iteration time: 29.0
Weighted AreaUnderPRC: 0.9962134040223679
Mean absolute error: 0.10291020287964915
Coverage of cases: 100.0
Instances selection time: 1.0
Test time: 10.0
Accumulative iteration time: 605.0
Weighted Recall: 0.9780976220275344
Weighted FalsePositiveRate: 0.02248096352187821
Kappa statistic: 0.956089319333418
Training time: 28.0
		
Iteration: 29
Labeled set size: 879
Unlabelled set size: 719
	
Mean region size: 74.93742177722153
Incorrectly Classified Instances: 2.690863579474343
Correctly Classified Instances: 97.30913642052566
Weighted Precision: 0.9732365417142618
Weighted AreaUnderROC: 0.9943955830100317
Root mean squared error: 0.17099158599333683
Relative absolute error: 19.194345495972364
Root relative squared error: 34.19831719866737
Weighted TruePositiveRate: 0.9730913642052565
Weighted MatthewsCorrelation: 0.9462024717400245
Weighted FMeasure: 0.97307789075506
Iteration time: 29.0
Weighted AreaUnderPRC: 0.9925368343619322
Mean absolute error: 0.09597172747986182
Coverage of cases: 99.87484355444306
Instances selection time: 2.0
Test time: 9.0
Accumulative iteration time: 634.0
Weighted Recall: 0.9730913642052565
Weighted FalsePositiveRate: 0.02783605013190792
Kappa statistic: 0.9460347977149175
Training time: 27.0
		
Iteration: 30
Labeled set size: 899
Unlabelled set size: 699
	
Mean region size: 78.1602002503129
Incorrectly Classified Instances: 2.690863579474343
Correctly Classified Instances: 97.30913642052566
Weighted Precision: 0.9731174212221694
Weighted AreaUnderROC: 0.9960795761296721
Root mean squared error: 0.18446038417026386
Relative absolute error: 22.627907024303077
Root relative squared error: 36.89207683405277
Weighted TruePositiveRate: 0.9730913642052565
Weighted MatthewsCorrelation: 0.9460949981581793
Weighted FMeasure: 0.9730856712676985
Iteration time: 32.0
Weighted AreaUnderPRC: 0.9948655141735487
Mean absolute error: 0.1131395351215154
Coverage of cases: 100.0
Instances selection time: 2.0
Test time: 10.0
Accumulative iteration time: 666.0
Weighted Recall: 0.9730913642052565
Weighted FalsePositiveRate: 0.027396611107211446
Kappa statistic: 0.9460585212526945
Training time: 30.0
		
Iteration: 31
Labeled set size: 919
Unlabelled set size: 679
	
Mean region size: 72.96620775969963
Incorrectly Classified Instances: 2.565707133917397
Correctly Classified Instances: 97.4342928660826
Weighted Precision: 0.9743905978959759
Weighted AreaUnderROC: 0.9951606777405301
Root mean squared error: 0.16923784998556723
Relative absolute error: 18.54928967945227
Root relative squared error: 33.847569997113446
Weighted TruePositiveRate: 0.9743429286608261
Weighted MatthewsCorrelation: 0.9486222477596897
Weighted FMeasure: 0.9743357674601167
Iteration time: 29.0
Weighted AreaUnderPRC: 0.9936154130150886
Mean absolute error: 0.09274644839726134
Coverage of cases: 99.87484355444306
Instances selection time: 1.0
Test time: 10.0
Accumulative iteration time: 695.0
Weighted Recall: 0.9743429286608261
Weighted FalsePositiveRate: 0.026250094028008725
Kappa statistic: 0.9485617740762898
Training time: 28.0
		
Iteration: 32
Labeled set size: 939
Unlabelled set size: 659
	
Mean region size: 74.53066332916146
Incorrectly Classified Instances: 2.4405506883604504
Correctly Classified Instances: 97.55944931163955
Weighted Precision: 0.9757878643796151
Weighted AreaUnderROC: 0.9944222632365312
Root mean squared error: 0.1731566784383751
Relative absolute error: 19.717345094065823
Root relative squared error: 34.63133568767502
Weighted TruePositiveRate: 0.9755944931163955
Weighted MatthewsCorrelation: 0.951266007982621
Weighted FMeasure: 0.9755803158781875
Iteration time: 33.0
Weighted AreaUnderPRC: 0.9925671203219659
Mean absolute error: 0.09858672547032911
Coverage of cases: 99.87484355444306
Instances selection time: 1.0
Test time: 10.0
Accumulative iteration time: 728.0
Weighted Recall: 0.9755944931163955
Weighted FalsePositiveRate: 0.025433156217328362
Kappa statistic: 0.9510494344003355
Training time: 32.0
		
Iteration: 33
Labeled set size: 959
Unlabelled set size: 639
	
Mean region size: 77.15894868585733
Incorrectly Classified Instances: 3.254067584480601
Correctly Classified Instances: 96.7459324155194
Weighted Precision: 0.9676653622979712
Weighted AreaUnderROC: 0.9955867766519769
Root mean squared error: 0.18494593191982034
Relative absolute error: 22.555536140955244
Root relative squared error: 36.98918638396407
Weighted TruePositiveRate: 0.967459324155194
Weighted MatthewsCorrelation: 0.9349676622676133
Weighted FMeasure: 0.9674390777824405
Iteration time: 33.0
Weighted AreaUnderPRC: 0.9941127758834304
Mean absolute error: 0.11277768070477621
Coverage of cases: 99.93742177722153
Instances selection time: 1.0
Test time: 10.0
Accumulative iteration time: 761.0
Weighted Recall: 0.967459324155194
Weighted FalsePositiveRate: 0.033654535525364876
Kappa statistic: 0.9347289905207165
Training time: 32.0
		
Iteration: 34
Labeled set size: 979
Unlabelled set size: 619
	
Mean region size: 74.34292866082603
Incorrectly Classified Instances: 3.504380475594493
Correctly Classified Instances: 96.49561952440551
Weighted Precision: 0.9656453541219485
Weighted AreaUnderROC: 0.9941460444210077
Root mean squared error: 0.1835245977653544
Relative absolute error: 20.849167520005935
Root relative squared error: 36.70491955307088
Weighted TruePositiveRate: 0.9649561952440551
Weighted MatthewsCorrelation: 0.93040599795741
Weighted FMeasure: 0.9649112192379511
Iteration time: 33.0
Weighted AreaUnderPRC: 0.9925376642296933
Mean absolute error: 0.10424583760002967
Coverage of cases: 100.0
Instances selection time: 1.0
Test time: 10.0
Accumulative iteration time: 794.0
Weighted Recall: 0.9649561952440551
Weighted FalsePositiveRate: 0.03693630748933738
Kappa statistic: 0.9296539927301999
Training time: 32.0
		
Iteration: 35
Labeled set size: 999
Unlabelled set size: 599
	
Mean region size: 73.74843554443054
Incorrectly Classified Instances: 2.816020025031289
Correctly Classified Instances: 97.18397997496871
Weighted Precision: 0.972027949737777
Weighted AreaUnderROC: 0.9972833251723229
Root mean squared error: 0.166055737090382
Relative absolute error: 18.681776986122806
Root relative squared error: 33.2111474180764
Weighted TruePositiveRate: 0.9718397997496871
Weighted MatthewsCorrelation: 0.943733436805143
Weighted FMeasure: 0.9718234413979087
Iteration time: 31.0
Weighted AreaUnderPRC: 0.9964623945481952
Mean absolute error: 0.09340888493061403
Coverage of cases: 100.0
Instances selection time: 1.0
Test time: 10.0
Accumulative iteration time: 825.0
Weighted Recall: 0.9718397997496871
Weighted FalsePositiveRate: 0.02920228672345888
Kappa statistic: 0.9435185781542333
Training time: 30.0
		
Iteration: 36
Labeled set size: 1019
Unlabelled set size: 579
	
Mean region size: 71.27659574468085
Incorrectly Classified Instances: 2.252816020025031
Correctly Classified Instances: 97.74718397997496
Weighted Precision: 0.9775650414081433
Weighted AreaUnderROC: 0.9964483910253996
Root mean squared error: 0.16268622680218278
Relative absolute error: 17.012880684188467
Root relative squared error: 32.53724536043656
Weighted TruePositiveRate: 0.9774718397997497
Weighted MatthewsCorrelation: 0.9549355434263018
Weighted FMeasure: 0.9774631359308444
Iteration time: 32.0
Weighted AreaUnderPRC: 0.9954722423026631
Mean absolute error: 0.08506440342094233
Coverage of cases: 100.0
Instances selection time: 1.0
Test time: 9.0
Accumulative iteration time: 857.0
Weighted Recall: 0.9774718397997497
Weighted FalsePositiveRate: 0.023273941573827808
Kappa statistic: 0.9548272807794509
Training time: 31.0
		
Iteration: 37
Labeled set size: 1039
Unlabelled set size: 559
	
Mean region size: 75.46933667083854
Incorrectly Classified Instances: 2.065081351689612
Correctly Classified Instances: 97.93491864831039
Weighted Precision: 0.9793623300511834
Weighted AreaUnderROC: 0.9969827802679322
Root mean squared error: 0.1650328898507008
Relative absolute error: 19.271940816531703
Root relative squared error: 33.006577970140164
Weighted TruePositiveRate: 0.9793491864831039
Weighted MatthewsCorrelation: 0.9586264531525148
Weighted FMeasure: 0.9793461471899744
Iteration time: 36.0
Weighted AreaUnderPRC: 0.9962251689298895
Mean absolute error: 0.09635970408265852
Coverage of cases: 99.93742177722153
Instances selection time: 2.0
Test time: 10.0
Accumulative iteration time: 893.0
Weighted Recall: 0.9793491864831039
Weighted FalsePositiveRate: 0.021004867174153136
Kappa statistic: 0.9586076003020403
Training time: 34.0
		
Iteration: 38
Labeled set size: 1059
Unlabelled set size: 539
	
Mean region size: 76.34543178973718
Incorrectly Classified Instances: 2.3779724655819776
Correctly Classified Instances: 97.62202753441802
Weighted Precision: 0.9762576953424181
Weighted AreaUnderROC: 0.9958418082288096
Root mean squared error: 0.1731137570234512
Relative absolute error: 20.587387986105565
Root relative squared error: 34.62275140469024
Weighted TruePositiveRate: 0.9762202753441802
Weighted MatthewsCorrelation: 0.9523761317720189
Weighted FMeasure: 0.9762144506408666
Iteration time: 40.0
Weighted AreaUnderPRC: 0.994521315158117
Mean absolute error: 0.10293693993052783
Coverage of cases: 99.93742177722153
Instances selection time: 1.0
Test time: 11.0
Accumulative iteration time: 933.0
Weighted Recall: 0.9762202753441802
Weighted FalsePositiveRate: 0.024310598896856408
Kappa statistic: 0.952328166608049
Training time: 39.0
		
Iteration: 39
Labeled set size: 1079
Unlabelled set size: 519
	
Mean region size: 75.62578222778473
Incorrectly Classified Instances: 2.5031289111389237
Correctly Classified Instances: 97.49687108886107
Weighted Precision: 0.9751860203421403
Weighted AreaUnderROC: 0.9972872487350434
Root mean squared error: 0.16540783966327938
Relative absolute error: 19.460414227461623
Root relative squared error: 33.08156793265587
Weighted TruePositiveRate: 0.9749687108886108
Weighted MatthewsCorrelation: 0.950034048954328
Weighted FMeasure: 0.9749531367557235
Iteration time: 37.0
Weighted AreaUnderPRC: 0.9966073158168882
Mean absolute error: 0.09730207113730811
Coverage of cases: 99.93742177722153
Instances selection time: 1.0
Test time: 10.0
Accumulative iteration time: 970.0
Weighted Recall: 0.9749687108886108
Weighted FalsePositiveRate: 0.026116274513103836
Kappa statistic: 0.949791531169782
Training time: 36.0
		
Iteration: 40
Labeled set size: 1099
Unlabelled set size: 499
	
Mean region size: 75.75093867334168
Incorrectly Classified Instances: 2.5031289111389237
Correctly Classified Instances: 97.49687108886107
Weighted Precision: 0.9751379063401444
Weighted AreaUnderROC: 0.9967450123670697
Root mean squared error: 0.17274732741547025
Relative absolute error: 20.391454765611368
Root relative squared error: 34.549465483094046
Weighted TruePositiveRate: 0.9749687108886108
Weighted MatthewsCorrelation: 0.9499886144661337
Weighted FMeasure: 0.9749551836929469
Iteration time: 38.0
Weighted AreaUnderPRC: 0.9956237928526859
Mean absolute error: 0.10195727382805683
Coverage of cases: 99.93742177722153
Instances selection time: 1.0
Test time: 10.0
Accumulative iteration time: 1008.0
Weighted Recall: 0.9749687108886108
Weighted FalsePositiveRate: 0.02600641475692972
Kappa statistic: 0.9497970519119847
Training time: 37.0
		
Iteration: 41
Labeled set size: 1119
Unlabelled set size: 479
	
Mean region size: 68.17897371714643
Incorrectly Classified Instances: 2.127659574468085
Correctly Classified Instances: 97.87234042553192
Weighted Precision: 0.9793675639811646
Weighted AreaUnderROC: 0.9973366856253217
Root mean squared error: 0.15196209814379047
Relative absolute error: 14.642732275957975
Root relative squared error: 30.392419628758095
Weighted TruePositiveRate: 0.9787234042553191
Weighted MatthewsCorrelation: 0.957974967431906
Weighted FMeasure: 0.978698310023971
Iteration time: 35.0
Weighted AreaUnderPRC: 0.9964052541169177
Mean absolute error: 0.07321366137978988
Coverage of cases: 99.93742177722153
Instances selection time: 1.0
Test time: 9.0
Accumulative iteration time: 1043.0
Weighted Recall: 0.9787234042553191
Weighted FalsePositiveRate: 0.023006302544018035
Kappa statistic: 0.9572946240210273
Training time: 34.0
		
Iteration: 42
Labeled set size: 1139
Unlabelled set size: 459
	
Mean region size: 71.21401752190238
Incorrectly Classified Instances: 1.5644555694618272
Correctly Classified Instances: 98.43554443053817
Weighted Precision: 0.984386703092769
Weighted AreaUnderROC: 0.9979605320978818
Root mean squared error: 0.14841144772018702
Relative absolute error: 15.967608319923645
Root relative squared error: 29.682289544037406
Weighted TruePositiveRate: 0.9843554443053817
Weighted MatthewsCorrelation: 0.96867602266888
Weighted FMeasure: 0.9843521344579641
Iteration time: 36.0
Weighted AreaUnderPRC: 0.9972164412741552
Mean absolute error: 0.07983804159961823
Coverage of cases: 99.93742177722153
Instances selection time: 1.0
Test time: 10.0
Accumulative iteration time: 1079.0
Weighted Recall: 0.9843554443053817
Weighted FalsePositiveRate: 0.0160892195888199
Kappa statistic: 0.9686386751469154
Training time: 35.0
		
Iteration: 43
Labeled set size: 1159
Unlabelled set size: 439
	
Mean region size: 72.37171464330413
Incorrectly Classified Instances: 1.5018773466833542
Correctly Classified Instances: 98.49812265331664
Weighted Precision: 0.9849826214564411
Weighted AreaUnderROC: 0.9968886147626401
Root mean squared error: 0.15646322905536192
Relative absolute error: 17.215881801577094
Root relative squared error: 31.292645811072383
Weighted TruePositiveRate: 0.9849812265331664
Weighted MatthewsCorrelation: 0.9699044487963795
Weighted FMeasure: 0.9849803778883672
Iteration time: 38.0
Weighted AreaUnderPRC: 0.9958605580309302
Mean absolute error: 0.08607940900788547
Coverage of cases: 99.93742177722153
Instances selection time: 1.0
Test time: 10.0
Accumulative iteration time: 1117.0
Weighted Recall: 0.9849812265331664
Weighted FalsePositiveRate: 0.015186381780696182
Kappa statistic: 0.9699013978835547
Training time: 37.0
		
Iteration: 44
Labeled set size: 1179
Unlabelled set size: 419
	
Mean region size: 73.71714643304131
Incorrectly Classified Instances: 1.5018773466833542
Correctly Classified Instances: 98.49812265331664
Weighted Precision: 0.9850810853993022
Weighted AreaUnderROC: 0.99694982234108
Root mean squared error: 0.15817411422671193
Relative absolute error: 17.99811451033924
Root relative squared error: 31.634822845342388
Weighted TruePositiveRate: 0.9849812265331664
Weighted MatthewsCorrelation: 0.9699948237957334
Weighted FMeasure: 0.9849754239538964
Iteration time: 42.0
Weighted AreaUnderPRC: 0.9959847724575396
Mean absolute error: 0.0899905725516962
Coverage of cases: 99.93742177722153
Instances selection time: 1.0
Test time: 10.0
Accumulative iteration time: 1159.0
Weighted Recall: 0.9849812265331664
Weighted FalsePositiveRate: 0.015735680561566774
Kappa statistic: 0.9698848538529672
Training time: 41.0
		
Iteration: 45
Labeled set size: 1199
Unlabelled set size: 399
	
Mean region size: 69.71214017521902
Incorrectly Classified Instances: 2.002503128911139
Correctly Classified Instances: 97.99749687108886
Weighted Precision: 0.9800144177884761
Weighted AreaUnderROC: 0.9969152949891396
Root mean squared error: 0.1554683190693163
Relative absolute error: 15.603376724212575
Root relative squared error: 31.09366381386326
Weighted TruePositiveRate: 0.9799749687108886
Weighted MatthewsCorrelation: 0.9599036424733398
Weighted FMeasure: 0.979970063697572
Iteration time: 41.0
Weighted AreaUnderPRC: 0.9959754143579089
Mean absolute error: 0.07801688362106288
Coverage of cases: 99.93742177722153
Instances selection time: 1.0
Test time: 10.0
Accumulative iteration time: 1200.0
Weighted Recall: 0.9799749687108886
Weighted FalsePositiveRate: 0.020541468390725896
Kappa statistic: 0.9598552981962518
Training time: 40.0
		
Iteration: 46
Labeled set size: 1219
Unlabelled set size: 379
	
Mean region size: 75.03128911138924
Incorrectly Classified Instances: 2.252816020025031
Correctly Classified Instances: 97.74718397997496
Weighted Precision: 0.9779480960831088
Weighted AreaUnderROC: 0.9974159415922759
Root mean squared error: 0.16469003868271423
Relative absolute error: 19.36341693350446
Root relative squared error: 32.93800773654284
Weighted TruePositiveRate: 0.9774718397997497
Weighted MatthewsCorrelation: 0.9553018106697119
Weighted FMeasure: 0.9774497400697322
Iteration time: 43.0
Weighted AreaUnderPRC: 0.9965144511649598
Mean absolute error: 0.0968170846675223
Coverage of cases: 99.93742177722153
Instances selection time: 1.0
Test time: 10.0
Accumulative iteration time: 1243.0
Weighted Recall: 0.9774718397997497
Weighted FalsePositiveRate: 0.02404295986704664
Kappa statistic: 0.9547924924481271
Training time: 42.0
		
Time end:Sat Oct 07 13.34.43 EEST 2017