Sat Oct 07 13.07.21 EEST 2017
Dataset: kr-vs-kp
Test set size: 1598
Initial Labelled set size: 319
Initial Unlabelled set size: 1279
Batch mode: QBestBatchMode
Batch size: 20
Classifiers: NaiveBayes-1cores
Scenario: PoolBasedSamplingScenario
Query strategy: LeastConfidentSamplingQueryStrategy-1cores
Time begining: Sat Oct 07 13.07.21 EEST 2017
		
Iteration: 1
Labeled set size: 319
Unlabelled set size: 1279
	
Mean region size: 84.5118898623279
Incorrectly Classified Instances: 14.893617021276595
Correctly Classified Instances: 85.1063829787234
Weighted Precision: 0.8516219917424309
Weighted AreaUnderROC: 0.9476345625070624
Root mean squared error: 0.31018369219428527
Relative absolute error: 43.221643671465365
Root relative squared error: 62.03673843885705
Weighted TruePositiveRate: 0.851063829787234
Weighted MatthewsCorrelation: 0.7017850668821848
Weighted FMeasure: 0.8508059828001995
Iteration time: 17.0
Weighted AreaUnderPRC: 0.9502626752718327
Mean absolute error: 0.21610821835732683
Coverage of cases: 100.0
Instances selection time: 17.0
Test time: 23.0
Accumulative iteration time: 17.0
Weighted Recall: 0.851063829787234
Weighted FalsePositiveRate: 0.15170603853332618
Kappa statistic: 0.7008978004831891
Training time: 0.0
		
Iteration: 2
Labeled set size: 339
Unlabelled set size: 1259
	
Mean region size: 85.57571964956195
Incorrectly Classified Instances: 13.642052565707134
Correctly Classified Instances: 86.35794743429287
Weighted Precision: 0.8637711253265864
Weighted AreaUnderROC: 0.9554816879480709
Root mean squared error: 0.3004907487181236
Relative absolute error: 42.969419617906915
Root relative squared error: 60.09814974362472
Weighted TruePositiveRate: 0.8635794743429287
Weighted MatthewsCorrelation: 0.7266308290038603
Weighted FMeasure: 0.8634456482000449
Iteration time: 17.0
Weighted AreaUnderPRC: 0.9577985659754469
Mean absolute error: 0.2148470980895346
Coverage of cases: 100.0
Instances selection time: 16.0
Test time: 24.0
Accumulative iteration time: 34.0
Weighted Recall: 0.8635794743429287
Weighted FalsePositiveRate: 0.13837325188633898
Kappa statistic: 0.726243426491436
Training time: 1.0
		
Iteration: 3
Labeled set size: 359
Unlabelled set size: 1239
	
Mean region size: 86.70212765957447
Incorrectly Classified Instances: 10.763454317897372
Correctly Classified Instances: 89.23654568210263
Weighted Precision: 0.8923575607137899
Weighted AreaUnderROC: 0.968360390221854
Root mean squared error: 0.2854799940081676
Relative absolute error: 42.127376542675016
Root relative squared error: 57.09599880163352
Weighted TruePositiveRate: 0.8923654568210263
Weighted MatthewsCorrelation: 0.7842617261091821
Weighted FMeasure: 0.8923390923744492
Iteration time: 17.0
Weighted AreaUnderPRC: 0.969860724745193
Mean absolute error: 0.21063688271337508
Coverage of cases: 100.0
Instances selection time: 16.0
Test time: 23.0
Accumulative iteration time: 51.0
Weighted Recall: 0.8923654568210263
Weighted FalsePositiveRate: 0.10848784686710461
Kappa statistic: 0.7842222278048536
Training time: 1.0
		
Iteration: 4
Labeled set size: 379
Unlabelled set size: 1219
	
Mean region size: 87.29662077596996
Incorrectly Classified Instances: 7.446808510638298
Correctly Classified Instances: 92.55319148936171
Weighted Precision: 0.9255256517366031
Weighted AreaUnderROC: 0.9782807262043768
Root mean squared error: 0.2751248846365373
Relative absolute error: 41.8490972811412
Root relative squared error: 55.024976927307456
Weighted TruePositiveRate: 0.925531914893617
Weighted MatthewsCorrelation: 0.8507589207815528
Weighted FMeasure: 0.9255255150699566
Iteration time: 16.0
Weighted AreaUnderPRC: 0.9791137913273568
Mean absolute error: 0.20924548640570598
Coverage of cases: 100.0
Instances selection time: 15.0
Test time: 23.0
Accumulative iteration time: 67.0
Weighted Recall: 0.925531914893617
Weighted FalsePositiveRate: 0.07491921133918308
Kappa statistic: 0.8507528988134759
Training time: 1.0
		
Iteration: 5
Labeled set size: 399
Unlabelled set size: 1199
	
Mean region size: 88.76720901126409
Incorrectly Classified Instances: 6.570713391739675
Correctly Classified Instances: 93.42928660826033
Weighted Precision: 0.9342918588185074
Weighted AreaUnderROC: 0.9824632440644343
Root mean squared error: 0.2724275567356307
Relative absolute error: 42.393943318673216
Root relative squared error: 54.485511347126135
Weighted TruePositiveRate: 0.9342928660826032
Weighted MatthewsCorrelation: 0.8683139867701027
Weighted FMeasure: 0.9342831956044639
Iteration time: 15.0
Weighted AreaUnderPRC: 0.9830669589229966
Mean absolute error: 0.21196971659336608
Coverage of cases: 100.0
Instances selection time: 15.0
Test time: 24.0
Accumulative iteration time: 82.0
Weighted Recall: 0.9342928660826032
Weighted FalsePositiveRate: 0.06623443324771934
Kappa statistic: 0.8682969100519464
Training time: 0.0
		
Iteration: 6
Labeled set size: 419
Unlabelled set size: 1179
	
Mean region size: 89.58072590738423
Incorrectly Classified Instances: 6.4455569461827285
Correctly Classified Instances: 93.55444305381727
Weighted Precision: 0.9358255421432256
Weighted AreaUnderROC: 0.9858327997288032
Root mean squared error: 0.27125900201716896
Relative absolute error: 42.92442115670133
Root relative squared error: 54.25180040343379
Weighted TruePositiveRate: 0.9355444305381727
Weighted MatthewsCorrelation: 0.8710409076815991
Weighted FMeasure: 0.9354902565103103
Iteration time: 15.0
Weighted AreaUnderPRC: 0.9862056311063003
Mean absolute error: 0.21462210578350663
Coverage of cases: 100.0
Instances selection time: 15.0
Test time: 23.0
Accumulative iteration time: 97.0
Weighted Recall: 0.9355444305381727
Weighted FalsePositiveRate: 0.06596679421790955
Kappa statistic: 0.8706776393016024
Training time: 0.0
		
Iteration: 7
Labeled set size: 439
Unlabelled set size: 1159
	
Mean region size: 89.67459324155195
Incorrectly Classified Instances: 5.7571964956195245
Correctly Classified Instances: 94.24280350438048
Weighted Precision: 0.9429605917289133
Weighted AreaUnderROC: 0.9885651688073624
Root mean squared error: 0.2665129521024393
Relative absolute error: 42.65259860776564
Root relative squared error: 53.30259042048786
Weighted TruePositiveRate: 0.9424280350438048
Weighted MatthewsCorrelation: 0.8850728458792104
Weighted FMeasure: 0.9423601330060394
Iteration time: 15.0
Weighted AreaUnderPRC: 0.9886981837389871
Mean absolute error: 0.2132629930388282
Coverage of cases: 100.0
Instances selection time: 15.0
Test time: 23.0
Accumulative iteration time: 112.0
Weighted Recall: 0.9424280350438048
Weighted FalsePositiveRate: 0.059441230769946354
Kappa statistic: 0.8844442767627798
Training time: 0.0
		
Iteration: 8
Labeled set size: 459
Unlabelled set size: 1139
	
Mean region size: 90.39424280350438
Incorrectly Classified Instances: 5.256570713391739
Correctly Classified Instances: 94.74342928660826
Weighted Precision: 0.9482452724867814
Weighted AreaUnderROC: 0.9910150413700455
Root mean squared error: 0.26912736825068373
Relative absolute error: 43.97719110695665
Root relative squared error: 53.82547365013674
Weighted TruePositiveRate: 0.9474342928660826
Weighted MatthewsCorrelation: 0.8953741814784534
Weighted FMeasure: 0.9473553936908163
Iteration time: 15.0
Weighted AreaUnderPRC: 0.9911710987560749
Mean absolute error: 0.21988595553478327
Coverage of cases: 100.0
Instances selection time: 14.0
Test time: 23.0
Accumulative iteration time: 127.0
Weighted Recall: 0.9474342928660826
Weighted FalsePositiveRate: 0.05474530269696136
Kappa statistic: 0.8944577585718868
Training time: 1.0
		
Iteration: 9
Labeled set size: 479
Unlabelled set size: 1119
	
Mean region size: 90.4881101376721
Incorrectly Classified Instances: 5.381727158948686
Correctly Classified Instances: 94.61827284105131
Weighted Precision: 0.9466509682422306
Weighted AreaUnderROC: 0.9906446570492299
Root mean squared error: 0.270842540879625
Relative absolute error: 44.60191991297249
Root relative squared error: 54.168508175925
Weighted TruePositiveRate: 0.9461827284105131
Weighted MatthewsCorrelation: 0.8925444338994108
Weighted FMeasure: 0.9461246802213459
Iteration time: 15.0
Weighted AreaUnderPRC: 0.9908962320168238
Mean absolute error: 0.22300959956486247
Coverage of cases: 100.0
Instances selection time: 15.0
Test time: 23.0
Accumulative iteration time: 142.0
Weighted Recall: 0.9461827284105131
Weighted FalsePositiveRate: 0.05556224050764172
Kappa statistic: 0.8919924048563649
Training time: 0.0
		
Iteration: 10
Labeled set size: 499
Unlabelled set size: 1099
	
Mean region size: 90.6758448060075
Incorrectly Classified Instances: 4.8185231539424285
Correctly Classified Instances: 95.18147684605758
Weighted Precision: 0.9519750716479733
Weighted AreaUnderROC: 0.9908282797845493
Root mean squared error: 0.2724498065455781
Relative absolute error: 45.034730304610015
Root relative squared error: 54.48996130911562
Weighted TruePositiveRate: 0.9518147684605757
Weighted MatthewsCorrelation: 0.903559723858594
Weighted FMeasure: 0.9517867775030882
Iteration time: 15.0
Weighted AreaUnderPRC: 0.991127325230173
Mean absolute error: 0.22517365152305008
Coverage of cases: 100.0
Instances selection time: 14.0
Test time: 23.0
Accumulative iteration time: 157.0
Weighted Recall: 0.9518147684605757
Weighted FalsePositiveRate: 0.04930431608948829
Kappa statistic: 0.9033540115083547
Training time: 1.0
		
Iteration: 11
Labeled set size: 519
Unlabelled set size: 1079
	
Mean region size: 90.30037546933667
Incorrectly Classified Instances: 4.943679599499374
Correctly Classified Instances: 95.05632040050062
Weighted Precision: 0.9508187860501525
Weighted AreaUnderROC: 0.9896056976408403
Root mean squared error: 0.2732161326047733
Relative absolute error: 45.195546306969305
Root relative squared error: 54.643226520954656
Weighted TruePositiveRate: 0.9505632040050063
Weighted MatthewsCorrelation: 0.9011351356448566
Weighted FMeasure: 0.9505260874122805
Iteration time: 15.0
Weighted AreaUnderPRC: 0.9898873524041161
Mean absolute error: 0.22597773153484654
Coverage of cases: 100.0
Instances selection time: 14.0
Test time: 23.0
Accumulative iteration time: 172.0
Weighted Recall: 0.9505632040050063
Weighted FalsePositiveRate: 0.050780412437213374
Kappa statistic: 0.9008219143644108
Training time: 1.0
		
Iteration: 12
Labeled set size: 539
Unlabelled set size: 1059
	
Mean region size: 91.08260325406758
Incorrectly Classified Instances: 4.8185231539424285
Correctly Classified Instances: 95.18147684605758
Weighted Precision: 0.9519348517382328
Weighted AreaUnderROC: 0.99016441297224
Root mean squared error: 0.2745467328752422
Relative absolute error: 45.83774366360767
Root relative squared error: 54.909346575048446
Weighted TruePositiveRate: 0.9518147684605757
Weighted MatthewsCorrelation: 0.9035247489878643
Weighted FMeasure: 0.9517906415846422
Iteration time: 21.0
Weighted AreaUnderPRC: 0.9901432890163666
Mean absolute error: 0.22918871831803833
Coverage of cases: 100.0
Instances selection time: 20.0
Test time: 33.0
Accumulative iteration time: 193.0
Weighted Recall: 0.9518147684605757
Weighted FalsePositiveRate: 0.04919445633331418
Kappa statistic: 0.9033646377685732
Training time: 1.0
		
Iteration: 13
Labeled set size: 559
Unlabelled set size: 1039
	
Mean region size: 90.51939924906132
Incorrectly Classified Instances: 5.506883604505632
Correctly Classified Instances: 94.49311639549437
Weighted Precision: 0.9456394660044327
Weighted AreaUnderROC: 0.9899368463344509
Root mean squared error: 0.2730141700299467
Relative absolute error: 45.191889344648004
Root relative squared error: 54.602834005989344
Weighted TruePositiveRate: 0.9449311639549437
Weighted MatthewsCorrelation: 0.8902566378877961
Weighted FMeasure: 0.9448545852530403
Iteration time: 21.0
Weighted AreaUnderPRC: 0.9902327619537515
Mean absolute error: 0.22595944672324003
Coverage of cases: 100.0
Instances selection time: 20.0
Test time: 34.0
Accumulative iteration time: 214.0
Weighted Recall: 0.9449311639549437
Weighted FalsePositiveRate: 0.05714819661154093
Kappa statistic: 0.8894441072602227
Training time: 1.0
		
Iteration: 14
Labeled set size: 579
Unlabelled set size: 1019
	
Mean region size: 90.01877346683354
Incorrectly Classified Instances: 5.632040050062578
Correctly Classified Instances: 94.36795994993741
Weighted Precision: 0.9442160045651978
Weighted AreaUnderROC: 0.9883485881451907
Root mean squared error: 0.2733027194036346
Relative absolute error: 45.31345084634505
Root relative squared error: 54.66054388072692
Weighted TruePositiveRate: 0.9436795994993742
Weighted MatthewsCorrelation: 0.8875867121396482
Weighted FMeasure: 0.9436131735928645
Iteration time: 14.0
Weighted AreaUnderPRC: 0.9884561783308808
Mean absolute error: 0.22656725423172525
Coverage of cases: 100.0
Instances selection time: 13.0
Test time: 23.0
Accumulative iteration time: 228.0
Weighted Recall: 0.9436795994993742
Weighted FalsePositiveRate: 0.058184853934569514
Kappa statistic: 0.8869563577027192
Training time: 1.0
		
Iteration: 15
Labeled set size: 599
Unlabelled set size: 999
	
Mean region size: 90.17521902377972
Incorrectly Classified Instances: 5.632040050062578
Correctly Classified Instances: 94.36795994993741
Weighted Precision: 0.9443832677343744
Weighted AreaUnderROC: 0.9885871407585972
Root mean squared error: 0.2702965899717283
Relative absolute error: 44.573177001456756
Root relative squared error: 54.059317994345655
Weighted TruePositiveRate: 0.9436795994993742
Weighted MatthewsCorrelation: 0.8877417086045966
Weighted FMeasure: 0.9436012803724276
Iteration time: 14.0
Weighted AreaUnderPRC: 0.9889500911836351
Mean absolute error: 0.22286588500728377
Coverage of cases: 100.0
Instances selection time: 13.0
Test time: 22.0
Accumulative iteration time: 242.0
Weighted Recall: 0.9436795994993742
Weighted FalsePositiveRate: 0.05840457344691776
Kappa statistic: 0.8869314733343187
Training time: 1.0
		
Iteration: 16
Labeled set size: 619
Unlabelled set size: 979
	
Mean region size: 89.61201501877346
Incorrectly Classified Instances: 5.882352941176471
Correctly Classified Instances: 94.11764705882354
Weighted Precision: 0.9417852023253551
Weighted AreaUnderROC: 0.9886875839642422
Root mean squared error: 0.2693360702778524
Relative absolute error: 44.367352946533536
Root relative squared error: 53.86721405557048
Weighted TruePositiveRate: 0.9411764705882353
Weighted MatthewsCorrelation: 0.8826325942213403
Weighted FMeasure: 0.9411009751494182
Iteration time: 14.0
Weighted AreaUnderPRC: 0.9888631474041732
Mean absolute error: 0.22183676473266767
Coverage of cases: 100.0
Instances selection time: 13.0
Test time: 23.0
Accumulative iteration time: 256.0
Weighted Recall: 0.9411764705882353
Weighted FalsePositiveRate: 0.06080746736149731
Kappa statistic: 0.8819192020828355
Training time: 1.0
		
Iteration: 17
Labeled set size: 639
Unlabelled set size: 959
	
Mean region size: 89.98748435544431
Incorrectly Classified Instances: 5.944931163954943
Correctly Classified Instances: 94.05506883604505
Weighted Precision: 0.9412876235609998
Weighted AreaUnderROC: 0.9857260788228056
Root mean squared error: 0.2690120567154646
Relative absolute error: 43.825473179973166
Root relative squared error: 53.80241134309291
Weighted TruePositiveRate: 0.9405506883604505
Weighted MatthewsCorrelation: 0.8814959935382639
Weighted FMeasure: 0.940464761346865
Iteration time: 13.0
Weighted AreaUnderPRC: 0.986239997724271
Mean absolute error: 0.21912736589986584
Coverage of cases: 100.0
Instances selection time: 12.0
Test time: 23.0
Accumulative iteration time: 269.0
Weighted Recall: 0.9405506883604505
Weighted FalsePositiveRate: 0.06160044541344691
Kappa statistic: 0.8806433200042141
Training time: 1.0
		
Iteration: 18
Labeled set size: 659
Unlabelled set size: 939
	
Mean region size: 90.39424280350438
Incorrectly Classified Instances: 5.7571964956195245
Correctly Classified Instances: 94.24280350438048
Weighted Precision: 0.9430409997883338
Weighted AreaUnderROC: 0.9885934184589501
Root mean squared error: 0.2737776269614262
Relative absolute error: 45.26467728653065
Root relative squared error: 54.75552539228524
Weighted TruePositiveRate: 0.9424280350438048
Weighted MatthewsCorrelation: 0.8851469838916598
Weighted FMeasure: 0.9423541458909197
Iteration time: 13.0
Weighted AreaUnderPRC: 0.988595801875546
Mean absolute error: 0.22632338643265323
Coverage of cases: 100.0
Instances selection time: 12.0
Test time: 22.0
Accumulative iteration time: 282.0
Weighted Recall: 0.9424280350438048
Weighted FalsePositiveRate: 0.059551090526120475
Kappa statistic: 0.8844315594853284
Training time: 1.0
		
Iteration: 19
Labeled set size: 679
Unlabelled set size: 919
	
Mean region size: 90.01877346683354
Incorrectly Classified Instances: 6.007509386733417
Correctly Classified Instances: 93.99249061326658
Weighted Precision: 0.9407055807254331
Weighted AreaUnderROC: 0.9881728125353121
Root mean squared error: 0.2725959902249056
Relative absolute error: 44.79009169687434
Root relative squared error: 54.519198044981124
Weighted TruePositiveRate: 0.9399249061326659
Weighted MatthewsCorrelation: 0.8802812706978356
Weighted FMeasure: 0.9398347356466475
Iteration time: 12.0
Weighted AreaUnderPRC: 0.9884950364096838
Mean absolute error: 0.2239504584843717
Coverage of cases: 100.0
Instances selection time: 12.0
Test time: 23.0
Accumulative iteration time: 294.0
Weighted Recall: 0.9399249061326659
Weighted FalsePositiveRate: 0.06228356370922238
Kappa statistic: 0.8793802955107279
Training time: 0.0
		
Iteration: 20
Labeled set size: 699
Unlabelled set size: 899
	
Mean region size: 89.98748435544431
Incorrectly Classified Instances: 5.819774718397998
Correctly Classified Instances: 94.180225281602
Weighted Precision: 0.9424553283541338
Weighted AreaUnderROC: 0.9892761183723178
Root mean squared error: 0.2707543563475598
Relative absolute error: 44.63357011075643
Root relative squared error: 54.15087126951196
Weighted TruePositiveRate: 0.94180225281602
Weighted MatthewsCorrelation: 0.8839288451631395
Weighted FMeasure: 0.9417244649545895
Iteration time: 13.0
Weighted AreaUnderPRC: 0.9892200356997183
Mean absolute error: 0.22316785055378216
Coverage of cases: 100.0
Instances selection time: 12.0
Test time: 22.0
Accumulative iteration time: 307.0
Weighted Recall: 0.94180225281602
Weighted FalsePositiveRate: 0.06023420882189595
Kappa statistic: 0.883168951968567
Training time: 1.0
		
Iteration: 21
Labeled set size: 719
Unlabelled set size: 879
	
Mean region size: 89.98748435544431
Incorrectly Classified Instances: 6.007509386733417
Correctly Classified Instances: 93.99249061326658
Weighted Precision: 0.9407055807254331
Weighted AreaUnderROC: 0.9850041432822328
Root mean squared error: 0.2709930188625839
Relative absolute error: 44.123605415347214
Root relative squared error: 54.19860377251678
Weighted TruePositiveRate: 0.9399249061326659
Weighted MatthewsCorrelation: 0.8802812706978356
Weighted FMeasure: 0.9398347356466475
Iteration time: 12.0
Weighted AreaUnderPRC: 0.9855143479235116
Mean absolute error: 0.22061802707673606
Coverage of cases: 100.0
Instances selection time: 11.0
Test time: 22.0
Accumulative iteration time: 319.0
Weighted Recall: 0.9399249061326659
Weighted FalsePositiveRate: 0.06228356370922238
Kappa statistic: 0.8793802955107279
Training time: 1.0
		
Iteration: 22
Labeled set size: 739
Unlabelled set size: 859
	
Mean region size: 89.2991239048811
Incorrectly Classified Instances: 5.882352941176471
Correctly Classified Instances: 94.11764705882354
Weighted Precision: 0.9418708711942576
Weighted AreaUnderROC: 0.987262545984155
Root mean squared error: 0.26990124251486763
Relative absolute error: 44.13620499242808
Root relative squared error: 53.980248502973524
Weighted TruePositiveRate: 0.9411764705882353
Weighted MatthewsCorrelation: 0.8827118500381973
Weighted FMeasure: 0.941094670611202
Iteration time: 12.0
Weighted AreaUnderPRC: 0.9876101886975946
Mean absolute error: 0.2206810249621404
Coverage of cases: 100.0
Instances selection time: 11.0
Test time: 22.0
Accumulative iteration time: 331.0
Weighted Recall: 0.9411764705882353
Weighted FalsePositiveRate: 0.060917327117671435
Kappa statistic: 0.8819062054825106
Training time: 1.0
		
Iteration: 23
Labeled set size: 759
Unlabelled set size: 839
	
Mean region size: 89.17396745932416
Incorrectly Classified Instances: 6.007509386733417
Correctly Classified Instances: 93.99249061326658
Weighted Precision: 0.9407055807254331
Weighted AreaUnderROC: 0.9864433060881138
Root mean squared error: 0.2686044304825665
Relative absolute error: 43.614219013954454
Root relative squared error: 53.7208860965133
Weighted TruePositiveRate: 0.9399249061326659
Weighted MatthewsCorrelation: 0.8802812706978356
Weighted FMeasure: 0.9398347356466475
Iteration time: 12.0
Weighted AreaUnderPRC: 0.9869691622614801
Mean absolute error: 0.21807109506977226
Coverage of cases: 100.0
Instances selection time: 11.0
Test time: 23.0
Accumulative iteration time: 343.0
Weighted Recall: 0.9399249061326659
Weighted FalsePositiveRate: 0.06228356370922238
Kappa statistic: 0.8793802955107279
Training time: 1.0
		
Iteration: 24
Labeled set size: 779
Unlabelled set size: 819
	
Mean region size: 89.01752190237798
Incorrectly Classified Instances: 6.007509386733417
Correctly Classified Instances: 93.99249061326658
Weighted Precision: 0.9407055807254331
Weighted AreaUnderROC: 0.9872703931095961
Root mean squared error: 0.2664568689311482
Relative absolute error: 43.16924107329904
Root relative squared error: 53.29137378622965
Weighted TruePositiveRate: 0.9399249061326659
Weighted MatthewsCorrelation: 0.8802812706978356
Weighted FMeasure: 0.9398347356466475
Iteration time: 12.0
Weighted AreaUnderPRC: 0.9877242356004763
Mean absolute error: 0.2158462053664952
Coverage of cases: 100.0
Instances selection time: 11.0
Test time: 23.0
Accumulative iteration time: 355.0
Weighted Recall: 0.9399249061326659
Weighted FalsePositiveRate: 0.06228356370922238
Kappa statistic: 0.8793802955107279
Training time: 1.0
		
Iteration: 25
Labeled set size: 799
Unlabelled set size: 799
	
Mean region size: 88.9549436795995
Incorrectly Classified Instances: 6.007509386733417
Correctly Classified Instances: 93.99249061326658
Weighted Precision: 0.9406146729241992
Weighted AreaUnderROC: 0.9878871771692593
Root mean squared error: 0.2652514459734447
Relative absolute error: 42.9095438610336
Root relative squared error: 53.050289194688936
Weighted TruePositiveRate: 0.9399249061326659
Weighted MatthewsCorrelation: 0.8801969207549974
Weighted FMeasure: 0.9398413657305894
Iteration time: 11.0
Weighted AreaUnderPRC: 0.9882549918108902
Mean absolute error: 0.21454771930516797
Coverage of cases: 100.0
Instances selection time: 10.0
Test time: 22.0
Accumulative iteration time: 366.0
Weighted Recall: 0.9399249061326659
Weighted FalsePositiveRate: 0.062173703953048276
Kappa statistic: 0.8793935715566067
Training time: 1.0
		
Iteration: 26
Labeled set size: 819
Unlabelled set size: 779
	
Mean region size: 88.76720901126409
Incorrectly Classified Instances: 5.944931163954943
Correctly Classified Instances: 94.05506883604505
Weighted Precision: 0.9412876235609998
Weighted AreaUnderROC: 0.9897171268221027
Root mean squared error: 0.26375297495420524
Relative absolute error: 42.69792079474512
Root relative squared error: 52.75059499084105
Weighted TruePositiveRate: 0.9405506883604505
Weighted MatthewsCorrelation: 0.8814959935382639
Weighted FMeasure: 0.940464761346865
Iteration time: 11.0
Weighted AreaUnderPRC: 0.9898883397167973
Mean absolute error: 0.2134896039737256
Coverage of cases: 100.0
Instances selection time: 10.0
Test time: 23.0
Accumulative iteration time: 377.0
Weighted Recall: 0.9405506883604505
Weighted FalsePositiveRate: 0.06160044541344691
Kappa statistic: 0.8806433200042141
Training time: 1.0
		
Iteration: 27
Labeled set size: 839
Unlabelled set size: 759
	
Mean region size: 88.54818523153942
Incorrectly Classified Instances: 5.944931163954943
Correctly Classified Instances: 94.05506883604505
Weighted Precision: 0.9412876235609998
Weighted AreaUnderROC: 0.9872515600085376
Root mean squared error: 0.2627421094585852
Relative absolute error: 42.2548879004177
Root relative squared error: 52.54842189171705
Weighted TruePositiveRate: 0.9405506883604505
Weighted MatthewsCorrelation: 0.8814959935382639
Weighted FMeasure: 0.940464761346865
Iteration time: 11.0
Weighted AreaUnderPRC: 0.9875697764312443
Mean absolute error: 0.2112744395020885
Coverage of cases: 100.0
Instances selection time: 10.0
Test time: 23.0
Accumulative iteration time: 388.0
Weighted Recall: 0.9405506883604505
Weighted FalsePositiveRate: 0.06160044541344691
Kappa statistic: 0.8806433200042141
Training time: 1.0
		
Iteration: 28
Labeled set size: 859
Unlabelled set size: 739
	
Mean region size: 88.42302878598248
Incorrectly Classified Instances: 6.007509386733417
Correctly Classified Instances: 93.99249061326658
Weighted Precision: 0.9407055807254331
Weighted AreaUnderROC: 0.9885008223787464
Root mean squared error: 0.2617943494024864
Relative absolute error: 42.06842287075928
Root relative squared error: 52.35886988049728
Weighted TruePositiveRate: 0.9399249061326659
Weighted MatthewsCorrelation: 0.8802812706978356
Weighted FMeasure: 0.9398347356466475
Iteration time: 10.0
Weighted AreaUnderPRC: 0.9886181079972
Mean absolute error: 0.2103421143537964
Coverage of cases: 100.0
Instances selection time: 9.0
Test time: 23.0
Accumulative iteration time: 398.0
Weighted Recall: 0.9399249061326659
Weighted FalsePositiveRate: 0.06228356370922238
Kappa statistic: 0.8793802955107279
Training time: 1.0
		
Iteration: 29
Labeled set size: 879
Unlabelled set size: 719
	
Mean region size: 88.89236545682103
Incorrectly Classified Instances: 5.944931163954943
Correctly Classified Instances: 94.05506883604505
Weighted Precision: 0.9411993325123855
Weighted AreaUnderROC: 0.9881571182844301
Root mean squared error: 0.265111185972406
Relative absolute error: 42.868120209168225
Root relative squared error: 53.02223719448121
Weighted TruePositiveRate: 0.9405506883604505
Weighted MatthewsCorrelation: 0.8814141877136711
Weighted FMeasure: 0.940471227641785
Iteration time: 10.0
Weighted AreaUnderPRC: 0.988459087275283
Mean absolute error: 0.21434060104584113
Coverage of cases: 100.0
Instances selection time: 9.0
Test time: 25.0
Accumulative iteration time: 408.0
Weighted Recall: 0.9405506883604505
Weighted FalsePositiveRate: 0.06149058565727279
Kappa statistic: 0.8806564563119771
Training time: 1.0
		
Iteration: 30
Labeled set size: 899
Unlabelled set size: 699
	
Mean region size: 89.0488110137672
Incorrectly Classified Instances: 6.07008760951189
Correctly Classified Instances: 93.92991239048811
Weighted Precision: 0.9399433366706372
Weighted AreaUnderROC: 0.9880048840508745
Root mean squared error: 0.26266490438065343
Relative absolute error: 42.16124265584956
Root relative squared error: 52.53298087613069
Weighted TruePositiveRate: 0.9392991239048811
Weighted MatthewsCorrelation: 0.8788995302642025
Weighted FMeasure: 0.9392179903289805
Iteration time: 10.0
Weighted AreaUnderPRC: 0.9883033458120064
Mean absolute error: 0.2108062132792478
Coverage of cases: 100.0
Instances selection time: 9.0
Test time: 22.0
Accumulative iteration time: 418.0
Weighted Recall: 0.9392991239048811
Weighted FalsePositiveRate: 0.06274696249264963
Kappa statistic: 0.8781439606553872
Training time: 1.0
		
Iteration: 31
Labeled set size: 919
Unlabelled set size: 679
	
Mean region size: 88.48560700876095
Incorrectly Classified Instances: 5.882352941176471
Correctly Classified Instances: 94.11764705882354
Weighted Precision: 0.9417051788926287
Weighted AreaUnderROC: 0.9899007495574221
Root mean squared error: 0.26114959518674213
Relative absolute error: 42.12035036661217
Root relative squared error: 52.229919037348424
Weighted TruePositiveRate: 0.9411764705882353
Weighted MatthewsCorrelation: 0.8825589796187727
Weighted FMeasure: 0.9411070924192139
Iteration time: 10.0
Weighted AreaUnderPRC: 0.9902198181224715
Mean absolute error: 0.21060175183306085
Coverage of cases: 100.0
Instances selection time: 9.0
Test time: 22.0
Accumulative iteration time: 428.0
Weighted Recall: 0.9411764705882353
Weighted FalsePositiveRate: 0.060697607605323195
Kappa statistic: 0.8819321958228401
Training time: 1.0
		
Iteration: 32
Labeled set size: 939
Unlabelled set size: 659
	
Mean region size: 88.61076345431789
Incorrectly Classified Instances: 5.882352941176471
Correctly Classified Instances: 94.11764705882354
Weighted Precision: 0.9417051788926287
Weighted AreaUnderROC: 0.9886750285635365
Root mean squared error: 0.26048892740166213
Relative absolute error: 41.76010219267105
Root relative squared error: 52.097785480332426
Weighted TruePositiveRate: 0.9411764705882353
Weighted MatthewsCorrelation: 0.8825589796187727
Weighted FMeasure: 0.9411070924192139
Iteration time: 10.0
Weighted AreaUnderPRC: 0.9887744992315285
Mean absolute error: 0.20880051096335525
Coverage of cases: 100.0
Instances selection time: 9.0
Test time: 23.0
Accumulative iteration time: 438.0
Weighted Recall: 0.9411764705882353
Weighted FalsePositiveRate: 0.060697607605323195
Kappa statistic: 0.8819321958228401
Training time: 1.0
		
Iteration: 33
Labeled set size: 959
Unlabelled set size: 639
	
Mean region size: 88.48560700876095
Incorrectly Classified Instances: 5.944931163954943
Correctly Classified Instances: 94.05506883604505
Weighted Precision: 0.9411993325123855
Weighted AreaUnderROC: 0.9857590367496579
Root mean squared error: 0.26037324455472655
Relative absolute error: 41.19688726247036
Root relative squared error: 52.07464891094531
Weighted TruePositiveRate: 0.9405506883604505
Weighted MatthewsCorrelation: 0.8814141877136711
Weighted FMeasure: 0.940471227641785
Iteration time: 9.0
Weighted AreaUnderPRC: 0.9861521313145342
Mean absolute error: 0.2059844363123518
Coverage of cases: 100.0
Instances selection time: 8.0
Test time: 22.0
Accumulative iteration time: 447.0
Weighted Recall: 0.9405506883604505
Weighted FalsePositiveRate: 0.06149058565727279
Kappa statistic: 0.8806564563119771
Training time: 1.0
		
Iteration: 34
Labeled set size: 979
Unlabelled set size: 619
	
Mean region size: 88.29787234042553
Incorrectly Classified Instances: 5.882352941176471
Correctly Classified Instances: 94.11764705882354
Weighted Precision: 0.9417051788926287
Weighted AreaUnderROC: 0.9878714829183773
Root mean squared error: 0.25849758398632805
Relative absolute error: 41.05124138310814
Root relative squared error: 51.69951679726561
Weighted TruePositiveRate: 0.9411764705882353
Weighted MatthewsCorrelation: 0.8825589796187727
Weighted FMeasure: 0.9411070924192139
Iteration time: 13.0
Weighted AreaUnderPRC: 0.9880000930769391
Mean absolute error: 0.2052562069155407
Coverage of cases: 100.0
Instances selection time: 12.0
Test time: 23.0
Accumulative iteration time: 460.0
Weighted Recall: 0.9411764705882353
Weighted FalsePositiveRate: 0.060697607605323195
Kappa statistic: 0.8819321958228401
Training time: 1.0
		
Iteration: 35
Labeled set size: 999
Unlabelled set size: 599
	
Mean region size: 88.57947434292866
Incorrectly Classified Instances: 6.007509386733417
Correctly Classified Instances: 93.99249061326658
Weighted Precision: 0.9404497660563442
Weighted AreaUnderROC: 0.9854451517320175
Root mean squared error: 0.2608503650350653
Relative absolute error: 41.09425147472025
Root relative squared error: 52.17007300701306
Weighted TruePositiveRate: 0.9399249061326659
Weighted MatthewsCorrelation: 0.8800451133583349
Weighted FMeasure: 0.9398540518323888
Iteration time: 9.0
Weighted AreaUnderPRC: 0.9859236191443788
Mean absolute error: 0.20547125737360125
Coverage of cases: 100.0
Instances selection time: 7.0
Test time: 23.0
Accumulative iteration time: 469.0
Weighted Recall: 0.9399249061326659
Weighted FalsePositiveRate: 0.06195398444070003
Kappa statistic: 0.8794201148829006
Training time: 2.0
		
Iteration: 36
Labeled set size: 1019
Unlabelled set size: 579
	
Mean region size: 88.57947434292866
Incorrectly Classified Instances: 5.819774718397998
Correctly Classified Instances: 94.180225281602
Weighted Precision: 0.9423722871341861
Weighted AreaUnderROC: 0.9865735683704345
Root mean squared error: 0.2585729117399233
Relative absolute error: 40.744790918606896
Root relative squared error: 51.71458234798466
Weighted TruePositiveRate: 0.94180225281602
Weighted MatthewsCorrelation: 0.8838521452735888
Weighted FMeasure: 0.9417306097667537
Iteration time: 9.0
Weighted AreaUnderPRC: 0.9868772569832902
Mean absolute error: 0.2037239545930345
Coverage of cases: 100.0
Instances selection time: 8.0
Test time: 23.0
Accumulative iteration time: 478.0
Weighted Recall: 0.94180225281602
Weighted FalsePositiveRate: 0.06012434906572184
Kappa statistic: 0.8831818088921239
Training time: 1.0
		
Iteration: 37
Labeled set size: 1039
Unlabelled set size: 559
	
Mean region size: 88.39173967459324
Incorrectly Classified Instances: 5.694618272841051
Correctly Classified Instances: 94.30538172715895
Weighted Precision: 0.9434115368181992
Weighted AreaUnderROC: 0.986148254171532
Root mean squared error: 0.25900371460838667
Relative absolute error: 40.60057262078466
Root relative squared error: 51.80074292167733
Weighted TruePositiveRate: 0.9430538172715894
Weighted MatthewsCorrelation: 0.8861685115955881
Weighted FMeasure: 0.94300066616723
Iteration time: 9.0
Weighted AreaUnderPRC: 0.986530716684416
Mean absolute error: 0.2030028631039233
Coverage of cases: 100.0
Instances selection time: 8.0
Test time: 22.0
Accumulative iteration time: 487.0
Weighted Recall: 0.9430538172715894
Weighted FalsePositiveRate: 0.05853839296182264
Kappa statistic: 0.8857317527396624
Training time: 1.0
		
Iteration: 38
Labeled set size: 1059
Unlabelled set size: 539
	
Mean region size: 88.92365456821027
Incorrectly Classified Instances: 6.320400500625782
Correctly Classified Instances: 93.67959949937422
Weighted Precision: 0.9372036754631397
Weighted AreaUnderROC: 0.9850700591359373
Root mean squared error: 0.26056015282394523
Relative absolute error: 40.6208327085853
Root relative squared error: 52.112030564789045
Weighted TruePositiveRate: 0.9367959949937422
Weighted MatthewsCorrelation: 0.8736632265401049
Weighted FMeasure: 0.9367309326502066
Iteration time: 8.0
Weighted AreaUnderPRC: 0.9855207443887789
Mean absolute error: 0.20310416354292649
Coverage of cases: 100.0
Instances selection time: 7.0
Test time: 23.0
Accumulative iteration time: 495.0
Weighted Recall: 0.9367959949937422
Weighted FalsePositiveRate: 0.06493013689488096
Kappa statistic: 0.8731608488112023
Training time: 1.0
		
Iteration: 39
Labeled set size: 1079
Unlabelled set size: 519
	
Mean region size: 88.61076345431789
Incorrectly Classified Instances: 6.007509386733417
Correctly Classified Instances: 93.99249061326658
Weighted Precision: 0.9402445269779437
Weighted AreaUnderROC: 0.9854420128818411
Root mean squared error: 0.26136255641049144
Relative absolute error: 40.751930362153
Root relative squared error: 52.272511282098286
Weighted TruePositiveRate: 0.9399249061326659
Weighted MatthewsCorrelation: 0.8798595075519425
Weighted FMeasure: 0.9398716480707268
Iteration time: 8.0
Weighted AreaUnderPRC: 0.9858579427733347
Mean absolute error: 0.20375965181076497
Coverage of cases: 100.0
Instances selection time: 6.0
Test time: 23.0
Accumulative iteration time: 503.0
Weighted Recall: 0.9399249061326659
Weighted FalsePositiveRate: 0.061624405172177675
Kappa statistic: 0.8794599079731463
Training time: 2.0
		
Iteration: 40
Labeled set size: 1099
Unlabelled set size: 499
	
Mean region size: 88.79849812265331
Incorrectly Classified Instances: 6.257822277847309
Correctly Classified Instances: 93.74217772215269
Weighted Precision: 0.9376792382838172
Weighted AreaUnderROC: 0.9844281642748628
Root mean squared error: 0.2604235169088345
Relative absolute error: 40.18317864005924
Root relative squared error: 52.08470338176689
Weighted TruePositiveRate: 0.9374217772215269
Weighted MatthewsCorrelation: 0.8747849676299085
Weighted FMeasure: 0.9373720124451674
Iteration time: 8.0
Weighted AreaUnderPRC: 0.9849244220192617
Mean absolute error: 0.20091589320029618
Coverage of cases: 100.0
Instances selection time: 7.0
Test time: 22.0
Accumulative iteration time: 511.0
Weighted Recall: 0.9374217772215269
Weighted FalsePositiveRate: 0.06402729908675725
Kappa statistic: 0.8744512151048229
Training time: 1.0
		
Iteration: 41
Labeled set size: 1119
Unlabelled set size: 479
	
Mean region size: 88.5168961201502
Incorrectly Classified Instances: 6.570713391739675
Correctly Classified Instances: 93.42928660826033
Weighted Precision: 0.934518328543959
Weighted AreaUnderROC: 0.9840028500759602
Root mean squared error: 0.2636976871509625
Relative absolute error: 40.67709767332504
Root relative squared error: 52.7395374301925
Weighted TruePositiveRate: 0.9342928660826032
Weighted MatthewsCorrelation: 0.8684828972650929
Weighted FMeasure: 0.9342435339023981
Iteration time: 8.0
Weighted AreaUnderPRC: 0.9845235364044604
Mean absolute error: 0.20338548836662518
Coverage of cases: 100.0
Instances selection time: 6.0
Test time: 23.0
Accumulative iteration time: 519.0
Weighted Recall: 0.9342928660826032
Weighted FalsePositiveRate: 0.06711331129711227
Kappa statistic: 0.8681810254210522
Training time: 2.0
		
Iteration: 42
Labeled set size: 1139
Unlabelled set size: 459
	
Mean region size: 88.45431789737171
Incorrectly Classified Instances: 6.132665832290363
Correctly Classified Instances: 93.86733416770964
Weighted Precision: 0.9388819436322298
Weighted AreaUnderROC: 0.9846573003377402
Root mean squared error: 0.2617261521313445
Relative absolute error: 40.36661008528205
Root relative squared error: 52.3452304262689
Weighted TruePositiveRate: 0.9386733416770964
Weighted MatthewsCorrelation: 0.8772522590598717
Weighted FMeasure: 0.9386299758112479
Iteration time: 7.0
Weighted AreaUnderPRC: 0.9850850844113166
Mean absolute error: 0.20183305042641025
Coverage of cases: 100.0
Instances selection time: 6.0
Test time: 23.0
Accumulative iteration time: 526.0
Weighted Recall: 0.9386733416770964
Weighted FalsePositiveRate: 0.06266106249520628
Kappa statistic: 0.8769757225724144
Training time: 1.0
		
Iteration: 43
Labeled set size: 1159
Unlabelled set size: 439
	
Mean region size: 88.36045056320401
Incorrectly Classified Instances: 6.570713391739675
Correctly Classified Instances: 93.42928660826033
Weighted Precision: 0.9344708159643484
Weighted AreaUnderROC: 0.9811182467638455
Root mean squared error: 0.2635393393853989
Relative absolute error: 39.815711828649505
Root relative squared error: 52.707867877079785
Weighted TruePositiveRate: 0.9342928660826032
Weighted MatthewsCorrelation: 0.8684425590407898
Weighted FMeasure: 0.9342492193428269
Iteration time: 7.0
Weighted AreaUnderPRC: 0.9818441953970614
Mean absolute error: 0.19907855914324754
Coverage of cases: 100.0
Instances selection time: 5.0
Test time: 24.0
Accumulative iteration time: 533.0
Weighted Recall: 0.9342928660826032
Weighted FalsePositiveRate: 0.06700345154093816
Kappa statistic: 0.8681955221512274
Training time: 2.0
		
Iteration: 44
Labeled set size: 1179
Unlabelled set size: 419
	
Mean region size: 88.20400500625782
Incorrectly Classified Instances: 6.6958698372966206
Correctly Classified Instances: 93.30413016270337
Weighted Precision: 0.9332644471973287
Weighted AreaUnderROC: 0.9829733072180998
Root mean squared error: 0.2624627766058947
Relative absolute error: 39.95942976643049
Root relative squared error: 52.49255532117893
Weighted TruePositiveRate: 0.9330413016270338
Weighted MatthewsCorrelation: 0.8659711866204954
Weighted FMeasure: 0.9329910297862534
Iteration time: 7.0
Weighted AreaUnderPRC: 0.9835211829701858
Mean absolute error: 0.19979714883215244
Coverage of cases: 100.0
Instances selection time: 5.0
Test time: 23.0
Accumulative iteration time: 540.0
Weighted Recall: 0.9330413016270338
Weighted FalsePositiveRate: 0.06836968813248911
Kappa statistic: 0.8656701878100248
Training time: 2.0
		
Iteration: 45
Labeled set size: 1199
Unlabelled set size: 399
	
Mean region size: 88.14142678347935
Incorrectly Classified Instances: 6.758448060075094
Correctly Classified Instances: 93.2415519399249
Weighted Precision: 0.9325301011290851
Weighted AreaUnderROC: 0.980967581955378
Root mean squared error: 0.2634802459625675
Relative absolute error: 39.57827978708737
Root relative squared error: 52.696049192513506
Weighted TruePositiveRate: 0.932415519399249
Weighted MatthewsCorrelation: 0.8646263896619906
Weighted FMeasure: 0.9323789959709563
Iteration time: 7.0
Weighted AreaUnderPRC: 0.9816639352081589
Mean absolute error: 0.19789139893543684
Coverage of cases: 100.0
Instances selection time: 5.0
Test time: 23.0
Accumulative iteration time: 547.0
Weighted Recall: 0.932415519399249
Weighted FalsePositiveRate: 0.06872322715974223
Kappa statistic: 0.8644520401623584
Training time: 2.0
		
Iteration: 46
Labeled set size: 1219
Unlabelled set size: 379
	
Mean region size: 87.95369211514392
Incorrectly Classified Instances: 6.6958698372966206
Correctly Classified Instances: 93.30413016270337
Weighted Precision: 0.9332644471973287
Weighted AreaUnderROC: 0.982413022461612
Root mean squared error: 0.2618597346780419
Relative absolute error: 39.45760695439092
Root relative squared error: 52.371946935608385
Weighted TruePositiveRate: 0.9330413016270338
Weighted MatthewsCorrelation: 0.8659711866204954
Weighted FMeasure: 0.9329910297862534
Iteration time: 6.0
Weighted AreaUnderPRC: 0.9829864630439704
Mean absolute error: 0.19728803477195458
Coverage of cases: 100.0
Instances selection time: 5.0
Test time: 24.0
Accumulative iteration time: 553.0
Weighted Recall: 0.9330413016270338
Weighted FalsePositiveRate: 0.06836968813248911
Kappa statistic: 0.8656701878100248
Training time: 1.0
		
Time end:Sat Oct 07 13.07.25 EEST 2017