Sat Oct 07 13.26.55 EEST 2017
Dataset: kr-vs-kp
Test set size: 1598
Initial Labelled set size: 319
Initial Unlabelled set size: 1279
Batch mode: QBestBatchMode
Batch size: 20
Classifiers: RandomForest-1cores
Scenario: PoolBasedSamplingScenario
Query strategy: MarginSamplingQueryStrategy-1cores
Time begining: Sat Oct 07 13.26.55 EEST 2017
		
Iteration: 1
Labeled set size: 319
Unlabelled set size: 1279
	
Mean region size: 86.45181476846058
Incorrectly Classified Instances: 6.07008760951189
Correctly Classified Instances: 93.92991239048811
Weighted Precision: 0.9399403146522005
Weighted AreaUnderROC: 0.9866152361070782
Root mean squared error: 0.24045813811093197
Relative absolute error: 34.256477455467156
Root relative squared error: 48.091627622186394
Weighted TruePositiveRate: 0.9392991239048811
Weighted MatthewsCorrelation: 0.8788798318421712
Weighted FMeasure: 0.9392164013874414
Iteration time: 19.0
Weighted AreaUnderPRC: 0.9831016691364881
Mean absolute error: 0.17128238727733577
Coverage of cases: 100.0
Instances selection time: 9.0
Test time: 7.0
Accumulative iteration time: 19.0
Weighted Recall: 0.9392991239048811
Weighted FalsePositiveRate: 0.06281251651677396
Kappa statistic: 0.8781240319098248
Training time: 10.0
		
Iteration: 2
Labeled set size: 339
Unlabelled set size: 1259
	
Mean region size: 82.50938673341678
Incorrectly Classified Instances: 3.8172715894868587
Correctly Classified Instances: 96.18272841051314
Weighted Precision: 0.9618402747578628
Weighted AreaUnderROC: 0.9839696753282426
Root mean squared error: 0.22339809715741982
Relative absolute error: 29.34712007456271
Root relative squared error: 44.679619431483964
Weighted TruePositiveRate: 0.9618272841051314
Weighted MatthewsCorrelation: 0.9235187662479973
Weighted FMeasure: 0.9618303842380898
Iteration time: 14.0
Weighted AreaUnderPRC: 0.9787627414765488
Mean absolute error: 0.14673560037281355
Coverage of cases: 99.68710888610764
Instances selection time: 5.0
Test time: 7.0
Accumulative iteration time: 33.0
Weighted Recall: 0.9618272841051314
Weighted FalsePositiveRate: 0.03815850109448168
Kappa statistic: 0.9235122321735432
Training time: 9.0
		
Iteration: 3
Labeled set size: 359
Unlabelled set size: 1239
	
Mean region size: 84.73091364205257
Incorrectly Classified Instances: 6.07008760951189
Correctly Classified Instances: 93.92991239048811
Weighted Precision: 0.940673137197349
Weighted AreaUnderROC: 0.9805730609554156
Root mean squared error: 0.24632178536175697
Relative absolute error: 34.00797960488677
Root relative squared error: 49.264357072351395
Weighted TruePositiveRate: 0.9392991239048811
Weighted MatthewsCorrelation: 0.8795647892457162
Weighted FMeasure: 0.9391654331703381
Iteration time: 18.0
Weighted AreaUnderPRC: 0.9750647242289823
Mean absolute error: 0.17003989802443384
Coverage of cases: 99.7496871088861
Instances selection time: 5.0
Test time: 8.0
Accumulative iteration time: 51.0
Weighted Recall: 0.9392991239048811
Weighted FalsePositiveRate: 0.06360359491044533
Kappa statistic: 0.8780273617316612
Training time: 13.0
		
Iteration: 4
Labeled set size: 379
Unlabelled set size: 1219
	
Mean region size: 83.4793491864831
Incorrectly Classified Instances: 3.1914893617021276
Correctly Classified Instances: 96.80851063829788
Weighted Precision: 0.9681542678939691
Weighted AreaUnderROC: 0.9907644736738843
Root mean squared error: 0.21101718808087988
Relative absolute error: 28.56478979406054
Root relative squared error: 42.203437616175975
Weighted TruePositiveRate: 0.9680851063829787
Weighted MatthewsCorrelation: 0.9360897782744384
Weighted FMeasure: 0.9680736648601259
Iteration time: 18.0
Weighted AreaUnderPRC: 0.9881804974592913
Mean absolute error: 0.1428239489703027
Coverage of cases: 100.0
Instances selection time: 5.0
Test time: 8.0
Accumulative iteration time: 69.0
Weighted Recall: 0.9680851063829787
Weighted FalsePositiveRate: 0.03266629786632919
Kappa statistic: 0.9360005905366502
Training time: 13.0
		
Iteration: 5
Labeled set size: 399
Unlabelled set size: 1199
	
Mean region size: 80.85106382978724
Incorrectly Classified Instances: 4.25531914893617
Correctly Classified Instances: 95.74468085106383
Weighted Precision: 0.9574486795651148
Weighted AreaUnderROC: 0.987531882499745
Root mean squared error: 0.21549376387102018
Relative absolute error: 27.364743209713655
Root relative squared error: 43.09875277420404
Weighted TruePositiveRate: 0.9574468085106383
Weighted MatthewsCorrelation: 0.9147127285522585
Weighted FMeasure: 0.957441731178019
Iteration time: 19.0
Weighted AreaUnderPRC: 0.984265585849089
Mean absolute error: 0.13682371604856827
Coverage of cases: 100.0
Instances selection time: 6.0
Test time: 8.0
Accumulative iteration time: 88.0
Weighted Recall: 0.9574468085106383
Weighted FalsePositiveRate: 0.042952337426594066
Kappa statistic: 0.914701214046072
Training time: 13.0
		
Iteration: 6
Labeled set size: 419
Unlabelled set size: 1179
	
Mean region size: 80.94493116395495
Incorrectly Classified Instances: 3.566958698372966
Correctly Classified Instances: 96.43304130162703
Weighted Precision: 0.9645071957670407
Weighted AreaUnderROC: 0.9903665800770673
Root mean squared error: 0.20465632007271364
Relative absolute error: 26.270711373087085
Root relative squared error: 40.93126401454273
Weighted TruePositiveRate: 0.9643304130162703
Weighted MatthewsCorrelation: 0.9286584593017319
Weighted FMeasure: 0.9643092131712361
Iteration time: 19.0
Weighted AreaUnderPRC: 0.9873959655705509
Mean absolute error: 0.13135355686543543
Coverage of cases: 99.87484355444306
Instances selection time: 5.0
Test time: 8.0
Accumulative iteration time: 107.0
Weighted Recall: 0.9643304130162703
Weighted FalsePositiveRate: 0.03677530043671124
Kappa statistic: 0.9284469742793715
Training time: 14.0
		
Iteration: 7
Labeled set size: 439
Unlabelled set size: 1159
	
Mean region size: 82.72841051314143
Incorrectly Classified Instances: 2.690863579474343
Correctly Classified Instances: 97.30913642052566
Weighted Precision: 0.9731023324953402
Weighted AreaUnderROC: 0.9939821536481429
Root mean squared error: 0.19475450929484683
Relative absolute error: 26.13475177304937
Root relative squared error: 38.95090185896937
Weighted TruePositiveRate: 0.9730913642052565
Weighted MatthewsCorrelation: 0.9460766235893866
Weighted FMeasure: 0.9730872978212866
Iteration time: 19.0
Weighted AreaUnderPRC: 0.9919875597165293
Mean absolute error: 0.13067375886524685
Coverage of cases: 99.93742177722153
Instances selection time: 4.0
Test time: 8.0
Accumulative iteration time: 126.0
Weighted Recall: 0.9730913642052565
Weighted FalsePositiveRate: 0.02730063897158237
Kappa statistic: 0.9460580131098637
Training time: 15.0
		
Iteration: 8
Labeled set size: 459
Unlabelled set size: 1139
	
Mean region size: 83.82352941176471
Incorrectly Classified Instances: 3.0663329161451816
Correctly Classified Instances: 96.93366708385481
Weighted Precision: 0.9694388209318251
Weighted AreaUnderROC: 0.9919314712645483
Root mean squared error: 0.20870016827614804
Relative absolute error: 28.487275761368174
Root relative squared error: 41.74003365522961
Weighted TruePositiveRate: 0.9693366708385481
Weighted MatthewsCorrelation: 0.9386283536044735
Weighted FMeasure: 0.969323364500912
Iteration time: 22.0
Weighted AreaUnderPRC: 0.9895966278377016
Mean absolute error: 0.14243637880684087
Coverage of cases: 100.0
Instances selection time: 5.0
Test time: 9.0
Accumulative iteration time: 148.0
Weighted Recall: 0.9693366708385481
Weighted FalsePositiveRate: 0.03152265274106033
Kappa statistic: 0.9385034171749363
Training time: 17.0
		
Iteration: 9
Labeled set size: 479
Unlabelled set size: 1119
	
Mean region size: 83.32290362953692
Incorrectly Classified Instances: 3.6921151439299122
Correctly Classified Instances: 96.30788485607009
Weighted Precision: 0.9633022082669943
Weighted AreaUnderROC: 0.9868263473053892
Root mean squared error: 0.20991716402189067
Relative absolute error: 27.95033694697655
Root relative squared error: 41.98343280437813
Weighted TruePositiveRate: 0.9630788485607009
Weighted MatthewsCorrelation: 0.9261915014462723
Weighted FMeasure: 0.9630537685724879
Iteration time: 22.0
Weighted AreaUnderPRC: 0.9825488973653808
Mean absolute error: 0.13975168473488275
Coverage of cases: 99.68710888610764
Instances selection time: 5.0
Test time: 9.0
Accumulative iteration time: 170.0
Weighted Recall: 0.9630788485607009
Weighted FalsePositiveRate: 0.038144967960171916
Kappa statistic: 0.9259279627793553
Training time: 17.0
		
Iteration: 10
Labeled set size: 499
Unlabelled set size: 1099
	
Mean region size: 82.82227784730914
Incorrectly Classified Instances: 2.5031289111389237
Correctly Classified Instances: 97.49687108886107
Weighted Precision: 0.974968864151747
Weighted AreaUnderROC: 0.9954622864363016
Root mean squared error: 0.18973682211766305
Relative absolute error: 25.644381136871488
Root relative squared error: 37.94736442353261
Weighted TruePositiveRate: 0.9749687108886108
Weighted MatthewsCorrelation: 0.9498329030807648
Weighted FMeasure: 0.974967257024916
Iteration time: 23.0
Weighted AreaUnderPRC: 0.9939087320539179
Mean absolute error: 0.12822190568435743
Coverage of cases: 100.0
Instances selection time: 5.0
Test time: 9.0
Accumulative iteration time: 193.0
Weighted Recall: 0.9749687108886108
Weighted FalsePositiveRate: 0.025246137686391352
Kappa statistic: 0.9498299146198078
Training time: 18.0
		
Iteration: 11
Labeled set size: 519
Unlabelled set size: 1079
	
Mean region size: 79.41176470588235
Incorrectly Classified Instances: 3.0663329161451816
Correctly Classified Instances: 96.93366708385481
Weighted Precision: 0.9694068494305825
Weighted AreaUnderROC: 0.9916811200665511
Root mean squared error: 0.2006421910082141
Relative absolute error: 25.092547502559814
Root relative squared error: 40.128438201642815
Weighted TruePositiveRate: 0.9693366708385481
Weighted MatthewsCorrelation: 0.9385997981846381
Weighted FMeasure: 0.969325678002866
Iteration time: 24.0
Weighted AreaUnderPRC: 0.9893794518635876
Mean absolute error: 0.12546273751279907
Coverage of cases: 100.0
Instances selection time: 5.0
Test time: 8.0
Accumulative iteration time: 217.0
Weighted Recall: 0.9693366708385481
Weighted FalsePositiveRate: 0.03140964154196442
Kappa statistic: 0.9385103712999187
Training time: 19.0
		
Iteration: 12
Labeled set size: 539
Unlabelled set size: 1059
	
Mean region size: 81.91489361702128
Incorrectly Classified Instances: 2.002503128911139
Correctly Classified Instances: 97.99749687108886
Weighted Precision: 0.9799953157722676
Weighted AreaUnderROC: 0.9963781480289748
Root mean squared error: 0.18482829602159973
Relative absolute error: 24.793665241725066
Root relative squared error: 36.96565920431995
Weighted TruePositiveRate: 0.9799749687108886
Weighted MatthewsCorrelation: 0.9598820503111251
Weighted FMeasure: 0.9799712899509011
Iteration time: 25.0
Weighted AreaUnderPRC: 0.9951470917907862
Mean absolute error: 0.12396832620862533
Coverage of cases: 100.0
Instances selection time: 5.0
Test time: 9.0
Accumulative iteration time: 242.0
Weighted Recall: 0.9799749687108886
Weighted FalsePositiveRate: 0.020445534787124083
Kappa statistic: 0.9598548569687968
Training time: 20.0
		
Iteration: 13
Labeled set size: 559
Unlabelled set size: 1039
	
Mean region size: 82.22778473091364
Incorrectly Classified Instances: 2.690863579474343
Correctly Classified Instances: 97.30913642052566
Weighted Precision: 0.9731023324953402
Weighted AreaUnderROC: 0.9942332896461337
Root mean squared error: 0.19464645992079002
Relative absolute error: 26.06895160764241
Root relative squared error: 38.929291984158006
Weighted TruePositiveRate: 0.9730913642052565
Weighted MatthewsCorrelation: 0.9460766235893866
Weighted FMeasure: 0.9730872978212866
Iteration time: 26.0
Weighted AreaUnderPRC: 0.9924429968696017
Mean absolute error: 0.13034475803821205
Coverage of cases: 100.0
Instances selection time: 5.0
Test time: 9.0
Accumulative iteration time: 268.0
Weighted Recall: 0.9730913642052565
Weighted FalsePositiveRate: 0.02730063897158237
Kappa statistic: 0.9460580131098637
Training time: 21.0
		
Iteration: 14
Labeled set size: 579
Unlabelled set size: 1019
	
Mean region size: 81.13266583229036
Incorrectly Classified Instances: 3.379224030037547
Correctly Classified Instances: 96.62077596996245
Weighted Precision: 0.9663246732314318
Weighted AreaUnderROC: 0.9950612536395098
Root mean squared error: 0.1937946166129445
Relative absolute error: 25.023164257519436
Root relative squared error: 38.7589233225889
Weighted TruePositiveRate: 0.9662077596996246
Weighted MatthewsCorrelation: 0.932368371288265
Weighted FMeasure: 0.9661917806997464
Iteration time: 25.0
Weighted AreaUnderPRC: 0.9935452339402018
Mean absolute error: 0.12511582128759718
Coverage of cases: 100.0
Instances selection time: 4.0
Test time: 9.0
Accumulative iteration time: 293.0
Weighted Recall: 0.9662077596996246
Weighted FalsePositiveRate: 0.03472079915152022
Kappa statistic: 0.932224423147309
Training time: 21.0
		
Iteration: 15
Labeled set size: 599
Unlabelled set size: 999
	
Mean region size: 81.63329161451814
Incorrectly Classified Instances: 2.3779724655819776
Correctly Classified Instances: 97.62202753441802
Weighted Precision: 0.9765535741462015
Weighted AreaUnderROC: 0.989938864080489
Root mean squared error: 0.19464311024783018
Relative absolute error: 25.43924373451723
Root relative squared error: 38.92862204956604
Weighted TruePositiveRate: 0.9762202753441802
Weighted MatthewsCorrelation: 0.9526480544495763
Weighted FMeasure: 0.9762009508043447
Iteration time: 26.0
Weighted AreaUnderPRC: 0.9864784629608278
Mean absolute error: 0.12719621867258615
Coverage of cases: 99.68710888610764
Instances selection time: 5.0
Test time: 9.0
Accumulative iteration time: 319.0
Weighted Recall: 0.9762202753441802
Weighted FalsePositiveRate: 0.02511959335298568
Kappa statistic: 0.9522844889229043
Training time: 21.0
		
Iteration: 16
Labeled set size: 619
Unlabelled set size: 979
	
Mean region size: 82.44680851063829
Incorrectly Classified Instances: 2.8785982478097623
Correctly Classified Instances: 97.12140175219024
Weighted Precision: 0.9717506923382749
Weighted AreaUnderROC: 0.99533122483735
Root mean squared error: 0.18384925507172847
Relative absolute error: 24.175370170823786
Root relative squared error: 36.7698510143457
Weighted TruePositiveRate: 0.9712140175219024
Weighted MatthewsCorrelation: 0.9428027991322442
Weighted FMeasure: 0.9711823299042787
Iteration time: 27.0
Weighted AreaUnderPRC: 0.9938362350124695
Mean absolute error: 0.12087685085411894
Coverage of cases: 99.93742177722153
Instances selection time: 4.0
Test time: 9.0
Accumulative iteration time: 346.0
Weighted Recall: 0.9712140175219024
Weighted FalsePositiveRate: 0.030485252247732502
Kappa statistic: 0.9422195042579984
Training time: 23.0
		
Iteration: 17
Labeled set size: 639
Unlabelled set size: 959
	
Mean region size: 81.60200250312892
Incorrectly Classified Instances: 2.5031289111389237
Correctly Classified Instances: 97.49687108886107
Weighted Precision: 0.9752994948824472
Weighted AreaUnderROC: 0.9958845088329239
Root mean squared error: 0.18578857150368144
Relative absolute error: 24.650603462077115
Root relative squared error: 37.15771430073629
Weighted TruePositiveRate: 0.9749687108886108
Weighted MatthewsCorrelation: 0.9501357529746873
Weighted FMeasure: 0.9749483692677313
Iteration time: 31.0
Weighted AreaUnderPRC: 0.9946855739175207
Mean absolute error: 0.12325301731038557
Coverage of cases: 100.0
Instances selection time: 5.0
Test time: 10.0
Accumulative iteration time: 377.0
Weighted Recall: 0.9749687108886108
Weighted FalsePositiveRate: 0.026376249677350454
Kappa statistic: 0.9497731462346362
Training time: 26.0
		
Iteration: 18
Labeled set size: 659
Unlabelled set size: 939
	
Mean region size: 79.47434292866083
Incorrectly Classified Instances: 2.3153942428035044
Correctly Classified Instances: 97.6846057571965
Weighted Precision: 0.9769951409850548
Weighted AreaUnderROC: 0.9964244512286042
Root mean squared error: 0.17196563925050531
Relative absolute error: 21.685648727575966
Root relative squared error: 34.39312785010106
Weighted TruePositiveRate: 0.976846057571965
Weighted MatthewsCorrelation: 0.9537276057508399
Weighted FMeasure: 0.9768341897481256
Iteration time: 28.0
Weighted AreaUnderPRC: 0.9951191162137566
Mean absolute error: 0.10842824363787983
Coverage of cases: 99.93742177722153
Instances selection time: 4.0
Test time: 9.0
Accumulative iteration time: 405.0
Weighted Recall: 0.976846057571965
Weighted FalsePositiveRate: 0.02409572599396761
Kappa statistic: 0.9535585525437308
Training time: 24.0
		
Iteration: 19
Labeled set size: 679
Unlabelled set size: 919
	
Mean region size: 74.7496871088861
Incorrectly Classified Instances: 1.8147684605757197
Correctly Classified Instances: 98.18523153942428
Weighted Precision: 0.9819670008107619
Weighted AreaUnderROC: 0.9967195360262439
Root mean squared error: 0.1558683704737365
Relative absolute error: 17.44368787704193
Root relative squared error: 31.1736740947473
Weighted TruePositiveRate: 0.9818523153942428
Weighted MatthewsCorrelation: 0.9637323411298707
Weighted FMeasure: 0.9818444402148255
Iteration time: 28.0
Weighted AreaUnderPRC: 0.995631532705797
Mean absolute error: 0.08721843938520965
Coverage of cases: 99.93742177722153
Instances selection time: 4.0
Test time: 9.0
Accumulative iteration time: 433.0
Weighted Recall: 0.9818523153942428
Weighted FalsePositiveRate: 0.01895608949741261
Kappa statistic: 0.9636040632259827
Training time: 24.0
		
Iteration: 20
Labeled set size: 699
Unlabelled set size: 899
	
Mean region size: 78.5982478097622
Incorrectly Classified Instances: 2.690863579474343
Correctly Classified Instances: 97.30913642052566
Weighted Precision: 0.9733878135007854
Weighted AreaUnderROC: 0.9970256080237953
Root mean squared error: 0.17267773352436083
Relative absolute error: 21.458683473389158
Root relative squared error: 34.53554670487217
Weighted TruePositiveRate: 0.9730913642052565
Weighted MatthewsCorrelation: 0.9463382151210933
Weighted FMeasure: 0.9730707145019388
Iteration time: 30.0
Weighted AreaUnderPRC: 0.9961019529318981
Mean absolute error: 0.10729341736694578
Coverage of cases: 100.0
Instances selection time: 4.0
Test time: 9.0
Accumulative iteration time: 463.0
Weighted Recall: 0.9730913642052565
Weighted FalsePositiveRate: 0.028204728564349656
Kappa statistic: 0.9460091867827245
Training time: 26.0
		
Iteration: 21
Labeled set size: 719
Unlabelled set size: 879
	
Mean region size: 77.78473091364205
Incorrectly Classified Instances: 1.8147684605757197
Correctly Classified Instances: 98.18523153942428
Weighted Precision: 0.9820074223795787
Weighted AreaUnderROC: 0.9973261864213905
Root mean squared error: 0.16840088051078314
Relative absolute error: 20.733625365039472
Root relative squared error: 33.68017610215663
Weighted TruePositiveRate: 0.9818523153942428
Weighted MatthewsCorrelation: 0.9637707800006106
Weighted FMeasure: 0.9818430135863688
Iteration time: 32.0
Weighted AreaUnderPRC: 0.9965202504320798
Mean absolute error: 0.10366812682519735
Coverage of cases: 100.0
Instances selection time: 5.0
Test time: 10.0
Accumulative iteration time: 495.0
Weighted Recall: 0.9818523153942428
Weighted FalsePositiveRate: 0.019069100696508523
Kappa statistic: 0.9635999465883295
Training time: 27.0
		
Iteration: 22
Labeled set size: 739
Unlabelled set size: 859
	
Mean region size: 76.12640801001251
Incorrectly Classified Instances: 2.127659574468085
Correctly Classified Instances: 97.87234042553192
Weighted Precision: 0.9788969112442469
Weighted AreaUnderROC: 0.9958021048335831
Root mean squared error: 0.17229600638401601
Relative absolute error: 20.318627450980227
Root relative squared error: 34.459201276803206
Weighted TruePositiveRate: 0.9787234042553191
Weighted MatthewsCorrelation: 0.9575147946758743
Weighted FMeasure: 0.9787116371326932
Iteration time: 30.0
Weighted AreaUnderPRC: 0.9945577102204173
Mean absolute error: 0.10159313725490114
Coverage of cases: 100.0
Instances selection time: 4.0
Test time: 10.0
Accumulative iteration time: 525.0
Weighted Recall: 0.9787234042553191
Weighted FalsePositiveRate: 0.022267247106968407
Kappa statistic: 0.957321661699624
Training time: 26.0
		
Iteration: 23
Labeled set size: 759
Unlabelled set size: 839
	
Mean region size: 74.2177722152691
Incorrectly Classified Instances: 2.4405506883604504
Correctly Classified Instances: 97.55944931163955
Weighted Precision: 0.9756426026769573
Weighted AreaUnderROC: 0.9971943400224452
Root mean squared error: 0.15851367251718293
Relative absolute error: 17.742654508611846
Root relative squared error: 31.702734503436584
Weighted TruePositiveRate: 0.9755944931163955
Weighted MatthewsCorrelation: 0.9511254572772055
Weighted FMeasure: 0.9755875079125658
Iteration time: 31.0
Weighted AreaUnderPRC: 0.9962164693011417
Mean absolute error: 0.08871327254305923
Coverage of cases: 99.93742177722153
Instances selection time: 4.0
Test time: 10.0
Accumulative iteration time: 556.0
Weighted Recall: 0.9755944931163955
Weighted FalsePositiveRate: 0.02501334872104465
Kappa statistic: 0.9510648087804127
Training time: 27.0
		
Iteration: 24
Labeled set size: 779
Unlabelled set size: 819
	
Mean region size: 72.55944931163955
Incorrectly Classified Instances: 2.065081351689612
Correctly Classified Instances: 97.93491864831039
Weighted Precision: 0.9795472594875174
Weighted AreaUnderROC: 0.9973081360215349
Root mean squared error: 0.15272375607393757
Relative absolute error: 16.511800464866678
Root relative squared error: 30.544751214787514
Weighted TruePositiveRate: 0.9793491864831039
Weighted MatthewsCorrelation: 0.9587929116506106
Weighted FMeasure: 0.9793369128886105
Iteration time: 32.0
Weighted AreaUnderPRC: 0.9964038642329007
Mean absolute error: 0.08255900232433339
Coverage of cases: 100.0
Instances selection time: 4.0
Test time: 10.0
Accumulative iteration time: 588.0
Weighted Recall: 0.9793491864831039
Weighted FalsePositiveRate: 0.021695424544333975
Kappa statistic: 0.9585745640564782
Training time: 28.0
		
Iteration: 25
Labeled set size: 799
Unlabelled set size: 799
	
Mean region size: 74.93742177722153
Incorrectly Classified Instances: 1.7521902377972465
Correctly Classified Instances: 98.24780976220275
Weighted Precision: 0.9827062205688927
Weighted AreaUnderROC: 0.9967948768256409
Root mean squared error: 0.16074613426779374
Relative absolute error: 18.606119111843856
Root relative squared error: 32.14922685355875
Weighted TruePositiveRate: 0.9824780976220275
Weighted MatthewsCorrelation: 0.9650955886303323
Weighted FMeasure: 0.9824669463993808
Iteration time: 33.0
Weighted AreaUnderPRC: 0.9957448515236252
Mean absolute error: 0.09303059555921929
Coverage of cases: 99.93742177722153
Instances selection time: 4.0
Test time: 11.0
Accumulative iteration time: 621.0
Weighted Recall: 0.9824780976220275
Weighted FalsePositiveRate: 0.01861028933297
Kappa statistic: 0.9648491571308038
Training time: 29.0
		
Iteration: 26
Labeled set size: 819
Unlabelled set size: 779
	
Mean region size: 71.80851063829788
Incorrectly Classified Instances: 2.002503128911139
Correctly Classified Instances: 97.99749687108886
Weighted Precision: 0.980150113746916
Weighted AreaUnderROC: 0.995847623233219
Root mean squared error: 0.15503863506455018
Relative absolute error: 16.312034140072964
Root relative squared error: 31.007727012910035
Weighted TruePositiveRate: 0.9799749687108886
Weighted MatthewsCorrelation: 0.9600257916380988
Weighted FMeasure: 0.9799638937719466
Iteration time: 30.0
Weighted AreaUnderPRC: 0.9944752147677086
Mean absolute error: 0.08156017070036482
Coverage of cases: 99.87484355444306
Instances selection time: 3.0
Test time: 9.0
Accumulative iteration time: 651.0
Weighted Recall: 0.9799749687108886
Weighted FalsePositiveRate: 0.02101059078260363
Kappa statistic: 0.9598321521878815
Training time: 27.0
		
Iteration: 27
Labeled set size: 839
Unlabelled set size: 759
	
Mean region size: 78.84856070087609
Incorrectly Classified Instances: 2.9411764705882355
Correctly Classified Instances: 97.05882352941177
Weighted Precision: 0.9706128162534479
Weighted AreaUnderROC: 0.9939797992481616
Root mean squared error: 0.18879350289059307
Relative absolute error: 23.359824780976016
Root relative squared error: 37.758700578118614
Weighted TruePositiveRate: 0.9705882352941176
Weighted MatthewsCorrelation: 0.941069780150302
Weighted FMeasure: 0.9705818503753281
Iteration time: 36.0
Weighted AreaUnderPRC: 0.9920467052596841
Mean absolute error: 0.11679912390488008
Coverage of cases: 99.93742177722153
Instances selection time: 5.0
Test time: 10.0
Accumulative iteration time: 687.0
Weighted Recall: 0.9705882352941176
Weighted FalsePositiveRate: 0.02992696281940783
Kappa statistic: 0.9410334881047903
Training time: 31.0
		
Iteration: 28
Labeled set size: 859
Unlabelled set size: 739
	
Mean region size: 76.78347934918648
Incorrectly Classified Instances: 2.065081351689612
Correctly Classified Instances: 97.93491864831039
Weighted Precision: 0.9795472594875174
Weighted AreaUnderROC: 0.9962949592296404
Root mean squared error: 0.16148579359219453
Relative absolute error: 18.753548419078445
Root relative squared error: 32.29715871843891
Weighted TruePositiveRate: 0.9793491864831039
Weighted MatthewsCorrelation: 0.9587929116506106
Weighted FMeasure: 0.9793369128886105
Iteration time: 34.0
Weighted AreaUnderPRC: 0.9950335114376287
Mean absolute error: 0.09376774209539222
Coverage of cases: 99.93742177722153
Instances selection time: 4.0
Test time: 10.0
Accumulative iteration time: 721.0
Weighted Recall: 0.9793491864831039
Weighted FalsePositiveRate: 0.021695424544333975
Kappa statistic: 0.9585745640564782
Training time: 30.0
		
Iteration: 29
Labeled set size: 879
Unlabelled set size: 719
	
Mean region size: 74.59324155193993
Incorrectly Classified Instances: 2.127659574468085
Correctly Classified Instances: 97.87234042553192
Weighted Precision: 0.9788540950121802
Weighted AreaUnderROC: 0.994671992842624
Root mean squared error: 0.16498216353597392
Relative absolute error: 18.33166142124266
Root relative squared error: 32.996432707194785
Weighted TruePositiveRate: 0.9787234042553191
Weighted MatthewsCorrelation: 0.9574743128898799
Weighted FMeasure: 0.9787133434035439
Iteration time: 34.0
Weighted AreaUnderPRC: 0.9927276323005838
Mean absolute error: 0.0916583071062133
Coverage of cases: 99.81226533166458
Instances selection time: 4.0
Test time: 9.0
Accumulative iteration time: 755.0
Weighted Recall: 0.9787234042553191
Weighted FalsePositiveRate: 0.022154235907872497
Kappa statistic: 0.9573264886483056
Training time: 30.0
		
Iteration: 30
Labeled set size: 899
Unlabelled set size: 699
	
Mean region size: 76.40801001251565
Incorrectly Classified Instances: 2.690863579474343
Correctly Classified Instances: 97.30913642052566
Weighted Precision: 0.9733878135007854
Weighted AreaUnderROC: 0.9957934720336521
Root mean squared error: 0.16813241031721374
Relative absolute error: 19.628138512202984
Root relative squared error: 33.62648206344275
Weighted TruePositiveRate: 0.9730913642052565
Weighted MatthewsCorrelation: 0.9463382151210933
Weighted FMeasure: 0.9730707145019388
Iteration time: 38.0
Weighted AreaUnderPRC: 0.9944901455011395
Mean absolute error: 0.09814069256101492
Coverage of cases: 99.93742177722153
Instances selection time: 4.0
Test time: 10.0
Accumulative iteration time: 793.0
Weighted Recall: 0.9730913642052565
Weighted FalsePositiveRate: 0.028204728564349656
Kappa statistic: 0.9460091867827245
Training time: 34.0
		
Iteration: 31
Labeled set size: 919
Unlabelled set size: 679
	
Mean region size: 74.0613266583229
Incorrectly Classified Instances: 2.5031289111389237
Correctly Classified Instances: 97.49687108886107
Weighted Precision: 0.975059234782721
Weighted AreaUnderROC: 0.9953531992371744
Root mean squared error: 0.16109578133649335
Relative absolute error: 17.779574782170993
Root relative squared error: 32.21915626729867
Weighted TruePositiveRate: 0.9749687108886108
Weighted MatthewsCorrelation: 0.9499092673684638
Weighted FMeasure: 0.9749588027543742
Iteration time: 37.0
Weighted AreaUnderPRC: 0.9936710099849041
Mean absolute error: 0.08889787391085496
Coverage of cases: 99.87484355444306
Instances selection time: 4.0
Test time: 10.0
Accumulative iteration time: 830.0
Weighted Recall: 0.9749687108886108
Weighted FalsePositiveRate: 0.025811193681870903
Kappa statistic: 0.9498015464767628
Training time: 33.0
		
Iteration: 32
Labeled set size: 939
Unlabelled set size: 659
	
Mean region size: 74.7496871088861
Incorrectly Classified Instances: 2.3153942428035044
Correctly Classified Instances: 97.6846057571965
Weighted Precision: 0.9774403008396433
Weighted AreaUnderROC: 0.9960744304314044
Root mean squared error: 0.16861404331855095
Relative absolute error: 19.267331276441492
Root relative squared error: 33.72280866371019
Weighted TruePositiveRate: 0.976846057571965
Weighted MatthewsCorrelation: 0.9541550762478347
Weighted FMeasure: 0.9768193933361472
Iteration time: 39.0
Weighted AreaUnderPRC: 0.9947377725141924
Mean absolute error: 0.09633665638220747
Coverage of cases: 99.93742177722153
Instances selection time: 4.0
Test time: 11.0
Accumulative iteration time: 869.0
Weighted Recall: 0.976846057571965
Weighted FalsePositiveRate: 0.024886804387638982
Kappa statistic: 0.9535217534167321
Training time: 35.0
		
Iteration: 33
Labeled set size: 959
Unlabelled set size: 639
	
Mean region size: 70.2127659574468
Incorrectly Classified Instances: 2.002503128911139
Correctly Classified Instances: 97.99749687108886
Weighted Precision: 0.9800390728239936
Weighted AreaUnderROC: 0.9961890112304879
Root mean squared error: 0.15540183322049966
Relative absolute error: 15.790490801674038
Root relative squared error: 31.080366644099932
Weighted TruePositiveRate: 0.9799749687108886
Weighted MatthewsCorrelation: 0.9599213543675855
Weighted FMeasure: 0.9799685214005887
Iteration time: 36.0
Weighted AreaUnderPRC: 0.9949143670610975
Mean absolute error: 0.07895245400837018
Coverage of cases: 99.87484355444306
Instances selection time: 3.0
Test time: 10.0
Accumulative iteration time: 905.0
Weighted Recall: 0.9799749687108886
Weighted FalsePositiveRate: 0.0206715571853159
Kappa statistic: 0.9598457781372449
Training time: 33.0
		
Iteration: 34
Labeled set size: 979
Unlabelled set size: 619
	
Mean region size: 71.30788485607009
Incorrectly Classified Instances: 3.0037546933667083
Correctly Classified Instances: 96.9962453066333
Weighted Precision: 0.9700834997656562
Weighted AreaUnderROC: 0.9953932240368543
Root mean squared error: 0.16550583154791185
Relative absolute error: 17.041838011800372
Root relative squared error: 33.10116630958237
Weighted TruePositiveRate: 0.9699624530663329
Weighted MatthewsCorrelation: 0.9399001537687495
Weighted FMeasure: 0.9699482495108859
Iteration time: 36.0
Weighted AreaUnderPRC: 0.9940560041363556
Mean absolute error: 0.08520919005900186
Coverage of cases: 99.93742177722153
Instances selection time: 3.0
Test time: 10.0
Accumulative iteration time: 941.0
Weighted Recall: 0.9699624530663329
Weighted FalsePositiveRate: 0.030950830178425898
Kappa statistic: 0.9397550427976079
Training time: 33.0
		
Iteration: 35
Labeled set size: 999
Unlabelled set size: 599
	
Mean region size: 70.61952440550688
Incorrectly Classified Instances: 2.252816020025031
Correctly Classified Instances: 97.74718397997496
Weighted Precision: 0.9778076534099559
Weighted AreaUnderROC: 0.9956631952346945
Root mean squared error: 0.1528450411264444
Relative absolute error: 15.252636702310548
Root relative squared error: 30.56900822528888
Weighted TruePositiveRate: 0.9774718397997497
Weighted MatthewsCorrelation: 0.9551603559244651
Weighted FMeasure: 0.9774535323409581
Iteration time: 38.0
Weighted AreaUnderPRC: 0.9941699625865298
Mean absolute error: 0.07626318351155274
Coverage of cases: 99.87484355444306
Instances selection time: 3.0
Test time: 10.0
Accumulative iteration time: 979.0
Weighted Recall: 0.9774718397997497
Weighted FalsePositiveRate: 0.02386293702862091
Kappa statistic: 0.9547958316111725
Training time: 35.0
		
Iteration: 36
Labeled set size: 1019
Unlabelled set size: 579
	
Mean region size: 70.8072590738423
Incorrectly Classified Instances: 2.1902377972465583
Correctly Classified Instances: 97.80976220275345
Weighted Precision: 0.9781749201868767
Weighted AreaUnderROC: 0.995760510433916
Root mean squared error: 0.156104606947995
Relative absolute error: 15.848560700875986
Root relative squared error: 31.220921389599
Weighted TruePositiveRate: 0.9780976220275344
Weighted MatthewsCorrelation: 0.9561699375560351
Weighted FMeasure: 0.9780897700020472
Iteration time: 36.0
Weighted AreaUnderPRC: 0.9943169861777615
Mean absolute error: 0.07924280350437993
Coverage of cases: 99.93742177722153
Instances selection time: 3.0
Test time: 9.0
Accumulative iteration time: 1015.0
Weighted Recall: 0.9780976220275344
Weighted FalsePositiveRate: 0.022613047271411016
Kappa statistic: 0.956078836642799
Training time: 33.0
		
Iteration: 37
Labeled set size: 1039
Unlabelled set size: 559
	
Mean region size: 75.90738423028786
Incorrectly Classified Instances: 2.690863579474343
Correctly Classified Instances: 97.30913642052566
Weighted Precision: 0.9731972748955062
Weighted AreaUnderROC: 0.9968694328250446
Root mean squared error: 0.17462300564640587
Relative absolute error: 20.607943558389277
Root relative squared error: 34.92460112928117
Weighted TruePositiveRate: 0.9730913642052565
Weighted MatthewsCorrelation: 0.9461595498620926
Weighted FMeasure: 0.9730796872150862
Iteration time: 43.0
Weighted AreaUnderPRC: 0.9958783447739319
Mean absolute error: 0.10303971779194639
Coverage of cases: 100.0
Instances selection time: 3.0
Test time: 11.0
Accumulative iteration time: 1058.0
Weighted Recall: 0.9730913642052565
Weighted FalsePositiveRate: 0.027752683767966017
Kappa statistic: 0.9460336109902503
Training time: 40.0
		
Iteration: 38
Labeled set size: 1059
Unlabelled set size: 539
	
Mean region size: 71.43304130162703
Incorrectly Classified Instances: 2.1902377972465583
Correctly Classified Instances: 97.80976220275345
Weighted Precision: 0.9783456830418296
Weighted AreaUnderROC: 0.9974556784203545
Root mean squared error: 0.1528802442119783
Relative absolute error: 15.961346688365193
Root relative squared error: 30.576048842395657
Weighted TruePositiveRate: 0.9780976220275344
Weighted MatthewsCorrelation: 0.9563310755565996
Weighted FMeasure: 0.978082744068425
Iteration time: 41.0
Weighted AreaUnderPRC: 0.9966894783522603
Mean absolute error: 0.07980673344182597
Coverage of cases: 100.0
Instances selection time: 3.0
Test time: 10.0
Accumulative iteration time: 1099.0
Weighted Recall: 0.9780976220275344
Weighted FalsePositiveRate: 0.023065092067794654
Kappa statistic: 0.9560589609708038
Training time: 38.0
		
Iteration: 39
Labeled set size: 1079
Unlabelled set size: 519
	
Mean region size: 70.83854818523155
Incorrectly Classified Instances: 2.002503128911139
Correctly Classified Instances: 97.99749687108886
Weighted Precision: 0.9800700258829511
Weighted AreaUnderROC: 0.997147252022822
Root mean squared error: 0.15391694631220673
Relative absolute error: 16.118168832392172
Root relative squared error: 30.783389262441347
Weighted TruePositiveRate: 0.9799749687108886
Weighted MatthewsCorrelation: 0.9599500967156404
Weighted FMeasure: 0.9799670422034993
Iteration time: 52.0
Weighted AreaUnderPRC: 0.9962036859818845
Mean absolute error: 0.08059084416196086
Coverage of cases: 99.93742177722153
Instances selection time: 3.0
Test time: 10.0
Accumulative iteration time: 1151.0
Weighted Recall: 0.9799749687108886
Weighted FalsePositiveRate: 0.020784568384411815
Kappa statistic: 0.9598412371814102
Training time: 49.0
		
Iteration: 40
Labeled set size: 1099
Unlabelled set size: 499
	
Mean region size: 71.6520650813517
Incorrectly Classified Instances: 1.9399249061326658
Correctly Classified Instances: 98.06007509386734
Weighted Precision: 0.9807543520309476
Weighted AreaUnderROC: 0.998204377614365
Root mean squared error: 0.14595046238421328
Relative absolute error: 15.547388340428972
Root relative squared error: 29.190092476842654
Weighted TruePositiveRate: 0.9806007509386734
Weighted MatthewsCorrelation: 0.9612599864381679
Weighted FMeasure: 0.980590807626808
Iteration time: 42.0
Weighted AreaUnderPRC: 0.9975810776222712
Mean absolute error: 0.07773694170214486
Coverage of cases: 100.0
Instances selection time: 2.0
Test time: 10.0
Accumulative iteration time: 1193.0
Weighted Recall: 0.9806007509386734
Weighted FalsePositiveRate: 0.020325757020873296
Kappa statistic: 0.96108959807718
Training time: 40.0
		
Iteration: 41
Labeled set size: 1119
Unlabelled set size: 479
	
Mean region size: 70.02503128911138
Incorrectly Classified Instances: 2.1902377972465583
Correctly Classified Instances: 97.80976220275345
Weighted Precision: 0.9781257538757265
Weighted AreaUnderROC: 0.9979296976165624
Root mean squared error: 0.1534199759327051
Relative absolute error: 15.667713851067964
Root relative squared error: 30.68399518654102
Weighted TruePositiveRate: 0.9780976220275344
Weighted MatthewsCorrelation: 0.9561256404074038
Weighted FMeasure: 0.9780928673007764
Iteration time: 39.0
Weighted AreaUnderPRC: 0.9972429460523051
Mean absolute error: 0.07833856925533982
Coverage of cases: 100.0
Instances selection time: 2.0
Test time: 10.0
Accumulative iteration time: 1232.0
Weighted Recall: 0.9780976220275344
Weighted FalsePositiveRate: 0.022387024873219197
Kappa statistic: 0.9560887677376096
Training time: 37.0
		
Iteration: 42
Labeled set size: 1139
Unlabelled set size: 459
	
Mean region size: 69.180225281602
Incorrectly Classified Instances: 2.6282853566958697
Correctly Classified Instances: 97.37171464330413
Weighted Precision: 0.9739318691508597
Weighted AreaUnderROC: 0.9969942160240463
Root mean squared error: 0.15441084115840834
Relative absolute error: 14.746660809312587
Root relative squared error: 30.882168231681668
Weighted TruePositiveRate: 0.9737171464330413
Weighted MatthewsCorrelation: 0.9475156782687065
Weighted FMeasure: 0.973700419599071
Iteration time: 38.0
Weighted AreaUnderPRC: 0.9961029505572465
Mean absolute error: 0.07373330404656293
Coverage of cases: 100.0
Instances selection time: 2.0
Test time: 13.0
Accumulative iteration time: 1270.0
Weighted Recall: 0.9737171464330413
Weighted FalsePositiveRate: 0.027406883603523405
Kappa statistic: 0.9472737356962058
Training time: 36.0
		
Iteration: 43
Labeled set size: 1159
Unlabelled set size: 439
	
Mean region size: 70.90112640801001
Incorrectly Classified Instances: 2.5031289111389237
Correctly Classified Instances: 97.49687108886107
Weighted Precision: 0.975059234782721
Weighted AreaUnderROC: 0.9969706720242346
Root mean squared error: 0.15777226783754358
Relative absolute error: 16.4035396270302
Root relative squared error: 31.554453567508716
Weighted TruePositiveRate: 0.9749687108886108
Weighted MatthewsCorrelation: 0.9499092673684638
Weighted FMeasure: 0.9749588027543742
Iteration time: 43.0
Weighted AreaUnderPRC: 0.996015563540169
Mean absolute error: 0.08201769813515099
Coverage of cases: 99.93742177722153
Instances selection time: 2.0
Test time: 10.0
Accumulative iteration time: 1313.0
Weighted Recall: 0.9749687108886108
Weighted FalsePositiveRate: 0.025811193681870903
Kappa statistic: 0.9498015464767628
Training time: 41.0
		
Iteration: 44
Labeled set size: 1179
Unlabelled set size: 419
	
Mean region size: 69.74342928660826
Incorrectly Classified Instances: 2.4405506883604504
Correctly Classified Instances: 97.55944931163955
Weighted Precision: 0.9758384372460236
Weighted AreaUnderROC: 0.9967454344260365
Root mean squared error: 0.15459055447931236
Relative absolute error: 14.993701806059082
Root relative squared error: 30.918110895862473
Weighted TruePositiveRate: 0.9755944931163955
Weighted MatthewsCorrelation: 0.9513078132048784
Weighted FMeasure: 0.975577914819102
Iteration time: 41.0
Weighted AreaUnderPRC: 0.9957852880628707
Mean absolute error: 0.07496850903029541
Coverage of cases: 99.93742177722153
Instances selection time: 2.0
Test time: 10.0
Accumulative iteration time: 1354.0
Weighted Recall: 0.9755944931163955
Weighted FalsePositiveRate: 0.0255784047165242
Kappa statistic: 0.9510371279388957
Training time: 39.0
		
Iteration: 45
Labeled set size: 1199
Unlabelled set size: 399
	
Mean region size: 72.46558197747184
Incorrectly Classified Instances: 2.690863579474343
Correctly Classified Instances: 97.30913642052566
Weighted Precision: 0.973235929939162
Weighted AreaUnderROC: 0.9955368424357053
Root mean squared error: 0.16838754873601164
Relative absolute error: 18.124739257404954
Root relative squared error: 33.67750974720233
Weighted TruePositiveRate: 0.9730913642052565
Weighted MatthewsCorrelation: 0.9461952250635118
Weighted FMeasure: 0.9730775718694434
Iteration time: 45.0
Weighted AreaUnderPRC: 0.9941537747998471
Mean absolute error: 0.09062369628702477
Coverage of cases: 99.93742177722153
Instances selection time: 2.0
Test time: 11.0
Accumulative iteration time: 1399.0
Weighted Recall: 0.9730913642052565
Weighted FalsePositiveRate: 0.027865694967061927
Kappa statistic: 0.9460275070102817
Training time: 43.0
		
Iteration: 46
Labeled set size: 1219
Unlabelled set size: 379
	
Mean region size: 70.27534418022528
Incorrectly Classified Instances: 2.065081351689612
Correctly Classified Instances: 97.93491864831039
Weighted Precision: 0.9795993059397324
Weighted AreaUnderROC: 0.9960006592319947
Root mean squared error: 0.15992336768537707
Relative absolute error: 16.195729707391923
Root relative squared error: 31.984673537075416
Weighted TruePositiveRate: 0.9793491864831039
Weighted MatthewsCorrelation: 0.9588427067324603
Weighted FMeasure: 0.9793351586930864
Iteration time: 41.0
Weighted AreaUnderPRC: 0.9948558414786904
Mean absolute error: 0.08097864853695962
Coverage of cases: 100.0
Instances selection time: 2.0
Test time: 10.0
Accumulative iteration time: 1440.0
Weighted Recall: 0.9793491864831039
Weighted FalsePositiveRate: 0.021808435743429885
Kappa statistic: 0.9585698774867579
Training time: 39.0
		
Time end:Sat Oct 07 13.26.59 EEST 2017