Sat Oct 07 13.17.30 EEST 2017
Dataset: kr-vs-kp
Test set size: 1598
Initial Labelled set size: 319
Initial Unlabelled set size: 1279
Batch mode: QBestBatchMode
Batch size: 20
Classifiers: NaiveBayes-1cores
Scenario: PoolBasedSamplingScenario
Query strategy: MarginSamplingQueryStrategy-1cores
Time begining: Sat Oct 07 13.17.30 EEST 2017
		
Iteration: 1
Labeled set size: 319
Unlabelled set size: 1279
	
Mean region size: 86.95244055068837
Incorrectly Classified Instances: 13.329161451814768
Correctly Classified Instances: 86.67083854818523
Weighted Precision: 0.8679388185714316
Weighted AreaUnderROC: 0.9444989444440084
Root mean squared error: 0.3155616571848952
Relative absolute error: 46.09574415709531
Root relative squared error: 63.11233143697904
Weighted TruePositiveRate: 0.8667083854818524
Weighted MatthewsCorrelation: 0.7337044083729243
Weighted FMeasure: 0.8663604484239876
Iteration time: 16.0
Weighted AreaUnderPRC: 0.9468677521473906
Mean absolute error: 0.23047872078547657
Coverage of cases: 100.0
Instances selection time: 16.0
Test time: 24.0
Accumulative iteration time: 16.0
Weighted Recall: 0.8667083854818524
Weighted FalsePositiveRate: 0.13682869532088984
Kappa statistic: 0.7320720973178401
Training time: 0.0
		
Iteration: 2
Labeled set size: 339
Unlabelled set size: 1259
	
Mean region size: 88.04755944931163
Incorrectly Classified Instances: 11.13892365456821
Correctly Classified Instances: 88.86107634543178
Weighted Precision: 0.8918910808624548
Weighted AreaUnderROC: 0.9592751587257987
Root mean squared error: 0.3022410450251655
Relative absolute error: 45.115319301519065
Root relative squared error: 60.44820900503311
Weighted TruePositiveRate: 0.8886107634543179
Weighted MatthewsCorrelation: 0.7795520535280135
Weighted FMeasure: 0.888095867951176
Iteration time: 16.0
Weighted AreaUnderPRC: 0.9607209256283229
Mean absolute error: 0.22557659650759532
Coverage of cases: 100.0
Instances selection time: 16.0
Test time: 23.0
Accumulative iteration time: 32.0
Weighted Recall: 0.8886107634543179
Weighted FalsePositiveRate: 0.1162498496332052
Kappa statistic: 0.7757801156240688
Training time: 0.0
		
Iteration: 3
Labeled set size: 359
Unlabelled set size: 1239
	
Mean region size: 88.86107634543178
Incorrectly Classified Instances: 9.198998748435544
Correctly Classified Instances: 90.80100125156446
Weighted Precision: 0.9114690669100788
Weighted AreaUnderROC: 0.9694398882444809
Root mean squared error: 0.29395769588135046
Relative absolute error: 45.110823792614056
Root relative squared error: 58.79153917627009
Weighted TruePositiveRate: 0.9080100125156445
Weighted MatthewsCorrelation: 0.8186999131064755
Weighted FMeasure: 0.9075930891231985
Iteration time: 16.0
Weighted AreaUnderPRC: 0.9703748426945161
Mean absolute error: 0.2255541189630703
Coverage of cases: 100.0
Instances selection time: 15.0
Test time: 23.0
Accumulative iteration time: 48.0
Weighted Recall: 0.9080100125156445
Weighted FalsePositiveRate: 0.09671517100600328
Kappa statistic: 0.8148401549343955
Training time: 1.0
		
Iteration: 4
Labeled set size: 379
Unlabelled set size: 1219
	
Mean region size: 89.58072590738423
Incorrectly Classified Instances: 7.259073842302879
Correctly Classified Instances: 92.74092615769712
Weighted Precision: 0.9291627238295522
Weighted AreaUnderROC: 0.9739179570086565
Root mean squared error: 0.2874149371085973
Relative absolute error: 45.11822906841812
Root relative squared error: 57.48298742171946
Weighted TruePositiveRate: 0.9274092615769712
Weighted MatthewsCorrelation: 0.8560553087465689
Weighted FMeasure: 0.9272146357604021
Iteration time: 16.0
Weighted AreaUnderPRC: 0.9747361884748177
Mean absolute error: 0.22559114534209057
Coverage of cases: 100.0
Instances selection time: 16.0
Test time: 23.0
Accumulative iteration time: 64.0
Weighted Recall: 0.9274092615769712
Weighted FalsePositiveRate: 0.07593736918874636
Kappa statistic: 0.8540779424429397
Training time: 0.0
		
Iteration: 5
Labeled set size: 399
Unlabelled set size: 1199
	
Mean region size: 90.6758448060075
Incorrectly Classified Instances: 6.6958698372966206
Correctly Classified Instances: 93.30413016270337
Weighted Precision: 0.9345014601585314
Weighted AreaUnderROC: 0.9806452625548379
Root mean squared error: 0.28350386826143015
Relative absolute error: 45.480666309242785
Root relative squared error: 56.70077365228603
Weighted TruePositiveRate: 0.9330413016270338
Weighted MatthewsCorrelation: 0.8670854618199915
Weighted FMeasure: 0.9328849393158645
Iteration time: 15.0
Weighted AreaUnderPRC: 0.9810858133475974
Mean absolute error: 0.22740333154621392
Coverage of cases: 100.0
Instances selection time: 15.0
Test time: 23.0
Accumulative iteration time: 79.0
Weighted Recall: 0.9330413016270338
Weighted FalsePositiveRate: 0.0699998877313651
Kappa statistic: 0.8654376153907901
Training time: 0.0
		
Iteration: 6
Labeled set size: 419
Unlabelled set size: 1179
	
Mean region size: 90.83229036295369
Incorrectly Classified Instances: 6.821026282853567
Correctly Classified Instances: 93.17897371714643
Weighted Precision: 0.9328856460191791
Weighted AreaUnderROC: 0.9817000337463998
Root mean squared error: 0.28349473852150714
Relative absolute error: 45.795215326585655
Root relative squared error: 56.698947704301425
Weighted TruePositiveRate: 0.9317897371714643
Weighted MatthewsCorrelation: 0.8642327055179436
Weighted FMeasure: 0.9316569618061794
Iteration time: 15.0
Weighted AreaUnderPRC: 0.982056186962657
Mean absolute error: 0.22897607663292827
Coverage of cases: 100.0
Instances selection time: 15.0
Test time: 24.0
Accumulative iteration time: 94.0
Weighted Recall: 0.9317897371714643
Weighted FalsePositiveRate: 0.07091751045844215
Kappa statistic: 0.8629690177277568
Training time: 0.0
		
Iteration: 7
Labeled set size: 439
Unlabelled set size: 1159
	
Mean region size: 90.95744680851064
Incorrectly Classified Instances: 6.4455569461827285
Correctly Classified Instances: 93.55444305381727
Weighted Precision: 0.9359461458935543
Weighted AreaUnderROC: 0.9848188289214492
Root mean squared error: 0.2833803691909363
Relative absolute error: 46.36567764080511
Root relative squared error: 56.67607383818726
Weighted TruePositiveRate: 0.9355444305381727
Weighted MatthewsCorrelation: 0.8711303308508256
Weighted FMeasure: 0.935476701340129
Iteration time: 16.0
Weighted AreaUnderPRC: 0.985095329265115
Mean absolute error: 0.23182838820402554
Coverage of cases: 100.0
Instances selection time: 15.0
Test time: 24.0
Accumulative iteration time: 110.0
Weighted Recall: 0.9355444305381727
Weighted FalsePositiveRate: 0.06624345189258055
Kappa statistic: 0.8706292552029213
Training time: 1.0
		
Iteration: 8
Labeled set size: 459
Unlabelled set size: 1139
	
Mean region size: 90.55068836045056
Incorrectly Classified Instances: 5.444305381727159
Correctly Classified Instances: 94.55569461827284
Weighted Precision: 0.9458673699114516
Weighted AreaUnderROC: 0.9857605889139153
Root mean squared error: 0.28873484855456627
Relative absolute error: 47.43644256606325
Root relative squared error: 57.746969710913255
Weighted TruePositiveRate: 0.9455569461827285
Weighted MatthewsCorrelation: 0.8912619219823388
Weighted FMeasure: 0.945578439150683
Iteration time: 15.0
Weighted AreaUnderPRC: 0.9859703753303959
Mean absolute error: 0.23718221283031624
Coverage of cases: 100.0
Instances selection time: 14.0
Test time: 24.0
Accumulative iteration time: 125.0
Weighted Recall: 0.9455569461827285
Weighted FalsePositiveRate: 0.053590943718456435
Kappa statistic: 0.8910094090678893
Training time: 1.0
		
Iteration: 9
Labeled set size: 479
Unlabelled set size: 1119
	
Mean region size: 91.270337922403
Incorrectly Classified Instances: 5.944931163954943
Correctly Classified Instances: 94.05506883604505
Weighted Precision: 0.9405511797712967
Weighted AreaUnderROC: 0.9840936737272507
Root mean squared error: 0.2917088509873894
Relative absolute error: 48.313739427308114
Root relative squared error: 58.341770197477885
Weighted TruePositiveRate: 0.9405506883604505
Weighted MatthewsCorrelation: 0.8808431701751798
Weighted FMeasure: 0.9405417044888887
Iteration time: 15.0
Weighted AreaUnderPRC: 0.984220993194298
Mean absolute error: 0.24156869713654056
Coverage of cases: 100.0
Instances selection time: 14.0
Test time: 23.0
Accumulative iteration time: 140.0
Weighted Recall: 0.9405506883604505
Weighted FalsePositiveRate: 0.059973703405066435
Kappa statistic: 0.8808258429171408
Training time: 1.0
		
Iteration: 10
Labeled set size: 499
Unlabelled set size: 1099
	
Mean region size: 91.48936170212765
Incorrectly Classified Instances: 5.381727158948686
Correctly Classified Instances: 94.61827284105131
Weighted Precision: 0.9461896994906724
Weighted AreaUnderROC: 0.9863444801092442
Root mean squared error: 0.2874395994227433
Relative absolute error: 47.62696103710659
Root relative squared error: 57.48791988454865
Weighted TruePositiveRate: 0.9461827284105131
Weighted MatthewsCorrelation: 0.8921352021859603
Weighted FMeasure: 0.9461728417430468
Iteration time: 14.0
Weighted AreaUnderPRC: 0.9866585990575499
Mean absolute error: 0.23813480518553296
Coverage of cases: 100.0
Instances selection time: 14.0
Test time: 23.0
Accumulative iteration time: 154.0
Weighted Recall: 0.9461827284105131
Weighted FalsePositiveRate: 0.05437525554497292
Kappa statistic: 0.8921099281036412
Training time: 0.0
		
Iteration: 11
Labeled set size: 519
Unlabelled set size: 1079
	
Mean region size: 91.58322903629536
Incorrectly Classified Instances: 5.319148936170213
Correctly Classified Instances: 94.68085106382979
Weighted Precision: 0.9468410543770828
Weighted AreaUnderROC: 0.9875106928999144
Root mean squared error: 0.2871380811247317
Relative absolute error: 47.917154433893444
Root relative squared error: 57.42761622494634
Weighted TruePositiveRate: 0.9468085106382979
Weighted MatthewsCorrelation: 0.8934482810214792
Weighted FMeasure: 0.9468155009658964
Iteration time: 15.0
Weighted AreaUnderPRC: 0.9876104315583356
Mean absolute error: 0.23958577216946722
Coverage of cases: 100.0
Instances selection time: 14.0
Test time: 23.0
Accumulative iteration time: 169.0
Weighted Recall: 0.9468085106382979
Weighted FalsePositiveRate: 0.05312536578776303
Kappa statistic: 0.8934307256564958
Training time: 1.0
		
Iteration: 12
Labeled set size: 539
Unlabelled set size: 1059
	
Mean region size: 91.67709637046308
Incorrectly Classified Instances: 6.4455569461827285
Correctly Classified Instances: 93.55444305381727
Weighted Precision: 0.9360912347984293
Weighted AreaUnderROC: 0.9862722785098219
Root mean squared error: 0.28526846967312436
Relative absolute error: 47.490350948780105
Root relative squared error: 57.053693934624874
Weighted TruePositiveRate: 0.9355444305381727
Weighted MatthewsCorrelation: 0.8712609621603145
Weighted FMeasure: 0.9354634997328461
Iteration time: 14.0
Weighted AreaUnderPRC: 0.9865265145875374
Mean absolute error: 0.2374517547439005
Coverage of cases: 100.0
Instances selection time: 14.0
Test time: 23.0
Accumulative iteration time: 183.0
Weighted Recall: 0.9355444305381727
Weighted FalsePositiveRate: 0.06646947429077237
Kappa statistic: 0.8705999632069108
Training time: 0.0
		
Iteration: 13
Labeled set size: 559
Unlabelled set size: 1039
	
Mean region size: 91.80225281602003
Incorrectly Classified Instances: 5.381727158948686
Correctly Classified Instances: 94.61827284105131
Weighted Precision: 0.9465143333212036
Weighted AreaUnderROC: 0.9885246544918027
Root mean squared error: 0.2818246045395904
Relative absolute error: 47.16143714956669
Root relative squared error: 56.36492090791808
Weighted TruePositiveRate: 0.9461827284105131
Weighted MatthewsCorrelation: 0.8924054625651813
Weighted FMeasure: 0.9461339956725259
Iteration time: 14.0
Weighted AreaUnderPRC: 0.9886803121114375
Mean absolute error: 0.23580718574783344
Coverage of cases: 100.0
Instances selection time: 13.0
Test time: 23.0
Accumulative iteration time: 197.0
Weighted Recall: 0.9461827284105131
Weighted FalsePositiveRate: 0.05539235633683612
Kappa statistic: 0.892000044008481
Training time: 1.0
		
Iteration: 14
Labeled set size: 579
Unlabelled set size: 1019
	
Mean region size: 91.95869837296621
Incorrectly Classified Instances: 6.132665832290363
Correctly Classified Instances: 93.86733416770964
Weighted Precision: 0.9398634191654285
Weighted AreaUnderROC: 0.9870555089035561
Root mean squared error: 0.28412775973631416
Relative absolute error: 47.46407011607999
Root relative squared error: 56.82555194726283
Weighted TruePositiveRate: 0.9386733416770964
Weighted MatthewsCorrelation: 0.8781354849299329
Weighted FMeasure: 0.9385501160760369
Iteration time: 21.0
Weighted AreaUnderPRC: 0.987399142264164
Mean absolute error: 0.23732035058039994
Coverage of cases: 100.0
Instances selection time: 21.0
Test time: 43.0
Accumulative iteration time: 218.0
Weighted Recall: 0.9386733416770964
Weighted FalsePositiveRate: 0.06406240627398385
Kappa statistic: 0.8767908534887124
Training time: 0.0
		
Iteration: 15
Labeled set size: 599
Unlabelled set size: 999
	
Mean region size: 92.11514392991239
Incorrectly Classified Instances: 5.882352941176471
Correctly Classified Instances: 94.11764705882354
Weighted Precision: 0.9421583737229331
Weighted AreaUnderROC: 0.9892560880859513
Root mean squared error: 0.27858068206173087
Relative absolute error: 46.50138456821178
Root relative squared error: 55.716136412346174
Weighted TruePositiveRate: 0.9411764705882353
Weighted MatthewsCorrelation: 0.8829632901836263
Weighted FMeasure: 0.9410727621312274
Iteration time: 29.0
Weighted AreaUnderPRC: 0.9894995625079522
Mean absolute error: 0.23250692284105892
Coverage of cases: 100.0
Instances selection time: 28.0
Test time: 45.0
Accumulative iteration time: 247.0
Weighted Recall: 0.9411764705882353
Weighted FalsePositiveRate: 0.061323071227062494
Kappa statistic: 0.8818465701273469
Training time: 1.0
		
Iteration: 16
Labeled set size: 619
Unlabelled set size: 979
	
Mean region size: 91.98998748435544
Incorrectly Classified Instances: 5.944931163954943
Correctly Classified Instances: 94.05506883604505
Weighted Precision: 0.941810195924191
Weighted AreaUnderROC: 0.9891901648864787
Root mean squared error: 0.27935262164036184
Relative absolute error: 46.77754751726517
Root relative squared error: 55.87052432807237
Weighted TruePositiveRate: 0.9405506883604505
Weighted MatthewsCorrelation: 0.8819685907471227
Weighted FMeasure: 0.9404274556436935
Iteration time: 22.0
Weighted AreaUnderPRC: 0.989281788542849
Mean absolute error: 0.23388773758632583
Coverage of cases: 100.0
Instances selection time: 21.0
Test time: 47.0
Accumulative iteration time: 269.0
Weighted Recall: 0.9405506883604505
Weighted FalsePositiveRate: 0.06223392738698465
Kappa statistic: 0.8805557959668598
Training time: 1.0
		
Iteration: 17
Labeled set size: 639
Unlabelled set size: 959
	
Mean region size: 91.83354192740926
Incorrectly Classified Instances: 6.508135168961202
Correctly Classified Instances: 93.4918648310388
Weighted Precision: 0.93645611661529
Weighted AreaUnderROC: 0.9819605873443152
Root mean squared error: 0.28267641162928253
Relative absolute error: 46.647427674732526
Root relative squared error: 56.53528232585651
Weighted TruePositiveRate: 0.934918648310388
Weighted MatthewsCorrelation: 0.8709266371387109
Weighted FMeasure: 0.9347622717720907
Iteration time: 26.0
Weighted AreaUnderPRC: 0.982560260667526
Mean absolute error: 0.23323713837366264
Coverage of cases: 100.0
Instances selection time: 25.0
Test time: 43.0
Accumulative iteration time: 295.0
Weighted Recall: 0.934918648310388
Weighted FalsePositiveRate: 0.0681714088443659
Kappa statistic: 0.8692029812452287
Training time: 1.0
		
Iteration: 18
Labeled set size: 659
Unlabelled set size: 939
	
Mean region size: 92.05256570713392
Incorrectly Classified Instances: 6.382978723404255
Correctly Classified Instances: 93.61702127659575
Weighted Precision: 0.9375872482978337
Weighted AreaUnderROC: 0.9882452656940379
Root mean squared error: 0.28075514952689673
Relative absolute error: 46.85428132925403
Root relative squared error: 56.151029905379346
Weighted TruePositiveRate: 0.9361702127659575
Weighted MatthewsCorrelation: 0.8733252563475785
Weighted FMeasure: 0.9360254195258444
Iteration time: 23.0
Weighted AreaUnderPRC: 0.9883244628116231
Mean absolute error: 0.23427140664627014
Coverage of cases: 100.0
Instances selection time: 22.0
Test time: 44.0
Accumulative iteration time: 318.0
Weighted Recall: 0.9361702127659575
Weighted FalsePositiveRate: 0.06680174132090522
Kappa statistic: 0.871732845224174
Training time: 1.0
		
Iteration: 19
Labeled set size: 679
Unlabelled set size: 919
	
Mean region size: 92.05256570713392
Incorrectly Classified Instances: 6.257822277847309
Correctly Classified Instances: 93.74217772215269
Weighted Precision: 0.9388468057016087
Weighted AreaUnderROC: 0.988295492893636
Root mean squared error: 0.28014867094425505
Relative absolute error: 46.575224602436826
Root relative squared error: 56.02973418885101
Weighted TruePositiveRate: 0.9374217772215269
Weighted MatthewsCorrelation: 0.8758448928740463
Weighted FMeasure: 0.9372798230645533
Iteration time: 23.0
Weighted AreaUnderPRC: 0.9885092229962696
Mean absolute error: 0.23287612301218413
Coverage of cases: 100.0
Instances selection time: 22.0
Test time: 39.0
Accumulative iteration time: 341.0
Weighted Recall: 0.9374217772215269
Weighted FalsePositiveRate: 0.06554508499654045
Kappa statistic: 0.8742478874746803
Training time: 1.0
		
Iteration: 20
Labeled set size: 699
Unlabelled set size: 899
	
Mean region size: 92.17772215269086
Incorrectly Classified Instances: 6.821026282853567
Correctly Classified Instances: 93.17897371714643
Weighted Precision: 0.9335070829877279
Weighted AreaUnderROC: 0.9873757073009943
Root mean squared error: 0.2805485739524544
Relative absolute error: 46.58934415244532
Root relative squared error: 56.109714790490884
Weighted TruePositiveRate: 0.9317897371714643
Weighted MatthewsCorrelation: 0.8648153554883766
Weighted FMeasure: 0.9316116848742472
Iteration time: 25.0
Weighted AreaUnderPRC: 0.9875241582670601
Mean absolute error: 0.2329467207622266
Coverage of cases: 100.0
Instances selection time: 24.0
Test time: 47.0
Accumulative iteration time: 366.0
Weighted Recall: 0.9317897371714643
Weighted FalsePositiveRate: 0.0714825664539217
Kappa statistic: 0.8628913549654673
Training time: 1.0
		
Iteration: 21
Labeled set size: 719
Unlabelled set size: 879
	
Mean region size: 91.92740926157697
Incorrectly Classified Instances: 6.132665832290363
Correctly Classified Instances: 93.86733416770964
Weighted Precision: 0.9401063631053836
Weighted AreaUnderROC: 0.9881338240949294
Root mean squared error: 0.27815671251608914
Relative absolute error: 46.128147737381134
Root relative squared error: 55.63134250321783
Weighted TruePositiveRate: 0.9386733416770964
Weighted MatthewsCorrelation: 0.8783645294005141
Weighted FMeasure: 0.9385342266032622
Iteration time: 20.0
Weighted AreaUnderPRC: 0.9884493489122294
Mean absolute error: 0.23064073868690568
Coverage of cases: 100.0
Instances selection time: 19.0
Test time: 44.0
Accumulative iteration time: 386.0
Weighted Recall: 0.9386733416770964
Weighted FalsePositiveRate: 0.06428842867217567
Kappa statistic: 0.8767629297251868
Training time: 1.0
		
Iteration: 22
Labeled set size: 739
Unlabelled set size: 859
	
Mean region size: 92.05256570713392
Incorrectly Classified Instances: 6.257822277847309
Correctly Classified Instances: 93.74217772215269
Weighted Precision: 0.9388468057016087
Weighted AreaUnderROC: 0.990034609679723
Root mean squared error: 0.27526996175288415
Relative absolute error: 45.64191971002442
Root relative squared error: 55.05399235057683
Weighted TruePositiveRate: 0.9374217772215269
Weighted MatthewsCorrelation: 0.8758448928740463
Weighted FMeasure: 0.9372798230645533
Iteration time: 16.0
Weighted AreaUnderPRC: 0.9901804090801322
Mean absolute error: 0.2282095985501221
Coverage of cases: 100.0
Instances selection time: 15.0
Test time: 38.0
Accumulative iteration time: 402.0
Weighted Recall: 0.9374217772215269
Weighted FalsePositiveRate: 0.06554508499654045
Kappa statistic: 0.8742478874746803
Training time: 1.0
		
Iteration: 23
Labeled set size: 759
Unlabelled set size: 839
	
Mean region size: 91.89612015018774
Incorrectly Classified Instances: 6.132665832290363
Correctly Classified Instances: 93.86733416770964
Weighted Precision: 0.9401063631053836
Weighted AreaUnderROC: 0.9878120560975034
Root mean squared error: 0.2753361212848168
Relative absolute error: 45.382302037744516
Root relative squared error: 55.067224256963364
Weighted TruePositiveRate: 0.9386733416770964
Weighted MatthewsCorrelation: 0.8783645294005141
Weighted FMeasure: 0.9385342266032622
Iteration time: 12.0
Weighted AreaUnderPRC: 0.9881243577777241
Mean absolute error: 0.22691151018872258
Coverage of cases: 100.0
Instances selection time: 11.0
Test time: 23.0
Accumulative iteration time: 414.0
Weighted Recall: 0.9386733416770964
Weighted FalsePositiveRate: 0.06428842867217567
Kappa statistic: 0.8767629297251868
Training time: 1.0
		
Iteration: 24
Labeled set size: 779
Unlabelled set size: 819
	
Mean region size: 91.6145181476846
Incorrectly Classified Instances: 6.382978723404255
Correctly Classified Instances: 93.61702127659575
Weighted Precision: 0.9378508646791479
Weighted AreaUnderROC: 0.9890065216879477
Root mean squared error: 0.2758355691812895
Relative absolute error: 45.58772100972858
Root relative squared error: 55.1671138362579
Weighted TruePositiveRate: 0.9361702127659575
Weighted MatthewsCorrelation: 0.8735743181151431
Weighted FMeasure: 0.9360080624516103
Iteration time: 12.0
Weighted AreaUnderPRC: 0.9892703198401481
Mean absolute error: 0.2279386050486429
Coverage of cases: 100.0
Instances selection time: 11.0
Test time: 23.0
Accumulative iteration time: 426.0
Weighted Recall: 0.9361702127659575
Weighted FalsePositiveRate: 0.06702776371909705
Kappa statistic: 0.8717037685384733
Training time: 1.0
		
Iteration: 25
Labeled set size: 799
Unlabelled set size: 799
	
Mean region size: 91.30162703379224
Incorrectly Classified Instances: 6.195244055068836
Correctly Classified Instances: 93.80475594493116
Weighted Precision: 0.9392926267989458
Weighted AreaUnderROC: 0.9894381616844946
Root mean squared error: 0.27249603840135783
Relative absolute error: 44.848660089888384
Root relative squared error: 54.49920768027157
Weighted TruePositiveRate: 0.9380475594493116
Weighted MatthewsCorrelation: 0.8769312920301783
Weighted FMeasure: 0.9379191379865858
Iteration time: 11.0
Weighted AreaUnderPRC: 0.9896430115600688
Mean absolute error: 0.2242433004494419
Coverage of cases: 100.0
Instances selection time: 10.0
Test time: 23.0
Accumulative iteration time: 437.0
Weighted Recall: 0.9380475594493116
Weighted FalsePositiveRate: 0.0647472400357142
Kappa statistic: 0.8755265663233592
Training time: 1.0
		
Iteration: 26
Labeled set size: 819
Unlabelled set size: 779
	
Mean region size: 91.14518147684606
Incorrectly Classified Instances: 6.570713391739675
Correctly Classified Instances: 93.42928660826033
Weighted Precision: 0.9357612834293244
Weighted AreaUnderROC: 0.9865861985073106
Root mean squared error: 0.27354134197083635
Relative absolute error: 44.71088188847768
Root relative squared error: 54.70826839416727
Weighted TruePositiveRate: 0.9342928660826032
Weighted MatthewsCorrelation: 0.869605435645464
Weighted FMeasure: 0.9341394264314559
Iteration time: 11.0
Weighted AreaUnderPRC: 0.9869522038556894
Mean absolute error: 0.2235544094423884
Coverage of cases: 100.0
Instances selection time: 10.0
Test time: 23.0
Accumulative iteration time: 448.0
Weighted Recall: 0.9342928660826032
Weighted FalsePositiveRate: 0.06874323140700034
Kappa statistic: 0.8679528001498407
Training time: 1.0
		
Iteration: 27
Labeled set size: 839
Unlabelled set size: 759
	
Mean region size: 90.4881101376721
Incorrectly Classified Instances: 6.132665832290363
Correctly Classified Instances: 93.86733416770964
Weighted Precision: 0.9398634191654285
Weighted AreaUnderROC: 0.9900157744798738
Root mean squared error: 0.26852737063860327
Relative absolute error: 44.04194327977123
Root relative squared error: 53.705474127720656
Weighted TruePositiveRate: 0.9386733416770964
Weighted MatthewsCorrelation: 0.8781354849299329
Weighted FMeasure: 0.9385501160760369
Iteration time: 11.0
Weighted AreaUnderPRC: 0.9901621760541098
Mean absolute error: 0.22020971639885617
Coverage of cases: 100.0
Instances selection time: 10.0
Test time: 23.0
Accumulative iteration time: 459.0
Weighted Recall: 0.9386733416770964
Weighted FalsePositiveRate: 0.06406240627398385
Kappa statistic: 0.8767908534887124
Training time: 1.0
		
Iteration: 28
Labeled set size: 859
Unlabelled set size: 739
	
Mean region size: 90.26908635794743
Incorrectly Classified Instances: 6.382978723404255
Correctly Classified Instances: 93.61702127659575
Weighted Precision: 0.9373463487988689
Weighted AreaUnderROC: 0.985727627314179
Root mean squared error: 0.2700737840843817
Relative absolute error: 43.66299848663681
Root relative squared error: 54.01475681687634
Weighted TruePositiveRate: 0.9361702127659575
Weighted MatthewsCorrelation: 0.8730988278707944
Weighted FMeasure: 0.9360419575485281
Iteration time: 10.0
Weighted AreaUnderPRC: 0.9861701910678325
Mean absolute error: 0.21831499243318406
Coverage of cases: 100.0
Instances selection time: 9.0
Test time: 23.0
Accumulative iteration time: 469.0
Weighted Recall: 0.9361702127659575
Weighted FalsePositiveRate: 0.0665757189227134
Kappa statistic: 0.8717619087331497
Training time: 1.0
		
Iteration: 29
Labeled set size: 879
Unlabelled set size: 719
	
Mean region size: 90.05006257822278
Incorrectly Classified Instances: 6.508135168961202
Correctly Classified Instances: 93.4918648310388
Weighted Precision: 0.9360878136155892
Weighted AreaUnderROC: 0.9881887600944901
Root mean squared error: 0.2681248922301812
Relative absolute error: 43.48225001673246
Root relative squared error: 53.624978446036245
Weighted TruePositiveRate: 0.934918648310388
Weighted MatthewsCorrelation: 0.8705804993412252
Weighted FMeasure: 0.9347878782847737
Iteration time: 10.0
Weighted AreaUnderPRC: 0.9885591088225217
Mean absolute error: 0.2174112500836623
Coverage of cases: 100.0
Instances selection time: 9.0
Test time: 23.0
Accumulative iteration time: 479.0
Weighted Recall: 0.934918648310388
Weighted FalsePositiveRate: 0.06783237524707818
Kappa statistic: 0.8692474363553683
Training time: 1.0
		
Iteration: 30
Labeled set size: 899
Unlabelled set size: 699
	
Mean region size: 90.01877346683354
Incorrectly Classified Instances: 6.570713391739675
Correctly Classified Instances: 93.42928660826033
Weighted Precision: 0.9355162731110773
Weighted AreaUnderROC: 0.986821638505427
Root mean squared error: 0.2687120655942588
Relative absolute error: 43.280403903822915
Root relative squared error: 53.742413118851765
Weighted TruePositiveRate: 0.9342928660826032
Weighted MatthewsCorrelation: 0.8693753439547615
Weighted FMeasure: 0.9341566615009242
Iteration time: 10.0
Weighted AreaUnderPRC: 0.9872395487320034
Mean absolute error: 0.21640201951911459
Coverage of cases: 100.0
Instances selection time: 9.0
Test time: 23.0
Accumulative iteration time: 489.0
Weighted Recall: 0.9342928660826032
Weighted FalsePositiveRate: 0.0685172090088085
Kappa statistic: 0.8679827218581083
Training time: 1.0
		
Iteration: 31
Labeled set size: 919
Unlabelled set size: 679
	
Mean region size: 89.79974968710889
Incorrectly Classified Instances: 6.633291614518147
Correctly Classified Instances: 93.36670838548186
Weighted Precision: 0.9348292784323096
Weighted AreaUnderROC: 0.9881981776944145
Root mean squared error: 0.266613507881593
Relative absolute error: 42.941361093696464
Root relative squared error: 53.3227015763186
Weighted TruePositiveRate: 0.9336670838548186
Weighted MatthewsCorrelation: 0.868062170811656
Weighted FMeasure: 0.9335337990210195
Iteration time: 11.0
Weighted AreaUnderPRC: 0.9885429905532195
Mean absolute error: 0.2147068054684823
Coverage of cases: 100.0
Instances selection time: 9.0
Test time: 22.0
Accumulative iteration time: 500.0
Weighted Recall: 0.9336670838548186
Weighted FalsePositiveRate: 0.06908903157144294
Kappa statistic: 0.8667329639775869
Training time: 2.0
		
Iteration: 32
Labeled set size: 939
Unlabelled set size: 659
	
Mean region size: 89.6433041301627
Incorrectly Classified Instances: 6.758448060075094
Correctly Classified Instances: 93.2415519399249
Weighted Precision: 0.9336868516452766
Weighted AreaUnderROC: 0.9865799201073606
Root mean squared error: 0.2676812683280127
Relative absolute error: 42.8471772755454
Root relative squared error: 53.53625366560254
Weighted TruePositiveRate: 0.932415519399249
Weighted MatthewsCorrelation: 0.8656522956456769
Weighted FMeasure: 0.9322710726340262
Iteration time: 10.0
Weighted AreaUnderPRC: 0.9870031110249314
Mean absolute error: 0.21423588637772698
Coverage of cases: 100.0
Instances selection time: 9.0
Test time: 22.0
Accumulative iteration time: 510.0
Weighted Recall: 0.932415519399249
Weighted FalsePositiveRate: 0.07045869909490363
Kappa statistic: 0.8642031067796156
Training time: 1.0
		
Iteration: 33
Labeled set size: 959
Unlabelled set size: 639
	
Mean region size: 89.45556946182728
Incorrectly Classified Instances: 6.320400500625782
Correctly Classified Instances: 93.67959949937422
Weighted Precision: 0.9377056822849111
Weighted AreaUnderROC: 0.987006851303945
Root mean squared error: 0.26517497826498704
Relative absolute error: 42.352709691842946
Root relative squared error: 53.03499565299741
Weighted TruePositiveRate: 0.9367959949937422
Weighted MatthewsCorrelation: 0.8741058806438696
Weighted FMeasure: 0.9366883288512181
Iteration time: 9.0
Weighted AreaUnderPRC: 0.9874884018093598
Mean absolute error: 0.21176354845921472
Coverage of cases: 100.0
Instances selection time: 8.0
Test time: 23.0
Accumulative iteration time: 519.0
Weighted Recall: 0.9367959949937422
Weighted FalsePositiveRate: 0.06566486276279124
Kappa statistic: 0.8730550998032095
Training time: 1.0
		
Iteration: 34
Labeled set size: 979
Unlabelled set size: 619
	
Mean region size: 89.39299123904881
Incorrectly Classified Instances: 6.758448060075094
Correctly Classified Instances: 93.2415519399249
Weighted Precision: 0.9338085760865085
Weighted AreaUnderROC: 0.986350758509194
Root mean squared error: 0.2663153624247962
Relative absolute error: 42.226804608356154
Root relative squared error: 53.26307248495924
Weighted TruePositiveRate: 0.932415519399249
Weighted MatthewsCorrelation: 0.8657663467681753
Weighted FMeasure: 0.9322622089097176
Iteration time: 9.0
Weighted AreaUnderPRC: 0.9868280228369115
Mean absolute error: 0.21113402304178078
Coverage of cases: 100.0
Instances selection time: 8.0
Test time: 23.0
Accumulative iteration time: 528.0
Weighted Recall: 0.932415519399249
Weighted FalsePositiveRate: 0.07057171029399953
Kappa statistic: 0.8641877184726547
Training time: 1.0
		
Iteration: 35
Labeled set size: 999
Unlabelled set size: 599
	
Mean region size: 89.54943679599499
Incorrectly Classified Instances: 6.570713391739675
Correctly Classified Instances: 93.42928660826033
Weighted Precision: 0.9354022258429212
Weighted AreaUnderROC: 0.985780993713752
Root mean squared error: 0.26648691415932696
Relative absolute error: 42.24387262350193
Root relative squared error: 53.29738283186539
Weighted TruePositiveRate: 0.9342928660826032
Weighted MatthewsCorrelation: 0.8692687291307752
Weighted FMeasure: 0.9341649632077876
Iteration time: 9.0
Weighted AreaUnderPRC: 0.9863072397378203
Mean absolute error: 0.21121936311750966
Coverage of cases: 100.0
Instances selection time: 8.0
Test time: 23.0
Accumulative iteration time: 537.0
Weighted Recall: 0.9342928660826032
Weighted FalsePositiveRate: 0.0684041978097126
Kappa statistic: 0.8679976776276557
Training time: 1.0
		
Iteration: 36
Labeled set size: 1019
Unlabelled set size: 579
	
Mean region size: 89.39299123904881
Incorrectly Classified Instances: 6.88360450563204
Correctly Classified Instances: 93.11639549436796
Weighted Precision: 0.9326758367928849
Weighted AreaUnderROC: 0.9859379537124964
Root mean squared error: 0.26784352127882655
Relative absolute error: 42.47407919619397
Root relative squared error: 53.56870425576531
Weighted TruePositiveRate: 0.9311639549436797
Weighted MatthewsCorrelation: 0.8633656913764307
Weighted FMeasure: 0.9309985566820187
Iteration time: 9.0
Weighted AreaUnderPRC: 0.9863946504771857
Mean absolute error: 0.21237039598096985
Coverage of cases: 100.0
Instances selection time: 8.0
Test time: 23.0
Accumulative iteration time: 546.0
Weighted Recall: 0.9311639549436797
Weighted FalsePositiveRate: 0.07194137781746021
Kappa statistic: 0.861656999393992
Training time: 1.0
		
Iteration: 37
Labeled set size: 1039
Unlabelled set size: 559
	
Mean region size: 89.42428035043805
Incorrectly Classified Instances: 6.633291614518147
Correctly Classified Instances: 93.36670838548186
Weighted Precision: 0.9348292784323096
Weighted AreaUnderROC: 0.985288139317695
Root mean squared error: 0.26640298335222495
Relative absolute error: 42.02161392284807
Root relative squared error: 53.28059667044499
Weighted TruePositiveRate: 0.9336670838548186
Weighted MatthewsCorrelation: 0.868062170811656
Weighted FMeasure: 0.9335337990210195
Iteration time: 9.0
Weighted AreaUnderPRC: 0.9858320026273116
Mean absolute error: 0.21010806961424033
Coverage of cases: 100.0
Instances selection time: 8.0
Test time: 23.0
Accumulative iteration time: 555.0
Weighted Recall: 0.9336670838548186
Weighted FalsePositiveRate: 0.06908903157144294
Kappa statistic: 0.8667329639775869
Training time: 1.0
		
Iteration: 38
Labeled set size: 1059
Unlabelled set size: 539
	
Mean region size: 89.23654568210263
Incorrectly Classified Instances: 6.88360450563204
Correctly Classified Instances: 93.11639549436796
Weighted Precision: 0.9326758367928849
Weighted AreaUnderROC: 0.9838786385289708
Root mean squared error: 0.26992504155572183
Relative absolute error: 42.442041231002854
Root relative squared error: 53.98500831114437
Weighted TruePositiveRate: 0.9311639549436797
Weighted MatthewsCorrelation: 0.8633656913764307
Weighted FMeasure: 0.9309985566820187
Iteration time: 8.0
Weighted AreaUnderPRC: 0.9844738346907596
Mean absolute error: 0.21221020615501426
Coverage of cases: 100.0
Instances selection time: 7.0
Test time: 23.0
Accumulative iteration time: 563.0
Weighted Recall: 0.9311639549436797
Weighted FalsePositiveRate: 0.07194137781746021
Kappa statistic: 0.861656999393992
Training time: 1.0
		
Iteration: 39
Labeled set size: 1079
Unlabelled set size: 519
	
Mean region size: 89.51814768460575
Incorrectly Classified Instances: 6.508135168961202
Correctly Classified Instances: 93.4918648310388
Weighted Precision: 0.9359763353437348
Weighted AreaUnderROC: 0.9850966481192268
Root mean squared error: 0.2672630940145267
Relative absolute error: 42.059676657536
Root relative squared error: 53.45261880290534
Weighted TruePositiveRate: 0.934918648310388
Weighted MatthewsCorrelation: 0.8704763744045617
Weighted FMeasure: 0.9347959967593065
Iteration time: 8.0
Weighted AreaUnderPRC: 0.9856082893919245
Mean absolute error: 0.21029838328768
Coverage of cases: 100.0
Instances selection time: 7.0
Test time: 23.0
Accumulative iteration time: 571.0
Weighted Recall: 0.934918648310388
Weighted FalsePositiveRate: 0.06771936404798226
Kappa statistic: 0.8692622480109126
Training time: 1.0
		
Iteration: 40
Labeled set size: 1099
Unlabelled set size: 499
	
Mean region size: 88.92365456821027
Incorrectly Classified Instances: 7.008760951188986
Correctly Classified Instances: 92.99123904881101
Weighted Precision: 0.9315476361111248
Weighted AreaUnderROC: 0.9796344401629243
Root mean squared error: 0.2714173703104
Relative absolute error: 42.124465753921776
Root relative squared error: 54.283474062079996
Weighted TruePositiveRate: 0.9299123904881101
Weighted MatthewsCorrelation: 0.8609692655146394
Weighted FMeasure: 0.929734343084121
Iteration time: 8.0
Weighted AreaUnderPRC: 0.9804781432551939
Mean absolute error: 0.21062232876960887
Coverage of cases: 100.0
Instances selection time: 7.0
Test time: 24.0
Accumulative iteration time: 579.0
Weighted Recall: 0.9299123904881101
Weighted FalsePositiveRate: 0.07331104534092091
Kappa statistic: 0.8591257066304805
Training time: 1.0
		
Iteration: 41
Labeled set size: 1119
Unlabelled set size: 479
	
Mean region size: 89.17396745932416
Incorrectly Classified Instances: 7.133917396745932
Correctly Classified Instances: 92.86608260325407
Weighted Precision: 0.9300299038751833
Weighted AreaUnderROC: 0.9813641393490868
Root mean squared error: 0.2724138124091121
Relative absolute error: 42.474325161767915
Root relative squared error: 54.48276248182242
Weighted TruePositiveRate: 0.9286608260325406
Weighted MatthewsCorrelation: 0.8582074371887721
Weighted FMeasure: 0.9284989982935908
Iteration time: 8.0
Weighted AreaUnderPRC: 0.9821012866150514
Mean absolute error: 0.2123716258088396
Coverage of cases: 100.0
Instances selection time: 7.0
Test time: 23.0
Accumulative iteration time: 587.0
Weighted Recall: 0.9286608260325406
Weighted FalsePositiveRate: 0.07434167926709385
Kappa statistic: 0.8566425917211355
Training time: 1.0
		
Iteration: 42
Labeled set size: 1139
Unlabelled set size: 459
	
Mean region size: 88.92365456821027
Incorrectly Classified Instances: 7.071339173967459
Correctly Classified Instances: 92.92866082603254
Weighted Precision: 0.9305987718594708
Weighted AreaUnderROC: 0.97948375856413
Root mean squared error: 0.2727896086557901
Relative absolute error: 42.1745696111429
Root relative squared error: 54.55792173115802
Weighted TruePositiveRate: 0.9292866082603254
Weighted MatthewsCorrelation: 0.8594103624282776
Weighted FMeasure: 0.9291308654458579
Iteration time: 7.0
Weighted AreaUnderPRC: 0.9803308613275383
Mean absolute error: 0.2108728480557145
Coverage of cases: 100.0
Instances selection time: 6.0
Test time: 23.0
Accumulative iteration time: 594.0
Weighted Recall: 0.9292866082603254
Weighted FalsePositiveRate: 0.07365684550536351
Kappa statistic: 0.8579081636667805
Training time: 1.0
		
Iteration: 43
Labeled set size: 1159
Unlabelled set size: 439
	
Mean region size: 88.76720901126409
Incorrectly Classified Instances: 7.071339173967459
Correctly Classified Instances: 92.92866082603254
Weighted Precision: 0.9307219903461529
Weighted AreaUnderROC: 0.9802340273581279
Root mean squared error: 0.2705014154841173
Relative absolute error: 41.65673512862215
Root relative squared error: 54.10028309682347
Weighted TruePositiveRate: 0.9292866082603254
Weighted MatthewsCorrelation: 0.8595255403435744
Weighted FMeasure: 0.9291214779690906
Iteration time: 7.0
Weighted AreaUnderPRC: 0.9810503173950171
Mean absolute error: 0.20828367564311076
Coverage of cases: 100.0
Instances selection time: 6.0
Test time: 23.0
Accumulative iteration time: 601.0
Weighted Recall: 0.9292866082603254
Weighted FalsePositiveRate: 0.07376985670445942
Kappa statistic: 0.8578920611136381
Training time: 1.0
		
Iteration: 44
Labeled set size: 1179
Unlabelled set size: 419
	
Mean region size: 88.45431789737171
Incorrectly Classified Instances: 7.571964956195244
Correctly Classified Instances: 92.42803504380475
Weighted Precision: 0.9259415140166166
Weighted AreaUnderROC: 0.9788009825695921
Root mean squared error: 0.2717760061746716
Relative absolute error: 41.5953646374885
Root relative squared error: 54.35520123493433
Weighted TruePositiveRate: 0.9242803504380476
Weighted MatthewsCorrelation: 0.8496871692827476
Weighted FMeasure: 0.9240826960530634
Iteration time: 7.0
Weighted AreaUnderPRC: 0.9796955006149407
Mean absolute error: 0.2079768231874425
Coverage of cases: 100.0
Instances selection time: 6.0
Test time: 23.0
Accumulative iteration time: 608.0
Weighted Recall: 0.9242803504380476
Weighted FalsePositiveRate: 0.07902250440011031
Kappa statistic: 0.847796825236895
Training time: 1.0
		
Iteration: 45
Labeled set size: 1199
Unlabelled set size: 399
	
Mean region size: 88.45431789737171
Incorrectly Classified Instances: 7.259073842302879
Correctly Classified Instances: 92.74092615769712
Weighted Precision: 0.9290263446839157
Weighted AreaUnderROC: 0.9790788017673696
Root mean squared error: 0.27037289991635177
Relative absolute error: 41.29224312989459
Root relative squared error: 54.074579983270354
Weighted TruePositiveRate: 0.9274092615769712
Weighted MatthewsCorrelation: 0.8559272444744379
Weighted FMeasure: 0.9272248553371253
Iteration time: 7.0
Weighted AreaUnderPRC: 0.9799478015248515
Mean absolute error: 0.20646121564947292
Coverage of cases: 100.0
Instances selection time: 6.0
Test time: 27.0
Accumulative iteration time: 615.0
Weighted Recall: 0.9274092615769712
Weighted FalsePositiveRate: 0.07582435798965044
Kappa statistic: 0.8540944818672834
Training time: 1.0
		
Iteration: 46
Labeled set size: 1219
Unlabelled set size: 379
	
Mean region size: 88.29787234042553
Incorrectly Classified Instances: 7.509386733416771
Correctly Classified Instances: 92.49061326658322
Weighted Precision: 0.9267811080927312
Weighted AreaUnderROC: 0.9761844593905243
Root mean squared error: 0.27251599246758745
Relative absolute error: 41.25872849154831
Root relative squared error: 54.50319849351749
Weighted TruePositiveRate: 0.9249061326658323
Weighted MatthewsCorrelation: 0.8511440486147164
Weighted FMeasure: 0.9246939820281064
Iteration time: 6.0
Weighted AreaUnderPRC: 0.9771871003225645
Mean absolute error: 0.20629364245774157
Coverage of cases: 100.0
Instances selection time: 5.0
Test time: 23.0
Accumulative iteration time: 621.0
Weighted Recall: 0.9249061326658323
Weighted FalsePositiveRate: 0.0785636930365718
Kappa statistic: 0.8490290337259818
Training time: 1.0
		
Time end:Sat Oct 07 13.17.35 EEST 2017