Sat Oct 07 13.34.30 EEST 2017
Dataset: kr-vs-kp
Test set size: 1598
Initial Labelled set size: 319
Initial Unlabelled set size: 1279
Batch mode: QBestBatchMode
Batch size: 20
Classifiers: RandomForest-1cores
Scenario: PoolBasedSamplingScenario
Query strategy: RandomSelectionQueryStrategy-1cores
Time begining: Sat Oct 07 13.34.30 EEST 2017
		
Iteration: 1
Labeled set size: 319
Unlabelled set size: 1279
	
Mean region size: 87.54693366708385
Incorrectly Classified Instances: 11.576971214017522
Correctly Classified Instances: 88.42302878598248
Weighted Precision: 0.8845492436270185
Weighted AreaUnderROC: 0.9589722259282221
Root mean squared error: 0.29417016860925055
Relative absolute error: 42.37407431225787
Root relative squared error: 58.83403372185011
Weighted TruePositiveRate: 0.8842302878598248
Weighted MatthewsCorrelation: 0.7681186077409988
Weighted FMeasure: 0.8840969666807359
Iteration time: 15.0
Weighted AreaUnderPRC: 0.9501410735385213
Mean absolute error: 0.21187037156128935
Coverage of cases: 99.7496871088861
Instances selection time: 4.0
Test time: 8.0
Accumulative iteration time: 15.0
Weighted Recall: 0.8842302878598248
Weighted FalsePositiveRate: 0.1178793723906321
Kappa statistic: 0.7676087670836603
Training time: 11.0
		
Iteration: 2
Labeled set size: 339
Unlabelled set size: 1259
	
Mean region size: 77.15894868585733
Incorrectly Classified Instances: 5.569461827284105
Correctly Classified Instances: 94.4305381727159
Weighted Precision: 0.9444242573512418
Weighted AreaUnderROC: 0.9840662057274705
Root mean squared error: 0.22382727439963143
Relative absolute error: 26.34470624512512
Root relative squared error: 44.76545487992629
Weighted TruePositiveRate: 0.9443053817271589
Weighted MatthewsCorrelation: 0.8885379552283279
Weighted FMeasure: 0.9443200377285759
Iteration time: 13.0
Weighted AreaUnderPRC: 0.9801105668964607
Mean absolute error: 0.1317235312256256
Coverage of cases: 99.87484355444306
Instances selection time: 3.0
Test time: 7.0
Accumulative iteration time: 28.0
Weighted Recall: 0.9443053817271589
Weighted FalsePositiveRate: 0.05529964483920485
Kappa statistic: 0.8884535083082222
Training time: 10.0
		
Iteration: 3
Labeled set size: 359
Unlabelled set size: 1239
	
Mean region size: 82.72841051314143
Incorrectly Classified Instances: 5.569461827284105
Correctly Classified Instances: 94.4305381727159
Weighted Precision: 0.9443092257382948
Weighted AreaUnderROC: 0.9866968553064251
Root mean squared error: 0.23599942676911478
Relative absolute error: 31.39258037192937
Root relative squared error: 47.19988535382296
Weighted TruePositiveRate: 0.9443053817271589
Weighted MatthewsCorrelation: 0.8883911804046505
Weighted FMeasure: 0.9443069333144251
Iteration time: 15.0
Weighted AreaUnderPRC: 0.9831865034577151
Mean absolute error: 0.15696290185964684
Coverage of cases: 100.0
Instances selection time: 3.0
Test time: 7.0
Accumulative iteration time: 43.0
Weighted Recall: 0.9443053817271589
Weighted FalsePositiveRate: 0.0558647008346844
Kappa statistic: 0.8883904818556646
Training time: 12.0
		
Iteration: 4
Labeled set size: 379
Unlabelled set size: 1219
	
Mean region size: 84.66833541927409
Incorrectly Classified Instances: 7.3842302878598245
Correctly Classified Instances: 92.61576971214018
Weighted Precision: 0.9262305235330366
Weighted AreaUnderROC: 0.9784807841721538
Root mean squared error: 0.26220413427634354
Relative absolute error: 36.901567616085615
Root relative squared error: 52.44082685526871
Weighted TruePositiveRate: 0.9261576971214017
Weighted MatthewsCorrelation: 0.8520293581630968
Weighted FMeasure: 0.926122780047594
Iteration time: 15.0
Weighted AreaUnderPRC: 0.9738829369872114
Mean absolute error: 0.1845078380804281
Coverage of cases: 100.0
Instances selection time: 3.0
Test time: 8.0
Accumulative iteration time: 58.0
Weighted Recall: 0.9261576971214017
Weighted FalsePositiveRate: 0.07493380153119292
Kappa statistic: 0.8518978135441194
Training time: 12.0
		
Iteration: 5
Labeled set size: 399
Unlabelled set size: 1199
	
Mean region size: 82.47809762202753
Incorrectly Classified Instances: 6.257822277847309
Correctly Classified Instances: 93.74217772215269
Weighted Precision: 0.9374551176547007
Weighted AreaUnderROC: 0.9861365081109079
Root mean squared error: 0.23213572345204098
Relative absolute error: 30.620319575139476
Root relative squared error: 46.4271446904082
Weighted TruePositiveRate: 0.9374217772215269
Weighted MatthewsCorrelation: 0.8745869143845696
Weighted FMeasure: 0.9374016293768392
Iteration time: 15.0
Weighted AreaUnderPRC: 0.9826328243476836
Mean absolute error: 0.15310159787569738
Coverage of cases: 100.0
Instances selection time: 3.0
Test time: 8.0
Accumulative iteration time: 73.0
Weighted Recall: 0.9374217772215269
Weighted FalsePositiveRate: 0.06339787221371815
Kappa statistic: 0.8745180566788903
Training time: 12.0
		
Iteration: 6
Labeled set size: 419
Unlabelled set size: 1179
	
Mean region size: 81.25782227784731
Incorrectly Classified Instances: 6.382978723404255
Correctly Classified Instances: 93.61702127659575
Weighted Precision: 0.9362746398225741
Weighted AreaUnderROC: 0.9828113105375096
Root mean squared error: 0.24334126148878663
Relative absolute error: 31.468150978196295
Root relative squared error: 48.66825229775733
Weighted TruePositiveRate: 0.9361702127659575
Weighted MatthewsCorrelation: 0.8722214973766357
Weighted FMeasure: 0.9361857336259932
Iteration time: 16.0
Weighted AreaUnderPRC: 0.9781862390063821
Mean absolute error: 0.15734075489098148
Coverage of cases: 99.93742177722153
Instances selection time: 3.0
Test time: 8.0
Accumulative iteration time: 89.0
Weighted Recall: 0.9361702127659575
Weighted FalsePositiveRate: 0.06352441654712382
Kappa statistic: 0.8721529809479737
Training time: 13.0
		
Iteration: 7
Labeled set size: 439
Unlabelled set size: 1159
	
Mean region size: 79.8811013767209
Incorrectly Classified Instances: 5.381727158948686
Correctly Classified Instances: 94.61827284105131
Weighted Precision: 0.9462060876010133
Weighted AreaUnderROC: 0.9859089161127287
Root mean squared error: 0.22708395583138538
Relative absolute error: 28.414765873362196
Root relative squared error: 45.41679116627708
Weighted TruePositiveRate: 0.9461827284105131
Weighted MatthewsCorrelation: 0.8921820989984148
Weighted FMeasure: 0.9461884712166051
Iteration time: 15.0
Weighted AreaUnderPRC: 0.9822533291066813
Mean absolute error: 0.14207382936681098
Coverage of cases: 99.93742177722153
Instances selection time: 2.0
Test time: 8.0
Accumulative iteration time: 104.0
Weighted Recall: 0.9461827284105131
Weighted FalsePositiveRate: 0.05381019954949337
Kappa statistic: 0.8921708782595186
Training time: 13.0
		
Iteration: 8
Labeled set size: 459
Unlabelled set size: 1139
	
Mean region size: 80.03754693366709
Incorrectly Classified Instances: 5.068836045056321
Correctly Classified Instances: 94.93116395494368
Weighted Precision: 0.9496201627247187
Weighted AreaUnderROC: 0.9899098264807213
Root mean squared error: 0.21817169270613865
Relative absolute error: 27.270755110554695
Root relative squared error: 43.63433854122773
Weighted TruePositiveRate: 0.9493116395494368
Weighted MatthewsCorrelation: 0.8987806446698766
Weighted FMeasure: 0.9493316502437396
Iteration time: 15.0
Weighted AreaUnderPRC: 0.9868645235852223
Mean absolute error: 0.13635377555277348
Coverage of cases: 99.93742177722153
Instances selection time: 2.0
Test time: 8.0
Accumulative iteration time: 119.0
Weighted Recall: 0.9493116395494368
Weighted FalsePositiveRate: 0.04982097474536211
Kappa statistic: 0.8985260015459657
Training time: 13.0
		
Iteration: 9
Labeled set size: 479
Unlabelled set size: 1119
	
Mean region size: 80.16270337922403
Incorrectly Classified Instances: 4.25531914893617
Correctly Classified Instances: 95.74468085106383
Weighted Precision: 0.9576687784155077
Weighted AreaUnderROC: 0.9856146161150829
Root mean squared error: 0.2242909642158491
Relative absolute error: 28.34031685264827
Root relative squared error: 44.85819284316982
Weighted TruePositiveRate: 0.9574468085106383
Weighted MatthewsCorrelation: 0.9149814117724386
Weighted FMeasure: 0.9574617577903684
Iteration time: 16.0
Weighted AreaUnderPRC: 0.9813470541893786
Mean absolute error: 0.14170158426324136
Coverage of cases: 99.87484355444306
Instances selection time: 2.0
Test time: 8.0
Accumulative iteration time: 135.0
Weighted Recall: 0.9574468085106383
Weighted FalsePositiveRate: 0.04182222543563496
Kappa statistic: 0.9147975241539266
Training time: 14.0
		
Iteration: 10
Labeled set size: 499
Unlabelled set size: 1099
	
Mean region size: 80.00625782227785
Incorrectly Classified Instances: 4.755944931163955
Correctly Classified Instances: 95.24405506883605
Weighted Precision: 0.9530851159507444
Weighted AreaUnderROC: 0.9871324193029406
Root mean squared error: 0.2210888137210505
Relative absolute error: 28.002048014563467
Root relative squared error: 44.2177627442101
Weighted TruePositiveRate: 0.9524405506883604
Weighted MatthewsCorrelation: 0.9052468636471457
Weighted FMeasure: 0.9523783048985781
Iteration time: 18.0
Weighted AreaUnderPRC: 0.9833464474367408
Mean absolute error: 0.14001024007281734
Coverage of cases: 99.87484355444306
Instances selection time: 2.0
Test time: 8.0
Accumulative iteration time: 153.0
Weighted Recall: 0.9524405506883604
Weighted FalsePositiveRate: 0.049561119511395905
Kappa statistic: 0.9045149562939399
Training time: 16.0
		
Iteration: 11
Labeled set size: 519
Unlabelled set size: 1079
	
Mean region size: 80.25657071339174
Incorrectly Classified Instances: 3.8798498122653315
Correctly Classified Instances: 96.12015018773467
Weighted Precision: 0.9615994146756196
Weighted AreaUnderROC: 0.9909190792726472
Root mean squared error: 0.2028964652724025
Relative absolute error: 25.551135347755928
Root relative squared error: 40.579293054480495
Weighted TruePositiveRate: 0.9612015018773467
Weighted MatthewsCorrelation: 0.922692080921575
Weighted FMeasure: 0.9612182312415494
Iteration time: 17.0
Weighted AreaUnderPRC: 0.9879754001989917
Mean absolute error: 0.12775567673877963
Coverage of cases: 99.93742177722153
Instances selection time: 2.0
Test time: 8.0
Accumulative iteration time: 170.0
Weighted Recall: 0.9612015018773467
Weighted FalsePositiveRate: 0.037713222865252916
Kappa statistic: 0.9223416946623043
Training time: 15.0
		
Iteration: 12
Labeled set size: 539
Unlabelled set size: 1059
	
Mean region size: 82.47809762202753
Incorrectly Classified Instances: 4.067584480600751
Correctly Classified Instances: 95.93241551939924
Weighted Precision: 0.95934340982003
Weighted AreaUnderROC: 0.9914394016684847
Root mean squared error: 0.22306320701264212
Relative absolute error: 30.17574050896932
Root relative squared error: 44.612641402528425
Weighted TruePositiveRate: 0.9593241551939925
Weighted MatthewsCorrelation: 0.9184859897646493
Weighted FMeasure: 0.9593153249871561
Iteration time: 19.0
Weighted AreaUnderPRC: 0.9887798697763839
Mean absolute error: 0.1508787025448466
Coverage of cases: 100.0
Instances selection time: 2.0
Test time: 9.0
Accumulative iteration time: 189.0
Weighted Recall: 0.9593241551939925
Weighted FalsePositiveRate: 0.04123686973869077
Kappa statistic: 0.9184505686555611
Training time: 17.0
		
Iteration: 13
Labeled set size: 559
Unlabelled set size: 1039
	
Mean region size: 83.32290362953692
Incorrectly Classified Instances: 4.44305381727159
Correctly Classified Instances: 95.55694618272841
Weighted Precision: 0.9559550788772724
Weighted AreaUnderROC: 0.9916567912667456
Root mean squared error: 0.22475310504441362
Relative absolute error: 30.812404394381648
Root relative squared error: 44.95062100888273
Weighted TruePositiveRate: 0.9555694618272841
Weighted MatthewsCorrelation: 0.9112814719828305
Weighted FMeasure: 0.9555271128504687
Iteration time: 20.0
Weighted AreaUnderPRC: 0.9893212764609397
Mean absolute error: 0.15406202197190824
Coverage of cases: 100.0
Instances selection time: 2.0
Test time: 9.0
Accumulative iteration time: 209.0
Weighted Recall: 0.9555694618272841
Weighted FalsePositiveRate: 0.04602393950364828
Kappa statistic: 0.9108322003127922
Training time: 18.0
		
Iteration: 14
Labeled set size: 579
Unlabelled set size: 1019
	
Mean region size: 77.12765957446808
Incorrectly Classified Instances: 4.192740926157697
Correctly Classified Instances: 95.8072590738423
Weighted Precision: 0.9580756785184464
Weighted AreaUnderROC: 0.9920703808634369
Root mean squared error: 0.19839881600087678
Relative absolute error: 23.338731359240654
Root relative squared error: 39.67976320017536
Weighted TruePositiveRate: 0.958072590738423
Weighted MatthewsCorrelation: 0.9159800717516692
Weighted FMeasure: 0.9580737587872638
Iteration time: 19.0
Weighted AreaUnderPRC: 0.9898820329726058
Mean absolute error: 0.11669365679620328
Coverage of cases: 100.0
Instances selection time: 2.0
Test time: 8.0
Accumulative iteration time: 228.0
Weighted Recall: 0.958072590738423
Weighted FalsePositiveRate: 0.042041481266671905
Kappa statistic: 0.9159793515093204
Training time: 17.0
		
Iteration: 15
Labeled set size: 599
Unlabelled set size: 999
	
Mean region size: 77.72215269086358
Incorrectly Classified Instances: 4.005006257822278
Correctly Classified Instances: 95.99499374217773
Weighted Precision: 0.9601436026368082
Weighted AreaUnderROC: 0.9911121400711029
Root mean squared error: 0.2082175314370031
Relative absolute error: 25.473508552356993
Root relative squared error: 41.64350628740062
Weighted TruePositiveRate: 0.9599499374217773
Weighted MatthewsCorrelation: 0.919890104843295
Weighted FMeasure: 0.9599244489128703
Iteration time: 20.0
Weighted AreaUnderPRC: 0.9886025385602548
Mean absolute error: 0.12736754276178497
Coverage of cases: 99.93742177722153
Instances selection time: 2.0
Test time: 8.0
Accumulative iteration time: 248.0
Weighted Recall: 0.9599499374217773
Weighted FalsePositiveRate: 0.041230103171535894
Kappa statistic: 0.9196552162989802
Training time: 18.0
		
Iteration: 16
Labeled set size: 619
Unlabelled set size: 979
	
Mean region size: 79.91239048811013
Incorrectly Classified Instances: 3.0037546933667083
Correctly Classified Instances: 96.9962453066333
Weighted Precision: 0.9699991694925787
Weighted AreaUnderROC: 0.9920515456635878
Root mean squared error: 0.19814142459470324
Relative absolute error: 25.042709637046123
Root relative squared error: 39.62828491894065
Weighted TruePositiveRate: 0.9699624530663329
Weighted MatthewsCorrelation: 0.9398496930151801
Weighted FMeasure: 0.9699671190967017
Iteration time: 21.0
Weighted AreaUnderPRC: 0.9895460733386713
Mean absolute error: 0.12521354818523062
Coverage of cases: 99.93742177722153
Instances selection time: 2.0
Test time: 9.0
Accumulative iteration time: 269.0
Weighted Recall: 0.9699624530663329
Weighted FalsePositiveRate: 0.0298207181874668
Kappa statistic: 0.9398231032713499
Training time: 19.0
		
Iteration: 17
Labeled set size: 639
Unlabelled set size: 959
	
Mean region size: 77.62828535669587
Incorrectly Classified Instances: 3.566958698372966
Correctly Classified Instances: 96.43304130162703
Weighted Precision: 0.9643965232841288
Weighted AreaUnderROC: 0.9932161888542704
Root mean squared error: 0.19537284511090405
Relative absolute error: 23.80504039139818
Root relative squared error: 39.07456902218081
Weighted TruePositiveRate: 0.9643304130162703
Weighted MatthewsCorrelation: 0.9285597185438397
Weighted FMeasure: 0.9643176254319052
Iteration time: 22.0
Weighted AreaUnderPRC: 0.9909826726016097
Mean absolute error: 0.1190252019569909
Coverage of cases: 99.87484355444306
Instances selection time: 3.0
Test time: 8.0
Accumulative iteration time: 291.0
Weighted Recall: 0.9643304130162703
Weighted FalsePositiveRate: 0.03643626683942351
Kappa statistic: 0.9284712482468442
Training time: 19.0
		
Iteration: 18
Labeled set size: 659
Unlabelled set size: 939
	
Mean region size: 76.34543178973718
Incorrectly Classified Instances: 3.44180225281602
Correctly Classified Instances: 96.55819774718398
Weighted Precision: 0.9656491048207422
Weighted AreaUnderROC: 0.9938000800495993
Root mean squared error: 0.18842014029622678
Relative absolute error: 22.00282444806832
Root relative squared error: 37.68402805924536
Weighted TruePositiveRate: 0.9655819774718398
Weighted MatthewsCorrelation: 0.9310697384540394
Weighted FMeasure: 0.9655696385746454
Iteration time: 22.0
Weighted AreaUnderPRC: 0.9919272098590708
Mean absolute error: 0.1100141222403416
Coverage of cases: 99.93742177722153
Instances selection time: 2.0
Test time: 9.0
Accumulative iteration time: 313.0
Weighted Recall: 0.9655819774718398
Weighted FalsePositiveRate: 0.03517961051505874
Kappa statistic: 0.930981029010113
Training time: 20.0
		
Iteration: 19
Labeled set size: 679
Unlabelled set size: 919
	
Mean region size: 79.91239048811013
Incorrectly Classified Instances: 3.6921151439299122
Correctly Classified Instances: 96.30788485607009
Weighted Precision: 0.9631189929622294
Weighted AreaUnderROC: 0.9933700096530398
Root mean squared error: 0.20446415769254106
Relative absolute error: 26.179545584684178
Root relative squared error: 40.89283153850821
Weighted TruePositiveRate: 0.9630788485607009
Weighted MatthewsCorrelation: 0.9260288871386866
Weighted FMeasure: 0.9630682812010609
Iteration time: 24.0
Weighted AreaUnderPRC: 0.9913483958642788
Mean absolute error: 0.1308977279234209
Coverage of cases: 100.0
Instances selection time: 2.0
Test time: 8.0
Accumulative iteration time: 337.0
Weighted Recall: 0.9630788485607009
Weighted FalsePositiveRate: 0.03757991196469237
Kappa statistic: 0.9259698389242143
Training time: 22.0
		
Iteration: 20
Labeled set size: 699
Unlabelled set size: 899
	
Mean region size: 77.25281602002504
Incorrectly Classified Instances: 3.8172715894868587
Correctly Classified Instances: 96.18272841051314
Weighted Precision: 0.9621622863487695
Weighted AreaUnderROC: 0.9931047472551621
Root mean squared error: 0.198153850270399
Relative absolute error: 23.975835178588483
Root relative squared error: 39.630770054079804
Weighted TruePositiveRate: 0.9618272841051314
Weighted MatthewsCorrelation: 0.9237850935307497
Weighted FMeasure: 0.9617945056438495
Iteration time: 22.0
Weighted AreaUnderPRC: 0.9911126276636484
Mean absolute error: 0.1198791758929424
Coverage of cases: 100.0
Instances selection time: 2.0
Test time: 8.0
Accumulative iteration time: 359.0
Weighted Recall: 0.9618272841051314
Weighted FalsePositiveRate: 0.039627646682728515
Kappa statistic: 0.9233997142753864
Training time: 20.0
		
Iteration: 21
Labeled set size: 719
Unlabelled set size: 879
	
Mean region size: 76.9712140175219
Incorrectly Classified Instances: 3.504380475594493
Correctly Classified Instances: 96.49561952440551
Weighted Precision: 0.9650376525822606
Weighted AreaUnderROC: 0.9923301496613588
Root mean squared error: 0.19687670971901952
Relative absolute error: 23.520129328326874
Root relative squared error: 39.3753419438039
Weighted TruePositiveRate: 0.9649561952440551
Weighted MatthewsCorrelation: 0.9298276086741105
Weighted FMeasure: 0.9649423238561237
Iteration time: 24.0
Weighted AreaUnderPRC: 0.9900754825789112
Mean absolute error: 0.11760064664163437
Coverage of cases: 99.93742177722153
Instances selection time: 2.0
Test time: 9.0
Accumulative iteration time: 383.0
Weighted Recall: 0.9649561952440551
Weighted FalsePositiveRate: 0.03586444427678907
Kappa statistic: 0.929722165067468
Training time: 22.0
		
Iteration: 22
Labeled set size: 739
Unlabelled set size: 859
	
Mean region size: 78.56695869837297
Incorrectly Classified Instances: 2.690863579474343
Correctly Classified Instances: 97.30913642052566
Weighted Precision: 0.9731023324953402
Weighted AreaUnderROC: 0.9949082176407343
Root mean squared error: 0.18853164381307935
Relative absolute error: 23.692956599217897
Root relative squared error: 37.70632876261587
Weighted TruePositiveRate: 0.9730913642052565
Weighted MatthewsCorrelation: 0.9460766235893866
Weighted FMeasure: 0.9730872978212866
Iteration time: 25.0
Weighted AreaUnderPRC: 0.9933344809309582
Mean absolute error: 0.11846478299608948
Coverage of cases: 99.93742177722153
Instances selection time: 2.0
Test time: 9.0
Accumulative iteration time: 408.0
Weighted Recall: 0.9730913642052565
Weighted FalsePositiveRate: 0.02730063897158237
Kappa statistic: 0.9460580131098637
Training time: 23.0
		
Iteration: 23
Labeled set size: 759
Unlabelled set size: 839
	
Mean region size: 78.78598247809762
Incorrectly Classified Instances: 4.317897371714643
Correctly Classified Instances: 95.68210262828536
Weighted Precision: 0.9568810340644484
Weighted AreaUnderROC: 0.990685993674512
Root mean squared error: 0.2106158374583494
Relative absolute error: 26.122295726801166
Root relative squared error: 42.123167491669875
Weighted TruePositiveRate: 0.9568210262828536
Weighted MatthewsCorrelation: 0.913499599082642
Weighted FMeasure: 0.9568055465754642
Iteration time: 27.0
Weighted AreaUnderPRC: 0.9880424503938384
Mean absolute error: 0.13061147863400582
Coverage of cases: 99.93742177722153
Instances selection time: 2.0
Test time: 10.0
Accumulative iteration time: 435.0
Weighted Recall: 0.9568210262828536
Weighted FalsePositiveRate: 0.04397620478561214
Kappa statistic: 0.9134125636672327
Training time: 25.0
		
Iteration: 24
Labeled set size: 779
Unlabelled set size: 819
	
Mean region size: 77.94117647058823
Incorrectly Classified Instances: 3.44180225281602
Correctly Classified Instances: 96.55819774718398
Weighted Precision: 0.9656041911719289
Weighted AreaUnderROC: 0.9942638968458888
Root mean squared error: 0.19310642190990693
Relative absolute error: 23.47233974576321
Root relative squared error: 38.62128438198138
Weighted TruePositiveRate: 0.9655819774718398
Weighted MatthewsCorrelation: 0.9310325399789008
Weighted FMeasure: 0.9655745057583627
Iteration time: 25.0
Weighted AreaUnderPRC: 0.992634255055164
Mean absolute error: 0.11736169872881606
Coverage of cases: 100.0
Instances selection time: 2.0
Test time: 9.0
Accumulative iteration time: 460.0
Weighted Recall: 0.9655819774718398
Weighted FalsePositiveRate: 0.03495358811686691
Kappa statistic: 0.930996635016244
Training time: 23.0
		
Iteration: 25
Labeled set size: 799
Unlabelled set size: 799
	
Mean region size: 74.15519399249061
Incorrectly Classified Instances: 2.3153942428035044
Correctly Classified Instances: 97.6846057571965
Weighted Precision: 0.9768582347327299
Weighted AreaUnderROC: 0.9963569584291443
Root mean squared error: 0.17262465129602603
Relative absolute error: 19.595666832344126
Root relative squared error: 34.524930259205206
Weighted TruePositiveRate: 0.976846057571965
Weighted MatthewsCorrelation: 0.9536035605217952
Weighted FMeasure: 0.9768425585904092
Iteration time: 25.0
Weighted AreaUnderPRC: 0.9952827763792098
Mean absolute error: 0.09797833416172062
Coverage of cases: 100.0
Instances selection time: 2.0
Test time: 8.0
Accumulative iteration time: 485.0
Weighted Recall: 0.976846057571965
Weighted FalsePositiveRate: 0.02353066999848806
Kappa statistic: 0.9535848019782549
Training time: 23.0
		
Iteration: 26
Labeled set size: 819
Unlabelled set size: 779
	
Mean region size: 77.65957446808511
Incorrectly Classified Instances: 3.504380475594493
Correctly Classified Instances: 96.49561952440551
Weighted Precision: 0.9649943251997039
Weighted AreaUnderROC: 0.991137253670902
Root mean squared error: 0.1898681259917997
Relative absolute error: 22.230283737411995
Root relative squared error: 37.97362519835994
Weighted TruePositiveRate: 0.9649561952440551
Weighted MatthewsCorrelation: 0.9298199264700784
Weighted FMeasure: 0.9649616389461521
Iteration time: 26.0
Weighted AreaUnderPRC: 0.9884803530421808
Mean absolute error: 0.11115141868705998
Coverage of cases: 99.93742177722153
Instances selection time: 1.0
Test time: 9.0
Accumulative iteration time: 511.0
Weighted Recall: 0.9649561952440551
Weighted FalsePositiveRate: 0.03484734348492589
Kappa statistic: 0.9297936204832415
Training time: 25.0
		
Iteration: 27
Labeled set size: 839
Unlabelled set size: 759
	
Mean region size: 75.15644555694618
Incorrectly Classified Instances: 3.254067584480601
Correctly Classified Instances: 96.7459324155194
Weighted Precision: 0.9674747171494547
Weighted AreaUnderROC: 0.9951075568391395
Root mean squared error: 0.18216580611482078
Relative absolute error: 20.954313734740353
Root relative squared error: 36.43316122296415
Weighted TruePositiveRate: 0.967459324155194
Weighted MatthewsCorrelation: 0.9347906250795827
Weighted FMeasure: 0.9674533461702144
Iteration time: 26.0
Weighted AreaUnderPRC: 0.9936830317703994
Mean absolute error: 0.10477156867370176
Coverage of cases: 100.0
Instances selection time: 2.0
Test time: 8.0
Accumulative iteration time: 537.0
Weighted Recall: 0.967459324155194
Weighted FalsePositiveRate: 0.0330120980307718
Kappa statistic: 0.9347641425742947
Training time: 24.0
		
Iteration: 28
Labeled set size: 859
Unlabelled set size: 739
	
Mean region size: 76.40801001251565
Incorrectly Classified Instances: 2.5031289111389237
Correctly Classified Instances: 97.49687108886107
Weighted Precision: 0.9749745204715177
Weighted AreaUnderROC: 0.9936745120506038
Root mean squared error: 0.1860929895265764
Relative absolute error: 22.018773466833355
Root relative squared error: 37.218597905315285
Weighted TruePositiveRate: 0.9749687108886108
Weighted MatthewsCorrelation: 0.9498442400474653
Weighted FMeasure: 0.9749700858542699
Iteration time: 29.0
Weighted AreaUnderPRC: 0.9916755266560549
Mean absolute error: 0.11009386733416678
Coverage of cases: 99.93742177722153
Instances selection time: 2.0
Test time: 9.0
Accumulative iteration time: 566.0
Weighted Recall: 0.9749687108886108
Weighted FalsePositiveRate: 0.025020115288199526
Kappa statistic: 0.9498412529014701
Training time: 27.0
		
Iteration: 29
Labeled set size: 879
Unlabelled set size: 719
	
Mean region size: 72.4342928660826
Incorrectly Classified Instances: 3.0037546933667083
Correctly Classified Instances: 96.9962453066333
Weighted Precision: 0.9700484436824909
Weighted AreaUnderROC: 0.994937255240502
Root mean squared error: 0.1704294481762999
Relative absolute error: 18.2384866653886
Root relative squared error: 34.08588963525998
Weighted TruePositiveRate: 0.9699624530663329
Weighted MatthewsCorrelation: 0.9398684380212872
Weighted FMeasure: 0.9699505633052488
Iteration time: 28.0
Weighted AreaUnderPRC: 0.9934550211037965
Mean absolute error: 0.09119243332694299
Coverage of cases: 99.93742177722153
Instances selection time: 1.0
Test time: 9.0
Accumulative iteration time: 594.0
Weighted Recall: 0.9699624530663329
Weighted FalsePositiveRate: 0.03083781897932999
Kappa statistic: 0.9397618557721154
Training time: 27.0
		
Iteration: 30
Labeled set size: 899
Unlabelled set size: 699
	
Mean region size: 76.3767209011264
Incorrectly Classified Instances: 3.1914893617021276
Correctly Classified Instances: 96.80851063829788
Weighted Precision: 0.96826721169716
Weighted AreaUnderROC: 0.9949592296403261
Root mean squared error: 0.1838889198404084
Relative absolute error: 21.61410734134435
Root relative squared error: 36.77778396808168
Weighted TruePositiveRate: 0.9680851063829787
Weighted MatthewsCorrelation: 0.9361920723889515
Weighted FMeasure: 0.9680661381005796
Iteration time: 30.0
Weighted AreaUnderPRC: 0.9935211279242311
Mean absolute error: 0.10807053670672175
Coverage of cases: 100.0
Instances selection time: 1.0
Test time: 9.0
Accumulative iteration time: 624.0
Weighted Recall: 0.9680851063829787
Weighted FalsePositiveRate: 0.03300533146361692
Kappa statistic: 0.9359788717236482
Training time: 29.0
		
Iteration: 31
Labeled set size: 919
Unlabelled set size: 679
	
Mean region size: 78.81727158948686
Incorrectly Classified Instances: 3.254067584480601
Correctly Classified Instances: 96.7459324155194
Weighted Precision: 0.9674637109131684
Weighted AreaUnderROC: 0.9955533232355734
Root mean squared error: 0.18856635173565128
Relative absolute error: 23.65665415102188
Root relative squared error: 37.713270347130255
Weighted TruePositiveRate: 0.967459324155194
Weighted MatthewsCorrelation: 0.9347832837800485
Weighted FMeasure: 0.9674554414890735
Iteration time: 32.0
Weighted AreaUnderPRC: 0.9940993896559165
Mean absolute error: 0.1182832707551094
Coverage of cases: 100.0
Instances selection time: 2.0
Test time: 10.0
Accumulative iteration time: 656.0
Weighted Recall: 0.967459324155194
Weighted FalsePositiveRate: 0.03289908683167589
Kappa statistic: 0.9347715166234667
Training time: 30.0
		
Iteration: 32
Labeled set size: 939
Unlabelled set size: 659
	
Mean region size: 76.0325406758448
Incorrectly Classified Instances: 3.566958698372966
Correctly Classified Instances: 96.43304130162703
Weighted Precision: 0.9646103515260765
Weighted AreaUnderROC: 0.9921111904631106
Root mean squared error: 0.19260089143968492
Relative absolute error: 22.530435771987555
Root relative squared error: 38.520178287936986
Weighted TruePositiveRate: 0.9643304130162703
Weighted MatthewsCorrelation: 0.9287536969309105
Weighted FMeasure: 0.9643030401537328
Iteration time: 30.0
Weighted AreaUnderPRC: 0.9895509612037496
Mean absolute error: 0.11265217885993778
Coverage of cases: 99.87484355444306
Instances selection time: 1.0
Test time: 9.0
Accumulative iteration time: 686.0
Weighted Recall: 0.9643304130162703
Weighted FalsePositiveRate: 0.03700132283490306
Kappa statistic: 0.9284307824794256
Training time: 29.0
		
Iteration: 33
Labeled set size: 959
Unlabelled set size: 639
	
Mean region size: 76.56445556946183
Incorrectly Classified Instances: 2.9411764705882355
Correctly Classified Instances: 97.05882352941177
Weighted Precision: 0.9706916389197189
Weighted AreaUnderROC: 0.9919620784643034
Root mean squared error: 0.1882795971173052
Relative absolute error: 22.291301627033565
Root relative squared error: 37.655919423461036
Weighted TruePositiveRate: 0.9705882352941176
Weighted MatthewsCorrelation: 0.9411387523570132
Weighted FMeasure: 0.9705754720723034
Iteration time: 34.0
Weighted AreaUnderPRC: 0.9895922895097461
Mean absolute error: 0.11145650813516783
Coverage of cases: 99.87484355444306
Instances selection time: 2.0
Test time: 10.0
Accumulative iteration time: 720.0
Weighted Recall: 0.9705882352941176
Weighted FalsePositiveRate: 0.03026599641669556
Kappa statistic: 0.9410134817800411
Training time: 32.0
		
Iteration: 34
Labeled set size: 979
Unlabelled set size: 619
	
Mean region size: 76.53316645807259
Incorrectly Classified Instances: 3.1289111389236544
Correctly Classified Instances: 96.87108886107634
Weighted Precision: 0.9687957459074333
Weighted AreaUnderROC: 0.9923128840614971
Root mean squared error: 0.1854870153684517
Relative absolute error: 21.80330234834256
Root relative squared error: 37.09740307369034
Weighted TruePositiveRate: 0.9687108886107635
Weighted MatthewsCorrelation: 0.937358230684493
Weighted FMeasure: 0.9686985034429675
Iteration time: 33.0
Weighted AreaUnderPRC: 0.9900743001224996
Mean absolute error: 0.1090165117417128
Coverage of cases: 99.81226533166458
Instances selection time: 1.0
Test time: 11.0
Accumulative iteration time: 753.0
Weighted Recall: 0.9687108886107635
Weighted FalsePositiveRate: 0.03209447530369476
Kappa statistic: 0.9372519330959536
Training time: 32.0
		
Iteration: 35
Labeled set size: 999
Unlabelled set size: 599
	
Mean region size: 75.5944931163955
Incorrectly Classified Instances: 3.1289111389236544
Correctly Classified Instances: 96.87108886107634
Weighted Precision: 0.9687957459074333
Weighted AreaUnderROC: 0.9950534056395728
Root mean squared error: 0.18332645018011812
Relative absolute error: 21.42791584718977
Root relative squared error: 36.66529003602362
Weighted TruePositiveRate: 0.9687108886107635
Weighted MatthewsCorrelation: 0.937358230684493
Weighted FMeasure: 0.9686985034429675
Iteration time: 33.0
Weighted AreaUnderPRC: 0.9936510032657271
Mean absolute error: 0.10713957923594884
Coverage of cases: 100.0
Instances selection time: 2.0
Test time: 9.0
Accumulative iteration time: 786.0
Weighted Recall: 0.9687108886107635
Weighted FalsePositiveRate: 0.03209447530369476
Kappa statistic: 0.9372519330959536
Training time: 31.0
		
Iteration: 36
Labeled set size: 1019
Unlabelled set size: 579
	
Mean region size: 71.96495619524406
Incorrectly Classified Instances: 2.690863579474343
Correctly Classified Instances: 97.30913642052566
Weighted Precision: 0.9731378807340116
Weighted AreaUnderROC: 0.9952205680382354
Root mean squared error: 0.16661602160111105
Relative absolute error: 17.678208872201235
Root relative squared error: 33.32320432022221
Weighted TruePositiveRate: 0.9730913642052565
Weighted MatthewsCorrelation: 0.9461061432495016
Weighted FMeasure: 0.9730836625702648
Iteration time: 31.0
Weighted AreaUnderPRC: 0.9937706539094876
Mean absolute error: 0.08839104436100619
Coverage of cases: 99.93742177722153
Instances selection time: 1.0
Test time: 9.0
Accumulative iteration time: 817.0
Weighted Recall: 0.9730913642052565
Weighted FalsePositiveRate: 0.027526661369774195
Kappa statistic: 0.9460458148091729
Training time: 30.0
		
Iteration: 37
Labeled set size: 1039
Unlabelled set size: 559
	
Mean region size: 77.00250312891114
Incorrectly Classified Instances: 3.0037546933667083
Correctly Classified Instances: 96.9962453066333
Weighted Precision: 0.9699961183636853
Weighted AreaUnderROC: 0.9952433272380534
Root mean squared error: 0.1837845162791353
Relative absolute error: 21.98936170212748
Root relative squared error: 36.75690325582706
Weighted TruePositiveRate: 0.9699624530663329
Weighted MatthewsCorrelation: 0.9398228217772542
Weighted FMeasure: 0.9699549059558394
Iteration time: 34.0
Weighted AreaUnderPRC: 0.9938289510629384
Mean absolute error: 0.1099468085106374
Coverage of cases: 100.0
Instances selection time: 1.0
Test time: 10.0
Accumulative iteration time: 851.0
Weighted Recall: 0.9699624530663329
Weighted FalsePositiveRate: 0.03061179658113817
Kappa statistic: 0.9397754770993865
Training time: 33.0
		
Iteration: 38
Labeled set size: 1059
Unlabelled set size: 539
	
Mean region size: 74.87484355444306
Incorrectly Classified Instances: 2.565707133917397
Correctly Classified Instances: 97.4342928660826
Weighted Precision: 0.9743451227131709
Weighted AreaUnderROC: 0.9949035088407718
Root mean squared error: 0.17847235303311532
Relative absolute error: 20.349290780141697
Root relative squared error: 35.694470606623064
Weighted TruePositiveRate: 0.9743429286608261
Weighted MatthewsCorrelation: 0.9485851251617821
Weighted FMeasure: 0.9743436434369822
Iteration time: 34.0
Weighted AreaUnderPRC: 0.9933404645807793
Mean absolute error: 0.10174645390070848
Coverage of cases: 100.0
Instances selection time: 1.0
Test time: 10.0
Accumulative iteration time: 885.0
Weighted Recall: 0.9743429286608261
Weighted FalsePositiveRate: 0.02570494904992987
Kappa statistic: 0.948584379281823
Training time: 33.0
		
Iteration: 39
Labeled set size: 1079
Unlabelled set size: 519
	
Mean region size: 75.09386733416771
Incorrectly Classified Instances: 2.3153942428035044
Correctly Classified Instances: 97.6846057571965
Weighted Precision: 0.9768582347327299
Weighted AreaUnderROC: 0.9965994616272043
Root mean squared error: 0.1673140207653687
Relative absolute error: 19.401035062891655
Root relative squared error: 33.46280415307374
Weighted TruePositiveRate: 0.976846057571965
Weighted MatthewsCorrelation: 0.9536035605217952
Weighted FMeasure: 0.9768425585904092
Iteration time: 34.0
Weighted AreaUnderPRC: 0.9954196683140051
Mean absolute error: 0.09700517531445828
Coverage of cases: 99.93742177722153
Instances selection time: 1.0
Test time: 9.0
Accumulative iteration time: 919.0
Weighted Recall: 0.976846057571965
Weighted FalsePositiveRate: 0.02353066999848806
Kappa statistic: 0.9535848019782549
Training time: 33.0
		
Iteration: 40
Labeled set size: 1099
Unlabelled set size: 499
	
Mean region size: 73.90488110137672
Incorrectly Classified Instances: 2.3153942428035044
Correctly Classified Instances: 97.6846057571965
Weighted Precision: 0.9768567152095119
Weighted AreaUnderROC: 0.9940904560472764
Root mean squared error: 0.17493768683772615
Relative absolute error: 19.395365238293792
Root relative squared error: 34.98753736754523
Weighted TruePositiveRate: 0.976846057571965
Weighted MatthewsCorrelation: 0.9536125271644891
Weighted FMeasure: 0.9768479379804809
Iteration time: 36.0
Weighted AreaUnderPRC: 0.9921606773281488
Mean absolute error: 0.09697682619146897
Coverage of cases: 99.87484355444306
Instances selection time: 1.0
Test time: 10.0
Accumulative iteration time: 955.0
Weighted Recall: 0.976846057571965
Weighted FalsePositiveRate: 0.023078625202104415
Kappa statistic: 0.9536057801708377
Training time: 35.0
		
Iteration: 41
Labeled set size: 1119
Unlabelled set size: 479
	
Mean region size: 71.80851063829788
Incorrectly Classified Instances: 2.252816020025031
Correctly Classified Instances: 97.74718397997496
Weighted Precision: 0.9775096581992052
Weighted AreaUnderROC: 0.9965704240274367
Root mean squared error: 0.166406184640918
Relative absolute error: 17.694826866916866
Root relative squared error: 33.2812369281836
Weighted TruePositiveRate: 0.9774718397997497
Weighted MatthewsCorrelation: 0.9548797110108772
Weighted FMeasure: 0.9774661794668796
Iteration time: 33.0
Weighted AreaUnderPRC: 0.9955515145591332
Mean absolute error: 0.08847413433458433
Coverage of cases: 100.0
Instances selection time: 1.0
Test time: 9.0
Accumulative iteration time: 988.0
Weighted Recall: 0.9774718397997497
Weighted FalsePositiveRate: 0.023071858634949538
Kappa statistic: 0.9548316078245399
Training time: 32.0
		
Iteration: 42
Labeled set size: 1139
Unlabelled set size: 459
	
Mean region size: 72.59073842302878
Incorrectly Classified Instances: 2.252816020025031
Correctly Classified Instances: 97.74718397997496
Weighted Precision: 0.9774911960477052
Weighted AreaUnderROC: 0.9971802136225582
Root mean squared error: 0.1586134154954133
Relative absolute error: 17.09448084615562
Root relative squared error: 31.72268309908266
Weighted TruePositiveRate: 0.9774718397997497
Weighted MatthewsCorrelation: 0.9548637652648165
Weighted FMeasure: 0.9774677011947638
Iteration time: 35.0
Weighted AreaUnderPRC: 0.9962858208359782
Mean absolute error: 0.08547240423077809
Coverage of cases: 100.0
Instances selection time: 1.0
Test time: 9.0
Accumulative iteration time: 1023.0
Weighted Recall: 0.9774718397997497
Weighted FalsePositiveRate: 0.022958847435853625
Kappa statistic: 0.9548367140898965
Training time: 34.0
		
Iteration: 43
Labeled set size: 1159
Unlabelled set size: 439
	
Mean region size: 77.00250312891114
Incorrectly Classified Instances: 2.753441802252816
Correctly Classified Instances: 97.24655819774718
Weighted Precision: 0.972471658667639
Weighted AreaUnderROC: 0.9943423768452611
Root mean squared error: 0.17965078744052312
Relative absolute error: 21.360743169709256
Root relative squared error: 35.930157488104626
Weighted TruePositiveRate: 0.9724655819774718
Weighted MatthewsCorrelation: 0.9448283495632395
Weighted FMeasure: 0.972467094439697
Iteration time: 39.0
Weighted AreaUnderPRC: 0.9923366798837626
Mean absolute error: 0.10680371584854628
Coverage of cases: 99.87484355444306
Instances selection time: 1.0
Test time: 10.0
Accumulative iteration time: 1062.0
Weighted Recall: 0.9724655819774718
Weighted FalsePositiveRate: 0.02753342793692907
Kappa statistic: 0.9448253781916169
Training time: 38.0
		
Iteration: 44
Labeled set size: 1179
Unlabelled set size: 419
	
Mean region size: 73.34167709637046
Incorrectly Classified Instances: 2.3153942428035044
Correctly Classified Instances: 97.6846057571965
Weighted Precision: 0.9768918575755928
Weighted AreaUnderROC: 0.9957259792341921
Root mean squared error: 0.16430697093579089
Relative absolute error: 17.862745098039078
Root relative squared error: 32.861394187158176
Weighted TruePositiveRate: 0.976846057571965
Weighted MatthewsCorrelation: 0.9536529813275512
Weighted FMeasure: 0.9768501899680523
Iteration time: 39.0
Weighted AreaUnderPRC: 0.9942545478549831
Mean absolute error: 0.08931372549019538
Coverage of cases: 99.93742177722153
Instances selection time: 1.0
Test time: 10.0
Accumulative iteration time: 1101.0
Weighted Recall: 0.976846057571965
Weighted FalsePositiveRate: 0.022852602803912592
Kappa statistic: 0.9536162621576291
Training time: 38.0
		
Iteration: 45
Labeled set size: 1199
Unlabelled set size: 399
	
Mean region size: 75.09386733416771
Incorrectly Classified Instances: 2.753441802252816
Correctly Classified Instances: 97.24655819774718
Weighted Precision: 0.9725006316421919
Weighted AreaUnderROC: 0.9969097969844213
Root mean squared error: 0.17102548865099895
Relative absolute error: 19.49786936050999
Root relative squared error: 34.20509773019979
Weighted TruePositiveRate: 0.9724655819774718
Weighted MatthewsCorrelation: 0.9448417848551285
Weighted FMeasure: 0.9724586637928528
Iteration time: 37.0
Weighted AreaUnderPRC: 0.9959793012041768
Mean absolute error: 0.09748934680254996
Coverage of cases: 100.0
Instances selection time: 1.0
Test time: 10.0
Accumulative iteration time: 1138.0
Weighted Recall: 0.9724655819774718
Weighted FalsePositiveRate: 0.028098483932408623
Kappa statistic: 0.9447941873411042
Training time: 36.0
		
Iteration: 46
Labeled set size: 1219
Unlabelled set size: 379
	
Mean region size: 73.9674593241552
Incorrectly Classified Instances: 2.8785982478097623
Correctly Classified Instances: 97.12140175219024
Weighted Precision: 0.9712140175219024
Weighted AreaUnderROC: 0.9930615832555072
Root mean squared error: 0.18034903792885384
Relative absolute error: 20.01164060117153
Root relative squared error: 36.06980758577077
Weighted TruePositiveRate: 0.9712140175219024
Weighted MatthewsCorrelation: 0.9423109220615126
Weighted FMeasure: 0.9712140175219024
Iteration time: 42.0
Weighted AreaUnderPRC: 0.9907002105375988
Mean absolute error: 0.10005820300585765
Coverage of cases: 99.81226533166458
Instances selection time: 1.0
Test time: 11.0
Accumulative iteration time: 1180.0
Weighted Recall: 0.9712140175219024
Weighted FalsePositiveRate: 0.028903095460389758
Kappa statistic: 0.9423109220615127
Training time: 41.0
		
Time end:Sat Oct 07 13.34.34 EEST 2017