Sat Oct 07 13.26.13 EEST 2017
Dataset: kr-vs-kp
Test set size: 1598
Initial Labelled set size: 319
Initial Unlabelled set size: 1279
Batch mode: QBestBatchMode
Batch size: 20
Classifiers: RandomForest-1cores
Scenario: PoolBasedSamplingScenario
Query strategy: MarginSamplingQueryStrategy-1cores
Time begining: Sat Oct 07 13.26.13 EEST 2017
		
Iteration: 1
Labeled set size: 319
Unlabelled set size: 1279
	
Mean region size: 84.98122653316646
Incorrectly Classified Instances: 6.320400500625782
Correctly Classified Instances: 93.67959949937422
Weighted Precision: 0.938158893697836
Weighted AreaUnderROC: 0.9808467362235864
Root mean squared error: 0.2534117524923451
Relative absolute error: 35.421707690168134
Root relative squared error: 50.68235049846902
Weighted TruePositiveRate: 0.9367959949937422
Weighted MatthewsCorrelation: 0.8745492354693272
Weighted FMeasure: 0.9366591562320005
Iteration time: 41.0
Weighted AreaUnderPRC: 0.9765123765210052
Mean absolute error: 0.17710853845084068
Coverage of cases: 100.0
Instances selection time: 9.0
Test time: 12.0
Accumulative iteration time: 41.0
Weighted Recall: 0.9367959949937422
Weighted FalsePositiveRate: 0.06602873445662213
Kappa statistic: 0.8730211429497539
Training time: 32.0
		
Iteration: 2
Labeled set size: 339
Unlabelled set size: 1259
	
Mean region size: 83.3854818523154
Incorrectly Classified Instances: 4.317897371714643
Correctly Classified Instances: 95.68210262828536
Weighted Precision: 0.957527278455114
Weighted AreaUnderROC: 0.9858508481173177
Root mean squared error: 0.2285835031179107
Relative absolute error: 30.869241313546436
Root relative squared error: 45.71670062358214
Weighted TruePositiveRate: 0.9568210262828536
Weighted MatthewsCorrelation: 0.9141047345567602
Weighted FMeasure: 0.9567633127082439
Iteration time: 15.0
Weighted AreaUnderPRC: 0.9824509181887896
Mean absolute error: 0.15434620656773218
Coverage of cases: 100.0
Instances selection time: 5.0
Test time: 7.0
Accumulative iteration time: 56.0
Weighted Recall: 0.9568210262828536
Weighted FalsePositiveRate: 0.045157686797373885
Kappa statistic: 0.9133188998476466
Training time: 10.0
		
Iteration: 3
Labeled set size: 359
Unlabelled set size: 1239
	
Mean region size: 79.94367959949938
Incorrectly Classified Instances: 3.379224030037547
Correctly Classified Instances: 96.62077596996245
Weighted Precision: 0.9662229737794181
Weighted AreaUnderROC: 0.989821493590468
Root mean squared error: 0.2049887478283983
Relative absolute error: 25.601466118362016
Root relative squared error: 40.99774956567966
Weighted TruePositiveRate: 0.9662077596996246
Weighted MatthewsCorrelation: 0.9322896657875334
Weighted FMeasure: 0.9662017117004751
Iteration time: 14.0
Weighted AreaUnderPRC: 0.9867804712116168
Mean absolute error: 0.12800733059181008
Coverage of cases: 99.87484355444306
Instances selection time: 4.0
Test time: 7.0
Accumulative iteration time: 70.0
Weighted Recall: 0.9662077596996246
Weighted FalsePositiveRate: 0.034251753823696995
Kappa statistic: 0.9322632605193999
Training time: 10.0
		
Iteration: 4
Labeled set size: 379
Unlabelled set size: 1219
	
Mean region size: 80.5694618272841
Incorrectly Classified Instances: 3.1289111389236544
Correctly Classified Instances: 96.87108886107634
Weighted Precision: 0.9687716697773507
Weighted AreaUnderROC: 0.9903668688086181
Root mean squared error: 0.20617282945870616
Relative absolute error: 26.239048811013554
Root relative squared error: 41.234565891741234
Weighted TruePositiveRate: 0.9687108886107635
Weighted MatthewsCorrelation: 0.9373761346026308
Weighted FMeasure: 0.9687169752225423
Iteration time: 17.0
Weighted AreaUnderPRC: 0.9875332002159207
Mean absolute error: 0.13119524405506777
Coverage of cases: 99.93742177722153
Instances selection time: 5.0
Test time: 8.0
Accumulative iteration time: 87.0
Weighted Recall: 0.9687108886107635
Weighted FalsePositiveRate: 0.030969981859724497
Kappa statistic: 0.937329007806029
Training time: 12.0
		
Iteration: 5
Labeled set size: 399
Unlabelled set size: 1199
	
Mean region size: 82.38423028785982
Incorrectly Classified Instances: 3.0663329161451816
Correctly Classified Instances: 96.93366708385481
Weighted Precision: 0.9695213399765514
Weighted AreaUnderROC: 0.99167419990709
Root mean squared error: 0.20128795754332723
Relative absolute error: 26.88454553153825
Root relative squared error: 40.25759150866545
Weighted TruePositiveRate: 0.9693366708385481
Weighted MatthewsCorrelation: 0.9387117226868243
Weighted FMeasure: 0.9693188584110561
Iteration time: 18.0
Weighted AreaUnderPRC: 0.9883930226263966
Mean absolute error: 0.13442272765769125
Coverage of cases: 99.7496871088861
Instances selection time: 5.0
Test time: 8.0
Accumulative iteration time: 105.0
Weighted Recall: 0.9693366708385481
Weighted FalsePositiveRate: 0.03171504039421255
Kappa statistic: 0.9384980073234984
Training time: 13.0
		
Iteration: 6
Labeled set size: 419
Unlabelled set size: 1179
	
Mean region size: 83.44806007509386
Incorrectly Classified Instances: 2.690863579474343
Correctly Classified Instances: 97.30913642052566
Weighted Precision: 0.9731650485295577
Weighted AreaUnderROC: 0.9929407259532688
Root mean squared error: 0.20482891771060352
Relative absolute error: 27.829345664764695
Root relative squared error: 40.965783542120704
Weighted TruePositiveRate: 0.9730913642052565
Weighted MatthewsCorrelation: 0.9461367838613685
Weighted FMeasure: 0.9730819510958222
Iteration time: 19.0
Weighted AreaUnderPRC: 0.9905929242506883
Mean absolute error: 0.13914672832382347
Coverage of cases: 99.93742177722153
Instances selection time: 5.0
Test time: 8.0
Accumulative iteration time: 124.0
Weighted Recall: 0.9730913642052565
Weighted FalsePositiveRate: 0.027616330619559683
Kappa statistic: 0.9460466620916438
Training time: 14.0
		
Iteration: 7
Labeled set size: 439
Unlabelled set size: 1159
	
Mean region size: 79.63078848560701
Incorrectly Classified Instances: 2.565707133917397
Correctly Classified Instances: 97.4342928660826
Weighted Precision: 0.9743695636522359
Weighted AreaUnderROC: 0.9937325009102665
Root mean squared error: 0.19875614816422835
Relative absolute error: 25.590547427460308
Root relative squared error: 39.75122963284567
Weighted TruePositiveRate: 0.9743429286608261
Weighted MatthewsCorrelation: 0.9486040008815905
Weighted FMeasure: 0.9743375005110613
Iteration time: 20.0
Weighted AreaUnderPRC: 0.9917923396164764
Mean absolute error: 0.12795273713730154
Coverage of cases: 99.93742177722153
Instances selection time: 5.0
Test time: 8.0
Accumulative iteration time: 144.0
Weighted Recall: 0.9743429286608261
Weighted FalsePositiveRate: 0.026140234271834605
Kappa statistic: 0.9485674272409413
Training time: 15.0
		
Iteration: 8
Labeled set size: 459
Unlabelled set size: 1139
	
Mean region size: 79.75594493116395
Incorrectly Classified Instances: 1.6896120150187734
Correctly Classified Instances: 98.31038798498123
Weighted Precision: 0.9831182026539065
Weighted AreaUnderROC: 0.9969050937260663
Root mean squared error: 0.16815951684629654
Relative absolute error: 21.54091423803543
Root relative squared error: 33.631903369259305
Weighted TruePositiveRate: 0.9831038798498123
Weighted MatthewsCorrelation: 0.9661524920177157
Weighted FMeasure: 0.9831013931554334
Iteration time: 18.0
Weighted AreaUnderPRC: 0.9958890027794743
Mean absolute error: 0.10770457119017715
Coverage of cases: 100.0
Instances selection time: 4.0
Test time: 8.0
Accumulative iteration time: 162.0
Weighted Recall: 0.9831038798498123
Weighted FalsePositiveRate: 0.017235736668022618
Kappa statistic: 0.9661334911562148
Training time: 14.0
		
Iteration: 9
Labeled set size: 479
Unlabelled set size: 1119
	
Mean region size: 84.23028785982478
Incorrectly Classified Instances: 2.8785982478097623
Correctly Classified Instances: 97.12140175219024
Weighted Precision: 0.9715381956367041
Weighted AreaUnderROC: 0.9940950381056411
Root mean squared error: 0.20428881643046914
Relative absolute error: 28.449728827701072
Root relative squared error: 40.85776328609383
Weighted TruePositiveRate: 0.9712140175219024
Weighted MatthewsCorrelation: 0.9426071873604417
Weighted FMeasure: 0.971191125724777
Iteration time: 23.0
Weighted AreaUnderPRC: 0.9922677276755258
Mean absolute error: 0.14224864413850535
Coverage of cases: 100.0
Instances selection time: 5.0
Test time: 9.0
Accumulative iteration time: 185.0
Weighted Recall: 0.9712140175219024
Weighted FalsePositiveRate: 0.030105124531582594
Kappa statistic: 0.9422475589482187
Training time: 18.0
		
Iteration: 10
Labeled set size: 499
Unlabelled set size: 1099
	
Mean region size: 81.1639549436796
Incorrectly Classified Instances: 2.252816020025031
Correctly Classified Instances: 97.74718397997496
Weighted Precision: 0.9774773109952917
Weighted AreaUnderROC: 0.9943806734716939
Root mean squared error: 0.19397777645806344
Relative absolute error: 25.257285893080493
Root relative squared error: 38.795555291612686
Weighted TruePositiveRate: 0.9774718397997497
Weighted MatthewsCorrelation: 0.9548650178963919
Weighted FMeasure: 0.9774730417824203
Iteration time: 22.0
Weighted AreaUnderPRC: 0.9923223634742967
Mean absolute error: 0.12628642946540247
Coverage of cases: 99.87484355444306
Instances selection time: 5.0
Test time: 8.0
Accumulative iteration time: 207.0
Weighted Recall: 0.9774718397997497
Weighted FalsePositiveRate: 0.02250492328060898
Kappa statistic: 0.9548620156109259
Training time: 17.0
		
Iteration: 11
Labeled set size: 519
Unlabelled set size: 1079
	
Mean region size: 83.76095118898623
Incorrectly Classified Instances: 1.9399249061326658
Correctly Classified Instances: 98.06007509386734
Weighted Precision: 0.9806523137070451
Weighted AreaUnderROC: 0.996056034753349
Root mean squared error: 0.18443174045292818
Relative absolute error: 25.702461771297514
Root relative squared error: 36.886348090585635
Weighted TruePositiveRate: 0.9806007509386734
Weighted MatthewsCorrelation: 0.9611689563612171
Weighted FMeasure: 0.9805953363722834
Iteration time: 24.0
Weighted AreaUnderPRC: 0.9947997741197051
Mean absolute error: 0.12851230885648757
Coverage of cases: 100.0
Instances selection time: 5.0
Test time: 9.0
Accumulative iteration time: 231.0
Weighted Recall: 0.9806007509386734
Weighted FalsePositiveRate: 0.019968209851124533
Kappa statistic: 0.9611076828381704
Training time: 19.0
		
Iteration: 12
Labeled set size: 539
Unlabelled set size: 1059
	
Mean region size: 83.10387984981226
Incorrectly Classified Instances: 1.6896120150187734
Correctly Classified Instances: 98.31038798498123
Weighted Precision: 0.9831079206913492
Weighted AreaUnderROC: 0.9953286062249677
Root mean squared error: 0.1907931559033275
Relative absolute error: 26.326102072034274
Root relative squared error: 38.158631180665495
Weighted TruePositiveRate: 0.9831038798498123
Weighted MatthewsCorrelation: 0.9661440510400638
Weighted FMeasure: 0.9831024277889816
Iteration time: 26.0
Weighted AreaUnderPRC: 0.9938813571426772
Mean absolute error: 0.13163051036017137
Coverage of cases: 99.93742177722153
Instances selection time: 5.0
Test time: 9.0
Accumulative iteration time: 257.0
Weighted Recall: 0.9831038798498123
Weighted FalsePositiveRate: 0.017125876911848498
Kappa statistic: 0.9661372123358307
Training time: 21.0
		
Iteration: 13
Labeled set size: 559
Unlabelled set size: 1039
	
Mean region size: 83.26032540675845
Incorrectly Classified Instances: 1.8147684605757197
Correctly Classified Instances: 98.18523153942428
Weighted Precision: 0.981904656869259
Weighted AreaUnderROC: 0.9969152949891396
Root mean squared error: 0.1836296612072325
Relative absolute error: 25.235224861115668
Root relative squared error: 36.7259322414465
Weighted TruePositiveRate: 0.9818523153942428
Weighted MatthewsCorrelation: 0.9636782980815227
Weighted FMeasure: 0.9818472501547167
Iteration time: 27.0
Weighted AreaUnderPRC: 0.9958756546764995
Mean absolute error: 0.12617612430557834
Coverage of cases: 100.0
Instances selection time: 5.0
Test time: 9.0
Accumulative iteration time: 284.0
Weighted Recall: 0.9818523153942428
Weighted FalsePositiveRate: 0.018711833015747692
Kappa statistic: 0.9636168645905464
Training time: 22.0
		
Iteration: 14
Labeled set size: 579
Unlabelled set size: 1019
	
Mean region size: 74.6558197747184
Incorrectly Classified Instances: 1.7521902377972465
Correctly Classified Instances: 98.24780976220275
Weighted Precision: 0.9825442772767127
Weighted AreaUnderROC: 0.9973743518274387
Root mean squared error: 0.15366933300860533
Relative absolute error: 17.616056867621232
Root relative squared error: 30.733866601721065
Weighted TruePositiveRate: 0.9824780976220275
Weighted MatthewsCorrelation: 0.9649454772618427
Weighted FMeasure: 0.9824725945206259
Iteration time: 24.0
Weighted AreaUnderPRC: 0.9965525565958038
Mean absolute error: 0.08808028433810616
Coverage of cases: 100.0
Instances selection time: 4.0
Test time: 9.0
Accumulative iteration time: 308.0
Weighted Recall: 0.9824780976220275
Weighted FalsePositiveRate: 0.018138574476146332
Kappa statistic: 0.9648695247995528
Training time: 20.0
		
Iteration: 15
Labeled set size: 599
Unlabelled set size: 999
	
Mean region size: 78.75469336670838
Incorrectly Classified Instances: 1.5018773466833542
Correctly Classified Instances: 98.49812265331664
Weighted Precision: 0.9850036938370476
Weighted AreaUnderROC: 0.9978883385438246
Root mean squared error: 0.16310781208979241
Relative absolute error: 20.779846242740867
Root relative squared error: 32.621562417958486
Weighted TruePositiveRate: 0.9849812265331664
Weighted MatthewsCorrelation: 0.9699222535901117
Weighted FMeasure: 0.9849785385335444
Iteration time: 26.0
Weighted AreaUnderPRC: 0.9972285425997192
Mean absolute error: 0.10389923121370434
Coverage of cases: 100.0
Instances selection time: 4.0
Test time: 9.0
Accumulative iteration time: 334.0
Weighted Recall: 0.9849812265331664
Weighted FalsePositiveRate: 0.015406101293044419
Kappa statistic: 0.9698947824530665
Training time: 22.0
		
Iteration: 16
Labeled set size: 619
Unlabelled set size: 979
	
Mean region size: 78.78598247809762
Incorrectly Classified Instances: 1.4392991239048811
Correctly Classified Instances: 98.56070087609513
Weighted Precision: 0.9856616863559005
Weighted AreaUnderROC: 0.9976623413311236
Root mean squared error: 0.15436368390541003
Relative absolute error: 19.369767021611032
Root relative squared error: 30.872736781082004
Weighted TruePositiveRate: 0.9856070087609512
Weighted MatthewsCorrelation: 0.9712063232424392
Weighted FMeasure: 0.9856029915020168
Iteration time: 26.0
Weighted AreaUnderPRC: 0.9968651842083703
Mean absolute error: 0.09684883510805516
Coverage of cases: 100.0
Instances selection time: 4.0
Test time: 9.0
Accumulative iteration time: 360.0
Weighted Recall: 0.9856070087609512
Weighted FalsePositiveRate: 0.014942702509617179
Kappa statistic: 0.9711444098476748
Training time: 22.0
		
Iteration: 17
Labeled set size: 639
Unlabelled set size: 959
	
Mean region size: 78.66082603254067
Incorrectly Classified Instances: 1.8773466833541927
Correctly Classified Instances: 98.12265331664581
Weighted Precision: 0.9812475498255216
Weighted AreaUnderROC: 0.9968674275239493
Root mean squared error: 0.17425660790114691
Relative absolute error: 22.265754987852297
Root relative squared error: 34.85132158022938
Weighted TruePositiveRate: 0.981226533166458
Weighted MatthewsCorrelation: 0.962395736029596
Weighted FMeasure: 0.9812231731669306
Iteration time: 29.0
Weighted AreaUnderPRC: 0.9956884657667524
Mean absolute error: 0.11132877493926148
Coverage of cases: 99.93742177722153
Instances selection time: 4.0
Test time: 10.0
Accumulative iteration time: 389.0
Weighted Recall: 0.981226533166458
Weighted FalsePositiveRate: 0.019175231799174935
Kappa statistic: 0.9623684780663331
Training time: 25.0
		
Iteration: 18
Labeled set size: 659
Unlabelled set size: 939
	
Mean region size: 77.15894868585733
Incorrectly Classified Instances: 1.376720901126408
Correctly Classified Instances: 98.6232790988736
Weighted Precision: 0.9863016256964322
Weighted AreaUnderROC: 0.9973170678117194
Root mean squared error: 0.15515867821954454
Relative absolute error: 18.9460539101252
Root relative squared error: 31.03173564390891
Weighted TruePositiveRate: 0.986232790988736
Weighted MatthewsCorrelation: 0.9724740288181728
Weighted FMeasure: 0.986228467123349
Iteration time: 28.0
Weighted AreaUnderPRC: 0.9962874424385336
Mean absolute error: 0.09473026955062601
Coverage of cases: 99.93742177722153
Instances selection time: 4.0
Test time: 9.0
Accumulative iteration time: 417.0
Weighted Recall: 0.986232790988736
Weighted FalsePositiveRate: 0.01436944397001582
Kappa statistic: 0.9723974837710773
Training time: 24.0
		
Iteration: 19
Labeled set size: 679
Unlabelled set size: 919
	
Mean region size: 76.28285356695869
Incorrectly Classified Instances: 1.376720901126408
Correctly Classified Instances: 98.6232790988736
Weighted Precision: 0.9862756218652394
Weighted AreaUnderROC: 0.9976662648938441
Root mean squared error: 0.15500272515671312
Relative absolute error: 18.713808927826307
Root relative squared error: 31.000545031342625
Weighted TruePositiveRate: 0.986232790988736
Weighted MatthewsCorrelation: 0.9724494936422081
Weighted FMeasure: 0.9862294187920807
Iteration time: 29.0
Weighted AreaUnderPRC: 0.997000295981253
Mean absolute error: 0.09356904463913153
Coverage of cases: 100.0
Instances selection time: 4.0
Test time: 9.0
Accumulative iteration time: 446.0
Weighted Recall: 0.986232790988736
Weighted FalsePositiveRate: 0.0142595842138417
Kappa statistic: 0.9724005175099232
Training time: 25.0
		
Iteration: 20
Labeled set size: 699
Unlabelled set size: 899
	
Mean region size: 76.43929912390487
Incorrectly Classified Instances: 1.7521902377972465
Correctly Classified Instances: 98.24780976220275
Weighted Precision: 0.9825188994191815
Weighted AreaUnderROC: 0.9957617675493114
Root mean squared error: 0.162197468568349
Relative absolute error: 19.17266947695594
Root relative squared error: 32.4394937136698
Weighted TruePositiveRate: 0.9824780976220275
Weighted MatthewsCorrelation: 0.9649219829408872
Weighted FMeasure: 0.9824738057353755
Iteration time: 30.0
Weighted AreaUnderPRC: 0.9945275642867195
Mean absolute error: 0.0958633473847797
Coverage of cases: 100.0
Instances selection time: 4.0
Test time: 10.0
Accumulative iteration time: 476.0
Weighted Recall: 0.9824780976220275
Weighted FalsePositiveRate: 0.018028714719972215
Kappa statistic: 0.9648733859217203
Training time: 26.0
		
Iteration: 21
Labeled set size: 719
Unlabelled set size: 879
	
Mean region size: 79.5369211514393
Incorrectly Classified Instances: 1.1264080100125156
Correctly Classified Instances: 98.87359198998749
Weighted Precision: 0.9887801034959447
Weighted AreaUnderROC: 0.997268415633985
Root mean squared error: 0.1681775979113225
Relative absolute error: 22.0235115322723
Root relative squared error: 33.6355195822645
Weighted TruePositiveRate: 0.9887359198998749
Weighted MatthewsCorrelation: 0.9774678341097555
Weighted FMeasure: 0.9887331608298843
Iteration time: 30.0
Weighted AreaUnderPRC: 0.9962987981877122
Mean absolute error: 0.1101175576613615
Coverage of cases: 99.93742177722153
Instances selection time: 4.0
Test time: 10.0
Accumulative iteration time: 506.0
Weighted Recall: 0.9887359198998749
Weighted FalsePositiveRate: 0.011746830543088022
Kappa statistic: 0.9774186052353917
Training time: 26.0
		
Iteration: 22
Labeled set size: 739
Unlabelled set size: 859
	
Mean region size: 78.72340425531915
Incorrectly Classified Instances: 1.6270337922403004
Correctly Classified Instances: 98.3729662077597
Weighted Precision: 0.9839101015306566
Weighted AreaUnderROC: 0.9978710748678543
Root mean squared error: 0.1661624437760866
Relative absolute error: 21.092468434686754
Root relative squared error: 33.23248875521732
Weighted TruePositiveRate: 0.983729662077597
Weighted MatthewsCorrelation: 0.9675631901611043
Weighted FMeasure: 0.9837208694004154
Iteration time: 33.0
Weighted AreaUnderPRC: 0.9972020038413525
Mean absolute error: 0.10546234217343377
Coverage of cases: 100.0
Instances selection time: 4.0
Test time: 11.0
Accumulative iteration time: 539.0
Weighted Recall: 0.983729662077597
Weighted FalsePositiveRate: 0.017211776909291848
Kappa statistic: 0.9673680837427902
Training time: 29.0
		
Iteration: 23
Labeled set size: 759
Unlabelled set size: 839
	
Mean region size: 80.50688360450563
Incorrectly Classified Instances: 1.6270337922403004
Correctly Classified Instances: 98.3729662077597
Weighted Precision: 0.9838662006753724
Weighted AreaUnderROC: 0.9962153313998017
Root mean squared error: 0.1615538731774548
Relative absolute error: 20.793983550866916
Root relative squared error: 32.31077463549096
Weighted TruePositiveRate: 0.983729662077597
Weighted MatthewsCorrelation: 0.9675210068997657
Weighted FMeasure: 0.9837221484091343
Iteration time: 33.0
Weighted AreaUnderPRC: 0.9947313061472858
Mean absolute error: 0.10396991775433458
Coverage of cases: 99.93742177722153
Instances selection time: 4.0
Test time: 10.0
Accumulative iteration time: 572.0
Weighted Recall: 0.983729662077597
Weighted FalsePositiveRate: 0.017101917153117735
Kappa statistic: 0.9673716714361554
Training time: 29.0
		
Iteration: 24
Labeled set size: 779
Unlabelled set size: 819
	
Mean region size: 76.50187734668336
Incorrectly Classified Instances: 1.5644555694618272
Correctly Classified Instances: 98.43554443053817
Weighted Precision: 0.9844093431936866
Weighted AreaUnderROC: 0.9971585558778109
Root mean squared error: 0.15957456086314367
Relative absolute error: 19.086567325698315
Root relative squared error: 31.914912172628735
Weighted TruePositiveRate: 0.9843554443053817
Weighted MatthewsCorrelation: 0.9686969815221336
Weighted FMeasure: 0.9843510777195834
Iteration time: 35.0
Weighted AreaUnderPRC: 0.9961694333586573
Mean absolute error: 0.09543283662849157
Coverage of cases: 99.93742177722153
Instances selection time: 5.0
Test time: 10.0
Accumulative iteration time: 607.0
Weighted Recall: 0.9843554443053817
Weighted FalsePositiveRate: 0.016199079344994018
Kappa statistic: 0.9686352280952986
Training time: 30.0
		
Iteration: 25
Labeled set size: 799
Unlabelled set size: 799
	
Mean region size: 76.90863579474343
Incorrectly Classified Instances: 1.1889862327909888
Correctly Classified Instances: 98.811013767209
Weighted Precision: 0.9881957655427175
Weighted AreaUnderROC: 0.9987585847552324
Root mean squared error: 0.15080137023673815
Relative absolute error: 18.782615173728917
Root relative squared error: 30.16027404734763
Weighted TruePositiveRate: 0.9881101376720901
Weighted MatthewsCorrelation: 0.9762531434415476
Weighted FMeasure: 0.9881059783911773
Iteration time: 32.0
Weighted AreaUnderPRC: 0.9983069312919008
Mean absolute error: 0.09391307586864459
Coverage of cases: 100.0
Instances selection time: 4.0
Test time: 10.0
Accumulative iteration time: 639.0
Weighted Recall: 0.9881101376720901
Weighted FalsePositiveRate: 0.012539808595037618
Kappa statistic: 0.976160153017238
Training time: 28.0
		
Iteration: 26
Labeled set size: 819
Unlabelled set size: 779
	
Mean region size: 72.49687108886107
Incorrectly Classified Instances: 1.5018773466833542
Correctly Classified Instances: 98.49812265331664
Weighted Precision: 0.9850233810498868
Weighted AreaUnderROC: 0.9988284241716575
Root mean squared error: 0.13759518092233974
Relative absolute error: 15.230280206558216
Root relative squared error: 27.51903618446795
Weighted TruePositiveRate: 0.9849812265331664
Weighted MatthewsCorrelation: 0.9699403234084345
Weighted FMeasure: 0.9849775477731789
Iteration time: 32.0
Weighted AreaUnderPRC: 0.9984746682035672
Mean absolute error: 0.07615140103279108
Coverage of cases: 100.0
Instances selection time: 3.0
Test time: 10.0
Accumulative iteration time: 671.0
Weighted Recall: 0.9849812265331664
Weighted FalsePositiveRate: 0.015515961049218539
Kappa statistic: 0.9698914736471889
Training time: 29.0
		
Iteration: 27
Labeled set size: 839
Unlabelled set size: 759
	
Mean region size: 77.62828535669587
Incorrectly Classified Instances: 1.4392991239048811
Correctly Classified Instances: 98.56070087609513
Weighted Precision: 0.9857257308638174
Weighted AreaUnderROC: 0.9977847564880034
Root mean squared error: 0.14945531947733248
Relative absolute error: 18.48168300202077
Root relative squared error: 29.891063895466495
Weighted TruePositiveRate: 0.9856070087609512
Weighted MatthewsCorrelation: 0.9712673119184204
Weighted FMeasure: 0.9856009106944039
Iteration time: 33.0
Weighted AreaUnderPRC: 0.9969888096126527
Mean absolute error: 0.09240841501010386
Coverage of cases: 100.0
Instances selection time: 4.0
Test time: 10.0
Accumulative iteration time: 704.0
Weighted Recall: 0.9856070087609512
Weighted FalsePositiveRate: 0.015162422021965414
Kappa statistic: 0.9711380651808249
Training time: 29.0
		
Iteration: 28
Labeled set size: 859
Unlabelled set size: 739
	
Mean region size: 75.5944931163955
Incorrectly Classified Instances: 1.4392991239048811
Correctly Classified Instances: 98.56070087609513
Weighted Precision: 0.9856906460405241
Weighted AreaUnderROC: 0.9976607719060353
Root mean squared error: 0.1552012677481674
Relative absolute error: 18.42146433041287
Root relative squared error: 31.04025354963348
Weighted TruePositiveRate: 0.9856070087609512
Weighted MatthewsCorrelation: 0.9712337501781844
Weighted FMeasure: 0.9856019738419515
Iteration time: 36.0
Weighted AreaUnderPRC: 0.9968246487986744
Mean absolute error: 0.09210732165206435
Coverage of cases: 99.93742177722153
Instances selection time: 4.0
Test time: 13.0
Accumulative iteration time: 740.0
Weighted Recall: 0.9856070087609512
Weighted FalsePositiveRate: 0.015052562265791297
Kappa statistic: 0.9711412378629724
Training time: 32.0
		
Iteration: 29
Labeled set size: 879
Unlabelled set size: 719
	
Mean region size: 70.27534418022528
Incorrectly Classified Instances: 1.6270337922403004
Correctly Classified Instances: 98.3729662077597
Weighted Precision: 0.9839601213936708
Weighted AreaUnderROC: 0.9980531281780859
Root mean squared error: 0.14051155910930507
Relative absolute error: 14.53293890089877
Root relative squared error: 28.102311821861015
Weighted TruePositiveRate: 0.983729662077597
Weighted MatthewsCorrelation: 0.9676115000888285
Weighted FMeasure: 0.9837195388912202
Iteration time: 39.0
Weighted AreaUnderPRC: 0.9976444953774153
Mean absolute error: 0.07266469450449385
Coverage of cases: 99.93742177722153
Instances selection time: 4.0
Test time: 9.0
Accumulative iteration time: 779.0
Weighted Recall: 0.983729662077597
Weighted FalsePositiveRate: 0.01732163666546597
Kappa statistic: 0.9673644952603584
Training time: 35.0
		
Iteration: 30
Labeled set size: 899
Unlabelled set size: 699
	
Mean region size: 71.33917396745933
Incorrectly Classified Instances: 1.4392991239048811
Correctly Classified Instances: 98.56070087609513
Weighted Precision: 0.9856616863559005
Weighted AreaUnderROC: 0.9982289037879644
Root mean squared error: 0.13711263611207528
Relative absolute error: 14.58935103072822
Root relative squared error: 27.422527222415056
Weighted TruePositiveRate: 0.9856070087609512
Weighted MatthewsCorrelation: 0.9712063232424392
Weighted FMeasure: 0.9856029915020168
Iteration time: 36.0
Weighted AreaUnderPRC: 0.9976077803117439
Mean absolute error: 0.0729467551536411
Coverage of cases: 99.93742177722153
Instances selection time: 3.0
Test time: 9.0
Accumulative iteration time: 815.0
Weighted Recall: 0.9856070087609512
Weighted FalsePositiveRate: 0.014942702509617179
Kappa statistic: 0.9711444098476748
Training time: 33.0
		
Iteration: 31
Labeled set size: 919
Unlabelled set size: 679
	
Mean region size: 71.58948685857321
Incorrectly Classified Instances: 1.4392991239048811
Correctly Classified Instances: 98.56070087609513
Weighted Precision: 0.9856906460405241
Weighted AreaUnderROC: 0.9965386329679712
Root mean squared error: 0.14443482048339532
Relative absolute error: 15.32939573481622
Root relative squared error: 28.886964096679062
Weighted TruePositiveRate: 0.9856070087609512
Weighted MatthewsCorrelation: 0.9712337501781844
Weighted FMeasure: 0.9856019738419515
Iteration time: 36.0
Weighted AreaUnderPRC: 0.9954101736991443
Mean absolute error: 0.0766469786740811
Coverage of cases: 99.87484355444306
Instances selection time: 3.0
Test time: 9.0
Accumulative iteration time: 851.0
Weighted Recall: 0.9856070087609512
Weighted FalsePositiveRate: 0.015052562265791297
Kappa statistic: 0.9711412378629724
Training time: 33.0
		
Iteration: 32
Labeled set size: 939
Unlabelled set size: 659
	
Mean region size: 76.06382978723404
Incorrectly Classified Instances: 1.376720901126408
Correctly Classified Instances: 98.6232790988736
Weighted Precision: 0.9863016256964322
Weighted AreaUnderROC: 0.997703146383417
Root mean squared error: 0.15650407603453365
Relative absolute error: 18.960614156938362
Root relative squared error: 31.30081520690673
Weighted TruePositiveRate: 0.986232790988736
Weighted MatthewsCorrelation: 0.9724740288181728
Weighted FMeasure: 0.986228467123349
Iteration time: 41.0
Weighted AreaUnderPRC: 0.9968574990335487
Mean absolute error: 0.09480307078469181
Coverage of cases: 99.93742177722153
Instances selection time: 4.0
Test time: 10.0
Accumulative iteration time: 892.0
Weighted Recall: 0.986232790988736
Weighted FalsePositiveRate: 0.01436944397001582
Kappa statistic: 0.9723974837710773
Training time: 37.0
		
Iteration: 33
Labeled set size: 959
Unlabelled set size: 639
	
Mean region size: 70.30663329161452
Incorrectly Classified Instances: 0.8760951188986232
Correctly Classified Instances: 99.12390488110138
Weighted Precision: 0.9912411706661356
Weighted AreaUnderROC: 0.9989045412884352
Root mean squared error: 0.12475931023564593
Relative absolute error: 13.009112445751944
Root relative squared error: 24.951862047129186
Weighted TruePositiveRate: 0.9912390488110138
Weighted MatthewsCorrelation: 0.9824455724606831
Weighted FMeasure: 0.9912385537682141
Iteration time: 41.0
Weighted AreaUnderPRC: 0.9984843230913724
Mean absolute error: 0.06504556222875972
Coverage of cases: 100.0
Instances selection time: 8.0
Test time: 10.0
Accumulative iteration time: 933.0
Weighted Recall: 0.9912390488110138
Weighted FalsePositiveRate: 0.008904497603811989
Kappa statistic: 0.9824424820987402
Training time: 33.0
		
Iteration: 34
Labeled set size: 979
Unlabelled set size: 619
	
Mean region size: 72.05882352941177
Incorrectly Classified Instances: 1.5018773466833542
Correctly Classified Instances: 98.49812265331664
Weighted Precision: 0.9852135644010324
Weighted AreaUnderROC: 0.9970212311825933
Root mean squared error: 0.14230066244270215
Relative absolute error: 15.561122778477268
Root relative squared error: 28.46013248854043
Weighted TruePositiveRate: 0.9849812265331664
Weighted MatthewsCorrelation: 0.9701225645366144
Weighted FMeasure: 0.9849718820534341
Iteration time: 38.0
Weighted AreaUnderPRC: 0.9959527886437259
Mean absolute error: 0.07780561389238634
Coverage of cases: 99.87484355444306
Instances selection time: 3.0
Test time: 9.0
Accumulative iteration time: 971.0
Weighted Recall: 0.9849812265331664
Weighted FalsePositiveRate: 0.016065259830089128
Kappa statistic: 0.9698749187018691
Training time: 35.0
		
Iteration: 35
Labeled set size: 999
Unlabelled set size: 599
	
Mean region size: 72.96620775969963
Incorrectly Classified Instances: 1.0638297872340425
Correctly Classified Instances: 98.93617021276596
Weighted Precision: 0.9894483252938139
Weighted AreaUnderROC: 0.9982241955126998
Root mean squared error: 0.13804593613150784
Relative absolute error: 15.409389942556306
Root relative squared error: 27.609187226301568
Weighted TruePositiveRate: 0.9893617021276596
Weighted MatthewsCorrelation: 0.9787628400732292
Weighted FMeasure: 0.9893579806657902
Iteration time: 39.0
Weighted AreaUnderPRC: 0.9975990129579784
Mean absolute error: 0.07704694971278153
Coverage of cases: 99.93742177722153
Instances selection time: 3.0
Test time: 10.0
Accumulative iteration time: 1010.0
Weighted Recall: 0.9893617021276596
Weighted FalsePositiveRate: 0.011283431759660779
Kappa statistic: 0.978669610594371
Training time: 36.0
		
Iteration: 36
Labeled set size: 1019
Unlabelled set size: 579
	
Mean region size: 75.53191489361703
Incorrectly Classified Instances: 1.7521902377972465
Correctly Classified Instances: 98.24780976220275
Weighted Precision: 0.9826132862619155
Weighted AreaUnderROC: 0.9966641869750273
Root mean squared error: 0.15765243808488
Relative absolute error: 18.313877194978435
Root relative squared error: 31.530487616976
Weighted TruePositiveRate: 0.9824780976220275
Weighted MatthewsCorrelation: 0.9650107480169612
Weighted FMeasure: 0.9824700059790676
Iteration time: 42.0
Weighted AreaUnderPRC: 0.9955042437736494
Mean absolute error: 0.09156938597489217
Coverage of cases: 99.93742177722153
Instances selection time: 3.0
Test time: 10.0
Accumulative iteration time: 1052.0
Weighted Recall: 0.9824780976220275
Weighted FalsePositiveRate: 0.018358293988494572
Kappa statistic: 0.9648618000081673
Training time: 39.0
		
Iteration: 37
Labeled set size: 1039
Unlabelled set size: 559
	
Mean region size: 71.71464330413016
Incorrectly Classified Instances: 1.6896120150187734
Correctly Classified Instances: 98.31038798498123
Weighted Precision: 0.98341970106254
Weighted AreaUnderROC: 0.998297173779301
Root mean squared error: 0.1465708024242366
Relative absolute error: 15.84765724305808
Root relative squared error: 29.314160484847317
Weighted TruePositiveRate: 0.9831038798498123
Weighted MatthewsCorrelation: 0.9664396124043844
Weighted FMeasure: 0.9830911944320451
Iteration time: 43.0
Weighted AreaUnderPRC: 0.9979312653906518
Mean absolute error: 0.0792382862152904
Coverage of cases: 99.93742177722153
Instances selection time: 3.0
Test time: 10.0
Accumulative iteration time: 1095.0
Weighted Recall: 0.9831038798498123
Weighted FalsePositiveRate: 0.018114614717415562
Kappa statistic: 0.9661036922511278
Training time: 40.0
		
Iteration: 38
Labeled set size: 1059
Unlabelled set size: 539
	
Mean region size: 74.6558197747184
Incorrectly Classified Instances: 2.065081351689612
Correctly Classified Instances: 97.93491864831039
Weighted Precision: 0.979501744648388
Weighted AreaUnderROC: 0.9946262884979974
Root mean squared error: 0.1619224833550258
Relative absolute error: 18.284907416321534
Root relative squared error: 32.38449667100516
Weighted TruePositiveRate: 0.9793491864831039
Weighted MatthewsCorrelation: 0.9587547431377187
Weighted FMeasure: 0.9793388463934182
Iteration time: 50.0
Weighted AreaUnderPRC: 0.9928004450628106
Mean absolute error: 0.09142453708160767
Coverage of cases: 99.81226533166458
Instances selection time: 3.0
Test time: 10.0
Accumulative iteration time: 1145.0
Weighted Recall: 0.9793491864831039
Weighted FalsePositiveRate: 0.021554165955023723
Kappa statistic: 0.95858484475796
Training time: 47.0
		
Iteration: 39
Labeled set size: 1079
Unlabelled set size: 519
	
Mean region size: 69.52440550688361
Incorrectly Classified Instances: 1.1264080100125156
Correctly Classified Instances: 98.87359198998749
Weighted Precision: 0.9888065246429117
Weighted AreaUnderROC: 0.9975862242143458
Root mean squared error: 0.12962710014683196
Relative absolute error: 13.14993742177716
Root relative squared error: 25.925420029366393
Weighted TruePositiveRate: 0.9887359198998749
Weighted MatthewsCorrelation: 0.9774930631890595
Weighted FMeasure: 0.988732382191831
Iteration time: 40.0
Weighted AreaUnderPRC: 0.9966412484064855
Mean absolute error: 0.0657496871088858
Coverage of cases: 99.87484355444306
Instances selection time: 2.0
Test time: 10.0
Accumulative iteration time: 1185.0
Weighted Recall: 0.9887359198998749
Weighted FalsePositiveRate: 0.011856690299262139
Kappa statistic: 0.9774161230854268
Training time: 38.0
		
Iteration: 40
Labeled set size: 1099
Unlabelled set size: 499
	
Mean region size: 70.58823529411765
Incorrectly Classified Instances: 1.2515644555694618
Correctly Classified Instances: 98.74843554443054
Weighted Precision: 0.987493851047008
Weighted AreaUnderROC: 0.9970400642836517
Root mean squared error: 0.13703905938239752
Relative absolute error: 14.108886107634481
Root relative squared error: 27.407811876479503
Weighted TruePositiveRate: 0.9874843554443054
Weighted MatthewsCorrelation: 0.9749273450480664
Weighted FMeasure: 0.9874829015806107
Iteration time: 41.0
Weighted AreaUnderPRC: 0.9960044315024337
Mean absolute error: 0.0705444305381724
Coverage of cases: 99.87484355444306
Instances selection time: 2.0
Test time: 10.0
Accumulative iteration time: 1226.0
Weighted Recall: 0.9874843554443054
Weighted FalsePositiveRate: 0.012783487866116624
Kappa statistic: 0.974915075443146
Training time: 39.0
		
Iteration: 41
Labeled set size: 1119
Unlabelled set size: 479
	
Mean region size: 73.31038798498123
Incorrectly Classified Instances: 2.002503128911139
Correctly Classified Instances: 97.99749687108886
Weighted Precision: 0.9800393783302331
Weighted AreaUnderROC: 0.9981818210353185
Root mean squared error: 0.14774838320311612
Relative absolute error: 16.285776812903404
Root relative squared error: 29.549676640623225
Weighted TruePositiveRate: 0.9799749687108886
Weighted MatthewsCorrelation: 0.9599264428909559
Weighted FMeasure: 0.9799686794521439
Iteration time: 45.0
Weighted AreaUnderPRC: 0.9976056542772169
Mean absolute error: 0.08142888406451701
Coverage of cases: 100.0
Instances selection time: 3.0
Test time: 10.0
Accumulative iteration time: 1271.0
Weighted Recall: 0.9799749687108886
Weighted FalsePositiveRate: 0.020651328146900013
Kappa statistic: 0.9598508854852033
Training time: 42.0
		
Iteration: 42
Labeled set size: 1139
Unlabelled set size: 459
	
Mean region size: 71.33917396745933
Incorrectly Classified Instances: 1.6896120150187734
Correctly Classified Instances: 98.31038798498123
Weighted Precision: 0.9832201464271207
Weighted AreaUnderROC: 0.9971648335781635
Root mean squared error: 0.14191677447830578
Relative absolute error: 14.844081358852057
Root relative squared error: 28.383354895661157
Weighted TruePositiveRate: 0.9831038798498123
Weighted MatthewsCorrelation: 0.966247176962973
Weighted FMeasure: 0.9830967212499525
Iteration time: 43.0
Weighted AreaUnderPRC: 0.996172516740683
Mean absolute error: 0.07422040679426029
Coverage of cases: 99.87484355444306
Instances selection time: 2.0
Test time: 10.0
Accumulative iteration time: 1314.0
Weighted Recall: 0.9831038798498123
Weighted FalsePositiveRate: 0.01767517569271909
Kappa statistic: 0.966118598255751
Training time: 41.0
		
Iteration: 43
Labeled set size: 1159
Unlabelled set size: 439
	
Mean region size: 72.71589486858574
Incorrectly Classified Instances: 1.0012515644555695
Correctly Classified Instances: 98.99874843554443
Weighted Precision: 0.9900323443112974
Weighted AreaUnderROC: 0.997105195424812
Root mean squared error: 0.14013427731888242
Relative absolute error: 15.594177064765205
Root relative squared error: 28.026855463776485
Weighted TruePositiveRate: 0.9899874843554443
Weighted MatthewsCorrelation: 0.9799770043435291
Weighted FMeasure: 0.989985031848786
Iteration time: 44.0
Weighted AreaUnderPRC: 0.9960844070585335
Mean absolute error: 0.07797088532382603
Coverage of cases: 99.87484355444306
Instances selection time: 3.0
Test time: 10.0
Accumulative iteration time: 1358.0
Weighted Recall: 0.9899874843554443
Weighted FalsePositiveRate: 0.010490453707711182
Kappa statistic: 0.9799276490981258
Training time: 41.0
		
Iteration: 44
Labeled set size: 1179
Unlabelled set size: 419
	
Mean region size: 73.21652065081352
Incorrectly Classified Instances: 1.7521902377972465
Correctly Classified Instances: 98.24780976220275
Weighted Precision: 0.9826132862619155
Weighted AreaUnderROC: 0.9974889198588773
Root mean squared error: 0.15048433672090852
Relative absolute error: 16.828611521978125
Root relative squared error: 30.096867344181703
Weighted TruePositiveRate: 0.9824780976220275
Weighted MatthewsCorrelation: 0.9650107480169612
Weighted FMeasure: 0.9824700059790676
Iteration time: 46.0
Weighted AreaUnderPRC: 0.9966193190650225
Mean absolute error: 0.08414305760989062
Coverage of cases: 99.93742177722153
Instances selection time: 3.0
Test time: 10.0
Accumulative iteration time: 1404.0
Weighted Recall: 0.9824780976220275
Weighted FalsePositiveRate: 0.018358293988494572
Kappa statistic: 0.9648618000081673
Training time: 43.0
		
Iteration: 45
Labeled set size: 1199
Unlabelled set size: 399
	
Mean region size: 71.90237797246559
Incorrectly Classified Instances: 0.8135168961201502
Correctly Classified Instances: 99.18648310387985
Weighted Precision: 0.991870439880115
Weighted AreaUnderROC: 0.9977525832736952
Root mean squared error: 0.13199026968749664
Relative absolute error: 14.531164948248732
Root relative squared error: 26.398053937499327
Weighted TruePositiveRate: 0.9918648310387985
Weighted MatthewsCorrelation: 0.9837026578185329
Weighted FMeasure: 0.9918641318983985
Iteration time: 44.0
Weighted AreaUnderPRC: 0.9969387159055523
Mean absolute error: 0.07265582474124366
Coverage of cases: 99.87484355444306
Instances selection time: 2.0
Test time: 10.0
Accumulative iteration time: 1448.0
Weighted Recall: 0.9918648310387985
Weighted FalsePositiveRate: 0.00833123906421063
Kappa statistic: 0.9836956948283629
Training time: 42.0
		
Iteration: 46
Labeled set size: 1219
Unlabelled set size: 379
	
Mean region size: 73.68585732165207
Incorrectly Classified Instances: 1.9399249061326658
Correctly Classified Instances: 98.06007509386734
Weighted Precision: 0.9807547852352133
Weighted AreaUnderROC: 0.9976380152422564
Root mean squared error: 0.15501264735465814
Relative absolute error: 17.56929763979002
Root relative squared error: 31.002529470931627
Weighted TruePositiveRate: 0.9806007509386734
Weighted MatthewsCorrelation: 0.9612651974172575
Weighted FMeasure: 0.9805910375210897
Iteration time: 56.0
Weighted AreaUnderPRC: 0.9968054922038173
Mean absolute error: 0.08784648819895009
Coverage of cases: 99.93742177722153
Instances selection time: 2.0
Test time: 10.0
Accumulative iteration time: 1504.0
Weighted Recall: 0.9806007509386734
Weighted FalsePositiveRate: 0.020297789119646886
Kappa statistic: 0.9610948541665686
Training time: 54.0
		
Time end:Sat Oct 07 13.26.17 EEST 2017