Tue Oct 31 20.04.21 EET 2017
Dataset: letter
Test set size: 10000
Initial Labelled set size: 2000
Initial Unlabelled set size: 8000
Batch mode: QBestBatchMode
Batch size: 20
Classifiers: NaiveBayes-1cores
Scenario: PoolBasedSamplingScenario
Query strategy: LeastConfidentSamplingQueryStrategy-1cores
Time begining: Tue Oct 31 20.04.21 EET 2017
		
Iteration: 1
Labeled set size: 2000
Unlabelled set size: 8000
	
Mean region size: 11.371769230769711
Incorrectly Classified Instances: 37.607000000000006
Correctly Classified Instances: 62.39300000000001
Weighted Precision: 0.6382050004433524
Weighted AreaUnderROC: 0.9513051318172032
Root mean squared error: 0.14344910857638057
Relative absolute error: 44.92620052344586
Root relative squared error: 74.5935364597231
Weighted TruePositiveRate: 0.62393
Weighted MatthewsCorrelation: 0.6117516984271462
Weighted FMeasure: 0.6215380533737498
Iteration time: 1463.4
Weighted AreaUnderPRC: 0.6691301071411598
Mean absolute error: 0.03322943825698195
Coverage of cases: 85.036
Instances selection time: 1455.7
Test time: 2214.1
Accumulative iteration time: 1463.4
Weighted Recall: 0.62393
Weighted FalsePositiveRate: 0.015008818139784896
Kappa statistic: 0.6088725718977989
Training time: 7.7
		
Iteration: 2
Labeled set size: 2020
Unlabelled set size: 7980
	
Mean region size: 11.484346153846593
Incorrectly Classified Instances: 37.594
Correctly Classified Instances: 62.40599999999999
Weighted Precision: 0.6384305380330701
Weighted AreaUnderROC: 0.9517088794316455
Root mean squared error: 0.14330491362924574
Relative absolute error: 45.023983108698125
Root relative squared error: 74.51855508721297
Weighted TruePositiveRate: 0.62406
Weighted MatthewsCorrelation: 0.6118956042442363
Weighted FMeasure: 0.6216262184384681
Iteration time: 1425.2
Weighted AreaUnderPRC: 0.6700879966130533
Mean absolute error: 0.03330176265435787
Coverage of cases: 85.251
Instances selection time: 1417.9
Test time: 2134.1
Accumulative iteration time: 2888.6
Weighted Recall: 0.62406
Weighted FalsePositiveRate: 0.015003256867451409
Kappa statistic: 0.6090080182286689
Training time: 7.3
		
Iteration: 3
Labeled set size: 2040
Unlabelled set size: 7960
	
Mean region size: 11.619500000000397
Incorrectly Classified Instances: 37.515
Correctly Classified Instances: 62.485
Weighted Precision: 0.6389598098832125
Weighted AreaUnderROC: 0.9521966091186933
Root mean squared error: 0.14306971442898844
Relative absolute error: 45.093302362716635
Root relative squared error: 74.39625150307918
Weighted TruePositiveRate: 0.62485
Weighted MatthewsCorrelation: 0.6126135923881305
Weighted FMeasure: 0.6223440622188625
Iteration time: 1401.7
Weighted AreaUnderPRC: 0.6713345367922624
Mean absolute error: 0.03335303429194551
Coverage of cases: 85.444
Instances selection time: 1393.2
Test time: 2093.2
Accumulative iteration time: 4290.3
Weighted Recall: 0.62485
Weighted FalsePositiveRate: 0.014971773024828078
Kappa statistic: 0.6098294174111626
Training time: 8.5
		
Iteration: 4
Labeled set size: 2060
Unlabelled set size: 7940
	
Mean region size: 11.739769230769562
Incorrectly Classified Instances: 37.456
Correctly Classified Instances: 62.544000000000004
Weighted Precision: 0.6396486448442134
Weighted AreaUnderROC: 0.9524620580117473
Root mean squared error: 0.14288469001979245
Relative absolute error: 45.15332077181513
Root relative squared error: 74.30003881029727
Weighted TruePositiveRate: 0.6254399999999999
Weighted MatthewsCorrelation: 0.6132031546386716
Weighted FMeasure: 0.6228233066637703
Iteration time: 1406.7
Weighted AreaUnderPRC: 0.6718290046739873
Mean absolute error: 0.03339742660636748
Coverage of cases: 85.66600000000003
Instances selection time: 1399.5
Test time: 2100.9
Accumulative iteration time: 5697.0
Weighted Recall: 0.6254399999999999
Weighted FalsePositiveRate: 0.014946777101029197
Kappa statistic: 0.6104439255563542
Training time: 7.2
		
Iteration: 5
Labeled set size: 2080
Unlabelled set size: 7920
	
Mean region size: 11.861730769231041
Incorrectly Classified Instances: 37.358999999999995
Correctly Classified Instances: 62.641000000000005
Weighted Precision: 0.6404218521389201
Weighted AreaUnderROC: 0.9528257059904301
Root mean squared error: 0.14261201570661614
Relative absolute error: 45.2060834763727
Root relative squared error: 74.15824816744558
Weighted TruePositiveRate: 0.62641
Weighted MatthewsCorrelation: 0.614118494175339
Weighted FMeasure: 0.6237007401226727
Iteration time: 1392.8
Weighted AreaUnderPRC: 0.6726663014109632
Mean absolute error: 0.03343645227541893
Coverage of cases: 85.943
Instances selection time: 1385.6
Test time: 2112.2
Accumulative iteration time: 7089.8
Weighted Recall: 0.62641
Weighted FalsePositiveRate: 0.014906085832868626
Kappa statistic: 0.6114535629691419
Training time: 7.2
		
Iteration: 6
Labeled set size: 2100
Unlabelled set size: 7900
	
Mean region size: 11.969961538461735
Incorrectly Classified Instances: 37.29
Correctly Classified Instances: 62.709999999999994
Weighted Precision: 0.6417035846165808
Weighted AreaUnderROC: 0.9530944793091585
Root mean squared error: 0.1424748017324157
Relative absolute error: 45.27507718610841
Root relative squared error: 74.08689690086133
Weighted TruePositiveRate: 0.6271
Weighted MatthewsCorrelation: 0.6150969219961206
Weighted FMeasure: 0.6246168341026512
Iteration time: 1432.6
Weighted AreaUnderPRC: 0.6733011801614905
Mean absolute error: 0.033487483125815155
Coverage of cases: 86.11099999999999
Instances selection time: 1425.3
Test time: 2079.9
Accumulative iteration time: 8522.4
Weighted Recall: 0.6271
Weighted FalsePositiveRate: 0.014877276340058898
Kappa statistic: 0.6121718093348612
Training time: 7.3
		
Iteration: 7
Labeled set size: 2120
Unlabelled set size: 7880
	
Mean region size: 12.087692307692432
Incorrectly Classified Instances: 37.217
Correctly Classified Instances: 62.782999999999994
Weighted Precision: 0.6425264351694175
Weighted AreaUnderROC: 0.9534795781891336
Root mean squared error: 0.14221306401220835
Relative absolute error: 45.31345827737029
Root relative squared error: 73.9507932863535
Weighted TruePositiveRate: 0.62783
Weighted MatthewsCorrelation: 0.6158537782926699
Weighted FMeasure: 0.62528654394779
Iteration time: 1382.3
Weighted AreaUnderPRC: 0.6745193812072235
Mean absolute error: 0.03351587150692601
Coverage of cases: 86.297
Instances selection time: 1374.6
Test time: 2075.2
Accumulative iteration time: 9904.7
Weighted Recall: 0.62783
Weighted FalsePositiveRate: 0.014846712817974278
Kappa statistic: 0.612931321116735
Training time: 7.7
		
Iteration: 8
Labeled set size: 2140
Unlabelled set size: 7860
	
Mean region size: 12.191692307692383
Incorrectly Classified Instances: 37.116
Correctly Classified Instances: 62.88399999999999
Weighted Precision: 0.6432669411760159
Weighted AreaUnderROC: 0.9538436658088733
Root mean squared error: 0.14198412776471597
Relative absolute error: 45.37878298198517
Root relative squared error: 73.83174643765746
Weighted TruePositiveRate: 0.6288400000000001
Weighted MatthewsCorrelation: 0.6168265705797923
Weighted FMeasure: 0.6262847074148175
Iteration time: 1379.8
Weighted AreaUnderPRC: 0.6753879153637096
Mean absolute error: 0.033564188596138196
Coverage of cases: 86.435
Instances selection time: 1372.3
Test time: 2076.4
Accumulative iteration time: 11284.5
Weighted Recall: 0.6288400000000001
Weighted FalsePositiveRate: 0.014805156530404887
Kappa statistic: 0.613981993941811
Training time: 7.5
		
Iteration: 9
Labeled set size: 2160
Unlabelled set size: 7840
	
Mean region size: 12.301615384615435
Incorrectly Classified Instances: 37.023999999999994
Correctly Classified Instances: 62.975999999999985
Weighted Precision: 0.644062572520015
Weighted AreaUnderROC: 0.9541110024200702
Root mean squared error: 0.14181917792854876
Relative absolute error: 45.44681864940786
Root relative squared error: 73.74597252285052
Weighted TruePositiveRate: 0.6297600000000001
Weighted MatthewsCorrelation: 0.6177110007382971
Weighted FMeasure: 0.6271212924616336
Iteration time: 1374.8
Weighted AreaUnderPRC: 0.6759616765280116
Mean absolute error: 0.03361451083535616
Coverage of cases: 86.613
Instances selection time: 1367.2
Test time: 2127.2
Accumulative iteration time: 12659.3
Weighted Recall: 0.6297600000000001
Weighted FalsePositiveRate: 0.01476833188495574
Kappa statistic: 0.6149382007363153
Training time: 7.6
		
Iteration: 10
Labeled set size: 2180
Unlabelled set size: 7820
	
Mean region size: 12.381038461538484
Incorrectly Classified Instances: 36.89800000000001
Correctly Classified Instances: 63.102
Weighted Precision: 0.6456446648098376
Weighted AreaUnderROC: 0.9544092853303079
Root mean squared error: 0.14166007331918243
Relative absolute error: 45.49097252774162
Root relative squared error: 73.66323812598
Weighted TruePositiveRate: 0.6310199999999999
Weighted MatthewsCorrelation: 0.619144865183171
Weighted FMeasure: 0.6284612347303337
Iteration time: 1411.1
Weighted AreaUnderPRC: 0.6766104133265118
Mean absolute error: 0.033647169029389995
Coverage of cases: 86.765
Instances selection time: 1402.2
Test time: 2102.1
Accumulative iteration time: 14070.4
Weighted Recall: 0.6310199999999999
Weighted FalsePositiveRate: 0.014715937941595283
Kappa statistic: 0.6162495092611499
Training time: 8.9
		
Iteration: 11
Labeled set size: 2200
Unlabelled set size: 7800
	
Mean region size: 12.481192307692293
Incorrectly Classified Instances: 36.852
Correctly Classified Instances: 63.148
Weighted Precision: 0.646039487112297
Weighted AreaUnderROC: 0.954730555485092
Root mean squared error: 0.14144293893184143
Relative absolute error: 45.52277937070221
Root relative squared error: 73.55032824456268
Weighted TruePositiveRate: 0.63148
Weighted MatthewsCorrelation: 0.6196576535589332
Weighted FMeasure: 0.6290303804391838
Iteration time: 1370.2
Weighted AreaUnderPRC: 0.6777454072244377
Mean absolute error: 0.033670694800810544
Coverage of cases: 86.96399999999997
Instances selection time: 1362.2
Test time: 2076.7
Accumulative iteration time: 15440.6
Weighted Recall: 0.63148
Weighted FalsePositiveRate: 0.014693536813804914
Kappa statistic: 0.6167296133919747
Training time: 8.0
		
Iteration: 12
Labeled set size: 2220
Unlabelled set size: 7780
	
Mean region size: 12.582538461538414
Incorrectly Classified Instances: 36.733000000000004
Correctly Classified Instances: 63.26700000000001
Weighted Precision: 0.6476505682167466
Weighted AreaUnderROC: 0.9550169860116335
Root mean squared error: 0.14130150724035467
Relative absolute error: 45.583925508712625
Root relative squared error: 73.47678376498956
Weighted TruePositiveRate: 0.6326700000000001
Weighted MatthewsCorrelation: 0.6210746758478908
Weighted FMeasure: 0.6303635938130605
Iteration time: 1363.8
Weighted AreaUnderPRC: 0.6782685795051725
Mean absolute error: 0.0337159212342502
Coverage of cases: 87.15100000000002
Instances selection time: 1355.9
Test time: 2074.2
Accumulative iteration time: 16804.4
Weighted Recall: 0.6326700000000001
Weighted FalsePositiveRate: 0.014643431791019531
Kappa statistic: 0.6179680897936318
Training time: 7.9
		
Iteration: 13
Labeled set size: 2240
Unlabelled set size: 7760
	
Mean region size: 12.666923076922997
Incorrectly Classified Instances: 36.735
Correctly Classified Instances: 63.265
Weighted Precision: 0.6471639613405771
Weighted AreaUnderROC: 0.9552242467270954
Root mean squared error: 0.1412337078535037
Relative absolute error: 45.66313110288099
Root relative squared error: 73.44152808382705
Weighted TruePositiveRate: 0.6326499999999999
Weighted MatthewsCorrelation: 0.6208339677809582
Weighted FMeasure: 0.6301372491307694
Iteration time: 1360.0
Weighted AreaUnderPRC: 0.6782189799339338
Mean absolute error: 0.033774505253605494
Coverage of cases: 87.221
Instances selection time: 1351.9
Test time: 2078.5
Accumulative iteration time: 18164.4
Weighted Recall: 0.6326499999999999
Weighted FalsePositiveRate: 0.014644606929160198
Kappa statistic: 0.6179470221731467
Training time: 8.1
		
Iteration: 14
Labeled set size: 2260
Unlabelled set size: 7740
	
Mean region size: 12.770884615384512
Incorrectly Classified Instances: 36.592
Correctly Classified Instances: 63.408
Weighted Precision: 0.6481099864666371
Weighted AreaUnderROC: 0.955579376088879
Root mean squared error: 0.14104269154773208
Relative absolute error: 45.71564203605595
Root relative squared error: 73.34219960482581
Weighted TruePositiveRate: 0.63408
Weighted MatthewsCorrelation: 0.6221174703114869
Weighted FMeasure: 0.6314083455273221
Iteration time: 1355.2
Weighted AreaUnderPRC: 0.6790312157543145
Mean absolute error: 0.03381334470122009
Coverage of cases: 87.424
Instances selection time: 1347.2
Test time: 2089.3
Accumulative iteration time: 19519.6
Weighted Recall: 0.63408
Weighted FalsePositiveRate: 0.014587521880696095
Kappa statistic: 0.6194342246383118
Training time: 8.0
		
Iteration: 15
Labeled set size: 2280
Unlabelled set size: 7720
	
Mean region size: 12.83034615384604
Incorrectly Classified Instances: 36.553000000000004
Correctly Classified Instances: 63.447
Weighted Precision: 0.649019516657994
Weighted AreaUnderROC: 0.9557606790482078
Root mean squared error: 0.1408809028266031
Relative absolute error: 45.741676549651686
Root relative squared error: 73.25806946983872
Weighted TruePositiveRate: 0.6344700000000001
Weighted MatthewsCorrelation: 0.6227474877609241
Weighted FMeasure: 0.631991639950127
Iteration time: 1347.6
Weighted AreaUnderPRC: 0.6795936349189783
Mean absolute error: 0.03383260099825837
Coverage of cases: 87.49000000000001
Instances selection time: 1338.6
Test time: 2125.5
Accumulative iteration time: 20867.2
Weighted Recall: 0.6344700000000001
Weighted FalsePositiveRate: 0.014573408376900562
Kappa statistic: 0.6198396987896893
Training time: 9.0
		
Iteration: 16
Labeled set size: 2300
Unlabelled set size: 7700
	
Mean region size: 12.88411538461526
Incorrectly Classified Instances: 36.507
Correctly Classified Instances: 63.492999999999995
Weighted Precision: 0.6495190179279156
Weighted AreaUnderROC: 0.9559993364864054
Root mean squared error: 0.14077392445543052
Relative absolute error: 45.77738260341116
Root relative squared error: 73.20244071682899
Weighted TruePositiveRate: 0.63493
Weighted MatthewsCorrelation: 0.6232135012569862
Weighted FMeasure: 0.6324049191507817
Iteration time: 1352.5
Weighted AreaUnderPRC: 0.6799141070325017
Mean absolute error: 0.033859010801334896
Coverage of cases: 87.607
Instances selection time: 1344.6
Test time: 2078.6
Accumulative iteration time: 22219.7
Weighted Recall: 0.63493
Weighted FalsePositiveRate: 0.014554319770614185
Kappa statistic: 0.6203181197460472
Training time: 7.9
		
Iteration: 17
Labeled set size: 2320
Unlabelled set size: 7680
	
Mean region size: 12.96765384615369
Incorrectly Classified Instances: 36.45899999999999
Correctly Classified Instances: 63.541
Weighted Precision: 0.650148519810212
Weighted AreaUnderROC: 0.9562146599830627
Root mean squared error: 0.14064966058858322
Relative absolute error: 45.854014200575186
Root relative squared error: 73.13782350606837
Weighted TruePositiveRate: 0.6354100000000001
Weighted MatthewsCorrelation: 0.6237020188161612
Weighted FMeasure: 0.6327736091007247
Iteration time: 1348.3
Weighted AreaUnderPRC: 0.680281059277074
Mean absolute error: 0.033915690976752066
Coverage of cases: 87.68699999999998
Instances selection time: 1339.9
Test time: 2120.6
Accumulative iteration time: 23568.0
Weighted Recall: 0.6354100000000001
Weighted FalsePositiveRate: 0.014534969945097901
Kappa statistic: 0.6208172495661082
Training time: 8.4
		
Iteration: 18
Labeled set size: 2340
Unlabelled set size: 7660
	
Mean region size: 13.025961538461377
Incorrectly Classified Instances: 36.45399999999999
Correctly Classified Instances: 63.54600000000001
Weighted Precision: 0.6500531643200025
Weighted AreaUnderROC: 0.9564353014513495
Root mean squared error: 0.14062303141681595
Relative absolute error: 45.909890744403405
Root relative squared error: 73.12397633674941
Weighted TruePositiveRate: 0.6354599999999999
Weighted MatthewsCorrelation: 0.6236561587716316
Weighted FMeasure: 0.6327049585056116
Iteration time: 1335.9
Weighted AreaUnderPRC: 0.680445469728099
Mean absolute error: 0.03395701978135873
Coverage of cases: 87.74600000000001
Instances selection time: 1327.6
Test time: 2076.6
Accumulative iteration time: 24903.9
Weighted Recall: 0.6354599999999999
Weighted FalsePositiveRate: 0.014535645804251382
Kappa statistic: 0.6208681344952429
Training time: 8.3
		
Iteration: 19
Labeled set size: 2360
Unlabelled set size: 7640
	
Mean region size: 13.090384615384428
Incorrectly Classified Instances: 36.42
Correctly Classified Instances: 63.580000000000005
Weighted Precision: 0.6501798717927728
Weighted AreaUnderROC: 0.9566295535500539
Root mean squared error: 0.14049492906418073
Relative absolute error: 45.94871247156257
Root relative squared error: 73.05736311337907
Weighted TruePositiveRate: 0.6358
Weighted MatthewsCorrelation: 0.6239039681089621
Weighted FMeasure: 0.63293782193232
Iteration time: 1331.4
Weighted AreaUnderPRC: 0.6811457480523063
Mean absolute error: 0.0339857340765948
Coverage of cases: 87.868
Instances selection time: 1322.9
Test time: 2081.7
Accumulative iteration time: 26235.3
Weighted Recall: 0.6358
Weighted FalsePositiveRate: 0.014519971502282607
Kappa statistic: 0.6212223599454354
Training time: 8.5
		
Iteration: 20
Labeled set size: 2380
Unlabelled set size: 7620
	
Mean region size: 13.15519230769211
Incorrectly Classified Instances: 36.38099999999999
Correctly Classified Instances: 63.61899999999999
Weighted Precision: 0.6502014328556597
Weighted AreaUnderROC: 0.9568150828040565
Root mean squared error: 0.14040449937634447
Relative absolute error: 46.00897132357475
Root relative squared error: 73.01033967570422
Weighted TruePositiveRate: 0.6361899999999999
Weighted MatthewsCorrelation: 0.6241959673043278
Weighted FMeasure: 0.6332880845131905
Iteration time: 1326.8
Weighted AreaUnderPRC: 0.6814762843976906
Mean absolute error: 0.03403030423340853
Coverage of cases: 87.93800000000002
Instances selection time: 1318.3
Test time: 2084.6
Accumulative iteration time: 27562.1
Weighted Recall: 0.6361899999999999
Weighted FalsePositiveRate: 0.014502993816458563
Kappa statistic: 0.6216282762420341
Training time: 8.5
		
Iteration: 21
Labeled set size: 2400
Unlabelled set size: 7600
	
Mean region size: 13.25007692307671
Incorrectly Classified Instances: 36.304
Correctly Classified Instances: 63.696000000000005
Weighted Precision: 0.6509814641678349
Weighted AreaUnderROC: 0.9569801078800154
Root mean squared error: 0.14028770332828813
Relative absolute error: 46.07293438385476
Root relative squared error: 72.9496057307149
Weighted TruePositiveRate: 0.63696
Weighted MatthewsCorrelation: 0.6250344172145235
Weighted FMeasure: 0.6341351532379526
Iteration time: 1324.9
Weighted AreaUnderPRC: 0.6818409617882119
Mean absolute error: 0.03407761418923694
Coverage of cases: 88.04099999999998
Instances selection time: 1316.4
Test time: 2082.6
Accumulative iteration time: 28887.0
Weighted Recall: 0.63696
Weighted FalsePositiveRate: 0.01447437964470567
Kappa statistic: 0.6224281158063343
Training time: 8.5
		
Iteration: 22
Labeled set size: 2420
Unlabelled set size: 7580
	
Mean region size: 13.317576923076691
Incorrectly Classified Instances: 36.323
Correctly Classified Instances: 63.677
Weighted Precision: 0.650838983247913
Weighted AreaUnderROC: 0.9571935073500919
Root mean squared error: 0.14029311951100149
Relative absolute error: 46.160664195038024
Root relative squared error: 72.95242214572588
Weighted TruePositiveRate: 0.63677
Weighted MatthewsCorrelation: 0.6247966035389245
Weighted FMeasure: 0.633832089793824
Iteration time: 1322.0
Weighted AreaUnderPRC: 0.6815260038786157
Mean absolute error: 0.034142503102834024
Coverage of cases: 88.16
Instances selection time: 1312.3
Test time: 2085.7
Accumulative iteration time: 30209.0
Weighted Recall: 0.63677
Weighted FalsePositiveRate: 0.014480900436363428
Kappa statistic: 0.6222309938352504
Training time: 9.7
		
Iteration: 23
Labeled set size: 2440
Unlabelled set size: 7560
	
Mean region size: 13.366999999999774
Incorrectly Classified Instances: 36.266
Correctly Classified Instances: 63.733999999999995
Weighted Precision: 0.6512596957417768
Weighted AreaUnderROC: 0.9574339478975078
Root mean squared error: 0.14016189538909585
Relative absolute error: 46.16173360869138
Root relative squared error: 72.88418560233495
Weighted TruePositiveRate: 0.63734
Weighted MatthewsCorrelation: 0.6252527702487565
Weighted FMeasure: 0.6341974334966047
Iteration time: 1314.3
Weighted AreaUnderPRC: 0.6823529433586432
Mean absolute error: 0.03414329408926402
Coverage of cases: 88.23999999999998
Instances selection time: 1305.6
Test time: 2083.5
Accumulative iteration time: 31523.3
Weighted Recall: 0.63734
Weighted FalsePositiveRate: 0.014459640213819671
Kappa statistic: 0.622823137950314
Training time: 8.7
		
Iteration: 24
Labeled set size: 2460
Unlabelled set size: 7540
	
Mean region size: 13.430769230768988
Incorrectly Classified Instances: 36.212
Correctly Classified Instances: 63.78799999999999
Weighted Precision: 0.6517192085857357
Weighted AreaUnderROC: 0.9575906827241681
Root mean squared error: 0.1400972608811137
Relative absolute error: 46.22812932399084
Root relative squared error: 72.85057565818421
Weighted TruePositiveRate: 0.63788
Weighted MatthewsCorrelation: 0.6257558063169555
Weighted FMeasure: 0.634653056753764
Iteration time: 1311.8
Weighted AreaUnderPRC: 0.6825302397598746
Mean absolute error: 0.034192403346142305
Coverage of cases: 88.32000000000001
Instances selection time: 1303.1
Test time: 2090.1
Accumulative iteration time: 32835.1
Weighted Recall: 0.63788
Weighted FalsePositiveRate: 0.014438988108669953
Kappa statistic: 0.6233846849307243
Training time: 8.7
		
Iteration: 25
Labeled set size: 2480
Unlabelled set size: 7520
	
Mean region size: 13.510423076922809
Incorrectly Classified Instances: 36.273
Correctly Classified Instances: 63.727
Weighted Precision: 0.6510953146100567
Weighted AreaUnderROC: 0.957653694009457
Root mean squared error: 0.1400525702561975
Relative absolute error: 46.305170684314604
Root relative squared error: 72.82733653322778
Weighted TruePositiveRate: 0.63727
Weighted MatthewsCorrelation: 0.6250896103257616
Weighted FMeasure: 0.6339778082394408
Iteration time: 1306.2
Weighted AreaUnderPRC: 0.6826971822628998
Mean absolute error: 0.03424938660081963
Coverage of cases: 88.372
Instances selection time: 1297.4
Test time: 2098.9
Accumulative iteration time: 34141.3
Weighted Recall: 0.63727
Weighted FalsePositiveRate: 0.014461280471085611
Kappa statistic: 0.6227509414985357
Training time: 8.8
		
Iteration: 26
Labeled set size: 2500
Unlabelled set size: 7500
	
Mean region size: 13.570730769230476
Incorrectly Classified Instances: 36.239999999999995
Correctly Classified Instances: 63.75999999999999
Weighted Precision: 0.651404871921573
Weighted AreaUnderROC: 0.9577520329525442
Root mean squared error: 0.13996303679851713
Relative absolute error: 46.33592807170993
Root relative squared error: 72.780779135234
Weighted TruePositiveRate: 0.6376
Weighted MatthewsCorrelation: 0.6254274702094563
Weighted FMeasure: 0.6343052731329759
Iteration time: 1305.4
Weighted AreaUnderPRC: 0.6826675798437718
Mean absolute error: 0.034272136147709666
Coverage of cases: 88.449
Instances selection time: 1296.4
Test time: 2093.6
Accumulative iteration time: 35446.7
Weighted Recall: 0.6376
Weighted FalsePositiveRate: 0.014447610197283944
Kappa statistic: 0.6230943724959095
Training time: 9.0
		
Iteration: 27
Labeled set size: 2520
Unlabelled set size: 7480
	
Mean region size: 13.61969230769201
Incorrectly Classified Instances: 36.089999999999996
Correctly Classified Instances: 63.90999999999999
Weighted Precision: 0.6525479543491712
Weighted AreaUnderROC: 0.9579726941510351
Root mean squared error: 0.13974724007878553
Relative absolute error: 46.312579357694254
Root relative squared error: 72.66856484097356
Weighted TruePositiveRate: 0.6391
Weighted MatthewsCorrelation: 0.6268745077439493
Weighted FMeasure: 0.6357744621434344
Iteration time: 1300.3
Weighted AreaUnderPRC: 0.6836390518350236
Mean absolute error: 0.03425486638882234
Coverage of cases: 88.501
Instances selection time: 1290.7
Test time: 2095.9
Accumulative iteration time: 36747.0
Weighted Recall: 0.6391
Weighted FalsePositiveRate: 0.014386991716575318
Kappa statistic: 0.6246548539044897
Training time: 9.6
		
Iteration: 28
Labeled set size: 2540
Unlabelled set size: 7460
	
Mean region size: 13.68842307692276
Incorrectly Classified Instances: 35.991
Correctly Classified Instances: 64.009
Weighted Precision: 0.6533863300657823
Weighted AreaUnderROC: 0.958147961905215
Root mean squared error: 0.13960715970758691
Relative absolute error: 46.35005872216456
Root relative squared error: 72.59572304795026
Weighted TruePositiveRate: 0.64009
Weighted MatthewsCorrelation: 0.6279357215678237
Weighted FMeasure: 0.6369181978278727
Iteration time: 1294.6
Weighted AreaUnderPRC: 0.6840217610469028
Mean absolute error: 0.03428258781224712
Coverage of cases: 88.609
Instances selection time: 1285.7
Test time: 2104.8
Accumulative iteration time: 38041.6
Weighted Recall: 0.64009
Weighted FalsePositiveRate: 0.014346707053261746
Kappa statistic: 0.6256850397795443
Training time: 8.9
		
Iteration: 29
Labeled set size: 2560
Unlabelled set size: 7440
	
Mean region size: 13.746115384615052
Incorrectly Classified Instances: 35.994
Correctly Classified Instances: 64.006
Weighted Precision: 0.6533278519468354
Weighted AreaUnderROC: 0.9582769415813036
Root mean squared error: 0.13956517051551423
Relative absolute error: 46.40116390944227
Root relative squared error: 72.57388866807246
Weighted TruePositiveRate: 0.6400600000000001
Weighted MatthewsCorrelation: 0.6278752224566448
Weighted FMeasure: 0.6368483953944832
Iteration time: 1308.7
Weighted AreaUnderPRC: 0.6844631578844071
Mean absolute error: 0.03432038750697914
Coverage of cases: 88.69000000000001
Instances selection time: 1298.2
Test time: 2088.0
Accumulative iteration time: 39350.3
Weighted Recall: 0.6400600000000001
Weighted FalsePositiveRate: 0.014348453352049678
Kappa statistic: 0.6256533395673529
Training time: 10.5
		
Iteration: 30
Labeled set size: 2580
Unlabelled set size: 7420
	
Mean region size: 13.782269230768884
Incorrectly Classified Instances: 35.93
Correctly Classified Instances: 64.07000000000001
Weighted Precision: 0.6535262958475129
Weighted AreaUnderROC: 0.9584431097520996
Root mean squared error: 0.13941152170396376
Relative absolute error: 46.39382184173494
Root relative squared error: 72.49399128606623
Weighted TruePositiveRate: 0.6407
Weighted MatthewsCorrelation: 0.6283982588335686
Weighted FMeasure: 0.6374309780449188
Iteration time: 1303.8
Weighted AreaUnderPRC: 0.6853603335761846
Mean absolute error: 0.034314956983526976
Coverage of cases: 88.761
Instances selection time: 1293.1
Test time: 2096.6
Accumulative iteration time: 40654.1
Weighted Recall: 0.6407
Weighted FalsePositiveRate: 0.014321378990740855
Kappa statistic: 0.6263194712101617
Training time: 10.7
		
Iteration: 31
Labeled set size: 2600
Unlabelled set size: 7400
	
Mean region size: 13.842192307691935
Incorrectly Classified Instances: 35.888
Correctly Classified Instances: 64.112
Weighted Precision: 0.6535776172790323
Weighted AreaUnderROC: 0.9585911212106462
Root mean squared error: 0.13932014735531287
Relative absolute error: 46.43440390154255
Root relative squared error: 72.44647662476775
Weighted TruePositiveRate: 0.64112
Weighted MatthewsCorrelation: 0.6286665340381291
Weighted FMeasure: 0.6376998982756747
Iteration time: 1287.7
Weighted AreaUnderPRC: 0.6860334524774019
Mean absolute error: 0.03434497329995273
Coverage of cases: 88.88300000000001
Instances selection time: 1278.3
Test time: 2098.2
Accumulative iteration time: 41941.8
Weighted Recall: 0.64112
Weighted FalsePositiveRate: 0.014303832902278319
Kappa statistic: 0.6267563974802897
Training time: 9.4
		
Iteration: 32
Labeled set size: 2620
Unlabelled set size: 7380
	
Mean region size: 13.891307692307311
Incorrectly Classified Instances: 35.86900000000001
Correctly Classified Instances: 64.131
Weighted Precision: 0.6540346483985885
Weighted AreaUnderROC: 0.958673742197339
Root mean squared error: 0.13926752760218217
Relative absolute error: 46.476037904319895
Root relative squared error: 72.41911435313979
Weighted TruePositiveRate: 0.64131
Weighted MatthewsCorrelation: 0.6290029647653843
Weighted FMeasure: 0.6380306918111356
Iteration time: 1280.4
Weighted AreaUnderPRC: 0.6864411112978999
Mean absolute error: 0.03437576768070518
Coverage of cases: 88.91999999999999
Instances selection time: 1270.8
Test time: 2111.9
Accumulative iteration time: 43222.2
Weighted Recall: 0.64131
Weighted FalsePositiveRate: 0.014298215666832875
Kappa statistic: 0.6269533793644706
Training time: 9.6
		
Iteration: 33
Labeled set size: 2640
Unlabelled set size: 7360
	
Mean region size: 13.947115384614989
Incorrectly Classified Instances: 35.861
Correctly Classified Instances: 64.13900000000001
Weighted Precision: 0.6540082390831972
Weighted AreaUnderROC: 0.9587884552966273
Root mean squared error: 0.1391505037294713
Relative absolute error: 46.505010433341155
Root relative squared error: 72.35826193933012
Weighted TruePositiveRate: 0.6413900000000001
Weighted MatthewsCorrelation: 0.6290635709365943
Weighted FMeasure: 0.6381228084653041
Iteration time: 1281.4
Weighted AreaUnderPRC: 0.6869115922516597
Mean absolute error: 0.03439719706607594
Coverage of cases: 88.967
Instances selection time: 1271.8
Test time: 2093.8
Accumulative iteration time: 44503.6
Weighted Recall: 0.6413900000000001
Weighted FalsePositiveRate: 0.014292589002591689
Kappa statistic: 0.6270371891010824
Training time: 9.6
		
Iteration: 34
Labeled set size: 2660
Unlabelled set size: 7340
	
Mean region size: 13.994769230768828
Incorrectly Classified Instances: 35.705
Correctly Classified Instances: 64.29499999999999
Weighted Precision: 0.6557664973233235
Weighted AreaUnderROC: 0.9589897098781612
Root mean squared error: 0.13893234730585974
Relative absolute error: 46.47137879207838
Root relative squared error: 72.2448205990521
Weighted TruePositiveRate: 0.64295
Weighted MatthewsCorrelation: 0.6307821141544366
Weighted FMeasure: 0.6397771180363208
Iteration time: 1271.8
Weighted AreaUnderPRC: 0.6881085177497738
Mean absolute error: 0.03437232159176916
Coverage of cases: 89.093
Instances selection time: 1262.3
Test time: 2094.9
Accumulative iteration time: 45775.4
Weighted Recall: 0.64295
Weighted FalsePositiveRate: 0.0142306352605872
Kappa statistic: 0.6286596789182302
Training time: 9.5
		
Iteration: 35
Labeled set size: 2680
Unlabelled set size: 7320
	
Mean region size: 14.0593846153842
Incorrectly Classified Instances: 35.661
Correctly Classified Instances: 64.339
Weighted Precision: 0.6560564852508495
Weighted AreaUnderROC: 0.9591729274923969
Root mean squared error: 0.13885257444246432
Relative absolute error: 46.516383301045764
Root relative squared error: 72.2033387100865
Weighted TruePositiveRate: 0.64339
Weighted MatthewsCorrelation: 0.6311878221751288
Weighted FMeasure: 0.6401930606218086
Iteration time: 1296.1
Weighted AreaUnderPRC: 0.6888349880001071
Mean absolute error: 0.03440560895047283
Coverage of cases: 89.18400000000001
Instances selection time: 1285.0
Test time: 2092.5
Accumulative iteration time: 47071.5
Weighted Recall: 0.64339
Weighted FalsePositiveRate: 0.014212823262830156
Kappa statistic: 0.6291175491151775
Training time: 11.1
		
Iteration: 36
Labeled set size: 2700
Unlabelled set size: 7300
	
Mean region size: 14.099999999999586
Incorrectly Classified Instances: 35.609
Correctly Classified Instances: 64.391
Weighted Precision: 0.6564423638025085
Weighted AreaUnderROC: 0.9593582312945241
Root mean squared error: 0.1387259844752241
Relative absolute error: 46.52094934479815
Root relative squared error: 72.13751192712155
Weighted TruePositiveRate: 0.64391
Weighted MatthewsCorrelation: 0.6316769959844462
Weighted FMeasure: 0.640672733798761
Iteration time: 1274.8
Weighted AreaUnderPRC: 0.6895229591407006
Mean absolute error: 0.03440898620176898
Coverage of cases: 89.257
Instances selection time: 1263.5
Test time: 2090.1
Accumulative iteration time: 48346.3
Weighted Recall: 0.64391
Weighted FalsePositiveRate: 0.014193231545944943
Kappa statistic: 0.6296579835323273
Training time: 11.3
		
Iteration: 37
Labeled set size: 2720
Unlabelled set size: 7280
	
Mean region size: 14.136846153845733
Incorrectly Classified Instances: 35.578
Correctly Classified Instances: 64.422
Weighted Precision: 0.6566404523147736
Weighted AreaUnderROC: 0.9595311033429187
Root mean squared error: 0.13864818783775584
Relative absolute error: 46.52901489408831
Root relative squared error: 72.0970576756381
Weighted TruePositiveRate: 0.64422
Weighted MatthewsCorrelation: 0.6319686332053387
Weighted FMeasure: 0.6409838126666504
Iteration time: 1263.1
Weighted AreaUnderPRC: 0.6902444996724081
Mean absolute error: 0.03441495184473507
Coverage of cases: 89.315
Instances selection time: 1253.2
Test time: 2093.7
Accumulative iteration time: 49609.4
Weighted Recall: 0.64422
Weighted FalsePositiveRate: 0.01418070782726997
Kappa statistic: 0.6299799645600782
Training time: 9.9
		
Iteration: 38
Labeled set size: 2740
Unlabelled set size: 7260
	
Mean region size: 14.200884615384174
Incorrectly Classified Instances: 35.522
Correctly Classified Instances: 64.47800000000001
Weighted Precision: 0.657336543903431
Weighted AreaUnderROC: 0.9596441278087913
Root mean squared error: 0.13856129765848565
Relative absolute error: 46.564774645763016
Root relative squared error: 72.05187478241757
Weighted TruePositiveRate: 0.64478
Weighted MatthewsCorrelation: 0.6325845778624759
Weighted FMeasure: 0.6415414900316955
Iteration time: 1295.5
Weighted AreaUnderPRC: 0.6905349148134925
Mean absolute error: 0.03444140136520453
Coverage of cases: 89.381
Instances selection time: 1284.1
Test time: 2099.0
Accumulative iteration time: 50904.9
Weighted Recall: 0.64478
Weighted FalsePositiveRate: 0.014158728228532707
Kappa statistic: 0.6305622728487997
Training time: 11.4
		
Iteration: 39
Labeled set size: 2760
Unlabelled set size: 7240
	
Mean region size: 14.233038461538012
Incorrectly Classified Instances: 35.53699999999999
Correctly Classified Instances: 64.463
Weighted Precision: 0.6567195420356864
Weighted AreaUnderROC: 0.9598053321440337
Root mean squared error: 0.13848799258159342
Relative absolute error: 46.55986434321022
Root relative squared error: 72.0137561424336
Weighted TruePositiveRate: 0.64463
Weighted MatthewsCorrelation: 0.6322331274856146
Weighted FMeasure: 0.6412379182082255
Iteration time: 1254.1
Weighted AreaUnderPRC: 0.6907753050867764
Mean absolute error: 0.034437769484618144
Coverage of cases: 89.448
Instances selection time: 1244.1
Test time: 2083.3
Accumulative iteration time: 52159.0
Weighted Recall: 0.64463
Weighted FalsePositiveRate: 0.014163530695556417
Kappa statistic: 0.6304065594223158
Training time: 10.0
		
Iteration: 40
Labeled set size: 2780
Unlabelled set size: 7220
	
Mean region size: 14.266884615384166
Incorrectly Classified Instances: 35.45700000000001
Correctly Classified Instances: 64.543
Weighted Precision: 0.6576466400218053
Weighted AreaUnderROC: 0.9599228215348614
Root mean squared error: 0.1384277702821193
Relative absolute error: 46.57995661822739
Root relative squared error: 71.98244054670707
Weighted TruePositiveRate: 0.64543
Weighted MatthewsCorrelation: 0.6331228650506591
Weighted FMeasure: 0.6420946877303175
Iteration time: 1250.3
Weighted AreaUnderPRC: 0.691005009725717
Mean absolute error: 0.03445263063477877
Coverage of cases: 89.535
Instances selection time: 1240.5
Test time: 2107.1
Accumulative iteration time: 53409.3
Weighted Recall: 0.64543
Weighted FalsePositiveRate: 0.014131500260639562
Kappa statistic: 0.631238869051172
Training time: 9.8
		
Iteration: 41
Labeled set size: 2800
Unlabelled set size: 7200
	
Mean region size: 14.33549999999953
Incorrectly Classified Instances: 35.425
Correctly Classified Instances: 64.575
Weighted Precision: 0.6577321841261698
Weighted AreaUnderROC: 0.9601169686088866
Root mean squared error: 0.13833881690773817
Relative absolute error: 46.629571719872686
Root relative squared error: 71.93618479202887
Weighted TruePositiveRate: 0.6457500000000002
Weighted MatthewsCorrelation: 0.6333309681333578
Weighted FMeasure: 0.642281430159866
Iteration time: 1255.2
Weighted AreaUnderPRC: 0.6914281321922211
Mean absolute error: 0.03448932819516729
Coverage of cases: 89.628
Instances selection time: 1243.9
Test time: 2081.2
Accumulative iteration time: 54664.5
Weighted Recall: 0.6457500000000002
Weighted FalsePositiveRate: 0.014119390598065005
Kappa statistic: 0.6315711119893149
Training time: 11.3
		
Iteration: 42
Labeled set size: 2820
Unlabelled set size: 7180
	
Mean region size: 14.374999999999517
Incorrectly Classified Instances: 35.373000000000005
Correctly Classified Instances: 64.62700000000001
Weighted Precision: 0.6582103476397188
Weighted AreaUnderROC: 0.9602539968349445
Root mean squared error: 0.13825635027685756
Relative absolute error: 46.64200055297627
Root relative squared error: 71.89330214397097
Weighted TruePositiveRate: 0.64627
Weighted MatthewsCorrelation: 0.6338238248689462
Weighted FMeasure: 0.6427204871027238
Iteration time: 1243.8
Weighted AreaUnderPRC: 0.6920973978610621
Mean absolute error: 0.034498521119060474
Coverage of cases: 89.683
Instances selection time: 1233.6
Test time: 2089.7
Accumulative iteration time: 55908.3
Weighted Recall: 0.64627
Weighted FalsePositiveRate: 0.014099171982489353
Kappa statistic: 0.6321116011890457
Training time: 10.2
		
Iteration: 43
Labeled set size: 2840
Unlabelled set size: 7160
	
Mean region size: 14.418153846153354
Incorrectly Classified Instances: 35.36300000000001
Correctly Classified Instances: 64.637
Weighted Precision: 0.6581998932831575
Weighted AreaUnderROC: 0.9604047637641461
Root mean squared error: 0.13818217942555283
Relative absolute error: 46.66474341014783
Root relative squared error: 71.8547333012925
Weighted TruePositiveRate: 0.6463700000000001
Weighted MatthewsCorrelation: 0.6338606525864329
Weighted FMeasure: 0.6427425663112669
Iteration time: 1238.1
Weighted AreaUnderPRC: 0.6927594612677674
Mean absolute error: 0.03451534275898027
Coverage of cases: 89.76399999999998
Instances selection time: 1227.8
Test time: 2067.0
Accumulative iteration time: 57146.4
Weighted Recall: 0.6463700000000001
Weighted FalsePositiveRate: 0.014096028855980746
Kappa statistic: 0.6322152714147837
Training time: 10.3
		
Iteration: 44
Labeled set size: 2860
Unlabelled set size: 7140
	
Mean region size: 14.462038461537954
Incorrectly Classified Instances: 35.314
Correctly Classified Instances: 64.686
Weighted Precision: 0.6587944533775387
Weighted AreaUnderROC: 0.9605797334498412
Root mean squared error: 0.1381070369937733
Relative absolute error: 46.67962753416538
Root relative squared error: 71.81565923676712
Weighted TruePositiveRate: 0.6468600000000001
Weighted MatthewsCorrelation: 0.6344215145646899
Weighted FMeasure: 0.6432865248302388
Iteration time: 1231.9
Weighted AreaUnderPRC: 0.6932906257252845
Mean absolute error: 0.03452635172644887
Coverage of cases: 89.86500000000001
Instances selection time: 1221.5
Test time: 2070.8
Accumulative iteration time: 58378.3
Weighted Recall: 0.6468600000000001
Weighted FalsePositiveRate: 0.014077874602663385
Kappa statistic: 0.6327242162656932
Training time: 10.4
		
Iteration: 45
Labeled set size: 2880
Unlabelled set size: 7120
	
Mean region size: 14.513346153845651
Incorrectly Classified Instances: 35.315999999999995
Correctly Classified Instances: 64.684
Weighted Precision: 0.6588582947324129
Weighted AreaUnderROC: 0.9606964694547895
Root mean squared error: 0.13803036425835863
Relative absolute error: 46.70493835479185
Root relative squared error: 71.77578941435151
Weighted TruePositiveRate: 0.64684
Weighted MatthewsCorrelation: 0.634435498296318
Weighted FMeasure: 0.6432916043572277
Iteration time: 1225.7
Weighted AreaUnderPRC: 0.6938058061749649
Mean absolute error: 0.03454507274762229
Coverage of cases: 89.941
Instances selection time: 1215.2
Test time: 2048.4
Accumulative iteration time: 59604.0
Weighted Recall: 0.64684
Weighted FalsePositiveRate: 0.0140783024749815
Kappa statistic: 0.6327036773779039
Training time: 10.5
		
Iteration: 46
Labeled set size: 2900
Unlabelled set size: 7100
	
Mean region size: 14.55823076923026
Incorrectly Classified Instances: 35.213
Correctly Classified Instances: 64.787
Weighted Precision: 0.6595765475165191
Weighted AreaUnderROC: 0.9608633453140587
Root mean squared error: 0.13788651527951776
Relative absolute error: 46.69525934623452
Root relative squared error: 71.70098794535423
Weighted TruePositiveRate: 0.64787
Weighted MatthewsCorrelation: 0.6353622143696144
Weighted FMeasure: 0.6441879998499236
Iteration time: 1226.0
Weighted AreaUnderPRC: 0.6943235221443013
Mean absolute error: 0.03453791371762427
Coverage of cases: 90.006
Instances selection time: 1215.5
Test time: 2049.3
Accumulative iteration time: 60830.0
Weighted Recall: 0.64787
Weighted FalsePositiveRate: 0.014038601357263428
Kappa statistic: 0.6337743783489682
Training time: 10.5
		
Time end:Tue Oct 31 20.33.46 EET 2017