Tue Oct 31 14.51.17 EET 2017
Dataset: letter
Test set size: 10000
Initial Labelled set size: 2000
Initial Unlabelled set size: 8000
Batch mode: QBestBatchMode
Batch size: 20
Classifiers: SMO-1cores
Scenario: PoolBasedSamplingScenario
Query strategy: EntropySamplingQueryStrategy-1cores
Time begining: Tue Oct 31 14.51.17 EET 2017
		
Iteration: 1
Labeled set size: 2000
Unlabelled set size: 8000
	
Mean region size: 78.58230769230451
Incorrectly Classified Instances: 28.01
Correctly Classified Instances: 71.99
Weighted Precision: 0.7420603580454019
Weighted AreaUnderROC: 0.9618292089935104
Root mean squared error: 0.18650639431563457
Relative absolute error: 96.33881600000112
Root relative squared error: 96.98332504413673
Weighted TruePositiveRate: 0.7199
Weighted MatthewsCorrelation: 0.7164003309512228
Weighted FMeasure: 0.7234229192624111
Iteration time: 2887.0
Weighted AreaUnderPRC: 0.638653272899797
Mean absolute error: 0.07125652071005005
Coverage of cases: 99.57
Instances selection time: 246.0
Test time: 431.0
Accumulative iteration time: 2887.0
Weighted Recall: 0.7199
Weighted FalsePositiveRate: 0.011139062171581518
Kappa statistic: 0.7086882648577592
Training time: 2641.0
		
Iteration: 2
Labeled set size: 2020
Unlabelled set size: 7980
	
Mean region size: 78.58615384615064
Incorrectly Classified Instances: 27.73
Correctly Classified Instances: 72.27
Weighted Precision: 0.7477417779981952
Weighted AreaUnderROC: 0.9626968163865658
Root mean squared error: 0.186498356940636
Relative absolute error: 96.33497600000118
Root relative squared error: 96.97914560913748
Weighted TruePositiveRate: 0.7227
Weighted MatthewsCorrelation: 0.720930697730588
Weighted FMeasure: 0.7280504572584857
Iteration time: 2921.0
Weighted AreaUnderPRC: 0.643376360132226
Mean absolute error: 0.07125368047336371
Coverage of cases: 99.59
Instances selection time: 246.0
Test time: 434.0
Accumulative iteration time: 5808.0
Weighted Recall: 0.7227
Weighted FalsePositiveRate: 0.011016304054459632
Kappa statistic: 0.7116059090274829
Training time: 2675.0
		
Iteration: 3
Labeled set size: 2040
Unlabelled set size: 7960
	
Mean region size: 78.58461538461219
Incorrectly Classified Instances: 27.66
Correctly Classified Instances: 72.34
Weighted Precision: 0.7507204787885117
Weighted AreaUnderROC: 0.9627579842166224
Root mean squared error: 0.18649746290134664
Relative absolute error: 96.33468800000115
Root relative squared error: 96.97868070870703
Weighted TruePositiveRate: 0.7234
Weighted MatthewsCorrelation: 0.7226415336196113
Weighted FMeasure: 0.7295419412068636
Iteration time: 2871.0
Weighted AreaUnderPRC: 0.6453471078992137
Mean absolute error: 0.07125346745561222
Coverage of cases: 99.6
Instances selection time: 242.0
Test time: 431.0
Accumulative iteration time: 8679.0
Weighted Recall: 0.7234
Weighted FalsePositiveRate: 0.010982095087614942
Kappa statistic: 0.7123371812585989
Training time: 2629.0
		
Iteration: 4
Labeled set size: 2060
Unlabelled set size: 7940
	
Mean region size: 78.5688461538429
Incorrectly Classified Instances: 27.76
Correctly Classified Instances: 72.24
Weighted Precision: 0.7495553066744067
Weighted AreaUnderROC: 0.9624878642159148
Root mean squared error: 0.18649890909903422
Relative absolute error: 96.33526400000109
Root relative squared error: 96.97943273150457
Weighted TruePositiveRate: 0.7224
Weighted MatthewsCorrelation: 0.7216779265265709
Weighted FMeasure: 0.728799880869396
Iteration time: 3060.0
Weighted AreaUnderPRC: 0.6449709462447719
Mean absolute error: 0.07125389349111512
Coverage of cases: 99.57
Instances selection time: 242.0
Test time: 436.0
Accumulative iteration time: 11739.0
Weighted Recall: 0.7224
Weighted FalsePositiveRate: 0.011018599149872896
Kappa statistic: 0.7112980412383293
Training time: 2818.0
		
Iteration: 5
Labeled set size: 2080
Unlabelled set size: 7920
	
Mean region size: 78.55884615384277
Incorrectly Classified Instances: 27.75
Correctly Classified Instances: 72.25
Weighted Precision: 0.7517801148777008
Weighted AreaUnderROC: 0.9627526465250381
Root mean squared error: 0.18649638629975557
Relative absolute error: 96.33395200000125
Root relative squared error: 96.97812087587965
Weighted TruePositiveRate: 0.7225
Weighted MatthewsCorrelation: 0.7226721806484572
Weighted FMeasure: 0.7295771152816447
Iteration time: 2950.0
Weighted AreaUnderPRC: 0.6474200404290308
Mean absolute error: 0.07125292307691405
Coverage of cases: 99.62
Instances selection time: 242.0
Test time: 435.0
Accumulative iteration time: 14689.0
Weighted Recall: 0.7225
Weighted FalsePositiveRate: 0.011010330844579983
Kappa statistic: 0.7114038593384698
Training time: 2708.0
		
Iteration: 6
Labeled set size: 2100
Unlabelled set size: 7900
	
Mean region size: 78.6073076923045
Incorrectly Classified Instances: 27.71
Correctly Classified Instances: 72.29
Weighted Precision: 0.7529000273681119
Weighted AreaUnderROC: 0.9631201299194457
Root mean squared error: 0.18649093856917437
Relative absolute error: 96.33171200000126
Root relative squared error: 96.97528805597743
Weighted TruePositiveRate: 0.7229
Weighted MatthewsCorrelation: 0.7233541534980137
Weighted FMeasure: 0.730124044203699
Iteration time: 3153.0
Weighted AreaUnderPRC: 0.6475044917815602
Mean absolute error: 0.07125126627218034
Coverage of cases: 99.72
Instances selection time: 241.0
Test time: 432.0
Accumulative iteration time: 17842.0
Weighted Recall: 0.7229
Weighted FalsePositiveRate: 0.010992310826204124
Kappa statistic: 0.7118209087273691
Training time: 2912.0
		
Iteration: 7
Labeled set size: 2120
Unlabelled set size: 7880
	
Mean region size: 78.69615384615106
Incorrectly Classified Instances: 27.8
Correctly Classified Instances: 72.2
Weighted Precision: 0.7520248970268435
Weighted AreaUnderROC: 0.9634680533363864
Root mean squared error: 0.18648093362912882
Relative absolute error: 96.32745600000115
Root relative squared error: 96.97008548715375
Weighted TruePositiveRate: 0.722
Weighted MatthewsCorrelation: 0.7225005658306543
Weighted FMeasure: 0.7293880257542477
Iteration time: 3007.0
Weighted AreaUnderPRC: 0.646047062744391
Mean absolute error: 0.07124811834318617
Coverage of cases: 99.76
Instances selection time: 237.0
Test time: 430.0
Accumulative iteration time: 20849.0
Weighted Recall: 0.722
Weighted FalsePositiveRate: 0.011028526371091727
Kappa statistic: 0.710885742503028
Training time: 2770.0
		
Iteration: 8
Labeled set size: 2140
Unlabelled set size: 7860
	
Mean region size: 78.6807692307664
Incorrectly Classified Instances: 27.73
Correctly Classified Instances: 72.27
Weighted Precision: 0.7522509997533442
Weighted AreaUnderROC: 0.9636790970097548
Root mean squared error: 0.18647608668614998
Relative absolute error: 96.32483200000117
Root relative squared error: 96.96756507680476
Weighted TruePositiveRate: 0.7227
Weighted MatthewsCorrelation: 0.722996410574208
Weighted FMeasure: 0.7298663048057351
Iteration time: 2725.0
Weighted AreaUnderPRC: 0.6472410040025302
Mean absolute error: 0.07124617751478382
Coverage of cases: 99.75
Instances selection time: 239.0
Test time: 434.0
Accumulative iteration time: 23574.0
Weighted Recall: 0.7227
Weighted FalsePositiveRate: 0.011002498321863997
Kappa statistic: 0.7116133561474589
Training time: 2486.0
		
Iteration: 9
Labeled set size: 2160
Unlabelled set size: 7840
	
Mean region size: 78.67499999999723
Incorrectly Classified Instances: 27.89
Correctly Classified Instances: 72.11
Weighted Precision: 0.7514299711184268
Weighted AreaUnderROC: 0.963901374289152
Root mean squared error: 0.18646810268290154
Relative absolute error: 96.32108800000114
Root relative squared error: 96.96341339511557
Weighted TruePositiveRate: 0.7211
Weighted MatthewsCorrelation: 0.7215603842411304
Weighted FMeasure: 0.7283120625393917
Iteration time: 2693.0
Weighted AreaUnderPRC: 0.6471949272692895
Mean absolute error: 0.07124340828401457
Coverage of cases: 99.76
Instances selection time: 239.0
Test time: 435.0
Accumulative iteration time: 26267.0
Weighted Recall: 0.7211
Weighted FalsePositiveRate: 0.011059751089893438
Kappa statistic: 0.7099515800093886
Training time: 2454.0
		
Iteration: 10
Labeled set size: 2180
Unlabelled set size: 7820
	
Mean region size: 78.69153846153564
Incorrectly Classified Instances: 27.84
Correctly Classified Instances: 72.16
Weighted Precision: 0.7522824711560007
Weighted AreaUnderROC: 0.9641164433676875
Root mean squared error: 0.1864670962125997
Relative absolute error: 96.3207680000012
Root relative squared error: 96.96289003055861
Weighted TruePositiveRate: 0.7216
Weighted MatthewsCorrelation: 0.7222641039134986
Weighted FMeasure: 0.7290006177852173
Iteration time: 2680.0
Weighted AreaUnderPRC: 0.6484034215898814
Mean absolute error: 0.07124317159762408
Coverage of cases: 99.81
Instances selection time: 240.0
Test time: 432.0
Accumulative iteration time: 28947.0
Weighted Recall: 0.7216
Weighted FalsePositiveRate: 0.01103740630371225
Kappa statistic: 0.7104725901624389
Training time: 2440.0
		
Iteration: 11
Labeled set size: 2200
Unlabelled set size: 7800
	
Mean region size: 78.72346153845879
Incorrectly Classified Instances: 27.86
Correctly Classified Instances: 72.14
Weighted Precision: 0.7530680003189497
Weighted AreaUnderROC: 0.9641665422630704
Root mean squared error: 0.18646784979652098
Relative absolute error: 96.3213760000012
Root relative squared error: 96.96328189419766
Weighted TruePositiveRate: 0.7214
Weighted MatthewsCorrelation: 0.7224193205052823
Weighted FMeasure: 0.7290086644996926
Iteration time: 2768.0
Weighted AreaUnderPRC: 0.6485192193018405
Mean absolute error: 0.07124362130176609
Coverage of cases: 99.8
Instances selection time: 238.0
Test time: 433.0
Accumulative iteration time: 31715.0
Weighted Recall: 0.7214
Weighted FalsePositiveRate: 0.011041025228795208
Kappa statistic: 0.7102660577081792
Training time: 2530.0
		
Iteration: 12
Labeled set size: 2220
Unlabelled set size: 7780
	
Mean region size: 78.69384615384347
Incorrectly Classified Instances: 27.77
Correctly Classified Instances: 72.23
Weighted Precision: 0.7536501443484943
Weighted AreaUnderROC: 0.964362988167144
Root mean squared error: 0.18646127931710108
Relative absolute error: 96.31836800000129
Root relative squared error: 96.95986524489933
Weighted TruePositiveRate: 0.7223
Weighted MatthewsCorrelation: 0.7232002843101248
Weighted FMeasure: 0.7297563852806063
Iteration time: 2865.0
Weighted AreaUnderPRC: 0.6497129710596613
Mean absolute error: 0.07124139644969515
Coverage of cases: 99.78
Instances selection time: 243.0
Test time: 427.0
Accumulative iteration time: 34580.0
Weighted Recall: 0.7223
Weighted FalsePositiveRate: 0.011007917371706593
Kappa statistic: 0.7112021243293678
Training time: 2622.0
		
Iteration: 13
Labeled set size: 2240
Unlabelled set size: 7760
	
Mean region size: 78.68038461538183
Incorrectly Classified Instances: 27.67
Correctly Classified Instances: 72.33
Weighted Precision: 0.7548038179470128
Weighted AreaUnderROC: 0.9643338294021815
Root mean squared error: 0.1864620481567817
Relative absolute error: 96.31862400000131
Root relative squared error: 96.96026504153323
Weighted TruePositiveRate: 0.7233
Weighted MatthewsCorrelation: 0.7242444404485758
Weighted FMeasure: 0.7306844253912436
Iteration time: 2969.0
Weighted AreaUnderPRC: 0.6504795188294272
Mean absolute error: 0.07124158579880759
Coverage of cases: 99.78
Instances selection time: 241.0
Test time: 430.0
Accumulative iteration time: 37549.0
Weighted Recall: 0.7233
Weighted FalsePositiveRate: 0.01097062992819303
Kappa statistic: 0.7122418275171067
Training time: 2728.0
		
Iteration: 14
Labeled set size: 2260
Unlabelled set size: 7740
	
Mean region size: 78.68846153845877
Incorrectly Classified Instances: 27.68
Correctly Classified Instances: 72.32
Weighted Precision: 0.7548955172142698
Weighted AreaUnderROC: 0.9645303092193626
Root mean squared error: 0.18646039740311335
Relative absolute error: 96.31776000000131
Root relative squared error: 96.9594066496257
Weighted TruePositiveRate: 0.7232
Weighted MatthewsCorrelation: 0.7242788785711974
Weighted FMeasure: 0.7307607492915628
Iteration time: 2921.0
Weighted AreaUnderPRC: 0.6509788691631825
Mean absolute error: 0.07124094674555316
Coverage of cases: 99.76
Instances selection time: 236.0
Test time: 430.0
Accumulative iteration time: 40470.0
Weighted Recall: 0.7232
Weighted FalsePositiveRate: 0.010969179479047984
Kappa statistic: 0.7121388968093446
Training time: 2685.0
		
Iteration: 15
Labeled set size: 2280
Unlabelled set size: 7720
	
Mean region size: 78.67538461538187
Incorrectly Classified Instances: 27.7
Correctly Classified Instances: 72.3
Weighted Precision: 0.7545032490245929
Weighted AreaUnderROC: 0.9646773252994235
Root mean squared error: 0.1864562863712444
Relative absolute error: 96.31580800000123
Root relative squared error: 96.95726891305385
Weighted TruePositiveRate: 0.723
Weighted MatthewsCorrelation: 0.72393775886999
Weighted FMeasure: 0.7303866193213125
Iteration time: 2945.0
Weighted AreaUnderPRC: 0.6506738413186004
Mean absolute error: 0.07123950295857084
Coverage of cases: 99.78
Instances selection time: 234.0
Test time: 434.0
Accumulative iteration time: 43415.0
Weighted Recall: 0.723
Weighted FalsePositiveRate: 0.01097934354737309
Kappa statistic: 0.711930943628224
Training time: 2711.0
		
Iteration: 16
Labeled set size: 2300
Unlabelled set size: 7700
	
Mean region size: 78.6776923076896
Incorrectly Classified Instances: 27.99
Correctly Classified Instances: 72.01
Weighted Precision: 0.7532285231110614
Weighted AreaUnderROC: 0.9646767451054684
Root mean squared error: 0.18645726770745255
Relative absolute error: 96.31632000000137
Root relative squared error: 96.9577792078821
Weighted TruePositiveRate: 0.7201
Weighted MatthewsCorrelation: 0.7215978528280779
Weighted FMeasure: 0.7279766810012401
Iteration time: 3019.0
Weighted AreaUnderPRC: 0.6492593548647917
Mean absolute error: 0.0712398816567958
Coverage of cases: 99.79
Instances selection time: 239.0
Test time: 432.0
Accumulative iteration time: 46434.0
Weighted Recall: 0.7201
Weighted FalsePositiveRate: 0.011081444751498727
Kappa statistic: 0.7089193597432251
Training time: 2780.0
		
Iteration: 17
Labeled set size: 2320
Unlabelled set size: 7680
	
Mean region size: 78.66692307692024
Incorrectly Classified Instances: 28.05
Correctly Classified Instances: 71.95
Weighted Precision: 0.7538457941996181
Weighted AreaUnderROC: 0.9647071409949527
Root mean squared error: 0.18645725559945503
Relative absolute error: 96.3163200000013
Root relative squared error: 96.95777291172338
Weighted TruePositiveRate: 0.7195
Weighted MatthewsCorrelation: 0.7213147234450614
Weighted FMeasure: 0.7273981603058346
Iteration time: 2854.0
Weighted AreaUnderPRC: 0.6493553592008172
Mean absolute error: 0.07123988165679575
Coverage of cases: 99.78
Instances selection time: 235.0
Test time: 430.0
Accumulative iteration time: 49288.0
Weighted Recall: 0.7195
Weighted FalsePositiveRate: 0.011103862561800163
Kappa statistic: 0.7082968457404772
Training time: 2619.0
		
Iteration: 18
Labeled set size: 2340
Unlabelled set size: 7660
	
Mean region size: 78.76153846153592
Incorrectly Classified Instances: 27.93
Correctly Classified Instances: 72.07
Weighted Precision: 0.7531710721354881
Weighted AreaUnderROC: 0.9649216517021861
Root mean squared error: 0.18644759707289224
Relative absolute error: 96.31225600000124
Root relative squared error: 96.95275047791074
Weighted TruePositiveRate: 0.7207
Weighted MatthewsCorrelation: 0.7217999462817151
Weighted FMeasure: 0.7280535090049831
Iteration time: 2879.0
Weighted AreaUnderPRC: 0.6486019447135823
Mean absolute error: 0.07123687573963594
Coverage of cases: 99.77
Instances selection time: 247.0
Test time: 429.0
Accumulative iteration time: 52167.0
Weighted Recall: 0.7207
Weighted FalsePositiveRate: 0.0110605368107623
Kappa statistic: 0.7095431214174645
Training time: 2632.0
		
Iteration: 19
Labeled set size: 2360
Unlabelled set size: 7640
	
Mean region size: 78.76153846153588
Incorrectly Classified Instances: 28.1
Correctly Classified Instances: 71.9
Weighted Precision: 0.7520531394805383
Weighted AreaUnderROC: 0.9648666498431218
Root mean squared error: 0.18644913915849748
Relative absolute error: 96.31315200000127
Root relative squared error: 96.95355236242546
Weighted TruePositiveRate: 0.719
Weighted MatthewsCorrelation: 0.720280936840171
Weighted FMeasure: 0.7265332729473346
Iteration time: 2844.0
Weighted AreaUnderPRC: 0.6483418488931572
Mean absolute error: 0.07123753846152946
Coverage of cases: 99.77
Instances selection time: 234.0
Test time: 627.0
Accumulative iteration time: 55011.0
Weighted Recall: 0.719
Weighted FalsePositiveRate: 0.0111223815735087
Kappa statistic: 0.707777304259151
Training time: 2610.0
		
Iteration: 20
Labeled set size: 2380
Unlabelled set size: 7620
	
Mean region size: 78.75038461538198
Incorrectly Classified Instances: 27.98
Correctly Classified Instances: 72.02
Weighted Precision: 0.7531267986134148
Weighted AreaUnderROC: 0.964762919227408
Root mean squared error: 0.18645126458308983
Relative absolute error: 96.31430400000131
Root relative squared error: 96.95465758321347
Weighted TruePositiveRate: 0.7202
Weighted MatthewsCorrelation: 0.7214778450509365
Weighted FMeasure: 0.7277025126761967
Iteration time: 3132.0
Weighted AreaUnderPRC: 0.6492150459158729
Mean absolute error: 0.0712383905325354
Coverage of cases: 99.77
Instances selection time: 232.0
Test time: 430.0
Accumulative iteration time: 58143.0
Weighted Recall: 0.7202
Weighted FalsePositiveRate: 0.011077288767028098
Kappa statistic: 0.7090238172325142
Training time: 2900.0
		
Iteration: 21
Labeled set size: 2400
Unlabelled set size: 7600
	
Mean region size: 78.78115384615133
Incorrectly Classified Instances: 27.87
Correctly Classified Instances: 72.13
Weighted Precision: 0.7550634007585612
Weighted AreaUnderROC: 0.9649427285692694
Root mean squared error: 0.186448994246741
Relative absolute error: 96.31347200000151
Root relative squared error: 96.95347700831209
Weighted TruePositiveRate: 0.7213
Weighted MatthewsCorrelation: 0.7231311625592616
Weighted FMeasure: 0.7293974890774664
Iteration time: 2875.0
Weighted AreaUnderPRC: 0.6515375228532573
Mean absolute error: 0.07123777514792017
Coverage of cases: 99.77
Instances selection time: 232.0
Test time: 434.0
Accumulative iteration time: 61018.0
Weighted Recall: 0.7213
Weighted FalsePositiveRate: 0.011027208803881338
Kappa statistic: 0.7101692409884629
Training time: 2643.0
		
Iteration: 22
Labeled set size: 2420
Unlabelled set size: 7580
	
Mean region size: 78.79192307692063
Incorrectly Classified Instances: 27.96
Correctly Classified Instances: 72.04
Weighted Precision: 0.7549705872888604
Weighted AreaUnderROC: 0.9648788158212274
Root mean squared error: 0.18645065623330903
Relative absolute error: 96.31424000000142
Root relative squared error: 96.95434124132747
Weighted TruePositiveRate: 0.7204
Weighted MatthewsCorrelation: 0.7224726735497152
Weighted FMeasure: 0.7286162240467154
Iteration time: 2807.0
Weighted AreaUnderPRC: 0.6513815241598728
Mean absolute error: 0.07123834319525738
Coverage of cases: 99.78
Instances selection time: 230.0
Test time: 641.0
Accumulative iteration time: 63825.0
Weighted Recall: 0.7204
Weighted FalsePositiveRate: 0.011061002343818082
Kappa statistic: 0.7092341705382148
Training time: 2577.0
		
Iteration: 23
Labeled set size: 2440
Unlabelled set size: 7560
	
Mean region size: 78.80115384615141
Incorrectly Classified Instances: 27.92
Correctly Classified Instances: 72.08
Weighted Precision: 0.7548881573107672
Weighted AreaUnderROC: 0.9650266739244602
Root mean squared error: 0.1864465326826575
Relative absolute error: 96.31254400000137
Root relative squared error: 96.95219699498868
Weighted TruePositiveRate: 0.7208
Weighted MatthewsCorrelation: 0.7226159583888738
Weighted FMeasure: 0.7287139256762585
Iteration time: 2833.0
Weighted AreaUnderPRC: 0.651657727118093
Mean absolute error: 0.07123708875738752
Coverage of cases: 99.76
Instances selection time: 229.0
Test time: 430.0
Accumulative iteration time: 66658.0
Weighted Recall: 0.7208
Weighted FalsePositiveRate: 0.011049205482376673
Kappa statistic: 0.7096489307192712
Training time: 2604.0
		
Iteration: 24
Labeled set size: 2460
Unlabelled set size: 7540
	
Mean region size: 78.8311538461516
Incorrectly Classified Instances: 28.03
Correctly Classified Instances: 71.97
Weighted Precision: 0.7525671164614636
Weighted AreaUnderROC: 0.9650053219557251
Root mean squared error: 0.18644446989661426
Relative absolute error: 96.31164800000163
Root relative squared error: 96.95112434624617
Weighted TruePositiveRate: 0.7197
Weighted MatthewsCorrelation: 0.7209925053970148
Weighted FMeasure: 0.7272750187590696
Iteration time: 2977.0
Weighted AreaUnderPRC: 0.6500261005584009
Mean absolute error: 0.07123642603549422
Coverage of cases: 99.82
Instances selection time: 234.0
Test time: 431.0
Accumulative iteration time: 69635.0
Weighted Recall: 0.7197
Weighted FalsePositiveRate: 0.011093254409700649
Kappa statistic: 0.7085054551597363
Training time: 2743.0
		
Iteration: 25
Labeled set size: 2480
Unlabelled set size: 7520
	
Mean region size: 78.84115384615156
Incorrectly Classified Instances: 27.94
Correctly Classified Instances: 72.06
Weighted Precision: 0.7532283634582858
Weighted AreaUnderROC: 0.9649768850966327
Root mean squared error: 0.1864410153331404
Relative absolute error: 96.31014400000166
Root relative squared error: 96.94932797323978
Weighted TruePositiveRate: 0.7206
Weighted MatthewsCorrelation: 0.7218173390925868
Weighted FMeasure: 0.728071861127324
Iteration time: 3065.0
Weighted AreaUnderPRC: 0.650595762122458
Mean absolute error: 0.07123531360945874
Coverage of cases: 99.84
Instances selection time: 231.0
Test time: 431.0
Accumulative iteration time: 72700.0
Weighted Recall: 0.7206
Weighted FalsePositiveRate: 0.011059615069724346
Kappa statistic: 0.7094404080163832
Training time: 2834.0
		
Iteration: 26
Labeled set size: 2500
Unlabelled set size: 7500
	
Mean region size: 78.82692307692066
Incorrectly Classified Instances: 28.0
Correctly Classified Instances: 72.0
Weighted Precision: 0.753441444648835
Weighted AreaUnderROC: 0.9651104716887062
Root mean squared error: 0.18644034777160282
Relative absolute error: 96.30972800000173
Root relative squared error: 96.94898084124023
Weighted TruePositiveRate: 0.72
Weighted MatthewsCorrelation: 0.7215167182398192
Weighted FMeasure: 0.7276929930337548
Iteration time: 2877.0
Weighted AreaUnderPRC: 0.650628240309859
Mean absolute error: 0.0712350059171511
Coverage of cases: 99.84
Instances selection time: 231.0
Test time: 435.0
Accumulative iteration time: 75577.0
Weighted Recall: 0.72
Weighted FalsePositiveRate: 0.011082163431838503
Kappa statistic: 0.7088170821876368
Training time: 2646.0
		
Iteration: 27
Labeled set size: 2520
Unlabelled set size: 7480
	
Mean region size: 78.86153846153623
Incorrectly Classified Instances: 27.96
Correctly Classified Instances: 72.04
Weighted Precision: 0.7551675086677251
Weighted AreaUnderROC: 0.965189784883738
Root mean squared error: 0.18643743492538367
Relative absolute error: 96.30873600000169
Root relative squared error: 96.94746616120626
Weighted TruePositiveRate: 0.7204
Weighted MatthewsCorrelation: 0.7224855787739689
Weighted FMeasure: 0.7284860483315214
Iteration time: 2945.0
Weighted AreaUnderPRC: 0.6516832843757607
Mean absolute error: 0.07123427218934042
Coverage of cases: 99.85
Instances selection time: 228.0
Test time: 433.0
Accumulative iteration time: 78522.0
Weighted Recall: 0.7204
Weighted FalsePositiveRate: 0.01105710697764213
Kappa statistic: 0.709235304449667
Training time: 2717.0
		
Iteration: 28
Labeled set size: 2540
Unlabelled set size: 7460
	
Mean region size: 78.87923076922863
Incorrectly Classified Instances: 27.85
Correctly Classified Instances: 72.15
Weighted Precision: 0.7559887274298989
Weighted AreaUnderROC: 0.9652636223682677
Root mean squared error: 0.18643695035804317
Relative absolute error: 96.30860800000185
Root relative squared error: 96.94721418618921
Weighted TruePositiveRate: 0.7215
Weighted MatthewsCorrelation: 0.7234826209432307
Weighted FMeasure: 0.7294322323399093
Iteration time: 2887.0
Weighted AreaUnderPRC: 0.6523006304744892
Mean absolute error: 0.07123417751478434
Coverage of cases: 99.87
Instances selection time: 229.0
Test time: 436.0
Accumulative iteration time: 81409.0
Weighted Recall: 0.7215
Weighted FalsePositiveRate: 0.011010684501477224
Kappa statistic: 0.7103811741482056
Training time: 2658.0
		
Iteration: 29
Labeled set size: 2560
Unlabelled set size: 7440
	
Mean region size: 78.87884615384397
Incorrectly Classified Instances: 27.92
Correctly Classified Instances: 72.08
Weighted Precision: 0.7547922154693733
Weighted AreaUnderROC: 0.9652603552953533
Root mean squared error: 0.18643620875859038
Relative absolute error: 96.30832000000183
Root relative squared error: 96.94682855447377
Weighted TruePositiveRate: 0.7208
Weighted MatthewsCorrelation: 0.7225830296417755
Weighted FMeasure: 0.7286523068307833
Iteration time: 2982.0
Weighted AreaUnderPRC: 0.6510919795891214
Mean absolute error: 0.07123396449703283
Coverage of cases: 99.87
Instances selection time: 227.0
Test time: 437.0
Accumulative iteration time: 84391.0
Weighted Recall: 0.7208
Weighted FalsePositiveRate: 0.011040648043251977
Kappa statistic: 0.7096525872575089
Training time: 2755.0
		
Iteration: 30
Labeled set size: 2580
Unlabelled set size: 7420
	
Mean region size: 78.88846153845948
Incorrectly Classified Instances: 27.92
Correctly Classified Instances: 72.08
Weighted Precision: 0.7552055176848128
Weighted AreaUnderROC: 0.9654369537755992
Root mean squared error: 0.18643379175280467
Relative absolute error: 96.3072320000019
Root relative squared error: 96.94557171146519
Weighted TruePositiveRate: 0.7208
Weighted MatthewsCorrelation: 0.7226346505380965
Weighted FMeasure: 0.7285153261347472
Iteration time: 2997.0
Weighted AreaUnderPRC: 0.6510304654908063
Mean absolute error: 0.07123315976330508
Coverage of cases: 99.87
Instances selection time: 227.0
Test time: 431.0
Accumulative iteration time: 87388.0
Weighted Recall: 0.7208
Weighted FalsePositiveRate: 0.011037191416406767
Kappa statistic: 0.7096543354790037
Training time: 2770.0
		
Iteration: 31
Labeled set size: 2600
Unlabelled set size: 7400
	
Mean region size: 78.87692307692099
Incorrectly Classified Instances: 27.84
Correctly Classified Instances: 72.16
Weighted Precision: 0.7562354689515501
Weighted AreaUnderROC: 0.9653977947959537
Root mean squared error: 0.18643492652871624
Relative absolute error: 96.30771200000193
Root relative squared error: 96.94616179493921
Weighted TruePositiveRate: 0.7216
Weighted MatthewsCorrelation: 0.7237138119147953
Weighted FMeasure: 0.7297125555826788
Iteration time: 2968.0
Weighted AreaUnderPRC: 0.6519148057415171
Mean absolute error: 0.07123351479289089
Coverage of cases: 99.86
Instances selection time: 226.0
Test time: 435.0
Accumulative iteration time: 90356.0
Weighted Recall: 0.7216
Weighted FalsePositiveRate: 0.01100278897362331
Kappa statistic: 0.7104868314716912
Training time: 2742.0
		
Iteration: 32
Labeled set size: 2620
Unlabelled set size: 7380
	
Mean region size: 78.88999999999787
Incorrectly Classified Instances: 27.84
Correctly Classified Instances: 72.16
Weighted Precision: 0.7554575899907046
Weighted AreaUnderROC: 0.9655045865910333
Root mean squared error: 0.18643270306456894
Relative absolute error: 96.30675200000192
Root relative squared error: 96.94500559358262
Weighted TruePositiveRate: 0.7216
Weighted MatthewsCorrelation: 0.7234470187295193
Weighted FMeasure: 0.729589783975128
Iteration time: 2995.0
Weighted AreaUnderPRC: 0.6511193741009628
Mean absolute error: 0.07123280473371929
Coverage of cases: 99.88
Instances selection time: 225.0
Test time: 433.0
Accumulative iteration time: 93351.0
Weighted Recall: 0.7216
Weighted FalsePositiveRate: 0.011002865861883633
Kappa statistic: 0.7104863648125128
Training time: 2770.0
		
Iteration: 33
Labeled set size: 2640
Unlabelled set size: 7360
	
Mean region size: 78.89192307692097
Incorrectly Classified Instances: 27.89
Correctly Classified Instances: 72.11
Weighted Precision: 0.7544013959155997
Weighted AreaUnderROC: 0.9653918061679547
Root mean squared error: 0.18643391929336833
Relative absolute error: 96.30732800000206
Root relative squared error: 96.94563803255829
Weighted TruePositiveRate: 0.7211
Weighted MatthewsCorrelation: 0.722709883019147
Weighted FMeasure: 0.7289563128126402
Iteration time: 3107.0
Weighted AreaUnderPRC: 0.6510800105583827
Mean absolute error: 0.07123323076922235
Coverage of cases: 99.87
Instances selection time: 225.0
Test time: 436.0
Accumulative iteration time: 96458.0
Weighted Recall: 0.7211
Weighted FalsePositiveRate: 0.011022460865028104
Kappa statistic: 0.709967602372467
Training time: 2882.0
		
Iteration: 34
Labeled set size: 2660
Unlabelled set size: 7340
	
Mean region size: 78.91769230769026
Incorrectly Classified Instances: 27.86
Correctly Classified Instances: 72.14
Weighted Precision: 0.7543278636322303
Weighted AreaUnderROC: 0.9653214542094616
Root mean squared error: 0.1864335661639991
Relative absolute error: 96.30745600000206
Root relative squared error: 96.9454544052863
Weighted TruePositiveRate: 0.7214
Weighted MatthewsCorrelation: 0.722809784080001
Weighted FMeasure: 0.7290128976501483
Iteration time: 3088.0
Weighted AreaUnderPRC: 0.6497700818664531
Mean absolute error: 0.07123332544377857
Coverage of cases: 99.87
Instances selection time: 227.0
Test time: 439.0
Accumulative iteration time: 99546.0
Weighted Recall: 0.7214
Weighted FalsePositiveRate: 0.011013195552407278
Kappa statistic: 0.7102788207578465
Training time: 2861.0
		
Iteration: 35
Labeled set size: 2680
Unlabelled set size: 7320
	
Mean region size: 78.91615384615184
Incorrectly Classified Instances: 27.88
Correctly Classified Instances: 72.12
Weighted Precision: 0.7540075759174453
Weighted AreaUnderROC: 0.9653003731413362
Root mean squared error: 0.18643268118917472
Relative absolute error: 96.30710400000207
Root relative squared error: 96.94499421837762
Weighted TruePositiveRate: 0.7212
Weighted MatthewsCorrelation: 0.7226193566488929
Weighted FMeasure: 0.7289216982524701
Iteration time: 3113.0
Weighted AreaUnderPRC: 0.6498640136134907
Mean absolute error: 0.07123306508874899
Coverage of cases: 99.87
Instances selection time: 224.0
Test time: 434.0
Accumulative iteration time: 102659.0
Weighted Recall: 0.7212
Weighted FalsePositiveRate: 0.011022294470624968
Kappa statistic: 0.7100707497045253
Training time: 2889.0
		
Iteration: 36
Labeled set size: 2700
Unlabelled set size: 7300
	
Mean region size: 78.9346153846136
Incorrectly Classified Instances: 27.82
Correctly Classified Instances: 72.18
Weighted Precision: 0.7541775207840239
Weighted AreaUnderROC: 0.9654397708852878
Root mean squared error: 0.18642811249597518
Relative absolute error: 96.3052480000022
Root relative squared error: 96.94261849791386
Weighted TruePositiveRate: 0.7218
Weighted MatthewsCorrelation: 0.7231212189610311
Weighted FMeasure: 0.7295144775070835
Iteration time: 2937.0
Weighted AreaUnderPRC: 0.650052388774159
Mean absolute error: 0.07123169230768399
Coverage of cases: 99.89
Instances selection time: 223.0
Test time: 434.0
Accumulative iteration time: 105596.0
Weighted Recall: 0.7218
Weighted FalsePositiveRate: 0.010999514772955557
Kappa statistic: 0.7106944961645338
Training time: 2714.0
		
Iteration: 37
Labeled set size: 2720
Unlabelled set size: 7280
	
Mean region size: 78.92499999999824
Incorrectly Classified Instances: 27.8
Correctly Classified Instances: 72.2
Weighted Precision: 0.7541698452090468
Weighted AreaUnderROC: 0.9654534180720958
Root mean squared error: 0.1864282062499428
Relative absolute error: 96.30518400000223
Root relative squared error: 96.94266724997702
Weighted TruePositiveRate: 0.722
Weighted MatthewsCorrelation: 0.7232756126555235
Weighted FMeasure: 0.7297210223893066
Iteration time: 2942.0
Weighted AreaUnderPRC: 0.6501236604967823
Mean absolute error: 0.0712316449704059
Coverage of cases: 99.89
Instances selection time: 222.0
Test time: 431.0
Accumulative iteration time: 108538.0
Weighted Recall: 0.722
Weighted FalsePositiveRate: 0.0109912452290659
Kappa statistic: 0.7109026242980666
Training time: 2720.0
		
Iteration: 38
Labeled set size: 2740
Unlabelled set size: 7260
	
Mean region size: 78.94461538461363
Incorrectly Classified Instances: 27.82
Correctly Classified Instances: 72.18
Weighted Precision: 0.7537483102350098
Weighted AreaUnderROC: 0.9653512265883876
Root mean squared error: 0.18642906878423204
Relative absolute error: 96.30601600000215
Root relative squared error: 96.94311576780743
Weighted TruePositiveRate: 0.7218
Weighted MatthewsCorrelation: 0.7229633673411525
Weighted FMeasure: 0.7294226886865871
Iteration time: 2987.0
Weighted AreaUnderPRC: 0.649397232759793
Mean absolute error: 0.07123226035502123
Coverage of cases: 99.89
Instances selection time: 222.0
Test time: 438.0
Accumulative iteration time: 111525.0
Weighted Recall: 0.7218
Weighted FalsePositiveRate: 0.010997956420609058
Kappa statistic: 0.7106950136330555
Training time: 2765.0
		
Iteration: 39
Labeled set size: 2760
Unlabelled set size: 7240
	
Mean region size: 78.96999999999842
Incorrectly Classified Instances: 27.87
Correctly Classified Instances: 72.13
Weighted Precision: 0.7520819503430957
Weighted AreaUnderROC: 0.965461455180094
Root mean squared error: 0.18642700404705562
Relative absolute error: 96.30540800000226
Root relative squared error: 96.94204210447569
Weighted TruePositiveRate: 0.7213
Weighted MatthewsCorrelation: 0.7219816504025353
Weighted FMeasure: 0.7286073844798812
Iteration time: 3085.0
Weighted AreaUnderPRC: 0.6485287898034026
Mean absolute error: 0.0712318106508793
Coverage of cases: 99.89
Instances selection time: 224.0
Test time: 435.0
Accumulative iteration time: 114610.0
Weighted Recall: 0.7213
Weighted FalsePositiveRate: 0.011017242559424021
Kappa statistic: 0.7101755342103413
Training time: 2861.0
		
Iteration: 40
Labeled set size: 2780
Unlabelled set size: 7220
	
Mean region size: 78.97615384615227
Incorrectly Classified Instances: 27.68
Correctly Classified Instances: 72.32
Weighted Precision: 0.7534179015937682
Weighted AreaUnderROC: 0.9657119887151979
Root mean squared error: 0.1864228575107082
Relative absolute error: 96.30345600000231
Root relative squared error: 96.93988590557503
Weighted TruePositiveRate: 0.7232
Weighted MatthewsCorrelation: 0.7237697780167038
Weighted FMeasure: 0.7304352779912073
Iteration time: 3123.0
Weighted AreaUnderPRC: 0.6503307209638804
Mean absolute error: 0.0712303668638971
Coverage of cases: 99.88
Instances selection time: 222.0
Test time: 441.0
Accumulative iteration time: 117733.0
Weighted Recall: 0.7232
Weighted FalsePositiveRate: 0.010943646796101157
Kappa statistic: 0.7121505296326263
Training time: 2901.0
		
Iteration: 41
Labeled set size: 2800
Unlabelled set size: 7200
	
Mean region size: 78.98576923076769
Incorrectly Classified Instances: 27.42
Correctly Classified Instances: 72.58
Weighted Precision: 0.7549998137333583
Weighted AreaUnderROC: 0.9657476349759198
Root mean squared error: 0.18641958615678617
Relative absolute error: 96.30195200000217
Root relative squared error: 96.93818480153558
Weighted TruePositiveRate: 0.7258
Weighted MatthewsCorrelation: 0.7260394376242261
Weighted FMeasure: 0.7327071918328455
Iteration time: 3128.0
Weighted AreaUnderPRC: 0.6519886456154166
Mean absolute error: 0.07122925443786149
Coverage of cases: 99.88
Instances selection time: 222.0
Test time: 439.0
Accumulative iteration time: 120861.0
Weighted Recall: 0.7258
Weighted FalsePositiveRate: 0.010844403860007656
Kappa statistic: 0.7148528887367827
Training time: 2906.0
		
Iteration: 42
Labeled set size: 2820
Unlabelled set size: 7180
	
Mean region size: 79.00461538461383
Incorrectly Classified Instances: 27.42
Correctly Classified Instances: 72.58
Weighted Precision: 0.7553151958895011
Weighted AreaUnderROC: 0.9657648567926337
Root mean squared error: 0.18641966917191072
Relative absolute error: 96.30208000000223
Root relative squared error: 96.93822796940034
Weighted TruePositiveRate: 0.7258
Weighted MatthewsCorrelation: 0.7261900791251131
Weighted FMeasure: 0.7328471431152243
Iteration time: 3220.0
Weighted AreaUnderPRC: 0.6522184833663248
Mean absolute error: 0.07122934911241775
Coverage of cases: 99.88
Instances selection time: 220.0
Test time: 430.0
Accumulative iteration time: 124081.0
Weighted Recall: 0.7258
Weighted FalsePositiveRate: 0.010843701999266759
Kappa statistic: 0.714853410630868
Training time: 3000.0
		
Iteration: 43
Labeled set size: 2840
Unlabelled set size: 7160
	
Mean region size: 78.98538461538313
Incorrectly Classified Instances: 27.57
Correctly Classified Instances: 72.43
Weighted Precision: 0.7550036278537721
Weighted AreaUnderROC: 0.9658812013115358
Root mean squared error: 0.18641767484540078
Relative absolute error: 96.3010880000023
Root relative squared error: 96.93719091961518
Weighted TruePositiveRate: 0.7243
Weighted MatthewsCorrelation: 0.7250612997918487
Weighted FMeasure: 0.7315654288945413
Iteration time: 3187.0
Weighted AreaUnderPRC: 0.6517912097081305
Mean absolute error: 0.07122861538460715
Coverage of cases: 99.88
Instances selection time: 220.0
Test time: 429.0
Accumulative iteration time: 127268.0
Weighted Recall: 0.7243
Weighted FalsePositiveRate: 0.010898171519773313
Kappa statistic: 0.7132945563787537
Training time: 2967.0
		
Iteration: 44
Labeled set size: 2860
Unlabelled set size: 7140
	
Mean region size: 78.97076923076769
Incorrectly Classified Instances: 27.67
Correctly Classified Instances: 72.33
Weighted Precision: 0.7537168071507363
Weighted AreaUnderROC: 0.965889520784595
Root mean squared error: 0.18641676576921484
Relative absolute error: 96.30051200000224
Root relative squared error: 96.93671819999848
Weighted TruePositiveRate: 0.7233
Weighted MatthewsCorrelation: 0.7238755230891476
Weighted FMeasure: 0.7304183706111438
Iteration time: 3023.0
Weighted AreaUnderPRC: 0.651648410346696
Mean absolute error: 0.07122818934910415
Coverage of cases: 99.88
Instances selection time: 218.0
Test time: 431.0
Accumulative iteration time: 130291.0
Weighted Recall: 0.7233
Weighted FalsePositiveRate: 0.010938908405573313
Kappa statistic: 0.7122545185009894
Training time: 2805.0
		
Iteration: 45
Labeled set size: 2880
Unlabelled set size: 7120
	
Mean region size: 78.97499999999857
Incorrectly Classified Instances: 27.72
Correctly Classified Instances: 72.28
Weighted Precision: 0.7524732981555343
Weighted AreaUnderROC: 0.9660054308531587
Root mean squared error: 0.18641294365502123
Relative absolute error: 96.29897600000224
Root relative squared error: 96.9347307006178
Weighted TruePositiveRate: 0.7228
Weighted MatthewsCorrelation: 0.7230599514536314
Weighted FMeasure: 0.7297202743378286
Iteration time: 3036.0
Weighted AreaUnderPRC: 0.6511816398960907
Mean absolute error: 0.07122705325442959
Coverage of cases: 99.88
Instances selection time: 219.0
Test time: 436.0
Accumulative iteration time: 133327.0
Weighted Recall: 0.7228
Weighted FalsePositiveRate: 0.010962280364084509
Kappa statistic: 0.7117336868512708
Training time: 2817.0
		
Iteration: 46
Labeled set size: 2900
Unlabelled set size: 7100
	
Mean region size: 78.98692307692164
Incorrectly Classified Instances: 27.59
Correctly Classified Instances: 72.41
Weighted Precision: 0.7538771989598315
Weighted AreaUnderROC: 0.9659286520193349
Root mean squared error: 0.1864132583421932
Relative absolute error: 96.29923200000226
Root relative squared error: 96.93489433794723
Weighted TruePositiveRate: 0.7241
Weighted MatthewsCorrelation: 0.7243797636243464
Weighted FMeasure: 0.7308890521705879
Iteration time: 3186.0
Weighted AreaUnderPRC: 0.6519462572815493
Mean absolute error: 0.07122724260354203
Coverage of cases: 99.88
Instances selection time: 223.0
Test time: 417.0
Accumulative iteration time: 136513.0
Weighted Recall: 0.7241
Weighted FalsePositiveRate: 0.010911098817245212
Kappa statistic: 0.7130851644449936
Training time: 2963.0
		
Time end:Tue Oct 31 14.54.14 EET 2017