Wed Nov 01 02.52.21 EET 2017
Dataset: letter
Test set size: 10000
Initial Labelled set size: 2000
Initial Unlabelled set size: 8000
Batch mode: QBestBatchMode
Batch size: 20
Classifiers: NaiveBayes-1cores
Scenario: PoolBasedSamplingScenario
Query strategy: VoteEntropyQueryStrategy-1cores
Time begining: Wed Nov 01 02.52.21 EET 2017
		
Iteration: 1
Labeled set size: 2000
Unlabelled set size: 8000
	
Mean region size: 11.680384615384748
Incorrectly Classified Instances: 37.22
Correctly Classified Instances: 62.78
Weighted Precision: 0.6436441667907851
Weighted AreaUnderROC: 0.9506188011553272
Root mean squared error: 0.1425834144853093
Relative absolute error: 44.90294449870696
Root relative squared error: 74.14337553236602
Weighted TruePositiveRate: 0.6278
Weighted MatthewsCorrelation: 0.6170408732589406
Weighted FMeasure: 0.6272477124236364
Iteration time: 1521.0
Weighted AreaUnderPRC: 0.6692912336897204
Mean absolute error: 0.03321223705525199
Coverage of cases: 85.22
Instances selection time: 1511.0
Test time: 2150.0
Accumulative iteration time: 1521.0
Weighted Recall: 0.6278
Weighted FalsePositiveRate: 0.014865292117626897
Kappa statistic: 0.6128904404750357
Training time: 10.0
		
Iteration: 2
Labeled set size: 2020
Unlabelled set size: 7980
	
Mean region size: 11.72423076923088
Incorrectly Classified Instances: 37.06
Correctly Classified Instances: 62.94
Weighted Precision: 0.646073928947232
Weighted AreaUnderROC: 0.9512936834985402
Root mean squared error: 0.14235333617604828
Relative absolute error: 44.82646223779284
Root relative squared error: 74.02373481155027
Weighted TruePositiveRate: 0.6294
Weighted MatthewsCorrelation: 0.6188730021118675
Weighted FMeasure: 0.6287501393273834
Iteration time: 1374.0
Weighted AreaUnderPRC: 0.6705743994901608
Mean absolute error: 0.03315566733564096
Coverage of cases: 85.45
Instances selection time: 1367.0
Test time: 2034.0
Accumulative iteration time: 2895.0
Weighted Recall: 0.6294
Weighted FalsePositiveRate: 0.014805330778272705
Kappa statistic: 0.6145534467512762
Training time: 7.0
		
Iteration: 3
Labeled set size: 2040
Unlabelled set size: 7960
	
Mean region size: 11.719615384615487
Incorrectly Classified Instances: 37.03
Correctly Classified Instances: 62.97
Weighted Precision: 0.6476280024945434
Weighted AreaUnderROC: 0.9513478290150003
Root mean squared error: 0.1424362512152011
Relative absolute error: 44.86047086779606
Root relative squared error: 74.06685063190974
Weighted TruePositiveRate: 0.6297
Weighted MatthewsCorrelation: 0.6197599231493596
Weighted FMeasure: 0.6295490483165039
Iteration time: 1372.0
Weighted AreaUnderPRC: 0.6707306471580533
Mean absolute error: 0.03318082164777352
Coverage of cases: 85.44
Instances selection time: 1365.0
Test time: 2073.0
Accumulative iteration time: 4267.0
Weighted Recall: 0.6297
Weighted FalsePositiveRate: 0.01478785528857087
Kappa statistic: 0.6148676841162842
Training time: 7.0
		
Iteration: 4
Labeled set size: 2060
Unlabelled set size: 7940
	
Mean region size: 11.73153846153856
Incorrectly Classified Instances: 36.94
Correctly Classified Instances: 63.06
Weighted Precision: 0.6499162028978827
Weighted AreaUnderROC: 0.9511595430172539
Root mean squared error: 0.14245726700305245
Relative absolute error: 44.87618117111106
Root relative squared error: 74.07777884159245
Weighted TruePositiveRate: 0.6306
Weighted MatthewsCorrelation: 0.6212953426537609
Weighted FMeasure: 0.6309162033756315
Iteration time: 1400.0
Weighted AreaUnderPRC: 0.6714462231800853
Mean absolute error: 0.033192441694604134
Coverage of cases: 85.42
Instances selection time: 1393.0
Test time: 2090.0
Accumulative iteration time: 5667.0
Weighted Recall: 0.6306
Weighted FalsePositiveRate: 0.014745805923906454
Kappa statistic: 0.6158065305692677
Training time: 7.0
		
Iteration: 5
Labeled set size: 2080
Unlabelled set size: 7920
	
Mean region size: 11.751923076923166
Incorrectly Classified Instances: 37.07
Correctly Classified Instances: 62.93
Weighted Precision: 0.6509744216523649
Weighted AreaUnderROC: 0.9509495610283785
Root mean squared error: 0.14256459763746002
Relative absolute error: 44.91905993228474
Root relative squared error: 74.13359077148438
Weighted TruePositiveRate: 0.6293
Weighted MatthewsCorrelation: 0.6209966194997903
Weighted FMeasure: 0.6304861497217816
Iteration time: 1442.0
Weighted AreaUnderPRC: 0.6729640248010532
Mean absolute error: 0.03322415675464384
Coverage of cases: 85.41
Instances selection time: 1434.0
Test time: 2096.0
Accumulative iteration time: 7109.0
Weighted Recall: 0.6293
Weighted FalsePositiveRate: 0.014790801363857946
Kappa statistic: 0.6144571155771867
Training time: 8.0
		
Iteration: 6
Labeled set size: 2100
Unlabelled set size: 7900
	
Mean region size: 11.735384615384723
Incorrectly Classified Instances: 37.15
Correctly Classified Instances: 62.85
Weighted Precision: 0.653383502534432
Weighted AreaUnderROC: 0.9505719355322051
Root mean squared error: 0.14283347348824885
Relative absolute error: 45.023129199738065
Root relative squared error: 74.27340621389459
Weighted TruePositiveRate: 0.6285
Weighted MatthewsCorrelation: 0.6216606255232767
Weighted FMeasure: 0.6310004049426127
Iteration time: 1437.0
Weighted AreaUnderPRC: 0.6735143450118863
Mean absolute error: 0.03330113106489037
Coverage of cases: 85.24
Instances selection time: 1430.0
Test time: 2097.0
Accumulative iteration time: 8546.0
Weighted Recall: 0.6285
Weighted FalsePositiveRate: 0.014813019262231768
Kappa statistic: 0.6136289692616209
Training time: 7.0
		
Iteration: 7
Labeled set size: 2120
Unlabelled set size: 7880
	
Mean region size: 11.700769230769351
Incorrectly Classified Instances: 37.17
Correctly Classified Instances: 62.83
Weighted Precision: 0.6554146155177346
Weighted AreaUnderROC: 0.9503553880541357
Root mean squared error: 0.1430215862955449
Relative absolute error: 45.07820250242362
Root relative squared error: 74.37122487368855
Weighted TruePositiveRate: 0.6283
Weighted MatthewsCorrelation: 0.6224200917561263
Weighted FMeasure: 0.6315576232834603
Iteration time: 1433.0
Weighted AreaUnderPRC: 0.6736564850181186
Mean absolute error: 0.03334186575622584
Coverage of cases: 85.11
Instances selection time: 1425.0
Test time: 2109.0
Accumulative iteration time: 9979.0
Weighted Recall: 0.6283
Weighted FalsePositiveRate: 0.014813835650503617
Kappa statistic: 0.6134242520942301
Training time: 8.0
		
Iteration: 8
Labeled set size: 2140
Unlabelled set size: 7860
	
Mean region size: 11.723076923077036
Incorrectly Classified Instances: 37.12
Correctly Classified Instances: 62.88
Weighted Precision: 0.6563857350313388
Weighted AreaUnderROC: 0.9504848234837217
Root mean squared error: 0.1430483963461859
Relative absolute error: 45.12016987669669
Root relative squared error: 74.38516610002186
Weighted TruePositiveRate: 0.6288
Weighted MatthewsCorrelation: 0.62314152472642
Weighted FMeasure: 0.6322157553654415
Iteration time: 1432.0
Weighted AreaUnderPRC: 0.6738969174936731
Mean absolute error: 0.0333729067135284
Coverage of cases: 85.12
Instances selection time: 1425.0
Test time: 2108.0
Accumulative iteration time: 11411.0
Weighted Recall: 0.6288
Weighted FalsePositiveRate: 0.01479315430665461
Kappa statistic: 0.6139448446993296
Training time: 7.0
		
Iteration: 9
Labeled set size: 2160
Unlabelled set size: 7840
	
Mean region size: 11.731538461538577
Incorrectly Classified Instances: 37.08
Correctly Classified Instances: 62.92
Weighted Precision: 0.6565196191461157
Weighted AreaUnderROC: 0.9507818601626841
Root mean squared error: 0.142963520608251
Relative absolute error: 45.12209598894028
Root relative squared error: 74.3410307162957
Weighted TruePositiveRate: 0.6292
Weighted MatthewsCorrelation: 0.6233955753008902
Weighted FMeasure: 0.6324233712075255
Iteration time: 1443.0
Weighted AreaUnderPRC: 0.673458642971872
Mean absolute error: 0.03337433135276182
Coverage of cases: 85.19
Instances selection time: 1436.0
Test time: 2133.0
Accumulative iteration time: 12854.0
Weighted Recall: 0.6292
Weighted FalsePositiveRate: 0.01477641202286718
Kappa statistic: 0.6143610328921646
Training time: 7.0
		
Iteration: 10
Labeled set size: 2180
Unlabelled set size: 7820
	
Mean region size: 11.713846153846264
Incorrectly Classified Instances: 37.01
Correctly Classified Instances: 62.99
Weighted Precision: 0.6584176009847567
Weighted AreaUnderROC: 0.9507783184669187
Root mean squared error: 0.14304363977409967
Relative absolute error: 45.14467436040315
Root relative squared error: 74.38269268253701
Weighted TruePositiveRate: 0.6299
Weighted MatthewsCorrelation: 0.6245516547064128
Weighted FMeasure: 0.633334216974133
Iteration time: 1433.0
Weighted AreaUnderPRC: 0.6737406544806843
Mean absolute error: 0.033391031331654476
Coverage of cases: 85.1
Instances selection time: 1426.0
Test time: 2113.0
Accumulative iteration time: 14287.0
Weighted Recall: 0.6299
Weighted FalsePositiveRate: 0.014745386943995274
Kappa statistic: 0.6150909795546645
Training time: 7.0
		
Iteration: 11
Labeled set size: 2200
Unlabelled set size: 7800
	
Mean region size: 11.727692307692415
Incorrectly Classified Instances: 37.09
Correctly Classified Instances: 62.91
Weighted Precision: 0.6581056819183925
Weighted AreaUnderROC: 0.9509239290419973
Root mean squared error: 0.14304195390392005
Relative absolute error: 45.17159537481424
Root relative squared error: 74.38181603004362
Weighted TruePositiveRate: 0.6291
Weighted MatthewsCorrelation: 0.6238356885986284
Weighted FMeasure: 0.6324894268630322
Iteration time: 1430.0
Weighted AreaUnderPRC: 0.673852637955058
Mean absolute error: 0.033410943324562084
Coverage of cases: 85.12
Instances selection time: 1422.0
Test time: 2117.0
Accumulative iteration time: 15717.0
Weighted Recall: 0.6291
Weighted FalsePositiveRate: 0.014775701728974699
Kappa statistic: 0.6142596306416882
Training time: 8.0
		
Iteration: 12
Labeled set size: 2220
Unlabelled set size: 7780
	
Mean region size: 11.731153846153957
Incorrectly Classified Instances: 37.02
Correctly Classified Instances: 62.98
Weighted Precision: 0.6585410715356131
Weighted AreaUnderROC: 0.9511089265119983
Root mean squared error: 0.1430112646280927
Relative absolute error: 45.17651432523613
Root relative squared error: 74.36585760661339
Weighted TruePositiveRate: 0.6298
Weighted MatthewsCorrelation: 0.6243958819378623
Weighted FMeasure: 0.632983911969607
Iteration time: 1423.0
Weighted AreaUnderPRC: 0.6742758542357886
Mean absolute error: 0.03341458160150135
Coverage of cases: 85.13
Instances selection time: 1416.0
Test time: 2127.0
Accumulative iteration time: 17140.0
Weighted Recall: 0.6298
Weighted FalsePositiveRate: 0.014748083072919548
Kappa statistic: 0.6149875668128393
Training time: 7.0
		
Iteration: 13
Labeled set size: 2240
Unlabelled set size: 7760
	
Mean region size: 11.719615384615475
Incorrectly Classified Instances: 37.07
Correctly Classified Instances: 62.93
Weighted Precision: 0.6595554733618179
Weighted AreaUnderROC: 0.9511633775607939
Root mean squared error: 0.1430906276341973
Relative absolute error: 45.218983954691005
Root relative squared error: 74.40712636978779
Weighted TruePositiveRate: 0.6293
Weighted MatthewsCorrelation: 0.6245056951440865
Weighted FMeasure: 0.6329359867831363
Iteration time: 1423.0
Weighted AreaUnderPRC: 0.6743100623247824
Mean absolute error: 0.033445994049323
Coverage of cases: 85.06
Instances selection time: 1415.0
Test time: 2136.0
Accumulative iteration time: 18563.0
Weighted Recall: 0.6293
Weighted FalsePositiveRate: 0.014762361338418682
Kappa statistic: 0.614469838255277
Training time: 8.0
		
Iteration: 14
Labeled set size: 2260
Unlabelled set size: 7740
	
Mean region size: 11.729230769230853
Incorrectly Classified Instances: 37.08
Correctly Classified Instances: 62.92
Weighted Precision: 0.6598776490339315
Weighted AreaUnderROC: 0.9513602563570072
Root mean squared error: 0.14304592005607553
Relative absolute error: 45.22193671867583
Root relative squared error: 74.38387842916447
Weighted TruePositiveRate: 0.6292
Weighted MatthewsCorrelation: 0.6245323899707312
Weighted FMeasure: 0.6328756963817961
Iteration time: 1417.0
Weighted AreaUnderPRC: 0.6744677625761298
Mean absolute error: 0.033448178046353194
Coverage of cases: 85.16
Instances selection time: 1409.0
Test time: 2160.0
Accumulative iteration time: 19980.0
Weighted Recall: 0.6292
Weighted FalsePositiveRate: 0.014766353885192218
Kappa statistic: 0.6143658978313822
Training time: 8.0
		
Iteration: 15
Labeled set size: 2280
Unlabelled set size: 7720
	
Mean region size: 11.729615384615471
Incorrectly Classified Instances: 37.01
Correctly Classified Instances: 62.99
Weighted Precision: 0.661070106802823
Weighted AreaUnderROC: 0.9513407312447992
Root mean squared error: 0.14310101075702825
Relative absolute error: 45.236063637458535
Root relative squared error: 74.41252559365988
Weighted TruePositiveRate: 0.6299
Weighted MatthewsCorrelation: 0.6254767133828364
Weighted FMeasure: 0.6337452619328242
Iteration time: 1401.0
Weighted AreaUnderPRC: 0.6751949870293281
Mean absolute error: 0.033458626950778274
Coverage of cases: 85.06
Instances selection time: 1394.0
Test time: 2139.0
Accumulative iteration time: 21381.0
Weighted Recall: 0.6299
Weighted FalsePositiveRate: 0.014737070248627287
Kappa statistic: 0.6150946423618225
Training time: 7.0
		
Iteration: 16
Labeled set size: 2300
Unlabelled set size: 7700
	
Mean region size: 11.770769230769316
Incorrectly Classified Instances: 36.98
Correctly Classified Instances: 63.02
Weighted Precision: 0.6621540569891836
Weighted AreaUnderROC: 0.9515838636120969
Root mean squared error: 0.14281638239580088
Relative absolute error: 45.21122269276898
Root relative squared error: 74.26451884582164
Weighted TruePositiveRate: 0.6302
Weighted MatthewsCorrelation: 0.6262075390125619
Weighted FMeasure: 0.6344813822110237
Iteration time: 1398.0
Weighted AreaUnderPRC: 0.6765054185498677
Mean absolute error: 0.0334402534709783
Coverage of cases: 85.28
Instances selection time: 1390.0
Test time: 2132.0
Accumulative iteration time: 22779.0
Weighted Recall: 0.6302
Weighted FalsePositiveRate: 0.014721523005120628
Kappa statistic: 0.6154085593497912
Training time: 8.0
		
Iteration: 17
Labeled set size: 2320
Unlabelled set size: 7680
	
Mean region size: 11.80000000000007
Incorrectly Classified Instances: 36.98
Correctly Classified Instances: 63.02
Weighted Precision: 0.6622779045428404
Weighted AreaUnderROC: 0.9514863810587456
Root mean squared error: 0.14271470969325795
Relative absolute error: 45.3066629474629
Root relative squared error: 74.21164904049931
Weighted TruePositiveRate: 0.6302
Weighted MatthewsCorrelation: 0.6266923187937761
Weighted FMeasure: 0.6354657030844645
Iteration time: 1392.0
Weighted AreaUnderPRC: 0.67676513676706
Mean absolute error: 0.0335108453753377
Coverage of cases: 85.36
Instances selection time: 1383.0
Test time: 2125.0
Accumulative iteration time: 24171.0
Weighted Recall: 0.6302
Weighted FalsePositiveRate: 0.014706094169626783
Kappa statistic: 0.6154154467876207
Training time: 9.0
		
Iteration: 18
Labeled set size: 2340
Unlabelled set size: 7660
	
Mean region size: 11.778846153846223
Incorrectly Classified Instances: 37.35
Correctly Classified Instances: 62.65
Weighted Precision: 0.6594120361215327
Weighted AreaUnderROC: 0.9516062498164376
Root mean squared error: 0.14310082329486887
Relative absolute error: 45.487960390798804
Root relative squared error: 74.412428113337
Weighted TruePositiveRate: 0.6265
Weighted MatthewsCorrelation: 0.6233097592217332
Weighted FMeasure: 0.6322863190463778
Iteration time: 1380.0
Weighted AreaUnderPRC: 0.6749309304628371
Mean absolute error: 0.03364494111745004
Coverage of cases: 85.28
Instances selection time: 1372.0
Test time: 2155.0
Accumulative iteration time: 25551.0
Weighted Recall: 0.6265
Weighted FalsePositiveRate: 0.014846927082013005
Kappa statistic: 0.6115702682176456
Training time: 8.0
		
Iteration: 19
Labeled set size: 2360
Unlabelled set size: 7640
	
Mean region size: 11.84153846153852
Incorrectly Classified Instances: 37.38
Correctly Classified Instances: 62.62
Weighted Precision: 0.6599368993373264
Weighted AreaUnderROC: 0.9513878194774102
Root mean squared error: 0.14313538991358515
Relative absolute error: 45.5808925369032
Root relative squared error: 74.43040275506947
Weighted TruePositiveRate: 0.6262
Weighted MatthewsCorrelation: 0.6234505109401614
Weighted FMeasure: 0.6324915086354325
Iteration time: 1387.0
Weighted AreaUnderPRC: 0.6751009951607618
Mean absolute error: 0.033713677911905944
Coverage of cases: 85.35
Instances selection time: 1379.0
Test time: 2155.0
Accumulative iteration time: 26938.0
Weighted Recall: 0.6262
Weighted FalsePositiveRate: 0.01485189814499409
Kappa statistic: 0.6112612559911706
Training time: 8.0
		
Iteration: 20
Labeled set size: 2380
Unlabelled set size: 7620
	
Mean region size: 11.896538461538512
Incorrectly Classified Instances: 37.46
Correctly Classified Instances: 62.54
Weighted Precision: 0.6592051139766166
Weighted AreaUnderROC: 0.9516296964636647
Root mean squared error: 0.14313794226261012
Relative absolute error: 45.688634094310046
Root relative squared error: 74.43172997656245
Weighted TruePositiveRate: 0.6254
Weighted MatthewsCorrelation: 0.622644678579153
Weighted FMeasure: 0.6317057544219493
Iteration time: 1371.0
Weighted AreaUnderPRC: 0.6741085187143799
Mean absolute error: 0.0337933684129465
Coverage of cases: 85.33
Instances selection time: 1363.0
Test time: 2118.0
Accumulative iteration time: 28309.0
Weighted Recall: 0.6254
Weighted FalsePositiveRate: 0.014882839529163375
Kappa statistic: 0.6104297988881795
Training time: 8.0
		
Iteration: 21
Labeled set size: 2400
Unlabelled set size: 7600
	
Mean region size: 11.88961538461543
Incorrectly Classified Instances: 37.55
Correctly Classified Instances: 62.45
Weighted Precision: 0.6593103386750326
Weighted AreaUnderROC: 0.9516617260258434
Root mean squared error: 0.14326455630268192
Relative absolute error: 45.78700261889491
Root relative squared error: 74.4975692773998
Weighted TruePositiveRate: 0.6245
Weighted MatthewsCorrelation: 0.622182169526919
Weighted FMeasure: 0.6312378687335362
Iteration time: 1372.0
Weighted AreaUnderPRC: 0.6738586292656028
Mean absolute error: 0.03386612619740275
Coverage of cases: 85.39
Instances selection time: 1363.0
Test time: 2116.0
Accumulative iteration time: 29681.0
Weighted Recall: 0.6245
Weighted FalsePositiveRate: 0.01491153208057641
Kappa statistic: 0.6094969306510747
Training time: 9.0
		
Iteration: 22
Labeled set size: 2420
Unlabelled set size: 7580
	
Mean region size: 11.877692307692362
Incorrectly Classified Instances: 37.71
Correctly Classified Instances: 62.29
Weighted Precision: 0.6587828939518773
Weighted AreaUnderROC: 0.951757246901221
Root mean squared error: 0.1433637479810017
Relative absolute error: 45.87099836489007
Root relative squared error: 74.54914895012608
Weighted TruePositiveRate: 0.6229
Weighted MatthewsCorrelation: 0.6210040659475407
Weighted FMeasure: 0.630051979048946
Iteration time: 1374.0
Weighted AreaUnderPRC: 0.6735700132333411
Mean absolute error: 0.03392825322846425
Coverage of cases: 85.38
Instances selection time: 1366.0
Test time: 2153.0
Accumulative iteration time: 31055.0
Weighted Recall: 0.6229
Weighted FalsePositiveRate: 0.014968243013637136
Kappa statistic: 0.6078366488122281
Training time: 8.0
		
Iteration: 23
Labeled set size: 2440
Unlabelled set size: 7560
	
Mean region size: 11.873076923076967
Incorrectly Classified Instances: 37.67
Correctly Classified Instances: 62.33
Weighted Precision: 0.6603364015011911
Weighted AreaUnderROC: 0.9518466824784455
Root mean squared error: 0.14334569261178642
Relative absolute error: 45.92369513452611
Root relative squared error: 74.53976015813414
Weighted TruePositiveRate: 0.6233
Weighted MatthewsCorrelation: 0.6219470877003132
Weighted FMeasure: 0.6309044270432075
Iteration time: 1358.0
Weighted AreaUnderPRC: 0.6737612284144459
Mean absolute error: 0.03396723012908262
Coverage of cases: 85.37
Instances selection time: 1350.0
Test time: 2109.0
Accumulative iteration time: 32413.0
Weighted Recall: 0.6233
Weighted FalsePositiveRate: 0.014945223802850472
Kappa statistic: 0.6082556212458523
Training time: 8.0
		
Iteration: 24
Labeled set size: 2460
Unlabelled set size: 7540
	
Mean region size: 11.904230769230814
Incorrectly Classified Instances: 37.93
Correctly Classified Instances: 62.07
Weighted Precision: 0.6598958687560091
Weighted AreaUnderROC: 0.9516510027665623
Root mean squared error: 0.14354131895846797
Relative absolute error: 46.03728447801642
Root relative squared error: 74.64148585840856
Weighted TruePositiveRate: 0.6207
Weighted MatthewsCorrelation: 0.620217004161269
Weighted FMeasure: 0.6291296102854186
Iteration time: 1355.0
Weighted AreaUnderPRC: 0.6738222767541059
Mean absolute error: 0.03405124591568787
Coverage of cases: 85.3
Instances selection time: 1346.0
Test time: 2163.0
Accumulative iteration time: 33768.0
Weighted Recall: 0.6207
Weighted FalsePositiveRate: 0.015040132466640327
Kappa statistic: 0.6055557755000678
Training time: 9.0
		
Iteration: 25
Labeled set size: 2480
Unlabelled set size: 7520
	
Mean region size: 11.893461538461585
Incorrectly Classified Instances: 38.0
Correctly Classified Instances: 62.0
Weighted Precision: 0.6609511670542685
Weighted AreaUnderROC: 0.9514925845819533
Root mean squared error: 0.14384744916735806
Relative absolute error: 46.165875844299784
Root relative squared error: 74.80067356703141
Weighted TruePositiveRate: 0.62
Weighted MatthewsCorrelation: 0.6202932186249998
Weighted FMeasure: 0.6291229612237785
Iteration time: 1344.0
Weighted AreaUnderPRC: 0.6733549936388784
Mean absolute error: 0.03414635787299803
Coverage of cases: 85.31
Instances selection time: 1335.0
Test time: 2110.0
Accumulative iteration time: 35112.0
Weighted Recall: 0.62
Weighted FalsePositiveRate: 0.015060568509144832
Kappa statistic: 0.6048309252995155
Training time: 9.0
		
Iteration: 26
Labeled set size: 2500
Unlabelled set size: 7500
	
Mean region size: 11.879615384615429
Incorrectly Classified Instances: 38.03
Correctly Classified Instances: 61.97
Weighted Precision: 0.6607446353965843
Weighted AreaUnderROC: 0.95158578200823
Root mean squared error: 0.1439470889826774
Relative absolute error: 46.23203170866423
Root relative squared error: 74.85248627099747
Weighted TruePositiveRate: 0.6197
Weighted MatthewsCorrelation: 0.6200114195831277
Weighted FMeasure: 0.6288282010201429
Iteration time: 1343.0
Weighted AreaUnderPRC: 0.672854512249964
Mean absolute error: 0.03419528972533859
Coverage of cases: 85.25
Instances selection time: 1334.0
Test time: 2121.0
Accumulative iteration time: 36455.0
Weighted Recall: 0.6197
Weighted FalsePositiveRate: 0.01507167336244612
Kappa statistic: 0.6045194596860209
Training time: 9.0
		
Iteration: 27
Labeled set size: 2520
Unlabelled set size: 7480
	
Mean region size: 11.852692307692354
Incorrectly Classified Instances: 38.12
Correctly Classified Instances: 61.88
Weighted Precision: 0.6613430386736151
Weighted AreaUnderROC: 0.9515844782604219
Root mean squared error: 0.1441729178512441
Relative absolute error: 46.32758920187543
Root relative squared error: 74.96991728265216
Weighted TruePositiveRate: 0.6188
Weighted MatthewsCorrelation: 0.6197453345078505
Weighted FMeasure: 0.6284762164626554
Iteration time: 1368.0
Weighted AreaUnderPRC: 0.6722560860646577
Mean absolute error: 0.03426596834457764
Coverage of cases: 85.23
Instances selection time: 1359.0
Test time: 2116.0
Accumulative iteration time: 37823.0
Weighted Recall: 0.6188
Weighted FalsePositiveRate: 0.015100225175825816
Kappa statistic: 0.6035867413408583
Training time: 9.0
		
Iteration: 28
Labeled set size: 2540
Unlabelled set size: 7460
	
Mean region size: 11.86269230769236
Incorrectly Classified Instances: 38.2
Correctly Classified Instances: 61.8
Weighted Precision: 0.6609327309258057
Weighted AreaUnderROC: 0.9516669181133164
Root mean squared error: 0.144223752536907
Relative absolute error: 46.37432587558219
Root relative squared error: 74.99635131919688
Weighted TruePositiveRate: 0.618
Weighted MatthewsCorrelation: 0.6190506171879553
Weighted FMeasure: 0.6277378236614921
Iteration time: 1331.0
Weighted AreaUnderPRC: 0.6715305000852021
Mean absolute error: 0.034300536890218725
Coverage of cases: 85.24
Instances selection time: 1323.0
Test time: 2110.0
Accumulative iteration time: 39154.0
Weighted Recall: 0.618
Weighted FalsePositiveRate: 0.015130247672986314
Kappa statistic: 0.6027558511255383
Training time: 8.0
		
Iteration: 29
Labeled set size: 2560
Unlabelled set size: 7440
	
Mean region size: 11.837692307692357
Incorrectly Classified Instances: 38.32
Correctly Classified Instances: 61.68
Weighted Precision: 0.6616667274997046
Weighted AreaUnderROC: 0.9516054415894168
Root mean squared error: 0.14450876875065
Relative absolute error: 46.488387338047836
Root relative squared error: 75.14455975034323
Weighted TruePositiveRate: 0.6168
Weighted MatthewsCorrelation: 0.6186422367372748
Weighted FMeasure: 0.627192371094577
Iteration time: 1331.0
Weighted AreaUnderPRC: 0.6708713531551201
Mean absolute error: 0.03438490187724952
Coverage of cases: 85.19
Instances selection time: 1322.0
Test time: 2143.0
Accumulative iteration time: 40485.0
Weighted Recall: 0.6168
Weighted FalsePositiveRate: 0.015171225524596864
Kappa statistic: 0.6015110841116615
Training time: 9.0
		
Iteration: 30
Labeled set size: 2580
Unlabelled set size: 7420
	
Mean region size: 11.83576923076928
Incorrectly Classified Instances: 38.45
Correctly Classified Instances: 61.55
Weighted Precision: 0.6614365638457823
Weighted AreaUnderROC: 0.9516450434417191
Root mean squared error: 0.14461164279249852
Relative absolute error: 46.552741913163906
Root relative squared error: 75.19805425210448
Weighted TruePositiveRate: 0.6155
Weighted MatthewsCorrelation: 0.6177094111415877
Weighted FMeasure: 0.6261467851279955
Iteration time: 1328.0
Weighted AreaUnderPRC: 0.6706082121426177
Mean absolute error: 0.03443250141505726
Coverage of cases: 85.13
Instances selection time: 1319.0
Test time: 2131.0
Accumulative iteration time: 41813.0
Weighted Recall: 0.6155
Weighted FalsePositiveRate: 0.015217425932894383
Kappa statistic: 0.6001618403445085
Training time: 9.0
		
Iteration: 31
Labeled set size: 2600
Unlabelled set size: 7400
	
Mean region size: 11.835384615384667
Incorrectly Classified Instances: 38.53
Correctly Classified Instances: 61.47
Weighted Precision: 0.6603491243740032
Weighted AreaUnderROC: 0.9515405591552116
Root mean squared error: 0.14468921759988246
Relative absolute error: 46.574825883816615
Root relative squared error: 75.23839315194414
Weighted TruePositiveRate: 0.6147
Weighted MatthewsCorrelation: 0.6166466396852602
Weighted FMeasure: 0.6250092005752957
Iteration time: 1330.0
Weighted AreaUnderPRC: 0.6701233642690348
Mean absolute error: 0.0344488357128773
Coverage of cases: 85.2
Instances selection time: 1321.0
Test time: 2100.0
Accumulative iteration time: 43143.0
Weighted Recall: 0.6147
Weighted FalsePositiveRate: 0.01524626871057984
Kappa statistic: 0.5993316898341444
Training time: 9.0
		
Iteration: 32
Labeled set size: 2620
Unlabelled set size: 7380
	
Mean region size: 11.829615384615433
Incorrectly Classified Instances: 38.57
Correctly Classified Instances: 61.43
Weighted Precision: 0.659892274618396
Weighted AreaUnderROC: 0.9514281248519665
Root mean squared error: 0.14472845777772889
Relative absolute error: 46.55651491061831
Root relative squared error: 75.25879804442428
Weighted TruePositiveRate: 0.6143
Weighted MatthewsCorrelation: 0.6161164885076642
Weighted FMeasure: 0.6243947872305682
Iteration time: 1317.0
Weighted AreaUnderPRC: 0.6703824919734309
Mean absolute error: 0.03443529209364779
Coverage of cases: 85.15
Instances selection time: 1307.0
Test time: 2126.0
Accumulative iteration time: 44460.0
Weighted Recall: 0.6143
Weighted FalsePositiveRate: 0.015259959595332037
Kappa statistic: 0.5989169655794221
Training time: 10.0
		
Iteration: 33
Labeled set size: 2640
Unlabelled set size: 7360
	
Mean region size: 11.820000000000043
Incorrectly Classified Instances: 38.56
Correctly Classified Instances: 61.44
Weighted Precision: 0.6602700697605365
Weighted AreaUnderROC: 0.9512464075296467
Root mean squared error: 0.1449148368945087
Relative absolute error: 46.60176542052842
Root relative squared error: 75.35571518514979
Weighted TruePositiveRate: 0.6144
Weighted MatthewsCorrelation: 0.6162077259049425
Weighted FMeasure: 0.6243019203309105
Iteration time: 1316.0
Weighted AreaUnderPRC: 0.669952882336545
Mean absolute error: 0.03446876140571148
Coverage of cases: 85.06
Instances selection time: 1307.0
Test time: 2129.0
Accumulative iteration time: 45776.0
Weighted Recall: 0.6144
Weighted FalsePositiveRate: 0.015252775137229568
Kappa statistic: 0.5990225467459015
Training time: 9.0
		
Iteration: 34
Labeled set size: 2660
Unlabelled set size: 7340
	
Mean region size: 11.810000000000036
Incorrectly Classified Instances: 38.6
Correctly Classified Instances: 61.4
Weighted Precision: 0.6598699618396198
Weighted AreaUnderROC: 0.9510388467549276
Root mean squared error: 0.14514085736642557
Relative absolute error: 46.673589567846015
Root relative squared error: 75.47324583054656
Weighted TruePositiveRate: 0.614
Weighted MatthewsCorrelation: 0.6157084642826184
Weighted FMeasure: 0.6237213021778263
Iteration time: 1321.0
Weighted AreaUnderPRC: 0.6690686347752896
Mean absolute error: 0.03452188577502922
Coverage of cases: 84.87
Instances selection time: 1312.0
Test time: 2130.0
Accumulative iteration time: 47097.0
Weighted Recall: 0.614
Weighted FalsePositiveRate: 0.015267320126864188
Kappa statistic: 0.5986075258322834
Training time: 9.0
		
Iteration: 35
Labeled set size: 2680
Unlabelled set size: 7320
	
Mean region size: 11.806153846153885
Incorrectly Classified Instances: 38.62
Correctly Classified Instances: 61.38
Weighted Precision: 0.6595330649602813
Weighted AreaUnderROC: 0.9511628154071646
Root mean squared error: 0.14495631996752267
Relative absolute error: 46.58871224099939
Root relative squared error: 75.37728638311705
Weighted TruePositiveRate: 0.6138
Weighted MatthewsCorrelation: 0.6154510584912088
Weighted FMeasure: 0.6234953638865348
Iteration time: 1308.0
Weighted AreaUnderPRC: 0.6697370491422264
Mean absolute error: 0.03445910668712492
Coverage of cases: 84.95
Instances selection time: 1298.0
Test time: 2104.0
Accumulative iteration time: 48405.0
Weighted Recall: 0.6138
Weighted FalsePositiveRate: 0.015276280180060388
Kappa statistic: 0.5983990910800185
Training time: 10.0
		
Iteration: 36
Labeled set size: 2700
Unlabelled set size: 7300
	
Mean region size: 11.798076923076971
Incorrectly Classified Instances: 38.47
Correctly Classified Instances: 61.53
Weighted Precision: 0.6606626719462798
Weighted AreaUnderROC: 0.9513339499964902
Root mean squared error: 0.1448085965799074
Relative absolute error: 46.5194595848951
Root relative squared error: 75.3004702215571
Weighted TruePositiveRate: 0.6153
Weighted MatthewsCorrelation: 0.6168560809463148
Weighted FMeasure: 0.6248821858799573
Iteration time: 1304.0
Weighted AreaUnderPRC: 0.6703844855470487
Mean absolute error: 0.03440788430834957
Coverage of cases: 84.97
Instances selection time: 1294.0
Test time: 2105.0
Accumulative iteration time: 49709.0
Weighted Recall: 0.6153
Weighted FalsePositiveRate: 0.015218595601269957
Kappa statistic: 0.5999582925063578
Training time: 10.0
		
Iteration: 37
Labeled set size: 2720
Unlabelled set size: 7280
	
Mean region size: 11.78846153846158
Incorrectly Classified Instances: 38.5
Correctly Classified Instances: 61.5
Weighted Precision: 0.6605857775159037
Weighted AreaUnderROC: 0.9511736227216443
Root mean squared error: 0.1448792248939926
Relative absolute error: 46.52245270284903
Root relative squared error: 75.33719694488141
Weighted TruePositiveRate: 0.615
Weighted MatthewsCorrelation: 0.6165083572013323
Weighted FMeasure: 0.6243734145393368
Iteration time: 1296.0
Weighted AreaUnderPRC: 0.6704303094095614
Mean absolute error: 0.034410098152990044
Coverage of cases: 84.94
Instances selection time: 1286.0
Test time: 2101.0
Accumulative iteration time: 51005.0
Weighted Recall: 0.615
Weighted FalsePositiveRate: 0.015228140543641558
Kappa statistic: 0.5996475359298918
Training time: 10.0
		
Iteration: 38
Labeled set size: 2740
Unlabelled set size: 7260
	
Mean region size: 11.787307692307731
Incorrectly Classified Instances: 38.48
Correctly Classified Instances: 61.52
Weighted Precision: 0.6609091385130181
Weighted AreaUnderROC: 0.9511233068773604
Root mean squared error: 0.14491055147101894
Relative absolute error: 46.52691411253784
Root relative squared error: 75.35348676493511
Weighted TruePositiveRate: 0.6152
Weighted MatthewsCorrelation: 0.6167445008233426
Weighted FMeasure: 0.624561688695861
Iteration time: 1300.0
Weighted AreaUnderPRC: 0.6703203250450418
Mean absolute error: 0.03441339801222733
Coverage of cases: 84.92
Instances selection time: 1290.0
Test time: 2112.0
Accumulative iteration time: 52305.0
Weighted Recall: 0.6152
Weighted FalsePositiveRate: 0.015219320695460585
Kappa statistic: 0.5998558982093302
Training time: 10.0
		
Iteration: 39
Labeled set size: 2760
Unlabelled set size: 7240
	
Mean region size: 11.787307692307728
Incorrectly Classified Instances: 38.51
Correctly Classified Instances: 61.49
Weighted Precision: 0.6604880729292186
Weighted AreaUnderROC: 0.9511690803984498
Root mean squared error: 0.14489546426037564
Relative absolute error: 46.514001903458045
Root relative squared error: 75.34564141540059
Weighted TruePositiveRate: 0.6149
Weighted MatthewsCorrelation: 0.6163981080007901
Weighted FMeasure: 0.6242596830179268
Iteration time: 1295.0
Weighted AreaUnderPRC: 0.6704535822488852
Mean absolute error: 0.03440384756172452
Coverage of cases: 84.98
Instances selection time: 1285.0
Test time: 2133.0
Accumulative iteration time: 53600.0
Weighted Recall: 0.6149
Weighted FalsePositiveRate: 0.015232296084342392
Kappa statistic: 0.599543477484579
Training time: 10.0
		
Iteration: 40
Labeled set size: 2780
Unlabelled set size: 7220
	
Mean region size: 11.788461538461581
Incorrectly Classified Instances: 38.49
Correctly Classified Instances: 61.51
Weighted Precision: 0.6600864205189627
Weighted AreaUnderROC: 0.9506492579066785
Root mean squared error: 0.14509489656084004
Relative absolute error: 46.5758417150634
Root relative squared error: 75.44934621164208
Weighted TruePositiveRate: 0.6151
Weighted MatthewsCorrelation: 0.6162293480578015
Weighted FMeasure: 0.6240061678794948
Iteration time: 1283.0
Weighted AreaUnderPRC: 0.6693187043254666
Mean absolute error: 0.034449587067349775
Coverage of cases: 84.8
Instances selection time: 1273.0
Test time: 2116.0
Accumulative iteration time: 54883.0
Weighted Recall: 0.6151
Weighted FalsePositiveRate: 0.01522413222899324
Kappa statistic: 0.5997516983905994
Training time: 10.0
		
Iteration: 41
Labeled set size: 2800
Unlabelled set size: 7200
	
Mean region size: 11.786538461538505
Incorrectly Classified Instances: 38.45
Correctly Classified Instances: 61.55
Weighted Precision: 0.6603602571460845
Weighted AreaUnderROC: 0.9507454350721193
Root mean squared error: 0.14500266086120547
Relative absolute error: 46.53738067408347
Root relative squared error: 75.4013836478321
Weighted TruePositiveRate: 0.6155
Weighted MatthewsCorrelation: 0.6165814866377131
Weighted FMeasure: 0.6243418236253584
Iteration time: 1281.0
Weighted AreaUnderPRC: 0.6696590061929849
Mean absolute error: 0.03442113955183208
Coverage of cases: 84.81
Instances selection time: 1271.0
Test time: 2111.0
Accumulative iteration time: 56164.0
Weighted Recall: 0.6155
Weighted FalsePositiveRate: 0.015208548024743232
Kappa statistic: 0.6001677361339159
Training time: 10.0
		
Iteration: 42
Labeled set size: 2820
Unlabelled set size: 7180
	
Mean region size: 11.78423076923081
Incorrectly Classified Instances: 38.41
Correctly Classified Instances: 61.59
Weighted Precision: 0.6606909853164756
Weighted AreaUnderROC: 0.9507083535751552
Root mean squared error: 0.1449835780962572
Relative absolute error: 46.524022148241414
Root relative squared error: 75.391460610059
Weighted TruePositiveRate: 0.6159
Weighted MatthewsCorrelation: 0.6169251773973148
Weighted FMeasure: 0.6246275059887743
Iteration time: 1277.0
Weighted AreaUnderPRC: 0.6698044721210312
Mean absolute error: 0.03441125898538086
Coverage of cases: 84.82
Instances selection time: 1267.0
Test time: 2134.0
Accumulative iteration time: 57441.0
Weighted Recall: 0.6159
Weighted FalsePositiveRate: 0.0151926383798488
Kappa statistic: 0.6005837695420968
Training time: 10.0
		
Iteration: 43
Labeled set size: 2840
Unlabelled set size: 7160
	
Mean region size: 11.783461538461578
Incorrectly Classified Instances: 38.39
Correctly Classified Instances: 61.61
Weighted Precision: 0.661007336318046
Weighted AreaUnderROC: 0.9507041888513702
Root mean squared error: 0.14495332445795528
Relative absolute error: 46.50408576579543
Root relative squared error: 75.375728718142
Weighted TruePositiveRate: 0.6161
Weighted MatthewsCorrelation: 0.6171443242466771
Weighted FMeasure: 0.624783164319738
Iteration time: 1265.0
Weighted AreaUnderPRC: 0.6699943883787386
Mean absolute error: 0.034396513140376436
Coverage of cases: 84.81
Instances selection time: 1255.0
Test time: 2108.0
Accumulative iteration time: 58706.0
Weighted Recall: 0.6161
Weighted FalsePositiveRate: 0.015184154005062416
Kappa statistic: 0.6007920020471395
Training time: 10.0
		
Iteration: 44
Labeled set size: 2860
Unlabelled set size: 7140
	
Mean region size: 11.781538461538501
Incorrectly Classified Instances: 38.4
Correctly Classified Instances: 61.6
Weighted Precision: 0.6608762556109287
Weighted AreaUnderROC: 0.9506660359277114
Root mean squared error: 0.14500458082380593
Relative absolute error: 46.51532414838053
Root relative squared error: 75.40238202838435
Weighted TruePositiveRate: 0.616
Weighted MatthewsCorrelation: 0.617022232496224
Weighted FMeasure: 0.624662794181738
Iteration time: 1265.0
Weighted AreaUnderPRC: 0.6699390259745407
Mean absolute error: 0.03440482555353109
Coverage of cases: 84.8
Instances selection time: 1255.0
Test time: 2124.0
Accumulative iteration time: 59971.0
Weighted Recall: 0.616
Weighted FalsePositiveRate: 0.015188255062498757
Kappa statistic: 0.6006879398086983
Training time: 10.0
		
Iteration: 45
Labeled set size: 2880
Unlabelled set size: 7120
	
Mean region size: 11.780384615384653
Incorrectly Classified Instances: 38.41
Correctly Classified Instances: 61.59
Weighted Precision: 0.660633804914489
Weighted AreaUnderROC: 0.9506359097019332
Root mean squared error: 0.14501647646196061
Relative absolute error: 46.51138883728823
Root relative squared error: 75.40856776022478
Weighted TruePositiveRate: 0.6159
Weighted MatthewsCorrelation: 0.616833417744266
Weighted FMeasure: 0.6244640138453413
Iteration time: 1273.0
Weighted AreaUnderPRC: 0.6699714009160214
Mean absolute error: 0.03440191482047466
Coverage of cases: 84.81
Instances selection time: 1263.0
Test time: 2133.0
Accumulative iteration time: 61244.0
Weighted Recall: 0.6159
Weighted FalsePositiveRate: 0.015192593536417932
Kappa statistic: 0.6005838193832752
Training time: 10.0
		
Iteration: 46
Labeled set size: 2900
Unlabelled set size: 7100
	
Mean region size: 11.78653846153849
Incorrectly Classified Instances: 38.28
Correctly Classified Instances: 61.72
Weighted Precision: 0.6614644774684335
Weighted AreaUnderROC: 0.9506222629618578
Root mean squared error: 0.1448650310241706
Relative absolute error: 46.446358430841826
Root relative squared error: 75.32981613257397
Weighted TruePositiveRate: 0.6172
Weighted MatthewsCorrelation: 0.6179323968363047
Weighted FMeasure: 0.6255014148408975
Iteration time: 1254.0
Weighted AreaUnderPRC: 0.6705124301318385
Mean absolute error: 0.03435381540742259
Coverage of cases: 84.86
Instances selection time: 1244.0
Test time: 2094.0
Accumulative iteration time: 62498.0
Weighted Recall: 0.6172
Weighted FalsePositiveRate: 0.015140320544086393
Kappa statistic: 0.6019362660238721
Training time: 10.0
		
Time end:Wed Nov 01 02.55.09 EET 2017