Tue Oct 31 17.54.34 EET 2017
Dataset: letter
Test set size: 10000
Initial Labelled set size: 2000
Initial Unlabelled set size: 8000
Batch mode: QBestBatchMode
Batch size: 20
Classifiers: SMO-1cores
Scenario: PoolBasedSamplingScenario
Query strategy: KullbackLeiblerDivergenceQueryStrategy-1cores
Time begining: Tue Oct 31 17.54.34 EET 2017
		
Iteration: 1
Labeled set size: 2000
Unlabelled set size: 8000
	
Mean region size: 78.6699999999972
Incorrectly Classified Instances: 27.23
Correctly Classified Instances: 72.77
Weighted Precision: 0.7477037497882002
Weighted AreaUnderROC: 0.9612841651492791
Root mean squared error: 0.18650493372820298
Relative absolute error: 96.33801599999845
Root relative squared error: 96.98256553867233
Weighted TruePositiveRate: 0.7277
Weighted MatthewsCorrelation: 0.7217492518741113
Weighted FMeasure: 0.7265409159585531
Iteration time: 2915.0
Weighted AreaUnderPRC: 0.6414857186617207
Mean absolute error: 0.07125592899407177
Coverage of cases: 99.73
Instances selection time: 474.0
Test time: 432.0
Accumulative iteration time: 2915.0
Weighted Recall: 0.7277
Weighted FalsePositiveRate: 0.010885718566113277
Kappa statistic: 0.7167875112757157
Training time: 2441.0
		
Iteration: 2
Labeled set size: 2020
Unlabelled set size: 7980
	
Mean region size: 78.66538461538171
Incorrectly Classified Instances: 27.1
Correctly Classified Instances: 72.9
Weighted Precision: 0.7487440430339548
Weighted AreaUnderROC: 0.9613769710850049
Root mean squared error: 0.18650139613452615
Relative absolute error: 96.33647999999855
Root relative squared error: 96.98072598996038
Weighted TruePositiveRate: 0.729
Weighted MatthewsCorrelation: 0.7229609834370808
Weighted FMeasure: 0.7276983757486427
Iteration time: 2838.0
Weighted AreaUnderPRC: 0.6428727036607312
Mean absolute error: 0.07125479289939728
Coverage of cases: 99.73
Instances selection time: 472.0
Test time: 430.0
Accumulative iteration time: 5753.0
Weighted Recall: 0.729
Weighted FalsePositiveRate: 0.010834426799763692
Kappa statistic: 0.7181392338516819
Training time: 2366.0
		
Iteration: 3
Labeled set size: 2040
Unlabelled set size: 7960
	
Mean region size: 78.67692307692013
Incorrectly Classified Instances: 27.2
Correctly Classified Instances: 72.8
Weighted Precision: 0.7492511832768036
Weighted AreaUnderROC: 0.9614574540609622
Root mean squared error: 0.18650059094626037
Relative absolute error: 96.33622399999862
Root relative squared error: 96.98030729206216
Weighted TruePositiveRate: 0.728
Weighted MatthewsCorrelation: 0.7223146042023245
Weighted FMeasure: 0.7267032229820327
Iteration time: 2916.0
Weighted AreaUnderPRC: 0.6435820065147172
Mean absolute error: 0.0712546035502849
Coverage of cases: 99.72
Instances selection time: 470.0
Test time: 431.0
Accumulative iteration time: 8669.0
Weighted Recall: 0.728
Weighted FalsePositiveRate: 0.010871291607456583
Kappa statistic: 0.7171008991053461
Training time: 2446.0
		
Iteration: 4
Labeled set size: 2060
Unlabelled set size: 7940
	
Mean region size: 78.66076923076625
Incorrectly Classified Instances: 27.3
Correctly Classified Instances: 72.7
Weighted Precision: 0.7486094294050045
Weighted AreaUnderROC: 0.9614440255426915
Root mean squared error: 0.18650154686288362
Relative absolute error: 96.3366719999987
Root relative squared error: 96.98080436870625
Weighted TruePositiveRate: 0.727
Weighted MatthewsCorrelation: 0.7213531565180605
Weighted FMeasure: 0.7256568768114615
Iteration time: 2958.0
Weighted AreaUnderPRC: 0.642846340314657
Mean absolute error: 0.07125493491123171
Coverage of cases: 99.72
Instances selection time: 468.0
Test time: 441.0
Accumulative iteration time: 11627.0
Weighted Recall: 0.727
Weighted FalsePositiveRate: 0.010912248674984044
Kappa statistic: 0.7160607904902955
Training time: 2490.0
		
Iteration: 5
Labeled set size: 2080
Unlabelled set size: 7920
	
Mean region size: 78.62115384615082
Incorrectly Classified Instances: 27.3
Correctly Classified Instances: 72.7
Weighted Precision: 0.7495905864289026
Weighted AreaUnderROC: 0.961296451578191
Root mean squared error: 0.1865060977476106
Relative absolute error: 96.33878399999874
Root relative squared error: 96.98317082876427
Weighted TruePositiveRate: 0.727
Weighted MatthewsCorrelation: 0.721501737288052
Weighted FMeasure: 0.7254114273019981
Iteration time: 2956.0
Weighted AreaUnderPRC: 0.6425522745140292
Mean absolute error: 0.07125649704140925
Coverage of cases: 99.73
Instances selection time: 471.0
Test time: 429.0
Accumulative iteration time: 14583.0
Weighted Recall: 0.727
Weighted FalsePositiveRate: 0.010912402029662217
Kappa statistic: 0.7160609913055482
Training time: 2485.0
		
Iteration: 6
Labeled set size: 2100
Unlabelled set size: 7900
	
Mean region size: 78.62307692307387
Incorrectly Classified Instances: 27.34
Correctly Classified Instances: 72.66
Weighted Precision: 0.7501876044896473
Weighted AreaUnderROC: 0.9611886885266482
Root mean squared error: 0.18650981037821862
Relative absolute error: 96.34067199999878
Root relative squared error: 96.98510139668045
Weighted TruePositiveRate: 0.7266
Weighted MatthewsCorrelation: 0.7212693722464831
Weighted FMeasure: 0.7248392605212411
Iteration time: 3005.0
Weighted AreaUnderPRC: 0.6426324923215821
Mean absolute error: 0.07125789349111343
Coverage of cases: 99.72
Instances selection time: 471.0
Test time: 430.0
Accumulative iteration time: 17588.0
Weighted Recall: 0.7266
Weighted FalsePositiveRate: 0.010927799126397075
Kappa statistic: 0.7156451734356428
Training time: 2534.0
		
Iteration: 7
Labeled set size: 2120
Unlabelled set size: 7880
	
Mean region size: 78.63384615384315
Incorrectly Classified Instances: 27.41
Correctly Classified Instances: 72.59
Weighted Precision: 0.750975855689627
Weighted AreaUnderROC: 0.9611152586633455
Root mean squared error: 0.1865107840139064
Relative absolute error: 96.34131199999888
Root relative squared error: 96.98560768723809
Weighted TruePositiveRate: 0.7259
Weighted MatthewsCorrelation: 0.7211639903513791
Weighted FMeasure: 0.7245912766312651
Iteration time: 2994.0
Weighted AreaUnderPRC: 0.6426721182771479
Mean absolute error: 0.07125836686389457
Coverage of cases: 99.72
Instances selection time: 469.0
Test time: 432.0
Accumulative iteration time: 20582.0
Weighted Recall: 0.7259
Weighted FalsePositiveRate: 0.010956828397693762
Kappa statistic: 0.7149171222679692
Training time: 2525.0
		
Iteration: 8
Labeled set size: 2140
Unlabelled set size: 7860
	
Mean region size: 78.63076923076613
Incorrectly Classified Instances: 27.53
Correctly Classified Instances: 72.47
Weighted Precision: 0.7504657107540651
Weighted AreaUnderROC: 0.961045232991527
Root mean squared error: 0.18651238590395225
Relative absolute error: 96.34214399999905
Root relative squared error: 96.98644067006194
Weighted TruePositiveRate: 0.7247
Weighted MatthewsCorrelation: 0.7201888713017747
Weighted FMeasure: 0.7235690120926547
Iteration time: 2988.0
Weighted AreaUnderPRC: 0.642085619126831
Mean absolute error: 0.07125898224851007
Coverage of cases: 99.73
Instances selection time: 468.0
Test time: 431.0
Accumulative iteration time: 23570.0
Weighted Recall: 0.7247
Weighted FalsePositiveRate: 0.011002778751334997
Kappa statistic: 0.7136699330309023
Training time: 2520.0
		
Iteration: 9
Labeled set size: 2160
Unlabelled set size: 7840
	
Mean region size: 78.60346153845843
Incorrectly Classified Instances: 27.69
Correctly Classified Instances: 72.31
Weighted Precision: 0.7511893743939462
Weighted AreaUnderROC: 0.9610665302775288
Root mean squared error: 0.186515391680249
Relative absolute error: 96.3435839999992
Root relative squared error: 96.98800367373624
Weighted TruePositiveRate: 0.7231
Weighted MatthewsCorrelation: 0.7193431907567513
Weighted FMeasure: 0.7223610630939461
Iteration time: 2942.0
Weighted AreaUnderPRC: 0.6420719302291208
Mean absolute error: 0.07126004733726758
Coverage of cases: 99.71
Instances selection time: 464.0
Test time: 428.0
Accumulative iteration time: 26512.0
Weighted Recall: 0.7231
Weighted FalsePositiveRate: 0.011071392343447896
Kappa statistic: 0.7120045550083468
Training time: 2478.0
		
Iteration: 10
Labeled set size: 2180
Unlabelled set size: 7820
	
Mean region size: 78.62153846153545
Incorrectly Classified Instances: 27.82
Correctly Classified Instances: 72.18
Weighted Precision: 0.7507121018833504
Weighted AreaUnderROC: 0.9609656516706909
Root mean squared error: 0.18651794116375794
Relative absolute error: 96.34489599999917
Root relative squared error: 96.98932940516089
Weighted TruePositiveRate: 0.7218
Weighted MatthewsCorrelation: 0.7181909947875251
Weighted FMeasure: 0.7210169859408014
Iteration time: 2905.0
Weighted AreaUnderPRC: 0.6415637112040709
Mean absolute error: 0.07126101775146874
Coverage of cases: 99.72
Instances selection time: 470.0
Test time: 432.0
Accumulative iteration time: 29417.0
Weighted Recall: 0.7218
Weighted FalsePositiveRate: 0.01112471970372984
Kappa statistic: 0.710651988228549
Training time: 2435.0
		
Iteration: 11
Labeled set size: 2200
Unlabelled set size: 7800
	
Mean region size: 78.60499999999699
Incorrectly Classified Instances: 28.08
Correctly Classified Instances: 71.92
Weighted Precision: 0.7522380398806062
Weighted AreaUnderROC: 0.9606938967585362
Root mean squared error: 0.1865230790705116
Relative absolute error: 96.34732799999935
Root relative squared error: 96.9920011166728
Weighted TruePositiveRate: 0.7192
Weighted MatthewsCorrelation: 0.7170536440689319
Weighted FMeasure: 0.7193967632103033
Iteration time: 2860.0
Weighted AreaUnderPRC: 0.6400478727641413
Mean absolute error: 0.07126281656803693
Coverage of cases: 99.72
Instances selection time: 462.0
Test time: 431.0
Accumulative iteration time: 32277.0
Weighted Recall: 0.7192
Weighted FalsePositiveRate: 0.01122739435812646
Kappa statistic: 0.707948940280561
Training time: 2398.0
		
Iteration: 12
Labeled set size: 2220
Unlabelled set size: 7780
	
Mean region size: 78.5911538461507
Incorrectly Classified Instances: 28.08
Correctly Classified Instances: 71.92
Weighted Precision: 0.7538889012346438
Weighted AreaUnderROC: 0.9607134068610746
Root mean squared error: 0.18652621351847623
Relative absolute error: 96.34899199999948
Root relative squared error: 96.99363102961442
Weighted TruePositiveRate: 0.7192
Weighted MatthewsCorrelation: 0.7176558340338764
Weighted FMeasure: 0.7197027022404429
Iteration time: 2857.0
Weighted AreaUnderPRC: 0.6412646634780869
Mean absolute error: 0.0712640473372678
Coverage of cases: 99.72
Instances selection time: 463.0
Test time: 430.0
Accumulative iteration time: 35134.0
Weighted Recall: 0.7192
Weighted FalsePositiveRate: 0.011229747008122308
Kappa statistic: 0.7079485241384601
Training time: 2394.0
		
Iteration: 13
Labeled set size: 2240
Unlabelled set size: 7760
	
Mean region size: 78.5861538461508
Incorrectly Classified Instances: 28.01
Correctly Classified Instances: 71.99
Weighted Precision: 0.7554971821082663
Weighted AreaUnderROC: 0.9604821574341218
Root mean squared error: 0.18652797437732307
Relative absolute error: 96.34982399999953
Root relative squared error: 96.99454667621477
Weighted TruePositiveRate: 0.7199
Weighted MatthewsCorrelation: 0.7188275503242614
Weighted FMeasure: 0.7208218322253348
Iteration time: 2869.0
Weighted AreaUnderPRC: 0.6416469737162184
Mean absolute error: 0.07126466272188321
Coverage of cases: 99.69
Instances selection time: 458.0
Test time: 429.0
Accumulative iteration time: 38003.0
Weighted Recall: 0.7199
Weighted FalsePositiveRate: 0.011202491769417117
Kappa statistic: 0.7086761030439561
Training time: 2411.0
		
Iteration: 14
Labeled set size: 2260
Unlabelled set size: 7740
	
Mean region size: 78.598846153843
Incorrectly Classified Instances: 27.92
Correctly Classified Instances: 72.08
Weighted Precision: 0.7545866650072387
Weighted AreaUnderROC: 0.9605318803990862
Root mean squared error: 0.18652679526747282
Relative absolute error: 96.34927999999948
Root relative squared error: 96.99393353909264
Weighted TruePositiveRate: 0.7208
Weighted MatthewsCorrelation: 0.7191695702775571
Weighted FMeasure: 0.7214873131806653
Iteration time: 2889.0
Weighted AreaUnderPRC: 0.6418943031245863
Mean absolute error: 0.07126426035501927
Coverage of cases: 99.69
Instances selection time: 457.0
Test time: 430.0
Accumulative iteration time: 40892.0
Weighted Recall: 0.7208
Weighted FalsePositiveRate: 0.011166478364957265
Kappa statistic: 0.7096110736447223
Training time: 2432.0
		
Iteration: 15
Labeled set size: 2280
Unlabelled set size: 7720
	
Mean region size: 78.58538461538143
Incorrectly Classified Instances: 27.92
Correctly Classified Instances: 72.08
Weighted Precision: 0.7532085423723822
Weighted AreaUnderROC: 0.9602549693660327
Root mean squared error: 0.1865315946274653
Relative absolute error: 96.3515519999996
Root relative squared error: 96.99642920628872
Weighted TruePositiveRate: 0.7208
Weighted MatthewsCorrelation: 0.7186534709932819
Weighted FMeasure: 0.7211777877998498
Iteration time: 2968.0
Weighted AreaUnderPRC: 0.6408485718428129
Mean absolute error: 0.07126594082839213
Coverage of cases: 99.69
Instances selection time: 456.0
Test time: 431.0
Accumulative iteration time: 43860.0
Weighted Recall: 0.7208
Weighted FalsePositiveRate: 0.011166502805293063
Kappa statistic: 0.7096109014896587
Training time: 2512.0
		
Iteration: 16
Labeled set size: 2300
Unlabelled set size: 7700
	
Mean region size: 78.57307692307361
Incorrectly Classified Instances: 27.66
Correctly Classified Instances: 72.34
Weighted Precision: 0.7538631980519717
Weighted AreaUnderROC: 0.9602446096798046
Root mean squared error: 0.1865314687153875
Relative absolute error: 96.35145599999962
Root relative squared error: 96.99636373200828
Weighted TruePositiveRate: 0.7234
Weighted MatthewsCorrelation: 0.7207303088302703
Weighted FMeasure: 0.7235493928006265
Iteration time: 3003.0
Weighted AreaUnderPRC: 0.6420841173832936
Mean absolute error: 0.07126586982247499
Coverage of cases: 99.69
Instances selection time: 461.0
Test time: 431.0
Accumulative iteration time: 46863.0
Weighted Recall: 0.7234
Weighted FalsePositiveRate: 0.0110649354149062
Kappa statistic: 0.7123133684982224
Training time: 2542.0
		
Iteration: 17
Labeled set size: 2320
Unlabelled set size: 7680
	
Mean region size: 78.57346153845825
Incorrectly Classified Instances: 27.72
Correctly Classified Instances: 72.28
Weighted Precision: 0.7522594164585386
Weighted AreaUnderROC: 0.9602925451083852
Root mean squared error: 0.18653181189880252
Relative absolute error: 96.35164799999953
Root relative squared error: 96.9965421873841
Weighted TruePositiveRate: 0.7228
Weighted MatthewsCorrelation: 0.7195722853340397
Weighted FMeasure: 0.7224270648391301
Iteration time: 2999.0
Weighted AreaUnderPRC: 0.6411792295167369
Mean absolute error: 0.07126601183430925
Coverage of cases: 99.69
Instances selection time: 457.0
Test time: 430.0
Accumulative iteration time: 49862.0
Weighted Recall: 0.7228
Weighted FalsePositiveRate: 0.011089538551383435
Kappa statistic: 0.7116888336211591
Training time: 2542.0
		
Iteration: 18
Labeled set size: 2340
Unlabelled set size: 7660
	
Mean region size: 78.57653846153521
Incorrectly Classified Instances: 27.68
Correctly Classified Instances: 72.32
Weighted Precision: 0.751599717788957
Weighted AreaUnderROC: 0.9602948269957742
Root mean squared error: 0.18653206274634848
Relative absolute error: 96.35180799999952
Root relative squared error: 96.99667262810797
Weighted TruePositiveRate: 0.7232
Weighted MatthewsCorrelation: 0.7194695819664888
Weighted FMeasure: 0.7223443654150464
Iteration time: 3020.0
Weighted AreaUnderPRC: 0.6407805796112532
Mean absolute error: 0.07126613017750451
Coverage of cases: 99.69
Instances selection time: 456.0
Test time: 431.0
Accumulative iteration time: 52882.0
Weighted Recall: 0.7232
Weighted FalsePositiveRate: 0.011076390293292502
Kappa statistic: 0.712104145410122
Training time: 2564.0
		
Iteration: 19
Labeled set size: 2360
Unlabelled set size: 7640
	
Mean region size: 78.57538461538134
Incorrectly Classified Instances: 27.74
Correctly Classified Instances: 72.26
Weighted Precision: 0.7500603312586066
Weighted AreaUnderROC: 0.9602135406667097
Root mean squared error: 0.18653331483170177
Relative absolute error: 96.35251199999955
Root relative squared error: 96.99732371249169
Weighted TruePositiveRate: 0.7226
Weighted MatthewsCorrelation: 0.7183799471506651
Weighted FMeasure: 0.7213129046446098
Iteration time: 3020.0
Weighted AreaUnderPRC: 0.6395600919001904
Mean absolute error: 0.0712666508875637
Coverage of cases: 99.69
Instances selection time: 457.0
Test time: 429.0
Accumulative iteration time: 55902.0
Weighted Recall: 0.7226
Weighted FalsePositiveRate: 0.011104129327628954
Kappa statistic: 0.7114786022692177
Training time: 2563.0
		
Iteration: 20
Labeled set size: 2380
Unlabelled set size: 7620
	
Mean region size: 78.58153846153519
Incorrectly Classified Instances: 27.71
Correctly Classified Instances: 72.29
Weighted Precision: 0.7498008476180364
Weighted AreaUnderROC: 0.9602075388702309
Root mean squared error: 0.18653363927153058
Relative absolute error: 96.35273599999958
Root relative squared error: 96.99749242120268
Weighted TruePositiveRate: 0.7229
Weighted MatthewsCorrelation: 0.7185391546447276
Weighted FMeasure: 0.7216061501960767
Iteration time: 3013.0
Weighted AreaUnderPRC: 0.639720393798179
Mean absolute error: 0.0712668165680371
Coverage of cases: 99.69
Instances selection time: 451.0
Test time: 432.0
Accumulative iteration time: 58915.0
Weighted Recall: 0.7229
Weighted FalsePositiveRate: 0.011093060103216678
Kappa statistic: 0.7117902730163628
Training time: 2562.0
		
Iteration: 21
Labeled set size: 2400
Unlabelled set size: 7600
	
Mean region size: 78.58192307691982
Incorrectly Classified Instances: 27.77
Correctly Classified Instances: 72.23
Weighted Precision: 0.7487684098805165
Weighted AreaUnderROC: 0.9602065998653043
Root mean squared error: 0.18653458525832825
Relative absolute error: 96.35318399999959
Root relative squared error: 96.99798433433746
Weighted TruePositiveRate: 0.7223
Weighted MatthewsCorrelation: 0.7173250775306725
Weighted FMeasure: 0.7201048003060315
Iteration time: 3106.0
Weighted AreaUnderPRC: 0.6392013242122652
Mean absolute error: 0.07126714792898385
Coverage of cases: 99.69
Instances selection time: 462.0
Test time: 681.0
Accumulative iteration time: 62021.0
Weighted Recall: 0.7223
Weighted FalsePositiveRate: 0.01111875855465674
Kappa statistic: 0.7111657336428849
Training time: 2644.0
		
Iteration: 22
Labeled set size: 2420
Unlabelled set size: 7580
	
Mean region size: 78.58807692307369
Incorrectly Classified Instances: 27.77
Correctly Classified Instances: 72.23
Weighted Precision: 0.7492346686163465
Weighted AreaUnderROC: 0.9601365719834148
Root mean squared error: 0.18653595777005724
Relative absolute error: 96.35411199999962
Root relative squared error: 96.99869804043654
Weighted TruePositiveRate: 0.7223
Weighted MatthewsCorrelation: 0.7170634572121865
Weighted FMeasure: 0.7194025501623551
Iteration time: 3107.0
Weighted AreaUnderPRC: 0.6391939267383581
Mean absolute error: 0.07126783431951642
Coverage of cases: 99.69
Instances selection time: 599.0
Test time: 428.0
Accumulative iteration time: 65128.0
Weighted Recall: 0.7223
Weighted FalsePositiveRate: 0.011123436571285027
Kappa statistic: 0.7111639972339975
Training time: 2508.0
		
Iteration: 23
Labeled set size: 2440
Unlabelled set size: 7560
	
Mean region size: 78.58307692307368
Incorrectly Classified Instances: 27.8
Correctly Classified Instances: 72.2
Weighted Precision: 0.7497182891852817
Weighted AreaUnderROC: 0.9600986250702584
Root mean squared error: 0.18653655510524592
Relative absolute error: 96.3545279999996
Root relative squared error: 96.99900865473464
Weighted TruePositiveRate: 0.722
Weighted MatthewsCorrelation: 0.7170012762044372
Weighted FMeasure: 0.719229340509156
Iteration time: 2908.0
Weighted AreaUnderPRC: 0.6389358784598514
Mean absolute error: 0.07126814201182409
Coverage of cases: 99.68
Instances selection time: 445.0
Test time: 431.0
Accumulative iteration time: 68036.0
Weighted Recall: 0.722
Weighted FalsePositiveRate: 0.011135222259747165
Kappa statistic: 0.7108522015619764
Training time: 2463.0
		
Iteration: 24
Labeled set size: 2460
Unlabelled set size: 7540
	
Mean region size: 78.58461538461215
Incorrectly Classified Instances: 28.23
Correctly Classified Instances: 71.77
Weighted Precision: 0.7530666652444781
Weighted AreaUnderROC: 0.9598895491257814
Root mean squared error: 0.18653936684950786
Relative absolute error: 96.35564799999987
Root relative squared error: 97.00047076175086
Weighted TruePositiveRate: 0.7177
Weighted MatthewsCorrelation: 0.7166785255537221
Weighted FMeasure: 0.7194275517936926
Iteration time: 2912.0
Weighted AreaUnderPRC: 0.6411013093341383
Mean absolute error: 0.07126897041419115
Coverage of cases: 99.69
Instances selection time: 446.0
Test time: 431.0
Accumulative iteration time: 70948.0
Weighted Recall: 0.7177
Weighted FalsePositiveRate: 0.011262774919072141
Kappa statistic: 0.706394942795896
Training time: 2466.0
		
Iteration: 25
Labeled set size: 2480
Unlabelled set size: 7520
	
Mean region size: 78.5815384615352
Incorrectly Classified Instances: 28.57
Correctly Classified Instances: 71.43
Weighted Precision: 0.7570963108108573
Weighted AreaUnderROC: 0.9596752737215275
Root mean squared error: 0.18654526017013537
Relative absolute error: 96.35852799999999
Root relative squared error: 97.00353528847717
Weighted TruePositiveRate: 0.7143
Weighted MatthewsCorrelation: 0.7164959033319179
Weighted FMeasure: 0.718921994143559
Iteration time: 2906.0
Weighted AreaUnderPRC: 0.6430987014089897
Mean absolute error: 0.07127110059170604
Coverage of cases: 99.69
Instances selection time: 446.0
Test time: 429.0
Accumulative iteration time: 73854.0
Weighted Recall: 0.7143
Weighted FalsePositiveRate: 0.011368193206528737
Kappa statistic: 0.7028689062710521
Training time: 2460.0
		
Iteration: 26
Labeled set size: 2500
Unlabelled set size: 7500
	
Mean region size: 78.57730769230443
Incorrectly Classified Instances: 29.26
Correctly Classified Instances: 70.74
Weighted Precision: 0.7596808251553833
Weighted AreaUnderROC: 0.9596502291999388
Root mean squared error: 0.18654944653801941
Relative absolute error: 96.36080000000025
Root relative squared error: 97.00571219977687
Weighted TruePositiveRate: 0.7074
Weighted MatthewsCorrelation: 0.7132805471277407
Weighted FMeasure: 0.7150070279541876
Iteration time: 3002.0
Weighted AreaUnderPRC: 0.6431306690953493
Mean absolute error: 0.07127278106507902
Coverage of cases: 99.69
Instances selection time: 445.0
Test time: 429.0
Accumulative iteration time: 76856.0
Weighted Recall: 0.7074
Weighted FalsePositiveRate: 0.011612749388006126
Kappa statistic: 0.6957032149984911
Training time: 2557.0
		
Iteration: 27
Labeled set size: 2520
Unlabelled set size: 7480
	
Mean region size: 78.57499999999672
Incorrectly Classified Instances: 29.97
Correctly Classified Instances: 70.03
Weighted Precision: 0.7603611228708557
Weighted AreaUnderROC: 0.9593559283130099
Root mean squared error: 0.1865576753357327
Relative absolute error: 96.36476800000042
Root relative squared error: 97.00999117458777
Weighted TruePositiveRate: 0.7003
Weighted MatthewsCorrelation: 0.7089020979405254
Weighted FMeasure: 0.7097824771915473
Iteration time: 3077.0
Weighted AreaUnderPRC: 0.6414625324978844
Mean absolute error: 0.07127571597632174
Coverage of cases: 99.69
Instances selection time: 444.0
Test time: 443.0
Accumulative iteration time: 79933.0
Weighted Recall: 0.7003
Weighted FalsePositiveRate: 0.011868856141806047
Kappa statistic: 0.6883286764105085
Training time: 2633.0
		
Iteration: 28
Labeled set size: 2540
Unlabelled set size: 7460
	
Mean region size: 78.57653846153518
Incorrectly Classified Instances: 30.61
Correctly Classified Instances: 69.39
Weighted Precision: 0.7609437133894282
Weighted AreaUnderROC: 0.9591652525793641
Root mean squared error: 0.18656267318015082
Relative absolute error: 96.36732800000063
Root relative squared error: 97.0125900536852
Weighted TruePositiveRate: 0.6939
Weighted MatthewsCorrelation: 0.7049542789918103
Weighted FMeasure: 0.7051500228519292
Iteration time: 3061.0
Weighted AreaUnderPRC: 0.6399257696151954
Mean absolute error: 0.07127760946744614
Coverage of cases: 99.68
Instances selection time: 446.0
Test time: 432.0
Accumulative iteration time: 82994.0
Weighted Recall: 0.6939
Weighted FalsePositiveRate: 0.012102873331487156
Kappa statistic: 0.6816795870332881
Training time: 2615.0
		
Iteration: 29
Labeled set size: 2560
Unlabelled set size: 7440
	
Mean region size: 78.57653846153516
Incorrectly Classified Instances: 31.27
Correctly Classified Instances: 68.73
Weighted Precision: 0.7632404453425193
Weighted AreaUnderROC: 0.9592185015202702
Root mean squared error: 0.18656826753881572
Relative absolute error: 96.37001600000089
Root relative squared error: 97.01549912019094
Weighted TruePositiveRate: 0.6873
Weighted MatthewsCorrelation: 0.7017795591333253
Weighted FMeasure: 0.7012708962527476
Iteration time: 3058.0
Weighted AreaUnderPRC: 0.6413747275850142
Mean absolute error: 0.07127959763312681
Coverage of cases: 99.69
Instances selection time: 440.0
Test time: 429.0
Accumulative iteration time: 86052.0
Weighted Recall: 0.6873
Weighted FalsePositiveRate: 0.012338908431131619
Kappa statistic: 0.6748254016746004
Training time: 2618.0
		
Iteration: 30
Labeled set size: 2580
Unlabelled set size: 7420
	
Mean region size: 78.57653846153518
Incorrectly Classified Instances: 31.74
Correctly Classified Instances: 68.26
Weighted Precision: 0.7654777808875928
Weighted AreaUnderROC: 0.9592522000916635
Root mean squared error: 0.18657101947311455
Relative absolute error: 96.37136000000112
Root relative squared error: 97.01693012602635
Weighted TruePositiveRate: 0.6826
Weighted MatthewsCorrelation: 0.6995029044676274
Weighted FMeasure: 0.6982211448420526
Iteration time: 3009.0
Weighted AreaUnderPRC: 0.6411422949521747
Mean absolute error: 0.07128059171596722
Coverage of cases: 99.69
Instances selection time: 438.0
Test time: 432.0
Accumulative iteration time: 89061.0
Weighted Recall: 0.6826
Weighted FalsePositiveRate: 0.012505970993879465
Kappa statistic: 0.6699454099690836
Training time: 2571.0
		
Iteration: 31
Labeled set size: 2600
Unlabelled set size: 7400
	
Mean region size: 78.60846153845839
Incorrectly Classified Instances: 32.58
Correctly Classified Instances: 67.42
Weighted Precision: 0.7600046492245047
Weighted AreaUnderROC: 0.9594521105597407
Root mean squared error: 0.1865689102459696
Relative absolute error: 96.37052800000124
Root relative squared error: 97.01583332791098
Weighted TruePositiveRate: 0.6742
Weighted MatthewsCorrelation: 0.6905252646171145
Weighted FMeasure: 0.6881005151279951
Iteration time: 2957.0
Weighted AreaUnderPRC: 0.6392620488670278
Mean absolute error: 0.07127997633135193
Coverage of cases: 99.69
Instances selection time: 439.0
Test time: 428.0
Accumulative iteration time: 92018.0
Weighted Recall: 0.6742
Weighted FalsePositiveRate: 0.012828937142717376
Kappa statistic: 0.6612153041005469
Training time: 2518.0
		
Iteration: 32
Labeled set size: 2620
Unlabelled set size: 7380
	
Mean region size: 78.60615384615069
Incorrectly Classified Instances: 32.03
Correctly Classified Instances: 67.97
Weighted Precision: 0.7665749086413647
Weighted AreaUnderROC: 0.9592248141598695
Root mean squared error: 0.1865671710475856
Relative absolute error: 96.36966400000128
Root relative squared error: 97.01492894475128
Weighted TruePositiveRate: 0.6797
Weighted MatthewsCorrelation: 0.6978209824820318
Weighted FMeasure: 0.6959436000307971
Iteration time: 2940.0
Weighted AreaUnderPRC: 0.640692930197236
Mean absolute error: 0.07127933727809753
Coverage of cases: 99.69
Instances selection time: 437.0
Test time: 430.0
Accumulative iteration time: 94958.0
Weighted Recall: 0.6797
Weighted FalsePositiveRate: 0.012612944533944445
Kappa statistic: 0.6669336119763477
Training time: 2503.0
		
Iteration: 33
Labeled set size: 2640
Unlabelled set size: 7360
	
Mean region size: 78.58192307691992
Incorrectly Classified Instances: 32.11
Correctly Classified Instances: 67.89
Weighted Precision: 0.7642839671953189
Weighted AreaUnderROC: 0.9591686731412811
Root mean squared error: 0.1865622578367823
Relative absolute error: 96.36755200000133
Root relative squared error: 97.01237407513356
Weighted TruePositiveRate: 0.6789
Weighted MatthewsCorrelation: 0.6963500363530722
Weighted FMeasure: 0.6946076854977803
Iteration time: 2954.0
Weighted AreaUnderPRC: 0.6393656451233218
Mean absolute error: 0.07127777514792004
Coverage of cases: 99.71
Instances selection time: 437.0
Test time: 435.0
Accumulative iteration time: 97912.0
Weighted Recall: 0.6789
Weighted FalsePositiveRate: 0.01264683643893292
Kappa statistic: 0.6661011564795977
Training time: 2517.0
		
Iteration: 34
Labeled set size: 2660
Unlabelled set size: 7340
	
Mean region size: 78.58038461538145
Incorrectly Classified Instances: 32.22
Correctly Classified Instances: 67.78
Weighted Precision: 0.7634827322081201
Weighted AreaUnderROC: 0.9592625547744278
Root mean squared error: 0.18656382434786942
Relative absolute error: 96.36825600000128
Root relative squared error: 97.01318866089886
Weighted TruePositiveRate: 0.6778
Weighted MatthewsCorrelation: 0.6950104112781863
Weighted FMeasure: 0.693018201844568
Iteration time: 2959.0
Weighted AreaUnderPRC: 0.639720156343013
Mean absolute error: 0.07127829585797918
Coverage of cases: 99.69
Instances selection time: 434.0
Test time: 432.0
Accumulative iteration time: 100871.0
Weighted Recall: 0.6778
Weighted FalsePositiveRate: 0.012686994095595622
Kappa statistic: 0.6649581299048422
Training time: 2525.0
		
Iteration: 35
Labeled set size: 2680
Unlabelled set size: 7320
	
Mean region size: 78.57999999999682
Incorrectly Classified Instances: 32.17
Correctly Classified Instances: 67.83
Weighted Precision: 0.7652791430247852
Weighted AreaUnderROC: 0.9590855364793022
Root mean squared error: 0.18656410657610392
Relative absolute error: 96.36838400000133
Root relative squared error: 97.01333541958083
Weighted TruePositiveRate: 0.6783
Weighted MatthewsCorrelation: 0.6963571163765929
Weighted FMeasure: 0.6944573473488715
Iteration time: 3056.0
Weighted AreaUnderPRC: 0.6394414144442473
Mean absolute error: 0.07127839053253543
Coverage of cases: 99.7
Instances selection time: 436.0
Test time: 429.0
Accumulative iteration time: 103927.0
Weighted Recall: 0.6783
Weighted FalsePositiveRate: 0.012665112056541732
Kappa statistic: 0.6654792027578074
Training time: 2620.0
		
Iteration: 36
Labeled set size: 2700
Unlabelled set size: 7300
	
Mean region size: 78.5980769230739
Incorrectly Classified Instances: 32.3
Correctly Classified Instances: 67.7
Weighted Precision: 0.7630114191596257
Weighted AreaUnderROC: 0.9597613297466929
Root mean squared error: 0.18655424941424056
Relative absolute error: 96.36393600000142
Root relative squared error: 97.00820969541186
Weighted TruePositiveRate: 0.677
Weighted MatthewsCorrelation: 0.6941237730906166
Weighted FMeasure: 0.6920147383937262
Iteration time: 3113.0
Weighted AreaUnderPRC: 0.6383397224906526
Mean absolute error: 0.0712751005917071
Coverage of cases: 99.69
Instances selection time: 432.0
Test time: 430.0
Accumulative iteration time: 107040.0
Weighted Recall: 0.677
Weighted FalsePositiveRate: 0.012719924020521549
Kappa statistic: 0.6641259685260452
Training time: 2681.0
		
Iteration: 37
Labeled set size: 2720
Unlabelled set size: 7280
	
Mean region size: 78.63115384615092
Incorrectly Classified Instances: 32.55
Correctly Classified Instances: 67.45
Weighted Precision: 0.760891465956409
Weighted AreaUnderROC: 0.9596920879668752
Root mean squared error: 0.1865543058237807
Relative absolute error: 96.36444800000145
Root relative squared error: 97.00823902837274
Weighted TruePositiveRate: 0.6745
Weighted MatthewsCorrelation: 0.6915360576423136
Weighted FMeasure: 0.6893544849328223
Iteration time: 3129.0
Weighted AreaUnderPRC: 0.637151643003824
Mean absolute error: 0.07127547928993197
Coverage of cases: 99.7
Instances selection time: 432.0
Test time: 431.0
Accumulative iteration time: 110169.0
Weighted Recall: 0.6745
Weighted FalsePositiveRate: 0.012819939748209535
Kappa statistic: 0.6615268769028779
Training time: 2697.0
		
Iteration: 38
Labeled set size: 2740
Unlabelled set size: 7260
	
Mean region size: 78.63346153845869
Incorrectly Classified Instances: 32.58
Correctly Classified Instances: 67.42
Weighted Precision: 0.7607947143987431
Weighted AreaUnderROC: 0.9597520979276003
Root mean squared error: 0.18655504285482413
Relative absolute error: 96.36480000000137
Root relative squared error: 97.00862228451531
Weighted TruePositiveRate: 0.6742
Weighted MatthewsCorrelation: 0.6914384980013876
Weighted FMeasure: 0.6892007225007214
Iteration time: 3169.0
Weighted AreaUnderPRC: 0.6376685129081746
Mean absolute error: 0.07127573964496149
Coverage of cases: 99.71
Instances selection time: 440.0
Test time: 435.0
Accumulative iteration time: 113338.0
Weighted Recall: 0.6742
Weighted FalsePositiveRate: 0.01282675035783225
Kappa statistic: 0.6612156282041796
Training time: 2729.0
		
Iteration: 39
Labeled set size: 2760
Unlabelled set size: 7240
	
Mean region size: 78.6688461538435
Incorrectly Classified Instances: 32.5
Correctly Classified Instances: 67.5
Weighted Precision: 0.7599075203578486
Weighted AreaUnderROC: 0.9596808284223131
Root mean squared error: 0.186557197521834
Relative absolute error: 96.36627200000135
Root relative squared error: 97.00974271136046
Weighted TruePositiveRate: 0.675
Weighted MatthewsCorrelation: 0.6914760217625957
Weighted FMeasure: 0.6892628780691895
Iteration time: 3110.0
Weighted AreaUnderPRC: 0.6363242024234375
Mean absolute error: 0.07127682840235793
Coverage of cases: 99.7
Instances selection time: 432.0
Test time: 437.0
Accumulative iteration time: 116448.0
Weighted Recall: 0.675
Weighted FalsePositiveRate: 0.01279803005516052
Kappa statistic: 0.6620468505802853
Training time: 2678.0
		
Iteration: 40
Labeled set size: 2780
Unlabelled set size: 7220
	
Mean region size: 78.67307692307433
Incorrectly Classified Instances: 32.59
Correctly Classified Instances: 67.41
Weighted Precision: 0.7604965758275238
Weighted AreaUnderROC: 0.9596844770790036
Root mean squared error: 0.18655942418662377
Relative absolute error: 96.36752000000139
Root relative squared error: 97.01090057705113
Weighted TruePositiveRate: 0.6741
Weighted MatthewsCorrelation: 0.6907047120303931
Weighted FMeasure: 0.6878832312300963
Iteration time: 3001.0
Weighted AreaUnderPRC: 0.6360418973071456
Mean absolute error: 0.07127775147928103
Coverage of cases: 99.7
Instances selection time: 429.0
Test time: 433.0
Accumulative iteration time: 119449.0
Weighted Recall: 0.6741
Weighted FalsePositiveRate: 0.012830585310945667
Kappa statistic: 0.6611119176903968
Training time: 2572.0
		
Iteration: 41
Labeled set size: 2800
Unlabelled set size: 7200
	
Mean region size: 78.66807692307427
Incorrectly Classified Instances: 32.72
Correctly Classified Instances: 67.28
Weighted Precision: 0.7602052772437166
Weighted AreaUnderROC: 0.959365738227285
Root mean squared error: 0.18656306802874573
Relative absolute error: 96.36928000000128
Root relative squared error: 97.01279537495454
Weighted TruePositiveRate: 0.6728
Weighted MatthewsCorrelation: 0.6897028540513845
Weighted FMeasure: 0.6866989819537165
Iteration time: 3006.0
Weighted AreaUnderPRC: 0.6349023874707048
Mean absolute error: 0.07127905325442889
Coverage of cases: 99.7
Instances selection time: 429.0
Test time: 434.0
Accumulative iteration time: 122455.0
Weighted Recall: 0.6728
Weighted FalsePositiveRate: 0.012880432567386395
Kappa statistic: 0.6597614815682126
Training time: 2577.0
		
Iteration: 42
Labeled set size: 2820
Unlabelled set size: 7180
	
Mean region size: 78.67384615384344
Incorrectly Classified Instances: 32.73
Correctly Classified Instances: 67.27
Weighted Precision: 0.7601325044866171
Weighted AreaUnderROC: 0.9593880752762574
Root mean squared error: 0.18656504440613933
Relative absolute error: 96.37020800000127
Root relative squared error: 97.01382309119923
Weighted TruePositiveRate: 0.6727
Weighted MatthewsCorrelation: 0.6893518993872961
Weighted FMeasure: 0.686140178074887
Iteration time: 2981.0
Weighted AreaUnderPRC: 0.6343395708489303
Mean absolute error: 0.07127973964496141
Coverage of cases: 99.7
Instances selection time: 429.0
Test time: 436.0
Accumulative iteration time: 125436.0
Weighted Recall: 0.6727
Weighted FalsePositiveRate: 0.012886294054462899
Kappa statistic: 0.6596564951375956
Training time: 2552.0
		
Iteration: 43
Labeled set size: 2840
Unlabelled set size: 7160
	
Mean region size: 78.66846153845881
Incorrectly Classified Instances: 32.78
Correctly Classified Instances: 67.22
Weighted Precision: 0.7585086532911156
Weighted AreaUnderROC: 0.9593531783753695
Root mean squared error: 0.1865660458589813
Relative absolute error: 96.37068800000124
Root relative squared error: 97.01434384667705
Weighted TruePositiveRate: 0.6722
Weighted MatthewsCorrelation: 0.6883827886307902
Weighted FMeasure: 0.6853089279748543
Iteration time: 3013.0
Weighted AreaUnderPRC: 0.6334147725757424
Mean absolute error: 0.0712800946745472
Coverage of cases: 99.7
Instances selection time: 429.0
Test time: 434.0
Accumulative iteration time: 128449.0
Weighted Recall: 0.6722
Weighted FalsePositiveRate: 0.012906186304779802
Kappa statistic: 0.6591358815917497
Training time: 2584.0
		
Iteration: 44
Labeled set size: 2860
Unlabelled set size: 7140
	
Mean region size: 78.67230769230497
Incorrectly Classified Instances: 32.89
Correctly Classified Instances: 67.11
Weighted Precision: 0.7582717493628672
Weighted AreaUnderROC: 0.9595270329611761
Root mean squared error: 0.1865676369302821
Relative absolute error: 96.37148800000142
Root relative squared error: 97.01517120375347
Weighted TruePositiveRate: 0.6711
Weighted MatthewsCorrelation: 0.6873428504072486
Weighted FMeasure: 0.6839987503372051
Iteration time: 3045.0
Weighted AreaUnderPRC: 0.6339077076693223
Mean absolute error: 0.07128068639052366
Coverage of cases: 99.7
Instances selection time: 426.0
Test time: 445.0
Accumulative iteration time: 131494.0
Weighted Recall: 0.6711
Weighted FalsePositiveRate: 0.012948796034759581
Kappa statistic: 0.6579921880798808
Training time: 2619.0
		
Iteration: 45
Labeled set size: 2880
Unlabelled set size: 7120
	
Mean region size: 78.67769230768964
Incorrectly Classified Instances: 32.81
Correctly Classified Instances: 67.19
Weighted Precision: 0.7598015226209164
Weighted AreaUnderROC: 0.9592109733189156
Root mean squared error: 0.18657032817542182
Relative absolute error: 96.37292800000145
Root relative squared error: 97.01657065122612
Weighted TruePositiveRate: 0.6719
Weighted MatthewsCorrelation: 0.6886329421862217
Weighted FMeasure: 0.6852787978546819
Iteration time: 3099.0
Weighted AreaUnderPRC: 0.6335541803129761
Mean absolute error: 0.07128175147928108
Coverage of cases: 99.7
Instances selection time: 424.0
Test time: 433.0
Accumulative iteration time: 134593.0
Weighted Recall: 0.6719
Weighted FalsePositiveRate: 0.012918066566690228
Kappa statistic: 0.6588241240855309
Training time: 2675.0
		
Iteration: 46
Labeled set size: 2900
Unlabelled set size: 7100
	
Mean region size: 78.68038461538193
Incorrectly Classified Instances: 32.93
Correctly Classified Instances: 67.07
Weighted Precision: 0.7594337456844088
Weighted AreaUnderROC: 0.9593668750543789
Root mean squared error: 0.18657191960054403
Relative absolute error: 96.37366400000151
Root relative squared error: 97.01739819228968
Weighted TruePositiveRate: 0.6707
Weighted MatthewsCorrelation: 0.6874516014941028
Weighted FMeasure: 0.6838294374261032
Iteration time: 3111.0
Weighted AreaUnderPRC: 0.63378356643558
Mean absolute error: 0.07128229585797935
Coverage of cases: 99.7
Instances selection time: 423.0
Test time: 432.0
Accumulative iteration time: 137704.0
Weighted Recall: 0.6707
Weighted FalsePositiveRate: 0.012963241883226999
Kappa statistic: 0.6575767345009617
Training time: 2688.0
		
Time end:Tue Oct 31 17.57.32 EET 2017