Tue Oct 31 19.26.49 EET 2017
Dataset: letter
Test set size: 10000
Initial Labelled set size: 2000
Initial Unlabelled set size: 8000
Batch mode: QBestBatchMode
Batch size: 20
Classifiers: IBk-1cores
Scenario: PoolBasedSamplingScenario
Query strategy: KullbackLeiblerDivergenceQueryStrategy-1cores
Time begining: Tue Oct 31 19.26.49 EET 2017
		
Iteration: 1
Labeled set size: 2000
Unlabelled set size: 8000
	
Mean region size: 3.871923076923588
Incorrectly Classified Instances: 15.39
Correctly Classified Instances: 84.61
Weighted Precision: 0.8483299056942173
Weighted AreaUnderROC: 0.9231468926571003
Root mean squared error: 0.1074201875887421
Relative absolute error: 17.009638062261054
Root relative squared error: 55.85849754614979
Weighted TruePositiveRate: 0.8461
Weighted MatthewsCorrelation: 0.840572778771939
Weighted FMeasure: 0.8461330132052737
Iteration time: 7250.0
Weighted AreaUnderPRC: 0.735817702137588
Mean absolute error: 0.012581093241315594
Coverage of cases: 84.9
Instances selection time: 7249.0
Test time: 4654.0
Accumulative iteration time: 7250.0
Weighted Recall: 0.8461
Weighted FalsePositiveRate: 0.006155912538349518
Kappa statistic: 0.8399366652577487
Training time: 1.0
		
Iteration: 2
Labeled set size: 2020
Unlabelled set size: 7980
	
Mean region size: 3.871923076923588
Incorrectly Classified Instances: 15.37
Correctly Classified Instances: 84.63
Weighted Precision: 0.8486458845075445
Weighted AreaUnderROC: 0.9232513792182307
Root mean squared error: 0.107355601058371
Relative absolute error: 16.978782336749088
Root relative squared error: 55.82491255035682
Weighted TruePositiveRate: 0.8463
Weighted MatthewsCorrelation: 0.8408281983194925
Weighted FMeasure: 0.8463681918448478
Iteration time: 7326.0
Weighted AreaUnderPRC: 0.7361855541081073
Mean absolute error: 0.012558270959132192
Coverage of cases: 84.92
Instances selection time: 7325.0
Test time: 4684.0
Accumulative iteration time: 14576.0
Weighted Recall: 0.8463
Weighted FalsePositiveRate: 0.0061482279627391705
Kappa statistic: 0.8401446182621243
Training time: 1.0
		
Iteration: 3
Labeled set size: 2040
Unlabelled set size: 7960
	
Mean region size: 3.871923076923588
Incorrectly Classified Instances: 15.38
Correctly Classified Instances: 84.62
Weighted Precision: 0.8490444841848029
Weighted AreaUnderROC: 0.9232001012778926
Root mean squared error: 0.10739698412216696
Relative absolute error: 16.978991208934623
Root relative squared error: 55.846431743530715
Weighted TruePositiveRate: 0.8462
Weighted MatthewsCorrelation: 0.8408714296200634
Weighted FMeasure: 0.8462963095839027
Iteration time: 7392.0
Weighted AreaUnderPRC: 0.7361889381822976
Mean absolute error: 0.01255842545039368
Coverage of cases: 84.91
Instances selection time: 7391.0
Test time: 4718.0
Accumulative iteration time: 21968.0
Weighted Recall: 0.8462
Weighted FalsePositiveRate: 0.006153148193535326
Kappa statistic: 0.8400406666963565
Training time: 1.0
		
Iteration: 4
Labeled set size: 2060
Unlabelled set size: 7940
	
Mean region size: 3.871923076923588
Incorrectly Classified Instances: 15.44
Correctly Classified Instances: 84.56
Weighted Precision: 0.8490059905695896
Weighted AreaUnderROC: 0.9229189956479026
Root mean squared error: 0.10761486302240278
Relative absolute error: 17.030623543709765
Root relative squared error: 55.95972877165335
Weighted TruePositiveRate: 0.8456
Weighted MatthewsCorrelation: 0.8404306333854463
Weighted FMeasure: 0.8457624193195298
Iteration time: 7411.0
Weighted AreaUnderPRC: 0.7355136564690598
Mean absolute error: 0.012596615047120853
Coverage of cases: 84.85
Instances selection time: 7410.0
Test time: 4759.0
Accumulative iteration time: 29379.0
Weighted Recall: 0.8456
Weighted FalsePositiveRate: 0.00617701950685765
Kappa statistic: 0.839416721595023
Training time: 1.0
		
Iteration: 5
Labeled set size: 2080
Unlabelled set size: 7920
	
Mean region size: 3.8711538461543578
Incorrectly Classified Instances: 15.36
Correctly Classified Instances: 84.64
Weighted Precision: 0.8500642486313189
Weighted AreaUnderROC: 0.9233071968169873
Root mean squared error: 0.10733802710094048
Relative absolute error: 16.93328803862211
Root relative squared error: 55.815774092492944
Weighted TruePositiveRate: 0.8464
Weighted MatthewsCorrelation: 0.8413253381776631
Weighted FMeasure: 0.8465443101630206
Iteration time: 7449.0
Weighted AreaUnderPRC: 0.7368391374754925
Mean absolute error: 0.01252462133034005
Coverage of cases: 84.93
Instances selection time: 7448.0
Test time: 5166.0
Accumulative iteration time: 36828.0
Weighted Recall: 0.8464
Weighted FalsePositiveRate: 0.00614470298270932
Kappa statistic: 0.8402488274279535
Training time: 1.0
		
Iteration: 6
Labeled set size: 2100
Unlabelled set size: 7900
	
Mean region size: 3.8711538461543578
Incorrectly Classified Instances: 15.39
Correctly Classified Instances: 84.61
Weighted Precision: 0.8499990482229912
Weighted AreaUnderROC: 0.9232636714169054
Root mean squared error: 0.10743204909225412
Relative absolute error: 16.949382663097218
Root relative squared error: 55.864665527976044
Weighted TruePositiveRate: 0.8461
Weighted MatthewsCorrelation: 0.8410786673609698
Weighted FMeasure: 0.8462482388367792
Iteration time: 7856.0
Weighted AreaUnderPRC: 0.736510893470865
Mean absolute error: 0.01253652563838377
Coverage of cases: 84.91
Instances selection time: 7855.0
Test time: 4851.0
Accumulative iteration time: 44684.0
Weighted Recall: 0.8461
Weighted FalsePositiveRate: 0.006157223706456901
Kappa statistic: 0.8399368700198876
Training time: 1.0
		
Iteration: 7
Labeled set size: 2120
Unlabelled set size: 7880
	
Mean region size: 3.8711538461543578
Incorrectly Classified Instances: 15.38
Correctly Classified Instances: 84.62
Weighted Precision: 0.8502708195170495
Weighted AreaUnderROC: 0.9232686794628416
Root mean squared error: 0.1074024853604608
Relative absolute error: 16.929796867742144
Root relative squared error: 55.84929238744351
Weighted TruePositiveRate: 0.8462
Weighted MatthewsCorrelation: 0.8412362597010115
Weighted FMeasure: 0.8463623130761698
Iteration time: 7537.0
Weighted AreaUnderPRC: 0.7367026132036251
Mean absolute error: 0.01252203910335783
Coverage of cases: 84.92
Instances selection time: 7536.0
Test time: 4857.0
Accumulative iteration time: 52221.0
Weighted Recall: 0.8462
Weighted FalsePositiveRate: 0.006153174989024927
Kappa statistic: 0.8400408846346467
Training time: 1.0
		
Iteration: 8
Labeled set size: 2140
Unlabelled set size: 7860
	
Mean region size: 3.8711538461543578
Incorrectly Classified Instances: 15.38
Correctly Classified Instances: 84.62
Weighted Precision: 0.8503013451853085
Weighted AreaUnderROC: 0.9233214838257123
Root mean squared error: 0.10740776175395031
Relative absolute error: 16.920591470098092
Root relative squared error: 55.85203611205806
Weighted TruePositiveRate: 0.8462
Weighted MatthewsCorrelation: 0.8412411877455177
Weighted FMeasure: 0.8463547838037104
Iteration time: 7606.0
Weighted AreaUnderPRC: 0.7367671201580205
Mean absolute error: 0.012515230377289743
Coverage of cases: 84.92
Instances selection time: 7605.0
Test time: 4930.0
Accumulative iteration time: 59827.0
Weighted Recall: 0.8462
Weighted FalsePositiveRate: 0.006153066640117523
Kappa statistic: 0.8400409228985599
Training time: 1.0
		
Iteration: 9
Labeled set size: 2160
Unlabelled set size: 7840
	
Mean region size: 3.8711538461543578
Incorrectly Classified Instances: 15.4
Correctly Classified Instances: 84.6
Weighted Precision: 0.8503014716722189
Weighted AreaUnderROC: 0.9232059999463319
Root mean squared error: 0.10748389978085755
Relative absolute error: 16.932286848392856
Root relative squared error: 55.89162788604983
Weighted TruePositiveRate: 0.846
Weighted MatthewsCorrelation: 0.8411045407140644
Weighted FMeasure: 0.8461913573478771
Iteration time: 7615.0
Weighted AreaUnderPRC: 0.7365097175286662
Mean absolute error: 0.012523880805022555
Coverage of cases: 84.9
Instances selection time: 7614.0
Test time: 4950.0
Accumulative iteration time: 67442.0
Weighted Recall: 0.846
Weighted FalsePositiveRate: 0.006160793086352206
Kappa statistic: 0.8398330253048532
Training time: 1.0
		
Iteration: 10
Labeled set size: 2180
Unlabelled set size: 7820
	
Mean region size: 3.8711538461543578
Incorrectly Classified Instances: 15.41
Correctly Classified Instances: 84.59
Weighted Precision: 0.8504842366626543
Weighted AreaUnderROC: 0.9231806199338493
Root mean squared error: 0.10752475268209694
Relative absolute error: 16.933286463697133
Root relative squared error: 55.91287139469431
Weighted TruePositiveRate: 0.8459
Weighted MatthewsCorrelation: 0.8410890170410137
Weighted FMeasure: 0.8461164407479391
Iteration time: 7670.0
Weighted AreaUnderPRC: 0.7365730584442772
Mean absolute error: 0.012524620165454714
Coverage of cases: 84.89
Instances selection time: 7669.0
Test time: 4983.0
Accumulative iteration time: 75112.0
Weighted Recall: 0.8459
Weighted FalsePositiveRate: 0.006165261325067797
Kappa statistic: 0.8397289824373334
Training time: 1.0
		
Iteration: 11
Labeled set size: 2200
Unlabelled set size: 7800
	
Mean region size: 3.8715384615389734
Incorrectly Classified Instances: 15.42
Correctly Classified Instances: 84.58
Weighted Precision: 0.8506179841008165
Weighted AreaUnderROC: 0.923065129750057
Root mean squared error: 0.10755668746548283
Relative absolute error: 16.935093608394713
Root relative squared error: 55.92947748205498
Weighted TruePositiveRate: 0.8458
Weighted MatthewsCorrelation: 0.8410657772199737
Weighted FMeasure: 0.8460529370104543
Iteration time: 7737.0
Weighted AreaUnderPRC: 0.7365113178855373
Mean absolute error: 0.01252595681094109
Coverage of cases: 84.88
Instances selection time: 7736.0
Test time: 4995.0
Accumulative iteration time: 82849.0
Weighted Recall: 0.8458
Weighted FalsePositiveRate: 0.0061693836101895305
Kappa statistic: 0.839624966207618
Training time: 1.0
		
Iteration: 12
Labeled set size: 2220
Unlabelled set size: 7780
	
Mean region size: 3.8715384615389734
Incorrectly Classified Instances: 15.44
Correctly Classified Instances: 84.56
Weighted Precision: 0.8507268618911276
Weighted AreaUnderROC: 0.922957841729908
Root mean squared error: 0.10763247724746496
Relative absolute error: 16.94721604939784
Root relative squared error: 55.96888816868568
Weighted TruePositiveRate: 0.8456
Weighted MatthewsCorrelation: 0.8409591002545014
Weighted FMeasure: 0.8458902723227762
Iteration time: 7750.0
Weighted AreaUnderPRC: 0.7363235331423529
Mean absolute error: 0.012534923113458194
Coverage of cases: 84.86
Instances selection time: 7749.0
Test time: 5068.0
Accumulative iteration time: 90599.0
Weighted Recall: 0.8456
Weighted FalsePositiveRate: 0.00617788817772365
Kappa statistic: 0.8394168819284751
Training time: 1.0
		
Iteration: 13
Labeled set size: 2240
Unlabelled set size: 7760
	
Mean region size: 3.8715384615389734
Incorrectly Classified Instances: 15.47
Correctly Classified Instances: 84.53
Weighted Precision: 0.8505507780790779
Weighted AreaUnderROC: 0.9227923346493628
Root mean squared error: 0.10774343690408264
Relative absolute error: 16.96984856761368
Root relative squared error: 56.02658719012688
Weighted TruePositiveRate: 0.8453
Weighted MatthewsCorrelation: 0.8406857633726933
Weighted FMeasure: 0.8456013704480511
Iteration time: 7765.0
Weighted AreaUnderPRC: 0.7358306622126292
Mean absolute error: 0.012551663141724345
Coverage of cases: 84.83
Instances selection time: 7764.0
Test time: 5064.0
Accumulative iteration time: 98364.0
Weighted Recall: 0.8453
Weighted FalsePositiveRate: 0.00618999804039531
Kappa statistic: 0.8391049199728985
Training time: 1.0
		
Iteration: 14
Labeled set size: 2260
Unlabelled set size: 7740
	
Mean region size: 3.8715384615389734
Incorrectly Classified Instances: 15.49
Correctly Classified Instances: 84.51
Weighted Precision: 0.850671912636182
Weighted AreaUnderROC: 0.9227111763245266
Root mean squared error: 0.10781895128556838
Relative absolute error: 16.982104154938426
Root relative squared error: 56.065854668499476
Weighted TruePositiveRate: 0.8451
Weighted MatthewsCorrelation: 0.8405869339363048
Weighted FMeasure: 0.8454479916436317
Iteration time: 8148.0
Weighted AreaUnderPRC: 0.7357287438218398
Mean absolute error: 0.012560727925248566
Coverage of cases: 84.81
Instances selection time: 8146.0
Test time: 5112.0
Accumulative iteration time: 106512.0
Weighted Recall: 0.8451
Weighted FalsePositiveRate: 0.006198308902190062
Kappa statistic: 0.8388968471488959
Training time: 2.0
		
Iteration: 15
Labeled set size: 2280
Unlabelled set size: 7720
	
Mean region size: 3.8723076923082043
Incorrectly Classified Instances: 15.52
Correctly Classified Instances: 84.48
Weighted Precision: 0.850815691146863
Weighted AreaUnderROC: 0.9226838920994078
Root mean squared error: 0.10789424492935074
Relative absolute error: 16.999620186569768
Root relative squared error: 56.105007363266296
Weighted TruePositiveRate: 0.8448
Weighted MatthewsCorrelation: 0.8404297986327356
Weighted FMeasure: 0.8452212736361054
Iteration time: 7864.0
Weighted AreaUnderPRC: 0.735808474335735
Mean absolute error: 0.0125736835699463
Coverage of cases: 84.79
Instances selection time: 7863.0
Test time: 5160.0
Accumulative iteration time: 114376.0
Weighted Recall: 0.8448
Weighted FalsePositiveRate: 0.00621041784613978
Kappa statistic: 0.8385848668715689
Training time: 1.0
		
Iteration: 16
Labeled set size: 2300
Unlabelled set size: 7700
	
Mean region size: 3.8723076923082043
Incorrectly Classified Instances: 15.51
Correctly Classified Instances: 84.49
Weighted Precision: 0.850940273190047
Weighted AreaUnderROC: 0.9226979676929341
Root mean squared error: 0.10786399257942621
Relative absolute error: 16.981375700786362
Root relative squared error: 56.08927614130555
Weighted TruePositiveRate: 0.8449
Weighted MatthewsCorrelation: 0.8405341714304532
Weighted FMeasure: 0.8453070873434694
Iteration time: 7911.0
Weighted AreaUnderPRC: 0.7359228816845305
Mean absolute error: 0.012560189127798813
Coverage of cases: 84.8
Instances selection time: 7910.0
Test time: 5195.0
Accumulative iteration time: 122287.0
Weighted Recall: 0.8449
Weighted FalsePositiveRate: 0.006206499676823364
Kappa statistic: 0.838688869789947
Training time: 1.0
		
Iteration: 17
Labeled set size: 2320
Unlabelled set size: 7680
	
Mean region size: 3.873076923077435
Incorrectly Classified Instances: 15.37
Correctly Classified Instances: 84.63
Weighted Precision: 0.8517886119665725
Weighted AreaUnderROC: 0.9234377872435044
Root mean squared error: 0.10733860123946663
Relative absolute error: 16.824502546615744
Root relative squared error: 55.81607264452654
Weighted TruePositiveRate: 0.8463
Weighted MatthewsCorrelation: 0.8418546573169969
Weighted FMeasure: 0.8467363645856464
Iteration time: 7953.0
Weighted AreaUnderPRC: 0.7381699942607233
Mean absolute error: 0.012444158688323518
Coverage of cases: 84.95
Instances selection time: 7952.0
Test time: 5215.0
Accumulative iteration time: 130240.0
Weighted Recall: 0.8463
Weighted FalsePositiveRate: 0.0061504417529409895
Kappa statistic: 0.8401444786058918
Training time: 1.0
		
Iteration: 18
Labeled set size: 2340
Unlabelled set size: 7660
	
Mean region size: 3.874230769231281
Incorrectly Classified Instances: 15.24
Correctly Classified Instances: 84.76
Weighted Precision: 0.8525440470981291
Weighted AreaUnderROC: 0.9242427004189436
Root mean squared error: 0.10686756699897769
Relative absolute error: 16.686401663042048
Root relative squared error: 55.57113483947228
Weighted TruePositiveRate: 0.8476
Weighted MatthewsCorrelation: 0.8430374587735556
Weighted FMeasure: 0.8479890614917964
Iteration time: 7995.0
Weighted AreaUnderPRC: 0.7402587724575462
Mean absolute error: 0.012342013064378494
Coverage of cases: 85.09
Instances selection time: 7994.0
Test time: 5265.0
Accumulative iteration time: 138235.0
Weighted Recall: 0.8476
Weighted FalsePositiveRate: 0.00609822534720487
Kappa statistic: 0.8414962026275936
Training time: 1.0
		
Iteration: 19
Labeled set size: 2360
Unlabelled set size: 7640
	
Mean region size: 3.8734615384620503
Incorrectly Classified Instances: 15.09
Correctly Classified Instances: 84.91
Weighted Precision: 0.8534253165068161
Weighted AreaUnderROC: 0.9249542233259376
Root mean squared error: 0.10635931113663366
Relative absolute error: 16.52640288829845
Root relative squared error: 55.306841791053365
Weighted TruePositiveRate: 0.8491
Weighted MatthewsCorrelation: 0.8443810034816653
Weighted FMeasure: 0.8493826686686076
Iteration time: 8327.0
Weighted AreaUnderPRC: 0.742321964413538
Mean absolute error: 0.012223670775366973
Coverage of cases: 85.23
Instances selection time: 8326.0
Test time: 5710.0
Accumulative iteration time: 146562.0
Weighted Recall: 0.8491
Weighted FalsePositiveRate: 0.0060376760338465675
Kappa statistic: 0.8430559610752157
Training time: 1.0
		
Iteration: 20
Labeled set size: 2380
Unlabelled set size: 7620
	
Mean region size: 3.873076923077435
Incorrectly Classified Instances: 15.1
Correctly Classified Instances: 84.9
Weighted Precision: 0.8532148004776496
Weighted AreaUnderROC: 0.924878236833989
Root mean squared error: 0.10642621205885953
Relative absolute error: 16.534198992650456
Root relative squared error: 55.34163027061082
Weighted TruePositiveRate: 0.849
Weighted MatthewsCorrelation: 0.8442380967802372
Weighted FMeasure: 0.8492637887269157
Iteration time: 8063.0
Weighted AreaUnderPRC: 0.741974550198974
Mean absolute error: 0.012229437124739758
Coverage of cases: 85.21
Instances selection time: 8062.0
Test time: 5348.0
Accumulative iteration time: 154625.0
Weighted Recall: 0.849
Weighted FalsePositiveRate: 0.006042211172698137
Kappa statistic: 0.842951847944523
Training time: 1.0
		
Iteration: 21
Labeled set size: 2400
Unlabelled set size: 7600
	
Mean region size: 3.873076923077435
Incorrectly Classified Instances: 15.01
Correctly Classified Instances: 84.99
Weighted Precision: 0.8534864648001469
Weighted AreaUnderROC: 0.9253426061270813
Root mean squared error: 0.10610832446095496
Relative absolute error: 16.434139699551036
Root relative squared error: 55.17632871970043
Weighted TruePositiveRate: 0.8499
Weighted MatthewsCorrelation: 0.8449322824647965
Weighted FMeasure: 0.850009382503694
Iteration time: 8071.0
Weighted AreaUnderPRC: 0.743144227572285
Mean absolute error: 0.01215542877185558
Coverage of cases: 85.3
Instances selection time: 8070.0
Test time: 5356.0
Accumulative iteration time: 162696.0
Weighted Recall: 0.8499
Weighted FalsePositiveRate: 0.006007668210148072
Kappa statistic: 0.8438872665541303
Training time: 1.0
		
Iteration: 22
Labeled set size: 2420
Unlabelled set size: 7580
	
Mean region size: 3.873076923077435
Incorrectly Classified Instances: 14.98
Correctly Classified Instances: 85.02
Weighted Precision: 0.8536686577659015
Weighted AreaUnderROC: 0.9254976182543478
Root mean squared error: 0.10600496014619318
Relative absolute error: 16.39602848137085
Root relative squared error: 55.1225792760243
Weighted TruePositiveRate: 0.8502
Weighted MatthewsCorrelation: 0.8451969130942169
Weighted FMeasure: 0.8502759536318355
Iteration time: 8154.0
Weighted AreaUnderPRC: 0.743570719654141
Mean absolute error: 0.012127240001012252
Coverage of cases: 85.33
Instances selection time: 8152.0
Test time: 5402.0
Accumulative iteration time: 170850.0
Weighted Recall: 0.8502
Weighted FalsePositiveRate: 0.005996013223788134
Kappa statistic: 0.8441991527554087
Training time: 2.0
		
Iteration: 23
Labeled set size: 2440
Unlabelled set size: 7560
	
Mean region size: 3.873076923077435
Incorrectly Classified Instances: 14.96
Correctly Classified Instances: 85.04
Weighted Precision: 0.8537995593401365
Weighted AreaUnderROC: 0.9256190523625107
Root mean squared error: 0.10593733558537571
Relative absolute error: 16.368214853543872
Root relative squared error: 55.08741450439922
Weighted TruePositiveRate: 0.8504
Weighted MatthewsCorrelation: 0.8453775766377705
Weighted FMeasure: 0.8504570415411923
Iteration time: 8172.0
Weighted AreaUnderPRC: 0.7438974281463936
Mean absolute error: 0.012106667791081058
Coverage of cases: 85.35
Instances selection time: 8171.0
Test time: 5448.0
Accumulative iteration time: 179022.0
Weighted Recall: 0.8504
Weighted FalsePositiveRate: 0.005987939982007027
Kappa statistic: 0.844407122492781
Training time: 1.0
		
Iteration: 24
Labeled set size: 2460
Unlabelled set size: 7540
	
Mean region size: 3.873846153846666
Incorrectly Classified Instances: 14.94
Correctly Classified Instances: 85.06
Weighted Precision: 0.8539306127154952
Weighted AreaUnderROC: 0.9256827361934192
Root mean squared error: 0.10586987576156269
Relative absolute error: 16.345792860399566
Root relative squared error: 55.05233539601644
Weighted TruePositiveRate: 0.8506
Weighted MatthewsCorrelation: 0.8455555079165606
Weighted FMeasure: 0.8506324559135388
Iteration time: 8204.0
Weighted AreaUnderPRC: 0.7442251829521788
Mean absolute error: 0.012090083476625213
Coverage of cases: 85.37
Instances selection time: 8203.0
Test time: 5469.0
Accumulative iteration time: 187226.0
Weighted Recall: 0.8506
Weighted FalsePositiveRate: 0.005980224259304415
Kappa statistic: 0.8446150390114538
Training time: 1.0
		
Iteration: 25
Labeled set size: 2480
Unlabelled set size: 7520
	
Mean region size: 3.873846153846666
Incorrectly Classified Instances: 14.92
Correctly Classified Instances: 85.08
Weighted Precision: 0.8540638409782864
Weighted AreaUnderROC: 0.9258272452240861
Root mean squared error: 0.10580200514312565
Relative absolute error: 16.318046798959916
Root relative squared error: 55.01704267442918
Weighted TruePositiveRate: 0.8508
Weighted MatthewsCorrelation: 0.8457365710318896
Weighted FMeasure: 0.8508130086260158
Iteration time: 8241.0
Weighted AreaUnderPRC: 0.7445926447310024
Mean absolute error: 0.012069561241832576
Coverage of cases: 85.39
Instances selection time: 8240.0
Test time: 5504.0
Accumulative iteration time: 195467.0
Weighted Recall: 0.8508
Weighted FalsePositiveRate: 0.005972151017523308
Kappa statistic: 0.8448230090451441
Training time: 1.0
		
Iteration: 26
Labeled set size: 2500
Unlabelled set size: 7500
	
Mean region size: 3.873846153846666
Incorrectly Classified Instances: 14.92
Correctly Classified Instances: 85.08
Weighted Precision: 0.854024074253156
Weighted AreaUnderROC: 0.9257965614032683
Root mean squared error: 0.10580600911668003
Relative absolute error: 16.311508612660827
Root relative squared error: 55.01912474067746
Weighted TruePositiveRate: 0.8508
Weighted MatthewsCorrelation: 0.8457189811295927
Weighted FMeasure: 0.8507984244013809
Iteration time: 8299.0
Weighted AreaUnderPRC: 0.7445150042329773
Mean absolute error: 0.012064725305220824
Coverage of cases: 85.39
Instances selection time: 8297.0
Test time: 5555.0
Accumulative iteration time: 203766.0
Weighted Recall: 0.8508
Weighted FalsePositiveRate: 0.005972291915124264
Kappa statistic: 0.844822989677931
Training time: 2.0
		
Iteration: 27
Labeled set size: 2520
Unlabelled set size: 7480
	
Mean region size: 3.873846153846666
Incorrectly Classified Instances: 14.92
Correctly Classified Instances: 85.08
Weighted Precision: 0.854003531738431
Weighted AreaUnderROC: 0.9257887533736378
Root mean squared error: 0.10580994806484419
Relative absolute error: 16.30492078416625
Root relative squared error: 55.02117299372282
Weighted TruePositiveRate: 0.8508
Weighted MatthewsCorrelation: 0.8457098589906347
Weighted FMeasure: 0.8507909189172851
Iteration time: 8306.0
Weighted AreaUnderPRC: 0.744479818538479
Mean absolute error: 0.01205985265100886
Coverage of cases: 85.39
Instances selection time: 8305.0
Test time: 5569.0
Accumulative iteration time: 212072.0
Weighted Recall: 0.8508
Weighted FalsePositiveRate: 0.005972486902680972
Kappa statistic: 0.8448229606271025
Training time: 1.0
		
Iteration: 28
Labeled set size: 2540
Unlabelled set size: 7460
	
Mean region size: 3.873846153846666
Incorrectly Classified Instances: 14.92
Correctly Classified Instances: 85.08
Weighted Precision: 0.854003531738431
Weighted AreaUnderROC: 0.9258041227660567
Root mean squared error: 0.1058138235571799
Relative absolute error: 16.29828445517264
Root relative squared error: 55.02318824973739
Weighted TruePositiveRate: 0.8508
Weighted MatthewsCorrelation: 0.8457098589906347
Weighted FMeasure: 0.8507909189172851
Iteration time: 8378.0
Weighted AreaUnderPRC: 0.744505931624314
Mean absolute error: 0.012054944123646723
Coverage of cases: 85.39
Instances selection time: 8376.0
Test time: 5623.0
Accumulative iteration time: 220450.0
Weighted Recall: 0.8508
Weighted FalsePositiveRate: 0.005972486902680972
Kappa statistic: 0.8448229606271025
Training time: 2.0
		
Iteration: 29
Labeled set size: 2560
Unlabelled set size: 7440
	
Mean region size: 3.873846153846666
Incorrectly Classified Instances: 14.93
Correctly Classified Instances: 85.07
Weighted Precision: 0.8538949369342066
Weighted AreaUnderROC: 0.9257183526147157
Root mean squared error: 0.1058537982551991
Relative absolute error: 16.302098237058672
Root relative squared error: 55.04397509270737
Weighted TruePositiveRate: 0.8507
Weighted MatthewsCorrelation: 0.8456006322277771
Weighted FMeasure: 0.8506853913296726
Iteration time: 8380.0
Weighted AreaUnderPRC: 0.7442624698078929
Mean absolute error: 0.012057764968236984
Coverage of cases: 85.38
Instances selection time: 8379.0
Test time: 5644.0
Accumulative iteration time: 228830.0
Weighted Recall: 0.8507
Weighted FalsePositiveRate: 0.0059770655119182675
Kappa statistic: 0.844718857667464
Training time: 1.0
		
Iteration: 30
Labeled set size: 2580
Unlabelled set size: 7420
	
Mean region size: 3.873846153846666
Incorrectly Classified Instances: 14.93
Correctly Classified Instances: 85.07
Weighted Precision: 0.8538255188097984
Weighted AreaUnderROC: 0.9257621926677255
Root mean squared error: 0.10585738277718192
Relative absolute error: 16.295762546919057
Root relative squared error: 55.04583904413843
Weighted TruePositiveRate: 0.8507
Weighted MatthewsCorrelation: 0.8455604308451673
Weighted FMeasure: 0.8506397061676966
Iteration time: 8416.0
Weighted AreaUnderPRC: 0.7442976671387946
Mean absolute error: 0.012053078806891116
Coverage of cases: 85.38
Instances selection time: 8415.0
Test time: 5714.0
Accumulative iteration time: 237246.0
Weighted Recall: 0.8507
Weighted FalsePositiveRate: 0.005978289660531375
Kappa statistic: 0.84471855565833
Training time: 1.0
		
Iteration: 31
Labeled set size: 2600
Unlabelled set size: 7400
	
Mean region size: 3.8742307692312816
Incorrectly Classified Instances: 14.92
Correctly Classified Instances: 85.08
Weighted Precision: 0.8538609320275206
Weighted AreaUnderROC: 0.9257816560166188
Root mean squared error: 0.10583437412984278
Relative absolute error: 16.284289371722128
Root relative squared error: 55.03387454752209
Weighted TruePositiveRate: 0.8508
Weighted MatthewsCorrelation: 0.8456308018348655
Weighted FMeasure: 0.8507047960487338
Iteration time: 8452.0
Weighted AreaUnderPRC: 0.7443427192120114
Mean absolute error: 0.012044592730562024
Coverage of cases: 85.39
Instances selection time: 8450.0
Test time: 5713.0
Accumulative iteration time: 245698.0
Weighted Recall: 0.8508
Weighted FalsePositiveRate: 0.005975075850731401
Kappa statistic: 0.8448223634687714
Training time: 2.0
		
Iteration: 32
Labeled set size: 2620
Unlabelled set size: 7380
	
Mean region size: 3.8742307692312816
Incorrectly Classified Instances: 14.91
Correctly Classified Instances: 85.09
Weighted Precision: 0.8538918812080399
Weighted AreaUnderROC: 0.9258385735190339
Root mean squared error: 0.10580203583494414
Relative absolute error: 16.26780004768225
Root relative squared error: 55.017058634174795
Weighted TruePositiveRate: 0.8509
Weighted MatthewsCorrelation: 0.8457010783848815
Weighted FMeasure: 0.8507726506236272
Iteration time: 8506.0
Weighted AreaUnderPRC: 0.7444781367210258
Mean absolute error: 0.012032396484970403
Coverage of cases: 85.4
Instances selection time: 8504.0
Test time: 5756.0
Accumulative iteration time: 254204.0
Weighted Recall: 0.8509
Weighted FalsePositiveRate: 0.005971548673986272
Kappa statistic: 0.8449262747684253
Training time: 2.0
		
Iteration: 33
Labeled set size: 2640
Unlabelled set size: 7360
	
Mean region size: 3.874230769231281
Incorrectly Classified Instances: 14.84
Correctly Classified Instances: 85.16
Weighted Precision: 0.8550812894258643
Weighted AreaUnderROC: 0.9262703615952587
Root mean squared error: 0.10557078105137163
Relative absolute error: 16.194777403397634
Root relative squared error: 54.89680614671708
Weighted TruePositiveRate: 0.8516
Weighted MatthewsCorrelation: 0.846622753872011
Weighted FMeasure: 0.8516063354310268
Iteration time: 8501.0
Weighted AreaUnderPRC: 0.7459205156751291
Mean absolute error: 0.011978385653398947
Coverage of cases: 85.46
Instances selection time: 8499.0
Test time: 5803.0
Accumulative iteration time: 262705.0
Weighted Recall: 0.8516
Weighted FalsePositiveRate: 0.005941727117081393
Kappa statistic: 0.8456549368578924
Training time: 2.0
		
Iteration: 34
Labeled set size: 2660
Unlabelled set size: 7340
	
Mean region size: 3.875000000000513
Incorrectly Classified Instances: 14.94
Correctly Classified Instances: 85.06
Weighted Precision: 0.8548383423060504
Weighted AreaUnderROC: 0.9257293429723581
Root mean squared error: 0.10591703337745102
Relative absolute error: 16.291907398067956
Root relative squared error: 55.076857356278374
Weighted TruePositiveRate: 0.8506
Weighted MatthewsCorrelation: 0.8458811379849093
Weighted FMeasure: 0.8508060146783735
Iteration time: 8552.0
Weighted AreaUnderPRC: 0.7447597416129342
Mean absolute error: 0.0120502273654332
Coverage of cases: 85.37
Instances selection time: 8550.0
Test time: 5849.0
Accumulative iteration time: 271257.0
Weighted Recall: 0.8506
Weighted FalsePositiveRate: 0.005976507071484631
Kappa statistic: 0.8446161928959959
Training time: 2.0
		
Iteration: 35
Labeled set size: 2680
Unlabelled set size: 7320
	
Mean region size: 3.875000000000513
Incorrectly Classified Instances: 14.88
Correctly Classified Instances: 85.12
Weighted Precision: 0.8563271683668214
Weighted AreaUnderROC: 0.926124502010343
Root mean squared error: 0.1057222916466513
Relative absolute error: 16.229311879950256
Root relative squared error: 54.97559165626251
Weighted TruePositiveRate: 0.8512
Weighted MatthewsCorrelation: 0.846840885827509
Weighted FMeasure: 0.8516084871370861
Iteration time: 8606.0
Weighted AreaUnderPRC: 0.7461035079683167
Mean absolute error: 0.012003928905286978
Coverage of cases: 85.43
Instances selection time: 8605.0
Test time: 5852.0
Accumulative iteration time: 279863.0
Weighted Recall: 0.8512
Weighted FalsePositiveRate: 0.005948624116523842
Kappa statistic: 0.8452411497542527
Training time: 1.0
		
Iteration: 36
Labeled set size: 2700
Unlabelled set size: 7300
	
Mean region size: 3.8757692307697442
Incorrectly Classified Instances: 14.8
Correctly Classified Instances: 85.2
Weighted Precision: 0.8575051026683228
Weighted AreaUnderROC: 0.926554363270911
Root mean squared error: 0.10536523093696822
Relative absolute error: 16.125552444571756
Root relative squared error: 54.789920087227294
Weighted TruePositiveRate: 0.852
Weighted MatthewsCorrelation: 0.8477812641409828
Weighted FMeasure: 0.8524208202035527
Iteration time: 8645.0
Weighted AreaUnderPRC: 0.747715274107794
Mean absolute error: 0.011927183760776264
Coverage of cases: 85.53
Instances selection time: 8644.0
Test time: 5910.0
Accumulative iteration time: 288508.0
Weighted Recall: 0.852
Weighted FalsePositiveRate: 0.005915110650963441
Kappa statistic: 0.8460738301465485
Training time: 1.0
		
Iteration: 37
Labeled set size: 2720
Unlabelled set size: 7280
	
Mean region size: 3.8757692307697433
Incorrectly Classified Instances: 14.87
Correctly Classified Instances: 85.13
Weighted Precision: 0.8578261362833287
Weighted AreaUnderROC: 0.9261390254088098
Root mean squared error: 0.10560361776036327
Relative absolute error: 16.186734958684735
Root relative squared error: 54.913881235392736
Weighted TruePositiveRate: 0.8513
Weighted MatthewsCorrelation: 0.8474436512698427
Weighted FMeasure: 0.8519575130381656
Iteration time: 8625.0
Weighted AreaUnderPRC: 0.7474689797490102
Mean absolute error: 0.01197243709961722
Coverage of cases: 85.46
Instances selection time: 8624.0
Test time: 6145.0
Accumulative iteration time: 297133.0
Weighted Recall: 0.8513
Weighted FalsePositiveRate: 0.005937152957205173
Kappa statistic: 0.8453466100200524
Training time: 1.0
		
Iteration: 38
Labeled set size: 2740
Unlabelled set size: 7260
	
Mean region size: 3.876923076923591
Incorrectly Classified Instances: 14.93
Correctly Classified Instances: 85.07
Weighted Precision: 0.8580005784280663
Weighted AreaUnderROC: 0.9258803333226798
Root mean squared error: 0.10585044657130913
Relative absolute error: 16.25821897139053
Root relative squared error: 55.04223221708459
Weighted TruePositiveRate: 0.8507
Weighted MatthewsCorrelation: 0.8471037198002357
Weighted FMeasure: 0.8515146607081641
Iteration time: 8704.0
Weighted AreaUnderPRC: 0.7469875175291829
Mean absolute error: 0.012025309890080077
Coverage of cases: 85.4
Instances selection time: 8702.0
Test time: 5988.0
Accumulative iteration time: 305837.0
Weighted Recall: 0.8507
Weighted FalsePositiveRate: 0.005958942909369962
Kappa statistic: 0.8447230953615793
Training time: 2.0
		
Iteration: 39
Labeled set size: 2760
Unlabelled set size: 7240
	
Mean region size: 3.877307692308206
Incorrectly Classified Instances: 15.01
Correctly Classified Instances: 84.99
Weighted Precision: 0.8583119859487748
Weighted AreaUnderROC: 0.9254855073227966
Root mean squared error: 0.1061156263826156
Relative absolute error: 16.328293991136455
Root relative squared error: 55.180125718963964
Weighted TruePositiveRate: 0.8499
Weighted MatthewsCorrelation: 0.8467058636418969
Weighted FMeasure: 0.850994987993229
Iteration time: 9208.0
Weighted AreaUnderPRC: 0.7464640908627194
Mean absolute error: 0.01207714052598682
Coverage of cases: 85.33
Instances selection time: 9207.0
Test time: 6010.0
Accumulative iteration time: 315045.0
Weighted Recall: 0.8499
Weighted FalsePositiveRate: 0.005986234018520319
Kappa statistic: 0.8438917834546277
Training time: 1.0
		
Iteration: 40
Labeled set size: 2780
Unlabelled set size: 7220
	
Mean region size: 3.877692307692822
Incorrectly Classified Instances: 15.03
Correctly Classified Instances: 84.97
Weighted Precision: 0.8586800973723985
Weighted AreaUnderROC: 0.9254193873379399
Root mean squared error: 0.10619972858675052
Relative absolute error: 16.348410519154037
Root relative squared error: 55.223858865114124
Weighted TruePositiveRate: 0.8497
Weighted MatthewsCorrelation: 0.8467077564024647
Weighted FMeasure: 0.850914187446036
Iteration time: 8768.0
Weighted AreaUnderPRC: 0.7465504683968288
Mean absolute error: 0.012092019614757216
Coverage of cases: 85.31
Instances selection time: 8767.0
Test time: 6080.0
Accumulative iteration time: 323813.0
Weighted Recall: 0.8497
Weighted FalsePositiveRate: 0.005992816426355287
Kappa statistic: 0.8436841013564351
Training time: 1.0
		
Iteration: 41
Labeled set size: 2800
Unlabelled set size: 7200
	
Mean region size: 3.877692307692822
Incorrectly Classified Instances: 14.98
Correctly Classified Instances: 85.02
Weighted Precision: 0.8598665114275978
Weighted AreaUnderROC: 0.9255504760663059
Root mean squared error: 0.10600582381900057
Relative absolute error: 16.28630174244422
Root relative squared error: 55.12302838588415
Weighted TruePositiveRate: 0.8502
Weighted MatthewsCorrelation: 0.8474625435033782
Weighted FMeasure: 0.8515150377343361
Iteration time: 8784.0
Weighted AreaUnderPRC: 0.7476663654152885
Mean absolute error: 0.012046081170445228
Coverage of cases: 85.36
Instances selection time: 8783.0
Test time: 6088.0
Accumulative iteration time: 332597.0
Weighted Recall: 0.8502
Weighted FalsePositiveRate: 0.005969888220923066
Kappa statistic: 0.8442047624503275
Training time: 1.0
		
Iteration: 42
Labeled set size: 2820
Unlabelled set size: 7180
	
Mean region size: 3.877692307692822
Incorrectly Classified Instances: 15.02
Correctly Classified Instances: 84.98
Weighted Precision: 0.8597392823435044
Weighted AreaUnderROC: 0.9252641938926214
Root mean squared error: 0.10618875032282372
Relative absolute error: 16.332560325711952
Root relative squared error: 55.218150167872196
Weighted TruePositiveRate: 0.8498
Weighted MatthewsCorrelation: 0.8471602647788712
Weighted FMeasure: 0.8511992311290582
Iteration time: 9235.0
Weighted AreaUnderPRC: 0.7471132667256803
Mean absolute error: 0.01208029609889769
Coverage of cases: 85.31
Instances selection time: 9234.0
Test time: 6421.0
Accumulative iteration time: 341832.0
Weighted Recall: 0.8498
Weighted FalsePositiveRate: 0.005984782081507525
Kappa statistic: 0.8437889568839113
Training time: 1.0
		
Iteration: 43
Labeled set size: 2840
Unlabelled set size: 7160
	
Mean region size: 3.876923076923591
Incorrectly Classified Instances: 15.07
Correctly Classified Instances: 84.93
Weighted Precision: 0.8598178602357284
Weighted AreaUnderROC: 0.9247519033734963
Root mean squared error: 0.10635407207623666
Relative absolute error: 16.368570336723575
Root relative squared error: 55.304117479646926
Weighted TruePositiveRate: 0.8493
Weighted MatthewsCorrelation: 0.8468527180441381
Weighted FMeasure: 0.8508157405790562
Iteration time: 8868.0
Weighted AreaUnderPRC: 0.7465722244212667
Mean absolute error: 0.012106930722426993
Coverage of cases: 85.26
Instances selection time: 8866.0
Test time: 6142.0
Accumulative iteration time: 350700.0
Weighted Recall: 0.8493
Weighted FalsePositiveRate: 0.006002556388576657
Kappa statistic: 0.8432693640414722
Training time: 2.0
		
Iteration: 44
Labeled set size: 2860
Unlabelled set size: 7140
	
Mean region size: 3.876923076923591
Incorrectly Classified Instances: 15.09
Correctly Classified Instances: 84.91
Weighted Precision: 0.860525982211452
Weighted AreaUnderROC: 0.9245622937569468
Root mean squared error: 0.10650056337753136
Relative absolute error: 16.404411417114513
Root relative squared error: 55.380292956320176
Weighted TruePositiveRate: 0.8491
Weighted MatthewsCorrelation: 0.846968968698909
Weighted FMeasure: 0.8507788581084275
Iteration time: 8889.0
Weighted AreaUnderPRC: 0.7466468363506109
Mean absolute error: 0.012133440397272356
Coverage of cases: 85.22
Instances selection time: 8887.0
Test time: 6227.0
Accumulative iteration time: 359589.0
Weighted Recall: 0.8491
Weighted FalsePositiveRate: 0.006007204357391109
Kappa statistic: 0.8430619040603411
Training time: 2.0
		
Iteration: 45
Labeled set size: 2880
Unlabelled set size: 7120
	
Mean region size: 3.876538461538976
Incorrectly Classified Instances: 15.08
Correctly Classified Instances: 84.92
Weighted Precision: 0.861060629206404
Weighted AreaUnderROC: 0.9246627055101484
Root mean squared error: 0.1064777828716316
Relative absolute error: 16.388751288896735
Root relative squared error: 55.36844709325229
Weighted TruePositiveRate: 0.8492
Weighted MatthewsCorrelation: 0.847236907281656
Weighted FMeasure: 0.8509757476947353
Iteration time: 8894.0
Weighted AreaUnderPRC: 0.7471477363593977
Mean absolute error: 0.012121857462200038
Coverage of cases: 85.23
Instances selection time: 8893.0
Test time: 6233.0
Accumulative iteration time: 368483.0
Weighted Recall: 0.8492
Weighted FalsePositiveRate: 0.00600121118322052
Kappa statistic: 0.8431663197466832
Training time: 1.0
		
Iteration: 46
Labeled set size: 2900
Unlabelled set size: 7100
	
Mean region size: 3.876538461538976
Incorrectly Classified Instances: 15.09
Correctly Classified Instances: 84.91
Weighted Precision: 0.861427343913799
Weighted AreaUnderROC: 0.9246238508493363
Root mean squared error: 0.1065165817983405
Relative absolute error: 16.394028461418092
Root relative squared error: 55.38862253514093
Weighted TruePositiveRate: 0.8491
Weighted MatthewsCorrelation: 0.8473008304936218
Weighted FMeasure: 0.8509636843019205
Iteration time: 8975.0
Weighted AreaUnderPRC: 0.7472513424184726
Mean absolute error: 0.012125760696313466
Coverage of cases: 85.22
Instances selection time: 8974.0
Test time: 6282.0
Accumulative iteration time: 377458.0
Weighted Recall: 0.8491
Weighted FalsePositiveRate: 0.0060039946901560915
Kappa statistic: 0.8430625634574809
Training time: 1.0
		
Time end:Tue Oct 31 19.37.38 EET 2017