Wed Nov 01 02.39.10 EET 2017
Dataset: letter
Test set size: 10000
Initial Labelled set size: 2000
Initial Unlabelled set size: 8000
Batch mode: QBestBatchMode
Batch size: 20
Classifiers: J48-1cores
Scenario: PoolBasedSamplingScenario
Query strategy: RandomSelectionQueryStrategy-1cores
Time begining: Wed Nov 01 02.39.10 EET 2017
		
Iteration: 1
Labeled set size: 2000
Unlabelled set size: 8000
	
Mean region size: 5.979615384616103
Incorrectly Classified Instances: 28.1
Correctly Classified Instances: 71.9
Weighted Precision: 0.7212708470847505
Weighted AreaUnderROC: 0.882355224295878
Root mean squared error: 0.13721842804078532
Relative absolute error: 32.1448780804833
Root relative squared error: 71.35358258121335
Weighted TruePositiveRate: 0.719
Weighted MatthewsCorrelation: 0.7082933203486873
Weighted FMeasure: 0.7187617523670311
Iteration time: 262.0
Weighted AreaUnderPRC: 0.6168064104763086
Mean absolute error: 0.023775797396803862
Coverage of cases: 77.21
Instances selection time: 104.0
Test time: 177.0
Accumulative iteration time: 262.0
Weighted Recall: 0.719
Weighted FalsePositiveRate: 0.011225954167464483
Kappa statistic: 0.7077478813567475
Training time: 158.0
		
Iteration: 2
Labeled set size: 2020
Unlabelled set size: 7980
	
Mean region size: 5.828076923077633
Incorrectly Classified Instances: 27.97
Correctly Classified Instances: 72.03
Weighted Precision: 0.7231930405454836
Weighted AreaUnderROC: 0.8822475032404468
Root mean squared error: 0.13678423531750894
Relative absolute error: 31.85050500763556
Root relative squared error: 71.12780236510962
Weighted TruePositiveRate: 0.7203
Weighted MatthewsCorrelation: 0.7099509141757147
Weighted FMeasure: 0.72036849958309
Iteration time: 260.0
Weighted AreaUnderPRC: 0.6183303271235991
Mean absolute error: 0.02355806583404669
Coverage of cases: 77.21
Instances selection time: 100.0
Test time: 179.0
Accumulative iteration time: 522.0
Weighted Recall: 0.7203
Weighted FalsePositiveRate: 0.011181974729653009
Kappa statistic: 0.7090980131997532
Training time: 160.0
		
Iteration: 3
Labeled set size: 2040
Unlabelled set size: 7960
	
Mean region size: 5.603461538462228
Incorrectly Classified Instances: 28.19
Correctly Classified Instances: 71.81
Weighted Precision: 0.7225723785435343
Weighted AreaUnderROC: 0.880863193855723
Root mean squared error: 0.13741528146176074
Relative absolute error: 32.11045048081586
Root relative squared error: 71.45594636012058
Weighted TruePositiveRate: 0.7181
Weighted MatthewsCorrelation: 0.7084440587863562
Weighted FMeasure: 0.7189441718118437
Iteration time: 272.0
Weighted AreaUnderPRC: 0.6161868630825923
Mean absolute error: 0.02375033319586641
Coverage of cases: 76.74
Instances selection time: 111.0
Test time: 177.0
Accumulative iteration time: 794.0
Weighted Recall: 0.7181
Weighted FalsePositiveRate: 0.011266506078742829
Kappa statistic: 0.7068126445018967
Training time: 161.0
		
Iteration: 4
Labeled set size: 2060
Unlabelled set size: 7940
	
Mean region size: 5.585384615385274
Incorrectly Classified Instances: 28.17
Correctly Classified Instances: 71.83
Weighted Precision: 0.7235116601098712
Weighted AreaUnderROC: 0.8815373788982653
Root mean squared error: 0.13676358916448678
Relative absolute error: 31.868242118727803
Root relative squared error: 71.1170663655381
Weighted TruePositiveRate: 0.7183
Weighted MatthewsCorrelation: 0.7089785890326136
Weighted FMeasure: 0.7194215265756494
Iteration time: 266.0
Weighted AreaUnderPRC: 0.6200552044585262
Mean absolute error: 0.02357118499905574
Coverage of cases: 77.13
Instances selection time: 99.0
Test time: 177.0
Accumulative iteration time: 1060.0
Weighted Recall: 0.7183
Weighted FalsePositiveRate: 0.011255745230330832
Kappa statistic: 0.7070230536559665
Training time: 167.0
		
Iteration: 5
Labeled set size: 2080
Unlabelled set size: 7920
	
Mean region size: 5.728076923077576
Incorrectly Classified Instances: 27.91
Correctly Classified Instances: 72.09
Weighted Precision: 0.7256861652370779
Weighted AreaUnderROC: 0.8830121136546768
Root mean squared error: 0.13593113945951882
Relative absolute error: 31.69533388545626
Root relative squared error: 70.68419251895472
Weighted TruePositiveRate: 0.7209
Weighted MatthewsCorrelation: 0.7115172932142568
Weighted FMeasure: 0.721903784873725
Iteration time: 264.0
Weighted AreaUnderPRC: 0.624421213706015
Mean absolute error: 0.02344329429397326
Coverage of cases: 77.39
Instances selection time: 99.0
Test time: 184.0
Accumulative iteration time: 1324.0
Weighted Recall: 0.7209
Weighted FalsePositiveRate: 0.011141824200136694
Kappa statistic: 0.7097296298425646
Training time: 165.0
		
Iteration: 6
Labeled set size: 2100
Unlabelled set size: 7900
	
Mean region size: 5.636153846154441
Incorrectly Classified Instances: 28.31
Correctly Classified Instances: 71.69
Weighted Precision: 0.7198037139653151
Weighted AreaUnderROC: 0.8818068666919837
Root mean squared error: 0.13756912560196083
Relative absolute error: 31.937517756418906
Root relative squared error: 71.53594531302463
Weighted TruePositiveRate: 0.7169
Weighted MatthewsCorrelation: 0.7064742813653855
Weighted FMeasure: 0.717094778205441
Iteration time: 268.0
Weighted AreaUnderPRC: 0.615318533210906
Mean absolute error: 0.023622424376046194
Coverage of cases: 76.87
Instances selection time: 99.0
Test time: 177.0
Accumulative iteration time: 1592.0
Weighted Recall: 0.7169
Weighted FalsePositiveRate: 0.01131045883586624
Kappa statistic: 0.705564439988817
Training time: 169.0
		
Iteration: 7
Labeled set size: 2120
Unlabelled set size: 7880
	
Mean region size: 5.526153846154476
Incorrectly Classified Instances: 27.82
Correctly Classified Instances: 72.18
Weighted Precision: 0.7250477692541941
Weighted AreaUnderROC: 0.8817345212029413
Root mean squared error: 0.13733255649161435
Relative absolute error: 31.9327735759931
Root relative squared error: 71.41292937564445
Weighted TruePositiveRate: 0.7218
Weighted MatthewsCorrelation: 0.7118679258716623
Weighted FMeasure: 0.7224542733718856
Iteration time: 269.0
Weighted AreaUnderPRC: 0.6134944523652005
Mean absolute error: 0.023618915366855512
Coverage of cases: 76.76
Instances selection time: 98.0
Test time: 178.0
Accumulative iteration time: 1861.0
Weighted Recall: 0.7218
Weighted FalsePositiveRate: 0.01111426643346699
Kappa statistic: 0.710662975230993
Training time: 171.0
		
Iteration: 8
Labeled set size: 2140
Unlabelled set size: 7860
	
Mean region size: 5.590000000000673
Incorrectly Classified Instances: 27.49
Correctly Classified Instances: 72.51
Weighted Precision: 0.7295856764683027
Weighted AreaUnderROC: 0.8857276684810049
Root mean squared error: 0.13475722017986785
Relative absolute error: 31.072445052159647
Root relative squared error: 70.07375449353617
Weighted TruePositiveRate: 0.7251
Weighted MatthewsCorrelation: 0.7155113739509678
Weighted FMeasure: 0.7254704155423815
Iteration time: 271.0
Weighted AreaUnderPRC: 0.633301270335669
Mean absolute error: 0.02298257770129831
Coverage of cases: 77.65
Instances selection time: 98.0
Test time: 176.0
Accumulative iteration time: 2132.0
Weighted Recall: 0.7251
Weighted FalsePositiveRate: 0.010978525979259064
Kappa statistic: 0.7140977762516716
Training time: 173.0
		
Iteration: 9
Labeled set size: 2160
Unlabelled set size: 7840
	
Mean region size: 5.294615384616017
Incorrectly Classified Instances: 27.35
Correctly Classified Instances: 72.65
Weighted Precision: 0.7342180601810282
Weighted AreaUnderROC: 0.8870086253732364
Root mean squared error: 0.13441648268954423
Relative absolute error: 30.670562481409927
Root relative squared error: 69.89657099856788
Weighted TruePositiveRate: 0.7265
Weighted MatthewsCorrelation: 0.7182751214528083
Weighted FMeasure: 0.7278048910722202
Iteration time: 271.0
Weighted AreaUnderPRC: 0.6368608226767154
Mean absolute error: 0.022685327279146194
Coverage of cases: 77.64
Instances selection time: 97.0
Test time: 176.0
Accumulative iteration time: 2403.0
Weighted Recall: 0.7265
Weighted FalsePositiveRate: 0.0109198808489067
Kappa statistic: 0.7155546421872403
Training time: 174.0
		
Iteration: 10
Labeled set size: 2180
Unlabelled set size: 7820
	
Mean region size: 5.21115384615444
Incorrectly Classified Instances: 27.09
Correctly Classified Instances: 72.91
Weighted Precision: 0.737487146901454
Weighted AreaUnderROC: 0.8877899981936119
Root mean squared error: 0.13384911832793914
Relative absolute error: 30.394512184917332
Root relative squared error: 69.60154153053321
Weighted TruePositiveRate: 0.7291
Weighted MatthewsCorrelation: 0.7211065670891688
Weighted FMeasure: 0.7302804705017277
Iteration time: 272.0
Weighted AreaUnderPRC: 0.6378219054371094
Mean absolute error: 0.022481148065764126
Coverage of cases: 77.77
Instances selection time: 97.0
Test time: 177.0
Accumulative iteration time: 2675.0
Weighted Recall: 0.7291
Weighted FalsePositiveRate: 0.010815152766914728
Kappa statistic: 0.7182583121988066
Training time: 175.0
		
Iteration: 11
Labeled set size: 2200
Unlabelled set size: 7800
	
Mean region size: 5.423461538462186
Incorrectly Classified Instances: 27.86
Correctly Classified Instances: 72.14
Weighted Precision: 0.7273403154154288
Weighted AreaUnderROC: 0.8839900423609499
Root mean squared error: 0.13559758357724755
Relative absolute error: 31.40573381502929
Root relative squared error: 70.51074346017364
Weighted TruePositiveRate: 0.7214
Weighted MatthewsCorrelation: 0.7122228971686487
Weighted FMeasure: 0.7221352171801408
Iteration time: 271.0
Weighted AreaUnderPRC: 0.6330938055204555
Mean absolute error: 0.02322909305845038
Coverage of cases: 77.0
Instances selection time: 96.0
Test time: 178.0
Accumulative iteration time: 2946.0
Weighted Recall: 0.7214
Weighted FalsePositiveRate: 0.011128104029558484
Kappa statistic: 0.7102507622609793
Training time: 175.0
		
Iteration: 12
Labeled set size: 2220
Unlabelled set size: 7780
	
Mean region size: 5.320384615385244
Incorrectly Classified Instances: 27.35
Correctly Classified Instances: 72.65
Weighted Precision: 0.7307660716969869
Weighted AreaUnderROC: 0.8847053174546267
Root mean squared error: 0.13485130269911166
Relative absolute error: 30.91706448440299
Root relative squared error: 70.12267740354297
Weighted TruePositiveRate: 0.7265
Weighted MatthewsCorrelation: 0.7168908337255417
Weighted FMeasure: 0.7268477178332104
Iteration time: 276.0
Weighted AreaUnderPRC: 0.6372115041911728
Mean absolute error: 0.02286765124585701
Coverage of cases: 77.14
Instances selection time: 96.0
Test time: 179.0
Accumulative iteration time: 3222.0
Weighted Recall: 0.7265
Weighted FalsePositiveRate: 0.010927973677924481
Kappa statistic: 0.7155531807857349
Training time: 180.0
		
Iteration: 13
Labeled set size: 2240
Unlabelled set size: 7760
	
Mean region size: 5.69307692307759
Incorrectly Classified Instances: 27.6
Correctly Classified Instances: 72.4
Weighted Precision: 0.7285621177641396
Weighted AreaUnderROC: 0.8867135225484937
Root mean squared error: 0.13506562134553782
Relative absolute error: 31.521095005548176
Root relative squared error: 70.23412309968457
Weighted TruePositiveRate: 0.724
Weighted MatthewsCorrelation: 0.7144469067702497
Weighted FMeasure: 0.7245158867077764
Iteration time: 277.0
Weighted AreaUnderPRC: 0.6383930305487209
Mean absolute error: 0.023314419382798657
Coverage of cases: 77.55
Instances selection time: 95.0
Test time: 177.0
Accumulative iteration time: 3499.0
Weighted Recall: 0.724
Weighted FalsePositiveRate: 0.011030807377312865
Kappa statistic: 0.7129517630934323
Training time: 182.0
		
Iteration: 14
Labeled set size: 2260
Unlabelled set size: 7740
	
Mean region size: 5.3807692307698565
Incorrectly Classified Instances: 27.24
Correctly Classified Instances: 72.76
Weighted Precision: 0.734251268866751
Weighted AreaUnderROC: 0.8857127899006076
Root mean squared error: 0.13529074992549256
Relative absolute error: 31.12354898496939
Root relative squared error: 70.35118996126104
Weighted TruePositiveRate: 0.7276
Weighted MatthewsCorrelation: 0.7189452347950928
Weighted FMeasure: 0.728513583535548
Iteration time: 279.0
Weighted AreaUnderPRC: 0.6255028804304822
Mean absolute error: 0.02302037646816942
Coverage of cases: 77.3
Instances selection time: 94.0
Test time: 178.0
Accumulative iteration time: 3778.0
Weighted Recall: 0.7276
Weighted FalsePositiveRate: 0.010875876399423131
Kappa statistic: 0.7167015128659218
Training time: 185.0
		
Iteration: 15
Labeled set size: 2280
Unlabelled set size: 7720
	
Mean region size: 5.725769230769822
Incorrectly Classified Instances: 28.28
Correctly Classified Instances: 71.72
Weighted Precision: 0.724096700357539
Weighted AreaUnderROC: 0.8832112149521066
Root mean squared error: 0.13706132158123618
Relative absolute error: 32.21151484418786
Root relative squared error: 71.2718872222478
Weighted TruePositiveRate: 0.7172
Weighted MatthewsCorrelation: 0.7082394249319833
Weighted FMeasure: 0.7181716173045986
Iteration time: 281.0
Weighted AreaUnderPRC: 0.6214543074316841
Mean absolute error: 0.023825084943922614
Coverage of cases: 76.9
Instances selection time: 95.0
Test time: 179.0
Accumulative iteration time: 4059.0
Weighted Recall: 0.7172
Weighted FalsePositiveRate: 0.011283832127241301
Kappa statistic: 0.7058838456681432
Training time: 186.0
		
Iteration: 16
Labeled set size: 2300
Unlabelled set size: 7700
	
Mean region size: 5.66115384615443
Incorrectly Classified Instances: 27.23
Correctly Classified Instances: 72.77
Weighted Precision: 0.7327588125437154
Weighted AreaUnderROC: 0.8864808895082422
Root mean squared error: 0.13436838288830869
Relative absolute error: 31.364211755655795
Root relative squared error: 69.8715591019254
Weighted TruePositiveRate: 0.7277
Weighted MatthewsCorrelation: 0.7183724302093162
Weighted FMeasure: 0.7280895512683077
Iteration time: 281.0
Weighted AreaUnderPRC: 0.6451707244460957
Mean absolute error: 0.02319838147607354
Coverage of cases: 77.58
Instances selection time: 94.0
Test time: 180.0
Accumulative iteration time: 4340.0
Weighted Recall: 0.7277
Weighted FalsePositiveRate: 0.010890307716343925
Kappa statistic: 0.7167963449234975
Training time: 187.0
		
Iteration: 17
Labeled set size: 2320
Unlabelled set size: 7680
	
Mean region size: 5.474615384615962
Incorrectly Classified Instances: 27.24
Correctly Classified Instances: 72.76
Weighted Precision: 0.7328170247249964
Weighted AreaUnderROC: 0.8865370347404338
Root mean squared error: 0.1345363524774236
Relative absolute error: 31.091224886770455
Root relative squared error: 69.95890328826516
Weighted TruePositiveRate: 0.7276
Weighted MatthewsCorrelation: 0.7182944376200298
Weighted FMeasure: 0.7279500481204288
Iteration time: 283.0
Weighted AreaUnderPRC: 0.6383728555355755
Mean absolute error: 0.022996468111513405
Coverage of cases: 77.48
Instances selection time: 93.0
Test time: 177.0
Accumulative iteration time: 4623.0
Weighted Recall: 0.7276
Weighted FalsePositiveRate: 0.010895378028197428
Kappa statistic: 0.7166928651230166
Training time: 190.0
		
Iteration: 18
Labeled set size: 2340
Unlabelled set size: 7660
	
Mean region size: 5.505384615385184
Incorrectly Classified Instances: 26.8
Correctly Classified Instances: 73.2
Weighted Precision: 0.7370289786265627
Weighted AreaUnderROC: 0.8873176256001849
Root mean squared error: 0.13385091996222226
Relative absolute error: 30.655492586669276
Root relative squared error: 69.60247838036044
Weighted TruePositiveRate: 0.732
Weighted MatthewsCorrelation: 0.7228863128837718
Weighted FMeasure: 0.7325116228258741
Iteration time: 283.0
Weighted AreaUnderPRC: 0.6390725130854117
Mean absolute error: 0.022674180907296598
Coverage of cases: 77.66
Instances selection time: 93.0
Test time: 177.0
Accumulative iteration time: 4906.0
Weighted Recall: 0.732
Weighted FalsePositiveRate: 0.010722804829467834
Kappa statistic: 0.7212694218400821
Training time: 190.0
		
Iteration: 19
Labeled set size: 2360
Unlabelled set size: 7640
	
Mean region size: 5.510384615385183
Incorrectly Classified Instances: 26.79
Correctly Classified Instances: 73.21
Weighted Precision: 0.7370502536148029
Weighted AreaUnderROC: 0.8871844591999049
Root mean squared error: 0.13383697870004932
Relative absolute error: 30.682645552642004
Root relative squared error: 69.59522892403051
Weighted TruePositiveRate: 0.7321
Weighted MatthewsCorrelation: 0.7229938214947009
Weighted FMeasure: 0.7326653981372664
Iteration time: 285.0
Weighted AreaUnderPRC: 0.6389290219411263
Mean absolute error: 0.022694264462010155
Coverage of cases: 77.64
Instances selection time: 92.0
Test time: 180.0
Accumulative iteration time: 5191.0
Weighted Recall: 0.7321
Weighted FalsePositiveRate: 0.010718271695764857
Kappa statistic: 0.7213734895393218
Training time: 193.0
		
Iteration: 20
Labeled set size: 2380
Unlabelled set size: 7620
	
Mean region size: 5.583846153846795
Incorrectly Classified Instances: 26.9
Correctly Classified Instances: 73.1
Weighted Precision: 0.7372344026444557
Weighted AreaUnderROC: 0.8879675549189183
Root mean squared error: 0.13432084044164508
Relative absolute error: 30.971492431495292
Root relative squared error: 69.84683702966032
Weighted TruePositiveRate: 0.731
Weighted MatthewsCorrelation: 0.7224730407482312
Weighted FMeasure: 0.7321657418453734
Iteration time: 293.0
Weighted AreaUnderPRC: 0.6298545008977858
Mean absolute error: 0.022907908603173797
Coverage of cases: 77.87
Instances selection time: 96.0
Test time: 180.0
Accumulative iteration time: 5484.0
Weighted Recall: 0.731
Weighted FalsePositiveRate: 0.010753650237134081
Kappa statistic: 0.7202332115148308
Training time: 197.0
		
Iteration: 21
Labeled set size: 2400
Unlabelled set size: 7600
	
Mean region size: 5.556153846154488
Incorrectly Classified Instances: 27.51
Correctly Classified Instances: 72.49
Weighted Precision: 0.730443644357654
Weighted AreaUnderROC: 0.8859371093382213
Root mean squared error: 0.13479589322321556
Relative absolute error: 31.32676423073514
Root relative squared error: 70.09386447607697
Weighted TruePositiveRate: 0.7249
Weighted MatthewsCorrelation: 0.7160022341182789
Weighted FMeasure: 0.7261899594952903
Iteration time: 293.0
Weighted AreaUnderPRC: 0.6369147128661864
Mean absolute error: 0.023170683602611517
Coverage of cases: 77.41
Instances selection time: 92.0
Test time: 182.0
Accumulative iteration time: 5777.0
Weighted Recall: 0.7249
Weighted FalsePositiveRate: 0.010991369445674803
Kappa statistic: 0.7138902894790657
Training time: 201.0
		
Iteration: 22
Labeled set size: 2420
Unlabelled set size: 7580
	
Mean region size: 5.431538461539089
Incorrectly Classified Instances: 27.27
Correctly Classified Instances: 72.73
Weighted Precision: 0.733192216117186
Weighted AreaUnderROC: 0.8873763553158578
Root mean squared error: 0.13408138587320736
Relative absolute error: 30.941470594149596
Root relative squared error: 69.7223206540727
Weighted TruePositiveRate: 0.7273
Weighted MatthewsCorrelation: 0.7184482580607692
Weighted FMeasure: 0.7282811977796906
Iteration time: 295.0
Weighted AreaUnderPRC: 0.638134251960258
Mean absolute error: 0.022885703102178464
Coverage of cases: 77.55
Instances selection time: 92.0
Test time: 180.0
Accumulative iteration time: 6072.0
Weighted Recall: 0.7273
Weighted FalsePositiveRate: 0.010899041767884724
Kappa statistic: 0.716386000089109
Training time: 203.0
		
Iteration: 23
Labeled set size: 2440
Unlabelled set size: 7560
	
Mean region size: 5.3450000000006614
Incorrectly Classified Instances: 26.69
Correctly Classified Instances: 73.31
Weighted Precision: 0.7384255268845464
Weighted AreaUnderROC: 0.8892234735967831
Root mean squared error: 0.13288935483510284
Relative absolute error: 30.452783389908465
Root relative squared error: 69.1024645142583
Weighted TruePositiveRate: 0.7331
Weighted MatthewsCorrelation: 0.7243734331542161
Weighted FMeasure: 0.7341719471708652
Iteration time: 298.0
Weighted AreaUnderPRC: 0.6454435323621034
Mean absolute error: 0.02252424806945578
Coverage of cases: 77.93
Instances selection time: 91.0
Test time: 184.0
Accumulative iteration time: 6370.0
Weighted Recall: 0.7331
Weighted FalsePositiveRate: 0.010650640437882998
Kappa statistic: 0.7224226225500221
Training time: 207.0
		
Iteration: 24
Labeled set size: 2460
Unlabelled set size: 7540
	
Mean region size: 5.345384615385209
Incorrectly Classified Instances: 27.5
Correctly Classified Instances: 72.5
Weighted Precision: 0.7321881587439053
Weighted AreaUnderROC: 0.8836242234341644
Root mean squared error: 0.13465759711327108
Relative absolute error: 30.732538228840564
Root relative squared error: 70.02195049890585
Weighted TruePositiveRate: 0.725
Weighted MatthewsCorrelation: 0.7166357567984711
Weighted FMeasure: 0.7264627941805994
Iteration time: 288.0
Weighted AreaUnderPRC: 0.6313137452304449
Mean absolute error: 0.022731167329020918
Coverage of cases: 77.07
Instances selection time: 90.0
Test time: 181.0
Accumulative iteration time: 6658.0
Weighted Recall: 0.725
Weighted FalsePositiveRate: 0.010987302375047539
Kappa statistic: 0.7139934467890475
Training time: 198.0
		
Iteration: 25
Labeled set size: 2480
Unlabelled set size: 7520
	
Mean region size: 5.256923076923661
Incorrectly Classified Instances: 27.13
Correctly Classified Instances: 72.87
Weighted Precision: 0.7336955108352051
Weighted AreaUnderROC: 0.8833229092578382
Root mean squared error: 0.13436427270165643
Relative absolute error: 30.264883162131166
Root relative squared error: 69.86942180486622
Weighted TruePositiveRate: 0.7287
Weighted MatthewsCorrelation: 0.7195566468841337
Weighted FMeasure: 0.7294417226852393
Iteration time: 289.0
Weighted AreaUnderPRC: 0.6295651482348028
Mean absolute error: 0.022385268611040645
Coverage of cases: 77.16
Instances selection time: 90.0
Test time: 182.0
Accumulative iteration time: 6947.0
Weighted Recall: 0.7287
Weighted FalsePositiveRate: 0.010839384658021837
Kappa statistic: 0.7178409803350452
Training time: 199.0
		
Iteration: 26
Labeled set size: 2500
Unlabelled set size: 7500
	
Mean region size: 5.066538461539022
Incorrectly Classified Instances: 27.11
Correctly Classified Instances: 72.89
Weighted Precision: 0.7333076835794574
Weighted AreaUnderROC: 0.8854086083799461
Root mean squared error: 0.13409591221698391
Relative absolute error: 30.004426996469185
Root relative squared error: 69.7298743528365
Weighted TruePositiveRate: 0.7289
Weighted MatthewsCorrelation: 0.719553756507874
Weighted FMeasure: 0.729526948571975
Iteration time: 292.0
Weighted AreaUnderPRC: 0.6348847646642661
Mean absolute error: 0.022192623518095415
Coverage of cases: 77.39
Instances selection time: 90.0
Test time: 180.0
Accumulative iteration time: 7239.0
Weighted Recall: 0.7289
Weighted FalsePositiveRate: 0.010827412273320115
Kappa statistic: 0.7180489943069713
Training time: 202.0
		
Iteration: 27
Labeled set size: 2520
Unlabelled set size: 7480
	
Mean region size: 5.130769230769809
Incorrectly Classified Instances: 26.56
Correctly Classified Instances: 73.44
Weighted Precision: 0.7382455772659671
Weighted AreaUnderROC: 0.8882904901239713
Root mean squared error: 0.13346652589917798
Relative absolute error: 30.079617608192066
Root relative squared error: 69.4025934675774
Weighted TruePositiveRate: 0.7344
Weighted MatthewsCorrelation: 0.7249072742447783
Weighted FMeasure: 0.7345621939318852
Iteration time: 295.0
Weighted AreaUnderPRC: 0.6325212309286857
Mean absolute error: 0.022248237875878603
Coverage of cases: 77.9
Instances selection time: 89.0
Test time: 193.0
Accumulative iteration time: 7534.0
Weighted Recall: 0.7344
Weighted FalsePositiveRate: 0.010608584343076767
Kappa statistic: 0.7237705901022531
Training time: 206.0
		
Iteration: 28
Labeled set size: 2540
Unlabelled set size: 7460
	
Mean region size: 5.016153846154406
Incorrectly Classified Instances: 26.87
Correctly Classified Instances: 73.13
Weighted Precision: 0.7356444647437544
Weighted AreaUnderROC: 0.8856263597897696
Root mean squared error: 0.13380362176096827
Relative absolute error: 29.930367334121648
Root relative squared error: 69.57788331570836
Weighted TruePositiveRate: 0.7313
Weighted MatthewsCorrelation: 0.72198987877304
Weighted FMeasure: 0.7318372049034987
Iteration time: 300.0
Weighted AreaUnderPRC: 0.6360177015475873
Mean absolute error: 0.022137845661329494
Coverage of cases: 77.53
Instances selection time: 88.0
Test time: 181.0
Accumulative iteration time: 7834.0
Weighted Recall: 0.7313
Weighted FalsePositiveRate: 0.010733765202080066
Kappa statistic: 0.720544355882093
Training time: 212.0
		
Iteration: 29
Labeled set size: 2560
Unlabelled set size: 7440
	
Mean region size: 5.11192307692366
Incorrectly Classified Instances: 26.82
Correctly Classified Instances: 73.18
Weighted Precision: 0.7363345842020539
Weighted AreaUnderROC: 0.885354168821829
Root mean squared error: 0.13418735802971415
Relative absolute error: 30.20018725204161
Root relative squared error: 69.77742617545623
Weighted TruePositiveRate: 0.7318
Weighted MatthewsCorrelation: 0.7226123275176971
Weighted FMeasure: 0.7324551585908868
Iteration time: 303.0
Weighted AreaUnderPRC: 0.632744216879957
Mean absolute error: 0.02233741660653654
Coverage of cases: 77.57
Instances selection time: 88.0
Test time: 182.0
Accumulative iteration time: 8137.0
Weighted Recall: 0.7318
Weighted FalsePositiveRate: 0.01071831476648284
Kappa statistic: 0.7210636274458414
Training time: 215.0
		
Iteration: 30
Labeled set size: 2580
Unlabelled set size: 7420
	
Mean region size: 5.1288461538467445
Incorrectly Classified Instances: 26.81
Correctly Classified Instances: 73.19
Weighted Precision: 0.7363719573385009
Weighted AreaUnderROC: 0.8842538993732986
Root mean squared error: 0.13411092236444996
Relative absolute error: 30.284602864994664
Root relative squared error: 69.73767962951885
Weighted TruePositiveRate: 0.7319
Weighted MatthewsCorrelation: 0.7226711898939374
Weighted FMeasure: 0.732497592510639
Iteration time: 298.0
Weighted AreaUnderPRC: 0.6324734891480834
Mean absolute error: 0.02239985419008169
Coverage of cases: 77.37
Instances selection time: 88.0
Test time: 180.0
Accumulative iteration time: 8435.0
Weighted Recall: 0.7319
Weighted FalsePositiveRate: 0.010717902272787523
Kappa statistic: 0.7211677407654157
Training time: 210.0
		
Iteration: 31
Labeled set size: 2600
Unlabelled set size: 7400
	
Mean region size: 5.1476923076929015
Incorrectly Classified Instances: 26.67
Correctly Classified Instances: 73.33
Weighted Precision: 0.7378685610838954
Weighted AreaUnderROC: 0.8840597996404543
Root mean squared error: 0.13397122168360664
Relative absolute error: 30.254370549594082
Root relative squared error: 69.6650352754803
Weighted TruePositiveRate: 0.7333
Weighted MatthewsCorrelation: 0.7242955472917537
Weighted FMeasure: 0.7342041061350192
Iteration time: 300.0
Weighted AreaUnderPRC: 0.6319432204836982
Mean absolute error: 0.022377493010051673
Coverage of cases: 77.34
Instances selection time: 88.0
Test time: 182.0
Accumulative iteration time: 8735.0
Weighted Recall: 0.7333
Weighted FalsePositiveRate: 0.010648996031764616
Kappa statistic: 0.7226288783544486
Training time: 212.0
		
Iteration: 32
Labeled set size: 2620
Unlabelled set size: 7380
	
Mean region size: 5.193846153846767
Incorrectly Classified Instances: 26.3
Correctly Classified Instances: 73.7
Weighted Precision: 0.7413247138129985
Weighted AreaUnderROC: 0.8859886824440865
Root mean squared error: 0.13291087321430411
Relative absolute error: 29.866463652408132
Root relative squared error: 69.11365407144297
Weighted TruePositiveRate: 0.737
Weighted MatthewsCorrelation: 0.7280712074148322
Weighted FMeasure: 0.7378901426912725
Iteration time: 302.0
Weighted AreaUnderPRC: 0.635509637493493
Mean absolute error: 0.02209057962455915
Coverage of cases: 77.77
Instances selection time: 87.0
Test time: 181.0
Accumulative iteration time: 9037.0
Weighted Recall: 0.737
Weighted FalsePositiveRate: 0.010502298914280526
Kappa statistic: 0.7264755135419633
Training time: 215.0
		
Iteration: 33
Labeled set size: 2640
Unlabelled set size: 7360
	
Mean region size: 5.0115384615390415
Incorrectly Classified Instances: 26.8
Correctly Classified Instances: 73.2
Weighted Precision: 0.7364686597488092
Weighted AreaUnderROC: 0.8829506232616257
Root mean squared error: 0.13432114451529836
Relative absolute error: 30.120996037870658
Root relative squared error: 69.84699514796003
Weighted TruePositiveRate: 0.732
Weighted MatthewsCorrelation: 0.7228773870468974
Weighted FMeasure: 0.7328186262569231
Iteration time: 303.0
Weighted AreaUnderPRC: 0.6241072417716191
Mean absolute error: 0.022278843223274006
Coverage of cases: 76.95
Instances selection time: 87.0
Test time: 186.0
Accumulative iteration time: 9340.0
Weighted Recall: 0.732
Weighted FalsePositiveRate: 0.010706124613096637
Kappa statistic: 0.721274871680619
Training time: 216.0
		
Iteration: 34
Labeled set size: 2660
Unlabelled set size: 7340
	
Mean region size: 5.041153846154428
Incorrectly Classified Instances: 26.22
Correctly Classified Instances: 73.78
Weighted Precision: 0.743101868620924
Weighted AreaUnderROC: 0.8836445656069656
Root mean squared error: 0.1328663849945236
Relative absolute error: 29.41916793502265
Root relative squared error: 69.09052019715709
Weighted TruePositiveRate: 0.7378
Weighted MatthewsCorrelation: 0.7291689596123981
Weighted FMeasure: 0.7386841047916393
Iteration time: 308.0
Weighted AreaUnderPRC: 0.6318957541516833
Mean absolute error: 0.02175973959690721
Coverage of cases: 77.35
Instances selection time: 86.0
Test time: 180.0
Accumulative iteration time: 9648.0
Weighted Recall: 0.7378
Weighted FalsePositiveRate: 0.010476824927118083
Kappa statistic: 0.7273058198772571
Training time: 222.0
		
Iteration: 35
Labeled set size: 2680
Unlabelled set size: 7320
	
Mean region size: 5.280769230769855
Incorrectly Classified Instances: 25.49
Correctly Classified Instances: 74.51
Weighted Precision: 0.7500413790696594
Weighted AreaUnderROC: 0.8891132494024796
Root mean squared error: 0.13070994252764498
Relative absolute error: 28.999751978642188
Root relative squared error: 67.96917011438013
Weighted TruePositiveRate: 0.7451
Weighted MatthewsCorrelation: 0.736604807141511
Weighted FMeasure: 0.7458603005942528
Iteration time: 307.0
Weighted AreaUnderPRC: 0.6482582503580835
Mean absolute error: 0.021449520694258983
Coverage of cases: 78.55
Instances selection time: 85.0
Test time: 181.0
Accumulative iteration time: 9955.0
Weighted Recall: 0.7451
Weighted FalsePositiveRate: 0.010180236778869058
Kappa statistic: 0.7348998419570412
Training time: 222.0
		
Iteration: 36
Labeled set size: 2700
Unlabelled set size: 7300
	
Mean region size: 4.986153846154423
Incorrectly Classified Instances: 26.09
Correctly Classified Instances: 73.91
Weighted Precision: 0.7452769092405238
Weighted AreaUnderROC: 0.8866521823027251
Root mean squared error: 0.1326166193638393
Relative absolute error: 29.365050187637046
Root relative squared error: 68.96064206920126
Weighted TruePositiveRate: 0.7391
Weighted MatthewsCorrelation: 0.7309797060152424
Weighted FMeasure: 0.7404766783177139
Iteration time: 308.0
Weighted AreaUnderPRC: 0.6365354091429022
Mean absolute error: 0.02171971167724331
Coverage of cases: 77.8
Instances selection time: 86.0
Test time: 179.0
Accumulative iteration time: 10263.0
Weighted Recall: 0.7391
Weighted FalsePositiveRate: 0.010427030574947364
Kappa statistic: 0.7286579916196401
Training time: 222.0
		
Iteration: 37
Labeled set size: 2720
Unlabelled set size: 7280
	
Mean region size: 4.94961538461595
Incorrectly Classified Instances: 25.81
Correctly Classified Instances: 74.19
Weighted Precision: 0.7485072992152303
Weighted AreaUnderROC: 0.8871730009292758
Root mean squared error: 0.1321944404685017
Relative absolute error: 29.050555813804063
Root relative squared error: 68.74110904362568
Weighted TruePositiveRate: 0.7419
Weighted MatthewsCorrelation: 0.7341109306262008
Weighted FMeasure: 0.7434894749257823
Iteration time: 310.0
Weighted AreaUnderPRC: 0.636915260240582
Mean absolute error: 0.021487097495414213
Coverage of cases: 77.89
Instances selection time: 85.0
Test time: 180.0
Accumulative iteration time: 10573.0
Weighted Recall: 0.7419
Weighted FalsePositiveRate: 0.0103081103033942
Kappa statistic: 0.7315713263346771
Training time: 225.0
		
Iteration: 38
Labeled set size: 2740
Unlabelled set size: 7260
	
Mean region size: 5.234230769231318
Incorrectly Classified Instances: 25.67
Correctly Classified Instances: 74.33
Weighted Precision: 0.7497431746725784
Weighted AreaUnderROC: 0.8904104114364778
Root mean squared error: 0.13163678663830586
Relative absolute error: 29.38063511917676
Root relative squared error: 68.45112905192383
Weighted TruePositiveRate: 0.7433
Weighted MatthewsCorrelation: 0.7354917501935363
Weighted FMeasure: 0.7448271250775647
Iteration time: 313.0
Weighted AreaUnderPRC: 0.6394337443621514
Mean absolute error: 0.021731238993470906
Coverage of cases: 78.52
Instances selection time: 84.0
Test time: 179.0
Accumulative iteration time: 10886.0
Weighted Recall: 0.7433
Weighted FalsePositiveRate: 0.010259124805343927
Kappa statistic: 0.7330246028592763
Training time: 229.0
		
Iteration: 39
Labeled set size: 2760
Unlabelled set size: 7240
	
Mean region size: 5.385000000000608
Incorrectly Classified Instances: 25.7
Correctly Classified Instances: 74.3
Weighted Precision: 0.7477072284244125
Weighted AreaUnderROC: 0.8898982918256146
Root mean squared error: 0.1321224676599611
Relative absolute error: 29.68479521704524
Root relative squared error: 68.70368318318458
Weighted TruePositiveRate: 0.743
Weighted MatthewsCorrelation: 0.7344828530832825
Weighted FMeasure: 0.7440263173775322
Iteration time: 317.0
Weighted AreaUnderPRC: 0.6365480477293824
Mean absolute error: 0.02195620948005999
Coverage of cases: 78.51
Instances selection time: 84.0
Test time: 179.0
Accumulative iteration time: 11203.0
Weighted Recall: 0.743
Weighted FalsePositiveRate: 0.010264068105544184
Kappa statistic: 0.7327126442519698
Training time: 233.0
		
Iteration: 40
Labeled set size: 2780
Unlabelled set size: 7220
	
Mean region size: 5.293461538462134
Incorrectly Classified Instances: 25.22
Correctly Classified Instances: 74.78
Weighted Precision: 0.7520714059487145
Weighted AreaUnderROC: 0.8907537019155876
Root mean squared error: 0.13056386321324245
Relative absolute error: 28.984887176226188
Root relative squared error: 67.89320887089082
Weighted TruePositiveRate: 0.7478
Weighted MatthewsCorrelation: 0.7394046517596855
Weighted FMeasure: 0.7489405736722866
Iteration time: 314.0
Weighted AreaUnderPRC: 0.6462236801046929
Mean absolute error: 0.021438526017915793
Coverage of cases: 78.89
Instances selection time: 84.0
Test time: 180.0
Accumulative iteration time: 11517.0
Weighted Recall: 0.7478
Weighted FalsePositiveRate: 0.010079250455722128
Kappa statistic: 0.7377022309818907
Training time: 230.0
		
Iteration: 41
Labeled set size: 2800
Unlabelled set size: 7200
	
Mean region size: 5.290384615385188
Incorrectly Classified Instances: 24.9
Correctly Classified Instances: 75.1
Weighted Precision: 0.7562504362042116
Weighted AreaUnderROC: 0.8924832915707346
Root mean squared error: 0.12983918216167095
Relative absolute error: 28.682157475535238
Root relative squared error: 67.51637472407361
Weighted TruePositiveRate: 0.751
Weighted MatthewsCorrelation: 0.7429359372429275
Weighted FMeasure: 0.7519946124710947
Iteration time: 318.0
Weighted AreaUnderPRC: 0.6495641318104295
Mean absolute error: 0.02121461351740476
Coverage of cases: 79.16
Instances selection time: 83.0
Test time: 179.0
Accumulative iteration time: 11835.0
Weighted Recall: 0.751
Weighted FalsePositiveRate: 0.009961386833439707
Kappa statistic: 0.7410263255684532
Training time: 235.0
		
Iteration: 42
Labeled set size: 2820
Unlabelled set size: 7180
	
Mean region size: 5.402307692308239
Incorrectly Classified Instances: 25.28
Correctly Classified Instances: 74.72
Weighted Precision: 0.7529521191873535
Weighted AreaUnderROC: 0.8893569631426564
Root mean squared error: 0.1308556280668307
Relative absolute error: 29.01650582055766
Root relative squared error: 68.04492659475672
Weighted TruePositiveRate: 0.7472
Weighted MatthewsCorrelation: 0.7392659179144417
Weighted FMeasure: 0.7485253820555652
Iteration time: 321.0
Weighted AreaUnderPRC: 0.6489288248146182
Mean absolute error: 0.021461912589166875
Coverage of cases: 78.78
Instances selection time: 82.0
Test time: 179.0
Accumulative iteration time: 12156.0
Weighted Recall: 0.7472
Weighted FalsePositiveRate: 0.010105155796943545
Kappa statistic: 0.7370785905685991
Training time: 239.0
		
Iteration: 43
Labeled set size: 2840
Unlabelled set size: 7160
	
Mean region size: 5.241538461539051
Incorrectly Classified Instances: 24.95
Correctly Classified Instances: 75.05
Weighted Precision: 0.7534702936790484
Weighted AreaUnderROC: 0.8918343337835726
Root mean squared error: 0.13005762926435768
Relative absolute error: 28.54729724040796
Root relative squared error: 67.6299672174707
Weighted TruePositiveRate: 0.7505
Weighted MatthewsCorrelation: 0.7415663717183666
Weighted FMeasure: 0.7510034524529108
Iteration time: 322.0
Weighted AreaUnderPRC: 0.6503178197178767
Mean absolute error: 0.02111486482278401
Coverage of cases: 78.93
Instances selection time: 81.0
Test time: 182.0
Accumulative iteration time: 12478.0
Weighted Recall: 0.7505
Weighted FalsePositiveRate: 0.009976327275857387
Kappa statistic: 0.7405090806221125
Training time: 241.0
		
Iteration: 44
Labeled set size: 2860
Unlabelled set size: 7140
	
Mean region size: 5.396538461539056
Incorrectly Classified Instances: 25.74
Correctly Classified Instances: 74.26
Weighted Precision: 0.7462890952951083
Weighted AreaUnderROC: 0.8889911280986277
Root mean squared error: 0.13135201062446036
Relative absolute error: 29.43369039854743
Root relative squared error: 68.30304552472415
Weighted TruePositiveRate: 0.7426
Weighted MatthewsCorrelation: 0.7336415352914631
Weighted FMeasure: 0.7432862638159625
Iteration time: 322.0
Weighted AreaUnderPRC: 0.6443011793616137
Mean absolute error: 0.02177048106401134
Coverage of cases: 78.32
Instances selection time: 81.0
Test time: 180.0
Accumulative iteration time: 12800.0
Weighted Recall: 0.7426
Weighted FalsePositiveRate: 0.010283221827501616
Kappa statistic: 0.7322930383636661
Training time: 241.0
		
Iteration: 45
Labeled set size: 2880
Unlabelled set size: 7120
	
Mean region size: 5.434615384615988
Incorrectly Classified Instances: 26.0
Correctly Classified Instances: 74.0
Weighted Precision: 0.7432006311290674
Weighted AreaUnderROC: 0.8887005320762335
Root mean squared error: 0.1318219954462263
Relative absolute error: 29.484506661360523
Root relative squared error: 68.54743763204246
Weighted TruePositiveRate: 0.74
Weighted MatthewsCorrelation: 0.7307493964583824
Weighted FMeasure: 0.7405750991624767
Iteration time: 323.0
Weighted AreaUnderPRC: 0.6429193922283808
Mean absolute error: 0.021808067057216284
Coverage of cases: 78.28
Instances selection time: 80.0
Test time: 186.0
Accumulative iteration time: 13123.0
Weighted Recall: 0.74
Weighted FalsePositiveRate: 0.010392345768533732
Kappa statistic: 0.7295880361093992
Training time: 243.0
		
Iteration: 46
Labeled set size: 2900
Unlabelled set size: 7100
	
Mean region size: 5.513076923077537
Incorrectly Classified Instances: 25.85
Correctly Classified Instances: 74.15
Weighted Precision: 0.7474520720261568
Weighted AreaUnderROC: 0.8887212254133668
Root mean squared error: 0.1318878299551359
Relative absolute error: 29.48272659150167
Root relative squared error: 68.58167157667545
Weighted TruePositiveRate: 0.7415
Weighted MatthewsCorrelation: 0.7335201547739583
Weighted FMeasure: 0.7431002168655365
Iteration time: 327.0
Weighted AreaUnderPRC: 0.6440954110123934
Mean absolute error: 0.021806750437498197
Coverage of cases: 78.28
Instances selection time: 81.0
Test time: 181.0
Accumulative iteration time: 13450.0
Weighted Recall: 0.7415
Weighted FalsePositiveRate: 0.010341375719457304
Kappa statistic: 0.7311459436646851
Training time: 246.0
		
Time end:Wed Nov 01 02.39.52 EET 2017