Tue Oct 31 16.48.44 EET 2017
Dataset: letter
Test set size: 10000
Initial Labelled set size: 2000
Initial Unlabelled set size: 8000
Batch mode: QBestBatchMode
Batch size: 20
Classifiers: RandomForest-1cores
Scenario: PoolBasedSamplingScenario
Query strategy: EntropySamplingQueryStrategy-1cores
Time begining: Tue Oct 31 16.48.44 EET 2017
		
Iteration: 1
Labeled set size: 2000
Unlabelled set size: 8000
	
Mean region size: 13.92846153846113
Incorrectly Classified Instances: 21.48
Correctly Classified Instances: 78.52
Weighted Precision: 0.796437419306861
Weighted AreaUnderROC: 0.9622907945253415
Root mean squared error: 0.11243630675597495
Relative absolute error: 39.42016000000885
Root relative squared error: 58.46687951311106
Weighted TruePositiveRate: 0.7852
Weighted MatthewsCorrelation: 0.7804121430768082
Weighted FMeasure: 0.7868113304472657
Iteration time: 356.0
Weighted AreaUnderPRC: 0.8281471992159337
Mean absolute error: 0.029156923076925557
Coverage of cases: 94.52
Instances selection time: 75.0
Test time: 215.0
Accumulative iteration time: 356.0
Weighted Recall: 0.7852
Weighted FalsePositiveRate: 0.00858228538221781
Kappa statistic: 0.7766029928688408
Training time: 281.0
		
Iteration: 2
Labeled set size: 2020
Unlabelled set size: 7980
	
Mean region size: 13.529999999999674
Incorrectly Classified Instances: 19.91
Correctly Classified Instances: 80.09
Weighted Precision: 0.8098502003958941
Weighted AreaUnderROC: 0.9669254012672743
Root mean squared error: 0.10939659676889363
Relative absolute error: 37.88304000000836
Root relative squared error: 56.886230319828655
Weighted TruePositiveRate: 0.8009
Weighted MatthewsCorrelation: 0.7960983463661664
Weighted FMeasure: 0.8024748874175475
Iteration time: 352.0
Weighted AreaUnderPRC: 0.8446454195456774
Mean absolute error: 0.028020000000002272
Coverage of cases: 95.2
Instances selection time: 76.0
Test time: 215.0
Accumulative iteration time: 708.0
Weighted Recall: 0.8009
Weighted FalsePositiveRate: 0.007952032309468551
Kappa statistic: 0.7929315698951789
Training time: 276.0
		
Iteration: 3
Labeled set size: 2040
Unlabelled set size: 7960
	
Mean region size: 13.623461538461187
Incorrectly Classified Instances: 21.04
Correctly Classified Instances: 78.96
Weighted Precision: 0.8004734250764333
Weighted AreaUnderROC: 0.9667436031236035
Root mean squared error: 0.11020644962279683
Relative absolute error: 38.19192000000843
Root relative squared error: 57.30735380385835
Weighted TruePositiveRate: 0.7896
Weighted MatthewsCorrelation: 0.7849017380643901
Weighted FMeasure: 0.7912865837310412
Iteration time: 354.0
Weighted AreaUnderPRC: 0.8414601783869415
Mean absolute error: 0.028248461538463835
Coverage of cases: 95.23
Instances selection time: 73.0
Test time: 218.0
Accumulative iteration time: 1062.0
Weighted Recall: 0.7896
Weighted FalsePositiveRate: 0.008432851113347139
Kappa statistic: 0.7811718923283337
Training time: 281.0
		
Iteration: 4
Labeled set size: 2060
Unlabelled set size: 7940
	
Mean region size: 14.007307692307313
Incorrectly Classified Instances: 20.63
Correctly Classified Instances: 79.37
Weighted Precision: 0.8041231259222604
Weighted AreaUnderROC: 0.9677393466222164
Root mean squared error: 0.1111142862794217
Relative absolute error: 39.265200000009024
Root relative squared error: 57.779428865303316
Weighted TruePositiveRate: 0.7937
Weighted MatthewsCorrelation: 0.7891378856061595
Weighted FMeasure: 0.7955413965811874
Iteration time: 368.0
Weighted AreaUnderPRC: 0.840979407596762
Mean absolute error: 0.029042307692310317
Coverage of cases: 95.45
Instances selection time: 74.0
Test time: 216.0
Accumulative iteration time: 1430.0
Weighted Recall: 0.7937
Weighted FalsePositiveRate: 0.008251229247163545
Kappa statistic: 0.7854383285897488
Training time: 294.0
		
Iteration: 5
Labeled set size: 2080
Unlabelled set size: 7920
	
Mean region size: 13.879999999999587
Incorrectly Classified Instances: 19.69
Correctly Classified Instances: 80.31
Weighted Precision: 0.8124947437148992
Weighted AreaUnderROC: 0.9700322693524372
Root mean squared error: 0.10939308092309452
Relative absolute error: 38.350000000008784
Root relative squared error: 56.884402080013125
Weighted TruePositiveRate: 0.8031
Weighted MatthewsCorrelation: 0.7985120593147949
Weighted FMeasure: 0.8046883645586046
Iteration time: 366.0
Weighted AreaUnderPRC: 0.849611703168627
Mean absolute error: 0.028365384615387155
Coverage of cases: 95.78
Instances selection time: 73.0
Test time: 216.0
Accumulative iteration time: 1796.0
Weighted Recall: 0.8031
Weighted FalsePositiveRate: 0.007867107142344721
Kappa statistic: 0.7952180513301295
Training time: 293.0
		
Iteration: 6
Labeled set size: 2100
Unlabelled set size: 7900
	
Mean region size: 13.632692307691972
Incorrectly Classified Instances: 19.57
Correctly Classified Instances: 80.43
Weighted Precision: 0.811449586379126
Weighted AreaUnderROC: 0.9677773395955565
Root mean squared error: 0.10913858515314963
Relative absolute error: 37.98808000000844
Root relative squared error: 56.75206427964177
Weighted TruePositiveRate: 0.8043
Weighted MatthewsCorrelation: 0.798995218323061
Weighted FMeasure: 0.805545516173998
Iteration time: 373.0
Weighted AreaUnderPRC: 0.8485594015644264
Mean absolute error: 0.02809769230769463
Coverage of cases: 95.33
Instances selection time: 72.0
Test time: 218.0
Accumulative iteration time: 2169.0
Weighted Recall: 0.8043
Weighted FalsePositiveRate: 0.007830974941699589
Kappa statistic: 0.7964600100291028
Training time: 301.0
		
Iteration: 7
Labeled set size: 2120
Unlabelled set size: 7880
	
Mean region size: 14.08576923076885
Incorrectly Classified Instances: 20.24
Correctly Classified Instances: 79.76
Weighted Precision: 0.8059734903315187
Weighted AreaUnderROC: 0.9660112887237863
Root mean squared error: 0.11113193821898468
Relative absolute error: 39.41184000000913
Root relative squared error: 57.78860787387607
Weighted TruePositiveRate: 0.7976
Weighted MatthewsCorrelation: 0.7925592384871019
Weighted FMeasure: 0.7992896824782284
Iteration time: 397.0
Weighted AreaUnderPRC: 0.8395494277645766
Mean absolute error: 0.02915076923077192
Coverage of cases: 95.12
Instances selection time: 73.0
Test time: 218.0
Accumulative iteration time: 2566.0
Weighted Recall: 0.7976
Weighted FalsePositiveRate: 0.008107614227115386
Kappa statistic: 0.7894907609897549
Training time: 324.0
		
Iteration: 8
Labeled set size: 2140
Unlabelled set size: 7860
	
Mean region size: 13.873076923076576
Incorrectly Classified Instances: 19.07
Correctly Classified Instances: 80.93
Weighted Precision: 0.8165920466808402
Weighted AreaUnderROC: 0.9719861934169909
Root mean squared error: 0.10910827367627018
Relative absolute error: 38.58192000000889
Root relative squared error: 56.73630231166445
Weighted TruePositiveRate: 0.8093
Weighted MatthewsCorrelation: 0.8043997335783353
Weighted FMeasure: 0.8109120466469347
Iteration time: 379.0
Weighted AreaUnderPRC: 0.8538194104531707
Mean absolute error: 0.028536923076925676
Coverage of cases: 96.12
Instances selection time: 72.0
Test time: 217.0
Accumulative iteration time: 2945.0
Weighted Recall: 0.8093
Weighted FalsePositiveRate: 0.007626265464472031
Kappa statistic: 0.8016639448587908
Training time: 307.0
		
Iteration: 9
Labeled set size: 2160
Unlabelled set size: 7840
	
Mean region size: 13.621153846153597
Incorrectly Classified Instances: 19.53
Correctly Classified Instances: 80.47
Weighted Precision: 0.8127619144427817
Weighted AreaUnderROC: 0.9710269565630663
Root mean squared error: 0.10800569785539714
Relative absolute error: 37.57312000000839
Root relative squared error: 56.16296288481043
Weighted TruePositiveRate: 0.8047
Weighted MatthewsCorrelation: 0.7996584344512674
Weighted FMeasure: 0.805964954751405
Iteration time: 387.0
Weighted AreaUnderPRC: 0.8554655493209624
Mean absolute error: 0.027790769230771565
Coverage of cases: 95.85
Instances selection time: 75.0
Test time: 219.0
Accumulative iteration time: 3332.0
Weighted Recall: 0.8047
Weighted FalsePositiveRate: 0.007810221661179631
Kappa statistic: 0.7968791252427401
Training time: 312.0
		
Iteration: 10
Labeled set size: 2180
Unlabelled set size: 7820
	
Mean region size: 13.78769230769198
Incorrectly Classified Instances: 19.47
Correctly Classified Instances: 80.53
Weighted Precision: 0.8125111661429921
Weighted AreaUnderROC: 0.9703372210724157
Root mean squared error: 0.10959821727915912
Relative absolute error: 38.45296000000881
Root relative squared error: 56.991072985166724
Weighted TruePositiveRate: 0.8053
Weighted MatthewsCorrelation: 0.8001838158351443
Weighted FMeasure: 0.8068437092660391
Iteration time: 388.0
Weighted AreaUnderPRC: 0.8483294380091233
Mean absolute error: 0.028441538461541013
Coverage of cases: 95.87
Instances selection time: 73.0
Test time: 232.0
Accumulative iteration time: 3720.0
Weighted Recall: 0.8053
Weighted FalsePositiveRate: 0.007781130046667139
Kappa statistic: 0.7975050668974825
Training time: 315.0
		
Iteration: 11
Labeled set size: 2200
Unlabelled set size: 7800
	
Mean region size: 13.591538461538208
Incorrectly Classified Instances: 18.35
Correctly Classified Instances: 81.65
Weighted Precision: 0.8227387014811604
Weighted AreaUnderROC: 0.9737937710164051
Root mean squared error: 0.1074913234423373
Relative absolute error: 37.44728000000862
Root relative squared error: 55.8954881900193
Weighted TruePositiveRate: 0.8165
Weighted MatthewsCorrelation: 0.8113279754012126
Weighted FMeasure: 0.8175270751358001
Iteration time: 394.0
Weighted AreaUnderPRC: 0.8599461962917845
Mean absolute error: 0.027697692307694824
Coverage of cases: 96.39
Instances selection time: 74.0
Test time: 221.0
Accumulative iteration time: 4114.0
Weighted Recall: 0.8165
Weighted FalsePositiveRate: 0.0073452185779150315
Kappa statistic: 0.8091509687184814
Training time: 320.0
		
Iteration: 12
Labeled set size: 2220
Unlabelled set size: 7780
	
Mean region size: 13.817692307692036
Incorrectly Classified Instances: 19.02
Correctly Classified Instances: 80.98
Weighted Precision: 0.8175882289421246
Weighted AreaUnderROC: 0.9707053944727193
Root mean squared error: 0.10838961062900945
Relative absolute error: 38.185680000008745
Root relative squared error: 56.36259752708885
Weighted TruePositiveRate: 0.8098
Weighted MatthewsCorrelation: 0.8050670258323348
Weighted FMeasure: 0.8114437238237363
Iteration time: 399.0
Weighted AreaUnderPRC: 0.8575420077976412
Mean absolute error: 0.028243846153848687
Coverage of cases: 95.8
Instances selection time: 76.0
Test time: 218.0
Accumulative iteration time: 4513.0
Weighted Recall: 0.8098
Weighted FalsePositiveRate: 0.0076018554482324445
Kappa statistic: 0.8021856859253461
Training time: 323.0
		
Iteration: 13
Labeled set size: 2240
Unlabelled set size: 7760
	
Mean region size: 13.609999999999538
Incorrectly Classified Instances: 19.47
Correctly Classified Instances: 80.53
Weighted Precision: 0.8123954686658482
Weighted AreaUnderROC: 0.9721949481370006
Root mean squared error: 0.10833956589566911
Relative absolute error: 37.66776000000845
Root relative squared error: 56.33657426575187
Weighted TruePositiveRate: 0.8053
Weighted MatthewsCorrelation: 0.7999214469015483
Weighted FMeasure: 0.8063360263306784
Iteration time: 407.0
Weighted AreaUnderPRC: 0.8538087201267408
Mean absolute error: 0.027860769230771597
Coverage of cases: 96.17
Instances selection time: 72.0
Test time: 223.0
Accumulative iteration time: 4920.0
Weighted Recall: 0.8053
Weighted FalsePositiveRate: 0.0077871274622735185
Kappa statistic: 0.797502369050674
Training time: 335.0
		
Iteration: 14
Labeled set size: 2260
Unlabelled set size: 7740
	
Mean region size: 13.72461538461514
Incorrectly Classified Instances: 18.16
Correctly Classified Instances: 81.84
Weighted Precision: 0.8262146988282412
Weighted AreaUnderROC: 0.9714607311428094
Root mean squared error: 0.10751672499591287
Relative absolute error: 37.71352000000855
Root relative squared error: 55.90869699787859
Weighted TruePositiveRate: 0.8184
Weighted MatthewsCorrelation: 0.8138544811389717
Weighted FMeasure: 0.8196771779424405
Iteration time: 410.0
Weighted AreaUnderPRC: 0.8610764071391964
Mean absolute error: 0.02789461538461782
Coverage of cases: 95.92
Instances selection time: 74.0
Test time: 220.0
Accumulative iteration time: 5330.0
Weighted Recall: 0.8184
Weighted FalsePositiveRate: 0.007259590182371593
Kappa statistic: 0.8111279481577836
Training time: 336.0
		
Iteration: 15
Labeled set size: 2280
Unlabelled set size: 7720
	
Mean region size: 13.63038461538436
Incorrectly Classified Instances: 19.14
Correctly Classified Instances: 80.86
Weighted Precision: 0.8188075821958516
Weighted AreaUnderROC: 0.9729983353135433
Root mean squared error: 0.10820528922093005
Relative absolute error: 37.79360000000866
Root relative squared error: 56.26675039488755
Weighted TruePositiveRate: 0.8086
Weighted MatthewsCorrelation: 0.8045748858155508
Weighted FMeasure: 0.8104433365538596
Iteration time: 410.0
Weighted AreaUnderPRC: 0.8579966988349564
Mean absolute error: 0.02795384615384866
Coverage of cases: 96.26
Instances selection time: 73.0
Test time: 217.0
Accumulative iteration time: 5740.0
Weighted Recall: 0.8086
Weighted FalsePositiveRate: 0.00764159973661791
Kappa statistic: 0.8009379131591334
Training time: 337.0
		
Iteration: 16
Labeled set size: 2300
Unlabelled set size: 7700
	
Mean region size: 13.844615384615027
Incorrectly Classified Instances: 18.15
Correctly Classified Instances: 81.85
Weighted Precision: 0.8256842266003745
Weighted AreaUnderROC: 0.9750741287542575
Root mean squared error: 0.1077729093974943
Relative absolute error: 38.08584000000888
Root relative squared error: 56.041912886700956
Weighted TruePositiveRate: 0.8185
Weighted MatthewsCorrelation: 0.8137500212324645
Weighted FMeasure: 0.8197011593882507
Iteration time: 417.0
Weighted AreaUnderPRC: 0.8624398515817701
Mean absolute error: 0.028170000000002637
Coverage of cases: 96.61
Instances selection time: 72.0
Test time: 222.0
Accumulative iteration time: 6157.0
Weighted Recall: 0.8185
Weighted FalsePositiveRate: 0.007260276485121735
Kappa statistic: 0.8112309905837338
Training time: 345.0
		
Iteration: 17
Labeled set size: 2320
Unlabelled set size: 7680
	
Mean region size: 13.64692307692279
Incorrectly Classified Instances: 17.22
Correctly Classified Instances: 82.78
Weighted Precision: 0.8338958366068316
Weighted AreaUnderROC: 0.9763996348588063
Root mean squared error: 0.10605840190850088
Relative absolute error: 37.157120000008604
Root relative squared error: 55.15036899242431
Weighted TruePositiveRate: 0.8278
Weighted MatthewsCorrelation: 0.823067555119546
Weighted FMeasure: 0.8288839397951797
Iteration time: 420.0
Weighted AreaUnderPRC: 0.870174143327049
Mean absolute error: 0.027483076923079455
Coverage of cases: 96.8
Instances selection time: 73.0
Test time: 219.0
Accumulative iteration time: 6577.0
Weighted Recall: 0.8278
Weighted FalsePositiveRate: 0.006893416078505629
Kappa statistic: 0.8209037800566125
Training time: 347.0
		
Iteration: 18
Labeled set size: 2340
Unlabelled set size: 7660
	
Mean region size: 13.73730769230761
Incorrectly Classified Instances: 18.23
Correctly Classified Instances: 81.77
Weighted Precision: 0.8254739706355344
Weighted AreaUnderROC: 0.9749051929892605
Root mean squared error: 0.10840735143962478
Relative absolute error: 38.256400000008966
Root relative squared error: 56.37182274860882
Weighted TruePositiveRate: 0.8177
Weighted MatthewsCorrelation: 0.8130854995269584
Weighted FMeasure: 0.8189202153800103
Iteration time: 550.0
Weighted AreaUnderPRC: 0.8607175318549906
Mean absolute error: 0.028296153846156535
Coverage of cases: 96.57
Instances selection time: 76.0
Test time: 225.0
Accumulative iteration time: 7127.0
Weighted Recall: 0.8177
Weighted FalsePositiveRate: 0.007292111037568489
Kappa statistic: 0.8103993866716572
Training time: 474.0
		
Iteration: 19
Labeled set size: 2360
Unlabelled set size: 7640
	
Mean region size: 13.730769230768955
Incorrectly Classified Instances: 17.78
Correctly Classified Instances: 82.22
Weighted Precision: 0.8296916668488626
Weighted AreaUnderROC: 0.975895592066576
Root mean squared error: 0.10719715840091722
Relative absolute error: 37.60848000000869
Root relative squared error: 55.74252236848084
Weighted TruePositiveRate: 0.8222
Weighted MatthewsCorrelation: 0.8177042975948938
Weighted FMeasure: 0.8234532927164974
Iteration time: 424.0
Weighted AreaUnderPRC: 0.8658403661767837
Mean absolute error: 0.027816923076925626
Coverage of cases: 96.75
Instances selection time: 73.0
Test time: 221.0
Accumulative iteration time: 7551.0
Weighted Recall: 0.8222
Weighted FalsePositiveRate: 0.007108638591792402
Kappa statistic: 0.8150800474064868
Training time: 351.0
		
Iteration: 20
Labeled set size: 2380
Unlabelled set size: 7620
	
Mean region size: 13.859615384615097
Incorrectly Classified Instances: 16.8
Correctly Classified Instances: 83.2
Weighted Precision: 0.8386726778771041
Weighted AreaUnderROC: 0.9781571300281965
Root mean squared error: 0.10567220724777111
Relative absolute error: 37.38696000000886
Root relative squared error: 54.949547768844816
Weighted TruePositiveRate: 0.832
Weighted MatthewsCorrelation: 0.8276169016261101
Weighted FMeasure: 0.8331244404878823
Iteration time: 433.0
Weighted AreaUnderPRC: 0.8763682893375279
Mean absolute error: 0.027653076923079625
Coverage of cases: 97.07
Instances selection time: 74.0
Test time: 228.0
Accumulative iteration time: 7984.0
Weighted Recall: 0.832
Weighted FalsePositiveRate: 0.006722758926506015
Kappa statistic: 0.8252704722085249
Training time: 359.0
		
Iteration: 21
Labeled set size: 2400
Unlabelled set size: 7600
	
Mean region size: 14.047692307691943
Incorrectly Classified Instances: 18.01
Correctly Classified Instances: 81.99
Weighted Precision: 0.8267453796810521
Weighted AreaUnderROC: 0.9756902688082195
Root mean squared error: 0.10784889714496466
Relative absolute error: 38.41240000000908
Root relative squared error: 56.081426515385544
Weighted TruePositiveRate: 0.8199
Weighted MatthewsCorrelation: 0.8149617135668448
Weighted FMeasure: 0.8207811858475423
Iteration time: 437.0
Weighted AreaUnderPRC: 0.865848609174519
Mean absolute error: 0.028411538461541215
Coverage of cases: 96.71
Instances selection time: 75.0
Test time: 223.0
Accumulative iteration time: 8421.0
Weighted Recall: 0.8199
Weighted FalsePositiveRate: 0.007208100379711165
Kappa statistic: 0.8126868496776815
Training time: 362.0
		
Iteration: 22
Labeled set size: 2420
Unlabelled set size: 7580
	
Mean region size: 13.662307692307435
Incorrectly Classified Instances: 17.68
Correctly Classified Instances: 82.32
Weighted Precision: 0.8303756094708211
Weighted AreaUnderROC: 0.9770684935428402
Root mean squared error: 0.10647209818684097
Relative absolute error: 37.36408000000866
Root relative squared error: 55.365491057161165
Weighted TruePositiveRate: 0.8232
Weighted MatthewsCorrelation: 0.8184886973633271
Weighted FMeasure: 0.8240701713607154
Iteration time: 441.0
Weighted AreaUnderPRC: 0.8695971253967264
Mean absolute error: 0.027636153846156402
Coverage of cases: 96.9
Instances selection time: 72.0
Test time: 223.0
Accumulative iteration time: 8862.0
Weighted Recall: 0.8232
Weighted FalsePositiveRate: 0.007066889759989768
Kappa statistic: 0.8161187266467274
Training time: 369.0
		
Iteration: 23
Labeled set size: 2440
Unlabelled set size: 7560
	
Mean region size: 13.52576923076906
Incorrectly Classified Instances: 16.23
Correctly Classified Instances: 83.77
Weighted Precision: 0.8451354428764809
Weighted AreaUnderROC: 0.9791365223066346
Root mean squared error: 0.1046764245002399
Relative absolute error: 36.834720000008694
Root relative squared error: 54.43174074012855
Weighted TruePositiveRate: 0.8377
Weighted MatthewsCorrelation: 0.8338623988443149
Weighted FMeasure: 0.8390782149484616
Iteration time: 443.0
Weighted AreaUnderPRC: 0.8809159265177489
Mean absolute error: 0.027244615384618014
Coverage of cases: 97.16
Instances selection time: 72.0
Test time: 222.0
Accumulative iteration time: 9305.0
Weighted Recall: 0.8377
Weighted FalsePositiveRate: 0.006493491801266322
Kappa statistic: 0.8312005686387942
Training time: 371.0
		
Iteration: 24
Labeled set size: 2460
Unlabelled set size: 7540
	
Mean region size: 13.689999999999753
Incorrectly Classified Instances: 17.19
Correctly Classified Instances: 82.81
Weighted Precision: 0.8354813457732234
Weighted AreaUnderROC: 0.9784338126009112
Root mean squared error: 0.1059883883335292
Relative absolute error: 37.31104000000878
Root relative squared error: 55.11396193343903
Weighted TruePositiveRate: 0.8281
Weighted MatthewsCorrelation: 0.8237879495528898
Weighted FMeasure: 0.8293087354783536
Iteration time: 451.0
Weighted AreaUnderPRC: 0.8753120878555228
Mean absolute error: 0.027596923076925725
Coverage of cases: 97.11
Instances selection time: 73.0
Test time: 225.0
Accumulative iteration time: 9756.0
Weighted Recall: 0.8281
Weighted FalsePositiveRate: 0.006881533955661858
Kappa statistic: 0.8212148888246783
Training time: 378.0
		
Iteration: 25
Labeled set size: 2480
Unlabelled set size: 7520
	
Mean region size: 13.558076923076774
Incorrectly Classified Instances: 16.74
Correctly Classified Instances: 83.26
Weighted Precision: 0.8374126883516602
Weighted AreaUnderROC: 0.9778584190363461
Root mean squared error: 0.10507799301178708
Relative absolute error: 36.84200000000874
Root relative squared error: 54.64055636613309
Weighted TruePositiveRate: 0.8326
Weighted MatthewsCorrelation: 0.8274376384393994
Weighted FMeasure: 0.8330946457580635
Iteration time: 450.0
Weighted AreaUnderPRC: 0.8772139908060631
Mean absolute error: 0.027250000000002664
Coverage of cases: 96.97
Instances selection time: 72.0
Test time: 224.0
Accumulative iteration time: 10206.0
Weighted Recall: 0.8326
Weighted FalsePositiveRate: 0.006711813311181443
Kappa statistic: 0.8258924364720607
Training time: 378.0
		
Iteration: 26
Labeled set size: 2500
Unlabelled set size: 7500
	
Mean region size: 13.449230769230457
Incorrectly Classified Instances: 16.73
Correctly Classified Instances: 83.27
Weighted Precision: 0.8398560784215139
Weighted AreaUnderROC: 0.9794302619894968
Root mean squared error: 0.10510653935595596
Relative absolute error: 36.485280000008636
Root relative squared error: 54.65540046510091
Weighted TruePositiveRate: 0.8327
Weighted MatthewsCorrelation: 0.8283805337214298
Weighted FMeasure: 0.8336151698959182
Iteration time: 452.0
Weighted AreaUnderPRC: 0.8785255699216157
Mean absolute error: 0.02698615384615647
Coverage of cases: 97.23
Instances selection time: 72.0
Test time: 223.0
Accumulative iteration time: 10658.0
Weighted Recall: 0.8327
Weighted FalsePositiveRate: 0.006693116385775194
Kappa statistic: 0.8259986204904378
Training time: 380.0
		
Iteration: 27
Labeled set size: 2520
Unlabelled set size: 7480
	
Mean region size: 13.827307692307583
Incorrectly Classified Instances: 16.58
Correctly Classified Instances: 83.42
Weighted Precision: 0.8420748664892947
Weighted AreaUnderROC: 0.9798080289092003
Root mean squared error: 0.10561468429371976
Relative absolute error: 37.572080000008974
Root relative squared error: 54.91963583273811
Weighted TruePositiveRate: 0.8342
Weighted MatthewsCorrelation: 0.8304087720555005
Weighted FMeasure: 0.8357080886462354
Iteration time: 463.0
Weighted AreaUnderPRC: 0.8791442448159938
Mean absolute error: 0.027790000000002767
Coverage of cases: 97.31
Instances selection time: 73.0
Test time: 224.0
Accumulative iteration time: 11121.0
Weighted Recall: 0.8342
Weighted FalsePositiveRate: 0.006628604444433526
Kappa statistic: 0.8275593143695936
Training time: 390.0
		
Iteration: 28
Labeled set size: 2540
Unlabelled set size: 7460
	
Mean region size: 13.411153846153645
Incorrectly Classified Instances: 16.32
Correctly Classified Instances: 83.68
Weighted Precision: 0.8441359242390041
Weighted AreaUnderROC: 0.9784980990210989
Root mean squared error: 0.10476457122813945
Relative absolute error: 36.46032000000851
Root relative squared error: 54.47757703863632
Weighted TruePositiveRate: 0.8368
Weighted MatthewsCorrelation: 0.8327459844062504
Weighted FMeasure: 0.8378503459635116
Iteration time: 464.0
Weighted AreaUnderPRC: 0.8787330695821198
Mean absolute error: 0.02696769230769484
Coverage of cases: 97.04
Instances selection time: 73.0
Test time: 225.0
Accumulative iteration time: 11585.0
Weighted Recall: 0.8368
Weighted FalsePositiveRate: 0.006543239157176871
Kappa statistic: 0.830260355860412
Training time: 391.0
		
Iteration: 29
Labeled set size: 2560
Unlabelled set size: 7440
	
Mean region size: 13.757307692307426
Incorrectly Classified Instances: 15.97
Correctly Classified Instances: 84.03
Weighted Precision: 0.8476810295910089
Weighted AreaUnderROC: 0.9792865315427663
Root mean squared error: 0.10482439528160592
Relative absolute error: 37.14568000000872
Root relative squared error: 54.50868554643888
Weighted TruePositiveRate: 0.8403
Weighted MatthewsCorrelation: 0.8364632091341826
Weighted FMeasure: 0.8415083178010174
Iteration time: 477.0
Weighted AreaUnderPRC: 0.8822827616691215
Mean absolute error: 0.027474615384618005
Coverage of cases: 97.18
Instances selection time: 77.0
Test time: 227.0
Accumulative iteration time: 12062.0
Weighted Recall: 0.8403
Weighted FalsePositiveRate: 0.006397429041502155
Kappa statistic: 0.83390446138857
Training time: 400.0
		
Iteration: 30
Labeled set size: 2580
Unlabelled set size: 7420
	
Mean region size: 13.438076923076709
Incorrectly Classified Instances: 15.62
Correctly Classified Instances: 84.38
Weighted Precision: 0.8504714739058933
Weighted AreaUnderROC: 0.9804544995071065
Root mean squared error: 0.10353446100398195
Relative absolute error: 36.256480000008594
Root relative squared error: 53.83791972207437
Weighted TruePositiveRate: 0.8438
Weighted MatthewsCorrelation: 0.8399708615788543
Weighted FMeasure: 0.8451159271836319
Iteration time: 472.0
Weighted AreaUnderPRC: 0.8850933477501881
Mean absolute error: 0.026816923076925694
Coverage of cases: 97.37
Instances selection time: 71.0
Test time: 224.0
Accumulative iteration time: 12534.0
Weighted Recall: 0.8438
Weighted FalsePositiveRate: 0.006260252624915401
Kappa statistic: 0.837541488934334
Training time: 401.0
		
Iteration: 31
Labeled set size: 2600
Unlabelled set size: 7400
	
Mean region size: 13.676153846153792
Incorrectly Classified Instances: 16.81
Correctly Classified Instances: 83.19
Weighted Precision: 0.8393500365727526
Weighted AreaUnderROC: 0.9791577281022139
Root mean squared error: 0.10548496064879327
Relative absolute error: 37.305840000008885
Root relative squared error: 54.85217953737633
Weighted TruePositiveRate: 0.8319
Weighted MatthewsCorrelation: 0.8278107237223857
Weighted FMeasure: 0.8332443823698701
Iteration time: 480.0
Weighted AreaUnderPRC: 0.8786255199729982
Mean absolute error: 0.02759307692307965
Coverage of cases: 97.19
Instances selection time: 73.0
Test time: 227.0
Accumulative iteration time: 13014.0
Weighted Recall: 0.8319
Weighted FalsePositiveRate: 0.006732045126299622
Kappa statistic: 0.8251680503213153
Training time: 407.0
		
Iteration: 32
Labeled set size: 2620
Unlabelled set size: 7380
	
Mean region size: 13.389999999999901
Incorrectly Classified Instances: 15.88
Correctly Classified Instances: 84.12
Weighted Precision: 0.8472636265448747
Weighted AreaUnderROC: 0.9810570129618109
Root mean squared error: 0.1036677384724898
Relative absolute error: 36.23048000000861
Root relative squared error: 53.90722400569846
Weighted TruePositiveRate: 0.8412
Weighted MatthewsCorrelation: 0.8370601249080742
Weighted FMeasure: 0.8424388029799231
Iteration time: 477.0
Weighted AreaUnderPRC: 0.8856465477531102
Mean absolute error: 0.02679769230769494
Coverage of cases: 97.48
Instances selection time: 73.0
Test time: 228.0
Accumulative iteration time: 13491.0
Weighted Recall: 0.8412
Weighted FalsePositiveRate: 0.006364708367978489
Kappa statistic: 0.8348390248883548
Training time: 404.0
		
Iteration: 33
Labeled set size: 2640
Unlabelled set size: 7360
	
Mean region size: 13.449615384615111
Incorrectly Classified Instances: 15.55
Correctly Classified Instances: 84.45
Weighted Precision: 0.8503913567735865
Weighted AreaUnderROC: 0.9820199766391493
Root mean squared error: 0.10361838268748316
Relative absolute error: 36.40832000000869
Root relative squared error: 53.881558997495006
Weighted TruePositiveRate: 0.8445
Weighted MatthewsCorrelation: 0.8403242819346642
Weighted FMeasure: 0.8454496873515734
Iteration time: 490.0
Weighted AreaUnderPRC: 0.8886944397363106
Mean absolute error: 0.026929230769233446
Coverage of cases: 97.65
Instances selection time: 72.0
Test time: 226.0
Accumulative iteration time: 13981.0
Weighted Recall: 0.8445
Weighted FalsePositiveRate: 0.006219204750089911
Kappa statistic: 0.838271816942085
Training time: 418.0
		
Iteration: 34
Labeled set size: 2660
Unlabelled set size: 7340
	
Mean region size: 13.426153846153783
Incorrectly Classified Instances: 15.4
Correctly Classified Instances: 84.6
Weighted Precision: 0.8500545542096687
Weighted AreaUnderROC: 0.9807894866571669
Root mean squared error: 0.10346422644492505
Relative absolute error: 36.31472000000861
Root relative squared error: 53.801397751364775
Weighted TruePositiveRate: 0.846
Weighted MatthewsCorrelation: 0.8413927255648918
Weighted FMeasure: 0.8469742467150749
Iteration time: 485.0
Weighted AreaUnderPRC: 0.8861985548828416
Mean absolute error: 0.02686000000000263
Coverage of cases: 97.42
Instances selection time: 71.0
Test time: 226.0
Accumulative iteration time: 14466.0
Weighted Recall: 0.846
Weighted FalsePositiveRate: 0.0061598625392388345
Kappa statistic: 0.8398323872974351
Training time: 414.0
		
Iteration: 35
Labeled set size: 2680
Unlabelled set size: 7320
	
Mean region size: 13.493076923076849
Incorrectly Classified Instances: 15.37
Correctly Classified Instances: 84.63
Weighted Precision: 0.851796675461565
Weighted AreaUnderROC: 0.9840902920498779
Root mean squared error: 0.10296638734595633
Relative absolute error: 36.341760000008584
Root relative squared error: 53.54252141990102
Weighted TruePositiveRate: 0.8463
Weighted MatthewsCorrelation: 0.8421448095025493
Weighted FMeasure: 0.8473715377718376
Iteration time: 495.0
Weighted AreaUnderPRC: 0.8928502572611678
Mean absolute error: 0.026880000000002603
Coverage of cases: 98.01
Instances selection time: 72.0
Test time: 227.0
Accumulative iteration time: 14961.0
Weighted Recall: 0.8463
Weighted FalsePositiveRate: 0.00614702225402412
Kappa statistic: 0.840144131126826
Training time: 423.0
		
Iteration: 36
Labeled set size: 2700
Unlabelled set size: 7300
	
Mean region size: 13.72999999999986
Incorrectly Classified Instances: 16.08
Correctly Classified Instances: 83.92
Weighted Precision: 0.8450509731501026
Weighted AreaUnderROC: 0.9798154117519844
Root mean squared error: 0.10501245347393771
Relative absolute error: 37.20704000000893
Root relative squared error: 54.60647580645142
Weighted TruePositiveRate: 0.8392
Weighted MatthewsCorrelation: 0.8347949489643566
Weighted FMeasure: 0.8401325043635989
Iteration time: 497.0
Weighted AreaUnderPRC: 0.8813897489754976
Mean absolute error: 0.027520000000002768
Coverage of cases: 97.3
Instances selection time: 71.0
Test time: 224.0
Accumulative iteration time: 15458.0
Weighted Recall: 0.8392
Weighted FalsePositiveRate: 0.006438883285092025
Kappa statistic: 0.8327574281287528
Training time: 426.0
		
Iteration: 37
Labeled set size: 2720
Unlabelled set size: 7280
	
Mean region size: 13.499230769230614
Incorrectly Classified Instances: 15.19
Correctly Classified Instances: 84.81
Weighted Precision: 0.8523599952383287
Weighted AreaUnderROC: 0.9831251937656212
Root mean squared error: 0.10309293790631023
Relative absolute error: 36.39792000000871
Root relative squared error: 53.60832771128506
Weighted TruePositiveRate: 0.8481
Weighted MatthewsCorrelation: 0.8434695233313987
Weighted FMeasure: 0.848725846065426
Iteration time: 505.0
Weighted AreaUnderPRC: 0.8909342445891327
Mean absolute error: 0.026921538461541154
Coverage of cases: 97.83
Instances selection time: 72.0
Test time: 224.0
Accumulative iteration time: 15963.0
Weighted Recall: 0.8481
Weighted FalsePositiveRate: 0.006089948731115686
Kappa statistic: 0.8420135564641364
Training time: 433.0
		
Iteration: 38
Labeled set size: 2740
Unlabelled set size: 7260
	
Mean region size: 13.634230769230662
Incorrectly Classified Instances: 15.35
Correctly Classified Instances: 84.65
Weighted Precision: 0.8522714060560848
Weighted AreaUnderROC: 0.9805623633538677
Root mean squared error: 0.10411679831952304
Relative absolute error: 37.01048000000892
Root relative squared error: 54.14073512615576
Weighted TruePositiveRate: 0.8465
Weighted MatthewsCorrelation: 0.8424662839529783
Weighted FMeasure: 0.8476669537275371
Iteration time: 506.0
Weighted AreaUnderPRC: 0.8872040805607602
Mean absolute error: 0.027374615384618165
Coverage of cases: 97.35
Instances selection time: 72.0
Test time: 225.0
Accumulative iteration time: 16469.0
Weighted Recall: 0.8465
Weighted FalsePositiveRate: 0.006149536005779818
Kappa statistic: 0.840350110647254
Training time: 434.0
		
Iteration: 39
Labeled set size: 2760
Unlabelled set size: 7240
	
Mean region size: 13.291923076922846
Incorrectly Classified Instances: 14.91
Correctly Classified Instances: 85.09
Weighted Precision: 0.8555871245814615
Weighted AreaUnderROC: 0.9832249955472285
Root mean squared error: 0.10189096736595331
Relative absolute error: 35.702160000008455
Root relative squared error: 52.983303030299425
Weighted TruePositiveRate: 0.8509
Weighted MatthewsCorrelation: 0.8466577389156391
Weighted FMeasure: 0.8518722369958197
Iteration time: 505.0
Weighted AreaUnderPRC: 0.8951569671913127
Mean absolute error: 0.026406923076925652
Coverage of cases: 97.8
Instances selection time: 70.0
Test time: 224.0
Accumulative iteration time: 16974.0
Weighted Recall: 0.8509
Weighted FalsePositiveRate: 0.005969799652411302
Kappa statistic: 0.8449277085947231
Training time: 435.0
		
Iteration: 40
Labeled set size: 2780
Unlabelled set size: 7220
	
Mean region size: 13.689999999999866
Incorrectly Classified Instances: 15.28
Correctly Classified Instances: 84.72
Weighted Precision: 0.8533500325640739
Weighted AreaUnderROC: 0.9810958242474422
Root mean squared error: 0.10407393821406569
Relative absolute error: 37.03752000000891
Root relative squared error: 54.11844787131793
Weighted TruePositiveRate: 0.8472
Weighted MatthewsCorrelation: 0.8433399906491995
Weighted FMeasure: 0.8484720687713978
Iteration time: 512.0
Weighted AreaUnderPRC: 0.8883557653108406
Mean absolute error: 0.027394615384618157
Coverage of cases: 97.47
Instances selection time: 70.0
Test time: 224.0
Accumulative iteration time: 17486.0
Weighted Recall: 0.8472
Weighted FalsePositiveRate: 0.00611638915502108
Kappa statistic: 0.8410808234642583
Training time: 442.0
		
Iteration: 41
Labeled set size: 2800
Unlabelled set size: 7200
	
Mean region size: 13.42153846153827
Incorrectly Classified Instances: 14.3
Correctly Classified Instances: 85.7
Weighted Precision: 0.8626185058769368
Weighted AreaUnderROC: 0.9849334652056119
Root mean squared error: 0.10191059430093483
Relative absolute error: 36.0027200000086
Root relative squared error: 52.993509036489804
Weighted TruePositiveRate: 0.857
Weighted MatthewsCorrelation: 0.8532425560550506
Weighted FMeasure: 0.8579333606620466
Iteration time: 510.0
Weighted AreaUnderPRC: 0.8993443468563305
Mean absolute error: 0.02662923076923342
Coverage of cases: 98.09
Instances selection time: 68.0
Test time: 220.0
Accumulative iteration time: 17996.0
Weighted Recall: 0.857
Weighted FalsePositiveRate: 0.005724562038037003
Kappa statistic: 0.8512712156020613
Training time: 442.0
		
Iteration: 42
Labeled set size: 2820
Unlabelled set size: 7180
	
Mean region size: 13.30423076923067
Incorrectly Classified Instances: 14.25
Correctly Classified Instances: 85.75
Weighted Precision: 0.862380974262408
Weighted AreaUnderROC: 0.984279758216232
Root mean squared error: 0.10143319135121795
Relative absolute error: 35.50872000000848
Root relative squared error: 52.74525950263701
Weighted TruePositiveRate: 0.8575
Weighted MatthewsCorrelation: 0.8533490608600125
Weighted FMeasure: 0.8579947023493011
Iteration time: 518.0
Weighted AreaUnderPRC: 0.8999252596463344
Mean absolute error: 0.026263846153848767
Coverage of cases: 97.92
Instances selection time: 72.0
Test time: 224.0
Accumulative iteration time: 18514.0
Weighted Recall: 0.8575
Weighted FalsePositiveRate: 0.005712704978317708
Kappa statistic: 0.8517925318849647
Training time: 446.0
		
Iteration: 43
Labeled set size: 2840
Unlabelled set size: 7160
	
Mean region size: 13.304230769230614
Incorrectly Classified Instances: 14.28
Correctly Classified Instances: 85.72
Weighted Precision: 0.8622289529010384
Weighted AreaUnderROC: 0.9841024170088409
Root mean squared error: 0.10178370732550276
Relative absolute error: 35.673040000008584
Root relative squared error: 52.92752780926513
Weighted TruePositiveRate: 0.8572
Weighted MatthewsCorrelation: 0.8531246096828902
Weighted FMeasure: 0.8577786455237012
Iteration time: 525.0
Weighted AreaUnderPRC: 0.8971075063947512
Mean absolute error: 0.026385384615387284
Coverage of cases: 97.93
Instances selection time: 70.0
Test time: 224.0
Accumulative iteration time: 19039.0
Weighted Recall: 0.8572
Weighted FalsePositiveRate: 0.005716172732314176
Kappa statistic: 0.8514798751174562
Training time: 455.0
		
Iteration: 44
Labeled set size: 2860
Unlabelled set size: 7140
	
Mean region size: 13.570769230769173
Incorrectly Classified Instances: 14.8
Correctly Classified Instances: 85.2
Weighted Precision: 0.8568109195844558
Weighted AreaUnderROC: 0.9825508510327811
Root mean squared error: 0.1028191092685101
Relative absolute error: 36.47280000000875
Root relative squared error: 53.465936819628986
Weighted TruePositiveRate: 0.852
Weighted MatthewsCorrelation: 0.8477342014835274
Weighted FMeasure: 0.8527643308252453
Iteration time: 524.0
Weighted AreaUnderPRC: 0.8937051676394442
Mean absolute error: 0.026976923076925795
Coverage of cases: 97.7
Instances selection time: 69.0
Test time: 223.0
Accumulative iteration time: 19563.0
Weighted Recall: 0.852
Weighted FalsePositiveRate: 0.005929574789574649
Kappa statistic: 0.8460723525050461
Training time: 455.0
		
Iteration: 45
Labeled set size: 2880
Unlabelled set size: 7120
	
Mean region size: 13.4930769230768
Incorrectly Classified Instances: 13.79
Correctly Classified Instances: 86.21
Weighted Precision: 0.8682485190084696
Weighted AreaUnderROC: 0.9856700946004183
Root mean squared error: 0.10167330789574017
Relative absolute error: 36.02456000000872
Root relative squared error: 52.87012010578858
Weighted TruePositiveRate: 0.8621
Weighted MatthewsCorrelation: 0.8586918550057795
Weighted FMeasure: 0.8630428340478978
Iteration time: 537.0
Weighted AreaUnderPRC: 0.9038408252880789
Mean absolute error: 0.02664538461538735
Coverage of cases: 98.21
Instances selection time: 71.0
Test time: 235.0
Accumulative iteration time: 20100.0
Weighted Recall: 0.8621
Weighted FalsePositiveRate: 0.0055091225503073726
Kappa statistic: 0.8565786524490038
Training time: 466.0
		
Iteration: 46
Labeled set size: 2900
Unlabelled set size: 7100
	
Mean region size: 13.507692307692183
Incorrectly Classified Instances: 13.92
Correctly Classified Instances: 86.08
Weighted Precision: 0.865599439223723
Weighted AreaUnderROC: 0.9850182756360925
Root mean squared error: 0.10118300252513028
Relative absolute error: 35.825920000008644
Root relative squared error: 52.615161313071425
Weighted TruePositiveRate: 0.8608
Weighted MatthewsCorrelation: 0.8569334898750333
Weighted FMeasure: 0.8616548658849806
Iteration time: 538.0
Weighted AreaUnderPRC: 0.9031231593200395
Mean absolute error: 0.02649846153846424
Coverage of cases: 98.04
Instances selection time: 69.0
Test time: 222.0
Accumulative iteration time: 20638.0
Weighted Recall: 0.8608
Weighted FalsePositiveRate: 0.005560748242529928
Kappa statistic: 0.8552271230071382
Training time: 469.0
		
Time end:Tue Oct 31 16.49.38 EET 2017