Tue Oct 31 16.41.01 EET 2017
Dataset: letter
Test set size: 10000
Initial Labelled set size: 2000
Initial Unlabelled set size: 8000
Batch mode: QBestBatchMode
Batch size: 20
Classifiers: J48-1cores
Scenario: PoolBasedSamplingScenario
Query strategy: EntropySamplingQueryStrategy-1cores
Time begining: Tue Oct 31 16.41.01 EET 2017
		
Iteration: 1
Labeled set size: 2000
Unlabelled set size: 8000
	
Mean region size: 5.495384615385333
Incorrectly Classified Instances: 28.38
Correctly Classified Instances: 71.62
Weighted Precision: 0.7227816693406803
Weighted AreaUnderROC: 0.8799411936581769
Root mean squared error: 0.13880977626128982
Relative absolute error: 31.851299282268993
Root relative squared error: 72.18108365587574
Weighted TruePositiveRate: 0.7162
Weighted MatthewsCorrelation: 0.7069311899479831
Weighted FMeasure: 0.7167931800773628
Iteration time: 211.0
Weighted AreaUnderPRC: 0.6026582696891531
Mean absolute error: 0.023558653315284433
Coverage of cases: 76.72
Instances selection time: 48.0
Test time: 179.0
Accumulative iteration time: 211.0
Weighted Recall: 0.7162
Weighted FalsePositiveRate: 0.011343538807735854
Kappa statistic: 0.7048307904544066
Training time: 163.0
		
Iteration: 2
Labeled set size: 2020
Unlabelled set size: 7980
	
Mean region size: 5.425769230769922
Incorrectly Classified Instances: 26.99
Correctly Classified Instances: 73.01
Weighted Precision: 0.7346661784088063
Weighted AreaUnderROC: 0.8809419480848782
Root mean squared error: 0.13511056524345771
Relative absolute error: 30.76474437163761
Root relative squared error: 70.25749392660292
Weighted TruePositiveRate: 0.7301
Weighted MatthewsCorrelation: 0.7209297986897122
Weighted FMeasure: 0.7308882969199234
Iteration time: 192.0
Weighted AreaUnderPRC: 0.6200158443457257
Mean absolute error: 0.02275498844055719
Coverage of cases: 77.18
Instances selection time: 44.0
Test time: 174.0
Accumulative iteration time: 403.0
Weighted Recall: 0.7301
Weighted FalsePositiveRate: 0.010784612255069704
Kappa statistic: 0.7192913265648118
Training time: 148.0
		
Iteration: 3
Labeled set size: 2040
Unlabelled set size: 7960
	
Mean region size: 5.552307692308371
Incorrectly Classified Instances: 28.0
Correctly Classified Instances: 72.0
Weighted Precision: 0.7264920696012773
Weighted AreaUnderROC: 0.8776407640284402
Root mean squared error: 0.1362291190467765
Relative absolute error: 31.629054031681967
Root relative squared error: 70.83914190432873
Weighted TruePositiveRate: 0.72
Weighted MatthewsCorrelation: 0.7110481357373433
Weighted FMeasure: 0.7209979798082019
Iteration time: 196.0
Weighted AreaUnderPRC: 0.6181541031380225
Mean absolute error: 0.02339427073348932
Coverage of cases: 76.48
Instances selection time: 44.0
Test time: 174.0
Accumulative iteration time: 599.0
Weighted Recall: 0.72
Weighted FalsePositiveRate: 0.011182141417173294
Kappa statistic: 0.7087887180089976
Training time: 152.0
		
Iteration: 4
Labeled set size: 2060
Unlabelled set size: 7940
	
Mean region size: 5.951538461539197
Incorrectly Classified Instances: 28.73
Correctly Classified Instances: 71.27
Weighted Precision: 0.7161508627487702
Weighted AreaUnderROC: 0.8772044333694603
Root mean squared error: 0.13748804178631968
Relative absolute error: 32.38263270320173
Root relative squared error: 71.49378172889122
Weighted TruePositiveRate: 0.7127
Weighted MatthewsCorrelation: 0.7022587541552088
Weighted FMeasure: 0.7128940997006205
Iteration time: 198.0
Weighted AreaUnderPRC: 0.6163628163184016
Mean absolute error: 0.02395165140769025
Coverage of cases: 76.7
Instances selection time: 44.0
Test time: 174.0
Accumulative iteration time: 797.0
Weighted Recall: 0.7127
Weighted FalsePositiveRate: 0.011481018800312697
Kappa statistic: 0.7011933223769499
Training time: 154.0
		
Iteration: 5
Labeled set size: 2080
Unlabelled set size: 7920
	
Mean region size: 5.7996153846161
Incorrectly Classified Instances: 28.92
Correctly Classified Instances: 71.08
Weighted Precision: 0.7152490900700433
Weighted AreaUnderROC: 0.8754450642573194
Root mean squared error: 0.13950180862423736
Relative absolute error: 32.79051871444504
Root relative squared error: 72.54094048460848
Weighted TruePositiveRate: 0.7108
Weighted MatthewsCorrelation: 0.7004103759224092
Weighted FMeasure: 0.7106703687072214
Iteration time: 214.0
Weighted AreaUnderPRC: 0.5976979246942904
Mean absolute error: 0.024253342244408636
Coverage of cases: 75.66
Instances selection time: 47.0
Test time: 178.0
Accumulative iteration time: 1011.0
Weighted Recall: 0.7108
Weighted FalsePositiveRate: 0.011558677544023021
Kappa statistic: 0.6992183170803059
Training time: 167.0
		
Iteration: 6
Labeled set size: 2100
Unlabelled set size: 7900
	
Mean region size: 5.124615384616014
Incorrectly Classified Instances: 29.01
Correctly Classified Instances: 70.99
Weighted Precision: 0.7129000946823658
Weighted AreaUnderROC: 0.8718474517086734
Root mean squared error: 0.14024279514203555
Relative absolute error: 31.99539869263181
Root relative squared error: 72.92625347386358
Weighted TruePositiveRate: 0.7099
Weighted MatthewsCorrelation: 0.6988704834909547
Weighted FMeasure: 0.7093228771852071
Iteration time: 218.0
Weighted AreaUnderPRC: 0.5899483348007595
Mean absolute error: 0.02366523571939893
Coverage of cases: 74.99
Instances selection time: 46.0
Test time: 180.0
Accumulative iteration time: 1229.0
Weighted Recall: 0.7099
Weighted FalsePositiveRate: 0.011594390039903991
Kappa statistic: 0.698283253553643
Training time: 172.0
		
Iteration: 7
Labeled set size: 2120
Unlabelled set size: 7880
	
Mean region size: 5.058076923077533
Incorrectly Classified Instances: 29.19
Correctly Classified Instances: 70.81
Weighted Precision: 0.7116744246119199
Weighted AreaUnderROC: 0.8703138770705818
Root mean squared error: 0.14094992664672773
Relative absolute error: 32.13120538985234
Root relative squared error: 73.29396185630354
Weighted TruePositiveRate: 0.7081
Weighted MatthewsCorrelation: 0.6972404807193605
Weighted FMeasure: 0.7077063724090292
Iteration time: 218.0
Weighted AreaUnderPRC: 0.5875501313874817
Mean absolute error: 0.023765684459946645
Coverage of cases: 74.76
Instances selection time: 46.0
Test time: 178.0
Accumulative iteration time: 1447.0
Weighted Recall: 0.7081
Weighted FalsePositiveRate: 0.011664170230382197
Kappa statistic: 0.6964113007632754
Training time: 172.0
		
Iteration: 8
Labeled set size: 2140
Unlabelled set size: 7860
	
Mean region size: 5.549615384616083
Incorrectly Classified Instances: 28.13
Correctly Classified Instances: 71.87
Weighted Precision: 0.7239606401256218
Weighted AreaUnderROC: 0.8842166503548132
Root mean squared error: 0.1356803034711769
Relative absolute error: 31.55174404568521
Root relative squared error: 70.55375780501691
Weighted TruePositiveRate: 0.7187
Weighted MatthewsCorrelation: 0.7090569179617042
Weighted FMeasure: 0.7190323906445338
Iteration time: 221.0
Weighted AreaUnderPRC: 0.6326433977973754
Mean absolute error: 0.023337088791184037
Coverage of cases: 77.13
Instances selection time: 46.0
Test time: 176.0
Accumulative iteration time: 1668.0
Weighted Recall: 0.7187
Weighted FalsePositiveRate: 0.011236594730028169
Kappa statistic: 0.7074389233511091
Training time: 175.0
		
Iteration: 9
Labeled set size: 2160
Unlabelled set size: 7840
	
Mean region size: 5.4338461538468295
Incorrectly Classified Instances: 27.57
Correctly Classified Instances: 72.43
Weighted Precision: 0.7257923389348477
Weighted AreaUnderROC: 0.8834893616885819
Root mean squared error: 0.13614630283012216
Relative absolute error: 31.402985938375906
Root relative squared error: 70.79607747166847
Weighted TruePositiveRate: 0.7243
Weighted MatthewsCorrelation: 0.7133522810395467
Weighted FMeasure: 0.7235447238756939
Iteration time: 223.0
Weighted AreaUnderPRC: 0.624695792888855
Mean absolute error: 0.023227060605304384
Coverage of cases: 76.97
Instances selection time: 46.0
Test time: 180.0
Accumulative iteration time: 1891.0
Weighted Recall: 0.7243
Weighted FalsePositiveRate: 0.011031926534048825
Kappa statistic: 0.7132541841383656
Training time: 177.0
		
Iteration: 10
Labeled set size: 2180
Unlabelled set size: 7820
	
Mean region size: 5.268846153846817
Incorrectly Classified Instances: 27.74
Correctly Classified Instances: 72.26
Weighted Precision: 0.7248906776258233
Weighted AreaUnderROC: 0.8812808076002809
Root mean squared error: 0.13684713405165638
Relative absolute error: 31.346115228267166
Root relative squared error: 71.16050970686629
Weighted TruePositiveRate: 0.7226
Weighted MatthewsCorrelation: 0.7120823000866687
Weighted FMeasure: 0.7224607718383077
Iteration time: 229.0
Weighted AreaUnderPRC: 0.6183756229094276
Mean absolute error: 0.02318499647060858
Coverage of cases: 76.5
Instances selection time: 47.0
Test time: 178.0
Accumulative iteration time: 2120.0
Weighted Recall: 0.7226
Weighted FalsePositiveRate: 0.011085626584108225
Kappa statistic: 0.7114923876840074
Training time: 182.0
		
Iteration: 11
Labeled set size: 2200
Unlabelled set size: 7800
	
Mean region size: 5.2915384615390995
Incorrectly Classified Instances: 28.66
Correctly Classified Instances: 71.34
Weighted Precision: 0.7186271806008899
Weighted AreaUnderROC: 0.875424834937592
Root mean squared error: 0.1385545098521337
Relative absolute error: 31.87551121633108
Root relative squared error: 72.04834512311456
Weighted TruePositiveRate: 0.7134
Weighted MatthewsCorrelation: 0.7036956638730378
Weighted FMeasure: 0.7140897280542383
Iteration time: 230.0
Weighted AreaUnderPRC: 0.6060638196689565
Mean absolute error: 0.023576561550537455
Coverage of cases: 75.69
Instances selection time: 47.0
Test time: 181.0
Accumulative iteration time: 2350.0
Weighted Recall: 0.7134
Weighted FalsePositiveRate: 0.011445007564109856
Kappa statistic: 0.7019272142450254
Training time: 183.0
		
Iteration: 12
Labeled set size: 2220
Unlabelled set size: 7780
	
Mean region size: 5.80923076923147
Incorrectly Classified Instances: 28.49
Correctly Classified Instances: 71.51
Weighted Precision: 0.7231188145404525
Weighted AreaUnderROC: 0.8827766033090122
Root mean squared error: 0.13667722981403163
Relative absolute error: 32.366097145755475
Root relative squared error: 71.0721595033014
Weighted TruePositiveRate: 0.7151
Weighted MatthewsCorrelation: 0.7064507310800978
Weighted FMeasure: 0.7162880640583067
Iteration time: 229.0
Weighted AreaUnderPRC: 0.630079446661508
Mean absolute error: 0.023939420965792133
Coverage of cases: 77.07
Instances selection time: 45.0
Test time: 178.0
Accumulative iteration time: 2579.0
Weighted Recall: 0.7151
Weighted FalsePositiveRate: 0.011391525155583346
Kappa statistic: 0.7036892076911506
Training time: 184.0
		
Iteration: 13
Labeled set size: 2240
Unlabelled set size: 7760
	
Mean region size: 5.68230769230837
Incorrectly Classified Instances: 29.36
Correctly Classified Instances: 70.64
Weighted Precision: 0.7121500560210637
Weighted AreaUnderROC: 0.8765843374624924
Root mean squared error: 0.13932007621712353
Relative absolute error: 32.759221271469485
Root relative squared error: 72.44643963290929
Weighted TruePositiveRate: 0.7064
Weighted MatthewsCorrelation: 0.6962838789861072
Weighted FMeasure: 0.7064910651872844
Iteration time: 242.0
Weighted AreaUnderPRC: 0.6091489154003343
Mean absolute error: 0.024230193248124945
Coverage of cases: 76.29
Instances selection time: 47.0
Test time: 184.0
Accumulative iteration time: 2821.0
Weighted Recall: 0.7064
Weighted FalsePositiveRate: 0.011749810527243746
Kappa statistic: 0.6946341182137893
Training time: 195.0
		
Iteration: 14
Labeled set size: 2260
Unlabelled set size: 7740
	
Mean region size: 5.499230769231447
Incorrectly Classified Instances: 27.94
Correctly Classified Instances: 72.06
Weighted Precision: 0.72595280491753
Weighted AreaUnderROC: 0.879790322435881
Root mean squared error: 0.13697687446208248
Relative absolute error: 31.544184494422762
Root relative squared error: 71.22797472028786
Weighted TruePositiveRate: 0.7206
Weighted MatthewsCorrelation: 0.7111826645545859
Weighted FMeasure: 0.7212209811705065
Iteration time: 241.0
Weighted AreaUnderPRC: 0.6153537186567145
Mean absolute error: 0.02333149740711418
Coverage of cases: 76.68
Instances selection time: 48.0
Test time: 182.0
Accumulative iteration time: 3062.0
Weighted Recall: 0.7206
Weighted FalsePositiveRate: 0.011160830421056837
Kappa statistic: 0.7094151508777067
Training time: 193.0
		
Iteration: 15
Labeled set size: 2280
Unlabelled set size: 7720
	
Mean region size: 5.946538461539171
Incorrectly Classified Instances: 29.88
Correctly Classified Instances: 70.12
Weighted Precision: 0.7051326707943645
Weighted AreaUnderROC: 0.8745016558558844
Root mean squared error: 0.14031748615327005
Relative absolute error: 33.48824828856913
Root relative squared error: 72.96509279970552
Weighted TruePositiveRate: 0.7012
Weighted MatthewsCorrelation: 0.6899215445277765
Weighted FMeasure: 0.7002888134588248
Iteration time: 247.0
Weighted AreaUnderPRC: 0.6020915471162953
Mean absolute error: 0.02476941441461869
Coverage of cases: 75.75
Instances selection time: 47.0
Test time: 182.0
Accumulative iteration time: 3309.0
Weighted Recall: 0.7012
Weighted FalsePositiveRate: 0.011980287841083403
Kappa statistic: 0.6892161369465972
Training time: 200.0
		
Iteration: 16
Labeled set size: 2300
Unlabelled set size: 7700
	
Mean region size: 5.560000000000643
Incorrectly Classified Instances: 29.38
Correctly Classified Instances: 70.62
Weighted Precision: 0.7110613857203432
Weighted AreaUnderROC: 0.8734904571644051
Root mean squared error: 0.13952218066775787
Relative absolute error: 32.55419838970455
Root relative squared error: 72.55153394723915
Weighted TruePositiveRate: 0.7062
Weighted MatthewsCorrelation: 0.6955578943562677
Weighted FMeasure: 0.705700456677772
Iteration time: 243.0
Weighted AreaUnderPRC: 0.6048455438089341
Mean absolute error: 0.024078549104807702
Coverage of cases: 75.62
Instances selection time: 46.0
Test time: 181.0
Accumulative iteration time: 3552.0
Weighted Recall: 0.7062
Weighted FalsePositiveRate: 0.0117841076345015
Kappa statistic: 0.6944162474034352
Training time: 197.0
		
Iteration: 17
Labeled set size: 2320
Unlabelled set size: 7680
	
Mean region size: 5.7423076923083745
Incorrectly Classified Instances: 29.99
Correctly Classified Instances: 70.01
Weighted Precision: 0.7042102351388284
Weighted AreaUnderROC: 0.872729552596781
Root mean squared error: 0.14105231565841786
Relative absolute error: 33.43056828856912
Root relative squared error: 73.34720414238241
Weighted TruePositiveRate: 0.7001
Weighted MatthewsCorrelation: 0.6888496298139436
Weighted FMeasure: 0.6992316021821541
Iteration time: 252.0
Weighted AreaUnderPRC: 0.5964431424454262
Mean absolute error: 0.02472675169272519
Coverage of cases: 75.34
Instances selection time: 48.0
Test time: 180.0
Accumulative iteration time: 3804.0
Weighted Recall: 0.7001
Weighted FalsePositiveRate: 0.012014576595315147
Kappa statistic: 0.6880749784959992
Training time: 204.0
		
Iteration: 18
Labeled set size: 2340
Unlabelled set size: 7660
	
Mean region size: 5.17153846153909
Incorrectly Classified Instances: 27.54
Correctly Classified Instances: 72.46
Weighted Precision: 0.7288786882692755
Weighted AreaUnderROC: 0.8784993393176955
Root mean squared error: 0.1369535825186819
Relative absolute error: 30.924066033171485
Root relative squared error: 71.21586290971955
Weighted TruePositiveRate: 0.7246
Weighted MatthewsCorrelation: 0.7148616021541383
Weighted FMeasure: 0.7248050212560095
Iteration time: 252.0
Weighted AreaUnderPRC: 0.6185562218654111
Mean absolute error: 0.02287282990618874
Coverage of cases: 76.45
Instances selection time: 46.0
Test time: 181.0
Accumulative iteration time: 4056.0
Weighted Recall: 0.7246
Weighted FalsePositiveRate: 0.010998501951508885
Kappa statistic: 0.7135753877847599
Training time: 206.0
		
Iteration: 19
Labeled set size: 2360
Unlabelled set size: 7640
	
Mean region size: 5.688461538462206
Incorrectly Classified Instances: 29.52
Correctly Classified Instances: 70.48
Weighted Precision: 0.7094015543776774
Weighted AreaUnderROC: 0.8758432051220912
Root mean squared error: 0.1402521115306759
Relative absolute error: 33.025487743043534
Root relative squared error: 72.93109799595656
Weighted TruePositiveRate: 0.7048
Weighted MatthewsCorrelation: 0.6940259042925018
Weighted FMeasure: 0.7042455721068309
Iteration time: 258.0
Weighted AreaUnderPRC: 0.5988067668041813
Mean absolute error: 0.024427135904614598
Coverage of cases: 76.12
Instances selection time: 47.0
Test time: 182.0
Accumulative iteration time: 4314.0
Weighted Recall: 0.7048
Weighted FalsePositiveRate: 0.011805057877218948
Kappa statistic: 0.6929694976116677
Training time: 211.0
		
Iteration: 20
Labeled set size: 2380
Unlabelled set size: 7620
	
Mean region size: 5.504615384616035
Incorrectly Classified Instances: 28.31
Correctly Classified Instances: 71.69
Weighted Precision: 0.7223769837665219
Weighted AreaUnderROC: 0.8814899621899196
Root mean squared error: 0.13724256701266124
Relative absolute error: 31.67071925552665
Root relative squared error: 71.36613484658884
Weighted TruePositiveRate: 0.7169
Weighted MatthewsCorrelation: 0.7071269126837859
Weighted FMeasure: 0.7169515368081556
Iteration time: 269.0
Weighted AreaUnderPRC: 0.6180019486895172
Mean absolute error: 0.023425088206747217
Coverage of cases: 77.26
Instances selection time: 46.0
Test time: 182.0
Accumulative iteration time: 4583.0
Weighted Recall: 0.7169
Weighted FalsePositiveRate: 0.01129575701515939
Kappa statistic: 0.7055637632299998
Training time: 223.0
		
Iteration: 21
Labeled set size: 2400
Unlabelled set size: 7600
	
Mean region size: 5.3807692307698
Incorrectly Classified Instances: 26.46
Correctly Classified Instances: 73.54
Weighted Precision: 0.7387114122272402
Weighted AreaUnderROC: 0.8833489715653241
Root mean squared error: 0.1346068300355675
Relative absolute error: 29.72445344806506
Root relative squared error: 69.99555161849999
Weighted TruePositiveRate: 0.7354
Weighted MatthewsCorrelation: 0.7256469388811769
Weighted FMeasure: 0.7352118745328204
Iteration time: 259.0
Weighted AreaUnderPRC: 0.6256851782412899
Mean absolute error: 0.021985542491169317
Coverage of cases: 77.26
Instances selection time: 45.0
Test time: 181.0
Accumulative iteration time: 4842.0
Weighted Recall: 0.7354
Weighted FalsePositiveRate: 0.01056733797575517
Kappa statistic: 0.7248099665135539
Training time: 214.0
		
Iteration: 22
Labeled set size: 2420
Unlabelled set size: 7580
	
Mean region size: 5.229615384616054
Incorrectly Classified Instances: 27.24
Correctly Classified Instances: 72.76
Weighted Precision: 0.7324143682838414
Weighted AreaUnderROC: 0.8777042299449813
Root mean squared error: 0.1368821827735314
Relative absolute error: 30.51744984447486
Root relative squared error: 71.1787350422413
Weighted TruePositiveRate: 0.7276
Weighted MatthewsCorrelation: 0.7181906060171945
Weighted FMeasure: 0.7279613189478185
Iteration time: 262.0
Weighted AreaUnderPRC: 0.6109917353553955
Mean absolute error: 0.02257207828733033
Coverage of cases: 76.17
Instances selection time: 46.0
Test time: 181.0
Accumulative iteration time: 5104.0
Weighted Recall: 0.7276
Weighted FalsePositiveRate: 0.010887827457358959
Kappa statistic: 0.7166960885682909
Training time: 216.0
		
Iteration: 23
Labeled set size: 2440
Unlabelled set size: 7560
	
Mean region size: 5.406538461539137
Incorrectly Classified Instances: 28.17
Correctly Classified Instances: 71.83
Weighted Precision: 0.7215208663917421
Weighted AreaUnderROC: 0.8800257552831968
Root mean squared error: 0.13738377169439003
Relative absolute error: 31.535006752382227
Root relative squared error: 71.4395612810878
Weighted TruePositiveRate: 0.7183
Weighted MatthewsCorrelation: 0.7075091342769609
Weighted FMeasure: 0.7173635783449857
Iteration time: 265.0
Weighted AreaUnderPRC: 0.6150690110984179
Mean absolute error: 0.023324709136374133
Coverage of cases: 76.85
Instances selection time: 47.0
Test time: 183.0
Accumulative iteration time: 5369.0
Weighted Recall: 0.7183
Weighted FalsePositiveRate: 0.011258600125311229
Kappa statistic: 0.7070165389111782
Training time: 218.0
		
Iteration: 24
Labeled set size: 2460
Unlabelled set size: 7540
	
Mean region size: 5.224230769231421
Incorrectly Classified Instances: 28.15
Correctly Classified Instances: 71.85
Weighted Precision: 0.7220766088162563
Weighted AreaUnderROC: 0.8775192095113405
Root mean squared error: 0.13818955434393398
Relative absolute error: 31.527360214589542
Root relative squared error: 71.85856825885068
Weighted TruePositiveRate: 0.7185
Weighted MatthewsCorrelation: 0.7077837223586736
Weighted FMeasure: 0.71749837140305
Iteration time: 267.0
Weighted AreaUnderPRC: 0.6056718967655648
Mean absolute error: 0.023319053413154697
Coverage of cases: 76.34
Instances selection time: 46.0
Test time: 180.0
Accumulative iteration time: 5636.0
Weighted Recall: 0.7185
Weighted FalsePositiveRate: 0.011249979951019758
Kappa statistic: 0.7072234414947359
Training time: 221.0
		
Iteration: 25
Labeled set size: 2480
Unlabelled set size: 7520
	
Mean region size: 5.37346153846221
Incorrectly Classified Instances: 26.83
Correctly Classified Instances: 73.17
Weighted Precision: 0.7362678326570513
Weighted AreaUnderROC: 0.8845676366391162
Root mean squared error: 0.13409276431205708
Relative absolute error: 29.92017661685932
Root relative squared error: 69.72823744227455
Weighted TruePositiveRate: 0.7317
Weighted MatthewsCorrelation: 0.7224242994002146
Weighted FMeasure: 0.7321384946133177
Iteration time: 269.0
Weighted AreaUnderPRC: 0.6349746674933684
Mean absolute error: 0.0221303081485615
Coverage of cases: 77.43
Instances selection time: 44.0
Test time: 181.0
Accumulative iteration time: 5905.0
Weighted Recall: 0.7317
Weighted FalsePositiveRate: 0.01074439130257074
Kappa statistic: 0.7209495391377112
Training time: 225.0
		
Iteration: 26
Labeled set size: 2500
Unlabelled set size: 7500
	
Mean region size: 5.305769230769842
Incorrectly Classified Instances: 28.41
Correctly Classified Instances: 71.59
Weighted Precision: 0.7215016826642535
Weighted AreaUnderROC: 0.8809660932120084
Root mean squared error: 0.13813123615852663
Relative absolute error: 31.580322367179583
Root relative squared error: 71.82824280243885
Weighted TruePositiveRate: 0.7159
Weighted MatthewsCorrelation: 0.7058271733766607
Weighted FMeasure: 0.7153266381401842
Iteration time: 267.0
Weighted AreaUnderPRC: 0.613696520554954
Mean absolute error: 0.023358226602940225
Coverage of cases: 76.93
Instances selection time: 45.0
Test time: 181.0
Accumulative iteration time: 6172.0
Weighted Recall: 0.7159
Weighted FalsePositiveRate: 0.01137320377303971
Kappa statistic: 0.7045138888925002
Training time: 222.0
		
Iteration: 27
Labeled set size: 2520
Unlabelled set size: 7480
	
Mean region size: 5.2215384615391125
Incorrectly Classified Instances: 27.49
Correctly Classified Instances: 72.51
Weighted Precision: 0.7304712009629941
Weighted AreaUnderROC: 0.8804643123446895
Root mean squared error: 0.13661243038198984
Relative absolute error: 30.72900458582708
Root relative squared error: 71.03846379863968
Weighted TruePositiveRate: 0.7251
Weighted MatthewsCorrelation: 0.7159107880707279
Weighted FMeasure: 0.7258148012259241
Iteration time: 278.0
Weighted AreaUnderPRC: 0.6208169503872122
Mean absolute error: 0.022728553687738757
Coverage of cases: 76.92
Instances selection time: 45.0
Test time: 182.0
Accumulative iteration time: 6450.0
Weighted Recall: 0.7251
Weighted FalsePositiveRate: 0.0109794675741366
Kappa statistic: 0.7140942943018275
Training time: 233.0
		
Iteration: 28
Labeled set size: 2540
Unlabelled set size: 7460
	
Mean region size: 5.196923076923726
Incorrectly Classified Instances: 28.01
Correctly Classified Instances: 71.99
Weighted Precision: 0.7251232076348828
Weighted AreaUnderROC: 0.8795019284360734
Root mean squared error: 0.1371658354138386
Relative absolute error: 31.24840336217803
Root relative squared error: 71.32623441520104
Weighted TruePositiveRate: 0.7199
Weighted MatthewsCorrelation: 0.71008928782563
Weighted FMeasure: 0.7197949328750666
Iteration time: 273.0
Weighted AreaUnderPRC: 0.6169176694078271
Mean absolute error: 0.023112724380305972
Coverage of cases: 76.51
Instances selection time: 44.0
Test time: 180.0
Accumulative iteration time: 6723.0
Weighted Recall: 0.7199
Weighted FalsePositiveRate: 0.011210715504352839
Kappa statistic: 0.7086781149337745
Training time: 229.0
		
Iteration: 29
Labeled set size: 2560
Unlabelled set size: 7440
	
Mean region size: 5.4773076923083295
Incorrectly Classified Instances: 27.03
Correctly Classified Instances: 72.97
Weighted Precision: 0.7343817686894157
Weighted AreaUnderROC: 0.8857129457879499
Root mean squared error: 0.13557550542061433
Relative absolute error: 30.659796013867393
Root relative squared error: 70.49926281872438
Weighted TruePositiveRate: 0.7297
Weighted MatthewsCorrelation: 0.7202424771605822
Weighted FMeasure: 0.729836116268438
Iteration time: 280.0
Weighted AreaUnderPRC: 0.6244301298611612
Mean absolute error: 0.02267736391557923
Coverage of cases: 77.7
Instances selection time: 44.0
Test time: 180.0
Accumulative iteration time: 7003.0
Weighted Recall: 0.7297
Weighted FalsePositiveRate: 0.010790832862259613
Kappa statistic: 0.7188824388199577
Training time: 236.0
		
Iteration: 30
Labeled set size: 2580
Unlabelled set size: 7420
	
Mean region size: 5.56692307692369
Incorrectly Classified Instances: 27.89
Correctly Classified Instances: 72.11
Weighted Precision: 0.7263624979089414
Weighted AreaUnderROC: 0.8825442901796079
Root mean squared error: 0.13732231451233495
Relative absolute error: 31.65180746195668
Root relative squared error: 71.40760354641917
Weighted TruePositiveRate: 0.7211
Weighted MatthewsCorrelation: 0.7115529749835693
Weighted FMeasure: 0.721444137492537
Iteration time: 279.0
Weighted AreaUnderPRC: 0.6179015777744615
Mean absolute error: 0.02341110019375168
Coverage of cases: 77.24
Instances selection time: 43.0
Test time: 181.0
Accumulative iteration time: 7282.0
Weighted Recall: 0.7211
Weighted FalsePositiveRate: 0.01113697962564779
Kappa statistic: 0.7099368651430341
Training time: 236.0
		
Iteration: 31
Labeled set size: 2600
Unlabelled set size: 7400
	
Mean region size: 5.372307692308376
Incorrectly Classified Instances: 27.18
Correctly Classified Instances: 72.82
Weighted Precision: 0.7337815470441378
Weighted AreaUnderROC: 0.8848478346619036
Root mean squared error: 0.13528793163824676
Relative absolute error: 30.58084314195759
Root relative squared error: 70.34972445189322
Weighted TruePositiveRate: 0.7282
Weighted MatthewsCorrelation: 0.7188858545908133
Weighted FMeasure: 0.7282258076016154
Iteration time: 291.0
Weighted AreaUnderPRC: 0.6255281498951003
Mean absolute error: 0.022618966820971396
Coverage of cases: 77.74
Instances selection time: 46.0
Test time: 181.0
Accumulative iteration time: 7573.0
Weighted Recall: 0.7282
Weighted FalsePositiveRate: 0.01086867898825774
Kappa statistic: 0.7173124413290708
Training time: 245.0
		
Iteration: 32
Labeled set size: 2620
Unlabelled set size: 7380
	
Mean region size: 5.386153846154524
Incorrectly Classified Instances: 27.56
Correctly Classified Instances: 72.44
Weighted Precision: 0.7304940061351053
Weighted AreaUnderROC: 0.8843715062577878
Root mean squared error: 0.13597207629047367
Relative absolute error: 30.974444382146483
Root relative squared error: 70.70547967105124
Weighted TruePositiveRate: 0.7244
Weighted MatthewsCorrelation: 0.7151648387514823
Weighted FMeasure: 0.7246060402685722
Iteration time: 292.0
Weighted AreaUnderPRC: 0.6187217335017312
Mean absolute error: 0.022910091998625863
Coverage of cases: 77.73
Instances selection time: 45.0
Test time: 181.0
Accumulative iteration time: 7865.0
Weighted Recall: 0.7244
Weighted FalsePositiveRate: 0.010999273882206765
Kappa statistic: 0.7133650026177285
Training time: 247.0
		
Iteration: 33
Labeled set size: 2640
Unlabelled set size: 7360
	
Mean region size: 5.338461538462175
Incorrectly Classified Instances: 26.87
Correctly Classified Instances: 73.13
Weighted Precision: 0.735806884112278
Weighted AreaUnderROC: 0.8887104051459733
Root mean squared error: 0.13395927908126465
Relative absolute error: 30.17374836011371
Root relative squared error: 69.65882512226248
Weighted TruePositiveRate: 0.7313
Weighted MatthewsCorrelation: 0.7214933285715643
Weighted FMeasure: 0.7306129202283641
Iteration time: 293.0
Weighted AreaUnderPRC: 0.6332174871488879
Mean absolute error: 0.02231786121309875
Coverage of cases: 78.39
Instances selection time: 44.0
Test time: 182.0
Accumulative iteration time: 8158.0
Weighted Recall: 0.7313
Weighted FalsePositiveRate: 0.010735326550487034
Kappa statistic: 0.7205371913775561
Training time: 249.0
		
Iteration: 34
Labeled set size: 2660
Unlabelled set size: 7340
	
Mean region size: 5.312307692308317
Incorrectly Classified Instances: 26.72
Correctly Classified Instances: 73.28
Weighted Precision: 0.735562333504153
Weighted AreaUnderROC: 0.8868518701015968
Root mean squared error: 0.1341772216652415
Relative absolute error: 30.19185501235052
Root relative squared error: 69.77215526593044
Weighted TruePositiveRate: 0.7328
Weighted MatthewsCorrelation: 0.7223398750758624
Weighted FMeasure: 0.7315966252168664
Iteration time: 292.0
Weighted AreaUnderPRC: 0.6301685144999314
Mean absolute error: 0.02233125370735674
Coverage of cases: 77.99
Instances selection time: 43.0
Test time: 180.0
Accumulative iteration time: 8450.0
Weighted Recall: 0.7328
Weighted FalsePositiveRate: 0.010685148738306423
Kappa statistic: 0.7220934645233846
Training time: 249.0
		
Iteration: 35
Labeled set size: 2680
Unlabelled set size: 7320
	
Mean region size: 5.291923076923704
Incorrectly Classified Instances: 26.78
Correctly Classified Instances: 73.22
Weighted Precision: 0.7354462081578133
Weighted AreaUnderROC: 0.8863342667485853
Root mean squared error: 0.1344992928252706
Relative absolute error: 30.241120640056142
Root relative squared error: 69.93963226914559
Weighted TruePositiveRate: 0.7322
Weighted MatthewsCorrelation: 0.7219612410578007
Weighted FMeasure: 0.7312403246181071
Iteration time: 299.0
Weighted AreaUnderPRC: 0.6283864180828028
Mean absolute error: 0.022367692781103496
Coverage of cases: 77.89
Instances selection time: 44.0
Test time: 182.0
Accumulative iteration time: 8749.0
Weighted Recall: 0.7322
Weighted FalsePositiveRate: 0.010706238461610486
Kappa statistic: 0.7214699298603455
Training time: 255.0
		
Iteration: 36
Labeled set size: 2700
Unlabelled set size: 7300
	
Mean region size: 5.240384615385218
Incorrectly Classified Instances: 26.84
Correctly Classified Instances: 73.16
Weighted Precision: 0.7342917276127624
Weighted AreaUnderROC: 0.8845106462979074
Root mean squared error: 0.13475487597510383
Relative absolute error: 30.20044839838504
Root relative squared error: 70.07253550705889
Weighted TruePositiveRate: 0.7316
Weighted MatthewsCorrelation: 0.7212683624604118
Weighted FMeasure: 0.7308241796936451
Iteration time: 301.0
Weighted AreaUnderPRC: 0.62605710396734
Mean absolute error: 0.022337609762115997
Coverage of cases: 77.54
Instances selection time: 44.0
Test time: 181.0
Accumulative iteration time: 9050.0
Weighted Recall: 0.7316
Weighted FalsePositiveRate: 0.010726648464563894
Kappa statistic: 0.7208495882458623
Training time: 257.0
		
Iteration: 37
Labeled set size: 2720
Unlabelled set size: 7280
	
Mean region size: 5.223846153846767
Incorrectly Classified Instances: 26.29
Correctly Classified Instances: 73.71
Weighted Precision: 0.7410501345564007
Weighted AreaUnderROC: 0.8877612281151445
Root mean squared error: 0.13342925386221458
Relative absolute error: 29.68655757587438
Root relative squared error: 69.38321200835642
Weighted TruePositiveRate: 0.7371
Weighted MatthewsCorrelation: 0.7274585385443662
Weighted FMeasure: 0.73660633169214
Iteration time: 306.0
Weighted AreaUnderPRC: 0.63250738526004
Mean absolute error: 0.021957512999904026
Coverage of cases: 78.15
Instances selection time: 43.0
Test time: 182.0
Accumulative iteration time: 9356.0
Weighted Recall: 0.7371
Weighted FalsePositiveRate: 0.010507820393021613
Kappa statistic: 0.7265682824886414
Training time: 263.0
		
Iteration: 38
Labeled set size: 2740
Unlabelled set size: 7260
	
Mean region size: 5.406538461539074
Incorrectly Classified Instances: 26.63
Correctly Classified Instances: 73.37
Weighted Precision: 0.7369309276754561
Weighted AreaUnderROC: 0.8892765574634909
Root mean squared error: 0.13355303079179492
Relative absolute error: 29.941985855403033
Root relative squared error: 69.4475760117382
Weighted TruePositiveRate: 0.7337
Weighted MatthewsCorrelation: 0.7238197671733475
Weighted FMeasure: 0.7334204026529374
Iteration time: 305.0
Weighted AreaUnderPRC: 0.6383503670317368
Mean absolute error: 0.022146439242158922
Coverage of cases: 78.4
Instances selection time: 43.0
Test time: 179.0
Accumulative iteration time: 9661.0
Weighted Recall: 0.7337
Weighted FalsePositiveRate: 0.010641951628936112
Kappa statistic: 0.7230358844817308
Training time: 262.0
		
Iteration: 39
Labeled set size: 2760
Unlabelled set size: 7240
	
Mean region size: 5.199230769231391
Incorrectly Classified Instances: 26.65
Correctly Classified Instances: 73.35
Weighted Precision: 0.7389082997338307
Weighted AreaUnderROC: 0.8840529007849453
Root mean squared error: 0.13424276804046453
Relative absolute error: 29.95156764407092
Root relative squared error: 69.80623938104642
Weighted TruePositiveRate: 0.7335
Weighted MatthewsCorrelation: 0.7246532238731331
Weighted FMeasure: 0.7341917533055687
Iteration time: 307.0
Weighted AreaUnderPRC: 0.6321991419970738
Mean absolute error: 0.022153526363954693
Coverage of cases: 77.53
Instances selection time: 44.0
Test time: 182.0
Accumulative iteration time: 9968.0
Weighted Recall: 0.7335
Weighted FalsePositiveRate: 0.010635899904497353
Kappa statistic: 0.7228327730308571
Training time: 263.0
		
Iteration: 40
Labeled set size: 2780
Unlabelled set size: 7220
	
Mean region size: 5.1161538461544644
Incorrectly Classified Instances: 26.19
Correctly Classified Instances: 73.81
Weighted Precision: 0.7422794853925891
Weighted AreaUnderROC: 0.8855922639303322
Root mean squared error: 0.13370835454950372
Relative absolute error: 29.488057968956745
Root relative squared error: 69.52834436574679
Weighted TruePositiveRate: 0.7381
Weighted MatthewsCorrelation: 0.728721913795432
Weighted FMeasure: 0.73795486598955
Iteration time: 312.0
Weighted AreaUnderPRC: 0.6295411161801069
Mean absolute error: 0.02181069376401822
Coverage of cases: 77.78
Instances selection time: 43.0
Test time: 182.0
Accumulative iteration time: 10280.0
Weighted Recall: 0.7381
Weighted FalsePositiveRate: 0.010459641528650363
Kappa statistic: 0.7276114075843281
Training time: 269.0
		
Iteration: 41
Labeled set size: 2800
Unlabelled set size: 7200
	
Mean region size: 5.071923076923685
Incorrectly Classified Instances: 26.13
Correctly Classified Instances: 73.87
Weighted Precision: 0.7427515365298716
Weighted AreaUnderROC: 0.8857956193576516
Root mean squared error: 0.1336489521353891
Relative absolute error: 29.365071302290033
Root relative squared error: 69.49745511040719
Weighted TruePositiveRate: 0.7387
Weighted MatthewsCorrelation: 0.7292063701492644
Weighted FMeasure: 0.738334366177269
Iteration time: 315.0
Weighted AreaUnderPRC: 0.6307923733512306
Mean absolute error: 0.02171972729459019
Coverage of cases: 77.8
Instances selection time: 43.0
Test time: 180.0
Accumulative iteration time: 10595.0
Weighted Recall: 0.7387
Weighted FalsePositiveRate: 0.010446008628241217
Kappa statistic: 0.7282313888502419
Training time: 272.0
		
Iteration: 42
Labeled set size: 2820
Unlabelled set size: 7180
	
Mean region size: 5.140000000000624
Incorrectly Classified Instances: 26.2
Correctly Classified Instances: 73.8
Weighted Precision: 0.7423521976199974
Weighted AreaUnderROC: 0.8863683194442524
Root mean squared error: 0.1338229075603227
Relative absolute error: 29.478915505188564
Root relative squared error: 69.58791193137266
Weighted TruePositiveRate: 0.738
Weighted MatthewsCorrelation: 0.7286263046806524
Weighted FMeasure: 0.7377816043968708
Iteration time: 317.0
Weighted AreaUnderPRC: 0.6298273121008978
Mean absolute error: 0.021803931586674895
Coverage of cases: 77.91
Instances selection time: 42.0
Test time: 193.0
Accumulative iteration time: 10912.0
Weighted Recall: 0.738
Weighted FalsePositiveRate: 0.010474971811755694
Kappa statistic: 0.7275045885315127
Training time: 275.0
		
Iteration: 43
Labeled set size: 2840
Unlabelled set size: 7160
	
Mean region size: 5.131538461539064
Incorrectly Classified Instances: 26.74
Correctly Classified Instances: 73.26
Weighted Precision: 0.7362744048020328
Weighted AreaUnderROC: 0.8852957173500162
Root mean squared error: 0.13451600270290703
Relative absolute error: 29.933523039084367
Root relative squared error: 69.94832140551654
Weighted TruePositiveRate: 0.7326
Weighted MatthewsCorrelation: 0.7228004776183008
Weighted FMeasure: 0.7323295413338724
Iteration time: 322.0
Weighted AreaUnderPRC: 0.6295087211990934
Mean absolute error: 0.02214017976263328
Coverage of cases: 77.54
Instances selection time: 44.0
Test time: 187.0
Accumulative iteration time: 11234.0
Weighted Recall: 0.7326
Weighted FalsePositiveRate: 0.010697197967937312
Kappa statistic: 0.7218864775131385
Training time: 278.0
		
Iteration: 44
Labeled set size: 2860
Unlabelled set size: 7140
	
Mean region size: 5.141538461539062
Incorrectly Classified Instances: 26.41
Correctly Classified Instances: 73.59
Weighted Precision: 0.740357094948595
Weighted AreaUnderROC: 0.8865405039258522
Root mean squared error: 0.13400674689592104
Relative absolute error: 29.625219316140598
Root relative squared error: 69.68350838588381
Weighted TruePositiveRate: 0.7359
Weighted MatthewsCorrelation: 0.726607457835138
Weighted FMeasure: 0.7359694535841563
Iteration time: 323.0
Weighted AreaUnderPRC: 0.6301924320543607
Mean absolute error: 0.02191214446459798
Coverage of cases: 77.87
Instances selection time: 43.0
Test time: 182.0
Accumulative iteration time: 11557.0
Weighted Recall: 0.7359
Weighted FalsePositiveRate: 0.010551505177822109
Kappa statistic: 0.7253215363110732
Training time: 280.0
		
Iteration: 45
Labeled set size: 2880
Unlabelled set size: 7120
	
Mean region size: 5.280000000000635
Incorrectly Classified Instances: 25.97
Correctly Classified Instances: 74.03
Weighted Precision: 0.74476083328599
Weighted AreaUnderROC: 0.8852604686737652
Root mean squared error: 0.13406722453367742
Relative absolute error: 29.489916779727917
Root relative squared error: 69.71495675751713
Weighted TruePositiveRate: 0.7403
Weighted MatthewsCorrelation: 0.7312982838301698
Weighted FMeasure: 0.7406352997649307
Iteration time: 326.0
Weighted AreaUnderPRC: 0.6272873202201148
Mean absolute error: 0.02181206862405607
Coverage of cases: 77.77
Instances selection time: 42.0
Test time: 179.0
Accumulative iteration time: 11883.0
Weighted Recall: 0.7403
Weighted FalsePositiveRate: 0.010385455967662752
Kappa statistic: 0.72989642042553
Training time: 284.0
		
Iteration: 46
Labeled set size: 2900
Unlabelled set size: 7100
	
Mean region size: 5.2111538461544775
Incorrectly Classified Instances: 26.03
Correctly Classified Instances: 73.97
Weighted Precision: 0.7431940343804793
Weighted AreaUnderROC: 0.8857156712450774
Root mean squared error: 0.13404803418187297
Relative absolute error: 29.545150612136236
Root relative squared error: 69.70497777457881
Weighted TruePositiveRate: 0.7397
Weighted MatthewsCorrelation: 0.7303647543585888
Weighted FMeasure: 0.7399192461331041
Iteration time: 327.0
Weighted AreaUnderPRC: 0.6281736561661246
Mean absolute error: 0.02185292205039358
Coverage of cases: 77.75
Instances selection time: 42.0
Test time: 179.0
Accumulative iteration time: 12210.0
Weighted Recall: 0.7397
Weighted FalsePositiveRate: 0.01039727792081845
Kappa statistic: 0.7292753915969578
Training time: 285.0
		
Time end:Tue Oct 31 16.41.42 EET 2017