Tue Oct 31 19.54.41 EET 2017
Dataset: letter
Test set size: 10000
Initial Labelled set size: 2000
Initial Unlabelled set size: 8000
Batch mode: QBestBatchMode
Batch size: 20
Classifiers: J48-1cores
Scenario: PoolBasedSamplingScenario
Query strategy: KullbackLeiblerDivergenceQueryStrategy-1cores
Time begining: Tue Oct 31 19.54.41 EET 2017
		
Iteration: 1
Labeled set size: 2000
Unlabelled set size: 8000
	
Mean region size: 5.495384615385333
Incorrectly Classified Instances: 28.38
Correctly Classified Instances: 71.62
Weighted Precision: 0.7227816693406803
Weighted AreaUnderROC: 0.8799411936581769
Root mean squared error: 0.13880977626128982
Relative absolute error: 31.851299282268993
Root relative squared error: 72.18108365587574
Weighted TruePositiveRate: 0.7162
Weighted MatthewsCorrelation: 0.7069311899479831
Weighted FMeasure: 0.7167931800773628
Iteration time: 251.0
Weighted AreaUnderPRC: 0.6026582696891531
Mean absolute error: 0.023558653315284433
Coverage of cases: 76.72
Instances selection time: 90.0
Test time: 186.0
Accumulative iteration time: 251.0
Weighted Recall: 0.7162
Weighted FalsePositiveRate: 0.011343538807735854
Kappa statistic: 0.7048307904544066
Training time: 161.0
		
Iteration: 2
Labeled set size: 2020
Unlabelled set size: 7980
	
Mean region size: 5.180769230769866
Incorrectly Classified Instances: 27.32
Correctly Classified Instances: 72.68
Weighted Precision: 0.7330309675027441
Weighted AreaUnderROC: 0.8807831318880549
Root mean squared error: 0.13516698385818607
Relative absolute error: 30.468459334227067
Root relative squared error: 70.28683160626166
Weighted TruePositiveRate: 0.7268
Weighted MatthewsCorrelation: 0.7179739461102937
Weighted FMeasure: 0.727658120940179
Iteration time: 233.0
Weighted AreaUnderPRC: 0.6210723801354244
Mean absolute error: 0.022535842702827533
Coverage of cases: 76.98
Instances selection time: 84.0
Test time: 183.0
Accumulative iteration time: 484.0
Weighted Recall: 0.7268
Weighted FalsePositiveRate: 0.01093153558488986
Kappa statistic: 0.7158574162114015
Training time: 149.0
		
Iteration: 3
Labeled set size: 2040
Unlabelled set size: 7960
	
Mean region size: 5.559615384616052
Incorrectly Classified Instances: 29.53
Correctly Classified Instances: 70.47
Weighted Precision: 0.7093962537116338
Weighted AreaUnderROC: 0.8733089736225722
Root mean squared error: 0.14133195860970496
Relative absolute error: 33.06213771660281
Root relative squared error: 73.4926184770517
Weighted TruePositiveRate: 0.7047
Weighted MatthewsCorrelation: 0.6941442029146729
Weighted FMeasure: 0.7045735593628468
Iteration time: 250.0
Weighted AreaUnderPRC: 0.5907238134434388
Mean absolute error: 0.024454243873223525
Coverage of cases: 75.6
Instances selection time: 87.0
Test time: 186.0
Accumulative iteration time: 734.0
Weighted Recall: 0.7047
Weighted FalsePositiveRate: 0.011781719482172322
Kappa statistic: 0.6928803465782367
Training time: 163.0
		
Iteration: 4
Labeled set size: 2060
Unlabelled set size: 7940
	
Mean region size: 5.791923076923857
Incorrectly Classified Instances: 28.87
Correctly Classified Instances: 71.13
Weighted Precision: 0.7188049193249703
Weighted AreaUnderROC: 0.8745912186787472
Root mean squared error: 0.1387916603786803
Relative absolute error: 32.997976572737116
Root relative squared error: 72.17166339691879
Weighted TruePositiveRate: 0.7113
Weighted MatthewsCorrelation: 0.7022919801020077
Weighted FMeasure: 0.7123360099221829
Iteration time: 241.0
Weighted AreaUnderPRC: 0.6129559547893627
Mean absolute error: 0.024406787405867245
Coverage of cases: 75.87
Instances selection time: 84.0
Test time: 185.0
Accumulative iteration time: 975.0
Weighted Recall: 0.7113
Weighted FalsePositiveRate: 0.011558893238736073
Kappa statistic: 0.6997274259327565
Training time: 157.0
		
Iteration: 5
Labeled set size: 2080
Unlabelled set size: 7920
	
Mean region size: 5.7380769230777195
Incorrectly Classified Instances: 28.78
Correctly Classified Instances: 71.22
Weighted Precision: 0.7192699033111044
Weighted AreaUnderROC: 0.8755563339923841
Root mean squared error: 0.1380919863543354
Relative absolute error: 32.73441225198673
Root relative squared error: 71.80783290425941
Weighted TruePositiveRate: 0.7122
Weighted MatthewsCorrelation: 0.7030677589813645
Weighted FMeasure: 0.7131182972539468
Iteration time: 240.0
Weighted AreaUnderPRC: 0.6191817687740597
Mean absolute error: 0.024211843381643616
Coverage of cases: 76.03
Instances selection time: 82.0
Test time: 183.0
Accumulative iteration time: 1215.0
Weighted Recall: 0.7122
Weighted FalsePositiveRate: 0.011494303340792406
Kappa statistic: 0.7006723815637943
Training time: 158.0
		
Iteration: 6
Labeled set size: 2100
Unlabelled set size: 7900
	
Mean region size: 5.909230769231548
Incorrectly Classified Instances: 28.54
Correctly Classified Instances: 71.46
Weighted Precision: 0.7216212943639937
Weighted AreaUnderROC: 0.8785362028522988
Root mean squared error: 0.13691902659958924
Relative absolute error: 32.67418248576036
Root relative squared error: 71.19789383179138
Weighted TruePositiveRate: 0.7146
Weighted MatthewsCorrelation: 0.7052848343328616
Weighted FMeasure: 0.7149385596192763
Iteration time: 243.0
Weighted AreaUnderPRC: 0.627153940193996
Mean absolute error: 0.024167294737985068
Coverage of cases: 76.48
Instances selection time: 83.0
Test time: 184.0
Accumulative iteration time: 1458.0
Weighted Recall: 0.7146
Weighted FalsePositiveRate: 0.011417609957776426
Kappa statistic: 0.7031629516411053
Training time: 160.0
		
Iteration: 7
Labeled set size: 2120
Unlabelled set size: 7880
	
Mean region size: 5.64230769230839
Incorrectly Classified Instances: 30.58
Correctly Classified Instances: 69.42
Weighted Precision: 0.6976199758883783
Weighted AreaUnderROC: 0.8691687624351735
Root mean squared error: 0.14241927798034235
Relative absolute error: 34.097074385132686
Root relative squared error: 74.05802454978318
Weighted TruePositiveRate: 0.6942
Weighted MatthewsCorrelation: 0.6826424826227845
Weighted FMeasure: 0.6935885292565414
Iteration time: 263.0
Weighted AreaUnderPRC: 0.5897574100938
Mean absolute error: 0.025219729574798767
Coverage of cases: 74.83
Instances selection time: 88.0
Test time: 186.0
Accumulative iteration time: 1721.0
Weighted Recall: 0.6942
Weighted FalsePositiveRate: 0.012228367293984294
Kappa statistic: 0.6819517454442448
Training time: 175.0
		
Iteration: 8
Labeled set size: 2140
Unlabelled set size: 7860
	
Mean region size: 6.251153846154675
Incorrectly Classified Instances: 29.47
Correctly Classified Instances: 70.53
Weighted Precision: 0.7123781396195268
Weighted AreaUnderROC: 0.8746974020861297
Root mean squared error: 0.1397432481898961
Relative absolute error: 34.18402801935327
Root relative squared error: 72.66648905875105
Weighted TruePositiveRate: 0.7053
Weighted MatthewsCorrelation: 0.695545888875209
Weighted FMeasure: 0.70546762807308
Iteration time: 251.0
Weighted AreaUnderPRC: 0.6096052577324458
Mean absolute error: 0.025284044393009252
Coverage of cases: 75.87
Instances selection time: 83.0
Test time: 182.0
Accumulative iteration time: 1972.0
Weighted Recall: 0.7053
Weighted FalsePositiveRate: 0.011802830452007458
Kappa statistic: 0.6934887196100228
Training time: 168.0
		
Iteration: 9
Labeled set size: 2160
Unlabelled set size: 7840
	
Mean region size: 6.051153846154642
Incorrectly Classified Instances: 29.57
Correctly Classified Instances: 70.43
Weighted Precision: 0.7142262629764058
Weighted AreaUnderROC: 0.8741453179426817
Root mean squared error: 0.13952098071213195
Relative absolute error: 33.97755527273931
Root relative squared error: 72.55090997031368
Weighted TruePositiveRate: 0.7043
Weighted MatthewsCorrelation: 0.695805322164428
Weighted FMeasure: 0.7055956952776031
Iteration time: 249.0
Weighted AreaUnderPRC: 0.6079079692991742
Mean absolute error: 0.02513132786444865
Coverage of cases: 75.84
Instances selection time: 83.0
Test time: 182.0
Accumulative iteration time: 2221.0
Weighted Recall: 0.7043
Weighted FalsePositiveRate: 0.011832865501703078
Kappa statistic: 0.6924518905362954
Training time: 166.0
		
Iteration: 10
Labeled set size: 2180
Unlabelled set size: 7820
	
Mean region size: 5.903076923077704
Incorrectly Classified Instances: 28.92
Correctly Classified Instances: 71.08
Weighted Precision: 0.7183127724464233
Weighted AreaUnderROC: 0.8754704455945548
Root mean squared error: 0.1387146467622801
Relative absolute error: 33.33324929655377
Root relative squared error: 72.13161631639069
Weighted TruePositiveRate: 0.7108
Weighted MatthewsCorrelation: 0.7016305185981788
Weighted FMeasure: 0.7114697935616774
Iteration time: 250.0
Weighted AreaUnderPRC: 0.6141679855662197
Mean absolute error: 0.024654770189755267
Coverage of cases: 76.0
Instances selection time: 83.0
Test time: 183.0
Accumulative iteration time: 2471.0
Weighted Recall: 0.7108
Weighted FalsePositiveRate: 0.011557337274429955
Kappa statistic: 0.6992147070113073
Training time: 167.0
		
Iteration: 11
Labeled set size: 2200
Unlabelled set size: 7800
	
Mean region size: 5.9834615384623
Incorrectly Classified Instances: 29.24
Correctly Classified Instances: 70.76
Weighted Precision: 0.7160335260183478
Weighted AreaUnderROC: 0.8759549116229808
Root mean squared error: 0.13933454502859466
Relative absolute error: 33.55566291727547
Root relative squared error: 72.45396341487428
Weighted TruePositiveRate: 0.7076
Weighted MatthewsCorrelation: 0.6987927029418651
Weighted FMeasure: 0.7087838903540029
Iteration time: 250.0
Weighted AreaUnderPRC: 0.6083686601432231
Mean absolute error: 0.024819277305673664
Coverage of cases: 76.05
Instances selection time: 81.0
Test time: 181.0
Accumulative iteration time: 2721.0
Weighted Recall: 0.7076
Weighted FalsePositiveRate: 0.011681372818314056
Kappa statistic: 0.6958887139070268
Training time: 169.0
		
Iteration: 12
Labeled set size: 2220
Unlabelled set size: 7780
	
Mean region size: 5.982307692308451
Incorrectly Classified Instances: 29.4
Correctly Classified Instances: 70.6
Weighted Precision: 0.7131934697352225
Weighted AreaUnderROC: 0.8782954991509305
Root mean squared error: 0.13930137258587452
Relative absolute error: 33.67496085143755
Root relative squared error: 72.43671374465981
Weighted TruePositiveRate: 0.706
Weighted MatthewsCorrelation: 0.6965145595008336
Weighted FMeasure: 0.7065989586067273
Iteration time: 251.0
Weighted AreaUnderPRC: 0.6106354992072571
Mean absolute error: 0.024907515422657435
Coverage of cases: 76.47
Instances selection time: 82.0
Test time: 182.0
Accumulative iteration time: 2972.0
Weighted Recall: 0.706
Weighted FalsePositiveRate: 0.011759593200439719
Kappa statistic: 0.6942210111247908
Training time: 169.0
		
Iteration: 13
Labeled set size: 2240
Unlabelled set size: 7760
	
Mean region size: 6.395769230770034
Incorrectly Classified Instances: 28.36
Correctly Classified Instances: 71.64
Weighted Precision: 0.7232238511287045
Weighted AreaUnderROC: 0.8851577586609898
Root mean squared error: 0.13639848646832778
Relative absolute error: 33.24241669270066
Root relative squared error: 70.9272129635354
Weighted TruePositiveRate: 0.7164
Weighted MatthewsCorrelation: 0.707313050334461
Weighted FMeasure: 0.7172240436059898
Iteration time: 252.0
Weighted AreaUnderPRC: 0.6324059564634582
Mean absolute error: 0.024587586311165695
Coverage of cases: 77.92
Instances selection time: 78.0
Test time: 182.0
Accumulative iteration time: 3224.0
Weighted Recall: 0.7164
Weighted FalsePositiveRate: 0.01136319079154029
Kappa statistic: 0.7050311728277795
Training time: 174.0
		
Iteration: 14
Labeled set size: 2260
Unlabelled set size: 7740
	
Mean region size: 6.054230769231558
Incorrectly Classified Instances: 28.51
Correctly Classified Instances: 71.49
Weighted Precision: 0.7229517311624504
Weighted AreaUnderROC: 0.8793273594452324
Root mean squared error: 0.13767018900684838
Relative absolute error: 33.0904681772554
Root relative squared error: 71.58849828356615
Weighted TruePositiveRate: 0.7149
Weighted MatthewsCorrelation: 0.7061965584857995
Weighted FMeasure: 0.7159466811896381
Iteration time: 255.0
Weighted AreaUnderPRC: 0.6186772331552411
Mean absolute error: 0.024475198355954724
Coverage of cases: 76.8
Instances selection time: 80.0
Test time: 182.0
Accumulative iteration time: 3479.0
Weighted Recall: 0.7149
Weighted FalsePositiveRate: 0.011406898864589168
Kappa statistic: 0.7034765497221931
Training time: 175.0
		
Iteration: 15
Labeled set size: 2280
Unlabelled set size: 7720
	
Mean region size: 5.993846153846939
Incorrectly Classified Instances: 28.62
Correctly Classified Instances: 71.38
Weighted Precision: 0.7214835451206514
Weighted AreaUnderROC: 0.8775383173270993
Root mean squared error: 0.13848951960117958
Relative absolute error: 33.14222184835545
Root relative squared error: 72.01455019261842
Weighted TruePositiveRate: 0.7138
Weighted MatthewsCorrelation: 0.7048971393944434
Weighted FMeasure: 0.7147317769455733
Iteration time: 258.0
Weighted AreaUnderPRC: 0.613099656657307
Mean absolute error: 0.02451347769848434
Coverage of cases: 76.55
Instances selection time: 80.0
Test time: 181.0
Accumulative iteration time: 3737.0
Weighted Recall: 0.7138
Weighted FalsePositiveRate: 0.011453353706995706
Kappa statistic: 0.7023323167839809
Training time: 178.0
		
Iteration: 16
Labeled set size: 2300
Unlabelled set size: 7700
	
Mean region size: 6.31000000000079
Incorrectly Classified Instances: 28.5
Correctly Classified Instances: 71.5
Weighted Precision: 0.7232845122919371
Weighted AreaUnderROC: 0.8852484379932194
Root mean squared error: 0.1363682937386862
Relative absolute error: 33.23634962360208
Root relative squared error: 70.91151274412178
Weighted TruePositiveRate: 0.715
Weighted MatthewsCorrelation: 0.7064225377650617
Weighted FMeasure: 0.7161722551172881
Iteration time: 259.0
Weighted AreaUnderPRC: 0.6375069561935002
Mean absolute error: 0.024583098834021783
Coverage of cases: 77.81
Instances selection time: 79.0
Test time: 181.0
Accumulative iteration time: 3996.0
Weighted Recall: 0.715
Weighted FalsePositiveRate: 0.011408425544864589
Kappa statistic: 0.703579326436543
Training time: 180.0
		
Iteration: 17
Labeled set size: 2320
Unlabelled set size: 7680
	
Mean region size: 6.137307692308457
Incorrectly Classified Instances: 28.11
Correctly Classified Instances: 71.89
Weighted Precision: 0.7266058690574432
Weighted AreaUnderROC: 0.8841538534889978
Root mean squared error: 0.13636245252640697
Relative absolute error: 32.65577629230135
Root relative squared error: 70.90847531373657
Weighted TruePositiveRate: 0.7189
Weighted MatthewsCorrelation: 0.7102313932690164
Weighted FMeasure: 0.7198905248871111
Iteration time: 258.0
Weighted AreaUnderPRC: 0.6314339913324194
Mean absolute error: 0.02415368068956864
Coverage of cases: 77.82
Instances selection time: 78.0
Test time: 181.0
Accumulative iteration time: 4254.0
Weighted Recall: 0.7189
Weighted FalsePositiveRate: 0.011257694818398193
Kappa statistic: 0.7076353082982554
Training time: 180.0
		
Iteration: 18
Labeled set size: 2340
Unlabelled set size: 7660
	
Mean region size: 5.993076923077679
Incorrectly Classified Instances: 28.52
Correctly Classified Instances: 71.48
Weighted Precision: 0.722245081272504
Weighted AreaUnderROC: 0.8820075774351466
Root mean squared error: 0.13704872430904985
Relative absolute error: 32.83819085844664
Root relative squared error: 71.2653366407109
Weighted TruePositiveRate: 0.7148
Weighted MatthewsCorrelation: 0.7058443143607367
Weighted FMeasure: 0.7156789735167386
Iteration time: 310.0
Weighted AreaUnderPRC: 0.6284145965874725
Mean absolute error: 0.02428860270594827
Coverage of cases: 77.28
Instances selection time: 81.0
Test time: 191.0
Accumulative iteration time: 4564.0
Weighted Recall: 0.7148
Weighted FalsePositiveRate: 0.011423327996763578
Kappa statistic: 0.7033704295722458
Training time: 229.0
		
Iteration: 19
Labeled set size: 2360
Unlabelled set size: 7640
	
Mean region size: 5.986153846154603
Incorrectly Classified Instances: 28.06
Correctly Classified Instances: 71.94
Weighted Precision: 0.7258622118308651
Weighted AreaUnderROC: 0.8834666316304365
Root mean squared error: 0.13632342842305722
Relative absolute error: 32.422296038111796
Root relative squared error: 70.8881827799947
Weighted TruePositiveRate: 0.7194
Weighted MatthewsCorrelation: 0.7101843525580976
Weighted FMeasure: 0.7198812412057695
Iteration time: 274.0
Weighted AreaUnderPRC: 0.6289314318196765
Mean absolute error: 0.023980988193866327
Coverage of cases: 77.5
Instances selection time: 81.0
Test time: 187.0
Accumulative iteration time: 4838.0
Weighted Recall: 0.7194
Weighted FalsePositiveRate: 0.011239543444001207
Kappa statistic: 0.7081516661528812
Training time: 193.0
		
Iteration: 20
Labeled set size: 2380
Unlabelled set size: 7620
	
Mean region size: 5.9946153846161385
Incorrectly Classified Instances: 28.03
Correctly Classified Instances: 71.97
Weighted Precision: 0.7221485208654649
Weighted AreaUnderROC: 0.8845450155716701
Root mean squared error: 0.1361644338469906
Relative absolute error: 32.544940274402414
Root relative squared error: 70.80550560044004
Weighted TruePositiveRate: 0.7197
Weighted MatthewsCorrelation: 0.7087995555657645
Weighted FMeasure: 0.718861235109042
Iteration time: 258.0
Weighted AreaUnderPRC: 0.6283901329862177
Mean absolute error: 0.02407170138638896
Coverage of cases: 77.63
Instances selection time: 77.0
Test time: 180.0
Accumulative iteration time: 5096.0
Weighted Recall: 0.7197
Weighted FalsePositiveRate: 0.011224626480218488
Kappa statistic: 0.7084647018983452
Training time: 181.0
		
Iteration: 21
Labeled set size: 2400
Unlabelled set size: 7600
	
Mean region size: 5.960000000000742
Incorrectly Classified Instances: 28.44
Correctly Classified Instances: 71.56
Weighted Precision: 0.7186916610750199
Weighted AreaUnderROC: 0.8837324084853017
Root mean squared error: 0.1367416459204686
Relative absolute error: 32.86501779731608
Root relative squared error: 71.10565587864863
Weighted TruePositiveRate: 0.7156
Weighted MatthewsCorrelation: 0.7047199577082379
Weighted FMeasure: 0.7147712561868791
Iteration time: 260.0
Weighted AreaUnderPRC: 0.6271854842737355
Mean absolute error: 0.02430844511635466
Coverage of cases: 77.41
Instances selection time: 78.0
Test time: 180.0
Accumulative iteration time: 5356.0
Weighted Recall: 0.7156
Weighted FalsePositiveRate: 0.011383635819349407
Kappa statistic: 0.7041995027493793
Training time: 182.0
		
Iteration: 22
Labeled set size: 2420
Unlabelled set size: 7580
	
Mean region size: 5.868461538462272
Incorrectly Classified Instances: 28.24
Correctly Classified Instances: 71.76
Weighted Precision: 0.7208254082728986
Weighted AreaUnderROC: 0.8829324795458153
Root mean squared error: 0.1368919218470529
Relative absolute error: 32.4803610183524
Root relative squared error: 71.18379936047248
Weighted TruePositiveRate: 0.7176
Weighted MatthewsCorrelation: 0.7069768927957112
Weighted FMeasure: 0.7170753677306132
Iteration time: 263.0
Weighted AreaUnderPRC: 0.6218649210854469
Mean absolute error: 0.024023935664458484
Coverage of cases: 77.32
Instances selection time: 77.0
Test time: 181.0
Accumulative iteration time: 5619.0
Weighted Recall: 0.7176
Weighted FalsePositiveRate: 0.011301200899442034
Kappa statistic: 0.7062813643971161
Training time: 186.0
		
Iteration: 23
Labeled set size: 2440
Unlabelled set size: 7560
	
Mean region size: 5.876538461539212
Incorrectly Classified Instances: 27.94
Correctly Classified Instances: 72.06
Weighted Precision: 0.7246408115990527
Weighted AreaUnderROC: 0.8826382620972386
Root mean squared error: 0.1364953014556695
Relative absolute error: 32.22906329205475
Root relative squared error: 70.97755675695309
Weighted TruePositiveRate: 0.7206
Weighted MatthewsCorrelation: 0.7103590574801635
Weighted FMeasure: 0.7201754794107089
Iteration time: 262.0
Weighted AreaUnderPRC: 0.6222082338585471
Mean absolute error: 0.02383806456512593
Coverage of cases: 77.33
Instances selection time: 77.0
Test time: 181.0
Accumulative iteration time: 5881.0
Weighted Recall: 0.7206
Weighted FalsePositiveRate: 0.011189517108810484
Kappa statistic: 0.7093993198654376
Training time: 185.0
		
Iteration: 24
Labeled set size: 2460
Unlabelled set size: 7540
	
Mean region size: 5.8584615384622865
Incorrectly Classified Instances: 27.91
Correctly Classified Instances: 72.09
Weighted Precision: 0.724726363802408
Weighted AreaUnderROC: 0.8825420828433027
Root mean squared error: 0.13647973033211433
Relative absolute error: 32.141797709436354
Root relative squared error: 70.9694597727044
Weighted TruePositiveRate: 0.7209
Weighted MatthewsCorrelation: 0.710576363444307
Weighted FMeasure: 0.7203935133138262
Iteration time: 264.0
Weighted AreaUnderPRC: 0.6238735168196067
Mean absolute error: 0.02377351901585198
Coverage of cases: 77.29
Instances selection time: 77.0
Test time: 183.0
Accumulative iteration time: 6145.0
Weighted Recall: 0.7209
Weighted FalsePositiveRate: 0.01117738403556662
Kappa statistic: 0.7097108028976915
Training time: 187.0
		
Iteration: 25
Labeled set size: 2480
Unlabelled set size: 7520
	
Mean region size: 5.801153846154581
Incorrectly Classified Instances: 28.49
Correctly Classified Instances: 71.51
Weighted Precision: 0.721649842301472
Weighted AreaUnderROC: 0.8819021239669108
Root mean squared error: 0.13839938865657636
Relative absolute error: 32.74422743854507
Root relative squared error: 71.96768210142473
Weighted TruePositiveRate: 0.7151
Weighted MatthewsCorrelation: 0.7057021457059297
Weighted FMeasure: 0.7154949898618943
Iteration time: 272.0
Weighted AreaUnderPRC: 0.6100120186350722
Mean absolute error: 0.024219103135015164
Coverage of cases: 76.88
Instances selection time: 77.0
Test time: 181.0
Accumulative iteration time: 6417.0
Weighted Recall: 0.7151
Weighted FalsePositiveRate: 0.011408220961919884
Kappa statistic: 0.7036788494460255
Training time: 195.0
		
Iteration: 26
Labeled set size: 2500
Unlabelled set size: 7500
	
Mean region size: 5.82346153846228
Incorrectly Classified Instances: 28.64
Correctly Classified Instances: 71.36
Weighted Precision: 0.7193709366870443
Weighted AreaUnderROC: 0.880716447968518
Root mean squared error: 0.13878408124238634
Relative absolute error: 32.90759236085326
Root relative squared error: 72.16772224604594
Weighted TruePositiveRate: 0.7136
Weighted MatthewsCorrelation: 0.7038354734634008
Weighted FMeasure: 0.7137954040730696
Iteration time: 272.0
Weighted AreaUnderPRC: 0.6094466754115925
Mean absolute error: 0.024339935178142508
Coverage of cases: 76.69
Instances selection time: 77.0
Test time: 182.0
Accumulative iteration time: 6689.0
Weighted Recall: 0.7136
Weighted FalsePositiveRate: 0.01147008537047641
Kappa statistic: 0.702117992041038
Training time: 195.0
		
Iteration: 27
Labeled set size: 2520
Unlabelled set size: 7480
	
Mean region size: 5.819230769231511
Incorrectly Classified Instances: 28.66
Correctly Classified Instances: 71.34
Weighted Precision: 0.7181978969970784
Weighted AreaUnderROC: 0.8805445648058634
Root mean squared error: 0.13876631552550486
Relative absolute error: 32.91132035796418
Root relative squared error: 72.15848407326757
Weighted TruePositiveRate: 0.7134
Weighted MatthewsCorrelation: 0.703261541829828
Weighted FMeasure: 0.7133780027448471
Iteration time: 274.0
Weighted AreaUnderPRC: 0.6097798694026427
Mean absolute error: 0.024342692572455322
Coverage of cases: 76.7
Instances selection time: 77.0
Test time: 186.0
Accumulative iteration time: 6963.0
Weighted Recall: 0.7134
Weighted FalsePositiveRate: 0.011476184137201077
Kappa statistic: 0.7019106187623094
Training time: 197.0
		
Iteration: 28
Labeled set size: 2540
Unlabelled set size: 7460
	
Mean region size: 5.774615384616116
Incorrectly Classified Instances: 28.45
Correctly Classified Instances: 71.55
Weighted Precision: 0.7215537633905085
Weighted AreaUnderROC: 0.8809280255931824
Root mean squared error: 0.13764178740683056
Relative absolute error: 32.707887594460296
Root relative squared error: 71.57372945155689
Weighted TruePositiveRate: 0.7155
Weighted MatthewsCorrelation: 0.7060666491006387
Weighted FMeasure: 0.7160900934667915
Iteration time: 278.0
Weighted AreaUnderPRC: 0.6182358903034252
Mean absolute error: 0.02419222455211223
Coverage of cases: 76.77
Instances selection time: 78.0
Test time: 182.0
Accumulative iteration time: 7241.0
Weighted Recall: 0.7155
Weighted FalsePositiveRate: 0.011384211462356911
Kappa statistic: 0.7040984702046921
Training time: 200.0
		
Iteration: 29
Labeled set size: 2560
Unlabelled set size: 7440
	
Mean region size: 5.845000000000655
Incorrectly Classified Instances: 29.2
Correctly Classified Instances: 70.8
Weighted Precision: 0.7152515165777917
Weighted AreaUnderROC: 0.8768845008991167
Root mean squared error: 0.13963487414166598
Relative absolute error: 33.01760028065174
Root relative squared error: 72.61013455367137
Weighted TruePositiveRate: 0.708
Weighted MatthewsCorrelation: 0.6983066779609649
Weighted FMeasure: 0.7079710561763696
Iteration time: 282.0
Weighted AreaUnderPRC: 0.6117562970731526
Mean absolute error: 0.024421301982727173
Coverage of cases: 76.25
Instances selection time: 78.0
Test time: 182.0
Accumulative iteration time: 7523.0
Weighted Recall: 0.708
Weighted FalsePositiveRate: 0.011674711806661003
Kappa statistic: 0.6963038851552756
Training time: 204.0
		
Iteration: 30
Labeled set size: 2580
Unlabelled set size: 7420
	
Mean region size: 5.840384615385269
Incorrectly Classified Instances: 29.35
Correctly Classified Instances: 70.65
Weighted Precision: 0.7137590919615625
Weighted AreaUnderROC: 0.8763234236369177
Root mean squared error: 0.13991333137246006
Relative absolute error: 33.10110871434777
Root relative squared error: 72.75493231368431
Weighted TruePositiveRate: 0.7065
Weighted MatthewsCorrelation: 0.6967336444102763
Weighted FMeasure: 0.7064388175732746
Iteration time: 287.0
Weighted AreaUnderPRC: 0.6093258399118223
Mean absolute error: 0.024483068575697597
Coverage of cases: 76.22
Instances selection time: 78.0
Test time: 181.0
Accumulative iteration time: 7810.0
Weighted Recall: 0.7065
Weighted FalsePositiveRate: 0.011738372464320383
Kappa statistic: 0.6947425451345247
Training time: 209.0
		
Iteration: 31
Labeled set size: 2600
Unlabelled set size: 7400
	
Mean region size: 5.938076923077574
Incorrectly Classified Instances: 28.87
Correctly Classified Instances: 71.13
Weighted Precision: 0.7225646545033264
Weighted AreaUnderROC: 0.8792307283830709
Root mean squared error: 0.13839394388090243
Relative absolute error: 32.670306408923885
Root relative squared error: 71.96485081807428
Weighted TruePositiveRate: 0.7113
Weighted MatthewsCorrelation: 0.7034567404017126
Weighted FMeasure: 0.7126500239145295
Iteration time: 289.0
Weighted AreaUnderPRC: 0.6161264440077879
Mean absolute error: 0.024164427817248025
Coverage of cases: 76.78
Instances selection time: 79.0
Test time: 182.0
Accumulative iteration time: 8099.0
Weighted Recall: 0.7113
Weighted FalsePositiveRate: 0.011540799890110101
Kappa statistic: 0.6997370572344955
Training time: 210.0
		
Iteration: 32
Labeled set size: 2620
Unlabelled set size: 7380
	
Mean region size: 5.9561538461545
Incorrectly Classified Instances: 28.77
Correctly Classified Instances: 71.23
Weighted Precision: 0.7227936129867244
Weighted AreaUnderROC: 0.8799552509826967
Root mean squared error: 0.1383232682321153
Relative absolute error: 32.67079482050389
Root relative squared error: 71.92809948070497
Weighted TruePositiveRate: 0.7123
Weighted MatthewsCorrelation: 0.704202538129238
Weighted FMeasure: 0.7134642978991104
Iteration time: 291.0
Weighted AreaUnderPRC: 0.6177192175130926
Mean absolute error: 0.024164789068416674
Coverage of cases: 76.82
Instances selection time: 78.0
Test time: 181.0
Accumulative iteration time: 8390.0
Weighted Recall: 0.7123
Weighted FalsePositiveRate: 0.011497774212201496
Kappa statistic: 0.7007786868059563
Training time: 213.0
		
Iteration: 33
Labeled set size: 2640
Unlabelled set size: 7360
	
Mean region size: 5.827692307692973
Incorrectly Classified Instances: 28.46
Correctly Classified Instances: 71.54
Weighted Precision: 0.7254655395031998
Weighted AreaUnderROC: 0.8821978827299647
Root mean squared error: 0.13723110272852468
Relative absolute error: 32.1858444125194
Root relative squared error: 71.36017341883782
Weighted TruePositiveRate: 0.7154
Weighted MatthewsCorrelation: 0.7071679232926191
Weighted FMeasure: 0.7162385393582565
Iteration time: 292.0
Weighted AreaUnderPRC: 0.6245381651146624
Mean absolute error: 0.023806097938250677
Coverage of cases: 77.16
Instances selection time: 77.0
Test time: 181.0
Accumulative iteration time: 8682.0
Weighted Recall: 0.7154
Weighted FalsePositiveRate: 0.011375086744191841
Kappa statistic: 0.7040014172154211
Training time: 215.0
		
Iteration: 34
Labeled set size: 2660
Unlabelled set size: 7340
	
Mean region size: 5.783846153846842
Incorrectly Classified Instances: 27.86
Correctly Classified Instances: 72.14
Weighted Precision: 0.7305108210533018
Weighted AreaUnderROC: 0.8867556824921047
Root mean squared error: 0.1357332582836539
Relative absolute error: 31.745217197274215
Root relative squared error: 70.58129430750496
Weighted TruePositiveRate: 0.7214
Weighted MatthewsCorrelation: 0.7128528065186952
Weighted FMeasure: 0.721595783510222
Iteration time: 286.0
Weighted AreaUnderPRC: 0.6298068733938944
Mean absolute error: 0.023480190234667003
Coverage of cases: 78.08
Instances selection time: 77.0
Test time: 180.0
Accumulative iteration time: 8968.0
Weighted Recall: 0.7214
Weighted FalsePositiveRate: 0.0111453498865465
Kappa statistic: 0.7102367490568497
Training time: 209.0
		
Iteration: 35
Labeled set size: 2680
Unlabelled set size: 7320
	
Mean region size: 5.840000000000752
Incorrectly Classified Instances: 28.73
Correctly Classified Instances: 71.27
Weighted Precision: 0.7230319258582878
Weighted AreaUnderROC: 0.8818137058599362
Root mean squared error: 0.13812486514260824
Relative absolute error: 32.786783057946025
Root relative squared error: 71.8249298741613
Weighted TruePositiveRate: 0.7127
Weighted MatthewsCorrelation: 0.7044854328380574
Weighted FMeasure: 0.7136323557965661
Iteration time: 284.0
Weighted AreaUnderPRC: 0.6190657885285088
Mean absolute error: 0.02425057918486794
Coverage of cases: 77.25
Instances selection time: 76.0
Test time: 181.0
Accumulative iteration time: 9252.0
Weighted Recall: 0.7127
Weighted FalsePositiveRate: 0.011482860975653467
Kappa statistic: 0.7011914732589561
Training time: 208.0
		
Iteration: 36
Labeled set size: 2700
Unlabelled set size: 7300
	
Mean region size: 5.954230769231519
Incorrectly Classified Instances: 29.08
Correctly Classified Instances: 70.92
Weighted Precision: 0.7239219750957628
Weighted AreaUnderROC: 0.8820698894432608
Root mean squared error: 0.13824024755002765
Relative absolute error: 33.25097309611898
Root relative squared error: 71.8849287260194
Weighted TruePositiveRate: 0.7092
Weighted MatthewsCorrelation: 0.7024684374343788
Weighted FMeasure: 0.7110871298783682
Iteration time: 297.0
Weighted AreaUnderPRC: 0.6248720702294096
Mean absolute error: 0.024593915011918897
Coverage of cases: 77.25
Instances selection time: 77.0
Test time: 180.0
Accumulative iteration time: 9549.0
Weighted Recall: 0.7092
Weighted FalsePositiveRate: 0.011612781673883838
Kappa statistic: 0.697558830709606
Training time: 220.0
		
Iteration: 37
Labeled set size: 2720
Unlabelled set size: 7280
	
Mean region size: 5.799230769231488
Incorrectly Classified Instances: 27.78
Correctly Classified Instances: 72.22
Weighted Precision: 0.7365729375479388
Weighted AreaUnderROC: 0.885400645344811
Root mean squared error: 0.1352181655230771
Relative absolute error: 31.766544461799576
Root relative squared error: 70.31344607200501
Weighted TruePositiveRate: 0.7222
Weighted MatthewsCorrelation: 0.7158447013013424
Weighted FMeasure: 0.7239755608466563
Iteration time: 293.0
Weighted AreaUnderPRC: 0.6391360466663808
Mean absolute error: 0.02349596483860588
Coverage of cases: 77.8
Instances selection time: 76.0
Test time: 180.0
Accumulative iteration time: 9842.0
Weighted Recall: 0.7222
Weighted FalsePositiveRate: 0.011090972210704828
Kappa statistic: 0.7110777321648767
Training time: 217.0
		
Iteration: 38
Labeled set size: 2740
Unlabelled set size: 7260
	
Mean region size: 5.906153846154501
Incorrectly Classified Instances: 28.11
Correctly Classified Instances: 71.89
Weighted Precision: 0.7336768508681542
Weighted AreaUnderROC: 0.8839760876968011
Root mean squared error: 0.13587252043868076
Relative absolute error: 32.22901777759874
Root relative squared error: 70.65371062811892
Weighted TruePositiveRate: 0.7189
Weighted MatthewsCorrelation: 0.7124209413651356
Weighted FMeasure: 0.7204843322533854
Iteration time: 302.0
Weighted AreaUnderPRC: 0.6354040478563431
Mean absolute error: 0.023838030900587462
Coverage of cases: 77.46
Instances selection time: 77.0
Test time: 180.0
Accumulative iteration time: 10144.0
Weighted Recall: 0.7189
Weighted FalsePositiveRate: 0.01123437029492496
Kappa statistic: 0.7076436033871283
Training time: 225.0
		
Iteration: 39
Labeled set size: 2760
Unlabelled set size: 7240
	
Mean region size: 5.346923076923746
Incorrectly Classified Instances: 27.67
Correctly Classified Instances: 72.33
Weighted Precision: 0.7319618204957434
Weighted AreaUnderROC: 0.8823011014548154
Root mean squared error: 0.13665171132588116
Relative absolute error: 31.39263517127651
Root relative squared error: 71.05888988946317
Weighted TruePositiveRate: 0.7233
Weighted MatthewsCorrelation: 0.7149172816992577
Weighted FMeasure: 0.7239632243953734
Iteration time: 304.0
Weighted AreaUnderPRC: 0.6248184855310487
Mean absolute error: 0.02321940471247939
Coverage of cases: 77.02
Instances selection time: 76.0
Test time: 181.0
Accumulative iteration time: 10448.0
Weighted Recall: 0.7233
Weighted FalsePositiveRate: 0.011059464556214694
Kappa statistic: 0.7122213867247424
Training time: 228.0
		
Iteration: 40
Labeled set size: 2780
Unlabelled set size: 7220
	
Mean region size: 5.63153846153914
Incorrectly Classified Instances: 28.28
Correctly Classified Instances: 71.72
Weighted Precision: 0.7296255123918866
Weighted AreaUnderROC: 0.8829499855999524
Root mean squared error: 0.13742305982505987
Relative absolute error: 32.327951216544726
Root relative squared error: 71.45999110903611
Weighted TruePositiveRate: 0.7172
Weighted MatthewsCorrelation: 0.7098155025074481
Weighted FMeasure: 0.7183374251281922
Iteration time: 319.0
Weighted AreaUnderPRC: 0.6260260912460632
Mean absolute error: 0.02391120652110963
Coverage of cases: 77.19
Instances selection time: 76.0
Test time: 181.0
Accumulative iteration time: 10767.0
Weighted Recall: 0.7172
Weighted FalsePositiveRate: 0.011309311247097978
Kappa statistic: 0.7058741946759006
Training time: 243.0
		
Iteration: 41
Labeled set size: 2800
Unlabelled set size: 7200
	
Mean region size: 5.593461538462235
Incorrectly Classified Instances: 28.07
Correctly Classified Instances: 71.93
Weighted Precision: 0.731726738053305
Weighted AreaUnderROC: 0.8837168536619856
Root mean squared error: 0.13678235895924493
Relative absolute error: 31.551976702789176
Root relative squared error: 71.12682665881233
Weighted TruePositiveRate: 0.7193
Weighted MatthewsCorrelation: 0.7122185050389013
Weighted FMeasure: 0.720887221465534
Iteration time: 307.0
Weighted AreaUnderPRC: 0.6296748806044048
Mean absolute error: 0.023337260874840813
Coverage of cases: 77.25
Instances selection time: 76.0
Test time: 181.0
Accumulative iteration time: 11074.0
Weighted Recall: 0.7193
Weighted FalsePositiveRate: 0.011206100957282677
Kappa statistic: 0.7080660669682923
Training time: 231.0
		
Iteration: 42
Labeled set size: 2820
Unlabelled set size: 7180
	
Mean region size: 5.360769230769884
Incorrectly Classified Instances: 28.23
Correctly Classified Instances: 71.77
Weighted Precision: 0.7299578653492885
Weighted AreaUnderROC: 0.8819484640274854
Root mean squared error: 0.13758465987158897
Relative absolute error: 31.690309572035893
Root relative squared error: 71.54402313323125
Weighted TruePositiveRate: 0.7177
Weighted MatthewsCorrelation: 0.7104095462326216
Weighted FMeasure: 0.7190687471213342
Iteration time: 313.0
Weighted AreaUnderPRC: 0.6237809123906575
Mean absolute error: 0.0234395780858221
Coverage of cases: 76.78
Instances selection time: 78.0
Test time: 181.0
Accumulative iteration time: 11387.0
Weighted Recall: 0.7177
Weighted FalsePositiveRate: 0.011267528028580408
Kappa statistic: 0.7064021217007198
Training time: 235.0
		
Iteration: 43
Labeled set size: 2840
Unlabelled set size: 7160
	
Mean region size: 5.4207692307698885
Incorrectly Classified Instances: 28.19
Correctly Classified Instances: 71.81
Weighted Precision: 0.7319853530376639
Weighted AreaUnderROC: 0.8843225254174515
Root mean squared error: 0.13731999149482083
Relative absolute error: 31.837190800930106
Root relative squared error: 71.40639557731181
Weighted TruePositiveRate: 0.7181
Weighted MatthewsCorrelation: 0.7110543866399018
Weighted FMeasure: 0.7190017771608965
Iteration time: 314.0
Weighted AreaUnderPRC: 0.6279537206329419
Mean absolute error: 0.023548218048021947
Coverage of cases: 77.45
Instances selection time: 76.0
Test time: 183.0
Accumulative iteration time: 11701.0
Weighted Recall: 0.7181
Weighted FalsePositiveRate: 0.011242043063544595
Kappa statistic: 0.7068252435300469
Training time: 238.0
		
Iteration: 44
Labeled set size: 2860
Unlabelled set size: 7140
	
Mean region size: 5.4850000000006585
Incorrectly Classified Instances: 28.7
Correctly Classified Instances: 71.3
Weighted Precision: 0.7284529060958438
Weighted AreaUnderROC: 0.8816079731775696
Root mean squared error: 0.13735177890056774
Relative absolute error: 32.17898655193889
Root relative squared error: 71.42292502830021
Weighted TruePositiveRate: 0.713
Weighted MatthewsCorrelation: 0.7064362417030242
Weighted FMeasure: 0.7144656808827005
Iteration time: 319.0
Weighted AreaUnderPRC: 0.6343300641316593
Mean absolute error: 0.0238010255561645
Coverage of cases: 76.95
Instances selection time: 77.0
Test time: 181.0
Accumulative iteration time: 12020.0
Weighted Recall: 0.713
Weighted FalsePositiveRate: 0.011458244537407328
Kappa statistic: 0.7015174230208233
Training time: 242.0
		
Iteration: 45
Labeled set size: 2880
Unlabelled set size: 7120
	
Mean region size: 5.252307692308352
Incorrectly Classified Instances: 29.02
Correctly Classified Instances: 70.98
Weighted Precision: 0.7264529781861957
Weighted AreaUnderROC: 0.8748537701929585
Root mean squared error: 0.14026274986563847
Relative absolute error: 32.66164855873141
Root relative squared error: 72.93662993013709
Weighted TruePositiveRate: 0.7098
Weighted MatthewsCorrelation: 0.7033858600231971
Weighted FMeasure: 0.7111467455733663
Iteration time: 314.0
Weighted AreaUnderPRC: 0.6020482683803523
Mean absolute error: 0.024158024081898558
Coverage of cases: 75.66
Instances selection time: 75.0
Test time: 181.0
Accumulative iteration time: 12334.0
Weighted Recall: 0.7098
Weighted FalsePositiveRate: 0.011571604174542862
Kappa statistic: 0.6981918614097028
Training time: 239.0
		
Iteration: 46
Labeled set size: 2900
Unlabelled set size: 7100
	
Mean region size: 5.263076923077581
Incorrectly Classified Instances: 28.87
Correctly Classified Instances: 71.13
Weighted Precision: 0.7278504921001486
Weighted AreaUnderROC: 0.8757311195380002
Root mean squared error: 0.13984695358009744
Relative absolute error: 32.554910779060634
Root relative squared error: 72.72041586165574
Weighted TruePositiveRate: 0.7113
Weighted MatthewsCorrelation: 0.7048597514955918
Weighted FMeasure: 0.712525989018308
Iteration time: 315.0
Weighted AreaUnderPRC: 0.604248389184974
Mean absolute error: 0.024079076020011903
Coverage of cases: 75.79
Instances selection time: 75.0
Test time: 181.0
Accumulative iteration time: 12649.0
Weighted Recall: 0.7113
Weighted FalsePositiveRate: 0.01151424129407397
Kappa statistic: 0.6997518746163829
Training time: 240.0
		
Time end:Tue Oct 31 19.55.24 EET 2017