Tue Oct 31 14.30.11 EET 2017
Dataset: letter
Test set size: 10000
Initial Labelled set size: 2000
Initial Unlabelled set size: 8000
Batch mode: QBestBatchMode
Batch size: 20
Classifiers: NaiveBayes-1cores
Scenario: PoolBasedSamplingScenario
Query strategy: EntropySamplingQueryStrategy-1cores
Time begining: Tue Oct 31 14.30.11 EET 2017
		
Iteration: 1
Labeled set size: 2000
Unlabelled set size: 8000
	
Mean region size: 11.858461538461638
Incorrectly Classified Instances: 38.56
Correctly Classified Instances: 61.44
Weighted Precision: 0.6305109624059418
Weighted AreaUnderROC: 0.9517896450422475
Root mean squared error: 0.14377520277606068
Relative absolute error: 45.36802614815301
Root relative squared error: 74.76310544355677
Weighted TruePositiveRate: 0.6144
Weighted MatthewsCorrelation: 0.6026877157217193
Weighted FMeasure: 0.6127475470039417
Iteration time: 1482.0
Weighted AreaUnderPRC: 0.6670629123842147
Mean absolute error: 0.033556232358096655
Coverage of cases: 85.9
Instances selection time: 1463.0
Test time: 2118.0
Accumulative iteration time: 1482.0
Weighted Recall: 0.6144
Weighted FalsePositiveRate: 0.015372670343938006
Kappa statistic: 0.5989801824762888
Training time: 19.0
		
Iteration: 2
Labeled set size: 2020
Unlabelled set size: 7980
	
Mean region size: 11.948846153846237
Incorrectly Classified Instances: 38.37
Correctly Classified Instances: 61.63
Weighted Precision: 0.6332455548971472
Weighted AreaUnderROC: 0.9524977516627934
Root mean squared error: 0.14358124272186246
Relative absolute error: 45.463625972177745
Root relative squared error: 74.66224621537368
Weighted TruePositiveRate: 0.6163
Weighted MatthewsCorrelation: 0.6050936314638418
Weighted FMeasure: 0.6150993735617841
Iteration time: 1392.0
Weighted AreaUnderPRC: 0.6683218067942894
Mean absolute error: 0.033626942287109024
Coverage of cases: 86.05
Instances selection time: 1385.0
Test time: 2070.0
Accumulative iteration time: 2874.0
Weighted Recall: 0.6163
Weighted FalsePositiveRate: 0.015299167828796135
Kappa statistic: 0.6009551036115861
Training time: 7.0
		
Iteration: 3
Labeled set size: 2040
Unlabelled set size: 7960
	
Mean region size: 12.093461538461524
Incorrectly Classified Instances: 38.31
Correctly Classified Instances: 61.69
Weighted Precision: 0.6329278812700986
Weighted AreaUnderROC: 0.9530897735491722
Root mean squared error: 0.14323275904832183
Relative absolute error: 45.536557861269024
Root relative squared error: 74.48103470513256
Weighted TruePositiveRate: 0.6169
Weighted MatthewsCorrelation: 0.6052482692224427
Weighted FMeasure: 0.6152104431464779
Iteration time: 1383.0
Weighted AreaUnderPRC: 0.6689451418563166
Mean absolute error: 0.033680885992058186
Coverage of cases: 86.47
Instances selection time: 1375.0
Test time: 2010.0
Accumulative iteration time: 4257.0
Weighted Recall: 0.6169
Weighted FalsePositiveRate: 0.015262716020550942
Kappa statistic: 0.6015833044123302
Training time: 8.0
		
Iteration: 4
Labeled set size: 2060
Unlabelled set size: 7940
	
Mean region size: 12.197692307692177
Incorrectly Classified Instances: 38.26
Correctly Classified Instances: 61.74
Weighted Precision: 0.6328648229352082
Weighted AreaUnderROC: 0.9533749466060016
Root mean squared error: 0.143153215663283
Relative absolute error: 45.61321683732864
Root relative squared error: 74.43967214491236
Weighted TruePositiveRate: 0.6174
Weighted MatthewsCorrelation: 0.6054576898848554
Weighted FMeasure: 0.6153678636120402
Iteration time: 1375.0
Weighted AreaUnderPRC: 0.6692582098766148
Mean absolute error: 0.03373758641813778
Coverage of cases: 86.56
Instances selection time: 1367.0
Test time: 2007.0
Accumulative iteration time: 5632.0
Weighted Recall: 0.6174
Weighted FalsePositiveRate: 0.015244999133401044
Kappa statistic: 0.6021033445356252
Training time: 8.0
		
Iteration: 5
Labeled set size: 2080
Unlabelled set size: 7920
	
Mean region size: 12.310769230769024
Incorrectly Classified Instances: 38.4
Correctly Classified Instances: 61.6
Weighted Precision: 0.6313024980482151
Weighted AreaUnderROC: 0.9536508152731914
Root mean squared error: 0.1432831336720138
Relative absolute error: 45.761471023974174
Root relative squared error: 74.50722950945239
Weighted TruePositiveRate: 0.616
Weighted MatthewsCorrelation: 0.6039064214735552
Weighted FMeasure: 0.6138584076877462
Iteration time: 1384.0
Weighted AreaUnderPRC: 0.6689640584669422
Mean absolute error: 0.033847241881632975
Coverage of cases: 86.6
Instances selection time: 1376.0
Test time: 2015.0
Accumulative iteration time: 7016.0
Weighted Recall: 0.616
Weighted FalsePositiveRate: 0.015301178954586794
Kappa statistic: 0.600647520925368
Training time: 8.0
		
Iteration: 6
Labeled set size: 2100
Unlabelled set size: 7900
	
Mean region size: 12.43499999999964
Incorrectly Classified Instances: 38.26
Correctly Classified Instances: 61.74
Weighted Precision: 0.6330844170245168
Weighted AreaUnderROC: 0.9538950665235437
Root mean squared error: 0.14300460209140042
Relative absolute error: 45.80685150594621
Root relative squared error: 74.3623930875334
Weighted TruePositiveRate: 0.6174
Weighted MatthewsCorrelation: 0.6054516889377095
Weighted FMeasure: 0.6152298226936448
Iteration time: 1365.0
Weighted AreaUnderPRC: 0.669917262383916
Mean absolute error: 0.033880807326878565
Coverage of cases: 86.61
Instances selection time: 1358.0
Test time: 2017.0
Accumulative iteration time: 8381.0
Weighted Recall: 0.6174
Weighted FalsePositiveRate: 0.015243623829236068
Kappa statistic: 0.6021032328082753
Training time: 7.0
		
Iteration: 7
Labeled set size: 2120
Unlabelled set size: 7880
	
Mean region size: 12.526153846153402
Incorrectly Classified Instances: 38.2
Correctly Classified Instances: 61.8
Weighted Precision: 0.6334904486297406
Weighted AreaUnderROC: 0.954271078125844
Root mean squared error: 0.1427899166710521
Relative absolute error: 45.79770104579938
Root relative squared error: 74.25075666895228
Weighted TruePositiveRate: 0.618
Weighted MatthewsCorrelation: 0.6059079423029528
Weighted FMeasure: 0.615577894393276
Iteration time: 1363.0
Weighted AreaUnderPRC: 0.6705082876972819
Mean absolute error: 0.033874039235053985
Coverage of cases: 86.85
Instances selection time: 1355.0
Test time: 2020.0
Accumulative iteration time: 9744.0
Weighted Recall: 0.618
Weighted FalsePositiveRate: 0.01522226910728057
Kappa statistic: 0.6027256845187253
Training time: 8.0
		
Iteration: 8
Labeled set size: 2140
Unlabelled set size: 7860
	
Mean region size: 12.647692307691736
Incorrectly Classified Instances: 38.21
Correctly Classified Instances: 61.79
Weighted Precision: 0.6325060212960062
Weighted AreaUnderROC: 0.9545951272352938
Root mean squared error: 0.14257698561410717
Relative absolute error: 45.88567358104954
Root relative squared error: 74.1400325193409
Weighted TruePositiveRate: 0.6179
Weighted MatthewsCorrelation: 0.6053867499790385
Weighted FMeasure: 0.6150869031945962
Iteration time: 1360.0
Weighted AreaUnderPRC: 0.6708779590411915
Mean absolute error: 0.03393910767828634
Coverage of cases: 87.04
Instances selection time: 1352.0
Test time: 2021.0
Accumulative iteration time: 11104.0
Weighted Recall: 0.6179
Weighted FalsePositiveRate: 0.015226350308344192
Kappa statistic: 0.6026211198294921
Training time: 8.0
		
Iteration: 9
Labeled set size: 2160
Unlabelled set size: 7840
	
Mean region size: 12.747307692307126
Incorrectly Classified Instances: 38.26
Correctly Classified Instances: 61.74
Weighted Precision: 0.6324180359781979
Weighted AreaUnderROC: 0.9544832141037703
Root mean squared error: 0.142385987770585
Relative absolute error: 45.96313239359011
Root relative squared error: 74.04071364070937
Weighted TruePositiveRate: 0.6174
Weighted MatthewsCorrelation: 0.6051568082361624
Weighted FMeasure: 0.614974444618636
Iteration time: 1359.0
Weighted AreaUnderPRC: 0.6714542836099219
Mean absolute error: 0.033996399699396225
Coverage of cases: 87.1
Instances selection time: 1351.0
Test time: 2025.0
Accumulative iteration time: 12463.0
Weighted Recall: 0.6174
Weighted FalsePositiveRate: 0.015240084456240453
Kappa statistic: 0.6021039817941252
Training time: 8.0
		
Iteration: 10
Labeled set size: 2180
Unlabelled set size: 7820
	
Mean region size: 12.826538461537917
Incorrectly Classified Instances: 38.37
Correctly Classified Instances: 61.63
Weighted Precision: 0.630927636493928
Weighted AreaUnderROC: 0.9546593854309494
Root mean squared error: 0.14244823734328693
Relative absolute error: 46.04860310958226
Root relative squared error: 74.07308341851439
Weighted TruePositiveRate: 0.6163
Weighted MatthewsCorrelation: 0.6038518969265271
Weighted FMeasure: 0.613754101427882
Iteration time: 1352.0
Weighted AreaUnderPRC: 0.6715859741999374
Mean absolute error: 0.03405961768459751
Coverage of cases: 87.19
Instances selection time: 1344.0
Test time: 2027.0
Accumulative iteration time: 13815.0
Weighted Recall: 0.6163
Weighted FalsePositiveRate: 0.01528712956496485
Kappa statistic: 0.6009584900111185
Training time: 8.0
		
Iteration: 11
Labeled set size: 2200
Unlabelled set size: 7800
	
Mean region size: 12.953076923076392
Incorrectly Classified Instances: 38.25
Correctly Classified Instances: 61.75
Weighted Precision: 0.6309290883912582
Weighted AreaUnderROC: 0.9550388840647538
Root mean squared error: 0.14239088079974432
Relative absolute error: 46.20766733563283
Root relative squared error: 74.04325801587223
Weighted TruePositiveRate: 0.6175
Weighted MatthewsCorrelation: 0.6046204723167914
Weighted FMeasure: 0.6146168990661532
Iteration time: 1345.0
Weighted AreaUnderPRC: 0.6718320127864059
Mean absolute error: 0.034177268739368626
Coverage of cases: 87.4
Instances selection time: 1337.0
Test time: 2034.0
Accumulative iteration time: 15160.0
Weighted Recall: 0.6175
Weighted FalsePositiveRate: 0.015240788130153225
Kappa statistic: 0.6022056505891745
Training time: 8.0
		
Iteration: 12
Labeled set size: 2220
Unlabelled set size: 7780
	
Mean region size: 13.031923076922528
Incorrectly Classified Instances: 38.19
Correctly Classified Instances: 61.81
Weighted Precision: 0.6318087695889136
Weighted AreaUnderROC: 0.9547425116617116
Root mean squared error: 0.14232476620430165
Relative absolute error: 46.220156339686596
Root relative squared error: 74.00887842624202
Weighted TruePositiveRate: 0.6181
Weighted MatthewsCorrelation: 0.6053774645375183
Weighted FMeasure: 0.6153218758817381
Iteration time: 1349.0
Weighted AreaUnderPRC: 0.6704280733682539
Mean absolute error: 0.03418650616840247
Coverage of cases: 87.38
Instances selection time: 1341.0
Test time: 2030.0
Accumulative iteration time: 16509.0
Weighted Recall: 0.6181
Weighted FalsePositiveRate: 0.015219935969859023
Kappa statistic: 0.6028274979776598
Training time: 8.0
		
Iteration: 13
Labeled set size: 2240
Unlabelled set size: 7760
	
Mean region size: 13.163461538460965
Incorrectly Classified Instances: 37.93
Correctly Classified Instances: 62.07
Weighted Precision: 0.6342223561702864
Weighted AreaUnderROC: 0.9550868139775661
Root mean squared error: 0.14199799237771377
Relative absolute error: 46.257780443614216
Root relative squared error: 73.8389560364163
Weighted TruePositiveRate: 0.6207
Weighted MatthewsCorrelation: 0.6080096318900806
Weighted FMeasure: 0.6178749359001897
Iteration time: 1369.0
Weighted AreaUnderPRC: 0.6719680101451214
Mean absolute error: 0.03421433464763888
Coverage of cases: 87.58
Instances selection time: 1352.0
Test time: 2061.0
Accumulative iteration time: 17878.0
Weighted Recall: 0.6207
Weighted FalsePositiveRate: 0.015114142946470852
Kappa statistic: 0.6055315110851262
Training time: 17.0
		
Iteration: 14
Labeled set size: 2260
Unlabelled set size: 7740
	
Mean region size: 13.213461538460972
Incorrectly Classified Instances: 37.77
Correctly Classified Instances: 62.23
Weighted Precision: 0.6353185761461824
Weighted AreaUnderROC: 0.9552056351987399
Root mean squared error: 0.14193635551627942
Relative absolute error: 46.326610256288824
Root relative squared error: 73.80690486847045
Weighted TruePositiveRate: 0.6223
Weighted MatthewsCorrelation: 0.6095243405252658
Weighted FMeasure: 0.6194648847291502
Iteration time: 1341.0
Weighted AreaUnderPRC: 0.6717097077418036
Mean absolute error: 0.034265244272398195
Coverage of cases: 87.65
Instances selection time: 1331.0
Test time: 2030.0
Accumulative iteration time: 19219.0
Weighted Recall: 0.6223
Weighted FalsePositiveRate: 0.01505408721980034
Kappa statistic: 0.6071941114102123
Training time: 10.0
		
Iteration: 15
Labeled set size: 2280
Unlabelled set size: 7720
	
Mean region size: 13.275769230768661
Incorrectly Classified Instances: 37.51
Correctly Classified Instances: 62.49
Weighted Precision: 0.6378633126676331
Weighted AreaUnderROC: 0.9555913927378086
Root mean squared error: 0.1417493356601913
Relative absolute error: 46.328858197040574
Root relative squared error: 73.70965454330462
Weighted TruePositiveRate: 0.6249
Weighted MatthewsCorrelation: 0.6122516906332366
Weighted FMeasure: 0.6221501752627965
Iteration time: 1336.0
Weighted AreaUnderPRC: 0.6723914306134614
Mean absolute error: 0.034266906950469016
Coverage of cases: 87.79
Instances selection time: 1328.0
Test time: 2037.0
Accumulative iteration time: 20555.0
Weighted Recall: 0.6249
Weighted FalsePositiveRate: 0.01495005123545061
Kappa statistic: 0.6098965024533048
Training time: 8.0
		
Iteration: 16
Labeled set size: 2300
Unlabelled set size: 7700
	
Mean region size: 13.345384615384042
Incorrectly Classified Instances: 37.36
Correctly Classified Instances: 62.64
Weighted Precision: 0.6395761046660567
Weighted AreaUnderROC: 0.956095885631394
Root mean squared error: 0.14150343275439253
Relative absolute error: 46.29792703382355
Root relative squared error: 73.58178503228925
Weighted TruePositiveRate: 0.6264
Weighted MatthewsCorrelation: 0.6138504625720898
Weighted FMeasure: 0.6236154766284054
Iteration time: 1337.0
Weighted AreaUnderPRC: 0.6734707675119165
Mean absolute error: 0.03424402887116648
Coverage of cases: 87.91
Instances selection time: 1328.0
Test time: 2041.0
Accumulative iteration time: 21892.0
Weighted Recall: 0.6264
Weighted FalsePositiveRate: 0.014886739230288416
Kappa statistic: 0.6114581531434985
Training time: 9.0
		
Iteration: 17
Labeled set size: 2320
Unlabelled set size: 7680
	
Mean region size: 13.381923076922478
Incorrectly Classified Instances: 37.51
Correctly Classified Instances: 62.49
Weighted Precision: 0.638078154979451
Weighted AreaUnderROC: 0.956081154151566
Root mean squared error: 0.14166455918858428
Relative absolute error: 46.42540127950308
Root relative squared error: 73.66557077806897
Weighted TruePositiveRate: 0.6249
Weighted MatthewsCorrelation: 0.6122371624980497
Weighted FMeasure: 0.6220110017411477
Iteration time: 1334.0
Weighted AreaUnderPRC: 0.6724714701574223
Mean absolute error: 0.03433831455584068
Coverage of cases: 88.06
Instances selection time: 1325.0
Test time: 2049.0
Accumulative iteration time: 23226.0
Weighted Recall: 0.6249
Weighted FalsePositiveRate: 0.014947358762260157
Kappa statistic: 0.6098984133244558
Training time: 9.0
		
Iteration: 18
Labeled set size: 2340
Unlabelled set size: 7660
	
Mean region size: 13.395384615384046
Incorrectly Classified Instances: 37.61
Correctly Classified Instances: 62.39
Weighted Precision: 0.6375580524779629
Weighted AreaUnderROC: 0.956004437361428
Root mean squared error: 0.14189844806337698
Relative absolute error: 46.540919962881624
Root relative squared error: 73.78719299296118
Weighted TruePositiveRate: 0.6239
Weighted MatthewsCorrelation: 0.6113843751776948
Weighted FMeasure: 0.6211324812087105
Iteration time: 1331.0
Weighted AreaUnderPRC: 0.6708688346753977
Mean absolute error: 0.034423757368990476
Coverage of cases: 87.96
Instances selection time: 1322.0
Test time: 2058.0
Accumulative iteration time: 24557.0
Weighted Recall: 0.6239
Weighted FalsePositiveRate: 0.014988892969950107
Kappa statistic: 0.6088578380552474
Training time: 9.0
		
Iteration: 19
Labeled set size: 2360
Unlabelled set size: 7640
	
Mean region size: 13.435769230768653
Incorrectly Classified Instances: 37.19
Correctly Classified Instances: 62.81
Weighted Precision: 0.6413308581916454
Weighted AreaUnderROC: 0.9562854851677017
Root mean squared error: 0.14148112702361948
Relative absolute error: 46.48421250995981
Root relative squared error: 73.57018605228727
Weighted TruePositiveRate: 0.6281
Weighted MatthewsCorrelation: 0.6156508826209424
Weighted FMeasure: 0.6253770690748499
Iteration time: 1333.0
Weighted AreaUnderPRC: 0.6723092213600858
Mean absolute error: 0.03438181398665187
Coverage of cases: 88.02
Instances selection time: 1325.0
Test time: 2047.0
Accumulative iteration time: 25890.0
Weighted Recall: 0.6281
Weighted FalsePositiveRate: 0.014817566734709535
Kappa statistic: 0.6132263163102368
Training time: 8.0
		
Iteration: 20
Labeled set size: 2380
Unlabelled set size: 7620
	
Mean region size: 13.43499999999943
Incorrectly Classified Instances: 37.15
Correctly Classified Instances: 62.85
Weighted Precision: 0.6416503313625933
Weighted AreaUnderROC: 0.9564004532093632
Root mean squared error: 0.14134900739667272
Relative absolute error: 46.462853602785884
Root relative squared error: 73.50148384627494
Weighted TruePositiveRate: 0.6285
Weighted MatthewsCorrelation: 0.6160165367978249
Weighted FMeasure: 0.6257147099989041
Iteration time: 1323.0
Weighted AreaUnderPRC: 0.673244249778881
Mean absolute error: 0.03436601597838713
Coverage of cases: 87.96
Instances selection time: 1313.0
Test time: 2043.0
Accumulative iteration time: 27213.0
Weighted Recall: 0.6285
Weighted FalsePositiveRate: 0.014800671870264565
Kappa statistic: 0.613642273637948
Training time: 10.0
		
Iteration: 21
Labeled set size: 2400
Unlabelled set size: 7600
	
Mean region size: 13.479999999999478
Incorrectly Classified Instances: 37.09
Correctly Classified Instances: 62.91
Weighted Precision: 0.6419314999018476
Weighted AreaUnderROC: 0.9565983227252773
Root mean squared error: 0.1412908371929492
Relative absolute error: 46.48137218459693
Root relative squared error: 73.47123534033871
Weighted TruePositiveRate: 0.6291
Weighted MatthewsCorrelation: 0.6165465948287955
Weighted FMeasure: 0.626291958932663
Iteration time: 1318.0
Weighted AreaUnderPRC: 0.6735630862480919
Mean absolute error: 0.03437971315428287
Coverage of cases: 88.1
Instances selection time: 1308.0
Test time: 2054.0
Accumulative iteration time: 28531.0
Weighted Recall: 0.6291
Weighted FalsePositiveRate: 0.014771139045959145
Kappa statistic: 0.6142683279093608
Training time: 10.0
		
Iteration: 22
Labeled set size: 2420
Unlabelled set size: 7580
	
Mean region size: 13.522692307691782
Incorrectly Classified Instances: 36.99
Correctly Classified Instances: 63.01
Weighted Precision: 0.6432591717260979
Weighted AreaUnderROC: 0.9567387059629197
Root mean squared error: 0.14122785761621262
Relative absolute error: 46.5198877538864
Root relative squared error: 73.43848596043568
Weighted TruePositiveRate: 0.6301
Weighted MatthewsCorrelation: 0.6176042099419725
Weighted FMeasure: 0.6271496033800746
Iteration time: 1313.0
Weighted AreaUnderPRC: 0.6735494746972917
Mean absolute error: 0.034408201001390464
Coverage of cases: 88.16
Instances selection time: 1304.0
Test time: 2071.0
Accumulative iteration time: 29844.0
Weighted Recall: 0.6301
Weighted FalsePositiveRate: 0.01473841933949669
Kappa statistic: 0.6153070680030712
Training time: 9.0
		
Iteration: 23
Labeled set size: 2440
Unlabelled set size: 7560
	
Mean region size: 13.578461538461013
Incorrectly Classified Instances: 36.83
Correctly Classified Instances: 63.17
Weighted Precision: 0.645094243969767
Weighted AreaUnderROC: 0.9571369743957363
Root mean squared error: 0.14100958328055677
Relative absolute error: 46.5034029840505
Root relative squared error: 73.32498330589463
Weighted TruePositiveRate: 0.6317
Weighted MatthewsCorrelation: 0.6194163648433838
Weighted FMeasure: 0.6289417520383116
Iteration time: 1320.0
Weighted AreaUnderPRC: 0.6744453289176233
Mean absolute error: 0.03439600812429291
Coverage of cases: 88.23
Instances selection time: 1311.0
Test time: 2079.0
Accumulative iteration time: 31164.0
Weighted Recall: 0.6317
Weighted FalsePositiveRate: 0.01467431935797078
Kappa statistic: 0.6169711782199516
Training time: 9.0
		
Iteration: 24
Labeled set size: 2460
Unlabelled set size: 7540
	
Mean region size: 13.559230769230295
Incorrectly Classified Instances: 36.98
Correctly Classified Instances: 63.02
Weighted Precision: 0.6432871165541239
Weighted AreaUnderROC: 0.9572930678468767
Root mean squared error: 0.14104519094897192
Relative absolute error: 46.52936047930718
Root relative squared error: 73.34349929347051
Weighted TruePositiveRate: 0.6302
Weighted MatthewsCorrelation: 0.6177933387708756
Weighted FMeasure: 0.6274806109390586
Iteration time: 1306.0
Weighted AreaUnderPRC: 0.6749251318580715
Mean absolute error: 0.03441520745510406
Coverage of cases: 88.31
Instances selection time: 1297.0
Test time: 2112.0
Accumulative iteration time: 32470.0
Weighted Recall: 0.6302
Weighted FalsePositiveRate: 0.014724665556320076
Kappa statistic: 0.615415102821549
Training time: 9.0
		
Iteration: 25
Labeled set size: 2480
Unlabelled set size: 7520
	
Mean region size: 13.545769230768725
Incorrectly Classified Instances: 36.7
Correctly Classified Instances: 63.3
Weighted Precision: 0.6465441813438567
Weighted AreaUnderROC: 0.9572558464923108
Root mean squared error: 0.1407043298579242
Relative absolute error: 46.41211193236973
Root relative squared error: 73.16625152612568
Weighted TruePositiveRate: 0.633
Weighted MatthewsCorrelation: 0.6209698336547484
Weighted FMeasure: 0.6305905383734696
Iteration time: 1326.0
Weighted AreaUnderPRC: 0.6764859921196636
Mean absolute error: 0.034328485157073416
Coverage of cases: 88.22
Instances selection time: 1308.0
Test time: 2056.0
Accumulative iteration time: 33796.0
Weighted Recall: 0.633
Weighted FalsePositiveRate: 0.014609664410413436
Kappa statistic: 0.6183281763264755
Training time: 18.0
		
Iteration: 26
Labeled set size: 2500
Unlabelled set size: 7500
	
Mean region size: 13.599999999999502
Incorrectly Classified Instances: 36.59
Correctly Classified Instances: 63.41
Weighted Precision: 0.6466650184801956
Weighted AreaUnderROC: 0.9574131161246012
Root mean squared error: 0.1405006286193019
Relative absolute error: 46.410911559700686
Root relative squared error: 73.06032688204209
Weighted TruePositiveRate: 0.6341
Weighted MatthewsCorrelation: 0.6217950503020608
Weighted FMeasure: 0.6315804509466925
Iteration time: 1300.0
Weighted AreaUnderPRC: 0.677305999791454
Mean absolute error: 0.03432759730746613
Coverage of cases: 88.35
Instances selection time: 1286.0
Test time: 2055.0
Accumulative iteration time: 35096.0
Weighted Recall: 0.6341
Weighted FalsePositiveRate: 0.014566249133925157
Kappa statistic: 0.6194717402492259
Training time: 14.0
		
Iteration: 27
Labeled set size: 2520
Unlabelled set size: 7480
	
Mean region size: 13.635384615384083
Incorrectly Classified Instances: 36.54
Correctly Classified Instances: 63.46
Weighted Precision: 0.6459319081332848
Weighted AreaUnderROC: 0.9575153671221442
Root mean squared error: 0.140465485922722
Relative absolute error: 46.40208004308692
Root relative squared error: 73.04205267982054
Weighted TruePositiveRate: 0.6346
Weighted MatthewsCorrelation: 0.6217929321978226
Weighted FMeasure: 0.6316668184995847
Iteration time: 1288.0
Weighted AreaUnderPRC: 0.6780102653163034
Mean absolute error: 0.03432106512062163
Coverage of cases: 88.32
Instances selection time: 1279.0
Test time: 2043.0
Accumulative iteration time: 36384.0
Weighted Recall: 0.6346
Weighted FalsePositiveRate: 0.014548967172696643
Kappa statistic: 0.6199901330552446
Training time: 9.0
		
Iteration: 28
Labeled set size: 2540
Unlabelled set size: 7460
	
Mean region size: 13.695769230768672
Incorrectly Classified Instances: 36.48
Correctly Classified Instances: 63.52
Weighted Precision: 0.6458758235846567
Weighted AreaUnderROC: 0.9576094499650594
Root mean squared error: 0.14036053946255087
Relative absolute error: 46.46606310130632
Root relative squared error: 72.98748052053153
Weighted TruePositiveRate: 0.6352
Weighted MatthewsCorrelation: 0.6222124521089639
Weighted FMeasure: 0.6322025494223544
Iteration time: 1290.0
Weighted AreaUnderPRC: 0.6780550950774406
Mean absolute error: 0.03436838986782532
Coverage of cases: 88.45
Instances selection time: 1281.0
Test time: 2058.0
Accumulative iteration time: 37674.0
Weighted Recall: 0.6352
Weighted FalsePositiveRate: 0.014523203795764729
Kappa statistic: 0.6206140598557447
Training time: 9.0
		
Iteration: 29
Labeled set size: 2560
Unlabelled set size: 7440
	
Mean region size: 13.696923076922554
Incorrectly Classified Instances: 36.69
Correctly Classified Instances: 63.31
Weighted Precision: 0.6453699089908167
Weighted AreaUnderROC: 0.957567240797773
Root mean squared error: 0.1405988087538342
Relative absolute error: 46.559716359638706
Root relative squared error: 73.11138055199889
Weighted TruePositiveRate: 0.6331
Weighted MatthewsCorrelation: 0.6205938875845961
Weighted FMeasure: 0.6303820023404575
Iteration time: 1291.0
Weighted AreaUnderPRC: 0.6768072234943892
Mean absolute error: 0.03443766002931376
Coverage of cases: 88.43
Instances selection time: 1279.0
Test time: 2041.0
Accumulative iteration time: 38965.0
Weighted Recall: 0.6331
Weighted FalsePositiveRate: 0.014607621907182712
Kappa statistic: 0.6184299756918367
Training time: 12.0
		
Iteration: 30
Labeled set size: 2580
Unlabelled set size: 7420
	
Mean region size: 13.75423076923021
Incorrectly Classified Instances: 36.78
Correctly Classified Instances: 63.22
Weighted Precision: 0.6441026105796446
Weighted AreaUnderROC: 0.9577441480434059
Root mean squared error: 0.14059202128893827
Relative absolute error: 46.64642650998869
Root relative squared error: 73.107851070253
Weighted TruePositiveRate: 0.6322
Weighted MatthewsCorrelation: 0.6195317587485366
Weighted FMeasure: 0.6294285886957874
Iteration time: 1286.0
Weighted AreaUnderPRC: 0.6767797305904973
Mean absolute error: 0.03450179475590398
Coverage of cases: 88.76
Instances selection time: 1276.0
Test time: 2073.0
Accumulative iteration time: 40251.0
Weighted Recall: 0.6322
Weighted FalsePositiveRate: 0.014641653367788422
Kappa statistic: 0.617494563181287
Training time: 10.0
		
Iteration: 31
Labeled set size: 2600
Unlabelled set size: 7400
	
Mean region size: 13.811923076922534
Incorrectly Classified Instances: 36.52
Correctly Classified Instances: 63.48
Weighted Precision: 0.6458899839798545
Weighted AreaUnderROC: 0.9581707064967911
Root mean squared error: 0.14015864716050022
Relative absolute error: 46.566879183565995
Root relative squared error: 72.88249652346519
Weighted TruePositiveRate: 0.6348
Weighted MatthewsCorrelation: 0.6219518151264084
Weighted FMeasure: 0.6318821235993882
Iteration time: 1289.0
Weighted AreaUnderPRC: 0.6786924024026713
Mean absolute error: 0.034442957976005543
Coverage of cases: 88.89
Instances selection time: 1277.0
Test time: 2042.0
Accumulative iteration time: 41540.0
Weighted Recall: 0.6348
Weighted FalsePositiveRate: 0.014537378536617237
Kappa statistic: 0.6201991250644139
Training time: 12.0
		
Iteration: 32
Labeled set size: 2620
Unlabelled set size: 7380
	
Mean region size: 13.859999999999433
Incorrectly Classified Instances: 36.36
Correctly Classified Instances: 63.64
Weighted Precision: 0.6478850623548671
Weighted AreaUnderROC: 0.958272633681421
Root mean squared error: 0.13991171793430104
Relative absolute error: 46.551667591923106
Root relative squared error: 72.75409332584162
Weighted TruePositiveRate: 0.6364
Weighted MatthewsCorrelation: 0.623850452223504
Weighted FMeasure: 0.6337515589732767
Iteration time: 1531.0
Weighted AreaUnderPRC: 0.6801214268730912
Mean absolute error: 0.03443170679875489
Coverage of cases: 89.01
Instances selection time: 1513.0
Test time: 2065.0
Accumulative iteration time: 43071.0
Weighted Recall: 0.6364
Weighted FalsePositiveRate: 0.014474089374222199
Kappa statistic: 0.6218613949791055
Training time: 18.0
		
Iteration: 33
Labeled set size: 2640
Unlabelled set size: 7360
	
Mean region size: 13.93076923076866
Incorrectly Classified Instances: 36.35
Correctly Classified Instances: 63.65
Weighted Precision: 0.6470248756882648
Weighted AreaUnderROC: 0.9584179263746327
Root mean squared error: 0.13975247141387076
Relative absolute error: 46.55743102979083
Root relative squared error: 72.67128513521787
Weighted TruePositiveRate: 0.6365
Weighted MatthewsCorrelation: 0.6236353381028736
Weighted FMeasure: 0.6337145533111305
Iteration time: 1275.0
Weighted AreaUnderPRC: 0.6805833721459684
Mean absolute error: 0.03443596969658604
Coverage of cases: 89.11
Instances selection time: 1265.0
Test time: 2061.0
Accumulative iteration time: 44346.0
Weighted Recall: 0.6365
Weighted FalsePositiveRate: 0.014469783526413482
Kappa statistic: 0.6219653109337397
Training time: 10.0
		
Iteration: 34
Labeled set size: 2660
Unlabelled set size: 7340
	
Mean region size: 13.930769230768625
Incorrectly Classified Instances: 36.37
Correctly Classified Instances: 63.63
Weighted Precision: 0.6466303963902044
Weighted AreaUnderROC: 0.958424432925787
Root mean squared error: 0.13982612967265526
Relative absolute error: 46.57640901810721
Root relative squared error: 72.70958742978581
Weighted TruePositiveRate: 0.6363
Weighted MatthewsCorrelation: 0.6232653010688961
Weighted FMeasure: 0.6332695223614145
Iteration time: 1273.0
Weighted AreaUnderPRC: 0.6797681714544634
Mean absolute error: 0.03445000667019284
Coverage of cases: 89.11
Instances selection time: 1263.0
Test time: 2307.0
Accumulative iteration time: 45619.0
Weighted Recall: 0.6363
Weighted FalsePositiveRate: 0.014479139861060458
Kappa statistic: 0.6217567080699032
Training time: 10.0
		
Iteration: 35
Labeled set size: 2680
Unlabelled set size: 7320
	
Mean region size: 13.946153846153225
Incorrectly Classified Instances: 36.22
Correctly Classified Instances: 63.78
Weighted Precision: 0.647307989437328
Weighted AreaUnderROC: 0.9585500370346334
Root mean squared error: 0.1396958561300854
Relative absolute error: 46.57809553819071
Root relative squared error: 72.64184518764948
Weighted TruePositiveRate: 0.6378
Weighted MatthewsCorrelation: 0.6246559513726263
Weighted FMeasure: 0.634879772860203
Iteration time: 1271.0
Weighted AreaUnderPRC: 0.6802438715101601
Mean absolute error: 0.034451254096290095
Coverage of cases: 89.21
Instances selection time: 1261.0
Test time: 2062.0
Accumulative iteration time: 46890.0
Weighted Recall: 0.6378
Weighted FalsePositiveRate: 0.014428761230370893
Kappa statistic: 0.6233113099063198
Training time: 10.0
		
Iteration: 36
Labeled set size: 2700
Unlabelled set size: 7300
	
Mean region size: 14.019999999999337
Incorrectly Classified Instances: 36.14
Correctly Classified Instances: 63.86
Weighted Precision: 0.6472475363995828
Weighted AreaUnderROC: 0.9589378199946225
Root mean squared error: 0.1394551186537022
Relative absolute error: 46.576895797953284
Root relative squared error: 72.51666169993021
Weighted TruePositiveRate: 0.6386
Weighted MatthewsCorrelation: 0.6251709731560565
Weighted FMeasure: 0.6355004267199718
Iteration time: 1264.0
Weighted AreaUnderPRC: 0.6810582187869293
Mean absolute error: 0.03445036671445768
Coverage of cases: 89.43
Instances selection time: 1253.0
Test time: 2069.0
Accumulative iteration time: 48154.0
Weighted Recall: 0.6386
Weighted FalsePositiveRate: 0.014396425225447094
Kappa statistic: 0.6241435616010502
Training time: 11.0
		
Iteration: 37
Labeled set size: 2720
Unlabelled set size: 7280
	
Mean region size: 14.065384615383955
Incorrectly Classified Instances: 36.03
Correctly Classified Instances: 63.97
Weighted Precision: 0.6481999817351425
Weighted AreaUnderROC: 0.9591177124044836
Root mean squared error: 0.13923747581575602
Relative absolute error: 46.531748502993594
Root relative squared error: 72.40348742419819
Weighted TruePositiveRate: 0.6397
Weighted MatthewsCorrelation: 0.6262085019349076
Weighted FMeasure: 0.6364538717103658
Iteration time: 1260.0
Weighted AreaUnderPRC: 0.6820078884530635
Mean absolute error: 0.034416973744812944
Coverage of cases: 89.55
Instances selection time: 1251.0
Test time: 2045.0
Accumulative iteration time: 49414.0
Weighted Recall: 0.6397
Weighted FalsePositiveRate: 0.014351597487454217
Kappa statistic: 0.6252877460949768
Training time: 9.0
		
Iteration: 38
Labeled set size: 2740
Unlabelled set size: 7260
	
Mean region size: 14.113846153845481
Incorrectly Classified Instances: 36.12
Correctly Classified Instances: 63.88
Weighted Precision: 0.6463246446977965
Weighted AreaUnderROC: 0.9593032810533201
Root mean squared error: 0.13921760084922152
Relative absolute error: 46.585327868577444
Root relative squared error: 72.39315244160024
Weighted TruePositiveRate: 0.6388
Weighted MatthewsCorrelation: 0.6247681265887904
Weighted FMeasure: 0.6350197095851149
Iteration time: 1254.0
Weighted AreaUnderPRC: 0.6818213438207374
Mean absolute error: 0.034456603453085016
Coverage of cases: 89.59
Instances selection time: 1244.0
Test time: 2033.0
Accumulative iteration time: 50668.0
Weighted Recall: 0.6388
Weighted FalsePositiveRate: 0.014384660069066666
Kappa statistic: 0.6243533159654635
Training time: 10.0
		
Iteration: 39
Labeled set size: 2760
Unlabelled set size: 7240
	
Mean region size: 14.128846153845474
Incorrectly Classified Instances: 36.48
Correctly Classified Instances: 63.52
Weighted Precision: 0.6426887580657575
Weighted AreaUnderROC: 0.9590018129022836
Root mean squared error: 0.13953672364385766
Relative absolute error: 46.78002124651717
Root relative squared error: 72.55909629481106
Weighted TruePositiveRate: 0.6352
Weighted MatthewsCorrelation: 0.6211166290159822
Weighted FMeasure: 0.6316506153701738
Iteration time: 1252.0
Weighted AreaUnderPRC: 0.6793469674885317
Mean absolute error: 0.03460060743085107
Coverage of cases: 89.41
Instances selection time: 1241.0
Test time: 2029.0
Accumulative iteration time: 51920.0
Weighted Recall: 0.6352
Weighted FalsePositiveRate: 0.014527231836822481
Kappa statistic: 0.6206101576659113
Training time: 11.0
		
Iteration: 40
Labeled set size: 2780
Unlabelled set size: 7220
	
Mean region size: 14.193461538460827
Incorrectly Classified Instances: 36.41
Correctly Classified Instances: 63.59
Weighted Precision: 0.6427760493625339
Weighted AreaUnderROC: 0.9590529649282671
Root mean squared error: 0.13957936688686307
Relative absolute error: 46.84698091034157
Root relative squared error: 72.58127078117386
Weighted TruePositiveRate: 0.6359
Weighted MatthewsCorrelation: 0.6215254700212853
Weighted FMeasure: 0.6320120680884639
Iteration time: 1247.0
Weighted AreaUnderPRC: 0.678914718401026
Mean absolute error: 0.034650133809419406
Coverage of cases: 89.53
Instances selection time: 1237.0
Test time: 2026.0
Accumulative iteration time: 53167.0
Weighted Recall: 0.6359
Weighted FalsePositiveRate: 0.01450044714669576
Kappa statistic: 0.6213370981224154
Training time: 10.0
		
Iteration: 41
Labeled set size: 2800
Unlabelled set size: 7200
	
Mean region size: 14.286153846153107
Incorrectly Classified Instances: 36.4
Correctly Classified Instances: 63.6
Weighted Precision: 0.6426754718272001
Weighted AreaUnderROC: 0.9594592863545418
Root mean squared error: 0.1393935905296094
Relative absolute error: 46.87428001338653
Root relative squared error: 72.48466707540194
Weighted TruePositiveRate: 0.636
Weighted MatthewsCorrelation: 0.6215192853277794
Weighted FMeasure: 0.6319827158423806
Iteration time: 1242.0
Weighted AreaUnderPRC: 0.6797750171109354
Mean absolute error: 0.034670325453683426
Coverage of cases: 89.59
Instances selection time: 1232.0
Test time: 2039.0
Accumulative iteration time: 54409.0
Weighted Recall: 0.636
Weighted FalsePositiveRate: 0.014492800749530585
Kappa statistic: 0.6214427080474437
Training time: 10.0
		
Iteration: 42
Labeled set size: 2820
Unlabelled set size: 7180
	
Mean region size: 14.338846153845406
Incorrectly Classified Instances: 36.22
Correctly Classified Instances: 63.78
Weighted Precision: 0.6447922398584945
Weighted AreaUnderROC: 0.9595848394324066
Root mean squared error: 0.13923529762504963
Relative absolute error: 46.90737198976354
Root relative squared error: 72.40235476503086
Weighted TruePositiveRate: 0.6378
Weighted MatthewsCorrelation: 0.6235976514104695
Weighted FMeasure: 0.6340506906894003
Iteration time: 1253.0
Weighted AreaUnderPRC: 0.6806436689456807
Mean absolute error: 0.03469480176757174
Coverage of cases: 89.68
Instances selection time: 1240.0
Test time: 2061.0
Accumulative iteration time: 55662.0
Weighted Recall: 0.6378
Weighted FalsePositiveRate: 0.014418352579373349
Kappa statistic: 0.6233153606296786
Training time: 13.0
		
Iteration: 43
Labeled set size: 2840
Unlabelled set size: 7160
	
Mean region size: 14.350384615383874
Incorrectly Classified Instances: 36.25
Correctly Classified Instances: 63.75
Weighted Precision: 0.6442689169552835
Weighted AreaUnderROC: 0.959623591086282
Root mean squared error: 0.13926195938465752
Relative absolute error: 46.92685482133636
Root relative squared error: 72.41621888002696
Weighted TruePositiveRate: 0.6375
Weighted MatthewsCorrelation: 0.623213030287894
Weighted FMeasure: 0.633722818281431
Iteration time: 1244.0
Weighted AreaUnderPRC: 0.6807930585843106
Mean absolute error: 0.03470921214595401
Coverage of cases: 89.7
Instances selection time: 1232.0
Test time: 2039.0
Accumulative iteration time: 56906.0
Weighted Recall: 0.6375
Weighted FalsePositiveRate: 0.014429283610208368
Kappa statistic: 0.6230028890042609
Training time: 12.0
		
Iteration: 44
Labeled set size: 2860
Unlabelled set size: 7140
	
Mean region size: 14.360769230768465
Incorrectly Classified Instances: 36.2
Correctly Classified Instances: 63.8
Weighted Precision: 0.6454835632336748
Weighted AreaUnderROC: 0.9594872711662058
Root mean squared error: 0.13933810994944565
Relative absolute error: 46.948616638211
Root relative squared error: 72.4558171737168
Weighted TruePositiveRate: 0.638
Weighted MatthewsCorrelation: 0.6241130091318415
Weighted FMeasure: 0.6346191453832287
Iteration time: 1229.0
Weighted AreaUnderPRC: 0.6802040182764477
Mean absolute error: 0.0347253081643524
Coverage of cases: 89.79
Instances selection time: 1219.0
Test time: 2029.0
Accumulative iteration time: 58135.0
Weighted Recall: 0.638
Weighted FalsePositiveRate: 0.014406522923631534
Kappa statistic: 0.6235232804675434
Training time: 10.0
		
Iteration: 45
Labeled set size: 2880
Unlabelled set size: 7120
	
Mean region size: 14.360384615383865
Incorrectly Classified Instances: 36.26
Correctly Classified Instances: 63.74
Weighted Precision: 0.6442851170927795
Weighted AreaUnderROC: 0.9595546857377881
Root mean squared error: 0.13942286708104382
Relative absolute error: 46.99799976027643
Root relative squared error: 72.49989088214784
Weighted TruePositiveRate: 0.6374
Weighted MatthewsCorrelation: 0.6232225571966489
Weighted FMeasure: 0.6338058177710582
Iteration time: 1227.0
Weighted AreaUnderPRC: 0.6799785245169996
Mean absolute error: 0.03476183414221144
Coverage of cases: 89.67
Instances selection time: 1216.0
Test time: 2029.0
Accumulative iteration time: 59362.0
Weighted Recall: 0.6374
Weighted FalsePositiveRate: 0.014435563982762719
Kappa statistic: 0.6228972622382838
Training time: 11.0
		
Iteration: 46
Labeled set size: 2900
Unlabelled set size: 7100
	
Mean region size: 14.3788461538454
Incorrectly Classified Instances: 36.09
Correctly Classified Instances: 63.91
Weighted Precision: 0.6457941510103027
Weighted AreaUnderROC: 0.9597010288452051
Root mean squared error: 0.13914208461665256
Relative absolute error: 46.887475037810546
Root relative squared error: 72.35388400066438
Weighted TruePositiveRate: 0.6391
Weighted MatthewsCorrelation: 0.6249361372715236
Weighted FMeasure: 0.6354966390053577
Iteration time: 1223.0
Weighted AreaUnderPRC: 0.6815163597242506
Mean absolute error: 0.03468008508713314
Coverage of cases: 89.68
Instances selection time: 1212.0
Test time: 2021.0
Accumulative iteration time: 60585.0
Weighted Recall: 0.6391
Weighted FalsePositiveRate: 0.014369001060830954
Kappa statistic: 0.6246634958480076
Training time: 11.0
		
Time end:Tue Oct 31 14.33.07 EET 2017