Tue Oct 31 22.23.41 EET 2017
Dataset: letter
Test set size: 10000
Initial Labelled set size: 2000
Initial Unlabelled set size: 8000
Batch mode: QBestBatchMode
Batch size: 20
Classifiers: J48-1cores
Scenario: PoolBasedSamplingScenario
Query strategy: LeastConfidentSamplingQueryStrategy-1cores
Time begining: Tue Oct 31 22.23.41 EET 2017
		
Iteration: 1
Labeled set size: 2000
Unlabelled set size: 8000
	
Mean region size: 5.563846153846876
Incorrectly Classified Instances: 26.79
Correctly Classified Instances: 73.21
Weighted Precision: 0.739148645577106
Weighted AreaUnderROC: 0.881797153514379
Root mean squared error: 0.13361854939219728
Relative absolute error: 30.268370038413
Root relative squared error: 69.48164568394743
Weighted TruePositiveRate: 0.7321
Weighted MatthewsCorrelation: 0.7239589340523107
Weighted FMeasure: 0.7335335426994332
Iteration time: 194.0
Weighted AreaUnderPRC: 0.6309849826225552
Mean absolute error: 0.022387847661544957
Coverage of cases: 77.35
Instances selection time: 45.0
Test time: 172.0
Accumulative iteration time: 194.0
Weighted Recall: 0.7321
Weighted FalsePositiveRate: 0.010736365960861917
Kappa statistic: 0.7213665056059675
Training time: 149.0
		
Iteration: 2
Labeled set size: 2020
Unlabelled set size: 7980
	
Mean region size: 5.600769230769959
Incorrectly Classified Instances: 26.83
Correctly Classified Instances: 73.17
Weighted Precision: 0.7385893786933778
Weighted AreaUnderROC: 0.8826307706666768
Root mean squared error: 0.13345959748945832
Relative absolute error: 30.334930979494796
Root relative squared error: 69.39899069452318
Weighted TruePositiveRate: 0.7317
Weighted MatthewsCorrelation: 0.7234286796024517
Weighted FMeasure: 0.7329752273380089
Iteration time: 196.0
Weighted AreaUnderPRC: 0.634114121115373
Mean absolute error: 0.022437079126842136
Coverage of cases: 77.5
Instances selection time: 44.0
Test time: 174.0
Accumulative iteration time: 390.0
Weighted Recall: 0.7317
Weighted FalsePositiveRate: 0.010751610358814145
Kappa statistic: 0.7209492605150203
Training time: 152.0
		
Iteration: 3
Labeled set size: 2040
Unlabelled set size: 7960
	
Mean region size: 5.522307692308421
Incorrectly Classified Instances: 26.94
Correctly Classified Instances: 73.06
Weighted Precision: 0.7374839616450066
Weighted AreaUnderROC: 0.8813955761782394
Root mean squared error: 0.13420952013210252
Relative absolute error: 30.392289539713666
Root relative squared error: 69.78895046869819
Weighted TruePositiveRate: 0.7306
Weighted MatthewsCorrelation: 0.7223467410215769
Weighted FMeasure: 0.7320082935058208
Iteration time: 201.0
Weighted AreaUnderPRC: 0.6288804254074354
Mean absolute error: 0.022479504097418217
Coverage of cases: 77.13
Instances selection time: 43.0
Test time: 172.0
Accumulative iteration time: 591.0
Weighted Recall: 0.7306
Weighted FalsePositiveRate: 0.010790590825357724
Kappa statistic: 0.7198058947535402
Training time: 158.0
		
Iteration: 4
Labeled set size: 2060
Unlabelled set size: 7940
	
Mean region size: 5.448846153846866
Incorrectly Classified Instances: 26.66
Correctly Classified Instances: 73.34
Weighted Precision: 0.7395741767774439
Weighted AreaUnderROC: 0.880223875213446
Root mean squared error: 0.1342987310700134
Relative absolute error: 30.33396541345238
Root relative squared error: 69.83534015641183
Weighted TruePositiveRate: 0.7334
Weighted MatthewsCorrelation: 0.7248788710736691
Weighted FMeasure: 0.7344007921082693
Iteration time: 200.0
Weighted AreaUnderPRC: 0.6257306598802974
Mean absolute error: 0.02243636495077526
Coverage of cases: 77.0
Instances selection time: 44.0
Test time: 174.0
Accumulative iteration time: 791.0
Weighted Recall: 0.7334
Weighted FalsePositiveRate: 0.010672086011632831
Kappa statistic: 0.7227210937078209
Training time: 156.0
		
Iteration: 5
Labeled set size: 2080
Unlabelled set size: 7920
	
Mean region size: 5.427692307693019
Incorrectly Classified Instances: 26.57
Correctly Classified Instances: 73.43
Weighted Precision: 0.7403133575936665
Weighted AreaUnderROC: 0.8807265876637208
Root mean squared error: 0.13384254907145401
Relative absolute error: 30.184783191230057
Root relative squared error: 69.59812551716094
Weighted TruePositiveRate: 0.7343
Weighted MatthewsCorrelation: 0.7257017768103999
Weighted FMeasure: 0.7351331396622608
Iteration time: 204.0
Weighted AreaUnderPRC: 0.6290529482143938
Mean absolute error: 0.022326023070433323
Coverage of cases: 77.09
Instances selection time: 44.0
Test time: 173.0
Accumulative iteration time: 995.0
Weighted Recall: 0.7343
Weighted FalsePositiveRate: 0.010629267054517888
Kappa statistic: 0.72365744581143
Training time: 160.0
		
Iteration: 6
Labeled set size: 2100
Unlabelled set size: 7900
	
Mean region size: 5.457307692308305
Incorrectly Classified Instances: 25.59
Correctly Classified Instances: 74.41
Weighted Precision: 0.750548272777671
Weighted AreaUnderROC: 0.8875172573647666
Root mean squared error: 0.13130404613282304
Relative absolute error: 29.09258473588775
Root relative squared error: 68.27810398907275
Weighted TruePositiveRate: 0.7441
Weighted MatthewsCorrelation: 0.7361962753186723
Weighted FMeasure: 0.7453431467302555
Iteration time: 196.0
Weighted AreaUnderPRC: 0.641826274362949
Mean absolute error: 0.021518183976245338
Coverage of cases: 78.37
Instances selection time: 42.0
Test time: 175.0
Accumulative iteration time: 1191.0
Weighted Recall: 0.7441
Weighted FalsePositiveRate: 0.010232184256188223
Kappa statistic: 0.7338527230204976
Training time: 154.0
		
Iteration: 7
Labeled set size: 2120
Unlabelled set size: 7880
	
Mean region size: 5.449230769231484
Incorrectly Classified Instances: 26.69
Correctly Classified Instances: 73.31
Weighted Precision: 0.7383861396558877
Weighted AreaUnderROC: 0.8830514204050929
Root mean squared error: 0.1337092636813606
Relative absolute error: 30.212121532243824
Root relative squared error: 69.52881711431237
Weighted TruePositiveRate: 0.7331
Weighted MatthewsCorrelation: 0.7243518826671701
Weighted FMeasure: 0.7341498120997938
Iteration time: 213.0
Weighted AreaUnderPRC: 0.6314514056752945
Mean absolute error: 0.02234624373686362
Coverage of cases: 77.55
Instances selection time: 44.0
Test time: 176.0
Accumulative iteration time: 1404.0
Weighted Recall: 0.7331
Weighted FalsePositiveRate: 0.010679176955545279
Kappa statistic: 0.7224089296918293
Training time: 169.0
		
Iteration: 8
Labeled set size: 2140
Unlabelled set size: 7860
	
Mean region size: 5.426153846154517
Incorrectly Classified Instances: 26.18
Correctly Classified Instances: 73.82
Weighted Precision: 0.743673845362864
Weighted AreaUnderROC: 0.8872172191895573
Root mean squared error: 0.13247132133697959
Relative absolute error: 29.73519223459357
Root relative squared error: 68.88508709523418
Weighted TruePositiveRate: 0.7382
Weighted MatthewsCorrelation: 0.7296532986227439
Weighted FMeasure: 0.739137762631371
Iteration time: 212.0
Weighted AreaUnderPRC: 0.638916411564025
Mean absolute error: 0.02199348538061348
Coverage of cases: 78.39
Instances selection time: 44.0
Test time: 174.0
Accumulative iteration time: 1616.0
Weighted Recall: 0.7382
Weighted FalsePositiveRate: 0.010478644640000251
Kappa statistic: 0.7277127588850509
Training time: 168.0
		
Iteration: 9
Labeled set size: 2160
Unlabelled set size: 7840
	
Mean region size: 5.658846153846798
Incorrectly Classified Instances: 26.19
Correctly Classified Instances: 73.81
Weighted Precision: 0.7421215393597372
Weighted AreaUnderROC: 0.8883111778108943
Root mean squared error: 0.13233029561185988
Relative absolute error: 29.96615400499045
Root relative squared error: 68.81175371817194
Weighted TruePositiveRate: 0.7381
Weighted MatthewsCorrelation: 0.7289251340080574
Weighted FMeasure: 0.7385381741752453
Iteration time: 214.0
Weighted AreaUnderPRC: 0.6430821813316142
Mean absolute error: 0.022164315092445472
Coverage of cases: 78.52
Instances selection time: 43.0
Test time: 176.0
Accumulative iteration time: 1830.0
Weighted Recall: 0.7381
Weighted FalsePositiveRate: 0.010479781249936272
Kappa statistic: 0.7276096228000668
Training time: 171.0
		
Iteration: 10
Labeled set size: 2180
Unlabelled set size: 7820
	
Mean region size: 5.3653846153853095
Incorrectly Classified Instances: 26.5
Correctly Classified Instances: 73.5
Weighted Precision: 0.7405236275184992
Weighted AreaUnderROC: 0.8842693445300458
Root mean squared error: 0.13421150511834998
Relative absolute error: 30.275290617079786
Root relative squared error: 69.78998266154686
Weighted TruePositiveRate: 0.735
Weighted MatthewsCorrelation: 0.726258712816868
Weighted FMeasure: 0.7357754667576325
Iteration time: 219.0
Weighted AreaUnderPRC: 0.6273607334874675
Mean absolute error: 0.0223929664327482
Coverage of cases: 77.66
Instances selection time: 46.0
Test time: 174.0
Accumulative iteration time: 2049.0
Weighted Recall: 0.735
Weighted FalsePositiveRate: 0.010621585452629869
Kappa statistic: 0.7243800175512725
Training time: 173.0
		
Iteration: 11
Labeled set size: 2200
Unlabelled set size: 7800
	
Mean region size: 6.065000000000724
Incorrectly Classified Instances: 25.63
Correctly Classified Instances: 74.37
Weighted Precision: 0.7517497485965593
Weighted AreaUnderROC: 0.8958839651618824
Root mean squared error: 0.13109633729902048
Relative absolute error: 29.58174966732051
Root relative squared error: 68.17009539549541
Weighted TruePositiveRate: 0.7437
Weighted MatthewsCorrelation: 0.7359261117482749
Weighted FMeasure: 0.7443440159623398
Iteration time: 223.0
Weighted AreaUnderPRC: 0.6508145349258979
Mean absolute error: 0.021879992357482534
Coverage of cases: 80.07
Instances selection time: 44.0
Test time: 176.0
Accumulative iteration time: 2272.0
Weighted Recall: 0.7437
Weighted FalsePositiveRate: 0.010269199313832298
Kappa statistic: 0.7334353552395112
Training time: 179.0
		
Iteration: 12
Labeled set size: 2220
Unlabelled set size: 7780
	
Mean region size: 5.817692307692981
Incorrectly Classified Instances: 26.82
Correctly Classified Instances: 73.18
Weighted Precision: 0.7403038981994583
Weighted AreaUnderROC: 0.8901331986524005
Root mean squared error: 0.133932192557576
Relative absolute error: 30.566026708411886
Root relative squared error: 69.64474012994437
Weighted TruePositiveRate: 0.7318
Weighted MatthewsCorrelation: 0.7239177436649555
Weighted FMeasure: 0.7329534184409555
Iteration time: 225.0
Weighted AreaUnderPRC: 0.6360367954394981
Mean absolute error: 0.02260800792041984
Coverage of cases: 78.77
Instances selection time: 44.0
Test time: 176.0
Accumulative iteration time: 2497.0
Weighted Recall: 0.7318
Weighted FalsePositiveRate: 0.010737976032924399
Kappa statistic: 0.721055843777627
Training time: 181.0
		
Iteration: 13
Labeled set size: 2240
Unlabelled set size: 7760
	
Mean region size: 5.790000000000674
Incorrectly Classified Instances: 26.26
Correctly Classified Instances: 73.74
Weighted Precision: 0.7447748401515499
Weighted AreaUnderROC: 0.8914193572836805
Root mean squared error: 0.13258053268025186
Relative absolute error: 29.95123304917122
Root relative squared error: 68.94187699373578
Weighted TruePositiveRate: 0.7374
Weighted MatthewsCorrelation: 0.7293243442730891
Weighted FMeasure: 0.738312508372722
Iteration time: 228.0
Weighted AreaUnderPRC: 0.6428018459379286
Mean absolute error: 0.022153278882520003
Coverage of cases: 79.17
Instances selection time: 45.0
Test time: 175.0
Accumulative iteration time: 2725.0
Weighted Recall: 0.7374
Weighted FalsePositiveRate: 0.010520797072056179
Kappa statistic: 0.7268779057705061
Training time: 183.0
		
Iteration: 14
Labeled set size: 2260
Unlabelled set size: 7740
	
Mean region size: 5.791538461539124
Incorrectly Classified Instances: 25.79
Correctly Classified Instances: 74.21
Weighted Precision: 0.7485507351963108
Weighted AreaUnderROC: 0.8932843755493685
Root mean squared error: 0.13179691150678083
Relative absolute error: 29.73565132244058
Root relative squared error: 68.53439398353082
Weighted TruePositiveRate: 0.7421
Weighted MatthewsCorrelation: 0.7338166063482366
Weighted FMeasure: 0.7426905904160203
Iteration time: 228.0
Weighted AreaUnderPRC: 0.6451117433651631
Mean absolute error: 0.0219938249426305
Coverage of cases: 79.42
Instances selection time: 43.0
Test time: 176.0
Accumulative iteration time: 2953.0
Weighted Recall: 0.7421
Weighted FalsePositiveRate: 0.010327911521508592
Kappa statistic: 0.7317674906109262
Training time: 185.0
		
Iteration: 15
Labeled set size: 2280
Unlabelled set size: 7720
	
Mean region size: 5.637692307692956
Incorrectly Classified Instances: 25.46
Correctly Classified Instances: 74.54
Weighted Precision: 0.7523634256204468
Weighted AreaUnderROC: 0.8953229342102069
Root mean squared error: 0.13089839443622459
Relative absolute error: 29.35717170033969
Root relative squared error: 68.06716510684154
Weighted TruePositiveRate: 0.7454
Weighted MatthewsCorrelation: 0.7374083502602059
Weighted FMeasure: 0.7460444106816644
Iteration time: 231.0
Weighted AreaUnderPRC: 0.6514228448215039
Mean absolute error: 0.02171388439373935
Coverage of cases: 79.74
Instances selection time: 43.0
Test time: 174.0
Accumulative iteration time: 3184.0
Weighted Recall: 0.7454
Weighted FalsePositiveRate: 0.010199993771930206
Kappa statistic: 0.7351990050721455
Training time: 188.0
		
Iteration: 16
Labeled set size: 2300
Unlabelled set size: 7700
	
Mean region size: 5.5784615384622604
Incorrectly Classified Instances: 26.11
Correctly Classified Instances: 73.89
Weighted Precision: 0.7465365695963545
Weighted AreaUnderROC: 0.8909268333574715
Root mean squared error: 0.1328979819412018
Relative absolute error: 30.101022041365876
Root relative squared error: 69.10695060942976
Weighted TruePositiveRate: 0.7389
Weighted MatthewsCorrelation: 0.730952412647213
Weighted FMeasure: 0.7397999003378294
Iteration time: 235.0
Weighted AreaUnderPRC: 0.6360760252007611
Mean absolute error: 0.02226406955722018
Coverage of cases: 79.0
Instances selection time: 43.0
Test time: 176.0
Accumulative iteration time: 3419.0
Weighted Recall: 0.7389
Weighted FalsePositiveRate: 0.010470986263434838
Kappa statistic: 0.7284321596024271
Training time: 192.0
		
Iteration: 17
Labeled set size: 2320
Unlabelled set size: 7680
	
Mean region size: 5.542692307693028
Incorrectly Classified Instances: 26.0
Correctly Classified Instances: 74.0
Weighted Precision: 0.7454769473886412
Weighted AreaUnderROC: 0.890449397459984
Root mean squared error: 0.13262837705184646
Relative absolute error: 29.840724274079744
Root relative squared error: 68.96675606696498
Weighted TruePositiveRate: 0.74
Weighted MatthewsCorrelation: 0.7312661467889667
Weighted FMeasure: 0.7403736508070908
Iteration time: 235.0
Weighted AreaUnderPRC: 0.6385568044412852
Mean absolute error: 0.022071541622836973
Coverage of cases: 78.84
Instances selection time: 43.0
Test time: 176.0
Accumulative iteration time: 3654.0
Weighted Recall: 0.74
Weighted FalsePositiveRate: 0.010420963963738093
Kappa statistic: 0.7295790445393194
Training time: 192.0
		
Iteration: 18
Labeled set size: 2340
Unlabelled set size: 7660
	
Mean region size: 5.537692307693022
Incorrectly Classified Instances: 26.22
Correctly Classified Instances: 73.78
Weighted Precision: 0.7438383312404209
Weighted AreaUnderROC: 0.8881553107945453
Root mean squared error: 0.1332420237931008
Relative absolute error: 30.1668224960509
Root relative squared error: 69.28585237241725
Weighted TruePositiveRate: 0.7378
Weighted MatthewsCorrelation: 0.7293022779085045
Weighted FMeasure: 0.7385503364954163
Iteration time: 238.0
Weighted AreaUnderPRC: 0.6335169709686588
Mean absolute error: 0.022312738532578917
Coverage of cases: 78.44
Instances selection time: 43.0
Test time: 175.0
Accumulative iteration time: 3892.0
Weighted Recall: 0.7378
Weighted FalsePositiveRate: 0.010505547835718752
Kappa statistic: 0.7272926626499573
Training time: 195.0
		
Iteration: 19
Labeled set size: 2360
Unlabelled set size: 7640
	
Mean region size: 5.477307692308426
Incorrectly Classified Instances: 25.82
Correctly Classified Instances: 74.18
Weighted Precision: 0.7478879632991912
Weighted AreaUnderROC: 0.8907047775842255
Root mean squared error: 0.13243185381454636
Relative absolute error: 29.606972498597447
Root relative squared error: 68.86456398356891
Weighted TruePositiveRate: 0.7418
Weighted MatthewsCorrelation: 0.7335715229708105
Weighted FMeasure: 0.7427565795951218
Iteration time: 243.0
Weighted AreaUnderPRC: 0.636966537604168
Mean absolute error: 0.021898648297776123
Coverage of cases: 78.82
Instances selection time: 42.0
Test time: 176.0
Accumulative iteration time: 4135.0
Weighted Recall: 0.7418
Weighted FalsePositiveRate: 0.010338934802601934
Kappa statistic: 0.731454527357368
Training time: 201.0
		
Iteration: 20
Labeled set size: 2380
Unlabelled set size: 7620
	
Mean region size: 5.433461538462254
Incorrectly Classified Instances: 25.81
Correctly Classified Instances: 74.19
Weighted Precision: 0.747508133936135
Weighted AreaUnderROC: 0.8909483797210945
Root mean squared error: 0.13242446285425571
Relative absolute error: 29.512219613443417
Root relative squared error: 68.86072068421778
Weighted TruePositiveRate: 0.7419
Weighted MatthewsCorrelation: 0.7334749720694097
Weighted FMeasure: 0.742710265874573
Iteration time: 290.0
Weighted AreaUnderPRC: 0.6364800883189626
Mean absolute error: 0.021828564802839723
Coverage of cases: 78.86
Instances selection time: 43.0
Test time: 178.0
Accumulative iteration time: 4425.0
Weighted Recall: 0.7419
Weighted FalsePositiveRate: 0.010334801096264822
Kappa statistic: 0.7315594219689107
Training time: 247.0
		
Iteration: 21
Labeled set size: 2400
Unlabelled set size: 7600
	
Mean region size: 5.451538461539047
Incorrectly Classified Instances: 25.56
Correctly Classified Instances: 74.44
Weighted Precision: 0.752402609958045
Weighted AreaUnderROC: 0.8898369789390216
Root mean squared error: 0.13136708587733967
Relative absolute error: 29.15285800191479
Root relative squared error: 68.31088465622139
Weighted TruePositiveRate: 0.7444
Weighted MatthewsCorrelation: 0.7370631581484548
Weighted FMeasure: 0.7459184546363982
Iteration time: 237.0
Weighted AreaUnderPRC: 0.6460039673397938
Mean absolute error: 0.021562764794312666
Coverage of cases: 79.15
Instances selection time: 42.0
Test time: 174.0
Accumulative iteration time: 4662.0
Weighted Recall: 0.7444
Weighted FalsePositiveRate: 0.010193537364176981
Kappa statistic: 0.7341720351227382
Training time: 195.0
		
Iteration: 22
Labeled set size: 2420
Unlabelled set size: 7580
	
Mean region size: 5.60846153846213
Incorrectly Classified Instances: 25.51
Correctly Classified Instances: 74.49
Weighted Precision: 0.7522755250923812
Weighted AreaUnderROC: 0.8900971145066549
Root mean squared error: 0.131265407362121
Relative absolute error: 29.245098553978522
Root relative squared error: 68.25801182830769
Weighted TruePositiveRate: 0.7449
Weighted MatthewsCorrelation: 0.7373842909314224
Weighted FMeasure: 0.7463409981888364
Iteration time: 243.0
Weighted AreaUnderPRC: 0.6387968928800067
Mean absolute error: 0.021630990054714826
Coverage of cases: 79.08
Instances selection time: 42.0
Test time: 179.0
Accumulative iteration time: 4905.0
Weighted Recall: 0.7449
Weighted FalsePositiveRate: 0.010173732342001396
Kappa statistic: 0.7346897030192874
Training time: 201.0
		
Iteration: 23
Labeled set size: 2440
Unlabelled set size: 7560
	
Mean region size: 5.463461538462118
Incorrectly Classified Instances: 25.14
Correctly Classified Instances: 74.86
Weighted Precision: 0.7549738970085081
Weighted AreaUnderROC: 0.89228799577474
Root mean squared error: 0.12996982622873637
Relative absolute error: 28.88248999875734
Root relative squared error: 67.58430963894763
Weighted TruePositiveRate: 0.7486
Weighted MatthewsCorrelation: 0.7406305427567903
Weighted FMeasure: 0.7493327668063444
Iteration time: 237.0
Weighted AreaUnderPRC: 0.6513753739636703
Mean absolute error: 0.021362788460616358
Coverage of cases: 79.39
Instances selection time: 42.0
Test time: 174.0
Accumulative iteration time: 5142.0
Weighted Recall: 0.7486
Weighted FalsePositiveRate: 0.010021608573626637
Kappa statistic: 0.7385416774134288
Training time: 195.0
		
Iteration: 24
Labeled set size: 2460
Unlabelled set size: 7540
	
Mean region size: 5.38230769230825
Incorrectly Classified Instances: 24.52
Correctly Classified Instances: 75.48
Weighted Precision: 0.760696956464195
Weighted AreaUnderROC: 0.8937040142937365
Root mean squared error: 0.12841432056366203
Relative absolute error: 28.12218641645529
Root relative squared error: 66.77544669310892
Weighted TruePositiveRate: 0.7548
Weighted MatthewsCorrelation: 0.7469237145213715
Weighted FMeasure: 0.7554805607696471
Iteration time: 239.0
Weighted AreaUnderPRC: 0.6561934350385515
Mean absolute error: 0.02080043373997882
Coverage of cases: 79.68
Instances selection time: 41.0
Test time: 173.0
Accumulative iteration time: 5381.0
Weighted Recall: 0.7548
Weighted FalsePositiveRate: 0.009790999973364311
Kappa statistic: 0.7449842579260832
Training time: 198.0
		
Iteration: 25
Labeled set size: 2480
Unlabelled set size: 7520
	
Mean region size: 5.335769230769768
Incorrectly Classified Instances: 24.72
Correctly Classified Instances: 75.28
Weighted Precision: 0.759564537200915
Weighted AreaUnderROC: 0.8920137637777209
Root mean squared error: 0.12916492844259184
Relative absolute error: 28.047413991060825
Root relative squared error: 67.16576279015244
Weighted TruePositiveRate: 0.7528
Weighted MatthewsCorrelation: 0.7454429094923076
Weighted FMeasure: 0.7542754231898287
Iteration time: 242.0
Weighted AreaUnderPRC: 0.6542833184058376
Mean absolute error: 0.020745128691610146
Coverage of cases: 79.38
Instances selection time: 41.0
Test time: 174.0
Accumulative iteration time: 5623.0
Weighted Recall: 0.7528
Weighted FalsePositiveRate: 0.009862597905570732
Kappa statistic: 0.7429072376136696
Training time: 201.0
		
Iteration: 26
Labeled set size: 2500
Unlabelled set size: 7500
	
Mean region size: 5.238461538462098
Incorrectly Classified Instances: 24.08
Correctly Classified Instances: 75.92
Weighted Precision: 0.765651011899615
Weighted AreaUnderROC: 0.8952571020827891
Root mean squared error: 0.12782766518886574
Relative absolute error: 27.413452759997558
Root relative squared error: 66.47038589821481
Weighted TruePositiveRate: 0.7592
Weighted MatthewsCorrelation: 0.7519195590452052
Weighted FMeasure: 0.7604625583012722
Iteration time: 244.0
Weighted AreaUnderPRC: 0.6583047893934687
Mean absolute error: 0.02027622245561667
Coverage of cases: 79.96
Instances selection time: 40.0
Test time: 174.0
Accumulative iteration time: 5867.0
Weighted Recall: 0.7592
Weighted FalsePositiveRate: 0.009596621188904647
Kappa statistic: 0.7495666843235328
Training time: 204.0
		
Iteration: 27
Labeled set size: 2520
Unlabelled set size: 7480
	
Mean region size: 5.306153846154417
Incorrectly Classified Instances: 25.24
Correctly Classified Instances: 74.76
Weighted Precision: 0.7559367559667358
Weighted AreaUnderROC: 0.8935933370580836
Root mean squared error: 0.13015530897279334
Relative absolute error: 28.588056980586398
Root relative squared error: 67.68076066585726
Weighted TruePositiveRate: 0.7476
Weighted MatthewsCorrelation: 0.7404630677427171
Weighted FMeasure: 0.7490609689201922
Iteration time: 247.0
Weighted AreaUnderPRC: 0.6517034398376899
Mean absolute error: 0.021145012559602376
Coverage of cases: 79.49
Instances selection time: 40.0
Test time: 174.0
Accumulative iteration time: 6114.0
Weighted Recall: 0.7476
Weighted FalsePositiveRate: 0.01005035606965935
Kappa statistic: 0.7375059651353426
Training time: 207.0
		
Iteration: 28
Labeled set size: 2540
Unlabelled set size: 7460
	
Mean region size: 5.318461538462111
Incorrectly Classified Instances: 25.1
Correctly Classified Instances: 74.9
Weighted Precision: 0.757637097752979
Weighted AreaUnderROC: 0.891596773562393
Root mean squared error: 0.13069865065333508
Relative absolute error: 28.61350787441321
Root relative squared error: 67.96329833973898
Weighted TruePositiveRate: 0.749
Weighted MatthewsCorrelation: 0.742036053659348
Weighted FMeasure: 0.7505383063015164
Iteration time: 251.0
Weighted AreaUnderPRC: 0.6439335139498333
Mean absolute error: 0.021163837185213922
Coverage of cases: 79.27
Instances selection time: 40.0
Test time: 174.0
Accumulative iteration time: 6365.0
Weighted Recall: 0.749
Weighted FalsePositiveRate: 0.010001211145830859
Kappa statistic: 0.7389599751489896
Training time: 211.0
		
Iteration: 29
Labeled set size: 2560
Unlabelled set size: 7440
	
Mean region size: 5.327692307692887
Incorrectly Classified Instances: 24.67
Correctly Classified Instances: 75.33
Weighted Precision: 0.7605368966315045
Weighted AreaUnderROC: 0.8920682954968446
Root mean squared error: 0.12923419352234491
Relative absolute error: 28.007142286928595
Root relative squared error: 67.20178063162405
Weighted TruePositiveRate: 0.7533
Weighted MatthewsCorrelation: 0.745949378973879
Weighted FMeasure: 0.7544544673674813
Iteration time: 250.0
Weighted AreaUnderPRC: 0.6482047527139393
Mean absolute error: 0.02071534192819874
Coverage of cases: 79.34
Instances selection time: 40.0
Test time: 174.0
Accumulative iteration time: 6615.0
Weighted Recall: 0.7533
Weighted FalsePositiveRate: 0.009824956160201468
Kappa statistic: 0.7434334751548912
Training time: 210.0
		
Iteration: 30
Labeled set size: 2580
Unlabelled set size: 7420
	
Mean region size: 5.2061538461544075
Incorrectly Classified Instances: 24.92
Correctly Classified Instances: 75.08
Weighted Precision: 0.7580024998639074
Weighted AreaUnderROC: 0.8904401294935005
Root mean squared error: 0.1301719442227487
Relative absolute error: 28.1856714073683
Root relative squared error: 67.68941099583404
Weighted TruePositiveRate: 0.7508
Weighted MatthewsCorrelation: 0.7433109075596775
Weighted FMeasure: 0.7518798339375329
Iteration time: 256.0
Weighted AreaUnderPRC: 0.6439417282285709
Mean absolute error: 0.020847390094204415
Coverage of cases: 78.94
Instances selection time: 40.0
Test time: 174.0
Accumulative iteration time: 6871.0
Weighted Recall: 0.7508
Weighted FalsePositiveRate: 0.00992442380946774
Kappa statistic: 0.7408336302601323
Training time: 216.0
		
Iteration: 31
Labeled set size: 2600
Unlabelled set size: 7400
	
Mean region size: 5.356538461539049
Incorrectly Classified Instances: 24.47
Correctly Classified Instances: 75.53
Weighted Precision: 0.7627282262219157
Weighted AreaUnderROC: 0.8939894892846941
Root mean squared error: 0.12910642148467197
Relative absolute error: 27.89786315643817
Root relative squared error: 67.13533917203411
Weighted TruePositiveRate: 0.7553
Weighted MatthewsCorrelation: 0.7481274882575187
Weighted FMeasure: 0.7565426708230317
Iteration time: 261.0
Weighted AreaUnderPRC: 0.649293428500008
Mean absolute error: 0.020634514168960266
Coverage of cases: 79.58
Instances selection time: 41.0
Test time: 174.0
Accumulative iteration time: 7132.0
Weighted Recall: 0.7553
Weighted FalsePositiveRate: 0.009743158087589406
Kappa statistic: 0.7455135981746034
Training time: 220.0
		
Iteration: 32
Labeled set size: 2620
Unlabelled set size: 7380
	
Mean region size: 5.340000000000583
Incorrectly Classified Instances: 24.65
Correctly Classified Instances: 75.35
Weighted Precision: 0.7613434875610787
Weighted AreaUnderROC: 0.8935947566761161
Root mean squared error: 0.12954390600040047
Relative absolute error: 28.128385234360074
Root relative squared error: 67.36283112021295
Weighted TruePositiveRate: 0.7535
Weighted MatthewsCorrelation: 0.7463196076045655
Weighted FMeasure: 0.7546428566748544
Iteration time: 259.0
Weighted AreaUnderPRC: 0.6508144499872289
Mean absolute error: 0.020805018664464613
Coverage of cases: 79.48
Instances selection time: 39.0
Test time: 174.0
Accumulative iteration time: 7391.0
Weighted Recall: 0.7535
Weighted FalsePositiveRate: 0.009816305351172686
Kappa statistic: 0.7436424710814927
Training time: 220.0
		
Iteration: 33
Labeled set size: 2640
Unlabelled set size: 7360
	
Mean region size: 5.234615384615948
Incorrectly Classified Instances: 25.08
Correctly Classified Instances: 74.92
Weighted Precision: 0.75767700694851
Weighted AreaUnderROC: 0.8908252526592146
Root mean squared error: 0.13082904673762563
Relative absolute error: 28.59007599994072
Root relative squared error: 68.03110430357007
Weighted TruePositiveRate: 0.7492
Weighted MatthewsCorrelation: 0.7421989949123692
Weighted FMeasure: 0.7507347761836884
Iteration time: 266.0
Weighted AreaUnderPRC: 0.6435988930556702
Mean absolute error: 0.02114650591711297
Coverage of cases: 78.97
Instances selection time: 41.0
Test time: 175.0
Accumulative iteration time: 7657.0
Weighted Recall: 0.7492
Weighted FalsePositiveRate: 0.009988238388145304
Kappa statistic: 0.7391708749629478
Training time: 225.0
		
Iteration: 34
Labeled set size: 2660
Unlabelled set size: 7340
	
Mean region size: 5.426153846154434
Incorrectly Classified Instances: 24.72
Correctly Classified Instances: 75.28
Weighted Precision: 0.7615469007798746
Weighted AreaUnderROC: 0.8941458139500733
Root mean squared error: 0.12966519566286233
Relative absolute error: 28.396778081425065
Root relative squared error: 67.42590174469312
Weighted TruePositiveRate: 0.7528
Weighted MatthewsCorrelation: 0.7460343902096087
Weighted FMeasure: 0.7543700561701413
Iteration time: 264.0
Weighted AreaUnderPRC: 0.650203668392112
Mean absolute error: 0.02100353408389135
Coverage of cases: 79.66
Instances selection time: 38.0
Test time: 174.0
Accumulative iteration time: 7921.0
Weighted Recall: 0.7528
Weighted FalsePositiveRate: 0.009853773853971917
Kappa statistic: 0.7429099274426711
Training time: 226.0
		
Iteration: 35
Labeled set size: 2680
Unlabelled set size: 7320
	
Mean region size: 5.353461538462127
Incorrectly Classified Instances: 25.02
Correctly Classified Instances: 74.98
Weighted Precision: 0.7584158260428571
Weighted AreaUnderROC: 0.8927971114980977
Root mean squared error: 0.1307380922732757
Relative absolute error: 28.624304676882566
Root relative squared error: 67.98380798210812
Weighted TruePositiveRate: 0.7498
Weighted MatthewsCorrelation: 0.7427219061890168
Weighted FMeasure: 0.7510273286486943
Iteration time: 271.0
Weighted AreaUnderPRC: 0.6420544179916835
Mean absolute error: 0.021171822985856934
Coverage of cases: 79.44
Instances selection time: 39.0
Test time: 175.0
Accumulative iteration time: 8192.0
Weighted Recall: 0.7498
Weighted FalsePositiveRate: 0.009974597119223648
Kappa statistic: 0.7397905003606117
Training time: 232.0
		
Iteration: 36
Labeled set size: 2700
Unlabelled set size: 7300
	
Mean region size: 5.6842307692312914
Incorrectly Classified Instances: 23.95
Correctly Classified Instances: 76.05
Weighted Precision: 0.7674395524944077
Weighted AreaUnderROC: 0.897850300114678
Root mean squared error: 0.12745198663201027
Relative absolute error: 27.698150461800385
Root relative squared error: 66.27503304864996
Weighted TruePositiveRate: 0.7605
Weighted MatthewsCorrelation: 0.7533533062539777
Weighted FMeasure: 0.7616599970967747
Iteration time: 269.0
Weighted AreaUnderPRC: 0.6606694817924981
Mean absolute error: 0.020486797678843583
Coverage of cases: 80.58
Instances selection time: 40.0
Test time: 172.0
Accumulative iteration time: 8461.0
Weighted Recall: 0.7605
Weighted FalsePositiveRate: 0.00955704476318605
Kappa statistic: 0.750916391077407
Training time: 229.0
		
Iteration: 37
Labeled set size: 2720
Unlabelled set size: 7280
	
Mean region size: 5.7015384615389975
Incorrectly Classified Instances: 24.79
Correctly Classified Instances: 75.21
Weighted Precision: 0.7602783645013513
Weighted AreaUnderROC: 0.8937246702788192
Root mean squared error: 0.12910283966528863
Relative absolute error: 28.468174958197782
Root relative squared error: 67.13347662595477
Weighted TruePositiveRate: 0.7521
Weighted MatthewsCorrelation: 0.7450396289181423
Weighted FMeasure: 0.7534305813757377
Iteration time: 277.0
Weighted AreaUnderPRC: 0.6542320106045715
Mean absolute error: 0.02105634242469957
Coverage of cases: 79.8
Instances selection time: 40.0
Test time: 175.0
Accumulative iteration time: 8738.0
Weighted Recall: 0.7521
Weighted FalsePositiveRate: 0.009875266526762915
Kappa statistic: 0.7421851632605434
Training time: 237.0
		
Iteration: 38
Labeled set size: 2740
Unlabelled set size: 7260
	
Mean region size: 5.432307692308183
Incorrectly Classified Instances: 24.02
Correctly Classified Instances: 75.98
Weighted Precision: 0.7667891561001253
Weighted AreaUnderROC: 0.8951285949311568
Root mean squared error: 0.1278673110263889
Relative absolute error: 27.621258104346385
Root relative squared error: 66.49100173372688
Weighted TruePositiveRate: 0.7598
Weighted MatthewsCorrelation: 0.7524709384205578
Weighted FMeasure: 0.7605774645166341
Iteration time: 279.0
Weighted AreaUnderPRC: 0.6553299209805581
Mean absolute error: 0.02042992463338945
Coverage of cases: 79.83
Instances selection time: 39.0
Test time: 174.0
Accumulative iteration time: 9017.0
Weighted Recall: 0.7598
Weighted FalsePositiveRate: 0.00958235598084014
Kappa statistic: 0.7501874530119448
Training time: 240.0
		
Iteration: 39
Labeled set size: 2760
Unlabelled set size: 7240
	
Mean region size: 5.631923076923611
Incorrectly Classified Instances: 23.7
Correctly Classified Instances: 76.3
Weighted Precision: 0.7729865698962555
Weighted AreaUnderROC: 0.896385278315435
Root mean squared error: 0.12693457047505152
Relative absolute error: 27.429474251376323
Root relative squared error: 66.0059766470314
Weighted TruePositiveRate: 0.763
Weighted MatthewsCorrelation: 0.7570970076574022
Weighted FMeasure: 0.7648486663815075
Iteration time: 279.0
Weighted AreaUnderPRC: 0.6616926166776725
Mean absolute error: 0.020288072671133504
Coverage of cases: 80.29
Instances selection time: 38.0
Test time: 175.0
Accumulative iteration time: 9296.0
Weighted Recall: 0.763
Weighted FalsePositiveRate: 0.009463318749169971
Kappa statistic: 0.7535146881429353
Training time: 241.0
		
Iteration: 40
Labeled set size: 2780
Unlabelled set size: 7220
	
Mean region size: 5.614230769231297
Incorrectly Classified Instances: 24.34
Correctly Classified Instances: 75.66
Weighted Precision: 0.7666197237495208
Weighted AreaUnderROC: 0.8974938962861081
Root mean squared error: 0.12797848448839635
Relative absolute error: 27.968861092894294
Root relative squared error: 66.54881193397075
Weighted TruePositiveRate: 0.7566
Weighted MatthewsCorrelation: 0.7503076113074043
Weighted FMeasure: 0.7581095851236912
Iteration time: 293.0
Weighted AreaUnderPRC: 0.6634704286745531
Mean absolute error: 0.020687027435569817
Coverage of cases: 80.53
Instances selection time: 40.0
Test time: 178.0
Accumulative iteration time: 9589.0
Weighted Recall: 0.7566
Weighted FalsePositiveRate: 0.009696086532995911
Kappa statistic: 0.7468631940124097
Training time: 253.0
		
Iteration: 41
Labeled set size: 2800
Unlabelled set size: 7200
	
Mean region size: 5.660000000000523
Incorrectly Classified Instances: 23.99
Correctly Classified Instances: 76.01
Weighted Precision: 0.7693752754407095
Weighted AreaUnderROC: 0.8978589972880402
Root mean squared error: 0.12774753211546658
Relative absolute error: 27.79952906960805
Root relative squared error: 66.42871670004726
Weighted TruePositiveRate: 0.7601
Weighted MatthewsCorrelation: 0.7536833679002404
Weighted FMeasure: 0.7614702827130433
Iteration time: 296.0
Weighted AreaUnderPRC: 0.6598117605912808
Mean absolute error: 0.020561781856216106
Coverage of cases: 80.38
Instances selection time: 40.0
Test time: 175.0
Accumulative iteration time: 9885.0
Weighted Recall: 0.7601
Weighted FalsePositiveRate: 0.00955495511929817
Kappa statistic: 0.7505031666805767
Training time: 256.0
		
Iteration: 42
Labeled set size: 2820
Unlabelled set size: 7180
	
Mean region size: 5.603076923077444
Incorrectly Classified Instances: 24.3
Correctly Classified Instances: 75.7
Weighted Precision: 0.7651486410292124
Weighted AreaUnderROC: 0.8956526397250485
Root mean squared error: 0.1284809203541069
Relative absolute error: 27.94996784520051
Root relative squared error: 66.81007858414026
Weighted TruePositiveRate: 0.757
Weighted MatthewsCorrelation: 0.749972380782998
Weighted FMeasure: 0.7579750214987157
Iteration time: 293.0
Weighted AreaUnderPRC: 0.6540747353395109
Mean absolute error: 0.020673053139938325
Coverage of cases: 80.11
Instances selection time: 39.0
Test time: 176.0
Accumulative iteration time: 10178.0
Weighted Recall: 0.757
Weighted FalsePositiveRate: 0.00967454213493318
Kappa statistic: 0.747280404351353
Training time: 254.0
		
Iteration: 43
Labeled set size: 2840
Unlabelled set size: 7160
	
Mean region size: 5.479615384615932
Incorrectly Classified Instances: 23.94
Correctly Classified Instances: 76.06
Weighted Precision: 0.7721231029918859
Weighted AreaUnderROC: 0.8962896555418501
Root mean squared error: 0.12731638060825023
Relative absolute error: 27.481633822740857
Root relative squared error: 66.20451791629475
Weighted TruePositiveRate: 0.7606
Weighted MatthewsCorrelation: 0.7549260155341376
Weighted FMeasure: 0.7622169801434527
Iteration time: 309.0
Weighted AreaUnderPRC: 0.6630234670072634
Mean absolute error: 0.020326652235752238
Coverage of cases: 80.14
Instances selection time: 39.0
Test time: 177.0
Accumulative iteration time: 10487.0
Weighted Recall: 0.7606
Weighted FalsePositiveRate: 0.009529911870267195
Kappa statistic: 0.7510261461546202
Training time: 270.0
		
Iteration: 44
Labeled set size: 2860
Unlabelled set size: 7140
	
Mean region size: 5.45653846153901
Incorrectly Classified Instances: 24.06
Correctly Classified Instances: 75.94
Weighted Precision: 0.7698411317507322
Weighted AreaUnderROC: 0.8959135828594752
Root mean squared error: 0.12760027932058174
Relative absolute error: 27.521009924248766
Root relative squared error: 66.35214524670714
Weighted TruePositiveRate: 0.7594
Weighted MatthewsCorrelation: 0.7532090062863502
Weighted FMeasure: 0.7606535128848139
Iteration time: 307.0
Weighted AreaUnderPRC: 0.6637238184363492
Mean absolute error: 0.02035577657118708
Coverage of cases: 80.03
Instances selection time: 41.0
Test time: 178.0
Accumulative iteration time: 10794.0
Weighted Recall: 0.7594
Weighted FalsePositiveRate: 0.009591406017963874
Kappa statistic: 0.7497758642784288
Training time: 266.0
		
Iteration: 45
Labeled set size: 2880
Unlabelled set size: 7120
	
Mean region size: 5.415769230769768
Incorrectly Classified Instances: 23.89
Correctly Classified Instances: 76.11
Weighted Precision: 0.7710270718155847
Weighted AreaUnderROC: 0.896203280216142
Root mean squared error: 0.1274519407199789
Relative absolute error: 27.34131193597566
Root relative squared error: 66.27500917439366
Weighted TruePositiveRate: 0.7611
Weighted MatthewsCorrelation: 0.754859967473755
Weighted FMeasure: 0.7624004624523061
Iteration time: 307.0
Weighted AreaUnderPRC: 0.6629596761585205
Mean absolute error: 0.020222863857967344
Coverage of cases: 80.11
Instances selection time: 39.0
Test time: 175.0
Accumulative iteration time: 11101.0
Weighted Recall: 0.7611
Weighted FalsePositiveRate: 0.009520519865783757
Kappa statistic: 0.7515439246681179
Training time: 268.0
		
Iteration: 46
Labeled set size: 2900
Unlabelled set size: 7100
	
Mean region size: 5.596538461539016
Incorrectly Classified Instances: 24.18
Correctly Classified Instances: 75.82
Weighted Precision: 0.7684742023897478
Weighted AreaUnderROC: 0.8955401928033969
Root mean squared error: 0.12781605669867746
Relative absolute error: 27.877739698361044
Root relative squared error: 66.46434948331692
Weighted TruePositiveRate: 0.7582
Weighted MatthewsCorrelation: 0.7519071266402434
Weighted FMeasure: 0.7594249641151962
Iteration time: 306.0
Weighted AreaUnderPRC: 0.6593421659748323
Mean absolute error: 0.020619629954406183
Coverage of cases: 80.04
Instances selection time: 39.0
Test time: 176.0
Accumulative iteration time: 11407.0
Weighted Recall: 0.7582
Weighted FalsePositiveRate: 0.009630553718199202
Kappa statistic: 0.7485292444784749
Training time: 267.0
		
Time end:Tue Oct 31 22.24.19 EET 2017