Wed Nov 01 02.49.02 EET 2017
Dataset: letter
Test set size: 10000
Initial Labelled set size: 2000
Initial Unlabelled set size: 8000
Batch mode: QBestBatchMode
Batch size: 20
Classifiers: RandomForest-1cores
Scenario: PoolBasedSamplingScenario
Query strategy: RandomSelectionQueryStrategy-1cores
Time begining: Wed Nov 01 02.49.02 EET 2017
		
Iteration: 1
Labeled set size: 2000
Unlabelled set size: 8000
	
Mean region size: 13.369999999999582
Incorrectly Classified Instances: 20.36
Correctly Classified Instances: 79.64
Weighted Precision: 0.8031602250441346
Weighted AreaUnderROC: 0.9638189378729352
Root mean squared error: 0.10975462142013646
Relative absolute error: 37.6781600000083
Root relative squared error: 57.07240313847494
Weighted TruePositiveRate: 0.7964
Weighted MatthewsCorrelation: 0.7906042673081994
Weighted FMeasure: 0.7974899588758998
Iteration time: 378.0
Weighted AreaUnderPRC: 0.8381224070696311
Mean absolute error: 0.027868461538463788
Coverage of cases: 94.64
Instances selection time: 101.0
Test time: 216.0
Accumulative iteration time: 378.0
Weighted Recall: 0.7964
Weighted FalsePositiveRate: 0.008141106677754598
Kappa statistic: 0.7882465696880331
Training time: 277.0
		
Iteration: 2
Labeled set size: 2020
Unlabelled set size: 7980
	
Mean region size: 13.488846153845659
Incorrectly Classified Instances: 20.06
Correctly Classified Instances: 79.94
Weighted Precision: 0.806960982348988
Weighted AreaUnderROC: 0.9655149398452606
Root mean squared error: 0.10949885844154045
Relative absolute error: 37.83728000000842
Root relative squared error: 56.939406389605004
Weighted TruePositiveRate: 0.7994
Weighted MatthewsCorrelation: 0.7939557802842212
Weighted FMeasure: 0.8005200826860892
Iteration time: 380.0
Weighted AreaUnderPRC: 0.8428591157205269
Mean absolute error: 0.02798615384615617
Coverage of cases: 94.91
Instances selection time: 100.0
Test time: 215.0
Accumulative iteration time: 758.0
Weighted Recall: 0.7994
Weighted FalsePositiveRate: 0.008011069057433361
Kappa statistic: 0.7913697963391682
Training time: 280.0
		
Iteration: 3
Labeled set size: 2040
Unlabelled set size: 7960
	
Mean region size: 13.096923076922767
Incorrectly Classified Instances: 20.29
Correctly Classified Instances: 79.71
Weighted Precision: 0.8068754750621732
Weighted AreaUnderROC: 0.9642130966092122
Root mean squared error: 0.10851727973000605
Relative absolute error: 36.85656000000809
Root relative squared error: 56.428985459607084
Weighted TruePositiveRate: 0.7971
Weighted MatthewsCorrelation: 0.7925612979885351
Weighted FMeasure: 0.7990902386574825
Iteration time: 379.0
Weighted AreaUnderPRC: 0.8456196631524748
Mean absolute error: 0.02726076923077141
Coverage of cases: 94.6
Instances selection time: 99.0
Test time: 219.0
Accumulative iteration time: 1137.0
Weighted Recall: 0.7971
Weighted FalsePositiveRate: 0.008113395308385545
Kappa statistic: 0.7889753746638739
Training time: 280.0
		
Iteration: 4
Labeled set size: 2060
Unlabelled set size: 7940
	
Mean region size: 13.18576923076883
Incorrectly Classified Instances: 19.39
Correctly Classified Instances: 80.61
Weighted Precision: 0.8138783751071852
Weighted AreaUnderROC: 0.9683265382346752
Root mean squared error: 0.10746913689341647
Relative absolute error: 36.58408000000794
Root relative squared error: 55.88395118458047
Weighted TruePositiveRate: 0.8061
Weighted MatthewsCorrelation: 0.8011286147902833
Weighted FMeasure: 0.8075457881735157
Iteration time: 380.0
Weighted AreaUnderPRC: 0.8524016707012877
Mean absolute error: 0.02705923076923286
Coverage of cases: 95.36
Instances selection time: 99.0
Test time: 215.0
Accumulative iteration time: 1517.0
Weighted Recall: 0.8061
Weighted FalsePositiveRate: 0.007752390593941985
Kappa statistic: 0.7983359061712614
Training time: 281.0
		
Iteration: 5
Labeled set size: 2080
Unlabelled set size: 7920
	
Mean region size: 13.2830769230766
Incorrectly Classified Instances: 19.67
Correctly Classified Instances: 80.33
Weighted Precision: 0.8118592777120898
Weighted AreaUnderROC: 0.969951931694828
Root mean squared error: 0.10745231500531077
Relative absolute error: 36.58928000000797
Root relative squared error: 55.8752038027655
Weighted TruePositiveRate: 0.8033
Weighted MatthewsCorrelation: 0.7985065375295516
Weighted FMeasure: 0.8049126598049035
Iteration time: 386.0
Weighted AreaUnderPRC: 0.8513834242972014
Mean absolute error: 0.027063076923079035
Coverage of cases: 95.71
Instances selection time: 99.0
Test time: 216.0
Accumulative iteration time: 1903.0
Weighted Recall: 0.8033
Weighted FalsePositiveRate: 0.007860773271385329
Kappa statistic: 0.795425374400686
Training time: 287.0
		
Iteration: 6
Labeled set size: 2100
Unlabelled set size: 7900
	
Mean region size: 13.421538461538026
Incorrectly Classified Instances: 19.21
Correctly Classified Instances: 80.79
Weighted Precision: 0.817197855363857
Weighted AreaUnderROC: 0.9679921035924858
Root mean squared error: 0.1077414997539539
Relative absolute error: 36.874240000008136
Root relative squared error: 56.02557987205994
Weighted TruePositiveRate: 0.8079
Weighted MatthewsCorrelation: 0.8037319525075718
Weighted FMeasure: 0.810040993532679
Iteration time: 390.0
Weighted AreaUnderPRC: 0.8520238084164181
Mean absolute error: 0.027273846153848365
Coverage of cases: 95.27
Instances selection time: 98.0
Test time: 227.0
Accumulative iteration time: 2293.0
Weighted Recall: 0.8079
Weighted FalsePositiveRate: 0.007679967210682597
Kappa statistic: 0.8002079896190526
Training time: 292.0
		
Iteration: 7
Labeled set size: 2120
Unlabelled set size: 7880
	
Mean region size: 13.423076923076323
Incorrectly Classified Instances: 18.84
Correctly Classified Instances: 81.16
Weighted Precision: 0.822618811796332
Weighted AreaUnderROC: 0.970092441964107
Root mean squared error: 0.10694498945360352
Relative absolute error: 36.75984000000819
Root relative squared error: 55.611394515877706
Weighted TruePositiveRate: 0.8116
Weighted MatthewsCorrelation: 0.8078566576211158
Weighted FMeasure: 0.8133064064151025
Iteration time: 397.0
Weighted AreaUnderPRC: 0.8582381678242713
Mean absolute error: 0.02718923076923303
Coverage of cases: 95.66
Instances selection time: 97.0
Test time: 216.0
Accumulative iteration time: 2690.0
Weighted Recall: 0.8116
Weighted FalsePositiveRate: 0.007523270090648041
Kappa statistic: 0.804056641151215
Training time: 300.0
		
Iteration: 8
Labeled set size: 2140
Unlabelled set size: 7860
	
Mean region size: 13.472307692307181
Incorrectly Classified Instances: 19.51
Correctly Classified Instances: 80.49
Weighted Precision: 0.8149248172091483
Weighted AreaUnderROC: 0.9666994758924233
Root mean squared error: 0.10786708345138571
Relative absolute error: 37.0801600000081
Root relative squared error: 56.090883394724486
Weighted TruePositiveRate: 0.8049
Weighted MatthewsCorrelation: 0.8006861913804418
Weighted FMeasure: 0.8067633220167382
Iteration time: 398.0
Weighted AreaUnderPRC: 0.8511108759946557
Mean absolute error: 0.02742615384615601
Coverage of cases: 95.06
Instances selection time: 97.0
Test time: 217.0
Accumulative iteration time: 3088.0
Weighted Recall: 0.8049
Weighted FalsePositiveRate: 0.007798243809013458
Kappa statistic: 0.7970874466677218
Training time: 301.0
		
Iteration: 9
Labeled set size: 2160
Unlabelled set size: 7840
	
Mean region size: 13.2911538461534
Incorrectly Classified Instances: 18.75
Correctly Classified Instances: 81.25
Weighted Precision: 0.8213911898446616
Weighted AreaUnderROC: 0.9670908401102153
Root mean squared error: 0.10693563844309029
Relative absolute error: 36.650640000008025
Root relative squared error: 55.60653199041083
Weighted TruePositiveRate: 0.8125
Weighted MatthewsCorrelation: 0.8080907235695618
Weighted FMeasure: 0.8139530198418977
Iteration time: 395.0
Weighted AreaUnderPRC: 0.8561558198458004
Mean absolute error: 0.02710846153846369
Coverage of cases: 95.04
Instances selection time: 96.0
Test time: 215.0
Accumulative iteration time: 3483.0
Weighted Recall: 0.8125
Weighted FalsePositiveRate: 0.007513062763676384
Kappa statistic: 0.8049873522597182
Training time: 299.0
		
Iteration: 10
Labeled set size: 2180
Unlabelled set size: 7820
	
Mean region size: 13.468461538460918
Incorrectly Classified Instances: 19.12
Correctly Classified Instances: 80.88
Weighted Precision: 0.8184534713909905
Weighted AreaUnderROC: 0.967039410152177
Root mean squared error: 0.10825717243959315
Relative absolute error: 37.24344000000821
Root relative squared error: 56.29372966859237
Weighted TruePositiveRate: 0.8088
Weighted MatthewsCorrelation: 0.8047410444034205
Weighted FMeasure: 0.8108744942759898
Iteration time: 398.0
Weighted AreaUnderPRC: 0.8504213581525008
Mean absolute error: 0.02754692307692531
Coverage of cases: 95.15
Instances selection time: 95.0
Test time: 217.0
Accumulative iteration time: 3881.0
Weighted Recall: 0.8088
Weighted FalsePositiveRate: 0.00763087562832488
Kappa statistic: 0.8011472451920092
Training time: 303.0
		
Iteration: 11
Labeled set size: 2200
Unlabelled set size: 7800
	
Mean region size: 13.114615384615101
Incorrectly Classified Instances: 18.12
Correctly Classified Instances: 81.88
Weighted Precision: 0.8251681617160286
Weighted AreaUnderROC: 0.9714901761532998
Root mean squared error: 0.10570859800559348
Relative absolute error: 35.94136000000782
Root relative squared error: 54.96847096291245
Weighted TruePositiveRate: 0.8188
Weighted MatthewsCorrelation: 0.8137644002338721
Weighted FMeasure: 0.8198273658380424
Iteration time: 402.0
Weighted AreaUnderPRC: 0.8636013492185167
Mean absolute error: 0.02658384615384823
Coverage of cases: 95.83
Instances selection time: 96.0
Test time: 216.0
Accumulative iteration time: 4283.0
Weighted Recall: 0.8188
Weighted FalsePositiveRate: 0.007231498314728812
Kappa statistic: 0.8115476977093196
Training time: 306.0
		
Iteration: 12
Labeled set size: 2220
Unlabelled set size: 7780
	
Mean region size: 13.214999999999716
Incorrectly Classified Instances: 18.22
Correctly Classified Instances: 81.78
Weighted Precision: 0.8253521771989041
Weighted AreaUnderROC: 0.9704045169858431
Root mean squared error: 0.10598403363061774
Relative absolute error: 36.0651200000079
Root relative squared error: 55.11169748792507
Weighted TruePositiveRate: 0.8178
Weighted MatthewsCorrelation: 0.8132603153939159
Weighted FMeasure: 0.8192917048917314
Iteration time: 403.0
Weighted AreaUnderPRC: 0.8608418846884842
Mean absolute error: 0.026675384615386735
Coverage of cases: 95.68
Instances selection time: 96.0
Test time: 217.0
Accumulative iteration time: 4686.0
Weighted Recall: 0.8178
Weighted FalsePositiveRate: 0.007277822807064505
Kappa statistic: 0.8105040240385734
Training time: 307.0
		
Iteration: 13
Labeled set size: 2240
Unlabelled set size: 7760
	
Mean region size: 13.269999999999579
Incorrectly Classified Instances: 18.98
Correctly Classified Instances: 81.02
Weighted Precision: 0.8199734560631943
Weighted AreaUnderROC: 0.9679075407062268
Root mean squared error: 0.10714153112732797
Relative absolute error: 36.61216000000807
Root relative squared error: 55.71359618621443
Weighted TruePositiveRate: 0.8102
Weighted MatthewsCorrelation: 0.8063224563599141
Weighted FMeasure: 0.8124795405026769
Iteration time: 405.0
Weighted AreaUnderPRC: 0.855136056141516
Mean absolute error: 0.027080000000002186
Coverage of cases: 95.24
Instances selection time: 95.0
Test time: 216.0
Accumulative iteration time: 5091.0
Weighted Recall: 0.8102
Weighted FalsePositiveRate: 0.0075876717356809
Kappa statistic: 0.8025998412145573
Training time: 310.0
		
Iteration: 14
Labeled set size: 2260
Unlabelled set size: 7740
	
Mean region size: 13.32923076923045
Incorrectly Classified Instances: 18.92
Correctly Classified Instances: 81.08
Weighted Precision: 0.8201615844359645
Weighted AreaUnderROC: 0.9698229062201675
Root mean squared error: 0.10642874105746758
Relative absolute error: 36.47280000000796
Root relative squared error: 55.342945349887
Weighted TruePositiveRate: 0.8108
Weighted MatthewsCorrelation: 0.8066300125106212
Weighted FMeasure: 0.8126362128814671
Iteration time: 406.0
Weighted AreaUnderPRC: 0.8590331892025198
Mean absolute error: 0.0269769230769252
Coverage of cases: 95.58
Instances selection time: 94.0
Test time: 218.0
Accumulative iteration time: 5497.0
Weighted Recall: 0.8108
Weighted FalsePositiveRate: 0.007559028162893654
Kappa statistic: 0.8032239979858125
Training time: 312.0
		
Iteration: 15
Labeled set size: 2280
Unlabelled set size: 7720
	
Mean region size: 13.24884615384565
Incorrectly Classified Instances: 18.62
Correctly Classified Instances: 81.38
Weighted Precision: 0.8217304662366147
Weighted AreaUnderROC: 0.9694892846349765
Root mean squared error: 0.10676069573511918
Relative absolute error: 36.405200000008044
Root relative squared error: 55.51556178226584
Weighted TruePositiveRate: 0.8138
Weighted MatthewsCorrelation: 0.8091210284016951
Weighted FMeasure: 0.8151082974716958
Iteration time: 407.0
Weighted AreaUnderPRC: 0.8560664307403533
Mean absolute error: 0.026926923076925267
Coverage of cases: 95.55
Instances selection time: 94.0
Test time: 217.0
Accumulative iteration time: 5904.0
Weighted Recall: 0.8138
Weighted FalsePositiveRate: 0.007448623008537929
Kappa statistic: 0.8063424209215084
Training time: 313.0
		
Iteration: 16
Labeled set size: 2300
Unlabelled set size: 7700
	
Mean region size: 13.128461538461151
Incorrectly Classified Instances: 18.56
Correctly Classified Instances: 81.44
Weighted Precision: 0.8245619099391636
Weighted AreaUnderROC: 0.9696117555053418
Root mean squared error: 0.10635390846675234
Relative absolute error: 36.193040000007926
Root relative squared error: 55.30403240271508
Weighted TruePositiveRate: 0.8144
Weighted MatthewsCorrelation: 0.8107317831512844
Weighted FMeasure: 0.8165575307008066
Iteration time: 414.0
Weighted AreaUnderPRC: 0.8590980893258536
Mean absolute error: 0.02677000000000213
Coverage of cases: 95.52
Instances selection time: 93.0
Test time: 219.0
Accumulative iteration time: 6318.0
Weighted Recall: 0.8144
Weighted FalsePositiveRate: 0.007425914557178059
Kappa statistic: 0.8069678511092282
Training time: 321.0
		
Iteration: 17
Labeled set size: 2320
Unlabelled set size: 7680
	
Mean region size: 13.074230769230466
Incorrectly Classified Instances: 19.36
Correctly Classified Instances: 80.64
Weighted Precision: 0.8153690578757008
Weighted AreaUnderROC: 0.9675176666304733
Root mean squared error: 0.10713937723286748
Relative absolute error: 36.21592000000769
Root relative squared error: 55.712476161094976
Weighted TruePositiveRate: 0.8064
Weighted MatthewsCorrelation: 0.8019281145821229
Weighted FMeasure: 0.8081979285552173
Iteration time: 417.0
Weighted AreaUnderPRC: 0.8544115421763843
Mean absolute error: 0.02678692307692503
Coverage of cases: 95.13
Instances selection time: 93.0
Test time: 220.0
Accumulative iteration time: 6735.0
Weighted Recall: 0.8064
Weighted FalsePositiveRate: 0.007745418260362258
Kappa statistic: 0.7986450789923364
Training time: 324.0
		
Iteration: 18
Labeled set size: 2340
Unlabelled set size: 7660
	
Mean region size: 12.775769230769038
Incorrectly Classified Instances: 17.88
Correctly Classified Instances: 82.12
Weighted Precision: 0.8300313666242347
Weighted AreaUnderROC: 0.9700533188300225
Root mean squared error: 0.10455951562480002
Relative absolute error: 34.94088000000748
Root relative squared error: 54.37094812489981
Weighted TruePositiveRate: 0.8212
Weighted MatthewsCorrelation: 0.817358548054595
Weighted FMeasure: 0.82315597520859
Iteration time: 415.0
Weighted AreaUnderPRC: 0.8637321989794063
Mean absolute error: 0.02584384615384808
Coverage of cases: 95.53
Instances selection time: 92.0
Test time: 219.0
Accumulative iteration time: 7150.0
Weighted Recall: 0.8212
Weighted FalsePositiveRate: 0.0071433780754413066
Kappa statistic: 0.8140408285217439
Training time: 323.0
		
Iteration: 19
Labeled set size: 2360
Unlabelled set size: 7640
	
Mean region size: 13.128846153845897
Incorrectly Classified Instances: 18.2
Correctly Classified Instances: 81.8
Weighted Precision: 0.8246597147349803
Weighted AreaUnderROC: 0.9700215458122314
Root mean squared error: 0.10544265667249797
Relative absolute error: 35.74376000000782
Root relative squared error: 54.830181469702765
Weighted TruePositiveRate: 0.818
Weighted MatthewsCorrelation: 0.8130916054681812
Weighted FMeasure: 0.8192034977007544
Iteration time: 425.0
Weighted AreaUnderPRC: 0.8621040163719593
Mean absolute error: 0.026437692307694403
Coverage of cases: 95.54
Instances selection time: 92.0
Test time: 219.0
Accumulative iteration time: 7575.0
Weighted Recall: 0.818
Weighted FalsePositiveRate: 0.007278508597251594
Kappa statistic: 0.8107109342652012
Training time: 333.0
		
Iteration: 20
Labeled set size: 2380
Unlabelled set size: 7620
	
Mean region size: 12.875384615384325
Incorrectly Classified Instances: 18.89
Correctly Classified Instances: 81.11
Weighted Precision: 0.8193704892061716
Weighted AreaUnderROC: 0.9691558768831383
Root mean squared error: 0.10553344347792372
Relative absolute error: 35.371440000007496
Root relative squared error: 54.877390608524166
Weighted TruePositiveRate: 0.8111
Weighted MatthewsCorrelation: 0.8065333757311063
Weighted FMeasure: 0.8126850103232445
Iteration time: 419.0
Weighted AreaUnderPRC: 0.8592241392710912
Mean absolute error: 0.026162307692309587
Coverage of cases: 95.41
Instances selection time: 92.0
Test time: 218.0
Accumulative iteration time: 7994.0
Weighted Recall: 0.8111
Weighted FalsePositiveRate: 0.007543470215626249
Kappa statistic: 0.8035366359244317
Training time: 327.0
		
Iteration: 21
Labeled set size: 2400
Unlabelled set size: 7600
	
Mean region size: 12.97269230769191
Incorrectly Classified Instances: 18.03
Correctly Classified Instances: 81.97
Weighted Precision: 0.8275383549887111
Weighted AreaUnderROC: 0.9695950416191119
Root mean squared error: 0.10517567721162333
Relative absolute error: 35.15096000000748
Root relative squared error: 54.69135215004795
Weighted TruePositiveRate: 0.8197
Weighted MatthewsCorrelation: 0.815415245784552
Weighted FMeasure: 0.8214207679594436
Iteration time: 421.0
Weighted AreaUnderPRC: 0.8611864913573744
Mean absolute error: 0.025999230769232672
Coverage of cases: 95.51
Instances selection time: 91.0
Test time: 216.0
Accumulative iteration time: 8415.0
Weighted Recall: 0.8197
Weighted FalsePositiveRate: 0.00721093197775258
Kappa statistic: 0.8124793017398988
Training time: 330.0
		
Iteration: 22
Labeled set size: 2420
Unlabelled set size: 7580
	
Mean region size: 12.76461538461516
Incorrectly Classified Instances: 18.33
Correctly Classified Instances: 81.67
Weighted Precision: 0.8250223829476021
Weighted AreaUnderROC: 0.9711294616232297
Root mean squared error: 0.10458599700357256
Relative absolute error: 34.81816000000732
Root relative squared error: 54.38471844186153
Weighted TruePositiveRate: 0.8167
Weighted MatthewsCorrelation: 0.8124163599031468
Weighted FMeasure: 0.8183909616629562
Iteration time: 426.0
Weighted AreaUnderPRC: 0.8643303856888309
Mean absolute error: 0.02575307692307874
Coverage of cases: 95.72
Instances selection time: 91.0
Test time: 216.0
Accumulative iteration time: 8841.0
Weighted Recall: 0.8167
Weighted FalsePositiveRate: 0.007327577970197046
Kappa statistic: 0.8093593830441136
Training time: 335.0
		
Iteration: 23
Labeled set size: 2440
Unlabelled set size: 7560
	
Mean region size: 12.931153846153647
Incorrectly Classified Instances: 17.38
Correctly Classified Instances: 82.62
Weighted Precision: 0.8351752127128004
Weighted AreaUnderROC: 0.972083815907817
Root mean squared error: 0.10421575253733761
Relative absolute error: 35.01992000000754
Root relative squared error: 54.192191319419344
Weighted TruePositiveRate: 0.8262
Weighted MatthewsCorrelation: 0.8224972548810768
Weighted FMeasure: 0.8279307447467549
Iteration time: 428.0
Weighted AreaUnderPRC: 0.8682503626974775
Mean absolute error: 0.025902307692309653
Coverage of cases: 95.87
Instances selection time: 90.0
Test time: 216.0
Accumulative iteration time: 9269.0
Weighted Recall: 0.8262
Weighted FalsePositiveRate: 0.006935091861706137
Kappa statistic: 0.8192429052528304
Training time: 338.0
		
Iteration: 24
Labeled set size: 2460
Unlabelled set size: 7540
	
Mean region size: 12.993846153845876
Incorrectly Classified Instances: 18.07
Correctly Classified Instances: 81.93
Weighted Precision: 0.826964898890109
Weighted AreaUnderROC: 0.9712308606843457
Root mean squared error: 0.10505785951633649
Relative absolute error: 35.3402400000077
Root relative squared error: 54.63008694849879
Weighted TruePositiveRate: 0.8193
Weighted MatthewsCorrelation: 0.8148415166573375
Weighted FMeasure: 0.8207787823380263
Iteration time: 428.0
Weighted AreaUnderPRC: 0.8641454872638009
Mean absolute error: 0.026139230769232812
Coverage of cases: 95.77
Instances selection time: 89.0
Test time: 223.0
Accumulative iteration time: 9697.0
Weighted Recall: 0.8193
Weighted FalsePositiveRate: 0.007230698267641705
Kappa statistic: 0.8120625123142217
Training time: 339.0
		
Iteration: 25
Labeled set size: 2480
Unlabelled set size: 7520
	
Mean region size: 12.82384615384588
Incorrectly Classified Instances: 18.37
Correctly Classified Instances: 81.63
Weighted Precision: 0.8255440907349435
Weighted AreaUnderROC: 0.9704847113269388
Root mean squared error: 0.10465805125411129
Relative absolute error: 35.00224000000758
Root relative squared error: 54.42218665214167
Weighted TruePositiveRate: 0.8163
Weighted MatthewsCorrelation: 0.8123028302625275
Weighted FMeasure: 0.8180960484452359
Iteration time: 431.0
Weighted AreaUnderPRC: 0.863774631887497
Mean absolute error: 0.025889230769232763
Coverage of cases: 95.58
Instances selection time: 88.0
Test time: 217.0
Accumulative iteration time: 10128.0
Weighted Recall: 0.8163
Weighted FalsePositiveRate: 0.007338098314894381
Kappa statistic: 0.8089441292623492
Training time: 343.0
		
Iteration: 26
Labeled set size: 2500
Unlabelled set size: 7500
	
Mean region size: 12.914230769230594
Incorrectly Classified Instances: 17.2
Correctly Classified Instances: 82.8
Weighted Precision: 0.8367531908455005
Weighted AreaUnderROC: 0.9718960366780278
Root mean squared error: 0.10392378864415172
Relative absolute error: 34.96168000000763
Root relative squared error: 54.04037009496266
Weighted TruePositiveRate: 0.828
Weighted MatthewsCorrelation: 0.8243575496945841
Weighted FMeasure: 0.8298678501476925
Iteration time: 434.0
Weighted AreaUnderPRC: 0.8702003686879421
Mean absolute error: 0.025859230769232806
Coverage of cases: 95.8
Instances selection time: 89.0
Test time: 222.0
Accumulative iteration time: 10562.0
Weighted Recall: 0.828
Weighted FalsePositiveRate: 0.006878068432336701
Kappa statistic: 0.8211125468331512
Training time: 345.0
		
Iteration: 27
Labeled set size: 2520
Unlabelled set size: 7480
	
Mean region size: 12.843076923076607
Incorrectly Classified Instances: 17.96
Correctly Classified Instances: 82.04
Weighted Precision: 0.8291066644588334
Weighted AreaUnderROC: 0.9699920939920952
Root mean squared error: 0.10475355694346689
Relative absolute error: 35.05216000000755
Root relative squared error: 54.47184961060658
Weighted TruePositiveRate: 0.8204
Weighted MatthewsCorrelation: 0.8165024968230439
Weighted FMeasure: 0.8223824508154286
Iteration time: 432.0
Weighted AreaUnderPRC: 0.8639072105428457
Mean absolute error: 0.02592615384615581
Coverage of cases: 95.51
Instances selection time: 88.0
Test time: 223.0
Accumulative iteration time: 10994.0
Weighted Recall: 0.8204
Weighted FalsePositiveRate: 0.007184140565277306
Kappa statistic: 0.8132065856119148
Training time: 344.0
		
Iteration: 28
Labeled set size: 2540
Unlabelled set size: 7460
	
Mean region size: 12.768846153845976
Incorrectly Classified Instances: 18.78
Correctly Classified Instances: 81.22
Weighted Precision: 0.8210199281604122
Weighted AreaUnderROC: 0.9700039783447703
Root mean squared error: 0.10493147947406364
Relative absolute error: 34.96272000000743
Root relative squared error: 54.564369326516896
Weighted TruePositiveRate: 0.8122
Weighted MatthewsCorrelation: 0.807943396504472
Weighted FMeasure: 0.8140349177107378
Iteration time: 438.0
Weighted AreaUnderPRC: 0.8610981550250525
Mean absolute error: 0.025860000000001885
Coverage of cases: 95.56
Instances selection time: 87.0
Test time: 219.0
Accumulative iteration time: 11432.0
Weighted Recall: 0.8122
Weighted FalsePositiveRate: 0.007500368960891899
Kappa statistic: 0.8046804451958759
Training time: 351.0
		
Iteration: 29
Labeled set size: 2560
Unlabelled set size: 7440
	
Mean region size: 12.997692307692073
Incorrectly Classified Instances: 18.35
Correctly Classified Instances: 81.65
Weighted Precision: 0.8267529244894471
Weighted AreaUnderROC: 0.9707929931878058
Root mean squared error: 0.10476787528774321
Relative absolute error: 35.27992000000766
Root relative squared error: 54.479295149630275
Weighted TruePositiveRate: 0.8165
Weighted MatthewsCorrelation: 0.8130052759718017
Weighted FMeasure: 0.8187674899819122
Iteration time: 440.0
Weighted AreaUnderPRC: 0.8656635874744265
Mean absolute error: 0.026094615384617405
Coverage of cases: 95.65
Instances selection time: 87.0
Test time: 219.0
Accumulative iteration time: 11872.0
Weighted Recall: 0.8165
Weighted FalsePositiveRate: 0.007331602473024793
Kappa statistic: 0.8091518162772035
Training time: 353.0
		
Iteration: 30
Labeled set size: 2580
Unlabelled set size: 7420
	
Mean region size: 12.829615384615142
Incorrectly Classified Instances: 17.82
Correctly Classified Instances: 82.18
Weighted Precision: 0.828271381056369
Weighted AreaUnderROC: 0.9703324948043263
Root mean squared error: 0.1045830549592803
Relative absolute error: 35.01056000000768
Root relative squared error: 54.383188578829554
Weighted TruePositiveRate: 0.8218
Weighted MatthewsCorrelation: 0.8169264658857183
Weighted FMeasure: 0.8228669554964537
Iteration time: 446.0
Weighted AreaUnderPRC: 0.865057775686703
Mean absolute error: 0.025895384615386683
Coverage of cases: 95.55
Instances selection time: 86.0
Test time: 218.0
Accumulative iteration time: 12318.0
Weighted Recall: 0.8218
Weighted FalsePositiveRate: 0.007129932277019687
Kappa statistic: 0.8146635514750613
Training time: 360.0
		
Iteration: 31
Labeled set size: 2600
Unlabelled set size: 7400
	
Mean region size: 12.841153846153611
Incorrectly Classified Instances: 18.21
Correctly Classified Instances: 81.79
Weighted Precision: 0.8275018079014258
Weighted AreaUnderROC: 0.9693916185971324
Root mean squared error: 0.10478806449944068
Relative absolute error: 35.01160000000748
Root relative squared error: 54.489793539712956
Weighted TruePositiveRate: 0.8179
Weighted MatthewsCorrelation: 0.814207029432321
Weighted FMeasure: 0.8200123150582415
Iteration time: 448.0
Weighted AreaUnderPRC: 0.8628648903503127
Mean absolute error: 0.025896153846155765
Coverage of cases: 95.4
Instances selection time: 86.0
Test time: 221.0
Accumulative iteration time: 12766.0
Weighted Recall: 0.8179
Weighted FalsePositiveRate: 0.007292796251157222
Kappa statistic: 0.8106046108219089
Training time: 362.0
		
Iteration: 32
Labeled set size: 2620
Unlabelled set size: 7380
	
Mean region size: 12.666153846153675
Incorrectly Classified Instances: 17.97
Correctly Classified Instances: 82.03
Weighted Precision: 0.8292651817297713
Weighted AreaUnderROC: 0.9714488713764245
Root mean squared error: 0.10432788549715781
Relative absolute error: 34.619520000007384
Root relative squared error: 54.25050045852585
Weighted TruePositiveRate: 0.8203
Weighted MatthewsCorrelation: 0.8163289552722479
Weighted FMeasure: 0.8219756835145683
Iteration time: 445.0
Weighted AreaUnderPRC: 0.8646202944319579
Mean absolute error: 0.025606153846155735
Coverage of cases: 95.77
Instances selection time: 86.0
Test time: 221.0
Accumulative iteration time: 13211.0
Weighted Recall: 0.8203
Weighted FalsePositiveRate: 0.007180498278775508
Kappa statistic: 0.8131045202933858
Training time: 359.0
		
Iteration: 33
Labeled set size: 2640
Unlabelled set size: 7360
	
Mean region size: 12.536538461538361
Incorrectly Classified Instances: 17.15
Correctly Classified Instances: 82.85
Weighted Precision: 0.8386866429304298
Weighted AreaUnderROC: 0.9739542174256985
Root mean squared error: 0.1024987804805524
Relative absolute error: 33.93520000000724
Root relative squared error: 53.29936584989097
Weighted TruePositiveRate: 0.8285
Weighted MatthewsCorrelation: 0.8253917484566012
Weighted FMeasure: 0.8306004109431433
Iteration time: 449.0
Weighted AreaUnderPRC: 0.87509139042935
Mean absolute error: 0.025100000000001853
Coverage of cases: 96.14
Instances selection time: 85.0
Test time: 220.0
Accumulative iteration time: 13660.0
Weighted Recall: 0.8285
Weighted FalsePositiveRate: 0.0068498629033179985
Kappa statistic: 0.8216315073766345
Training time: 364.0
		
Iteration: 34
Labeled set size: 2660
Unlabelled set size: 7340
	
Mean region size: 12.588076923076677
Incorrectly Classified Instances: 18.2
Correctly Classified Instances: 81.8
Weighted Precision: 0.829419267897168
Weighted AreaUnderROC: 0.9686436283960953
Root mean squared error: 0.10433378389351573
Relative absolute error: 34.35536000000721
Root relative squared error: 54.25356762463196
Weighted TruePositiveRate: 0.818
Weighted MatthewsCorrelation: 0.8149505027224494
Weighted FMeasure: 0.8204269805574784
Iteration time: 451.0
Weighted AreaUnderPRC: 0.8615353984789079
Mean absolute error: 0.025410769230771017
Coverage of cases: 95.27
Instances selection time: 84.0
Test time: 221.0
Accumulative iteration time: 14111.0
Weighted Recall: 0.818
Weighted FalsePositiveRate: 0.007280726795034714
Kappa statistic: 0.8107105956480972
Training time: 367.0
		
Iteration: 35
Labeled set size: 2680
Unlabelled set size: 7320
	
Mean region size: 12.665384615384431
Incorrectly Classified Instances: 17.72
Correctly Classified Instances: 82.28
Weighted Precision: 0.8313987635927151
Weighted AreaUnderROC: 0.9716652351125152
Root mean squared error: 0.10350771060093363
Relative absolute error: 34.41672000000748
Root relative squared error: 53.82400951248925
Weighted TruePositiveRate: 0.8228
Weighted MatthewsCorrelation: 0.8188719827579245
Weighted FMeasure: 0.8245597461410004
Iteration time: 452.0
Weighted AreaUnderPRC: 0.8698323323596434
Mean absolute error: 0.025456153846155825
Coverage of cases: 95.74
Instances selection time: 85.0
Test time: 221.0
Accumulative iteration time: 14563.0
Weighted Recall: 0.8228
Weighted FalsePositiveRate: 0.0070779196429626694
Kappa statistic: 0.8157046492693589
Training time: 367.0
		
Iteration: 36
Labeled set size: 2700
Unlabelled set size: 7300
	
Mean region size: 12.737307692307473
Incorrectly Classified Instances: 17.83
Correctly Classified Instances: 82.17
Weighted Precision: 0.8290425119280379
Weighted AreaUnderROC: 0.9701192624560168
Root mean squared error: 0.10448187181737309
Relative absolute error: 34.841040000007474
Root relative squared error: 54.3305733450378
Weighted TruePositiveRate: 0.8217
Weighted MatthewsCorrelation: 0.8171899229681229
Weighted FMeasure: 0.8230411851840652
Iteration time: 461.0
Weighted AreaUnderPRC: 0.8641502473677849
Mean absolute error: 0.02577000000000193
Coverage of cases: 95.51
Instances selection time: 85.0
Test time: 223.0
Accumulative iteration time: 15024.0
Weighted Recall: 0.8217
Weighted FalsePositiveRate: 0.007130827937107721
Kappa statistic: 0.8145591224259561
Training time: 376.0
		
Iteration: 37
Labeled set size: 2720
Unlabelled set size: 7280
	
Mean region size: 12.81115384615353
Incorrectly Classified Instances: 17.32
Correctly Classified Instances: 82.68
Weighted Precision: 0.8354084040577718
Weighted AreaUnderROC: 0.9708122883178848
Root mean squared error: 0.10324466832946887
Relative absolute error: 34.37512000000741
Root relative squared error: 53.68722753132755
Weighted TruePositiveRate: 0.8268
Weighted MatthewsCorrelation: 0.8230639933745255
Weighted FMeasure: 0.8286387455699767
Iteration time: 463.0
Weighted AreaUnderPRC: 0.8693077490936941
Mean absolute error: 0.02542538461538655
Coverage of cases: 95.61
Instances selection time: 85.0
Test time: 225.0
Accumulative iteration time: 15487.0
Weighted Recall: 0.8268
Weighted FalsePositiveRate: 0.0069275236174816245
Kappa statistic: 0.8198631683955295
Training time: 378.0
		
Iteration: 38
Labeled set size: 2740
Unlabelled set size: 7260
	
Mean region size: 12.45538461538452
Incorrectly Classified Instances: 17.67
Correctly Classified Instances: 82.33
Weighted Precision: 0.832893830028566
Weighted AreaUnderROC: 0.9737205923323987
Root mean squared error: 0.1033905962097901
Relative absolute error: 33.915440000007294
Root relative squared error: 53.76311002909461
Weighted TruePositiveRate: 0.8233
Weighted MatthewsCorrelation: 0.8197319729844872
Weighted FMeasure: 0.8252106482252509
Iteration time: 457.0
Weighted AreaUnderPRC: 0.8698822260987358
Mean absolute error: 0.02508538461538651
Coverage of cases: 96.15
Instances selection time: 83.0
Test time: 220.0
Accumulative iteration time: 15944.0
Weighted Recall: 0.8233
Weighted FalsePositiveRate: 0.007066073982460627
Kappa statistic: 0.8162222253747455
Training time: 374.0
		
Iteration: 39
Labeled set size: 2760
Unlabelled set size: 7240
	
Mean region size: 12.577692307692189
Incorrectly Classified Instances: 17.44
Correctly Classified Instances: 82.56
Weighted Precision: 0.8350144546852445
Weighted AreaUnderROC: 0.9718222046151804
Root mean squared error: 0.10306196791624758
Relative absolute error: 34.040240000007365
Root relative squared error: 53.59222331645248
Weighted TruePositiveRate: 0.8256
Weighted MatthewsCorrelation: 0.8220475584465242
Weighted FMeasure: 0.8274677696698071
Iteration time: 459.0
Weighted AreaUnderPRC: 0.8716386675129588
Mean absolute error: 0.02517769230769424
Coverage of cases: 95.76
Instances selection time: 82.0
Test time: 222.0
Accumulative iteration time: 16403.0
Weighted Recall: 0.8256
Weighted FalsePositiveRate: 0.006974149915701882
Kappa statistic: 0.8186160164927965
Training time: 377.0
		
Iteration: 40
Labeled set size: 2780
Unlabelled set size: 7220
	
Mean region size: 12.756923076922906
Incorrectly Classified Instances: 16.64
Correctly Classified Instances: 83.36
Weighted Precision: 0.8412491488706239
Weighted AreaUnderROC: 0.9766121685219036
Root mean squared error: 0.10203543879080067
Relative absolute error: 34.16712000000761
Root relative squared error: 53.05842817122005
Weighted TruePositiveRate: 0.8336
Weighted MatthewsCorrelation: 0.8296567613051957
Weighted FMeasure: 0.8349750909952102
Iteration time: 468.0
Weighted AreaUnderPRC: 0.8801218468621977
Mean absolute error: 0.025271538461540562
Coverage of cases: 96.67
Instances selection time: 82.0
Test time: 221.0
Accumulative iteration time: 16871.0
Weighted Recall: 0.8336
Weighted FalsePositiveRate: 0.006662169032719691
Kappa statistic: 0.8269347051475963
Training time: 386.0
		
Iteration: 41
Labeled set size: 2800
Unlabelled set size: 7200
	
Mean region size: 12.5353846153844
Incorrectly Classified Instances: 17.22
Correctly Classified Instances: 82.78
Weighted Precision: 0.8348032335697899
Weighted AreaUnderROC: 0.9727786651154178
Root mean squared error: 0.10313322228293821
Relative absolute error: 34.077680000007234
Root relative squared error: 53.62927558713161
Weighted TruePositiveRate: 0.8278
Weighted MatthewsCorrelation: 0.8235023785210381
Weighted FMeasure: 0.8292701478028582
Iteration time: 467.0
Weighted AreaUnderPRC: 0.8714723564640784
Mean absolute error: 0.025205384615386447
Coverage of cases: 95.93
Instances selection time: 81.0
Test time: 221.0
Accumulative iteration time: 17338.0
Weighted Recall: 0.8278
Weighted FalsePositiveRate: 0.006879889335891747
Kappa statistic: 0.8209043686635105
Training time: 386.0
		
Iteration: 42
Labeled set size: 2820
Unlabelled set size: 7180
	
Mean region size: 12.620384615384415
Incorrectly Classified Instances: 16.84
Correctly Classified Instances: 83.16
Weighted Precision: 0.8398936912499594
Weighted AreaUnderROC: 0.9756195798477096
Root mean squared error: 0.10200377066937151
Relative absolute error: 33.87280000000739
Root relative squared error: 53.04196074807688
Weighted TruePositiveRate: 0.8316
Weighted MatthewsCorrelation: 0.8279912234906376
Weighted FMeasure: 0.8334946938745655
Iteration time: 464.0
Weighted AreaUnderPRC: 0.8790004508366972
Mean absolute error: 0.025053846153848123
Coverage of cases: 96.44
Instances selection time: 81.0
Test time: 226.0
Accumulative iteration time: 17802.0
Weighted Recall: 0.8316
Weighted FalsePositiveRate: 0.006729182761056643
Kappa statistic: 0.8248576864698819
Training time: 383.0
		
Iteration: 43
Labeled set size: 2840
Unlabelled set size: 7160
	
Mean region size: 12.378846153846043
Incorrectly Classified Instances: 17.37
Correctly Classified Instances: 82.63
Weighted Precision: 0.8332311965403069
Weighted AreaUnderROC: 0.9743446343961718
Root mean squared error: 0.1025070354058331
Relative absolute error: 33.467200000007175
Root relative squared error: 53.30365841103693
Weighted TruePositiveRate: 0.8263
Weighted MatthewsCorrelation: 0.8218203656097676
Weighted FMeasure: 0.8275426162338354
Iteration time: 469.0
Weighted AreaUnderPRC: 0.8739821564033126
Mean absolute error: 0.024753846153848003
Coverage of cases: 96.22
Instances selection time: 81.0
Test time: 224.0
Accumulative iteration time: 18271.0
Weighted Recall: 0.8263
Weighted FalsePositiveRate: 0.006939788093537154
Kappa statistic: 0.8193438737983937
Training time: 388.0
		
Iteration: 44
Labeled set size: 2860
Unlabelled set size: 7140
	
Mean region size: 12.643846153845907
Incorrectly Classified Instances: 16.8
Correctly Classified Instances: 83.2
Weighted Precision: 0.839824545692494
Weighted AreaUnderROC: 0.9740862874087186
Root mean squared error: 0.10248001681378817
Relative absolute error: 33.932080000007375
Root relative squared error: 53.28960874317357
Weighted TruePositiveRate: 0.832
Weighted MatthewsCorrelation: 0.8280880294641702
Weighted FMeasure: 0.8334676737427266
Iteration time: 477.0
Weighted AreaUnderPRC: 0.8754638842103721
Mean absolute error: 0.025097692307694264
Coverage of cases: 96.17
Instances selection time: 80.0
Test time: 225.0
Accumulative iteration time: 18748.0
Weighted Recall: 0.832
Weighted FalsePositiveRate: 0.006712258540726191
Kappa statistic: 0.8252737250902343
Training time: 397.0
		
Iteration: 45
Labeled set size: 2880
Unlabelled set size: 7120
	
Mean region size: 12.424999999999821
Incorrectly Classified Instances: 17.1
Correctly Classified Instances: 82.9
Weighted Precision: 0.836751664989026
Weighted AreaUnderROC: 0.9740625623694946
Root mean squared error: 0.10183508538507263
Relative absolute error: 33.29352000000714
Root relative squared error: 52.954244400241464
Weighted TruePositiveRate: 0.829
Weighted MatthewsCorrelation: 0.8251011863826976
Weighted FMeasure: 0.830803346839142
Iteration time: 477.0
Weighted AreaUnderPRC: 0.8755268238969176
Mean absolute error: 0.024625384615386464
Coverage of cases: 96.18
Instances selection time: 81.0
Test time: 226.0
Accumulative iteration time: 19225.0
Weighted Recall: 0.829
Weighted FalsePositiveRate: 0.006838149799271193
Kappa statistic: 0.822151156644113
Training time: 396.0
		
Iteration: 46
Labeled set size: 2900
Unlabelled set size: 7100
	
Mean region size: 12.465384615384444
Incorrectly Classified Instances: 17.33
Correctly Classified Instances: 82.67
Weighted Precision: 0.833816579019686
Weighted AreaUnderROC: 0.9733993676725718
Root mean squared error: 0.10224029011635963
Relative absolute error: 33.512960000007325
Root relative squared error: 53.16495086051072
Weighted TruePositiveRate: 0.8267
Weighted MatthewsCorrelation: 0.8223341784270038
Weighted FMeasure: 0.8280486939990634
Iteration time: 480.0
Weighted AreaUnderPRC: 0.8733477491530757
Mean absolute error: 0.02478769230769427
Coverage of cases: 96.03
Instances selection time: 81.0
Test time: 221.0
Accumulative iteration time: 19705.0
Weighted Recall: 0.8267
Weighted FalsePositiveRate: 0.006927749014088966
Kappa statistic: 0.8197584678184257
Training time: 399.0
		
Time end:Wed Nov 01 02.49.52 EET 2017