Tue Oct 31 20.54.28 EET 2017
Dataset: letter
Test set size: 10000
Initial Labelled set size: 2000
Initial Unlabelled set size: 8000
Batch mode: QBestBatchMode
Batch size: 20
Classifiers: SMO-1cores
Scenario: PoolBasedSamplingScenario
Query strategy: LeastConfidentSamplingQueryStrategy-1cores
Time begining: Tue Oct 31 20.54.28 EET 2017
		
Iteration: 1
Labeled set size: 2000
Unlabelled set size: 8000
	
Mean region size: 78.78923076922788
Incorrectly Classified Instances: 27.48
Correctly Classified Instances: 72.52
Weighted Precision: 0.7468399672349055
Weighted AreaUnderROC: 0.9610187382152242
Root mean squared error: 0.18651672470193245
Relative absolute error: 96.34636800000168
Root relative squared error: 96.98869684501163
Weighted TruePositiveRate: 0.7252
Weighted MatthewsCorrelation: 0.7209191031320228
Weighted FMeasure: 0.7269233596163276
Iteration time: 2785.0
Weighted AreaUnderPRC: 0.6427214044062287
Mean absolute error: 0.07126210650886705
Coverage of cases: 99.63
Instances selection time: 236.0
Test time: 420.0
Accumulative iteration time: 2785.0
Weighted Recall: 0.7252
Weighted FalsePositiveRate: 0.01097897214035956
Kappa statistic: 0.714185869526203
Training time: 2549.0
		
Iteration: 2
Labeled set size: 2020
Unlabelled set size: 7980
	
Mean region size: 78.79730769230491
Incorrectly Classified Instances: 27.52
Correctly Classified Instances: 72.48
Weighted Precision: 0.7499360171308
Weighted AreaUnderROC: 0.9620711207412848
Root mean squared error: 0.18650259727215013
Relative absolute error: 96.33923200000203
Root relative squared error: 96.98135058152484
Weighted TruePositiveRate: 0.7248
Weighted MatthewsCorrelation: 0.7228773326302701
Weighted FMeasure: 0.7296088331320898
Iteration time: 2765.0
Weighted AreaUnderPRC: 0.6471990602819239
Mean absolute error: 0.07125682840235843
Coverage of cases: 99.62
Instances selection time: 232.0
Test time: 435.0
Accumulative iteration time: 5550.0
Weighted Recall: 0.7248
Weighted FalsePositiveRate: 0.010958789140207937
Kappa statistic: 0.7137835041785112
Training time: 2533.0
		
Iteration: 3
Labeled set size: 2040
Unlabelled set size: 7960
	
Mean region size: 78.7603846153816
Incorrectly Classified Instances: 27.47
Correctly Classified Instances: 72.53
Weighted Precision: 0.7515649840996762
Weighted AreaUnderROC: 0.9626573200463409
Root mean squared error: 0.1864941854365395
Relative absolute error: 96.33491200000181
Root relative squared error: 96.97697642700732
Weighted TruePositiveRate: 0.7253
Weighted MatthewsCorrelation: 0.7236087044481273
Weighted FMeasure: 0.7298973855728508
Iteration time: 2748.0
Weighted AreaUnderPRC: 0.6482387703709137
Mean absolute error: 0.07125363313608608
Coverage of cases: 99.58
Instances selection time: 232.0
Test time: 436.0
Accumulative iteration time: 8298.0
Weighted Recall: 0.7253
Weighted FalsePositiveRate: 0.01094295234622163
Kappa statistic: 0.7143024677589762
Training time: 2516.0
		
Iteration: 4
Labeled set size: 2060
Unlabelled set size: 7940
	
Mean region size: 78.75076923076625
Incorrectly Classified Instances: 27.14
Correctly Classified Instances: 72.86
Weighted Precision: 0.7570453983775399
Weighted AreaUnderROC: 0.9631143906879853
Root mean squared error: 0.18649118478558327
Relative absolute error: 96.33376000000194
Root relative squared error: 96.97541608851007
Weighted TruePositiveRate: 0.7286
Weighted MatthewsCorrelation: 0.727489183655128
Weighted FMeasure: 0.7328344668503625
Iteration time: 2785.0
Weighted AreaUnderPRC: 0.6525298745056485
Mean absolute error: 0.07125278106508026
Coverage of cases: 99.63
Instances selection time: 231.0
Test time: 431.0
Accumulative iteration time: 11083.0
Weighted Recall: 0.7286
Weighted FalsePositiveRate: 0.01078926076019947
Kappa statistic: 0.7177432832937449
Training time: 2554.0
		
Iteration: 5
Labeled set size: 2080
Unlabelled set size: 7920
	
Mean region size: 78.76423076922791
Incorrectly Classified Instances: 27.2
Correctly Classified Instances: 72.8
Weighted Precision: 0.7565581996248583
Weighted AreaUnderROC: 0.9633747284675584
Root mean squared error: 0.18648477992908097
Relative absolute error: 96.33062400000219
Root relative squared error: 96.97208556312889
Weighted TruePositiveRate: 0.728
Weighted MatthewsCorrelation: 0.7268039914926933
Weighted FMeasure: 0.7320405092291122
Iteration time: 2729.0
Weighted AreaUnderPRC: 0.6525460156613666
Mean absolute error: 0.07125046153845323
Coverage of cases: 99.66
Instances selection time: 229.0
Test time: 428.0
Accumulative iteration time: 13812.0
Weighted Recall: 0.728
Weighted FalsePositiveRate: 0.010812981678335835
Kappa statistic: 0.7171183814645313
Training time: 2500.0
		
Iteration: 6
Labeled set size: 2100
Unlabelled set size: 7900
	
Mean region size: 78.75576923076639
Incorrectly Classified Instances: 27.43
Correctly Classified Instances: 72.57
Weighted Precision: 0.7567609025558196
Weighted AreaUnderROC: 0.9638866660593584
Root mean squared error: 0.1864809059014265
Relative absolute error: 96.3288960000022
Root relative squared error: 96.97007106874854
Weighted TruePositiveRate: 0.7257
Weighted MatthewsCorrelation: 0.7251975312216279
Weighted FMeasure: 0.72995000781754
Iteration time: 2745.0
Weighted AreaUnderPRC: 0.6512636565726835
Mean absolute error: 0.07124918343194436
Coverage of cases: 99.75
Instances selection time: 228.0
Test time: 430.0
Accumulative iteration time: 16557.0
Weighted Recall: 0.7257
Weighted FalsePositiveRate: 0.01090038666932578
Kappa statistic: 0.7147268009396898
Training time: 2517.0
		
Iteration: 7
Labeled set size: 2120
Unlabelled set size: 7880
	
Mean region size: 78.74076923076642
Incorrectly Classified Instances: 27.4
Correctly Classified Instances: 72.6
Weighted Precision: 0.7584123786407139
Weighted AreaUnderROC: 0.9638441921688412
Root mean squared error: 0.18648454366256143
Relative absolute error: 96.33062400000219
Root relative squared error: 96.97196270453871
Weighted TruePositiveRate: 0.726
Weighted MatthewsCorrelation: 0.7257756526085148
Weighted FMeasure: 0.7300343700432499
Iteration time: 2761.0
Weighted AreaUnderPRC: 0.6525342090819918
Mean absolute error: 0.07125046153845323
Coverage of cases: 99.75
Instances selection time: 234.0
Test time: 431.0
Accumulative iteration time: 19318.0
Weighted Recall: 0.726
Weighted FalsePositiveRate: 0.010907753750765794
Kappa statistic: 0.7150321073012694
Training time: 2527.0
		
Iteration: 8
Labeled set size: 2140
Unlabelled set size: 7860
	
Mean region size: 78.7376923076895
Incorrectly Classified Instances: 27.15
Correctly Classified Instances: 72.85
Weighted Precision: 0.7607465160905565
Weighted AreaUnderROC: 0.9639898463852804
Root mean squared error: 0.18648275525198554
Relative absolute error: 96.32979200000217
Root relative squared error: 96.97103273103924
Weighted TruePositiveRate: 0.7285
Weighted MatthewsCorrelation: 0.7282094943151806
Weighted FMeasure: 0.7322714719414947
Iteration time: 2748.0
Weighted AreaUnderPRC: 0.6551411127595475
Mean absolute error: 0.07124984615383782
Coverage of cases: 99.72
Instances selection time: 229.0
Test time: 432.0
Accumulative iteration time: 22066.0
Weighted Recall: 0.7285
Weighted FalsePositiveRate: 0.010802991328088193
Kappa statistic: 0.7176343201578769
Training time: 2519.0
		
Iteration: 9
Labeled set size: 2160
Unlabelled set size: 7840
	
Mean region size: 78.72269230768943
Incorrectly Classified Instances: 27.05
Correctly Classified Instances: 72.95
Weighted Precision: 0.7611173055100614
Weighted AreaUnderROC: 0.9643826447230551
Root mean squared error: 0.186475807253761
Relative absolute error: 96.32620800000231
Root relative squared error: 96.9674197719625
Weighted TruePositiveRate: 0.7295
Weighted MatthewsCorrelation: 0.7290985774680736
Weighted FMeasure: 0.7333303643669459
Iteration time: 2700.0
Weighted AreaUnderPRC: 0.656447425843283
Mean absolute error: 0.07124719526626397
Coverage of cases: 99.71
Instances selection time: 226.0
Test time: 430.0
Accumulative iteration time: 24766.0
Weighted Recall: 0.7295
Weighted FalsePositiveRate: 0.010767452304050247
Kappa statistic: 0.7186732351040807
Training time: 2474.0
		
Iteration: 10
Labeled set size: 2180
Unlabelled set size: 7820
	
Mean region size: 78.71807692307402
Incorrectly Classified Instances: 26.94
Correctly Classified Instances: 73.06
Weighted Precision: 0.7648821260145838
Weighted AreaUnderROC: 0.9645213603144779
Root mean squared error: 0.1864753895689287
Relative absolute error: 96.32601600000227
Root relative squared error: 96.9672025758497
Weighted TruePositiveRate: 0.7306
Weighted MatthewsCorrelation: 0.7311425488502005
Weighted FMeasure: 0.7348374837869592
Iteration time: 2715.0
Weighted AreaUnderPRC: 0.6599657904708662
Mean absolute error: 0.07124705325442962
Coverage of cases: 99.69
Instances selection time: 223.0
Test time: 429.0
Accumulative iteration time: 27481.0
Weighted Recall: 0.7306
Weighted FalsePositiveRate: 0.010729276699929985
Kappa statistic: 0.719815476338495
Training time: 2492.0
		
Iteration: 11
Labeled set size: 2200
Unlabelled set size: 7800
	
Mean region size: 78.67423076922765
Incorrectly Classified Instances: 27.57
Correctly Classified Instances: 72.43
Weighted Precision: 0.7656056583889962
Weighted AreaUnderROC: 0.9646517232635541
Root mean squared error: 0.18648149657868612
Relative absolute error: 96.32822400000244
Root relative squared error: 96.97037822092355
Weighted TruePositiveRate: 0.7243
Weighted MatthewsCorrelation: 0.7271903062824192
Weighted FMeasure: 0.7300753938927111
Iteration time: 2943.0
Weighted AreaUnderPRC: 0.6596907736862078
Mean absolute error: 0.07124868639052441
Coverage of cases: 99.7
Instances selection time: 226.0
Test time: 430.0
Accumulative iteration time: 30424.0
Weighted Recall: 0.7243
Weighted FalsePositiveRate: 0.010959294799407226
Kappa statistic: 0.7132698763620123
Training time: 2717.0
		
Iteration: 12
Labeled set size: 2220
Unlabelled set size: 7780
	
Mean region size: 78.67923076922767
Incorrectly Classified Instances: 27.91
Correctly Classified Instances: 72.09
Weighted Precision: 0.7696778346099972
Weighted AreaUnderROC: 0.9647995979625219
Root mean squared error: 0.18648596438135093
Relative absolute error: 96.33024000000235
Root relative squared error: 96.97270147830926
Weighted TruePositiveRate: 0.7209
Weighted MatthewsCorrelation: 0.7266075899252794
Weighted FMeasure: 0.7286445765554072
Iteration time: 2842.0
Weighted AreaUnderPRC: 0.6622495683333219
Mean absolute error: 0.07125017751478471
Coverage of cases: 99.69
Instances selection time: 231.0
Test time: 430.0
Accumulative iteration time: 33266.0
Weighted Recall: 0.7209
Weighted FalsePositiveRate: 0.01106576361716786
Kappa statistic: 0.7097442223656688
Training time: 2611.0
		
Iteration: 13
Labeled set size: 2240
Unlabelled set size: 7760
	
Mean region size: 78.72115384615087
Incorrectly Classified Instances: 28.01
Correctly Classified Instances: 71.99
Weighted Precision: 0.7732381554298201
Weighted AreaUnderROC: 0.9647411856820026
Root mean squared error: 0.1864899451090155
Relative absolute error: 96.33238400000258
Root relative squared error: 96.97477145669484
Weighted TruePositiveRate: 0.7199
Weighted MatthewsCorrelation: 0.7270501793357286
Weighted FMeasure: 0.7281749773806896
Iteration time: 2843.0
Weighted AreaUnderPRC: 0.6636809520216541
Mean absolute error: 0.07125176331360145
Coverage of cases: 99.68
Instances selection time: 224.0
Test time: 429.0
Accumulative iteration time: 36109.0
Weighted Recall: 0.7199
Weighted FalsePositiveRate: 0.01110158096622249
Kappa statistic: 0.7087062027400253
Training time: 2619.0
		
Iteration: 14
Labeled set size: 2260
Unlabelled set size: 7740
	
Mean region size: 78.70384615384317
Incorrectly Classified Instances: 27.75
Correctly Classified Instances: 72.25
Weighted Precision: 0.7759172506664941
Weighted AreaUnderROC: 0.9648774189726879
Root mean squared error: 0.18649130428145624
Relative absolute error: 96.33260800000261
Root relative squared error: 96.97547822636402
Weighted TruePositiveRate: 0.7225
Weighted MatthewsCorrelation: 0.7290909203000341
Weighted FMeasure: 0.7294016431309644
Iteration time: 2860.0
Weighted AreaUnderPRC: 0.6647950655716788
Mean absolute error: 0.07125192899407484
Coverage of cases: 99.68
Instances selection time: 224.0
Test time: 431.0
Accumulative iteration time: 38969.0
Weighted Recall: 0.7225
Weighted FalsePositiveRate: 0.011002932027237754
Kappa statistic: 0.7114093997421591
Training time: 2636.0
		
Iteration: 15
Labeled set size: 2280
Unlabelled set size: 7720
	
Mean region size: 78.6980769230738
Incorrectly Classified Instances: 27.96
Correctly Classified Instances: 72.04
Weighted Precision: 0.7744218980892489
Weighted AreaUnderROC: 0.9644134042962352
Root mean squared error: 0.1865008775655661
Relative absolute error: 96.33769600000302
Root relative squared error: 96.98045633410113
Weighted TruePositiveRate: 0.7204
Weighted MatthewsCorrelation: 0.7267038138539549
Weighted FMeasure: 0.7265431980800066
Iteration time: 2914.0
Weighted AreaUnderPRC: 0.6608386662005795
Mean absolute error: 0.07125569230768461
Coverage of cases: 99.66
Instances selection time: 224.0
Test time: 430.0
Accumulative iteration time: 41883.0
Weighted Recall: 0.7204
Weighted FalsePositiveRate: 0.011085973090117648
Kappa statistic: 0.7092251412636991
Training time: 2690.0
		
Iteration: 16
Labeled set size: 2300
Unlabelled set size: 7700
	
Mean region size: 78.7811538461511
Incorrectly Classified Instances: 28.11
Correctly Classified Instances: 71.89
Weighted Precision: 0.7737469976910107
Weighted AreaUnderROC: 0.9643277036834955
Root mean squared error: 0.18650062003774912
Relative absolute error: 96.33827200000293
Root relative squared error: 96.98032241963632
Weighted TruePositiveRate: 0.7189
Weighted MatthewsCorrelation: 0.7248751418013515
Weighted FMeasure: 0.724160355927698
Iteration time: 2855.0
Weighted AreaUnderPRC: 0.6601551843231576
Mean absolute error: 0.0712561183431875
Coverage of cases: 99.65
Instances selection time: 223.0
Test time: 431.0
Accumulative iteration time: 44738.0
Weighted Recall: 0.7189
Weighted FalsePositiveRate: 0.011145135463695978
Kappa statistic: 0.7076647707584818
Training time: 2632.0
		
Iteration: 17
Labeled set size: 2320
Unlabelled set size: 7680
	
Mean region size: 78.7673076923048
Incorrectly Classified Instances: 28.28
Correctly Classified Instances: 71.72
Weighted Precision: 0.7754013433534167
Weighted AreaUnderROC: 0.9641210693586095
Root mean squared error: 0.18650101208905276
Relative absolute error: 96.33859200000315
Root relative squared error: 96.9805262863142
Weighted TruePositiveRate: 0.7172
Weighted MatthewsCorrelation: 0.7237897588751825
Weighted FMeasure: 0.7221213911898567
Iteration time: 2878.0
Weighted AreaUnderPRC: 0.6590418709864423
Mean absolute error: 0.0712563550295782
Coverage of cases: 99.64
Instances selection time: 223.0
Test time: 430.0
Accumulative iteration time: 47616.0
Weighted Recall: 0.7172
Weighted FalsePositiveRate: 0.011208868340700825
Kappa statistic: 0.7058977230212768
Training time: 2655.0
		
Iteration: 18
Labeled set size: 2340
Unlabelled set size: 7660
	
Mean region size: 78.7880769230742
Incorrectly Classified Instances: 28.31
Correctly Classified Instances: 71.69
Weighted Precision: 0.7718983985170695
Weighted AreaUnderROC: 0.9642679734511401
Root mean squared error: 0.18649136695818241
Relative absolute error: 96.33392000000354
Root relative squared error: 96.97551081826163
Weighted TruePositiveRate: 0.7169
Weighted MatthewsCorrelation: 0.7225085157625782
Weighted FMeasure: 0.721394513176083
Iteration time: 2908.0
Weighted AreaUnderPRC: 0.6573273027041792
Mean absolute error: 0.07125289940827671
Coverage of cases: 99.65
Instances selection time: 227.0
Test time: 433.0
Accumulative iteration time: 50524.0
Weighted Recall: 0.7169
Weighted FalsePositiveRate: 0.011217386225823838
Kappa statistic: 0.7055871815633139
Training time: 2681.0
		
Iteration: 19
Labeled set size: 2360
Unlabelled set size: 7640
	
Mean region size: 78.80269230768968
Incorrectly Classified Instances: 27.93
Correctly Classified Instances: 72.07
Weighted Precision: 0.7752419179090051
Weighted AreaUnderROC: 0.9643528606165704
Root mean squared error: 0.18649043090544612
Relative absolute error: 96.33331200000367
Root relative squared error: 96.97502407083876
Weighted TruePositiveRate: 0.7207
Weighted MatthewsCorrelation: 0.7255267758962511
Weighted FMeasure: 0.7236572515609724
Iteration time: 2919.0
Weighted AreaUnderPRC: 0.6604943253136816
Mean absolute error: 0.0712524497041348
Coverage of cases: 99.64
Instances selection time: 223.0
Test time: 436.0
Accumulative iteration time: 53443.0
Weighted Recall: 0.7207
Weighted FalsePositiveRate: 0.011068947685193864
Kappa statistic: 0.7095373036363496
Training time: 2696.0
		
Iteration: 20
Labeled set size: 2380
Unlabelled set size: 7620
	
Mean region size: 78.80076923076659
Incorrectly Classified Instances: 27.65
Correctly Classified Instances: 72.35
Weighted Precision: 0.775778898191907
Weighted AreaUnderROC: 0.9643949186402037
Root mean squared error: 0.1864895456147006
Relative absolute error: 96.33283200000368
Root relative squared error: 96.97456371965107
Weighted TruePositiveRate: 0.7235
Weighted MatthewsCorrelation: 0.7275183592487261
Weighted FMeasure: 0.725771694157995
Iteration time: 2889.0
Weighted AreaUnderPRC: 0.661734198223657
Mean absolute error: 0.071252094674549
Coverage of cases: 99.6
Instances selection time: 220.0
Test time: 433.0
Accumulative iteration time: 56332.0
Weighted Recall: 0.7235
Weighted FalsePositiveRate: 0.010960580818737534
Kappa statistic: 0.7124485883555219
Training time: 2669.0
		
Iteration: 21
Labeled set size: 2400
Unlabelled set size: 7600
	
Mean region size: 78.79999999999735
Incorrectly Classified Instances: 27.59
Correctly Classified Instances: 72.41
Weighted Precision: 0.7756123188613752
Weighted AreaUnderROC: 0.9644781346786935
Root mean squared error: 0.18648624848475778
Relative absolute error: 96.33136000000358
Root relative squared error: 96.9728492120808
Weighted TruePositiveRate: 0.7241
Weighted MatthewsCorrelation: 0.7274199186435447
Weighted FMeasure: 0.7253605314306916
Iteration time: 2867.0
Weighted AreaUnderPRC: 0.6628884115727721
Mean absolute error: 0.07125100591715249
Coverage of cases: 99.59
Instances selection time: 220.0
Test time: 430.0
Accumulative iteration time: 59199.0
Weighted Recall: 0.7241
Weighted FalsePositiveRate: 0.01093774817355421
Kappa statistic: 0.7130732828826936
Training time: 2647.0
		
Iteration: 22
Labeled set size: 2420
Unlabelled set size: 7580
	
Mean region size: 78.76230769230487
Incorrectly Classified Instances: 27.72
Correctly Classified Instances: 72.28
Weighted Precision: 0.773476433406124
Weighted AreaUnderROC: 0.9643340134657264
Root mean squared error: 0.18648667180779457
Relative absolute error: 96.33129600000349
Root relative squared error: 96.97306934005995
Weighted TruePositiveRate: 0.7228
Weighted MatthewsCorrelation: 0.7249897569862335
Weighted FMeasure: 0.7225630651974707
Iteration time: 2856.0
Weighted AreaUnderPRC: 0.6617645173921428
Mean absolute error: 0.0712509585798743
Coverage of cases: 99.59
Instances selection time: 221.0
Test time: 430.0
Accumulative iteration time: 62055.0
Weighted Recall: 0.7228
Weighted FalsePositiveRate: 0.010992529349263317
Kappa statistic: 0.7117200764503382
Training time: 2635.0
		
Iteration: 23
Labeled set size: 2440
Unlabelled set size: 7560
	
Mean region size: 78.76384615384339
Incorrectly Classified Instances: 27.46
Correctly Classified Instances: 72.54
Weighted Precision: 0.7717318968183572
Weighted AreaUnderROC: 0.9649210209160217
Root mean squared error: 0.18647386312696712
Relative absolute error: 96.3251520000035
Root relative squared error: 96.96640882602966
Weighted TruePositiveRate: 0.7254
Weighted MatthewsCorrelation: 0.7265949008804783
Weighted FMeasure: 0.7251022440327616
Iteration time: 2822.0
Weighted AreaUnderPRC: 0.6617921510488406
Mean absolute error: 0.07124641420117608
Coverage of cases: 99.61
Instances selection time: 219.0
Test time: 431.0
Accumulative iteration time: 64877.0
Weighted Recall: 0.7254
Weighted FalsePositiveRate: 0.010894496203628612
Kappa statistic: 0.7144230443838796
Training time: 2603.0
		
Iteration: 24
Labeled set size: 2460
Unlabelled set size: 7540
	
Mean region size: 78.77961538461271
Incorrectly Classified Instances: 27.52
Correctly Classified Instances: 72.48
Weighted Precision: 0.7691154806205645
Weighted AreaUnderROC: 0.9653270011388869
Root mean squared error: 0.18646447260760915
Relative absolute error: 96.32089600000373
Root relative squared error: 96.96152575596352
Weighted TruePositiveRate: 0.7248
Weighted MatthewsCorrelation: 0.7249958345557306
Weighted FMeasure: 0.7236207857733962
Iteration time: 2812.0
Weighted AreaUnderPRC: 0.6609622630812293
Mean absolute error: 0.07124326627218218
Coverage of cases: 99.61
Instances selection time: 222.0
Test time: 430.0
Accumulative iteration time: 67689.0
Weighted Recall: 0.7248
Weighted FalsePositiveRate: 0.010923162896106165
Kappa statistic: 0.7137967321993111
Training time: 2590.0
		
Iteration: 25
Labeled set size: 2480
Unlabelled set size: 7520
	
Mean region size: 78.79192307692045
Incorrectly Classified Instances: 27.73
Correctly Classified Instances: 72.27
Weighted Precision: 0.76500657386375
Weighted AreaUnderROC: 0.9654033981813929
Root mean squared error: 0.1864675553152681
Relative absolute error: 96.32246400000372
Root relative squared error: 96.96312876394619
Weighted TruePositiveRate: 0.7227
Weighted MatthewsCorrelation: 0.7213983865279044
Weighted FMeasure: 0.7199717813311975
Iteration time: 2832.0
Weighted AreaUnderPRC: 0.6604534253209958
Mean absolute error: 0.07124442603549579
Coverage of cases: 99.62
Instances selection time: 220.0
Test time: 433.0
Accumulative iteration time: 70521.0
Weighted Recall: 0.7227
Weighted FalsePositiveRate: 0.011011354154857827
Kappa statistic: 0.7116100630262532
Training time: 2612.0
		
Iteration: 26
Labeled set size: 2500
Unlabelled set size: 7500
	
Mean region size: 78.82653846153595
Incorrectly Classified Instances: 27.36
Correctly Classified Instances: 72.64
Weighted Precision: 0.7668887131018634
Weighted AreaUnderROC: 0.965684320739367
Root mean squared error: 0.18645818791295146
Relative absolute error: 96.31852800000374
Root relative squared error: 96.95825771474152
Weighted TruePositiveRate: 0.7264
Weighted MatthewsCorrelation: 0.7249097104544989
Weighted FMeasure: 0.7237617481892795
Iteration time: 2835.0
Weighted AreaUnderPRC: 0.6623967710296642
Mean absolute error: 0.07124151479289224
Coverage of cases: 99.63
Instances selection time: 218.0
Test time: 432.0
Accumulative iteration time: 73356.0
Weighted Recall: 0.7264
Weighted FalsePositiveRate: 0.01086868431304331
Kappa statistic: 0.715456597313511
Training time: 2617.0
		
Iteration: 27
Labeled set size: 2520
Unlabelled set size: 7480
	
Mean region size: 78.80538461538195
Incorrectly Classified Instances: 27.1
Correctly Classified Instances: 72.9
Weighted Precision: 0.7666326327408729
Weighted AreaUnderROC: 0.9658446199226697
Root mean squared error: 0.1864543211445196
Relative absolute error: 96.31660800000398
Root relative squared error: 96.95624699515696
Weighted TruePositiveRate: 0.729
Weighted MatthewsCorrelation: 0.7278011598301397
Weighted FMeasure: 0.7279200468463035
Iteration time: 2840.0
Weighted AreaUnderPRC: 0.6649236747327475
Mean absolute error: 0.07124009467454923
Coverage of cases: 99.63
Instances selection time: 216.0
Test time: 430.0
Accumulative iteration time: 76196.0
Weighted Recall: 0.729
Weighted FalsePositiveRate: 0.010766313608618749
Kappa statistic: 0.7181606707776036
Training time: 2624.0
		
Iteration: 28
Labeled set size: 2540
Unlabelled set size: 7460
	
Mean region size: 78.76461538461238
Incorrectly Classified Instances: 26.92
Correctly Classified Instances: 73.08
Weighted Precision: 0.7670002498881481
Weighted AreaUnderROC: 0.9658339859997889
Root mean squared error: 0.18645262872458193
Relative absolute error: 96.31561600000408
Root relative squared error: 96.95536693678937
Weighted TruePositiveRate: 0.7308
Weighted MatthewsCorrelation: 0.7301868342146
Weighted FMeasure: 0.7315652285105535
Iteration time: 2859.0
Weighted AreaUnderPRC: 0.6652244923202782
Mean absolute error: 0.07123936094673866
Coverage of cases: 99.65
Instances selection time: 217.0
Test time: 432.0
Accumulative iteration time: 79055.0
Weighted Recall: 0.7308
Weighted FalsePositiveRate: 0.010691855685845252
Kappa statistic: 0.7200356740278426
Training time: 2642.0
		
Iteration: 29
Labeled set size: 2560
Unlabelled set size: 7440
	
Mean region size: 78.77115384615087
Incorrectly Classified Instances: 26.95
Correctly Classified Instances: 73.05
Weighted Precision: 0.76601451911149
Weighted AreaUnderROC: 0.9657477816267372
Root mean squared error: 0.18645535834466975
Relative absolute error: 96.31692800000427
Root relative squared error: 96.95678633923504
Weighted TruePositiveRate: 0.7305
Weighted MatthewsCorrelation: 0.7290978277912402
Weighted FMeasure: 0.7300305692861654
Iteration time: 2937.0
Weighted AreaUnderPRC: 0.6633995718426619
Mean absolute error: 0.07124033136093998
Coverage of cases: 99.64
Instances selection time: 216.0
Test time: 433.0
Accumulative iteration time: 81992.0
Weighted Recall: 0.7305
Weighted FalsePositiveRate: 0.010714053208071936
Kappa statistic: 0.7197190551168786
Training time: 2721.0
		
Iteration: 30
Labeled set size: 2580
Unlabelled set size: 7420
	
Mean region size: 78.77307692307397
Incorrectly Classified Instances: 26.87
Correctly Classified Instances: 73.13
Weighted Precision: 0.7643134045557345
Weighted AreaUnderROC: 0.9658316215899393
Root mean squared error: 0.18645392450328396
Relative absolute error: 96.31632000000437
Root relative squared error: 96.95604074171443
Weighted TruePositiveRate: 0.7313
Weighted MatthewsCorrelation: 0.729380803859287
Weighted FMeasure: 0.7310869911178794
Iteration time: 2990.0
Weighted AreaUnderPRC: 0.6632463379404238
Mean absolute error: 0.07123988165679804
Coverage of cases: 99.65
Instances selection time: 219.0
Test time: 433.0
Accumulative iteration time: 84982.0
Weighted Recall: 0.7313
Weighted FalsePositiveRate: 0.010680175446527048
Kappa statistic: 0.7205520838343747
Training time: 2771.0
		
Iteration: 31
Labeled set size: 2600
Unlabelled set size: 7400
	
Mean region size: 78.76038461538164
Incorrectly Classified Instances: 26.21
Correctly Classified Instances: 73.79
Weighted Precision: 0.7665747695634917
Weighted AreaUnderROC: 0.9658352108559298
Root mean squared error: 0.18644979672835646
Relative absolute error: 96.3144320000045
Root relative squared error: 96.95389429875213
Weighted TruePositiveRate: 0.7379
Weighted MatthewsCorrelation: 0.7351124737730027
Weighted FMeasure: 0.7378049875711296
Iteration time: 2977.0
Weighted AreaUnderPRC: 0.6674600896623022
Mean absolute error: 0.07123848520709399
Coverage of cases: 99.66
Instances selection time: 220.0
Test time: 420.0
Accumulative iteration time: 87959.0
Weighted Recall: 0.7379
Weighted FalsePositiveRate: 0.010418436635443567
Kappa statistic: 0.7274161753259161
Training time: 2757.0
		
Iteration: 32
Labeled set size: 2620
Unlabelled set size: 7380
	
Mean region size: 78.78423076922786
Incorrectly Classified Instances: 26.39
Correctly Classified Instances: 73.61
Weighted Precision: 0.7660677722681141
Weighted AreaUnderROC: 0.966177659830131
Root mean squared error: 0.1864405227674858
Relative absolute error: 96.31001600000452
Root relative squared error: 96.94907183909937
Weighted TruePositiveRate: 0.7361
Weighted MatthewsCorrelation: 0.7335879133527292
Weighted FMeasure: 0.7360227652134596
Iteration time: 2990.0
Weighted AreaUnderPRC: 0.6668810059730557
Mean absolute error: 0.07123521893490466
Coverage of cases: 99.65
Instances selection time: 214.0
Test time: 430.0
Accumulative iteration time: 90949.0
Weighted Recall: 0.7361
Weighted FalsePositiveRate: 0.010486183524200676
Kappa statistic: 0.7255465770078605
Training time: 2776.0
		
Iteration: 33
Labeled set size: 2640
Unlabelled set size: 7360
	
Mean region size: 78.80807692307411
Incorrectly Classified Instances: 26.34
Correctly Classified Instances: 73.66
Weighted Precision: 0.7667049845445035
Weighted AreaUnderROC: 0.966324512452196
Root mean squared error: 0.18643533180415342
Relative absolute error: 96.30761600000446
Root relative squared error: 96.94637253816654
Weighted TruePositiveRate: 0.7366
Weighted MatthewsCorrelation: 0.7340606429356711
Weighted FMeasure: 0.7363552060381707
Iteration time: 3165.0
Weighted AreaUnderPRC: 0.6678930149604237
Mean absolute error: 0.07123344378697562
Coverage of cases: 99.67
Instances selection time: 217.0
Test time: 422.0
Accumulative iteration time: 94114.0
Weighted Recall: 0.7366
Weighted FalsePositiveRate: 0.010467559737516657
Kappa statistic: 0.7260665094499202
Training time: 2948.0
		
Iteration: 34
Labeled set size: 2660
Unlabelled set size: 7340
	
Mean region size: 78.80461538461249
Incorrectly Classified Instances: 25.83
Correctly Classified Instances: 74.17
Weighted Precision: 0.7685739464981972
Weighted AreaUnderROC: 0.9671593363706533
Root mean squared error: 0.1864163491240926
Relative absolute error: 96.29836800000393
Root relative squared error: 96.93650154453492
Weighted TruePositiveRate: 0.7417
Weighted MatthewsCorrelation: 0.7388443959215762
Weighted FMeasure: 0.7421307027938581
Iteration time: 3017.0
Weighted AreaUnderPRC: 0.6707940329087488
Mean absolute error: 0.07122660355028884
Coverage of cases: 99.67
Instances selection time: 218.0
Test time: 422.0
Accumulative iteration time: 97131.0
Weighted Recall: 0.7417
Weighted FalsePositiveRate: 0.010259732687560993
Kappa statistic: 0.7313724415955017
Training time: 2799.0
		
Iteration: 35
Labeled set size: 2680
Unlabelled set size: 7320
	
Mean region size: 78.81538461538176
Incorrectly Classified Instances: 25.6
Correctly Classified Instances: 74.4
Weighted Precision: 0.7686690116583259
Weighted AreaUnderROC: 0.9675097594949208
Root mean squared error: 0.18640981550672361
Relative absolute error: 96.29520000000399
Root relative squared error: 96.93310406350304
Weighted TruePositiveRate: 0.744
Weighted MatthewsCorrelation: 0.7404403752381173
Weighted FMeasure: 0.743987069958374
Iteration time: 3036.0
Weighted AreaUnderPRC: 0.6713971255380102
Mean absolute error: 0.0712242603550226
Coverage of cases: 99.68
Instances selection time: 216.0
Test time: 420.0
Accumulative iteration time: 100167.0
Weighted Recall: 0.744
Weighted FalsePositiveRate: 0.01016469049764538
Kappa statistic: 0.7337649004297367
Training time: 2820.0
		
Iteration: 36
Labeled set size: 2700
Unlabelled set size: 7300
	
Mean region size: 78.82692307692022
Incorrectly Classified Instances: 25.36
Correctly Classified Instances: 74.64
Weighted Precision: 0.7723437393525489
Weighted AreaUnderROC: 0.9676486773596814
Root mean squared error: 0.18640361687520984
Relative absolute error: 96.29235200000392
Root relative squared error: 96.92988077511588
Weighted TruePositiveRate: 0.7464
Weighted MatthewsCorrelation: 0.7435105197971956
Weighted FMeasure: 0.7468964509248207
Iteration time: 3015.0
Weighted AreaUnderPRC: 0.673854726040629
Mean absolute error: 0.07122215384614682
Coverage of cases: 99.72
Instances selection time: 219.0
Test time: 421.0
Accumulative iteration time: 103182.0
Weighted Recall: 0.7464
Weighted FalsePositiveRate: 0.010071650785335421
Kappa statistic: 0.7362599877489852
Training time: 2796.0
		
Iteration: 37
Labeled set size: 2720
Unlabelled set size: 7280
	
Mean region size: 78.8338461538434
Incorrectly Classified Instances: 25.18
Correctly Classified Instances: 74.82
Weighted Precision: 0.7741004911453178
Weighted AreaUnderROC: 0.9680869386715145
Root mean squared error: 0.18639609373501378
Relative absolute error: 96.28860800000373
Root relative squared error: 96.92596874221394
Weighted TruePositiveRate: 0.7482
Weighted MatthewsCorrelation: 0.7453270289245715
Weighted FMeasure: 0.7486214413116818
Iteration time: 2991.0
Weighted AreaUnderPRC: 0.6769890512139247
Mean absolute error: 0.07121938461537745
Coverage of cases: 99.76
Instances selection time: 215.0
Test time: 419.0
Accumulative iteration time: 106173.0
Weighted Recall: 0.7482
Weighted FalsePositiveRate: 0.00999910486799614
Kappa statistic: 0.7381321282946238
Training time: 2776.0
		
Iteration: 38
Labeled set size: 2740
Unlabelled set size: 7260
	
Mean region size: 78.85923076922806
Incorrectly Classified Instances: 25.38
Correctly Classified Instances: 74.62
Weighted Precision: 0.773376730477033
Weighted AreaUnderROC: 0.9683010408674527
Root mean squared error: 0.1863893933505148
Relative absolute error: 96.28579200000355
Root relative squared error: 96.92248454227446
Weighted TruePositiveRate: 0.7462
Weighted MatthewsCorrelation: 0.743335365052534
Weighted FMeasure: 0.7461081655837319
Iteration time: 2982.0
Weighted AreaUnderPRC: 0.6761552409461493
Mean absolute error: 0.07121730177514063
Coverage of cases: 99.77
Instances selection time: 215.0
Test time: 421.0
Accumulative iteration time: 109155.0
Weighted Recall: 0.7462
Weighted FalsePositiveRate: 0.010079060705244601
Kappa statistic: 0.736052034814175
Training time: 2767.0
		
Iteration: 39
Labeled set size: 2760
Unlabelled set size: 7240
	
Mean region size: 78.89923076922825
Incorrectly Classified Instances: 25.54
Correctly Classified Instances: 74.46
Weighted Precision: 0.7728051658408043
Weighted AreaUnderROC: 0.9682042525495151
Root mean squared error: 0.18638730551165292
Relative absolute error: 96.28502400000332
Root relative squared error: 96.92139886606628
Weighted TruePositiveRate: 0.7446
Weighted MatthewsCorrelation: 0.742449779532685
Weighted FMeasure: 0.7455700814576377
Iteration time: 3063.0
Weighted AreaUnderPRC: 0.6747900503233041
Mean absolute error: 0.07121673372780318
Coverage of cases: 99.76
Instances selection time: 214.0
Test time: 442.0
Accumulative iteration time: 112218.0
Weighted Recall: 0.7446
Weighted FalsePositiveRate: 0.010140189060562032
Kappa statistic: 0.7343891320269467
Training time: 2849.0
		
Iteration: 40
Labeled set size: 2780
Unlabelled set size: 7220
	
Mean region size: 78.8703846153821
Incorrectly Classified Instances: 25.32
Correctly Classified Instances: 74.68
Weighted Precision: 0.774382340809682
Weighted AreaUnderROC: 0.9684241775818695
Root mean squared error: 0.18638502990280803
Relative absolute error: 96.28393600000344
Root relative squared error: 96.92021554946693
Weighted TruePositiveRate: 0.7468
Weighted MatthewsCorrelation: 0.7443166114205042
Weighted FMeasure: 0.7472446985048545
Iteration time: 3094.0
Weighted AreaUnderPRC: 0.6763002600958112
Mean absolute error: 0.07121592899407546
Coverage of cases: 99.75
Instances selection time: 213.0
Test time: 420.0
Accumulative iteration time: 115312.0
Weighted Recall: 0.7468
Weighted FalsePositiveRate: 0.010055259912312372
Kappa statistic: 0.7366755679407246
Training time: 2881.0
		
Iteration: 41
Labeled set size: 2800
Unlabelled set size: 7200
	
Mean region size: 78.86153846153589
Incorrectly Classified Instances: 25.2
Correctly Classified Instances: 74.8
Weighted Precision: 0.7752003080356383
Weighted AreaUnderROC: 0.9687604862490613
Root mean squared error: 0.18638103599363545
Relative absolute error: 96.28195200000343
Root relative squared error: 96.9181387166972
Weighted TruePositiveRate: 0.748
Weighted MatthewsCorrelation: 0.7453786273203735
Weighted FMeasure: 0.7482581660702239
Iteration time: 3050.0
Weighted AreaUnderPRC: 0.6770787184024094
Mean absolute error: 0.07121446153845415
Coverage of cases: 99.75
Instances selection time: 214.0
Test time: 431.0
Accumulative iteration time: 118362.0
Weighted Recall: 0.748
Weighted FalsePositiveRate: 0.01000611295948157
Kappa statistic: 0.7379242951063124
Training time: 2836.0
		
Iteration: 42
Labeled set size: 2820
Unlabelled set size: 7180
	
Mean region size: 78.89384615384357
Incorrectly Classified Instances: 25.1
Correctly Classified Instances: 74.9
Weighted Precision: 0.7752766956918282
Weighted AreaUnderROC: 0.9690616098851177
Root mean squared error: 0.18637382591418222
Relative absolute error: 96.27875200000332
Root relative squared error: 96.91438947538153
Weighted TruePositiveRate: 0.749
Weighted MatthewsCorrelation: 0.746115293812411
Weighted FMeasure: 0.7491410124734144
Iteration time: 3055.0
Weighted AreaUnderPRC: 0.6781678171256693
Mean absolute error: 0.07121209467454874
Coverage of cases: 99.77
Instances selection time: 213.0
Test time: 419.0
Accumulative iteration time: 121417.0
Weighted Recall: 0.749
Weighted FalsePositiveRate: 0.009967141916147232
Kappa statistic: 0.7389638138430942
Training time: 2842.0
		
Iteration: 43
Labeled set size: 2840
Unlabelled set size: 7160
	
Mean region size: 78.92076923076681
Incorrectly Classified Instances: 24.72
Correctly Classified Instances: 75.28
Weighted Precision: 0.7760592194958785
Weighted AreaUnderROC: 0.9693106862319976
Root mean squared error: 0.18636304172961107
Relative absolute error: 96.2736640000029
Root relative squared error: 96.90878169940453
Weighted TruePositiveRate: 0.7528
Weighted MatthewsCorrelation: 0.7495837015436825
Weighted FMeasure: 0.7535471425337726
Iteration time: 3065.0
Weighted AreaUnderPRC: 0.6811993260121139
Mean absolute error: 0.07120833136093896
Coverage of cases: 99.78
Instances selection time: 212.0
Test time: 421.0
Accumulative iteration time: 124482.0
Weighted Recall: 0.7528
Weighted FalsePositiveRate: 0.009814210455152843
Kappa statistic: 0.7429176062471771
Training time: 2853.0
		
Iteration: 44
Labeled set size: 2860
Unlabelled set size: 7140
	
Mean region size: 78.93615384615151
Incorrectly Classified Instances: 25.07
Correctly Classified Instances: 74.93
Weighted Precision: 0.7728550227697563
Weighted AreaUnderROC: 0.9697367324021705
Root mean squared error: 0.18635554469776175
Relative absolute error: 96.27030400000275
Root relative squared error: 96.90488324284287
Weighted TruePositiveRate: 0.7493
Weighted MatthewsCorrelation: 0.7458958145420598
Weighted FMeasure: 0.7497966337749269
Iteration time: 3069.0
Weighted AreaUnderPRC: 0.676991924915311
Mean absolute error: 0.07120584615383826
Coverage of cases: 99.81
Instances selection time: 214.0
Test time: 444.0
Accumulative iteration time: 127551.0
Weighted Recall: 0.7493
Weighted FalsePositiveRate: 0.009959760982538892
Kappa statistic: 0.7392763678508646
Training time: 2855.0
		
Iteration: 45
Labeled set size: 2880
Unlabelled set size: 7120
	
Mean region size: 78.94923076922834
Incorrectly Classified Instances: 25.13
Correctly Classified Instances: 74.87
Weighted Precision: 0.770880826952266
Weighted AreaUnderROC: 0.9699284886878635
Root mean squared error: 0.18634910098364996
Relative absolute error: 96.26723200000283
Root relative squared error: 96.90153251150473
Weighted TruePositiveRate: 0.7487
Weighted MatthewsCorrelation: 0.7445727654064215
Weighted FMeasure: 0.7484938241116457
Iteration time: 3078.0
Weighted AreaUnderPRC: 0.6760145608025424
Mean absolute error: 0.07120357396448922
Coverage of cases: 99.82
Instances selection time: 210.0
Test time: 419.0
Accumulative iteration time: 130629.0
Weighted Recall: 0.7487
Weighted FalsePositiveRate: 0.009984813303015096
Kappa statistic: 0.7386511579303285
Training time: 2868.0
		
Iteration: 46
Labeled set size: 2900
Unlabelled set size: 7100
	
Mean region size: 78.96423076922842
Incorrectly Classified Instances: 24.84
Correctly Classified Instances: 75.16
Weighted Precision: 0.7721290921594924
Weighted AreaUnderROC: 0.9701075456552073
Root mean squared error: 0.18634234224031476
Relative absolute error: 96.26416000000242
Root relative squared error: 96.89801796497045
Weighted TruePositiveRate: 0.7516
Weighted MatthewsCorrelation: 0.7472272377319321
Weighted FMeasure: 0.751563268944273
Iteration time: 3032.0
Weighted AreaUnderPRC: 0.6768928531176199
Mean absolute error: 0.0712013017751398
Coverage of cases: 99.82
Instances selection time: 209.0
Test time: 420.0
Accumulative iteration time: 133661.0
Weighted Recall: 0.7516
Weighted FalsePositiveRate: 0.009866424691786389
Kappa statistic: 0.741669523312256
Training time: 2823.0
		
Time end:Tue Oct 31 20.57.22 EET 2017