Thu Nov 30 22.33.05 EET 2017
Dataset: segment
Test set size: 1155
Initial Labelled set size: 231
Initial Unlabelled set size: 924
Batch mode: QBestBatchMode
Batch size: 20
Classifiers: SMOsync-1cores
Scenario: PoolBasedSamplingScenario
Query strategy: KullbackLeiblerDivergenceQueryStrategy-1cores
Time begining: Thu Nov 30 22.33.05 EET 2017
		
Iteration: 1
Labeled set size: 231
Unlabelled set size: 924
	
Mean region size: 23.186147186146947
Incorrectly Classified Instances: 12.242424242424242
Correctly Classified Instances: 87.75757575757575
Weighted Precision: 0.8822787488469418
Weighted AreaUnderROC: 0.9825535878263152
Root mean squared error: 0.15838673045584226
Relative absolute error: 19.972702722067016
Root relative squared error: 45.262778358530696
Weighted TruePositiveRate: 0.8775757575757576
Weighted MatthewsCorrelation: 0.8587444691017584
Weighted FMeasure: 0.8773660683532537
Iteration time: 1229.3
Weighted AreaUnderPRC: 0.9202361560257903
Mean absolute error: 0.04891274136016433
Coverage of cases: 97.84415584415584
Instances selection time: 961.1
Test time: 611.6
Accumulative iteration time: 1229.3
Weighted Recall: 0.8775757575757576
Weighted FalsePositiveRate: 0.020404040404040404
Kappa statistic: 0.857171717171717
Training time: 268.2
		
Iteration: 2
Labeled set size: 251
Unlabelled set size: 904
	
Mean region size: 23.09338280766827
Incorrectly Classified Instances: 11.653679653679655
Correctly Classified Instances: 88.34632034632035
Weighted Precision: 0.8900076386885466
Weighted AreaUnderROC: 0.98432917923827
Root mean squared error: 0.15412960562035138
Relative absolute error: 19.297573517932666
Root relative squared error: 44.04620360306442
Weighted TruePositiveRate: 0.8834632034632035
Weighted MatthewsCorrelation: 0.8662858852514999
Weighted FMeasure: 0.8834317780452787
Iteration time: 1180.6
Weighted AreaUnderPRC: 0.9268822946055252
Mean absolute error: 0.047259363717386316
Coverage of cases: 98.0952380952381
Instances selection time: 945.4
Test time: 653.5
Accumulative iteration time: 2409.9
Weighted Recall: 0.8834632034632035
Weighted FalsePositiveRate: 0.019422799422799418
Kappa statistic: 0.8640404040404039
Training time: 235.2
		
Iteration: 3
Labeled set size: 271
Unlabelled set size: 884
	
Mean region size: 22.857142857142616
Incorrectly Classified Instances: 11.696969696969699
Correctly Classified Instances: 88.30303030303028
Weighted Precision: 0.8909524041968959
Weighted AreaUnderROC: 0.9848400892037255
Root mean squared error: 0.153622385712718
Relative absolute error: 18.936785614085846
Root relative squared error: 43.901253440938
Weighted TruePositiveRate: 0.883030303030303
Weighted MatthewsCorrelation: 0.8661427827121584
Weighted FMeasure: 0.8825951457142249
Iteration time: 1170.7
Weighted AreaUnderPRC: 0.9287965791267359
Mean absolute error: 0.04637580150388391
Coverage of cases: 97.95670995670994
Instances selection time: 952.3
Test time: 612.1
Accumulative iteration time: 3580.6
Weighted Recall: 0.883030303030303
Weighted FalsePositiveRate: 0.01949494949494949
Kappa statistic: 0.8635353535353534
Training time: 218.4
		
Iteration: 4
Labeled set size: 291
Unlabelled set size: 864
	
Mean region size: 22.844774273345458
Incorrectly Classified Instances: 11.878787878787879
Correctly Classified Instances: 88.12121212121211
Weighted Precision: 0.8927481537059354
Weighted AreaUnderROC: 0.9848327430145613
Root mean squared error: 0.1551230356858979
Relative absolute error: 19.072376449453724
Root relative squared error: 44.330099891232734
Weighted TruePositiveRate: 0.8812121212121211
Weighted MatthewsCorrelation: 0.8652633457080426
Weighted FMeasure: 0.8807305895369051
Iteration time: 1152.5
Weighted AreaUnderPRC: 0.9287732230832602
Mean absolute error: 0.04670786069253992
Coverage of cases: 97.99999999999999
Instances selection time: 915.6
Test time: 603.4
Accumulative iteration time: 4733.1
Weighted Recall: 0.8812121212121211
Weighted FalsePositiveRate: 0.019797979797979797
Kappa statistic: 0.8614141414141414
Training time: 236.9
		
Iteration: 5
Labeled set size: 311
Unlabelled set size: 844
	
Mean region size: 22.565244279529754
Incorrectly Classified Instances: 11.982683982683982
Correctly Classified Instances: 88.01731601731602
Weighted Precision: 0.8926205242423688
Weighted AreaUnderROC: 0.9848525952162314
Root mean squared error: 0.15591937599510874
Relative absolute error: 18.936511794980845
Root relative squared error: 44.5576730901367
Weighted TruePositiveRate: 0.8801731601731604
Weighted MatthewsCorrelation: 0.8641352063199529
Weighted FMeasure: 0.8789871686993702
Iteration time: 1133.5
Weighted AreaUnderPRC: 0.928388637541324
Mean absolute error: 0.046375130926483904
Coverage of cases: 97.86147186147186
Instances selection time: 906.6
Test time: 610.3
Accumulative iteration time: 5866.6
Weighted Recall: 0.8801731601731604
Weighted FalsePositiveRate: 0.019971139971139973
Kappa statistic: 0.8602020202020201
Training time: 226.9
		
Iteration: 6
Labeled set size: 331
Unlabelled set size: 824
	
Mean region size: 22.275819418676335
Incorrectly Classified Instances: 12.155844155844159
Correctly Classified Instances: 87.84415584415584
Weighted Precision: 0.8931448249022053
Weighted AreaUnderROC: 0.9848086929905113
Root mean squared error: 0.15657485758877449
Relative absolute error: 18.819917583212135
Root relative squared error: 44.7449925581679
Weighted TruePositiveRate: 0.8784415584415584
Weighted MatthewsCorrelation: 0.8629131710850857
Weighted FMeasure: 0.8772452817666176
Iteration time: 1126.5
Weighted AreaUnderPRC: 0.9284445875622561
Mean absolute error: 0.04608959408133604
Coverage of cases: 97.61904761904762
Instances selection time: 899.2
Test time: 619.8
Accumulative iteration time: 6993.1
Weighted Recall: 0.8784415584415584
Weighted FalsePositiveRate: 0.020259740259740262
Kappa statistic: 0.8581818181818182
Training time: 227.3
		
Iteration: 7
Labeled set size: 351
Unlabelled set size: 804
	
Mean region size: 22.244897959183454
Incorrectly Classified Instances: 11.861471861471863
Correctly Classified Instances: 88.13852813852813
Weighted Precision: 0.896068896561717
Weighted AreaUnderROC: 0.9855706852070488
Root mean squared error: 0.1554121399906613
Relative absolute error: 18.60754348549559
Root relative squared error: 44.41271832796254
Weighted TruePositiveRate: 0.8813852813852814
Weighted MatthewsCorrelation: 0.8661774192280005
Weighted FMeasure: 0.8797244954158743
Iteration time: 1168.3
Weighted AreaUnderPRC: 0.9312863057495768
Mean absolute error: 0.04556949425019348
Coverage of cases: 97.84415584415584
Instances selection time: 926.3
Test time: 607.6
Accumulative iteration time: 8161.4
Weighted Recall: 0.8813852813852814
Weighted FalsePositiveRate: 0.01976911976911977
Kappa statistic: 0.8616161616161616
Training time: 242.0
		
Iteration: 8
Labeled set size: 371
Unlabelled set size: 784
	
Mean region size: 22.273345701916917
Incorrectly Classified Instances: 12.190476190476192
Correctly Classified Instances: 87.80952380952381
Weighted Precision: 0.895029446956643
Weighted AreaUnderROC: 0.9855538064628974
Root mean squared error: 0.15621133743946095
Relative absolute error: 18.747659475680116
Root relative squared error: 44.64110802251341
Weighted TruePositiveRate: 0.878095238095238
Weighted MatthewsCorrelation: 0.8629650386992406
Weighted FMeasure: 0.8759648235059361
Iteration time: 1099.8
Weighted AreaUnderPRC: 0.9309944576109137
Mean absolute error: 0.04591263545064538
Coverage of cases: 97.88744588744589
Instances selection time: 859.8
Test time: 613.2
Accumulative iteration time: 9261.2
Weighted Recall: 0.878095238095238
Weighted FalsePositiveRate: 0.020317460317460317
Kappa statistic: 0.8577777777777775
Training time: 240.0
		
Iteration: 9
Labeled set size: 391
Unlabelled set size: 764
	
Mean region size: 22.31787260358667
Incorrectly Classified Instances: 12.129870129870131
Correctly Classified Instances: 87.87012987012986
Weighted Precision: 0.8953171459713578
Weighted AreaUnderROC: 0.9854732607459882
Root mean squared error: 0.15605108740363902
Relative absolute error: 18.775680904491463
Root relative squared error: 44.59531276029366
Weighted TruePositiveRate: 0.8787012987012988
Weighted MatthewsCorrelation: 0.8635372191626326
Weighted FMeasure: 0.876495582263934
Iteration time: 1057.4
Weighted AreaUnderPRC: 0.9310528802976746
Mean absolute error: 0.04598125935793846
Coverage of cases: 97.88744588744588
Instances selection time: 825.4
Test time: 609.6
Accumulative iteration time: 10318.6
Weighted Recall: 0.8787012987012988
Weighted FalsePositiveRate: 0.020216450216450216
Kappa statistic: 0.8584848484848484
Training time: 232.0
		
Iteration: 10
Labeled set size: 411
Unlabelled set size: 744
	
Mean region size: 22.30303030303009
Incorrectly Classified Instances: 12.051948051948052
Correctly Classified Instances: 87.94805194805195
Weighted Precision: 0.8960237235380394
Weighted AreaUnderROC: 0.9853912283003192
Root mean squared error: 0.15585500257245033
Relative absolute error: 18.731389536072413
Root relative squared error: 44.539276852310586
Weighted TruePositiveRate: 0.8794805194805194
Weighted MatthewsCorrelation: 0.8645386588465428
Weighted FMeasure: 0.877652047177871
Iteration time: 1023.9
Weighted AreaUnderPRC: 0.9307741686790504
Mean absolute error: 0.04587279070058571
Coverage of cases: 97.86147186147186
Instances selection time: 792.4
Test time: 612.0
Accumulative iteration time: 11342.5
Weighted Recall: 0.8794805194805194
Weighted FalsePositiveRate: 0.020086580086580087
Kappa statistic: 0.8593939393939394
Training time: 231.5
		
Iteration: 11
Labeled set size: 431
Unlabelled set size: 724
	
Mean region size: 22.341372912801273
Incorrectly Classified Instances: 12.1991341991342
Correctly Classified Instances: 87.8008658008658
Weighted Precision: 0.8947847768267223
Weighted AreaUnderROC: 0.9852833967379423
Root mean squared error: 0.15619676172465446
Relative absolute error: 18.806567964519886
Root relative squared error: 44.63694266505697
Weighted TruePositiveRate: 0.878008658008658
Weighted MatthewsCorrelation: 0.8627914886411272
Weighted FMeasure: 0.8758402276314717
Iteration time: 1020.8
Weighted AreaUnderPRC: 0.9303446328672106
Mean absolute error: 0.04605690113759992
Coverage of cases: 97.9047619047619
Instances selection time: 786.0
Test time: 615.3
Accumulative iteration time: 12363.3
Weighted Recall: 0.878008658008658
Weighted FalsePositiveRate: 0.020331890331890333
Kappa statistic: 0.8576767676767677
Training time: 234.8
		
Iteration: 12
Labeled set size: 451
Unlabelled set size: 704
	
Mean region size: 22.346320346320134
Incorrectly Classified Instances: 12.199134199134198
Correctly Classified Instances: 87.80086580086581
Weighted Precision: 0.8949359100153023
Weighted AreaUnderROC: 0.9852839214657397
Root mean squared error: 0.1563827875746371
Relative absolute error: 18.840951507172857
Root relative squared error: 44.690103979723226
Weighted TruePositiveRate: 0.8780086580086579
Weighted MatthewsCorrelation: 0.862844858675339
Weighted FMeasure: 0.8758451101968191
Iteration time: 997.4
Weighted AreaUnderPRC: 0.9304064081053411
Mean absolute error: 0.04614110573185209
Coverage of cases: 97.91341991341992
Instances selection time: 751.3
Test time: 618.1
Accumulative iteration time: 13360.7
Weighted Recall: 0.8780086580086579
Weighted FalsePositiveRate: 0.02033189033189033
Kappa statistic: 0.8576767676767675
Training time: 246.1
		
Iteration: 13
Labeled set size: 471
Unlabelled set size: 684
	
Mean region size: 22.298082869511234
Incorrectly Classified Instances: 12.112554112554113
Correctly Classified Instances: 87.88744588744588
Weighted Precision: 0.8952234641409026
Weighted AreaUnderROC: 0.9851716297170843
Root mean squared error: 0.15624818693007284
Relative absolute error: 18.84602065905704
Root relative squared error: 44.65163864159615
Weighted TruePositiveRate: 0.8788744588744588
Weighted MatthewsCorrelation: 0.8636729725384912
Weighted FMeasure: 0.8767548247071767
Iteration time: 966.3
Weighted AreaUnderPRC: 0.930116991000768
Mean absolute error: 0.04615351998136437
Coverage of cases: 97.87878787878788
Instances selection time: 710.8
Test time: 643.9
Accumulative iteration time: 14327.0
Weighted Recall: 0.8788744588744588
Weighted FalsePositiveRate: 0.02018759018759018
Kappa statistic: 0.8586868686868687
Training time: 255.5
		
Iteration: 14
Labeled set size: 491
Unlabelled set size: 664
	
Mean region size: 22.337662337662127
Incorrectly Classified Instances: 12.13852813852814
Correctly Classified Instances: 87.86147186147186
Weighted Precision: 0.895499727379755
Weighted AreaUnderROC: 0.9850853119944029
Root mean squared error: 0.1564262755248496
Relative absolute error: 18.88526987487723
Root relative squared error: 44.70253169665426
Weighted TruePositiveRate: 0.8786147186147186
Weighted MatthewsCorrelation: 0.8635407705088575
Weighted FMeasure: 0.8764964707165696
Iteration time: 935.5
Weighted AreaUnderPRC: 0.9300730286924745
Mean absolute error: 0.046249640509903635
Coverage of cases: 97.92207792207793
Instances selection time: 691.7
Test time: 642.4
Accumulative iteration time: 15262.5
Weighted Recall: 0.8786147186147186
Weighted FalsePositiveRate: 0.02023088023088023
Kappa statistic: 0.8583838383838381
Training time: 243.8
		
Iteration: 15
Labeled set size: 511
Unlabelled set size: 644
	
Mean region size: 22.314162028447537
Incorrectly Classified Instances: 12.155844155844154
Correctly Classified Instances: 87.84415584415584
Weighted Precision: 0.8949520053151762
Weighted AreaUnderROC: 0.9851816869998687
Root mean squared error: 0.15594270007439015
Relative absolute error: 18.769600007728343
Root relative squared error: 44.564338500982004
Weighted TruePositiveRate: 0.8784415584415586
Weighted MatthewsCorrelation: 0.8631677693551685
Weighted FMeasure: 0.8761534277149539
Iteration time: 927.5
Weighted AreaUnderPRC: 0.9301215803001188
Mean absolute error: 0.045966367365865526
Coverage of cases: 97.96536796536796
Instances selection time: 684.7
Test time: 624.9
Accumulative iteration time: 16190.0
Weighted Recall: 0.8784415584415586
Weighted FalsePositiveRate: 0.020259740259740262
Kappa statistic: 0.8581818181818182
Training time: 242.8
		
Iteration: 16
Labeled set size: 531
Unlabelled set size: 624
	
Mean region size: 22.251082251082046
Incorrectly Classified Instances: 12.121212121212121
Correctly Classified Instances: 87.87878787878786
Weighted Precision: 0.8954410134796837
Weighted AreaUnderROC: 0.9851805500896411
Root mean squared error: 0.15582249111051355
Relative absolute error: 18.713519837356905
Root relative squared error: 44.52998592818126
Weighted TruePositiveRate: 0.8787878787878787
Weighted MatthewsCorrelation: 0.8636635795330591
Weighted FMeasure: 0.8765769537402159
Iteration time: 902.9
Weighted AreaUnderPRC: 0.9303940201880639
Mean absolute error: 0.045829028173119145
Coverage of cases: 97.87878787878789
Instances selection time: 656.1
Test time: 659.7
Accumulative iteration time: 17092.9
Weighted Recall: 0.8787878787878787
Weighted FalsePositiveRate: 0.0202020202020202
Kappa statistic: 0.8585858585858585
Training time: 246.8
		
Iteration: 17
Labeled set size: 551
Unlabelled set size: 604
	
Mean region size: 22.458874458874266
Incorrectly Classified Instances: 12.077922077922079
Correctly Classified Instances: 87.92207792207793
Weighted Precision: 0.8960756348723138
Weighted AreaUnderROC: 0.985418426691154
Root mean squared error: 0.1552922183296947
Relative absolute error: 18.767537857725355
Root relative squared error: 44.378447858807085
Weighted TruePositiveRate: 0.8792207792207792
Weighted MatthewsCorrelation: 0.8642545924183651
Weighted FMeasure: 0.877029296565493
Iteration time: 853.0
Weighted AreaUnderPRC: 0.9313578129744584
Mean absolute error: 0.0459613172025929
Coverage of cases: 98.03463203463203
Instances selection time: 600.3
Test time: 627.6
Accumulative iteration time: 17945.9
Weighted Recall: 0.8792207792207792
Weighted FalsePositiveRate: 0.02012987012987013
Kappa statistic: 0.859090909090909
Training time: 252.7
		
Iteration: 18
Labeled set size: 571
Unlabelled set size: 584
	
Mean region size: 22.52566481137891
Incorrectly Classified Instances: 12.164502164502164
Correctly Classified Instances: 87.83549783549782
Weighted Precision: 0.8957187946495004
Weighted AreaUnderROC: 0.9852284752284752
Root mean squared error: 0.15596860805440563
Relative absolute error: 18.862664550553664
Root relative squared error: 44.57174232296748
Weighted TruePositiveRate: 0.8783549783549784
Weighted MatthewsCorrelation: 0.8633316819036393
Weighted FMeasure: 0.875920610917959
Iteration time: 840.8
Weighted AreaUnderPRC: 0.9309533667255033
Mean absolute error: 0.04619428053196835
Coverage of cases: 98.008658008658
Instances selection time: 575.1
Test time: 629.0
Accumulative iteration time: 18786.7
Weighted Recall: 0.8783549783549784
Weighted FalsePositiveRate: 0.020274170274170278
Kappa statistic: 0.858080808080808
Training time: 265.7
		
Iteration: 19
Labeled set size: 591
Unlabelled set size: 564
	
Mean region size: 22.494743351886015
Incorrectly Classified Instances: 12.173160173160172
Correctly Classified Instances: 87.82683982683984
Weighted Precision: 0.8950118678864645
Weighted AreaUnderROC: 0.9851634964362237
Root mean squared error: 0.15603336771488185
Relative absolute error: 18.862240442026
Root relative squared error: 44.590248937443796
Weighted TruePositiveRate: 0.8782683982683983
Weighted MatthewsCorrelation: 0.8629985355130823
Weighted FMeasure: 0.8757549759521034
Iteration time: 797.6
Weighted AreaUnderPRC: 0.9304578677754872
Mean absolute error: 0.046193241898839374
Coverage of cases: 97.97402597402598
Instances selection time: 548.4
Test time: 627.6
Accumulative iteration time: 19584.3
Weighted Recall: 0.8782683982683983
Weighted FalsePositiveRate: 0.020288600288600283
Kappa statistic: 0.8579797979797981
Training time: 249.2
		
Iteration: 20
Labeled set size: 611
Unlabelled set size: 544
	
Mean region size: 22.419294990723365
Incorrectly Classified Instances: 12.207792207792206
Correctly Classified Instances: 87.7922077922078
Weighted Precision: 0.8945429798414508
Weighted AreaUnderROC: 0.9851031527395164
Root mean squared error: 0.15614379713287135
Relative absolute error: 18.854684822274955
Root relative squared error: 44.62180677222159
Weighted TruePositiveRate: 0.8779220779220779
Weighted MatthewsCorrelation: 0.8626159541769335
Weighted FMeasure: 0.8755551292364357
Iteration time: 789.0
Weighted AreaUnderPRC: 0.9303051831160374
Mean absolute error: 0.0461747383402654
Coverage of cases: 97.95670995670996
Instances selection time: 527.7
Test time: 655.5
Accumulative iteration time: 20373.3
Weighted Recall: 0.8779220779220779
Weighted FalsePositiveRate: 0.02034632034632035
Kappa statistic: 0.8575757575757577
Training time: 261.3
		
Iteration: 21
Labeled set size: 631
Unlabelled set size: 524
	
Mean region size: 22.294372294372096
Incorrectly Classified Instances: 12.346320346320347
Correctly Classified Instances: 87.65367965367966
Weighted Precision: 0.892998984592064
Weighted AreaUnderROC: 0.985099742008833
Root mean squared error: 0.15603814443074543
Relative absolute error: 18.667312636464636
Root relative squared error: 44.59161399770351
Weighted TruePositiveRate: 0.8765367965367966
Weighted MatthewsCorrelation: 0.8608005173596762
Weighted FMeasure: 0.8737387859192026
Iteration time: 764.6
Weighted AreaUnderPRC: 0.9303280729022474
Mean absolute error: 0.04571586768113808
Coverage of cases: 97.94805194805194
Instances selection time: 507.7
Test time: 638.0
Accumulative iteration time: 21137.9
Weighted Recall: 0.8765367965367966
Weighted FalsePositiveRate: 0.020577200577200576
Kappa statistic: 0.8559595959595958
Training time: 256.9
		
Iteration: 22
Labeled set size: 651
Unlabelled set size: 504
	
Mean region size: 22.134817563388797
Incorrectly Classified Instances: 12.060606060606062
Correctly Classified Instances: 87.93939393939394
Weighted Precision: 0.8956210376620757
Weighted AreaUnderROC: 0.9853432157068521
Root mean squared error: 0.1550492763544803
Relative absolute error: 18.36941951876871
Root relative squared error: 44.30902140656285
Weighted TruePositiveRate: 0.8793939393939395
Weighted MatthewsCorrelation: 0.8638691263566235
Weighted FMeasure: 0.8760364665327007
Iteration time: 753.1
Weighted AreaUnderPRC: 0.932231030010638
Mean absolute error: 0.04498633351535213
Coverage of cases: 97.99134199134198
Instances selection time: 484.6
Test time: 640.7
Accumulative iteration time: 21891.0
Weighted Recall: 0.8793939393939395
Weighted FalsePositiveRate: 0.020101010101010102
Kappa statistic: 0.8592929292929291
Training time: 268.5
		
Iteration: 23
Labeled set size: 671
Unlabelled set size: 484
	
Mean region size: 22.40940012368565
Incorrectly Classified Instances: 11.93073593073593
Correctly Classified Instances: 88.06926406926405
Weighted Precision: 0.8979098036372962
Weighted AreaUnderROC: 0.9854312825221916
Root mean squared error: 0.1550830856730676
Relative absolute error: 18.452261231989304
Root relative squared error: 44.31868322412337
Weighted TruePositiveRate: 0.8806926406926406
Weighted MatthewsCorrelation: 0.8655769114118843
Weighted FMeasure: 0.8768246525966623
Iteration time: 705.3
Weighted AreaUnderPRC: 0.9330431146775542
Mean absolute error: 0.045189211180382174
Coverage of cases: 98.1038961038961
Instances selection time: 448.1
Test time: 641.3
Accumulative iteration time: 22596.3
Weighted Recall: 0.8806926406926406
Weighted FalsePositiveRate: 0.019884559884559883
Kappa statistic: 0.8608080808080807
Training time: 257.2
		
Iteration: 24
Labeled set size: 691
Unlabelled set size: 464
	
Mean region size: 22.263450834879208
Incorrectly Classified Instances: 11.922077922077921
Correctly Classified Instances: 88.07792207792208
Weighted Precision: 0.8987601703176884
Weighted AreaUnderROC: 0.9853773230136866
Root mean squared error: 0.15589747668256887
Relative absolute error: 18.421672428667826
Root relative squared error: 44.551414840302
Weighted TruePositiveRate: 0.8807792207792208
Weighted MatthewsCorrelation: 0.8657997322191573
Weighted FMeasure: 0.8765099598470698
Iteration time: 682.9
Weighted AreaUnderPRC: 0.9326961973743192
Mean absolute error: 0.04511429982530915
Coverage of cases: 97.98268398268398
Instances selection time: 424.2
Test time: 645.9
Accumulative iteration time: 23279.2
Weighted Recall: 0.8807792207792208
Weighted FalsePositiveRate: 0.019870129870129868
Kappa statistic: 0.8609090909090907
Training time: 258.7
		
Iteration: 25
Labeled set size: 711
Unlabelled set size: 444
	
Mean region size: 22.077922077921862
Incorrectly Classified Instances: 11.904761904761905
Correctly Classified Instances: 88.0952380952381
Weighted Precision: 0.8993428988218464
Weighted AreaUnderROC: 0.9853229262320171
Root mean squared error: 0.15654972521633795
Relative absolute error: 18.419645236076786
Root relative squared error: 44.737810384510134
Weighted TruePositiveRate: 0.880952380952381
Weighted MatthewsCorrelation: 0.866051363218866
Weighted FMeasure: 0.8764437855320019
Iteration time: 664.7
Weighted AreaUnderPRC: 0.9318440056708551
Mean absolute error: 0.04510933527202496
Coverage of cases: 97.97402597402598
Instances selection time: 403.4
Test time: 658.0
Accumulative iteration time: 23943.9
Weighted Recall: 0.880952380952381
Weighted FalsePositiveRate: 0.01984126984126984
Kappa statistic: 0.861111111111111
Training time: 261.3
		
Iteration: 26
Labeled set size: 731
Unlabelled set size: 424
	
Mean region size: 22.058132343846417
Incorrectly Classified Instances: 11.922077922077921
Correctly Classified Instances: 88.07792207792208
Weighted Precision: 0.8998601899332387
Weighted AreaUnderROC: 0.9854332065241158
Root mean squared error: 0.15674373095246402
Relative absolute error: 18.40607492809059
Root relative squared error: 44.79325214158969
Weighted TruePositiveRate: 0.8807792207792209
Weighted MatthewsCorrelation: 0.8659798763584007
Weighted FMeasure: 0.8759674808090117
Iteration time: 642.8
Weighted AreaUnderPRC: 0.9326398059532904
Mean absolute error: 0.04507610186471185
Coverage of cases: 97.87878787878788
Instances selection time: 378.9
Test time: 656.8
Accumulative iteration time: 24586.7
Weighted Recall: 0.8807792207792209
Weighted FalsePositiveRate: 0.019870129870129868
Kappa statistic: 0.860909090909091
Training time: 263.9
		
Iteration: 27
Labeled set size: 751
Unlabelled set size: 404
	
Mean region size: 21.901051329622526
Incorrectly Classified Instances: 11.904761904761902
Correctly Classified Instances: 88.09523809523809
Weighted Precision: 0.9006342239300633
Weighted AreaUnderROC: 0.9852612707158162
Root mean squared error: 0.15726695857591466
Relative absolute error: 18.38647864805132
Root relative squared error: 44.94277688954774
Weighted TruePositiveRate: 0.8809523809523808
Weighted MatthewsCorrelation: 0.866319941113846
Weighted FMeasure: 0.8759518419759725
Iteration time: 622.1
Weighted AreaUnderPRC: 0.9322242903031436
Mean absolute error: 0.04502811097481975
Coverage of cases: 97.85281385281385
Instances selection time: 354.8
Test time: 663.1
Accumulative iteration time: 25208.8
Weighted Recall: 0.8809523809523808
Weighted FalsePositiveRate: 0.019841269841269844
Kappa statistic: 0.861111111111111
Training time: 267.3
		
Iteration: 28
Labeled set size: 771
Unlabelled set size: 384
	
Mean region size: 22.105132962275597
Incorrectly Classified Instances: 11.705627705627702
Correctly Classified Instances: 88.2943722943723
Weighted Precision: 0.9025697171896194
Weighted AreaUnderROC: 0.9853771481044209
Root mean squared error: 0.15593693036958411
Relative absolute error: 18.274886225274265
Root relative squared error: 44.562689670495516
Weighted TruePositiveRate: 0.8829437229437229
Weighted MatthewsCorrelation: 0.8685700377063679
Weighted FMeasure: 0.8779010622746876
Iteration time: 583.5
Weighted AreaUnderPRC: 0.9333272085682838
Mean absolute error: 0.04475482340883513
Coverage of cases: 97.81818181818183
Instances selection time: 311.0
Test time: 643.0
Accumulative iteration time: 25792.3
Weighted Recall: 0.8829437229437229
Weighted FalsePositiveRate: 0.01950937950937951
Kappa statistic: 0.8634343434343436
Training time: 272.5
		
Iteration: 29
Labeled set size: 791
Unlabelled set size: 364
	
Mean region size: 21.886209029065938
Incorrectly Classified Instances: 11.411255411255413
Correctly Classified Instances: 88.58874458874459
Weighted Precision: 0.903251150678791
Weighted AreaUnderROC: 0.9858233416415235
Root mean squared error: 0.15347357223660257
Relative absolute error: 17.772159830881968
Root relative squared error: 43.858726447882546
Weighted TruePositiveRate: 0.8858874458874458
Weighted MatthewsCorrelation: 0.8713566062613778
Weighted FMeasure: 0.8812515323201987
Iteration time: 579.1
Weighted AreaUnderPRC: 0.9348376390998256
Mean absolute error: 0.04352365672869073
Coverage of cases: 97.79220779220779
Instances selection time: 307.0
Test time: 676.0
Accumulative iteration time: 26371.4
Weighted Recall: 0.8858874458874458
Weighted FalsePositiveRate: 0.019018759018759022
Kappa statistic: 0.8668686868686869
Training time: 272.1
		
Iteration: 30
Labeled set size: 811
Unlabelled set size: 344
	
Mean region size: 21.520098948670142
Incorrectly Classified Instances: 11.082251082251082
Correctly Classified Instances: 88.91774891774891
Weighted Precision: 0.9063351274245031
Weighted AreaUnderROC: 0.9865003279548736
Root mean squared error: 0.1510029248259665
Relative absolute error: 17.21545500581458
Root relative squared error: 43.15268014067074
Weighted TruePositiveRate: 0.8891774891774892
Weighted MatthewsCorrelation: 0.8752411843456003
Weighted FMeasure: 0.8850384177891264
Iteration time: 566.7
Weighted AreaUnderPRC: 0.9377337638100969
Mean absolute error: 0.04216029797342365
Coverage of cases: 97.95670995670996
Instances selection time: 294.7
Test time: 656.2
Accumulative iteration time: 26938.1
Weighted Recall: 0.8891774891774892
Weighted FalsePositiveRate: 0.01847041847041847
Kappa statistic: 0.8707070707070705
Training time: 272.0
		
Iteration: 31
Labeled set size: 831
Unlabelled set size: 324
	
Mean region size: 21.246753246753013
Incorrectly Classified Instances: 10.865800865800868
Correctly Classified Instances: 89.13419913419912
Weighted Precision: 0.9090972417455327
Weighted AreaUnderROC: 0.9869133761861034
Root mean squared error: 0.14932503774448636
Relative absolute error: 16.827835763844085
Root relative squared error: 42.673183967846775
Weighted TruePositiveRate: 0.8913419913419911
Weighted MatthewsCorrelation: 0.8780310337886112
Weighted FMeasure: 0.8875351287840184
Iteration time: 556.3
Weighted AreaUnderPRC: 0.9392436216133154
Mean absolute error: 0.04121102636043468
Coverage of cases: 97.95670995670996
Instances selection time: 283.4
Test time: 665.9
Accumulative iteration time: 27494.4
Weighted Recall: 0.8913419913419911
Weighted FalsePositiveRate: 0.01810966810966811
Kappa statistic: 0.8732323232323231
Training time: 272.9
		
Iteration: 32
Labeled set size: 851
Unlabelled set size: 304
	
Mean region size: 21.083487940630555
Incorrectly Classified Instances: 10.761904761904763
Correctly Classified Instances: 89.23809523809521
Weighted Precision: 0.9097767527956513
Weighted AreaUnderROC: 0.9872652936289299
Root mean squared error: 0.1479893938022389
Relative absolute error: 16.57093725691365
Root relative squared error: 42.29149191858312
Weighted TruePositiveRate: 0.8923809523809524
Weighted MatthewsCorrelation: 0.8790297693617708
Weighted FMeasure: 0.8884281165865549
Iteration time: 563.7
Weighted AreaUnderPRC: 0.9407285942773418
Mean absolute error: 0.04058188715978871
Coverage of cases: 98.05194805194806
Instances selection time: 269.5
Test time: 671.5
Accumulative iteration time: 28058.1
Weighted Recall: 0.8923809523809524
Weighted FalsePositiveRate: 0.017936507936507938
Kappa statistic: 0.8744444444444444
Training time: 294.2
		
Iteration: 33
Labeled set size: 871
Unlabelled set size: 284
	
Mean region size: 21.010513296227337
Incorrectly Classified Instances: 10.554112554112555
Correctly Classified Instances: 89.44588744588745
Weighted Precision: 0.9113895208784208
Weighted AreaUnderROC: 0.9874158030521668
Root mean squared error: 0.14681551886495053
Relative absolute error: 16.40581902721513
Root relative squared error: 41.95602921312667
Weighted TruePositiveRate: 0.8944588744588746
Weighted MatthewsCorrelation: 0.8813923018443608
Weighted FMeasure: 0.8907560462323388
Iteration time: 528.6
Weighted AreaUnderPRC: 0.9414926320936982
Mean absolute error: 0.04017751598501682
Coverage of cases: 98.08658008658008
Instances selection time: 246.9
Test time: 670.7
Accumulative iteration time: 28586.7
Weighted Recall: 0.8944588744588746
Weighted FalsePositiveRate: 0.017590187590187593
Kappa statistic: 0.8768686868686867
Training time: 281.7
		
Iteration: 34
Labeled set size: 891
Unlabelled set size: 264
	
Mean region size: 20.859616573902038
Incorrectly Classified Instances: 10.303030303030301
Correctly Classified Instances: 89.6969696969697
Weighted Precision: 0.9133537652048128
Weighted AreaUnderROC: 0.9875882635882632
Root mean squared error: 0.14555686304953952
Relative absolute error: 16.15433717157645
Root relative squared error: 41.59633835367991
Weighted TruePositiveRate: 0.8969696969696969
Weighted MatthewsCorrelation: 0.8841631593696899
Weighted FMeasure: 0.8934284661532319
Iteration time: 519.7
Weighted AreaUnderPRC: 0.9423138819280332
Mean absolute error: 0.03956164205284046
Coverage of cases: 98.08658008658008
Instances selection time: 231.3
Test time: 668.0
Accumulative iteration time: 29106.4
Weighted Recall: 0.8969696969696969
Weighted FalsePositiveRate: 0.01717171717171717
Kappa statistic: 0.8797979797979798
Training time: 288.4
		
Iteration: 35
Labeled set size: 911
Unlabelled set size: 244
	
Mean region size: 20.965986394557557
Incorrectly Classified Instances: 9.948051948051948
Correctly Classified Instances: 90.05194805194806
Weighted Precision: 0.9126440589142535
Weighted AreaUnderROC: 0.9878530762167129
Root mean squared error: 0.14356167150357685
Relative absolute error: 16.056865037279486
Root relative squared error: 41.026164877228865
Weighted TruePositiveRate: 0.9005194805194805
Weighted MatthewsCorrelation: 0.8873930710368011
Weighted FMeasure: 0.8983823762950399
Iteration time: 508.6
Weighted AreaUnderPRC: 0.9418421837486173
Mean absolute error: 0.039322934785174415
Coverage of cases: 98.18181818181817
Instances selection time: 214.8
Test time: 661.4
Accumulative iteration time: 29615.0
Weighted Recall: 0.9005194805194805
Weighted FalsePositiveRate: 0.016580086580086577
Kappa statistic: 0.8839393939393938
Training time: 293.8
		
Iteration: 36
Labeled set size: 931
Unlabelled set size: 224
	
Mean region size: 20.907854050710924
Incorrectly Classified Instances: 9.593073593073592
Correctly Classified Instances: 90.4069264069264
Weighted Precision: 0.9147233870301612
Weighted AreaUnderROC: 0.98834570816389
Root mean squared error: 0.1408779262099658
Relative absolute error: 15.679608359727064
Root relative squared error: 40.25922077751886
Weighted TruePositiveRate: 0.904069264069264
Weighted MatthewsCorrelation: 0.8911518534566907
Weighted FMeasure: 0.902386589338572
Iteration time: 487.8
Weighted AreaUnderPRC: 0.9438329466543461
Mean absolute error: 0.038399040880964394
Coverage of cases: 98.31168831168831
Instances selection time: 196.7
Test time: 661.2
Accumulative iteration time: 30102.8
Weighted Recall: 0.904069264069264
Weighted FalsePositiveRate: 0.01598845598845599
Kappa statistic: 0.888080808080808
Training time: 291.1
		
Iteration: 37
Labeled set size: 951
Unlabelled set size: 204
	
Mean region size: 20.850958565243996
Incorrectly Classified Instances: 9.307359307359308
Correctly Classified Instances: 90.69264069264071
Weighted Precision: 0.9169207095771291
Weighted AreaUnderROC: 0.9887172154444883
Root mean squared error: 0.13848408847211904
Relative absolute error: 15.389655372837051
Root relative squared error: 39.575124662632184
Weighted TruePositiveRate: 0.9069264069264069
Weighted MatthewsCorrelation: 0.8943780503067416
Weighted FMeasure: 0.9056513197269019
Iteration time: 477.7
Weighted AreaUnderPRC: 0.9458101705369082
Mean absolute error: 0.03768895193347867
Coverage of cases: 98.42424242424242
Instances selection time: 181.8
Test time: 658.2
Accumulative iteration time: 30580.5
Weighted Recall: 0.9069264069264069
Weighted FalsePositiveRate: 0.01551226551226551
Kappa statistic: 0.8914141414141413
Training time: 295.9
		
Iteration: 38
Labeled set size: 971
Unlabelled set size: 184
	
Mean region size: 20.77674706246106
Incorrectly Classified Instances: 9.203463203463205
Correctly Classified Instances: 90.79653679653681
Weighted Precision: 0.9173163938884793
Weighted AreaUnderROC: 0.988972582972583
Root mean squared error: 0.1371426139622169
Relative absolute error: 15.169608366845992
Root relative squared error: 39.191766389874324
Weighted TruePositiveRate: 0.907965367965368
Weighted MatthewsCorrelation: 0.8953743025184533
Weighted FMeasure: 0.9067547679856502
Iteration time: 487.5
Weighted AreaUnderPRC: 0.9472389840528728
Mean absolute error: 0.037150061306561774
Coverage of cases: 98.46753246753248
Instances selection time: 169.8
Test time: 659.5
Accumulative iteration time: 31068.0
Weighted Recall: 0.907965367965368
Weighted FalsePositiveRate: 0.015339105339105338
Kappa statistic: 0.8926262626262625
Training time: 317.7
		
Iteration: 39
Labeled set size: 991
Unlabelled set size: 164
	
Mean region size: 20.79529993815679
Incorrectly Classified Instances: 9.134199134199134
Correctly Classified Instances: 90.86580086580088
Weighted Precision: 0.9176063549588619
Weighted AreaUnderROC: 0.9890956316410863
Root mean squared error: 0.13652047321810373
Relative absolute error: 15.128188074252986
Root relative squared error: 39.01397486322584
Weighted TruePositiveRate: 0.9086580086580087
Weighted MatthewsCorrelation: 0.8959839682627955
Weighted FMeasure: 0.9073109634062823
Iteration time: 454.7
Weighted AreaUnderPRC: 0.9476255998345353
Mean absolute error: 0.037048623855313594
Coverage of cases: 98.48484848484848
Instances selection time: 153.0
Test time: 657.7
Accumulative iteration time: 31522.7
Weighted Recall: 0.9086580086580087
Weighted FalsePositiveRate: 0.015223665223665223
Kappa statistic: 0.8934343434343435
Training time: 301.7
		
Iteration: 40
Labeled set size: 1011
Unlabelled set size: 144
	
Mean region size: 20.758194186765326
Incorrectly Classified Instances: 9.056277056277056
Correctly Classified Instances: 90.94372294372296
Weighted Precision: 0.9179181791380102
Weighted AreaUnderROC: 0.9890244435698982
Root mean squared error: 0.13658211309726925
Relative absolute error: 15.12322956670208
Root relative squared error: 39.03158992593144
Weighted TruePositiveRate: 0.9094372294372295
Weighted MatthewsCorrelation: 0.896731711000047
Weighted FMeasure: 0.9080871920026687
Iteration time: 446.1
Weighted AreaUnderPRC: 0.9479220567560229
Mean absolute error: 0.03703648057151545
Coverage of cases: 98.49350649350649
Instances selection time: 139.3
Test time: 658.3
Accumulative iteration time: 31968.8
Weighted Recall: 0.9094372294372295
Weighted FalsePositiveRate: 0.015093795093795095
Kappa statistic: 0.8943434343434344
Training time: 306.8
		
Iteration: 41
Labeled set size: 1031
Unlabelled set size: 124
	
Mean region size: 20.853432282003414
Incorrectly Classified Instances: 8.9004329004329
Correctly Classified Instances: 91.09956709956711
Weighted Precision: 0.9179265260313347
Weighted AreaUnderROC: 0.9895985832349471
Root mean squared error: 0.13452328683221212
Relative absolute error: 15.04643638052094
Root relative squared error: 38.44323131378126
Weighted TruePositiveRate: 0.910995670995671
Weighted MatthewsCorrelation: 0.8981110583587775
Weighted FMeasure: 0.9098224274166882
Iteration time: 431.3
Weighted AreaUnderPRC: 0.9487657738058844
Mean absolute error: 0.036848415625765726
Coverage of cases: 98.67532467532467
Instances selection time: 123.3
Test time: 660.0
Accumulative iteration time: 32400.1
Weighted Recall: 0.910995670995671
Weighted FalsePositiveRate: 0.014834054834054835
Kappa statistic: 0.8961616161616162
Training time: 308.0
		
Iteration: 42
Labeled set size: 1051
Unlabelled set size: 104
	
Mean region size: 21.040197897340455
Incorrectly Classified Instances: 8.606060606060606
Correctly Classified Instances: 91.3939393939394
Weighted Precision: 0.9192440143813905
Weighted AreaUnderROC: 0.9901028466483013
Root mean squared error: 0.13245819950205684
Relative absolute error: 14.958651619481751
Root relative squared error: 37.853083453245134
Weighted TruePositiveRate: 0.9139393939393938
Weighted MatthewsCorrelation: 0.9012084675758139
Weighted FMeasure: 0.9133791734316281
Iteration time: 410.7
Weighted AreaUnderPRC: 0.9498580692442932
Mean absolute error: 0.03663343253750649
Coverage of cases: 98.7965367965368
Instances selection time: 102.1
Test time: 648.4
Accumulative iteration time: 32810.8
Weighted Recall: 0.9139393939393938
Weighted FalsePositiveRate: 0.014343434343434342
Kappa statistic: 0.8995959595959594
Training time: 308.6
		
Iteration: 43
Labeled set size: 1071
Unlabelled set size: 84
	
Mean region size: 20.915275200989186
Incorrectly Classified Instances: 8.493506493506494
Correctly Classified Instances: 91.50649350649351
Weighted Precision: 0.9179369213021069
Weighted AreaUnderROC: 0.9901014473741746
Root mean squared error: 0.13065422131277216
Relative absolute error: 14.668160371036734
Root relative squared error: 37.337553744978436
Weighted TruePositiveRate: 0.9150649350649352
Weighted MatthewsCorrelation: 0.9018119082532365
Weighted FMeasure: 0.9148184838727742
Iteration time: 392.0
Weighted AreaUnderPRC: 0.9495588630187903
Mean absolute error: 0.03592202539845746
Coverage of cases: 98.90043290043289
Instances selection time: 84.0
Test time: 659.4
Accumulative iteration time: 33202.8
Weighted Recall: 0.9150649350649352
Weighted FalsePositiveRate: 0.014155844155844158
Kappa statistic: 0.9009090909090908
Training time: 308.0
		
Iteration: 44
Labeled set size: 1091
Unlabelled set size: 64
	
Mean region size: 20.918985776128327
Incorrectly Classified Instances: 8.51948051948052
Correctly Classified Instances: 91.48051948051948
Weighted Precision: 0.9160994799164399
Weighted AreaUnderROC: 0.9904022913113822
Root mean squared error: 0.12955321484375626
Relative absolute error: 14.568851939852795
Root relative squared error: 37.02291493884266
Weighted TruePositiveRate: 0.9148051948051948
Weighted MatthewsCorrelation: 0.9009810228167539
Weighted FMeasure: 0.9145754272632782
Iteration time: 379.4
Weighted AreaUnderPRC: 0.9501449282129674
Mean absolute error: 0.03567882107719068
Coverage of cases: 99.02164502164501
Instances selection time: 65.9
Test time: 659.7
Accumulative iteration time: 33582.2
Weighted Recall: 0.9148051948051948
Weighted FalsePositiveRate: 0.0141991341991342
Kappa statistic: 0.9006060606060606
Training time: 313.5
		
Iteration: 45
Labeled set size: 1111
Unlabelled set size: 44
	
Mean region size: 20.942486085342924
Incorrectly Classified Instances: 8.380952380952381
Correctly Classified Instances: 91.61904761904762
Weighted Precision: 0.9171202448700221
Weighted AreaUnderROC: 0.9908918623464077
Root mean squared error: 0.1286046437015658
Relative absolute error: 14.497594399063942
Root relative squared error: 36.75183815581483
Weighted TruePositiveRate: 0.9161904761904761
Weighted MatthewsCorrelation: 0.902484586907747
Weighted FMeasure: 0.9159946486624033
Iteration time: 359.9
Weighted AreaUnderPRC: 0.9514806662199451
Mean absolute error: 0.035504312814034295
Coverage of cases: 99.06493506493507
Instances selection time: 46.2
Test time: 668.5
Accumulative iteration time: 33942.1
Weighted Recall: 0.9161904761904761
Weighted FalsePositiveRate: 0.013968253968253968
Kappa statistic: 0.9022222222222223
Training time: 313.7
		
Iteration: 46
Labeled set size: 1131
Unlabelled set size: 24
	
Mean region size: 20.95732838589951
Incorrectly Classified Instances: 8.346320346320347
Correctly Classified Instances: 91.65367965367966
Weighted Precision: 0.9171377077086245
Weighted AreaUnderROC: 0.9908163889982073
Root mean squared error: 0.12867432516718938
Relative absolute error: 14.484608773287892
Root relative squared error: 36.77175129326732
Weighted TruePositiveRate: 0.9165367965367966
Weighted MatthewsCorrelation: 0.9027780850289758
Weighted FMeasure: 0.9163444532675319
Iteration time: 346.0
Weighted AreaUnderPRC: 0.9505068943097807
Mean absolute error: 0.03547251128152152
Coverage of cases: 99.09956709956711
Instances selection time: 25.9
Test time: 665.4
Accumulative iteration time: 34288.1
Weighted Recall: 0.9165367965367966
Weighted FalsePositiveRate: 0.013910533910533911
Kappa statistic: 0.9026262626262624
Training time: 320.1
		
Time end:Thu Nov 30 22.44.15 EET 2017