Thu Nov 30 22.44.15 EET 2017
Dataset: segment
Test set size: 1155
Initial Labelled set size: 231
Initial Unlabelled set size: 924
Batch mode: QBestBatchMode
Batch size: 20
Classifiers: SMOsync-1cores
Scenario: PoolBasedSamplingScenario
Query strategy: LeastConfidentSamplingQueryStrategy-1cores
Time begining: Thu Nov 30 22.44.15 EET 2017
		
Iteration: 1
Labeled set size: 231
Unlabelled set size: 924
	
Mean region size: 24.230055658626647
Incorrectly Classified Instances: 11.86147186147186
Correctly Classified Instances: 88.13852813852814
Weighted Precision: 0.882279504545879
Weighted AreaUnderROC: 0.9820324456688093
Root mean squared error: 0.162833052320668
Relative absolute error: 21.31601168256105
Root relative squared error: 46.53342066864773
Weighted TruePositiveRate: 0.8813852813852814
Weighted MatthewsCorrelation: 0.8613760344726681
Weighted FMeasure: 0.8795135540163121
Iteration time: 1038.0
Weighted AreaUnderPRC: 0.9124113740468247
Mean absolute error: 0.05220247758994565
Coverage of cases: 98.52813852813853
Instances selection time: 515.0
Test time: 648.0
Accumulative iteration time: 1038.0
Weighted Recall: 0.8813852813852814
Weighted FalsePositiveRate: 0.01976911976911977
Kappa statistic: 0.8616161616161616
Training time: 523.0
		
Iteration: 2
Labeled set size: 251
Unlabelled set size: 904
	
Mean region size: 23.191094619665613
Incorrectly Classified Instances: 11.341991341991342
Correctly Classified Instances: 88.65800865800865
Weighted Precision: 0.8901018544430415
Weighted AreaUnderROC: 0.987002492457038
Root mean squared error: 0.14756851965201534
Relative absolute error: 18.63594568379652
Root relative squared error: 42.17121711195268
Weighted TruePositiveRate: 0.8865800865800866
Weighted MatthewsCorrelation: 0.8688312130590855
Weighted FMeasure: 0.8863793489094968
Iteration time: 738.0
Weighted AreaUnderPRC: 0.9394216459418152
Mean absolute error: 0.045639050654195754
Coverage of cases: 98.87445887445888
Instances selection time: 534.0
Test time: 673.0
Accumulative iteration time: 1776.0
Weighted Recall: 0.8865800865800866
Weighted FalsePositiveRate: 0.0189033189033189
Kappa statistic: 0.8676767676767677
Training time: 204.0
		
Iteration: 3
Labeled set size: 271
Unlabelled set size: 884
	
Mean region size: 23.092145949288387
Incorrectly Classified Instances: 10.303030303030303
Correctly Classified Instances: 89.6969696969697
Weighted Precision: 0.8984576500104451
Weighted AreaUnderROC: 0.987373300100573
Root mean squared error: 0.14396608606025818
Relative absolute error: 17.881925663054975
Root relative squared error: 41.14173596321156
Weighted TruePositiveRate: 0.896969696969697
Weighted MatthewsCorrelation: 0.8801533455081643
Weighted FMeasure: 0.896434122164586
Iteration time: 678.0
Weighted AreaUnderPRC: 0.9374724012070308
Mean absolute error: 0.043792471011563396
Coverage of cases: 98.87445887445888
Instances selection time: 463.0
Test time: 584.0
Accumulative iteration time: 2454.0
Weighted Recall: 0.896969696969697
Weighted FalsePositiveRate: 0.01717171717171717
Kappa statistic: 0.8797979797979798
Training time: 215.0
		
Iteration: 4
Labeled set size: 291
Unlabelled set size: 864
	
Mean region size: 23.32714904143434
Incorrectly Classified Instances: 9.090909090909092
Correctly Classified Instances: 90.9090909090909
Weighted Precision: 0.9082251899937487
Weighted AreaUnderROC: 0.9869194105557743
Root mean squared error: 0.142703685047174
Relative absolute error: 17.976899786568666
Root relative squared error: 40.78097482438154
Weighted TruePositiveRate: 0.9090909090909091
Weighted MatthewsCorrelation: 0.893425796756279
Weighted FMeasure: 0.9083239156142997
Iteration time: 729.0
Weighted AreaUnderPRC: 0.922043364592048
Mean absolute error: 0.04402506070180101
Coverage of cases: 98.61471861471861
Instances selection time: 469.0
Test time: 822.0
Accumulative iteration time: 3183.0
Weighted Recall: 0.9090909090909091
Weighted FalsePositiveRate: 0.015151515151515155
Kappa statistic: 0.8939393939393938
Training time: 260.0
		
Iteration: 5
Labeled set size: 311
Unlabelled set size: 844
	
Mean region size: 22.74582560296805
Incorrectly Classified Instances: 8.658008658008658
Correctly Classified Instances: 91.34199134199135
Weighted Precision: 0.9124554424712416
Weighted AreaUnderROC: 0.9891442564169834
Root mean squared error: 0.13686849037633594
Relative absolute error: 16.680891020370215
Root relative squared error: 39.1134290501561
Weighted TruePositiveRate: 0.9134199134199135
Weighted MatthewsCorrelation: 0.8983049612413593
Weighted FMeasure: 0.9121752327737338
Iteration time: 767.0
Weighted AreaUnderPRC: 0.9315925625338273
Mean absolute error: 0.04085116168253948
Coverage of cases: 98.78787878787878
Instances selection time: 483.0
Test time: 617.0
Accumulative iteration time: 3950.0
Weighted Recall: 0.9134199134199135
Weighted FalsePositiveRate: 0.014430014430014428
Kappa statistic: 0.898989898989899
Training time: 284.0
		
Iteration: 6
Labeled set size: 331
Unlabelled set size: 824
	
Mean region size: 21.793444650587094
Incorrectly Classified Instances: 7.792207792207792
Correctly Classified Instances: 92.20779220779221
Weighted Precision: 0.921472776799112
Weighted AreaUnderROC: 0.9895850277668461
Root mean squared error: 0.13233009093755813
Relative absolute error: 15.09603946567545
Root relative squared error: 37.81647338152987
Weighted TruePositiveRate: 0.922077922077922
Weighted MatthewsCorrelation: 0.9087555655779267
Weighted FMeasure: 0.9216297201755725
Iteration time: 703.0
Weighted AreaUnderPRC: 0.93621673868188
Mean absolute error: 0.03696989256900126
Coverage of cases: 98.7012987012987
Instances selection time: 477.0
Test time: 614.0
Accumulative iteration time: 4653.0
Weighted Recall: 0.922077922077922
Weighted FalsePositiveRate: 0.012987012987012988
Kappa statistic: 0.9090909090909091
Training time: 226.0
		
Iteration: 7
Labeled set size: 351
Unlabelled set size: 804
	
Mean region size: 21.620284477426914
Incorrectly Classified Instances: 7.359307359307359
Correctly Classified Instances: 92.64069264069263
Weighted Precision: 0.9260064197386948
Weighted AreaUnderROC: 0.990250557523285
Root mean squared error: 0.12974708014797257
Relative absolute error: 14.91250976077988
Root relative squared error: 37.078316564161256
Weighted TruePositiveRate: 0.9264069264069265
Weighted MatthewsCorrelation: 0.9139101706407389
Weighted FMeasure: 0.9260774756764654
Iteration time: 738.0
Weighted AreaUnderPRC: 0.9461232598494257
Mean absolute error: 0.03652043206721619
Coverage of cases: 98.78787878787878
Instances selection time: 514.0
Test time: 613.0
Accumulative iteration time: 5391.0
Weighted Recall: 0.9264069264069265
Weighted FalsePositiveRate: 0.012265512265512264
Kappa statistic: 0.914141414141414
Training time: 224.0
		
Iteration: 8
Labeled set size: 371
Unlabelled set size: 784
	
Mean region size: 21.175015460729323
Incorrectly Classified Instances: 7.2727272727272725
Correctly Classified Instances: 92.72727272727273
Weighted Precision: 0.9271437161170117
Weighted AreaUnderROC: 0.9908776072412436
Root mean squared error: 0.1269360176503824
Relative absolute error: 14.368886110424809
Root relative squared error: 36.27498854284147
Weighted TruePositiveRate: 0.9272727272727272
Weighted MatthewsCorrelation: 0.9150728897017916
Weighted FMeasure: 0.9271524927062628
Iteration time: 696.0
Weighted AreaUnderPRC: 0.9507875914108364
Mean absolute error: 0.035189108841856824
Coverage of cases: 98.44155844155844
Instances selection time: 472.0
Test time: 622.0
Accumulative iteration time: 6087.0
Weighted Recall: 0.9272727272727272
Weighted FalsePositiveRate: 0.012121212121212121
Kappa statistic: 0.9151515151515152
Training time: 224.0
		
Iteration: 9
Labeled set size: 391
Unlabelled set size: 764
	
Mean region size: 21.583178726035438
Incorrectly Classified Instances: 7.359307359307359
Correctly Classified Instances: 92.64069264069263
Weighted Precision: 0.9262976407665052
Weighted AreaUnderROC: 0.9907884035156762
Root mean squared error: 0.12850299686667335
Relative absolute error: 15.10075538422786
Root relative squared error: 36.722790153211704
Weighted TruePositiveRate: 0.9264069264069265
Weighted MatthewsCorrelation: 0.91407322780567
Weighted FMeasure: 0.9262997234481609
Iteration time: 692.0
Weighted AreaUnderPRC: 0.9491008284819901
Mean absolute error: 0.03698144175729288
Coverage of cases: 98.61471861471861
Instances selection time: 462.0
Test time: 606.0
Accumulative iteration time: 6779.0
Weighted Recall: 0.9264069264069265
Weighted FalsePositiveRate: 0.012265512265512264
Kappa statistic: 0.914141414141414
Training time: 230.0
		
Iteration: 10
Labeled set size: 411
Unlabelled set size: 744
	
Mean region size: 21.546072974643977
Incorrectly Classified Instances: 7.2727272727272725
Correctly Classified Instances: 92.72727272727273
Weighted Precision: 0.9273880877549845
Weighted AreaUnderROC: 0.9912903931085749
Root mean squared error: 0.12622605192151032
Relative absolute error: 14.607868560813106
Root relative squared error: 36.0720989362715
Weighted TruePositiveRate: 0.9272727272727272
Weighted MatthewsCorrelation: 0.9151988703775917
Weighted FMeasure: 0.9273002713608897
Iteration time: 683.0
Weighted AreaUnderPRC: 0.9501625729314642
Mean absolute error: 0.0357743719856649
Coverage of cases: 98.61471861471861
Instances selection time: 458.0
Test time: 603.0
Accumulative iteration time: 7462.0
Weighted Recall: 0.9272727272727272
Weighted FalsePositiveRate: 0.012121212121212121
Kappa statistic: 0.9151515151515152
Training time: 225.0
		
Iteration: 11
Labeled set size: 431
Unlabelled set size: 724
	
Mean region size: 22.065553494124487
Incorrectly Classified Instances: 7.186147186147186
Correctly Classified Instances: 92.81385281385282
Weighted Precision: 0.9283078446283127
Weighted AreaUnderROC: 0.991461804189077
Root mean squared error: 0.126325826423963
Relative absolute error: 14.798090359506416
Root relative squared error: 36.10061187531224
Weighted TruePositiveRate: 0.9281385281385282
Weighted MatthewsCorrelation: 0.9162303650260886
Weighted FMeasure: 0.9281757876780674
Iteration time: 692.0
Weighted AreaUnderPRC: 0.9494880227364294
Mean absolute error: 0.036240221288587296
Coverage of cases: 98.7012987012987
Instances selection time: 448.0
Test time: 593.0
Accumulative iteration time: 8154.0
Weighted Recall: 0.9281385281385282
Weighted FalsePositiveRate: 0.011976911976911976
Kappa statistic: 0.9161616161616162
Training time: 244.0
		
Iteration: 12
Labeled set size: 451
Unlabelled set size: 704
	
Mean region size: 21.47186147186105
Incorrectly Classified Instances: 7.186147186147186
Correctly Classified Instances: 92.81385281385282
Weighted Precision: 0.9284274779719162
Weighted AreaUnderROC: 0.9914233241505968
Root mean squared error: 0.12611226697250413
Relative absolute error: 14.301787232652616
Root relative squared error: 36.0395821786329
Weighted TruePositiveRate: 0.9281385281385282
Weighted MatthewsCorrelation: 0.9162911983198443
Weighted FMeasure: 0.9282449963783393
Iteration time: 715.0
Weighted AreaUnderPRC: 0.9487069646187786
Mean absolute error: 0.03502478505955758
Coverage of cases: 98.61471861471861
Instances selection time: 457.0
Test time: 607.0
Accumulative iteration time: 8869.0
Weighted Recall: 0.9281385281385282
Weighted FalsePositiveRate: 0.011976911976911978
Kappa statistic: 0.9161616161616162
Training time: 258.0
		
Iteration: 13
Labeled set size: 471
Unlabelled set size: 684
	
Mean region size: 21.125541125540718
Incorrectly Classified Instances: 7.2727272727272725
Correctly Classified Instances: 92.72727272727273
Weighted Precision: 0.927371307643213
Weighted AreaUnderROC: 0.9909624382351656
Root mean squared error: 0.12677653414962914
Relative absolute error: 14.05537729892797
Root relative squared error: 36.22941233626367
Weighted TruePositiveRate: 0.9272727272727272
Weighted MatthewsCorrelation: 0.915189768543358
Weighted FMeasure: 0.9272883152896497
Iteration time: 713.0
Weighted AreaUnderPRC: 0.9483282390236029
Mean absolute error: 0.03442133216064008
Coverage of cases: 98.52813852813853
Instances selection time: 459.0
Test time: 620.0
Accumulative iteration time: 9582.0
Weighted Recall: 0.9272727272727272
Weighted FalsePositiveRate: 0.012121212121212121
Kappa statistic: 0.9151515151515152
Training time: 254.0
		
Iteration: 14
Labeled set size: 491
Unlabelled set size: 664
	
Mean region size: 21.05132962275779
Incorrectly Classified Instances: 7.2727272727272725
Correctly Classified Instances: 92.72727272727273
Weighted Precision: 0.927371307643213
Weighted AreaUnderROC: 0.9907341816432724
Root mean squared error: 0.12683935695096826
Relative absolute error: 13.972951124031127
Root relative squared error: 36.24736544713787
Weighted TruePositiveRate: 0.9272727272727272
Weighted MatthewsCorrelation: 0.915189768543358
Weighted FMeasure: 0.9272883152896497
Iteration time: 715.0
Weighted AreaUnderPRC: 0.9468591085873355
Mean absolute error: 0.03421947214048454
Coverage of cases: 98.52813852813853
Instances selection time: 456.0
Test time: 619.0
Accumulative iteration time: 10297.0
Weighted Recall: 0.9272727272727272
Weighted FalsePositiveRate: 0.012121212121212121
Kappa statistic: 0.9151515151515152
Training time: 259.0
		
Iteration: 15
Labeled set size: 511
Unlabelled set size: 644
	
Mean region size: 21.17501546072934
Incorrectly Classified Instances: 7.2727272727272725
Correctly Classified Instances: 92.72727272727273
Weighted Precision: 0.927371307643213
Weighted AreaUnderROC: 0.9906537233809962
Root mean squared error: 0.12684206478415216
Relative absolute error: 13.98439408171098
Root relative squared error: 36.2481392749256
Weighted TruePositiveRate: 0.9272727272727272
Weighted MatthewsCorrelation: 0.915189768543358
Weighted FMeasure: 0.9272883152896497
Iteration time: 717.0
Weighted AreaUnderPRC: 0.9473433160962167
Mean absolute error: 0.03424749571031275
Coverage of cases: 98.52813852813853
Instances selection time: 456.0
Test time: 623.0
Accumulative iteration time: 11014.0
Weighted Recall: 0.9272727272727272
Weighted FalsePositiveRate: 0.012121212121212121
Kappa statistic: 0.9151515151515152
Training time: 261.0
		
Iteration: 16
Labeled set size: 531
Unlabelled set size: 624
	
Mean region size: 21.19975262832365
Incorrectly Classified Instances: 7.186147186147186
Correctly Classified Instances: 92.81385281385282
Weighted Precision: 0.9283078446283127
Weighted AreaUnderROC: 0.9906064978792251
Root mean squared error: 0.12687053110741034
Relative absolute error: 13.952559809231014
Root relative squared error: 36.25627420438976
Weighted TruePositiveRate: 0.9281385281385282
Weighted MatthewsCorrelation: 0.9162303650260886
Weighted FMeasure: 0.9281757876780674
Iteration time: 712.0
Weighted AreaUnderPRC: 0.9458126340291637
Mean absolute error: 0.03416953422668834
Coverage of cases: 98.44155844155844
Instances selection time: 446.0
Test time: 616.0
Accumulative iteration time: 11726.0
Weighted Recall: 0.9281385281385282
Weighted FalsePositiveRate: 0.011976911976911976
Kappa statistic: 0.9161616161616162
Training time: 266.0
		
Iteration: 17
Labeled set size: 551
Unlabelled set size: 604
	
Mean region size: 20.841063698206167
Incorrectly Classified Instances: 7.2727272727272725
Correctly Classified Instances: 92.72727272727273
Weighted Precision: 0.9273842476525436
Weighted AreaUnderROC: 0.9910761292579475
Root mean squared error: 0.12680791951415205
Relative absolute error: 13.757192519300226
Root relative squared error: 36.238381451252124
Weighted TruePositiveRate: 0.9272727272727272
Weighted MatthewsCorrelation: 0.9151921738015535
Weighted FMeasure: 0.9272811053096595
Iteration time: 707.0
Weighted AreaUnderPRC: 0.9468963154332483
Mean absolute error: 0.03369108372073539
Coverage of cases: 98.52813852813853
Instances selection time: 446.0
Test time: 625.0
Accumulative iteration time: 12433.0
Weighted Recall: 0.9272727272727272
Weighted FalsePositiveRate: 0.012121212121212121
Kappa statistic: 0.9151515151515152
Training time: 261.0
		
Iteration: 18
Labeled set size: 571
Unlabelled set size: 584
	
Mean region size: 20.791589363017547
Incorrectly Classified Instances: 7.359307359307359
Correctly Classified Instances: 92.64069264069263
Weighted Precision: 0.9264685291112851
Weighted AreaUnderROC: 0.9907604180331454
Root mean squared error: 0.12779364438845023
Relative absolute error: 13.75890887817383
Root relative squared error: 36.52007579761208
Weighted TruePositiveRate: 0.9264069264069265
Weighted MatthewsCorrelation: 0.9141542642382695
Weighted FMeasure: 0.9263780161506927
Iteration time: 717.0
Weighted AreaUnderPRC: 0.9462440264484014
Mean absolute error: 0.033695287048589116
Coverage of cases: 98.44155844155844
Instances selection time: 450.0
Test time: 633.0
Accumulative iteration time: 13150.0
Weighted Recall: 0.9264069264069265
Weighted FalsePositiveRate: 0.012265512265512264
Kappa statistic: 0.914141414141414
Training time: 267.0
		
Iteration: 19
Labeled set size: 591
Unlabelled set size: 564
	
Mean region size: 20.803957946814702
Incorrectly Classified Instances: 7.2727272727272725
Correctly Classified Instances: 92.72727272727273
Weighted Precision: 0.9274009496499096
Weighted AreaUnderROC: 0.9903406357951811
Root mean squared error: 0.12774937331058345
Relative absolute error: 13.689707852135259
Root relative squared error: 36.5074242833128
Weighted TruePositiveRate: 0.9272727272727272
Weighted MatthewsCorrelation: 0.9151953049251541
Weighted FMeasure: 0.9272721698414894
Iteration time: 813.0
Weighted AreaUnderPRC: 0.945286543742571
Mean absolute error: 0.033525815148086495
Coverage of cases: 98.44155844155844
Instances selection time: 552.0
Test time: 636.0
Accumulative iteration time: 13963.0
Weighted Recall: 0.9272727272727272
Weighted FalsePositiveRate: 0.01212121212121212
Kappa statistic: 0.9151515151515152
Training time: 261.0
		
Iteration: 20
Labeled set size: 611
Unlabelled set size: 544
	
Mean region size: 20.556586270871595
Incorrectly Classified Instances: 7.532467532467533
Correctly Classified Instances: 92.46753246753246
Weighted Precision: 0.924632064250576
Weighted AreaUnderROC: 0.9906012506012507
Root mean squared error: 0.12784234315574336
Relative absolute error: 13.638799291937165
Root relative squared error: 36.53399262955866
Weighted TruePositiveRate: 0.9246753246753247
Weighted MatthewsCorrelation: 0.9120827460240287
Weighted FMeasure: 0.9245926158494597
Iteration time: 716.0
Weighted AreaUnderPRC: 0.9472559876978999
Mean absolute error: 0.033401141123111565
Coverage of cases: 98.52813852813853
Instances selection time: 446.0
Test time: 642.0
Accumulative iteration time: 14679.0
Weighted Recall: 0.9246753246753247
Weighted FalsePositiveRate: 0.012554112554112552
Kappa statistic: 0.912121212121212
Training time: 270.0
		
Iteration: 21
Labeled set size: 631
Unlabelled set size: 524
	
Mean region size: 20.766852195423226
Incorrectly Classified Instances: 7.619047619047619
Correctly Classified Instances: 92.38095238095238
Weighted Precision: 0.9238203362876759
Weighted AreaUnderROC: 0.991053391053391
Root mean squared error: 0.12796968925272614
Relative absolute error: 13.873830404478861
Root relative squared error: 36.57038480803198
Weighted TruePositiveRate: 0.9238095238095239
Weighted MatthewsCorrelation: 0.9111024642108613
Weighted FMeasure: 0.9237665070834911
Iteration time: 718.0
Weighted AreaUnderPRC: 0.9505138533532221
Mean absolute error: 0.03397672752117287
Coverage of cases: 98.61471861471861
Instances selection time: 441.0
Test time: 644.0
Accumulative iteration time: 15397.0
Weighted Recall: 0.9238095238095239
Weighted FalsePositiveRate: 0.012698412698412698
Kappa statistic: 0.9111111111111112
Training time: 277.0
		
Iteration: 22
Labeled set size: 651
Unlabelled set size: 504
	
Mean region size: 20.667903525045986
Incorrectly Classified Instances: 7.619047619047619
Correctly Classified Instances: 92.38095238095238
Weighted Precision: 0.9237151262792288
Weighted AreaUnderROC: 0.9906248633521361
Root mean squared error: 0.12800212465509386
Relative absolute error: 13.8199976851432
Root relative squared error: 36.57965399632897
Weighted TruePositiveRate: 0.9238095238095239
Weighted MatthewsCorrelation: 0.9110502343508805
Weighted FMeasure: 0.9237099777391493
Iteration time: 705.0
Weighted AreaUnderPRC: 0.9497562365296008
Mean absolute error: 0.033844892290146755
Coverage of cases: 98.61471861471861
Instances selection time: 430.0
Test time: 642.0
Accumulative iteration time: 16102.0
Weighted Recall: 0.9238095238095239
Weighted FalsePositiveRate: 0.012698412698412698
Kappa statistic: 0.9111111111111112
Training time: 275.0
		
Iteration: 23
Labeled set size: 671
Unlabelled set size: 484
	
Mean region size: 20.68027210884315
Incorrectly Classified Instances: 7.619047619047619
Correctly Classified Instances: 92.38095238095238
Weighted Precision: 0.9237151262792288
Weighted AreaUnderROC: 0.9905400323582142
Root mean squared error: 0.12799863048045348
Relative absolute error: 13.810527856629795
Root relative squared error: 36.578655452752514
Weighted TruePositiveRate: 0.9238095238095239
Weighted MatthewsCorrelation: 0.9110502343508805
Weighted FMeasure: 0.9237099777391493
Iteration time: 683.0
Weighted AreaUnderPRC: 0.9483534306490063
Mean absolute error: 0.03382170087337923
Coverage of cases: 98.61471861471861
Instances selection time: 409.0
Test time: 638.0
Accumulative iteration time: 16785.0
Weighted Recall: 0.9238095238095239
Weighted FalsePositiveRate: 0.012698412698412698
Kappa statistic: 0.9111111111111112
Training time: 274.0
		
Iteration: 24
Labeled set size: 691
Unlabelled set size: 464
	
Mean region size: 20.717377860234613
Incorrectly Classified Instances: 7.705627705627705
Correctly Classified Instances: 92.2943722943723
Weighted Precision: 0.922901711073739
Weighted AreaUnderROC: 0.9906353579080851
Root mean squared error: 0.12809763740451696
Relative absolute error: 13.920165240293267
Root relative squared error: 36.606949037997616
Weighted TruePositiveRate: 0.922943722943723
Weighted MatthewsCorrelation: 0.910068537287682
Weighted FMeasure: 0.922880882280922
Iteration time: 674.0
Weighted AreaUnderPRC: 0.9493294284835739
Mean absolute error: 0.03409020058847345
Coverage of cases: 98.7012987012987
Instances selection time: 390.0
Test time: 632.0
Accumulative iteration time: 17459.0
Weighted Recall: 0.922943722943723
Weighted FalsePositiveRate: 0.012842712842712841
Kappa statistic: 0.9101010101010101
Training time: 284.0
		
Iteration: 25
Labeled set size: 711
Unlabelled set size: 444
	
Mean region size: 20.667903525045997
Incorrectly Classified Instances: 7.619047619047619
Correctly Classified Instances: 92.38095238095238
Weighted Precision: 0.9237319248160406
Weighted AreaUnderROC: 0.9904499540863178
Root mean squared error: 0.12807797554612618
Relative absolute error: 13.855848235368804
Root relative squared error: 36.60133019394485
Weighted TruePositiveRate: 0.9238095238095239
Weighted MatthewsCorrelation: 0.911064238716575
Weighted FMeasure: 0.9237389612199212
Iteration time: 690.0
Weighted AreaUnderPRC: 0.9484671485750132
Mean absolute error: 0.033932689556005376
Coverage of cases: 98.7012987012987
Instances selection time: 386.0
Test time: 637.0
Accumulative iteration time: 18149.0
Weighted Recall: 0.9238095238095239
Weighted FalsePositiveRate: 0.012698412698412698
Kappa statistic: 0.9111111111111112
Training time: 304.0
		
Iteration: 26
Labeled set size: 731
Unlabelled set size: 424
	
Mean region size: 20.70500927643747
Incorrectly Classified Instances: 7.705627705627705
Correctly Classified Instances: 92.2943722943723
Weighted Precision: 0.922901711073739
Weighted AreaUnderROC: 0.9907953998863089
Root mean squared error: 0.12817893238481187
Relative absolute error: 13.86579778192096
Root relative squared error: 36.6301810137077
Weighted TruePositiveRate: 0.922943722943723
Weighted MatthewsCorrelation: 0.910068537287682
Weighted FMeasure: 0.922880882280922
Iteration time: 666.0
Weighted AreaUnderPRC: 0.9493416576996506
Mean absolute error: 0.03395705579245964
Coverage of cases: 98.7012987012987
Instances selection time: 361.0
Test time: 627.0
Accumulative iteration time: 18815.0
Weighted Recall: 0.922943722943723
Weighted FalsePositiveRate: 0.012842712842712841
Kappa statistic: 0.9101010101010101
Training time: 305.0
		
Iteration: 27
Labeled set size: 751
Unlabelled set size: 404
	
Mean region size: 20.65553494124885
Incorrectly Classified Instances: 7.619047619047619
Correctly Classified Instances: 92.38095238095238
Weighted Precision: 0.9238258068376335
Weighted AreaUnderROC: 0.9910140364685819
Root mean squared error: 0.12728539033251454
Relative absolute error: 13.766483399357911
Root relative squared error: 36.37483010299213
Weighted TruePositiveRate: 0.9238095238095239
Weighted MatthewsCorrelation: 0.9111091587366731
Weighted FMeasure: 0.9237834203833803
Iteration time: 657.0
Weighted AreaUnderPRC: 0.950215078890663
Mean absolute error: 0.033713836896386865
Coverage of cases: 98.78787878787878
Instances selection time: 348.0
Test time: 625.0
Accumulative iteration time: 19472.0
Weighted Recall: 0.9238095238095239
Weighted FalsePositiveRate: 0.012698412698412698
Kappa statistic: 0.9111111111111112
Training time: 309.0
		
Iteration: 28
Labeled set size: 771
Unlabelled set size: 384
	
Mean region size: 20.680272108843152
Incorrectly Classified Instances: 7.619047619047619
Correctly Classified Instances: 92.38095238095238
Weighted Precision: 0.9238258068376335
Weighted AreaUnderROC: 0.9908863527045345
Root mean squared error: 0.12728292016294537
Relative absolute error: 13.761177625889834
Root relative squared error: 36.37412419323949
Weighted TruePositiveRate: 0.9238095238095239
Weighted MatthewsCorrelation: 0.9111091587366731
Weighted FMeasure: 0.9237834203833803
Iteration time: 632.0
Weighted AreaUnderPRC: 0.9499877578188445
Mean absolute error: 0.03370084316544464
Coverage of cases: 98.78787878787878
Instances selection time: 332.0
Test time: 619.0
Accumulative iteration time: 20104.0
Weighted Recall: 0.9238095238095239
Weighted FalsePositiveRate: 0.012698412698412698
Kappa statistic: 0.9111111111111112
Training time: 300.0
		
Iteration: 29
Labeled set size: 791
Unlabelled set size: 364
	
Mean region size: 20.544217687074447
Incorrectly Classified Instances: 7.532467532467533
Correctly Classified Instances: 92.46753246753246
Weighted Precision: 0.9246659632594836
Weighted AreaUnderROC: 0.9909860509860511
Root mean squared error: 0.12684227414823152
Relative absolute error: 13.625518956282178
Root relative squared error: 36.24819910569484
Weighted TruePositiveRate: 0.9246753246753247
Weighted MatthewsCorrelation: 0.9121090066633504
Weighted FMeasure: 0.9246440527121345
Iteration time: 638.0
Weighted AreaUnderPRC: 0.9504552467892252
Mean absolute error: 0.03336861785211976
Coverage of cases: 98.87445887445888
Instances selection time: 330.0
Test time: 628.0
Accumulative iteration time: 20742.0
Weighted Recall: 0.9246753246753247
Weighted FalsePositiveRate: 0.012554112554112554
Kappa statistic: 0.912121212121212
Training time: 308.0
		
Iteration: 30
Labeled set size: 811
Unlabelled set size: 344
	
Mean region size: 20.56895485466877
Incorrectly Classified Instances: 7.619047619047619
Correctly Classified Instances: 92.38095238095238
Weighted Precision: 0.9238258068376335
Weighted AreaUnderROC: 0.9909099654554201
Root mean squared error: 0.12710203145448434
Relative absolute error: 13.722790726807727
Root relative squared error: 36.32243093904409
Weighted TruePositiveRate: 0.9238095238095239
Weighted MatthewsCorrelation: 0.9111091587366731
Weighted FMeasure: 0.9237834203833803
Iteration time: 629.0
Weighted AreaUnderPRC: 0.9492731925690983
Mean absolute error: 0.03360683443299866
Coverage of cases: 98.87445887445888
Instances selection time: 313.0
Test time: 675.0
Accumulative iteration time: 21371.0
Weighted Recall: 0.9238095238095239
Weighted FalsePositiveRate: 0.012698412698412698
Kappa statistic: 0.9111111111111112
Training time: 316.0
		
Iteration: 31
Labeled set size: 831
Unlabelled set size: 324
	
Mean region size: 20.544217687074454
Incorrectly Classified Instances: 7.619047619047619
Correctly Classified Instances: 92.38095238095238
Weighted Precision: 0.9238258068376335
Weighted AreaUnderROC: 0.9910577637850366
Root mean squared error: 0.12715998849069424
Relative absolute error: 13.726502493255422
Root relative squared error: 36.33899354171122
Weighted TruePositiveRate: 0.9238095238095239
Weighted MatthewsCorrelation: 0.9111091587366731
Weighted FMeasure: 0.9237834203833803
Iteration time: 625.0
Weighted AreaUnderPRC: 0.9503232918321802
Mean absolute error: 0.03361592447327873
Coverage of cases: 98.87445887445888
Instances selection time: 311.0
Test time: 644.0
Accumulative iteration time: 21996.0
Weighted Recall: 0.9238095238095239
Weighted FalsePositiveRate: 0.012698412698412698
Kappa statistic: 0.9111111111111112
Training time: 314.0
		
Iteration: 32
Labeled set size: 851
Unlabelled set size: 304
	
Mean region size: 20.507111935682993
Incorrectly Classified Instances: 7.619047619047619
Correctly Classified Instances: 92.38095238095238
Weighted Precision: 0.9238258068376335
Weighted AreaUnderROC: 0.9909886746250384
Root mean squared error: 0.12692257401951892
Relative absolute error: 13.678078219768077
Root relative squared error: 36.271146705319126
Weighted TruePositiveRate: 0.9238095238095239
Weighted MatthewsCorrelation: 0.9111091587366731
Weighted FMeasure: 0.9237834203833803
Iteration time: 610.0
Weighted AreaUnderPRC: 0.9499343401299275
Mean absolute error: 0.033497334415758695
Coverage of cases: 98.87445887445888
Instances selection time: 289.0
Test time: 624.0
Accumulative iteration time: 22606.0
Weighted Recall: 0.9238095238095239
Weighted FalsePositiveRate: 0.012698412698412698
Kappa statistic: 0.9111111111111112
Training time: 321.0
		
Iteration: 33
Labeled set size: 871
Unlabelled set size: 284
	
Mean region size: 20.544217687074458
Incorrectly Classified Instances: 7.532467532467533
Correctly Classified Instances: 92.46753246753246
Weighted Precision: 0.9247587209454886
Weighted AreaUnderROC: 0.9911933184660459
Root mean squared error: 0.12634633803940046
Relative absolute error: 13.650357077139644
Root relative squared error: 36.10647355766813
Weighted TruePositiveRate: 0.9246753246753247
Weighted MatthewsCorrelation: 0.912152720271343
Weighted FMeasure: 0.9246856282888279
Iteration time: 619.0
Weighted AreaUnderPRC: 0.9508700868351939
Mean absolute error: 0.03342944590319927
Coverage of cases: 98.87445887445888
Instances selection time: 287.0
Test time: 650.0
Accumulative iteration time: 23225.0
Weighted Recall: 0.9246753246753247
Weighted FalsePositiveRate: 0.012554112554112554
Kappa statistic: 0.912121212121212
Training time: 332.0
		
Iteration: 34
Labeled set size: 891
Unlabelled set size: 264
	
Mean region size: 20.420531849102904
Incorrectly Classified Instances: 7.445887445887446
Correctly Classified Instances: 92.55411255411255
Weighted Precision: 0.9254295641521192
Weighted AreaUnderROC: 0.9910332764878219
Root mean squared error: 0.12713422827899776
Relative absolute error: 13.700182681268675
Root relative squared error: 36.33163194804026
Weighted TruePositiveRate: 0.9255411255411256
Weighted MatthewsCorrelation: 0.9130670105893667
Weighted FMeasure: 0.9254501623795311
Iteration time: 611.0
Weighted AreaUnderPRC: 0.950490942602824
Mean absolute error: 0.033551467790862204
Coverage of cases: 98.78787878787878
Instances selection time: 277.0
Test time: 640.0
Accumulative iteration time: 23836.0
Weighted Recall: 0.9255411255411256
Weighted FalsePositiveRate: 0.01240981240981241
Kappa statistic: 0.913131313131313
Training time: 334.0
		
Iteration: 35
Labeled set size: 911
Unlabelled set size: 244
	
Mean region size: 20.470006184291524
Incorrectly Classified Instances: 7.532467532467533
Correctly Classified Instances: 92.46753246753246
Weighted Precision: 0.9247587209454886
Weighted AreaUnderROC: 0.9908391272027636
Root mean squared error: 0.1263731512669093
Relative absolute error: 13.68398348461633
Root relative squared error: 36.11413607567274
Weighted TruePositiveRate: 0.9246753246753247
Weighted MatthewsCorrelation: 0.912152720271343
Weighted FMeasure: 0.9246856282888279
Iteration time: 593.0
Weighted AreaUnderPRC: 0.9503446236685279
Mean absolute error: 0.03351179628885646
Coverage of cases: 98.87445887445888
Instances selection time: 257.0
Test time: 634.0
Accumulative iteration time: 24429.0
Weighted Recall: 0.9246753246753247
Weighted FalsePositiveRate: 0.012554112554112554
Kappa statistic: 0.912121212121212
Training time: 336.0
		
Iteration: 36
Labeled set size: 931
Unlabelled set size: 224
	
Mean region size: 20.556586270871616
Incorrectly Classified Instances: 7.619047619047619
Correctly Classified Instances: 92.38095238095238
Weighted Precision: 0.9238258068376335
Weighted AreaUnderROC: 0.9907201889020071
Root mean squared error: 0.12693457979335876
Relative absolute error: 13.764452934611493
Root relative squared error: 36.27457764097119
Weighted TruePositiveRate: 0.9238095238095239
Weighted MatthewsCorrelation: 0.9111091587366731
Weighted FMeasure: 0.9237834203833803
Iteration time: 577.0
Weighted AreaUnderPRC: 0.9500802794492756
Mean absolute error: 0.03370886432966094
Coverage of cases: 98.87445887445888
Instances selection time: 238.0
Test time: 637.0
Accumulative iteration time: 25006.0
Weighted Recall: 0.9238095238095239
Weighted FalsePositiveRate: 0.012698412698412698
Kappa statistic: 0.9111111111111112
Training time: 339.0
		
Iteration: 37
Labeled set size: 951
Unlabelled set size: 204
	
Mean region size: 20.53184910327731
Incorrectly Classified Instances: 7.445887445887446
Correctly Classified Instances: 92.55411255411255
Weighted Precision: 0.9256089997338671
Weighted AreaUnderROC: 0.9911670820761729
Root mean squared error: 0.12633156320768035
Relative absolute error: 13.669996261648429
Root relative squared error: 36.10225129781399
Weighted TruePositiveRate: 0.9255411255411256
Weighted MatthewsCorrelation: 0.9131567766796971
Weighted FMeasure: 0.9255488371498422
Iteration time: 546.0
Weighted AreaUnderPRC: 0.9506513827662605
Mean absolute error: 0.0334775418652616
Coverage of cases: 98.87445887445888
Instances selection time: 217.0
Test time: 647.0
Accumulative iteration time: 25552.0
Weighted Recall: 0.9255411255411256
Weighted FalsePositiveRate: 0.012409812409812409
Kappa statistic: 0.913131313131313
Training time: 329.0
		
Iteration: 38
Labeled set size: 971
Unlabelled set size: 184
	
Mean region size: 20.470006184291528
Incorrectly Classified Instances: 7.445887445887446
Correctly Classified Instances: 92.55411255411255
Weighted Precision: 0.9256089997338671
Weighted AreaUnderROC: 0.9911557129738949
Root mean squared error: 0.12634166919160428
Relative absolute error: 13.673670412456875
Root relative squared error: 36.105139323276276
Weighted TruePositiveRate: 0.9255411255411256
Weighted MatthewsCorrelation: 0.9131567766796971
Weighted FMeasure: 0.9255488371498422
Iteration time: 523.0
Weighted AreaUnderPRC: 0.9507201976034245
Mean absolute error: 0.03348653978560882
Coverage of cases: 98.87445887445888
Instances selection time: 192.0
Test time: 643.0
Accumulative iteration time: 26075.0
Weighted Recall: 0.9255411255411256
Weighted FalsePositiveRate: 0.012409812409812409
Kappa statistic: 0.913131313131313
Training time: 331.0
		
Iteration: 39
Labeled set size: 991
Unlabelled set size: 164
	
Mean region size: 20.420531849102904
Incorrectly Classified Instances: 7.445887445887446
Correctly Classified Instances: 92.55411255411255
Weighted Precision: 0.9256089997338671
Weighted AreaUnderROC: 0.9912764003673095
Root mean squared error: 0.12632279337596772
Relative absolute error: 13.668560085949219
Root relative squared error: 36.09974510965096
Weighted TruePositiveRate: 0.9255411255411256
Weighted MatthewsCorrelation: 0.9131567766796971
Weighted FMeasure: 0.9255488371498422
Iteration time: 502.0
Weighted AreaUnderPRC: 0.9508252245068648
Mean absolute error: 0.03347402470028395
Coverage of cases: 98.87445887445888
Instances selection time: 171.0
Test time: 648.0
Accumulative iteration time: 26577.0
Weighted Recall: 0.9255411255411256
Weighted FalsePositiveRate: 0.012409812409812409
Kappa statistic: 0.913131313131313
Training time: 331.0
		
Iteration: 40
Labeled set size: 1011
Unlabelled set size: 144
	
Mean region size: 20.37105751391428
Incorrectly Classified Instances: 7.445887445887446
Correctly Classified Instances: 92.55411255411255
Weighted Precision: 0.9256089997338671
Weighted AreaUnderROC: 0.9912545367090821
Root mean squared error: 0.12636646150334838
Relative absolute error: 13.671458648202458
Root relative squared error: 36.112224316496594
Weighted TruePositiveRate: 0.9255411255411256
Weighted MatthewsCorrelation: 0.9131567766796971
Weighted FMeasure: 0.9255488371498422
Iteration time: 471.0
Weighted AreaUnderPRC: 0.9507331248432117
Mean absolute error: 0.0334811232200878
Coverage of cases: 98.87445887445888
Instances selection time: 144.0
Test time: 647.0
Accumulative iteration time: 27048.0
Weighted Recall: 0.9255411255411256
Weighted FalsePositiveRate: 0.012409812409812409
Kappa statistic: 0.913131313131313
Training time: 327.0
		
Iteration: 41
Labeled set size: 1031
Unlabelled set size: 124
	
Mean region size: 20.37105751391428
Incorrectly Classified Instances: 7.445887445887446
Correctly Classified Instances: 92.55411255411255
Weighted Precision: 0.9256089997338671
Weighted AreaUnderROC: 0.9913699768245223
Root mean squared error: 0.12613488022003605
Relative absolute error: 13.646777960387318
Root relative squared error: 36.046044452385615
Weighted TruePositiveRate: 0.9255411255411256
Weighted MatthewsCorrelation: 0.9131567766796971
Weighted FMeasure: 0.9255488371498422
Iteration time: 451.0
Weighted AreaUnderPRC: 0.9511272902847704
Mean absolute error: 0.033420680719316025
Coverage of cases: 98.96103896103897
Instances selection time: 121.0
Test time: 648.0
Accumulative iteration time: 27499.0
Weighted Recall: 0.9255411255411256
Weighted FalsePositiveRate: 0.012409812409812409
Kappa statistic: 0.913131313131313
Training time: 330.0
		
Iteration: 42
Labeled set size: 1051
Unlabelled set size: 104
	
Mean region size: 20.39579468150859
Incorrectly Classified Instances: 7.445887445887446
Correctly Classified Instances: 92.55411255411255
Weighted Precision: 0.9256089997338671
Weighted AreaUnderROC: 0.9913927150290786
Root mean squared error: 0.12593492687733104
Relative absolute error: 13.645232475749886
Root relative squared error: 35.98890302515332
Weighted TruePositiveRate: 0.9255411255411256
Weighted MatthewsCorrelation: 0.9131567766796971
Weighted FMeasure: 0.9255488371498422
Iteration time: 431.0
Weighted AreaUnderPRC: 0.9511064785133637
Mean absolute error: 0.03341689585897945
Coverage of cases: 98.96103896103897
Instances selection time: 98.0
Test time: 642.0
Accumulative iteration time: 27930.0
Weighted Recall: 0.9255411255411256
Weighted FalsePositiveRate: 0.012409812409812409
Kappa statistic: 0.913131313131313
Training time: 333.0
		
Iteration: 43
Labeled set size: 1071
Unlabelled set size: 84
	
Mean region size: 20.383426097711435
Incorrectly Classified Instances: 7.359307359307359
Correctly Classified Instances: 92.64069264069263
Weighted Precision: 0.9265612383596398
Weighted AreaUnderROC: 0.9913419913419913
Root mean squared error: 0.1259344791539449
Relative absolute error: 13.708989958138595
Root relative squared error: 35.98877507753843
Weighted TruePositiveRate: 0.9264069264069265
Weighted MatthewsCorrelation: 0.9142076297364908
Weighted FMeasure: 0.9264533639343238
Iteration time: 410.0
Weighted AreaUnderPRC: 0.9510577112006913
Mean absolute error: 0.0335730366321763
Coverage of cases: 98.96103896103897
Instances selection time: 80.0
Test time: 651.0
Accumulative iteration time: 28340.0
Weighted Recall: 0.9264069264069265
Weighted FalsePositiveRate: 0.012265512265512264
Kappa statistic: 0.914141414141414
Training time: 330.0
		
Iteration: 44
Labeled set size: 1091
Unlabelled set size: 64
	
Mean region size: 20.56895485466877
Incorrectly Classified Instances: 7.445887445887446
Correctly Classified Instances: 92.55411255411255
Weighted Precision: 0.925806498593911
Weighted AreaUnderROC: 0.9913253749617384
Root mean squared error: 0.1264154706465072
Relative absolute error: 13.910271930504345
Root relative squared error: 36.126229845734784
Weighted TruePositiveRate: 0.9255411255411256
Weighted MatthewsCorrelation: 0.913248885253375
Weighted FMeasure: 0.9256338179679893
Iteration time: 395.0
Weighted AreaUnderPRC: 0.9509357177618056
Mean absolute error: 0.034065972074704666
Coverage of cases: 98.96103896103897
Instances selection time: 64.0
Test time: 639.0
Accumulative iteration time: 28735.0
Weighted Recall: 0.9255411255411256
Weighted FalsePositiveRate: 0.012409812409812409
Kappa statistic: 0.913131313131313
Training time: 331.0
		
Iteration: 45
Labeled set size: 1111
Unlabelled set size: 44
	
Mean region size: 20.556586270871616
Incorrectly Classified Instances: 7.445887445887446
Correctly Classified Instances: 92.55411255411255
Weighted Precision: 0.925806498593911
Weighted AreaUnderROC: 0.9912475403384495
Root mean squared error: 0.126587018502695
Relative absolute error: 13.914942622035365
Root relative squared error: 36.175253729049764
Weighted TruePositiveRate: 0.9255411255411256
Weighted MatthewsCorrelation: 0.913248885253375
Weighted FMeasure: 0.9256338179679893
Iteration time: 383.0
Weighted AreaUnderPRC: 0.9507165575348236
Mean absolute error: 0.0340774105029439
Coverage of cases: 98.96103896103897
Instances selection time: 49.0
Test time: 638.0
Accumulative iteration time: 29118.0
Weighted Recall: 0.9255411255411256
Weighted FalsePositiveRate: 0.012409812409812409
Kappa statistic: 0.913131313131313
Training time: 334.0
		
Iteration: 46
Labeled set size: 1131
Unlabelled set size: 24
	
Mean region size: 20.568954854668767
Incorrectly Classified Instances: 7.445887445887446
Correctly Classified Instances: 92.55411255411255
Weighted Precision: 0.925806498593911
Weighted AreaUnderROC: 0.991272902181993
Root mean squared error: 0.12649143347805164
Relative absolute error: 13.909594907667316
Root relative squared error: 36.14793803301655
Weighted TruePositiveRate: 0.9255411255411256
Weighted MatthewsCorrelation: 0.913248885253375
Weighted FMeasure: 0.9256338179679893
Iteration time: 365.0
Weighted AreaUnderPRC: 0.9508341233867285
Mean absolute error: 0.03406431405959357
Coverage of cases: 98.96103896103897
Instances selection time: 28.0
Test time: 634.0
Accumulative iteration time: 29483.0
Weighted Recall: 0.9255411255411256
Weighted FalsePositiveRate: 0.012409812409812409
Kappa statistic: 0.913131313131313
Training time: 337.0
		
Time end:Thu Nov 30 22.45.16 EET 2017