Thu Nov 30 22.34.11 EET 2017
Dataset: segment
Test set size: 1155
Initial Labelled set size: 231
Initial Unlabelled set size: 924
Batch mode: QBestBatchMode
Batch size: 20
Classifiers: SMOsync-1cores
Scenario: PoolBasedSamplingScenario
Query strategy: KullbackLeiblerDivergenceQueryStrategy-1cores
Time begining: Thu Nov 30 22.34.11 EET 2017
		
Iteration: 1
Labeled set size: 231
Unlabelled set size: 924
	
Mean region size: 21.842918985775725
Incorrectly Classified Instances: 12.380952380952381
Correctly Classified Instances: 87.61904761904762
Weighted Precision: 0.8800243736473157
Weighted AreaUnderROC: 0.9836984564257293
Root mean squared error: 0.16340470010259625
Relative absolute error: 19.10189935674127
Root relative squared error: 46.696782629451505
Weighted TruePositiveRate: 0.8761904761904762
Weighted MatthewsCorrelation: 0.85659680036808
Weighted FMeasure: 0.8749940371673657
Iteration time: 1230.0
Weighted AreaUnderPRC: 0.9241951118203927
Mean absolute error: 0.04678016168997882
Coverage of cases: 96.36363636363636
Instances selection time: 1007.0
Test time: 637.0
Accumulative iteration time: 1230.0
Weighted Recall: 0.8761904761904762
Weighted FalsePositiveRate: 0.020634920634920634
Kappa statistic: 0.8555555555555555
Training time: 223.0
		
Iteration: 2
Labeled set size: 251
Unlabelled set size: 904
	
Mean region size: 22.040816326530216
Incorrectly Classified Instances: 10.995670995670995
Correctly Classified Instances: 89.00432900432901
Weighted Precision: 0.8955439000446064
Weighted AreaUnderROC: 0.9870969434605797
Root mean squared error: 0.15275206069392985
Relative absolute error: 18.217427693668316
Root relative squared error: 43.65253735019028
Weighted TruePositiveRate: 0.8900432900432901
Weighted MatthewsCorrelation: 0.8740096939992706
Weighted FMeasure: 0.8914172207321102
Iteration time: 1340.0
Weighted AreaUnderPRC: 0.9347559246977151
Mean absolute error: 0.044614108637555244
Coverage of cases: 98.0952380952381
Instances selection time: 1002.0
Test time: 629.0
Accumulative iteration time: 2570.0
Weighted Recall: 0.8900432900432901
Weighted FalsePositiveRate: 0.018326118326118326
Kappa statistic: 0.8717171717171717
Training time: 338.0
		
Iteration: 3
Labeled set size: 271
Unlabelled set size: 884
	
Mean region size: 20.989486703772062
Incorrectly Classified Instances: 11.428571428571429
Correctly Classified Instances: 88.57142857142857
Weighted Precision: 0.8959217382170604
Weighted AreaUnderROC: 0.9875403384494292
Root mean squared error: 0.15196857284317214
Relative absolute error: 17.467232953509406
Root relative squared error: 43.428637047220555
Weighted TruePositiveRate: 0.8857142857142857
Weighted MatthewsCorrelation: 0.8707306122262931
Weighted FMeasure: 0.8876400009805145
Iteration time: 1215.0
Weighted AreaUnderPRC: 0.9339583031420793
Mean absolute error: 0.04277689702900281
Coverage of cases: 97.57575757575758
Instances selection time: 1000.0
Test time: 643.0
Accumulative iteration time: 3785.0
Weighted Recall: 0.8857142857142857
Weighted FalsePositiveRate: 0.01904761904761905
Kappa statistic: 0.8666666666666666
Training time: 215.0
		
Iteration: 4
Labeled set size: 291
Unlabelled set size: 864
	
Mean region size: 20.43290043290009
Incorrectly Classified Instances: 10.476190476190476
Correctly Classified Instances: 89.52380952380952
Weighted Precision: 0.9068690986591071
Weighted AreaUnderROC: 0.9876942586033496
Root mean squared error: 0.14985342540246602
Relative absolute error: 16.47170772280985
Root relative squared error: 42.824183318497454
Weighted TruePositiveRate: 0.8952380952380953
Weighted MatthewsCorrelation: 0.8824851889708274
Weighted FMeasure: 0.897591247502286
Iteration time: 1239.0
Weighted AreaUnderPRC: 0.9334398192868516
Mean absolute error: 0.04033887605586103
Coverage of cases: 97.22943722943722
Instances selection time: 1026.0
Test time: 660.0
Accumulative iteration time: 5024.0
Weighted Recall: 0.8952380952380953
Weighted FalsePositiveRate: 0.017460317460317457
Kappa statistic: 0.8777777777777777
Training time: 213.0
		
Iteration: 5
Labeled set size: 311
Unlabelled set size: 844
	
Mean region size: 20.333951762522847
Incorrectly Classified Instances: 10.64935064935065
Correctly Classified Instances: 89.35064935064935
Weighted Precision: 0.9064174843495983
Weighted AreaUnderROC: 0.9874660020114566
Root mean squared error: 0.15100349357214096
Relative absolute error: 16.397589881254344
Root relative squared error: 43.15284267342814
Weighted TruePositiveRate: 0.8935064935064935
Weighted MatthewsCorrelation: 0.8808707007092862
Weighted FMeasure: 0.8957004887466665
Iteration time: 1202.0
Weighted AreaUnderPRC: 0.9302208075838414
Mean absolute error: 0.04015736297450061
Coverage of cases: 97.14285714285714
Instances selection time: 990.0
Test time: 648.0
Accumulative iteration time: 6226.0
Weighted Recall: 0.8935064935064935
Weighted FalsePositiveRate: 0.01774891774891775
Kappa statistic: 0.8757575757575756
Training time: 212.0
		
Iteration: 6
Labeled set size: 331
Unlabelled set size: 824
	
Mean region size: 20.309214594928545
Incorrectly Classified Instances: 11.082251082251082
Correctly Classified Instances: 88.91774891774892
Weighted Precision: 0.9075977443831542
Weighted AreaUnderROC: 0.9872438672438673
Root mean squared error: 0.15425504718113556
Relative absolute error: 16.7798849492356
Root relative squared error: 44.08205151498469
Weighted TruePositiveRate: 0.8891774891774892
Weighted MatthewsCorrelation: 0.877658665513828
Weighted FMeasure: 0.8911053904293202
Iteration time: 1197.0
Weighted AreaUnderPRC: 0.9294242735192109
Mean absolute error: 0.04109359579404655
Coverage of cases: 97.05627705627705
Instances selection time: 980.0
Test time: 738.0
Accumulative iteration time: 7423.0
Weighted Recall: 0.8891774891774892
Weighted FalsePositiveRate: 0.01847041847041847
Kappa statistic: 0.8707070707070705
Training time: 217.0
		
Iteration: 7
Labeled set size: 351
Unlabelled set size: 804
	
Mean region size: 19.98763141620252
Incorrectly Classified Instances: 11.082251082251082
Correctly Classified Instances: 88.91774891774892
Weighted Precision: 0.9084064694109415
Weighted AreaUnderROC: 0.9873619309982945
Root mean squared error: 0.15415275050892233
Relative absolute error: 16.47280137764352
Root relative squared error: 44.052817805898854
Weighted TruePositiveRate: 0.8891774891774892
Weighted MatthewsCorrelation: 0.8779447691262607
Weighted FMeasure: 0.8910074082424717
Iteration time: 1209.0
Weighted AreaUnderPRC: 0.9308051534476609
Mean absolute error: 0.040341554394229207
Coverage of cases: 96.96969696969697
Instances selection time: 975.0
Test time: 656.0
Accumulative iteration time: 8632.0
Weighted Recall: 0.8891774891774892
Weighted FalsePositiveRate: 0.01847041847041847
Kappa statistic: 0.8707070707070705
Training time: 234.0
		
Iteration: 8
Labeled set size: 371
Unlabelled set size: 784
	
Mean region size: 20.049474335188304
Incorrectly Classified Instances: 11.168831168831169
Correctly Classified Instances: 88.83116883116882
Weighted Precision: 0.9098199688732719
Weighted AreaUnderROC: 0.9866089466089466
Root mean squared error: 0.15669909915448643
Relative absolute error: 16.78898892279461
Root relative squared error: 44.78049754293242
Weighted TruePositiveRate: 0.8883116883116883
Weighted MatthewsCorrelation: 0.8776774934843287
Weighted FMeasure: 0.8899746994603159
Iteration time: 1170.0
Weighted AreaUnderPRC: 0.9283329159516489
Mean absolute error: 0.041115891239497174
Coverage of cases: 97.40259740259741
Instances selection time: 940.0
Test time: 663.0
Accumulative iteration time: 9802.0
Weighted Recall: 0.8883116883116883
Weighted FalsePositiveRate: 0.01861471861471861
Kappa statistic: 0.8696969696969695
Training time: 230.0
		
Iteration: 9
Labeled set size: 391
Unlabelled set size: 764
	
Mean region size: 20.2968460111314
Incorrectly Classified Instances: 11.168831168831169
Correctly Classified Instances: 88.83116883116882
Weighted Precision: 0.9098199688732719
Weighted AreaUnderROC: 0.9862180243998425
Root mean squared error: 0.15704286799735398
Relative absolute error: 17.066194482955638
Root relative squared error: 44.87873767262321
Weighted TruePositiveRate: 0.8883116883116883
Weighted MatthewsCorrelation: 0.8776774934843287
Weighted FMeasure: 0.8899746994603159
Iteration time: 1125.0
Weighted AreaUnderPRC: 0.9273995654802419
Mean absolute error: 0.04179476199907521
Coverage of cases: 97.31601731601732
Instances selection time: 894.0
Test time: 651.0
Accumulative iteration time: 10927.0
Weighted Recall: 0.8883116883116883
Weighted FalsePositiveRate: 0.01861471861471861
Kappa statistic: 0.8696969696969695
Training time: 231.0
		
Iteration: 10
Labeled set size: 411
Unlabelled set size: 744
	
Mean region size: 20.296846011131407
Incorrectly Classified Instances: 11.515151515151516
Correctly Classified Instances: 88.48484848484848
Weighted Precision: 0.9055377433401776
Weighted AreaUnderROC: 0.9860649787922514
Root mean squared error: 0.1568754174632262
Relative absolute error: 17.074267615739323
Root relative squared error: 44.830884696616764
Weighted TruePositiveRate: 0.8848484848484849
Weighted MatthewsCorrelation: 0.8733859362122096
Weighted FMeasure: 0.8866149978953777
Iteration time: 1089.0
Weighted AreaUnderPRC: 0.9262147254486035
Mean absolute error: 0.041814532936504646
Coverage of cases: 97.22943722943722
Instances selection time: 854.0
Test time: 655.0
Accumulative iteration time: 12016.0
Weighted Recall: 0.8848484848484849
Weighted FalsePositiveRate: 0.01919191919191919
Kappa statistic: 0.8656565656565656
Training time: 235.0
		
Iteration: 11
Labeled set size: 431
Unlabelled set size: 724
	
Mean region size: 20.333951762522865
Incorrectly Classified Instances: 11.255411255411255
Correctly Classified Instances: 88.74458874458874
Weighted Precision: 0.9087888709877712
Weighted AreaUnderROC: 0.9861209497573135
Root mean squared error: 0.1568153701294582
Relative absolute error: 17.082391507590426
Root relative squared error: 44.81372474166638
Weighted TruePositiveRate: 0.8874458874458875
Weighted MatthewsCorrelation: 0.8766182772250424
Weighted FMeasure: 0.8891619606265045
Iteration time: 1049.0
Weighted AreaUnderPRC: 0.926483178557392
Mean absolute error: 0.04183442818185428
Coverage of cases: 97.31601731601732
Instances selection time: 820.0
Test time: 654.0
Accumulative iteration time: 13065.0
Weighted Recall: 0.8874458874458875
Weighted FalsePositiveRate: 0.018759018759018756
Kappa statistic: 0.8686868686868687
Training time: 229.0
		
Iteration: 12
Labeled set size: 451
Unlabelled set size: 704
	
Mean region size: 20.32158317872571
Incorrectly Classified Instances: 11.168831168831169
Correctly Classified Instances: 88.83116883116882
Weighted Precision: 0.9098199688732719
Weighted AreaUnderROC: 0.9862084043902226
Root mean squared error: 0.15705197758537337
Relative absolute error: 17.107877693460672
Root relative squared error: 44.88134095423823
Weighted TruePositiveRate: 0.8883116883116883
Weighted MatthewsCorrelation: 0.8776774934843287
Weighted FMeasure: 0.8899746994603159
Iteration time: 1023.0
Weighted AreaUnderPRC: 0.9269013350197305
Mean absolute error: 0.04189684333092427
Coverage of cases: 97.31601731601732
Instances selection time: 794.0
Test time: 662.0
Accumulative iteration time: 14088.0
Weighted Recall: 0.8883116883116883
Weighted FalsePositiveRate: 0.01861471861471861
Kappa statistic: 0.8696969696969695
Training time: 229.0
		
Iteration: 13
Labeled set size: 471
Unlabelled set size: 684
	
Mean region size: 20.309214594928555
Incorrectly Classified Instances: 11.341991341991342
Correctly Classified Instances: 88.65800865800865
Weighted Precision: 0.907396343923268
Weighted AreaUnderROC: 0.9862722462722462
Root mean squared error: 0.15685314004235643
Relative absolute error: 17.070693207972234
Root relative squared error: 44.82451839332654
Weighted TruePositiveRate: 0.8865800865800866
Weighted MatthewsCorrelation: 0.8754450113697555
Weighted FMeasure: 0.8883433215220901
Iteration time: 990.0
Weighted AreaUnderPRC: 0.9269236023672464
Mean absolute error: 0.04180577928483014
Coverage of cases: 97.31601731601732
Instances selection time: 763.0
Test time: 667.0
Accumulative iteration time: 15078.0
Weighted Recall: 0.8865800865800866
Weighted FalsePositiveRate: 0.0189033189033189
Kappa statistic: 0.8676767676767677
Training time: 227.0
		
Iteration: 14
Labeled set size: 491
Unlabelled set size: 664
	
Mean region size: 20.32158317872571
Incorrectly Classified Instances: 11.168831168831169
Correctly Classified Instances: 88.83116883116882
Weighted Precision: 0.9098199688732719
Weighted AreaUnderROC: 0.9863290917836373
Root mean squared error: 0.15710911480791823
Relative absolute error: 17.144650183612704
Root relative squared error: 44.89766927563628
Weighted TruePositiveRate: 0.8883116883116883
Weighted MatthewsCorrelation: 0.8776774934843287
Weighted FMeasure: 0.8899746994603159
Iteration time: 967.0
Weighted AreaUnderPRC: 0.9274417390597578
Mean absolute error: 0.04198689840884762
Coverage of cases: 97.40259740259741
Instances selection time: 739.0
Test time: 672.0
Accumulative iteration time: 16045.0
Weighted Recall: 0.8883116883116883
Weighted FalsePositiveRate: 0.01861471861471861
Kappa statistic: 0.8696969696969695
Training time: 228.0
		
Iteration: 15
Labeled set size: 511
Unlabelled set size: 644
	
Mean region size: 20.173160173159843
Incorrectly Classified Instances: 10.38961038961039
Correctly Classified Instances: 89.6103896103896
Weighted Precision: 0.9178006072772322
Weighted AreaUnderROC: 0.9869229087410906
Root mean squared error: 0.15079116623947786
Relative absolute error: 16.17353157083805
Root relative squared error: 43.09216508402322
Weighted TruePositiveRate: 0.8961038961038961
Weighted MatthewsCorrelation: 0.8867801837869372
Weighted FMeasure: 0.8976026163908674
Iteration time: 1039.0
Weighted AreaUnderPRC: 0.9304767920534545
Mean absolute error: 0.039608648744909686
Coverage of cases: 97.57575757575758
Instances selection time: 799.0
Test time: 689.0
Accumulative iteration time: 17084.0
Weighted Recall: 0.8961038961038961
Weighted FalsePositiveRate: 0.017316017316017313
Kappa statistic: 0.8787878787878788
Training time: 240.0
		
Iteration: 16
Labeled set size: 531
Unlabelled set size: 624
	
Mean region size: 19.97526283240536
Incorrectly Classified Instances: 9.87012987012987
Correctly Classified Instances: 90.12987012987013
Weighted Precision: 0.9229166977312557
Weighted AreaUnderROC: 0.9882242336787791
Root mean squared error: 0.14429505333959022
Relative absolute error: 15.287480167195675
Root relative squared error: 41.23574619379566
Weighted TruePositiveRate: 0.9012987012987013
Weighted MatthewsCorrelation: 0.8928389174350237
Weighted FMeasure: 0.902911217922043
Iteration time: 999.0
Weighted AreaUnderPRC: 0.9402397695013878
Mean absolute error: 0.0374387269400712
Coverage of cases: 97.92207792207792
Instances selection time: 702.0
Test time: 690.0
Accumulative iteration time: 18083.0
Weighted Recall: 0.9012987012987013
Weighted FalsePositiveRate: 0.01645021645021645
Kappa statistic: 0.8848484848484848
Training time: 297.0
		
Iteration: 17
Labeled set size: 551
Unlabelled set size: 604
	
Mean region size: 20.049474335188293
Incorrectly Classified Instances: 9.956709956709958
Correctly Classified Instances: 90.04329004329004
Weighted Precision: 0.922432249534907
Weighted AreaUnderROC: 0.9882399755127027
Root mean squared error: 0.14374178073170898
Relative absolute error: 15.28325695261735
Root relative squared error: 41.07763537636606
Weighted TruePositiveRate: 0.9004329004329005
Weighted MatthewsCorrelation: 0.8919472594628851
Weighted FMeasure: 0.9020004865475397
Iteration time: 894.0
Weighted AreaUnderPRC: 0.9399735070407662
Mean absolute error: 0.03742838437375694
Coverage of cases: 98.008658008658
Instances selection time: 671.0
Test time: 708.0
Accumulative iteration time: 18977.0
Weighted Recall: 0.9004329004329005
Weighted FalsePositiveRate: 0.016594516594516596
Kappa statistic: 0.8838383838383838
Training time: 223.0
		
Iteration: 18
Labeled set size: 571
Unlabelled set size: 584
	
Mean region size: 20.210265924551315
Incorrectly Classified Instances: 9.87012987012987
Correctly Classified Instances: 90.12987012987013
Weighted Precision: 0.9235598713332629
Weighted AreaUnderROC: 0.9881708863527046
Root mean squared error: 0.14470650614161532
Relative absolute error: 15.462364013705647
Root relative squared error: 41.35332862591898
Weighted TruePositiveRate: 0.9012987012987013
Weighted MatthewsCorrelation: 0.892993354386451
Weighted FMeasure: 0.9027300966837166
Iteration time: 1024.0
Weighted AreaUnderPRC: 0.9405349109028468
Mean absolute error: 0.037867013911116035
Coverage of cases: 98.008658008658
Instances selection time: 636.0
Test time: 695.0
Accumulative iteration time: 20001.0
Weighted Recall: 0.9012987012987013
Weighted FalsePositiveRate: 0.016450216450216448
Kappa statistic: 0.8848484848484848
Training time: 388.0
		
Iteration: 19
Labeled set size: 591
Unlabelled set size: 564
	
Mean region size: 20.531849103277363
Incorrectly Classified Instances: 9.437229437229437
Correctly Classified Instances: 90.56277056277057
Weighted Precision: 0.9254397845407855
Weighted AreaUnderROC: 0.9882163627618172
Root mean squared error: 0.14298686825935975
Relative absolute error: 15.430514443332557
Root relative squared error: 40.86190116796556
Weighted TruePositiveRate: 0.9056277056277057
Weighted MatthewsCorrelation: 0.8971231000306916
Weighted FMeasure: 0.9068216184749531
Iteration time: 819.0
Weighted AreaUnderPRC: 0.9415671043800677
Mean absolute error: 0.03778901496326357
Coverage of cases: 98.008658008658
Instances selection time: 608.0
Test time: 692.0
Accumulative iteration time: 20820.0
Weighted Recall: 0.9056277056277057
Weighted FalsePositiveRate: 0.01572871572871573
Kappa statistic: 0.8898989898989899
Training time: 211.0
		
Iteration: 20
Labeled set size: 611
Unlabelled set size: 544
	
Mean region size: 20.123685837971223
Incorrectly Classified Instances: 9.61038961038961
Correctly Classified Instances: 90.3896103896104
Weighted Precision: 0.9243452085488127
Weighted AreaUnderROC: 0.988412261139534
Root mean squared error: 0.14362300593581304
Relative absolute error: 15.281469980247774
Root relative squared error: 41.04369265120376
Weighted TruePositiveRate: 0.9038961038961039
Weighted MatthewsCorrelation: 0.8954181184440678
Weighted FMeasure: 0.9053822881986082
Iteration time: 926.0
Weighted AreaUnderPRC: 0.9421674169589368
Mean absolute error: 0.037424008114892666
Coverage of cases: 98.0952380952381
Instances selection time: 600.0
Test time: 897.0
Accumulative iteration time: 21746.0
Weighted Recall: 0.9038961038961039
Weighted FalsePositiveRate: 0.016017316017316017
Kappa statistic: 0.8878787878787877
Training time: 326.0
		
Iteration: 21
Labeled set size: 631
Unlabelled set size: 524
	
Mean region size: 20.086580086579758
Incorrectly Classified Instances: 9.956709956709958
Correctly Classified Instances: 90.04329004329004
Weighted Precision: 0.9219745283457905
Weighted AreaUnderROC: 0.9875604530149986
Root mean squared error: 0.14498698723216097
Relative absolute error: 15.447698749603477
Root relative squared error: 41.43348277392487
Weighted TruePositiveRate: 0.9004329004329005
Weighted MatthewsCorrelation: 0.8918161486745193
Weighted FMeasure: 0.9021072383902404
Iteration time: 839.0
Weighted AreaUnderPRC: 0.9350712370870682
Mean absolute error: 0.03783109897862092
Coverage of cases: 97.92207792207792
Instances selection time: 584.0
Test time: 713.0
Accumulative iteration time: 22585.0
Weighted Recall: 0.9004329004329005
Weighted FalsePositiveRate: 0.016594516594516596
Kappa statistic: 0.8838383838383838
Training time: 255.0
		
Iteration: 22
Labeled set size: 651
Unlabelled set size: 504
	
Mean region size: 20.037105751391138
Incorrectly Classified Instances: 9.783549783549784
Correctly Classified Instances: 90.21645021645021
Weighted Precision: 0.9240813233910731
Weighted AreaUnderROC: 0.9880860553587827
Root mean squared error: 0.14343059411209022
Relative absolute error: 15.19840430081738
Root relative squared error: 40.98870639253385
Weighted TruePositiveRate: 0.9021645021645022
Weighted MatthewsCorrelation: 0.8940143554407483
Weighted FMeasure: 0.9039835307318073
Iteration time: 810.0
Weighted AreaUnderPRC: 0.9390261220122204
Mean absolute error: 0.03722058196118558
Coverage of cases: 98.008658008658
Instances selection time: 557.0
Test time: 725.0
Accumulative iteration time: 23395.0
Weighted Recall: 0.9021645021645022
Weighted FalsePositiveRate: 0.016305916305916306
Kappa statistic: 0.8858585858585859
Training time: 253.0
		
Iteration: 23
Labeled set size: 671
Unlabelled set size: 484
	
Mean region size: 20.111317254174068
Incorrectly Classified Instances: 9.696969696969697
Correctly Classified Instances: 90.3030303030303
Weighted Precision: 0.9254061378672791
Weighted AreaUnderROC: 0.9881157899339716
Root mean squared error: 0.1431162743758969
Relative absolute error: 15.200370415247667
Root relative squared error: 40.89888204606187
Weighted TruePositiveRate: 0.9030303030303031
Weighted MatthewsCorrelation: 0.8952358813093423
Weighted FMeasure: 0.9050102590190873
Iteration time: 776.0
Weighted AreaUnderPRC: 0.9422022369637038
Mean absolute error: 0.03722539693530057
Coverage of cases: 98.008658008658
Instances selection time: 523.0
Test time: 730.0
Accumulative iteration time: 24171.0
Weighted Recall: 0.9030303030303031
Weighted FalsePositiveRate: 0.016161616161616158
Kappa statistic: 0.8868686868686869
Training time: 253.0
		
Iteration: 24
Labeled set size: 691
Unlabelled set size: 464
	
Mean region size: 20.185528756957
Incorrectly Classified Instances: 9.783549783549784
Correctly Classified Instances: 90.21645021645021
Weighted Precision: 0.924304982283409
Weighted AreaUnderROC: 0.9881918754646026
Root mean squared error: 0.1437324350937299
Relative absolute error: 15.336318226181268
Root relative squared error: 41.07496463785628
Weighted TruePositiveRate: 0.9021645021645022
Weighted MatthewsCorrelation: 0.894167625544727
Weighted FMeasure: 0.9042032661469259
Iteration time: 746.0
Weighted AreaUnderPRC: 0.9432439580940198
Mean absolute error: 0.03755833034983184
Coverage of cases: 98.0952380952381
Instances selection time: 494.0
Test time: 736.0
Accumulative iteration time: 24917.0
Weighted Recall: 0.9021645021645022
Weighted FalsePositiveRate: 0.016305916305916306
Kappa statistic: 0.8858585858585859
Training time: 252.0
		
Iteration: 25
Labeled set size: 711
Unlabelled set size: 444
	
Mean region size: 20.09894867037691
Incorrectly Classified Instances: 9.783549783549784
Correctly Classified Instances: 90.21645021645021
Weighted Precision: 0.923594281232241
Weighted AreaUnderROC: 0.9874869911233548
Root mean squared error: 0.14485467677462277
Relative absolute error: 15.411158556443318
Root relative squared error: 41.395671911254546
Weighted TruePositiveRate: 0.9021645021645022
Weighted MatthewsCorrelation: 0.8937908667234117
Weighted FMeasure: 0.9038135193939709
Iteration time: 737.0
Weighted AreaUnderPRC: 0.9343836580809032
Mean absolute error: 0.03774161279128992
Coverage of cases: 98.0952380952381
Instances selection time: 479.0
Test time: 750.0
Accumulative iteration time: 25654.0
Weighted Recall: 0.9021645021645022
Weighted FalsePositiveRate: 0.016305916305916306
Kappa statistic: 0.8858585858585859
Training time: 258.0
		
Iteration: 26
Labeled set size: 731
Unlabelled set size: 424
	
Mean region size: 20.222634508348463
Incorrectly Classified Instances: 9.696969696969697
Correctly Classified Instances: 90.3030303030303
Weighted Precision: 0.9265903913847853
Weighted AreaUnderROC: 0.987859547859548
Root mean squared error: 0.14536038529221612
Relative absolute error: 15.602542027362441
Root relative squared error: 41.54019015770089
Weighted TruePositiveRate: 0.9030303030303031
Weighted MatthewsCorrelation: 0.8956190139152782
Weighted FMeasure: 0.9049291469416021
Iteration time: 720.0
Weighted AreaUnderPRC: 0.9384233413984358
Mean absolute error: 0.03821030700578573
Coverage of cases: 98.0952380952381
Instances selection time: 453.0
Test time: 748.0
Accumulative iteration time: 26374.0
Weighted Recall: 0.9030303030303031
Weighted FalsePositiveRate: 0.01616161616161616
Kappa statistic: 0.8868686868686869
Training time: 267.0
		
Iteration: 27
Labeled set size: 751
Unlabelled set size: 404
	
Mean region size: 20.197897340754157
Incorrectly Classified Instances: 9.61038961038961
Correctly Classified Instances: 90.3896103896104
Weighted Precision: 0.9270500748957986
Weighted AreaUnderROC: 0.9880397044033408
Root mean squared error: 0.1443321493419118
Relative absolute error: 15.420090449609251
Root relative squared error: 41.246347259467235
Weighted TruePositiveRate: 0.9038961038961039
Weighted MatthewsCorrelation: 0.8965016497026522
Weighted FMeasure: 0.9058367519264746
Iteration time: 695.0
Weighted AreaUnderPRC: 0.9393240168401082
Mean absolute error: 0.03776348681536976
Coverage of cases: 98.0952380952381
Instances selection time: 429.0
Test time: 753.0
Accumulative iteration time: 27069.0
Weighted Recall: 0.9038961038961039
Weighted FalsePositiveRate: 0.016017316017316017
Kappa statistic: 0.8878787878787877
Training time: 266.0
		
Iteration: 28
Labeled set size: 771
Unlabelled set size: 384
	
Mean region size: 20.14842300556554
Incorrectly Classified Instances: 9.783549783549784
Correctly Classified Instances: 90.21645021645021
Weighted Precision: 0.924304982283409
Weighted AreaUnderROC: 0.9879723643360007
Root mean squared error: 0.1439689877618935
Relative absolute error: 15.354213468356367
Root relative squared error: 41.142565193524
Weighted TruePositiveRate: 0.9021645021645022
Weighted MatthewsCorrelation: 0.894167625544727
Weighted FMeasure: 0.9042032661469259
Iteration time: 667.0
Weighted AreaUnderPRC: 0.9393213789348024
Mean absolute error: 0.03760215543270963
Coverage of cases: 98.008658008658
Instances selection time: 405.0
Test time: 754.0
Accumulative iteration time: 27736.0
Weighted Recall: 0.9021645021645022
Weighted FalsePositiveRate: 0.016305916305916306
Kappa statistic: 0.8858585858585859
Training time: 262.0
		
Iteration: 29
Labeled set size: 791
Unlabelled set size: 364
	
Mean region size: 19.814471243042345
Incorrectly Classified Instances: 9.956709956709958
Correctly Classified Instances: 90.04329004329004
Weighted Precision: 0.9223777323520486
Weighted AreaUnderROC: 0.9880187152914426
Root mean squared error: 0.14374587718583048
Relative absolute error: 15.021056623105606
Root relative squared error: 41.07880603564051
Weighted TruePositiveRate: 0.9004329004329005
Weighted MatthewsCorrelation: 0.8920496251168171
Weighted FMeasure: 0.9023998204865148
Iteration time: 655.0
Weighted AreaUnderPRC: 0.9389689330396956
Mean absolute error: 0.036786261117809804
Coverage of cases: 98.008658008658
Instances selection time: 397.0
Test time: 771.0
Accumulative iteration time: 28391.0
Weighted Recall: 0.9004329004329005
Weighted FalsePositiveRate: 0.016594516594516596
Kappa statistic: 0.8838383838383838
Training time: 258.0
		
Iteration: 30
Labeled set size: 811
Unlabelled set size: 344
	
Mean region size: 19.604205318490706
Incorrectly Classified Instances: 9.783549783549784
Correctly Classified Instances: 90.21645021645021
Weighted Precision: 0.9228134873524166
Weighted AreaUnderROC: 0.9881822554549827
Root mean squared error: 0.1429295929875107
Relative absolute error: 14.69377163342156
Root relative squared error: 40.845533395692804
Weighted TruePositiveRate: 0.9021645021645022
Weighted MatthewsCorrelation: 0.8934708128305255
Weighted FMeasure: 0.9036895396838995
Iteration time: 640.0
Weighted AreaUnderPRC: 0.9386445249038229
Mean absolute error: 0.03598474685735908
Coverage of cases: 98.008658008658
Instances selection time: 389.0
Test time: 784.0
Accumulative iteration time: 29031.0
Weighted Recall: 0.9021645021645022
Weighted FalsePositiveRate: 0.016305916305916306
Kappa statistic: 0.8858585858585859
Training time: 251.0
		
Iteration: 31
Labeled set size: 831
Unlabelled set size: 324
	
Mean region size: 19.13419913419882
Incorrectly Classified Instances: 9.956709956709958
Correctly Classified Instances: 90.04329004329004
Weighted Precision: 0.9212107342298822
Weighted AreaUnderROC: 0.9875429620884167
Root mean squared error: 0.14286285456473014
Relative absolute error: 14.401363357816379
Root relative squared error: 40.82646130278691
Weighted TruePositiveRate: 0.9004329004329005
Weighted MatthewsCorrelation: 0.8914689231943488
Weighted FMeasure: 0.9018957889846848
Iteration time: 633.0
Weighted AreaUnderPRC: 0.9338768140156244
Mean absolute error: 0.035268644957917816
Coverage of cases: 97.74891774891775
Instances selection time: 379.0
Test time: 822.0
Accumulative iteration time: 29664.0
Weighted Recall: 0.9004329004329005
Weighted FalsePositiveRate: 0.016594516594516596
Kappa statistic: 0.8838383838383838
Training time: 254.0
		
Iteration: 32
Labeled set size: 851
Unlabelled set size: 304
	
Mean region size: 19.047619047618728
Incorrectly Classified Instances: 9.696969696969697
Correctly Classified Instances: 90.3030303030303
Weighted Precision: 0.9230221895606661
Weighted AreaUnderROC: 0.9869360269360269
Root mean squared error: 0.14237596457987087
Relative absolute error: 14.173501853428284
Root relative squared error: 40.68732090001297
Weighted TruePositiveRate: 0.9030303030303031
Weighted MatthewsCorrelation: 0.8941526378508345
Weighted FMeasure: 0.9042569020256022
Iteration time: 623.0
Weighted AreaUnderPRC: 0.9345566960898308
Mean absolute error: 0.03471061678390615
Coverage of cases: 97.83549783549783
Instances selection time: 359.0
Test time: 820.0
Accumulative iteration time: 30287.0
Weighted Recall: 0.9030303030303031
Weighted FalsePositiveRate: 0.016161616161616158
Kappa statistic: 0.8868686868686869
Training time: 264.0
		
Iteration: 33
Labeled set size: 871
Unlabelled set size: 284
	
Mean region size: 18.98577612863297
Incorrectly Classified Instances: 9.783549783549784
Correctly Classified Instances: 90.21645021645021
Weighted Precision: 0.923548049269786
Weighted AreaUnderROC: 0.9874406401679129
Root mean squared error: 0.1418027847928159
Relative absolute error: 13.99949126166929
Root relative squared error: 40.52352113227743
Weighted TruePositiveRate: 0.9021645021645022
Weighted MatthewsCorrelation: 0.8937534027187326
Weighted FMeasure: 0.9037888383509316
Iteration time: 584.0
Weighted AreaUnderPRC: 0.9336073940657801
Mean absolute error: 0.03428446839592494
Coverage of cases: 97.66233766233766
Instances selection time: 322.0
Test time: 812.0
Accumulative iteration time: 30871.0
Weighted Recall: 0.9021645021645022
Weighted FalsePositiveRate: 0.016305916305916306
Kappa statistic: 0.8858585858585859
Training time: 262.0
		
Iteration: 34
Labeled set size: 891
Unlabelled set size: 264
	
Mean region size: 18.89919604205289
Incorrectly Classified Instances: 9.61038961038961
Correctly Classified Instances: 90.3896103896104
Weighted Precision: 0.925614547437088
Weighted AreaUnderROC: 0.9871992653810836
Root mean squared error: 0.14354115106415147
Relative absolute error: 14.15600413461772
Root relative squared error: 41.020300673208375
Weighted TruePositiveRate: 0.9038961038961039
Weighted MatthewsCorrelation: 0.8957781790428739
Weighted FMeasure: 0.905179551379285
Iteration time: 576.0
Weighted AreaUnderPRC: 0.933423466612016
Mean absolute error: 0.03466776522763538
Coverage of cases: 97.66233766233766
Instances selection time: 295.0
Test time: 813.0
Accumulative iteration time: 31447.0
Weighted Recall: 0.9038961038961039
Weighted FalsePositiveRate: 0.016017316017316013
Kappa statistic: 0.8878787878787877
Training time: 281.0
		
Iteration: 35
Labeled set size: 911
Unlabelled set size: 244
	
Mean region size: 18.812615955472793
Incorrectly Classified Instances: 9.437229437229437
Correctly Classified Instances: 90.56277056277057
Weighted Precision: 0.925312909991122
Weighted AreaUnderROC: 0.9875587039223404
Root mean squared error: 0.1422356498310876
Relative absolute error: 14.029324335613621
Root relative squared error: 40.647222620590625
Weighted TruePositiveRate: 0.9056277056277057
Weighted MatthewsCorrelation: 0.8970054307079672
Weighted FMeasure: 0.9066402073049459
Iteration time: 621.0
Weighted AreaUnderPRC: 0.9340944106300197
Mean absolute error: 0.03435752898517636
Coverage of cases: 97.66233766233766
Instances selection time: 278.0
Test time: 802.0
Accumulative iteration time: 32068.0
Weighted Recall: 0.9056277056277057
Weighted FalsePositiveRate: 0.01572871572871573
Kappa statistic: 0.8898989898989899
Training time: 343.0
		
Iteration: 36
Labeled set size: 931
Unlabelled set size: 224
	
Mean region size: 18.8620902906614
Incorrectly Classified Instances: 9.696969696969697
Correctly Classified Instances: 90.3030303030303
Weighted Precision: 0.9207902967841607
Weighted AreaUnderROC: 0.988747212383576
Root mean squared error: 0.13912583152016042
Relative absolute error: 13.821572433897545
Root relative squared error: 39.75851801422816
Weighted TruePositiveRate: 0.9030303030303031
Weighted MatthewsCorrelation: 0.8933085570654239
Weighted FMeasure: 0.9040870211917087
Iteration time: 534.0
Weighted AreaUnderPRC: 0.9368934319406141
Mean absolute error: 0.03384874881770842
Coverage of cases: 97.92207792207792
Instances selection time: 244.0
Test time: 801.0
Accumulative iteration time: 32602.0
Weighted Recall: 0.9030303030303031
Weighted FalsePositiveRate: 0.01616161616161616
Kappa statistic: 0.8868686868686869
Training time: 290.0
		
Iteration: 37
Labeled set size: 951
Unlabelled set size: 204
	
Mean region size: 18.688930117501236
Incorrectly Classified Instances: 9.61038961038961
Correctly Classified Instances: 90.3896103896104
Weighted Precision: 0.9200621770051981
Weighted AreaUnderROC: 0.9890725436179982
Root mean squared error: 0.13823525380049204
Relative absolute error: 13.677979174297256
Root relative squared error: 39.50401423212228
Weighted TruePositiveRate: 0.9038961038961039
Weighted MatthewsCorrelation: 0.8936501788845429
Weighted FMeasure: 0.9046065283996917
Iteration time: 521.0
Weighted AreaUnderPRC: 0.938242342950224
Mean absolute error: 0.033497091855422
Coverage of cases: 98.008658008658
Instances selection time: 228.0
Test time: 830.0
Accumulative iteration time: 33123.0
Weighted Recall: 0.9038961038961039
Weighted FalsePositiveRate: 0.016017316017316017
Kappa statistic: 0.8878787878787877
Training time: 293.0
		
Iteration: 38
Labeled set size: 971
Unlabelled set size: 184
	
Mean region size: 18.67656153370408
Incorrectly Classified Instances: 9.523809523809524
Correctly Classified Instances: 90.47619047619048
Weighted Precision: 0.9191672354853231
Weighted AreaUnderROC: 0.9896541169268442
Root mean squared error: 0.13716103292857246
Relative absolute error: 13.579019843251247
Root relative squared error: 39.19703004794305
Weighted TruePositiveRate: 0.9047619047619048
Weighted MatthewsCorrelation: 0.8939968637731166
Weighted FMeasure: 0.9053481470383868
Iteration time: 505.0
Weighted AreaUnderPRC: 0.9407080279853829
Mean absolute error: 0.033254742473268505
Coverage of cases: 98.008658008658
Instances selection time: 209.0
Test time: 809.0
Accumulative iteration time: 33628.0
Weighted Recall: 0.9047619047619048
Weighted FalsePositiveRate: 0.015873015873015876
Kappa statistic: 0.8888888888888887
Training time: 296.0
		
Iteration: 39
Labeled set size: 991
Unlabelled set size: 164
	
Mean region size: 19.022881880024414
Incorrectly Classified Instances: 9.523809523809524
Correctly Classified Instances: 90.47619047619048
Weighted Precision: 0.9187365898432239
Weighted AreaUnderROC: 0.99007215007215
Root mean squared error: 0.1367711863455293
Relative absolute error: 13.918840961315388
Root relative squared error: 39.085622107193664
Weighted TruePositiveRate: 0.9047619047619048
Weighted MatthewsCorrelation: 0.8937059400971379
Weighted FMeasure: 0.9049536473580256
Iteration time: 462.0
Weighted AreaUnderPRC: 0.9448312196562496
Mean absolute error: 0.03408695745628273
Coverage of cases: 98.61471861471861
Instances selection time: 167.0
Test time: 773.0
Accumulative iteration time: 34090.0
Weighted Recall: 0.9047619047619048
Weighted FalsePositiveRate: 0.015873015873015876
Kappa statistic: 0.8888888888888887
Training time: 295.0
		
Iteration: 40
Labeled set size: 1011
Unlabelled set size: 144
	
Mean region size: 19.022881880024414
Incorrectly Classified Instances: 9.264069264069263
Correctly Classified Instances: 90.73593073593074
Weighted Precision: 0.9188914883409012
Weighted AreaUnderROC: 0.9902697975425248
Root mean squared error: 0.13650748848734964
Relative absolute error: 13.961114454250476
Root relative squared error: 39.01026416733309
Weighted TruePositiveRate: 0.9073593073593074
Weighted MatthewsCorrelation: 0.8957341226354596
Weighted FMeasure: 0.9070972934989328
Iteration time: 449.0
Weighted AreaUnderPRC: 0.9491658893220877
Mean absolute error: 0.03419048437775641
Coverage of cases: 98.78787878787878
Instances selection time: 141.0
Test time: 768.0
Accumulative iteration time: 34539.0
Weighted Recall: 0.9073593073593074
Weighted FalsePositiveRate: 0.01544011544011544
Kappa statistic: 0.8919191919191919
Training time: 308.0
		
Iteration: 41
Labeled set size: 1031
Unlabelled set size: 124
	
Mean region size: 19.80210265924516
Incorrectly Classified Instances: 9.177489177489177
Correctly Classified Instances: 90.82251082251082
Weighted Precision: 0.9194125286403648
Weighted AreaUnderROC: 0.9904779395688488
Root mean squared error: 0.13494383582184816
Relative absolute error: 14.783551779940476
Root relative squared error: 38.56341319803391
Weighted TruePositiveRate: 0.9082251082251083
Weighted MatthewsCorrelation: 0.8965202252255063
Weighted FMeasure: 0.9076354726812056
Iteration time: 413.0
Weighted AreaUnderPRC: 0.9512254591757451
Mean absolute error: 0.036204616603936014
Coverage of cases: 98.96103896103897
Instances selection time: 98.0
Test time: 683.0
Accumulative iteration time: 34952.0
Weighted Recall: 0.9082251082251083
Weighted FalsePositiveRate: 0.015295815295815297
Kappa statistic: 0.892929292929293
Training time: 315.0
		
Iteration: 42
Labeled set size: 1051
Unlabelled set size: 104
	
Mean region size: 20.494743351885827
Incorrectly Classified Instances: 9.004329004329005
Correctly Classified Instances: 90.99567099567099
Weighted Precision: 0.9185526562129288
Weighted AreaUnderROC: 0.990946696401242
Root mean squared error: 0.13309934345106897
Relative absolute error: 15.168331897918836
Root relative squared error: 38.036305598032946
Weighted TruePositiveRate: 0.90995670995671
Weighted MatthewsCorrelation: 0.8977725309390432
Weighted FMeasure: 0.9096778355784456
Iteration time: 394.0
Weighted AreaUnderPRC: 0.9537721172700533
Mean absolute error: 0.037146935260209554
Coverage of cases: 99.04761904761905
Instances selection time: 81.0
Test time: 652.0
Accumulative iteration time: 35346.0
Weighted Recall: 0.90995670995671
Weighted FalsePositiveRate: 0.015007215007215005
Kappa statistic: 0.8949494949494948
Training time: 313.0
		
Iteration: 43
Labeled set size: 1071
Unlabelled set size: 84
	
Mean region size: 20.618429189857373
Incorrectly Classified Instances: 8.051948051948052
Correctly Classified Instances: 91.94805194805195
Weighted Precision: 0.92058081648516
Weighted AreaUnderROC: 0.9912580348943986
Root mean squared error: 0.12984281112846602
Relative absolute error: 14.80735132013974
Root relative squared error: 37.10567397055287
Weighted TruePositiveRate: 0.9194805194805195
Weighted MatthewsCorrelation: 0.9064138956395518
Weighted FMeasure: 0.9193974083298071
Iteration time: 372.0
Weighted AreaUnderPRC: 0.9549837562722191
Mean absolute error: 0.036262901192179106
Coverage of cases: 99.56709956709956
Instances selection time: 72.0
Test time: 668.0
Accumulative iteration time: 35718.0
Weighted Recall: 0.9194805194805195
Weighted FalsePositiveRate: 0.013419913419913422
Kappa statistic: 0.9060606060606059
Training time: 300.0
		
Iteration: 44
Labeled set size: 1091
Unlabelled set size: 64
	
Mean region size: 20.816326530611857
Incorrectly Classified Instances: 8.658008658008658
Correctly Classified Instances: 91.34199134199135
Weighted Precision: 0.9133431420768519
Weighted AreaUnderROC: 0.9915912370457824
Root mean squared error: 0.1282471643303244
Relative absolute error: 14.818736087225002
Root relative squared error: 36.64967991628506
Weighted TruePositiveRate: 0.9134199134199135
Weighted MatthewsCorrelation: 0.8988638519255001
Weighted FMeasure: 0.9130661970266354
Iteration time: 346.0
Weighted AreaUnderPRC: 0.9557300968508423
Mean absolute error: 0.03629078225442873
Coverage of cases: 99.56709956709956
Instances selection time: 57.0
Test time: 666.0
Accumulative iteration time: 36064.0
Weighted Recall: 0.9134199134199135
Weighted FalsePositiveRate: 0.014430014430014432
Kappa statistic: 0.898989898989899
Training time: 289.0
		
Iteration: 45
Labeled set size: 1111
Unlabelled set size: 44
	
Mean region size: 20.865800865800473
Incorrectly Classified Instances: 9.004329004329005
Correctly Classified Instances: 90.99567099567099
Weighted Precision: 0.9096166324129374
Weighted AreaUnderROC: 0.9918256154619792
Root mean squared error: 0.1275334977123211
Relative absolute error: 14.7188595334546
Root relative squared error: 36.445732692552376
Weighted TruePositiveRate: 0.90995670995671
Weighted MatthewsCorrelation: 0.894721105865489
Weighted FMeasure: 0.9095617611294724
Iteration time: 329.0
Weighted AreaUnderPRC: 0.9558327817331107
Mean absolute error: 0.03604618661254203
Coverage of cases: 99.39393939393939
Instances selection time: 40.0
Test time: 742.0
Accumulative iteration time: 36393.0
Weighted Recall: 0.90995670995671
Weighted FalsePositiveRate: 0.015007215007215005
Kappa statistic: 0.8949494949494948
Training time: 289.0
		
Iteration: 46
Labeled set size: 1131
Unlabelled set size: 24
	
Mean region size: 20.84106369820616
Incorrectly Classified Instances: 8.831168831168831
Correctly Classified Instances: 91.16883116883118
Weighted Precision: 0.9118651161759523
Weighted AreaUnderROC: 0.9916769425860337
Root mean squared error: 0.1274698523915762
Relative absolute error: 14.721833165098962
Root relative squared error: 36.427544527179286
Weighted TruePositiveRate: 0.9116883116883117
Weighted MatthewsCorrelation: 0.8969070482698281
Weighted FMeasure: 0.9112487783310838
Iteration time: 322.0
Weighted AreaUnderPRC: 0.9555183870795582
Mean absolute error: 0.03605346897575271
Coverage of cases: 99.39393939393939
Instances selection time: 23.0
Test time: 698.0
Accumulative iteration time: 36715.0
Weighted Recall: 0.9116883116883117
Weighted FalsePositiveRate: 0.014718614718614716
Kappa statistic: 0.896969696969697
Training time: 299.0
		
Time end:Thu Nov 30 22.35.25 EET 2017