Thu Nov 30 22.54.10 EET 2017
Dataset: segment
Test set size: 1155
Initial Labelled set size: 231
Initial Unlabelled set size: 924
Batch mode: QBestBatchMode
Batch size: 20
Classifiers: SMOsync-1cores
Scenario: PoolBasedSamplingScenario
Query strategy: MarginSamplingQueryStrategy-1cores
Time begining: Thu Nov 30 22.54.10 EET 2017
		
Iteration: 1
Labeled set size: 231
Unlabelled set size: 924
	
Mean region size: 24.230055658626647
Incorrectly Classified Instances: 11.86147186147186
Correctly Classified Instances: 88.13852813852814
Weighted Precision: 0.882279504545879
Weighted AreaUnderROC: 0.9820324456688093
Root mean squared error: 0.162833052320668
Relative absolute error: 21.31601168256105
Root relative squared error: 46.53342066864773
Weighted TruePositiveRate: 0.8813852813852814
Weighted MatthewsCorrelation: 0.8613760344726681
Weighted FMeasure: 0.8795135540163121
Iteration time: 927.0
Weighted AreaUnderPRC: 0.9124113740468247
Mean absolute error: 0.05220247758994565
Coverage of cases: 98.52813852813853
Instances selection time: 513.0
Test time: 639.0
Accumulative iteration time: 927.0
Weighted Recall: 0.8813852813852814
Weighted FalsePositiveRate: 0.01976911976911977
Kappa statistic: 0.8616161616161616
Training time: 414.0
		
Iteration: 2
Labeled set size: 251
Unlabelled set size: 904
	
Mean region size: 23.351886209028624
Incorrectly Classified Instances: 10.735930735930737
Correctly Classified Instances: 89.26406926406926
Weighted Precision: 0.8964837343573625
Weighted AreaUnderROC: 0.9871695308058942
Root mean squared error: 0.15039387318401246
Relative absolute error: 18.763066710398583
Root relative squared error: 42.978629136528376
Weighted TruePositiveRate: 0.8926406926406927
Weighted MatthewsCorrelation: 0.8758892008189578
Weighted FMeasure: 0.8920636454182039
Iteration time: 671.0
Weighted AreaUnderPRC: 0.9407074736681277
Mean absolute error: 0.04595036745403754
Coverage of cases: 98.87445887445888
Instances selection time: 499.0
Test time: 635.0
Accumulative iteration time: 1598.0
Weighted Recall: 0.8926406926406927
Weighted FalsePositiveRate: 0.017893217893217895
Kappa statistic: 0.8747474747474748
Training time: 172.0
		
Iteration: 3
Labeled set size: 271
Unlabelled set size: 884
	
Mean region size: 23.104514533085517
Incorrectly Classified Instances: 10.12987012987013
Correctly Classified Instances: 89.87012987012987
Weighted Precision: 0.9005439531705013
Weighted AreaUnderROC: 0.9877309895491714
Root mean squared error: 0.14362314572885357
Relative absolute error: 17.836298478662457
Root relative squared error: 41.04373260039263
Weighted TruePositiveRate: 0.8987012987012987
Weighted MatthewsCorrelation: 0.8822387703087535
Weighted FMeasure: 0.8979807722571272
Iteration time: 695.0
Weighted AreaUnderPRC: 0.9342051280253031
Mean absolute error: 0.04368073096815314
Coverage of cases: 99.04761904761905
Instances selection time: 512.0
Test time: 644.0
Accumulative iteration time: 2293.0
Weighted Recall: 0.8987012987012987
Weighted FalsePositiveRate: 0.016883116883116882
Kappa statistic: 0.8818181818181816
Training time: 183.0
		
Iteration: 4
Labeled set size: 291
Unlabelled set size: 864
	
Mean region size: 23.83426097711768
Incorrectly Classified Instances: 9.264069264069263
Correctly Classified Instances: 90.73593073593074
Weighted Precision: 0.9074667039277551
Weighted AreaUnderROC: 0.9879837334382789
Root mean squared error: 0.14051377708860033
Relative absolute error: 18.060678071977307
Root relative squared error: 40.155156498128896
Weighted TruePositiveRate: 0.9073593073593074
Weighted MatthewsCorrelation: 0.8918624136803013
Weighted FMeasure: 0.9070309324075704
Iteration time: 648.0
Weighted AreaUnderPRC: 0.930527068105681
Mean absolute error: 0.04423023201300584
Coverage of cases: 98.7012987012987
Instances selection time: 459.0
Test time: 583.0
Accumulative iteration time: 2941.0
Weighted Recall: 0.9073593073593074
Weighted FalsePositiveRate: 0.01544011544011544
Kappa statistic: 0.8919191919191919
Training time: 189.0
		
Iteration: 5
Labeled set size: 311
Unlabelled set size: 844
	
Mean region size: 23.030303030302594
Incorrectly Classified Instances: 8.398268398268398
Correctly Classified Instances: 91.6017316017316
Weighted Precision: 0.9153786355306452
Weighted AreaUnderROC: 0.9891337618610345
Root mean squared error: 0.1357095853372962
Relative absolute error: 16.597141119181703
Root relative squared error: 38.78224434945756
Weighted TruePositiveRate: 0.9160173160173161
Weighted MatthewsCorrelation: 0.9016782707105977
Weighted FMeasure: 0.9155875418784476
Iteration time: 660.0
Weighted AreaUnderPRC: 0.9364050357095007
Mean absolute error: 0.040646059883710464
Coverage of cases: 98.44155844155844
Instances selection time: 473.0
Test time: 604.0
Accumulative iteration time: 3601.0
Weighted Recall: 0.9160173160173161
Weighted FalsePositiveRate: 0.013997113997113998
Kappa statistic: 0.9020202020202019
Training time: 187.0
		
Iteration: 6
Labeled set size: 331
Unlabelled set size: 824
	
Mean region size: 23.09214594928838
Incorrectly Classified Instances: 7.965367965367966
Correctly Classified Instances: 92.03463203463204
Weighted Precision: 0.919406331514951
Weighted AreaUnderROC: 0.9889842144387598
Root mean squared error: 0.13603712382238314
Relative absolute error: 16.926121133197846
Root relative squared error: 38.87584626807606
Weighted TruePositiveRate: 0.9203463203463204
Weighted MatthewsCorrelation: 0.9065251159883992
Weighted FMeasure: 0.9195637437452389
Iteration time: 660.0
Weighted AreaUnderPRC: 0.9359310449405502
Mean absolute error: 0.04145172522415817
Coverage of cases: 98.52813852813853
Instances selection time: 471.0
Test time: 609.0
Accumulative iteration time: 4261.0
Weighted Recall: 0.9203463203463204
Weighted FalsePositiveRate: 0.013275613275613274
Kappa statistic: 0.9070707070707069
Training time: 189.0
		
Iteration: 7
Labeled set size: 351
Unlabelled set size: 804
	
Mean region size: 22.733457019170864
Incorrectly Classified Instances: 7.186147186147186
Correctly Classified Instances: 92.81385281385282
Weighted Precision: 0.9275515614517282
Weighted AreaUnderROC: 0.9898858717040535
Root mean squared error: 0.13218883220816766
Relative absolute error: 16.32275166218256
Root relative squared error: 37.77610533717914
Weighted TruePositiveRate: 0.9281385281385282
Weighted MatthewsCorrelation: 0.9158646804768249
Weighted FMeasure: 0.927804188419177
Iteration time: 664.0
Weighted AreaUnderPRC: 0.9359665905178894
Mean absolute error: 0.03997408570330441
Coverage of cases: 98.61471861471861
Instances selection time: 464.0
Test time: 589.0
Accumulative iteration time: 4925.0
Weighted Recall: 0.9281385281385282
Weighted FalsePositiveRate: 0.011976911976911976
Kappa statistic: 0.9161616161616162
Training time: 200.0
		
Iteration: 8
Labeled set size: 371
Unlabelled set size: 784
	
Mean region size: 21.99134199134157
Incorrectly Classified Instances: 7.705627705627705
Correctly Classified Instances: 92.2943722943723
Weighted Precision: 0.9227997201839941
Weighted AreaUnderROC: 0.9902855393764486
Root mean squared error: 0.1312640575728711
Relative absolute error: 15.638821454467541
Root relative squared error: 37.51182897243222
Weighted TruePositiveRate: 0.922943722943723
Weighted MatthewsCorrelation: 0.9100082351435399
Weighted FMeasure: 0.9227912129828361
Iteration time: 662.0
Weighted AreaUnderPRC: 0.9384191310870087
Mean absolute error: 0.038299154582369654
Coverage of cases: 98.44155844155844
Instances selection time: 464.0
Test time: 603.0
Accumulative iteration time: 5587.0
Weighted Recall: 0.922943722943723
Weighted FalsePositiveRate: 0.012842712842712843
Kappa statistic: 0.9101010101010101
Training time: 198.0
		
Iteration: 9
Labeled set size: 391
Unlabelled set size: 764
	
Mean region size: 22.05318491032735
Incorrectly Classified Instances: 7.619047619047619
Correctly Classified Instances: 92.38095238095238
Weighted Precision: 0.9236331012848413
Weighted AreaUnderROC: 0.9907927762473216
Root mean squared error: 0.12951987670713783
Relative absolute error: 15.229326445921348
Root relative squared error: 37.01338777274545
Weighted TruePositiveRate: 0.9238095238095239
Weighted MatthewsCorrelation: 0.911018465014544
Weighted FMeasure: 0.9236972960171781
Iteration time: 657.0
Weighted AreaUnderPRC: 0.9392075936181112
Mean absolute error: 0.03729630966348101
Coverage of cases: 98.7012987012987
Instances selection time: 460.0
Test time: 595.0
Accumulative iteration time: 6244.0
Weighted Recall: 0.9238095238095239
Weighted FalsePositiveRate: 0.0126984126984127
Kappa statistic: 0.9111111111111112
Training time: 197.0
		
Iteration: 10
Labeled set size: 411
Unlabelled set size: 744
	
Mean region size: 22.05318491032734
Incorrectly Classified Instances: 7.445887445887446
Correctly Classified Instances: 92.55411255411255
Weighted Precision: 0.9255230206585335
Weighted AreaUnderROC: 0.9904158467794832
Root mean squared error: 0.1292375879635024
Relative absolute error: 15.359715056133025
Root relative squared error: 36.932717044841006
Weighted TruePositiveRate: 0.9255411255411256
Weighted MatthewsCorrelation: 0.9131155455461286
Weighted FMeasure: 0.9255078227107646
Iteration time: 657.0
Weighted AreaUnderPRC: 0.9367710736614537
Mean absolute error: 0.03761562870889736
Coverage of cases: 98.52813852813853
Instances selection time: 448.0
Test time: 591.0
Accumulative iteration time: 6901.0
Weighted Recall: 0.9255411255411256
Weighted FalsePositiveRate: 0.012409812409812409
Kappa statistic: 0.913131313131313
Training time: 209.0
		
Iteration: 11
Labeled set size: 431
Unlabelled set size: 724
	
Mean region size: 21.867656153370007
Incorrectly Classified Instances: 7.186147186147186
Correctly Classified Instances: 92.81385281385282
Weighted Precision: 0.92841717156236
Weighted AreaUnderROC: 0.9912790240062967
Root mean squared error: 0.12649381752874272
Relative absolute error: 14.604548627424021
Root relative squared error: 36.14861933224986
Weighted TruePositiveRate: 0.9281385281385282
Weighted MatthewsCorrelation: 0.9162892562961836
Weighted FMeasure: 0.9282503396965931
Iteration time: 668.0
Weighted AreaUnderPRC: 0.946714188535361
Mean absolute error: 0.035766241536548775
Coverage of cases: 98.61471861471861
Instances selection time: 448.0
Test time: 596.0
Accumulative iteration time: 7569.0
Weighted Recall: 0.9281385281385282
Weighted FalsePositiveRate: 0.011976911976911978
Kappa statistic: 0.9161616161616162
Training time: 220.0
		
Iteration: 12
Labeled set size: 451
Unlabelled set size: 704
	
Mean region size: 21.570810142238294
Incorrectly Classified Instances: 7.359307359307359
Correctly Classified Instances: 92.64069264069263
Weighted Precision: 0.9267071407945008
Weighted AreaUnderROC: 0.991270278543006
Root mean squared error: 0.127540984208356
Relative absolute error: 14.510344862267937
Root relative squared error: 36.447872136997844
Weighted TruePositiveRate: 0.9264069264069265
Weighted MatthewsCorrelation: 0.914282051303709
Weighted FMeasure: 0.9265384420469609
Iteration time: 677.0
Weighted AreaUnderPRC: 0.9467832132975035
Mean absolute error: 0.035535538438207344
Coverage of cases: 98.78787878787878
Instances selection time: 459.0
Test time: 619.0
Accumulative iteration time: 8246.0
Weighted Recall: 0.9264069264069265
Weighted FalsePositiveRate: 0.012265512265512264
Kappa statistic: 0.914141414141414
Training time: 218.0
		
Iteration: 13
Labeled set size: 471
Unlabelled set size: 684
	
Mean region size: 21.224489795917957
Incorrectly Classified Instances: 7.2727272727272725
Correctly Classified Instances: 92.72727272727273
Weighted Precision: 0.9274298572504754
Weighted AreaUnderROC: 0.9914976605885697
Root mean squared error: 0.12659431457224207
Relative absolute error: 14.058728996352345
Root relative squared error: 36.17733875459355
Weighted TruePositiveRate: 0.9272727272727272
Weighted MatthewsCorrelation: 0.9152148701456226
Weighted FMeasure: 0.9273054981162859
Iteration time: 675.0
Weighted AreaUnderPRC: 0.9483242528417504
Mean absolute error: 0.03442954039923038
Coverage of cases: 98.7012987012987
Instances selection time: 460.0
Test time: 619.0
Accumulative iteration time: 8921.0
Weighted Recall: 0.9272727272727272
Weighted FalsePositiveRate: 0.012121212121212121
Kappa statistic: 0.9151515151515152
Training time: 215.0
		
Iteration: 14
Labeled set size: 491
Unlabelled set size: 664
	
Mean region size: 21.19975262832365
Incorrectly Classified Instances: 7.186147186147186
Correctly Classified Instances: 92.81385281385282
Weighted Precision: 0.92841717156236
Weighted AreaUnderROC: 0.9911321002230093
Root mean squared error: 0.12649378168014083
Relative absolute error: 14.024166339092082
Root relative squared error: 36.14860908765855
Weighted TruePositiveRate: 0.9281385281385282
Weighted MatthewsCorrelation: 0.9162892562961836
Weighted FMeasure: 0.9282503396965931
Iteration time: 679.0
Weighted AreaUnderPRC: 0.9480525158611035
Mean absolute error: 0.03434489715696035
Coverage of cases: 98.7012987012987
Instances selection time: 454.0
Test time: 614.0
Accumulative iteration time: 9600.0
Weighted Recall: 0.9281385281385282
Weighted FalsePositiveRate: 0.011976911976911978
Kappa statistic: 0.9161616161616162
Training time: 225.0
		
Iteration: 15
Labeled set size: 511
Unlabelled set size: 644
	
Mean region size: 21.236858379715116
Incorrectly Classified Instances: 7.186147186147186
Correctly Classified Instances: 92.81385281385282
Weighted Precision: 0.92841717156236
Weighted AreaUnderROC: 0.990944947308584
Root mean squared error: 0.12647587658913587
Relative absolute error: 13.897937104164255
Root relative squared error: 36.14349228170319
Weighted TruePositiveRate: 0.9281385281385282
Weighted MatthewsCorrelation: 0.9162892562961836
Weighted FMeasure: 0.9282503396965931
Iteration time: 685.0
Weighted AreaUnderPRC: 0.9463817807541834
Mean absolute error: 0.03403576433672893
Coverage of cases: 98.61471861471861
Instances selection time: 458.0
Test time: 623.0
Accumulative iteration time: 10285.0
Weighted Recall: 0.9281385281385282
Weighted FalsePositiveRate: 0.011976911976911978
Kappa statistic: 0.9161616161616162
Training time: 227.0
		
Iteration: 16
Labeled set size: 531
Unlabelled set size: 624
	
Mean region size: 21.385281385280976
Incorrectly Classified Instances: 7.2727272727272725
Correctly Classified Instances: 92.72727272727273
Weighted Precision: 0.9277857759758529
Weighted AreaUnderROC: 0.9908225108225109
Root mean squared error: 0.12714761208533842
Relative absolute error: 14.069481391981057
Root relative squared error: 36.335456689281195
Weighted TruePositiveRate: 0.9272727272727272
Weighted MatthewsCorrelation: 0.9153909510954655
Weighted FMeasure: 0.9274942974110253
Iteration time: 678.0
Weighted AreaUnderPRC: 0.9450351504636119
Mean absolute error: 0.03445587279668845
Coverage of cases: 98.52813852813853
Instances selection time: 451.0
Test time: 614.0
Accumulative iteration time: 10963.0
Weighted Recall: 0.9272727272727272
Weighted FalsePositiveRate: 0.01212121212121212
Kappa statistic: 0.9151515151515152
Training time: 227.0
		
Iteration: 17
Labeled set size: 551
Unlabelled set size: 604
	
Mean region size: 21.08843537414926
Incorrectly Classified Instances: 7.619047619047619
Correctly Classified Instances: 92.38095238095238
Weighted Precision: 0.9247072678986455
Weighted AreaUnderROC: 0.9910962438235165
Root mean squared error: 0.12831319489738932
Relative absolute error: 14.007819610178487
Root relative squared error: 36.66854972257089
Weighted TruePositiveRate: 0.9238095238095239
Weighted MatthewsCorrelation: 0.911512475528933
Weighted FMeasure: 0.9241357073056397
Iteration time: 682.0
Weighted AreaUnderPRC: 0.9450796726420707
Mean absolute error: 0.034304864351457666
Coverage of cases: 98.52813852813853
Instances selection time: 445.0
Test time: 617.0
Accumulative iteration time: 11645.0
Weighted Recall: 0.9238095238095239
Weighted FalsePositiveRate: 0.012698412698412698
Kappa statistic: 0.9111111111111112
Training time: 237.0
		
Iteration: 18
Labeled set size: 571
Unlabelled set size: 584
	
Mean region size: 20.667903525045997
Incorrectly Classified Instances: 7.2727272727272725
Correctly Classified Instances: 92.72727272727273
Weighted Precision: 0.9276953477023197
Weighted AreaUnderROC: 0.9910332764878219
Root mean squared error: 0.12678216771532574
Relative absolute error: 13.562998653207606
Root relative squared error: 36.23102226175907
Weighted TruePositiveRate: 0.9272727272727272
Weighted MatthewsCorrelation: 0.9153437154665459
Weighted FMeasure: 0.9274375796302675
Iteration time: 686.0
Weighted AreaUnderPRC: 0.9456709865912876
Mean absolute error: 0.033215506905814686
Coverage of cases: 98.52813852813853
Instances selection time: 447.0
Test time: 630.0
Accumulative iteration time: 12331.0
Weighted Recall: 0.9272727272727272
Weighted FalsePositiveRate: 0.01212121212121212
Kappa statistic: 0.9151515151515152
Training time: 239.0
		
Iteration: 19
Labeled set size: 591
Unlabelled set size: 564
	
Mean region size: 20.581323438465905
Incorrectly Classified Instances: 7.2727272727272725
Correctly Classified Instances: 92.72727272727273
Weighted Precision: 0.9276953477023197
Weighted AreaUnderROC: 0.9910096637369366
Root mean squared error: 0.12691973500627274
Relative absolute error: 13.499310903460287
Root relative squared error: 36.27033538970607
Weighted TruePositiveRate: 0.9272727272727272
Weighted MatthewsCorrelation: 0.9153437154665459
Weighted FMeasure: 0.9274375796302675
Iteration time: 670.0
Weighted AreaUnderPRC: 0.9462190170745577
Mean absolute error: 0.0330595369064335
Coverage of cases: 98.52813852813853
Instances selection time: 438.0
Test time: 622.0
Accumulative iteration time: 13001.0
Weighted Recall: 0.9272727272727272
Weighted FalsePositiveRate: 0.01212121212121212
Kappa statistic: 0.9151515151515152
Training time: 232.0
		
Iteration: 20
Labeled set size: 611
Unlabelled set size: 544
	
Mean region size: 20.76685219542323
Incorrectly Classified Instances: 7.2727272727272725
Correctly Classified Instances: 92.72727272727273
Weighted Precision: 0.9275527433094652
Weighted AreaUnderROC: 0.9911802002711092
Root mean squared error: 0.12611691131977382
Relative absolute error: 13.550583989518428
Root relative squared error: 36.040909411416116
Weighted TruePositiveRate: 0.9272727272727272
Weighted MatthewsCorrelation: 0.9152723393274239
Weighted FMeasure: 0.9273587151612679
Iteration time: 675.0
Weighted AreaUnderPRC: 0.947766767625662
Mean absolute error: 0.03318510364780037
Coverage of cases: 98.52813852813853
Instances selection time: 433.0
Test time: 622.0
Accumulative iteration time: 13676.0
Weighted Recall: 0.9272727272727272
Weighted FalsePositiveRate: 0.01212121212121212
Kappa statistic: 0.9151515151515152
Training time: 242.0
		
Iteration: 21
Labeled set size: 631
Unlabelled set size: 524
	
Mean region size: 20.581323438465905
Incorrectly Classified Instances: 7.445887445887446
Correctly Classified Instances: 92.55411255411255
Weighted Precision: 0.9258897184162975
Weighted AreaUnderROC: 0.9912694039966767
Root mean squared error: 0.1264649464553865
Relative absolute error: 13.546899580092875
Root relative squared error: 36.14036873581078
Weighted TruePositiveRate: 0.9255411255411256
Weighted MatthewsCorrelation: 0.9132839092232573
Weighted FMeasure: 0.9256560556221072
Iteration time: 679.0
Weighted AreaUnderPRC: 0.9487840122282302
Mean absolute error: 0.033176080604309224
Coverage of cases: 98.7012987012987
Instances selection time: 429.0
Test time: 630.0
Accumulative iteration time: 14355.0
Weighted Recall: 0.9255411255411256
Weighted FalsePositiveRate: 0.01240981240981241
Kappa statistic: 0.913131313131313
Training time: 250.0
		
Iteration: 22
Labeled set size: 651
Unlabelled set size: 504
	
Mean region size: 20.6926406926403
Incorrectly Classified Instances: 7.619047619047619
Correctly Classified Instances: 92.38095238095238
Weighted Precision: 0.9240430035301831
Weighted AreaUnderROC: 0.991413704140977
Root mean squared error: 0.12663377106543858
Relative absolute error: 13.711476705867723
Root relative squared error: 36.18861438672017
Weighted TruePositiveRate: 0.9238095238095239
Weighted MatthewsCorrelation: 0.9112102822819629
Weighted FMeasure: 0.9238758797014586
Iteration time: 673.0
Weighted AreaUnderPRC: 0.9511767102075241
Mean absolute error: 0.033579126626614976
Coverage of cases: 98.78787878787878
Instances selection time: 421.0
Test time: 628.0
Accumulative iteration time: 15028.0
Weighted Recall: 0.9238095238095239
Weighted FalsePositiveRate: 0.012698412698412698
Kappa statistic: 0.9111111111111112
Training time: 252.0
		
Iteration: 23
Labeled set size: 671
Unlabelled set size: 484
	
Mean region size: 20.692640692640303
Incorrectly Classified Instances: 7.532467532467533
Correctly Classified Instances: 92.46753246753246
Weighted Precision: 0.924803143033206
Weighted AreaUnderROC: 0.9914836678473041
Root mean squared error: 0.12641921696982292
Relative absolute error: 13.7082957259348
Root relative squared error: 36.12730044679719
Weighted TruePositiveRate: 0.9246753246753247
Weighted MatthewsCorrelation: 0.9121708738676115
Weighted FMeasure: 0.9246954645650399
Iteration time: 655.0
Weighted AreaUnderPRC: 0.9516636823517662
Mean absolute error: 0.033571336471677204
Coverage of cases: 98.87445887445888
Instances selection time: 401.0
Test time: 623.0
Accumulative iteration time: 15683.0
Weighted Recall: 0.9246753246753247
Weighted FalsePositiveRate: 0.012554112554112555
Kappa statistic: 0.912121212121212
Training time: 254.0
		
Iteration: 24
Labeled set size: 691
Unlabelled set size: 464
	
Mean region size: 21.03896103896067
Incorrectly Classified Instances: 7.445887445887446
Correctly Classified Instances: 92.55411255411255
Weighted Precision: 0.9257541129336001
Weighted AreaUnderROC: 0.9912449166994622
Root mean squared error: 0.12658955585023787
Relative absolute error: 14.091680308607877
Root relative squared error: 36.17597883650745
Weighted TruePositiveRate: 0.9255411255411256
Weighted MatthewsCorrelation: 0.9132204813064725
Weighted FMeasure: 0.9255971125604159
Iteration time: 635.0
Weighted AreaUnderPRC: 0.9511377791954417
Mean absolute error: 0.03451023749046842
Coverage of cases: 98.96103896103897
Instances selection time: 373.0
Test time: 596.0
Accumulative iteration time: 16318.0
Weighted Recall: 0.9255411255411256
Weighted FalsePositiveRate: 0.01240981240981241
Kappa statistic: 0.913131313131313
Training time: 262.0
		
Iteration: 25
Labeled set size: 711
Unlabelled set size: 444
	
Mean region size: 20.878169449597646
Incorrectly Classified Instances: 7.532467532467533
Correctly Classified Instances: 92.46753246753246
Weighted Precision: 0.92494069772811
Weighted AreaUnderROC: 0.9912659058113604
Root mean squared error: 0.12620788795755639
Relative absolute error: 13.858013432930244
Root relative squared error: 36.066908151208935
Weighted TruePositiveRate: 0.9246753246753247
Weighted MatthewsCorrelation: 0.912238784243274
Weighted FMeasure: 0.9247680171021885
Iteration time: 623.0
Weighted AreaUnderPRC: 0.9513650136072609
Mean absolute error: 0.03393799208064564
Coverage of cases: 98.96103896103897
Instances selection time: 361.0
Test time: 595.0
Accumulative iteration time: 16941.0
Weighted Recall: 0.9246753246753247
Weighted FalsePositiveRate: 0.012554112554112552
Kappa statistic: 0.912121212121212
Training time: 262.0
		
Iteration: 26
Labeled set size: 731
Unlabelled set size: 424
	
Mean region size: 20.841063698206177
Incorrectly Classified Instances: 7.532467532467533
Correctly Classified Instances: 92.46753246753246
Weighted Precision: 0.92494069772811
Weighted AreaUnderROC: 0.9912387948751584
Root mean squared error: 0.12647375740949138
Relative absolute error: 13.889337385253937
Root relative squared error: 36.14288667567625
Weighted TruePositiveRate: 0.9246753246753247
Weighted MatthewsCorrelation: 0.912238784243274
Weighted FMeasure: 0.9247680171021885
Iteration time: 612.0
Weighted AreaUnderPRC: 0.9511723724822614
Mean absolute error: 0.034014703800622034
Coverage of cases: 98.96103896103897
Instances selection time: 350.0
Test time: 592.0
Accumulative iteration time: 17553.0
Weighted Recall: 0.9246753246753247
Weighted FalsePositiveRate: 0.012554112554112552
Kappa statistic: 0.912121212121212
Training time: 262.0
		
Iteration: 27
Labeled set size: 751
Unlabelled set size: 404
	
Mean region size: 20.791589363017557
Incorrectly Classified Instances: 7.532467532467533
Correctly Classified Instances: 92.46753246753246
Weighted Precision: 0.92494069772811
Weighted AreaUnderROC: 0.9912615330797149
Root mean squared error: 0.12624542754283768
Relative absolute error: 13.811034708788656
Root relative squared error: 36.07763598127
Weighted TruePositiveRate: 0.9246753246753247
Weighted MatthewsCorrelation: 0.912238784243274
Weighted FMeasure: 0.9247680171021885
Iteration time: 610.0
Weighted AreaUnderPRC: 0.9512712932128364
Mean absolute error: 0.033822942143972363
Coverage of cases: 98.96103896103897
Instances selection time: 347.0
Test time: 595.0
Accumulative iteration time: 18163.0
Weighted Recall: 0.9246753246753247
Weighted FalsePositiveRate: 0.012554112554112552
Kappa statistic: 0.912121212121212
Training time: 263.0
		
Iteration: 28
Labeled set size: 771
Unlabelled set size: 384
	
Mean region size: 20.828695114409022
Incorrectly Classified Instances: 7.532467532467533
Correctly Classified Instances: 92.46753246753246
Weighted Precision: 0.92494069772811
Weighted AreaUnderROC: 0.9912309239581967
Root mean squared error: 0.12626777581747745
Relative absolute error: 13.859365000974051
Root relative squared error: 36.08402253271155
Weighted TruePositiveRate: 0.9246753246753247
Weighted MatthewsCorrelation: 0.912238784243274
Weighted FMeasure: 0.9247680171021885
Iteration time: 586.0
Weighted AreaUnderPRC: 0.9510656015647072
Mean absolute error: 0.0339413020432019
Coverage of cases: 98.96103896103897
Instances selection time: 324.0
Test time: 613.0
Accumulative iteration time: 18749.0
Weighted Recall: 0.9246753246753247
Weighted FalsePositiveRate: 0.012554112554112552
Kappa statistic: 0.912121212121212
Training time: 262.0
		
Iteration: 29
Labeled set size: 791
Unlabelled set size: 364
	
Mean region size: 20.803957946814712
Incorrectly Classified Instances: 7.532467532467533
Correctly Classified Instances: 92.46753246753246
Weighted Precision: 0.92494069772811
Weighted AreaUnderROC: 0.9911854475490838
Root mean squared error: 0.12630691252001466
Relative absolute error: 13.863032293940389
Root relative squared error: 36.0952067770452
Weighted TruePositiveRate: 0.9246753246753247
Weighted MatthewsCorrelation: 0.912238784243274
Weighted FMeasure: 0.9247680171021885
Iteration time: 574.0
Weighted AreaUnderPRC: 0.9509217889277838
Mean absolute error: 0.03395028316883375
Coverage of cases: 98.96103896103897
Instances selection time: 307.0
Test time: 592.0
Accumulative iteration time: 19323.0
Weighted Recall: 0.9246753246753247
Weighted FalsePositiveRate: 0.012554112554112552
Kappa statistic: 0.912121212121212
Training time: 267.0
		
Iteration: 30
Labeled set size: 811
Unlabelled set size: 344
	
Mean region size: 20.766852195423247
Incorrectly Classified Instances: 7.532467532467533
Correctly Classified Instances: 92.46753246753246
Weighted Precision: 0.92494069772811
Weighted AreaUnderROC: 0.9912973894792076
Root mean squared error: 0.12621308814560667
Relative absolute error: 13.801089187372208
Root relative squared error: 36.06839422872607
Weighted TruePositiveRate: 0.9246753246753247
Weighted MatthewsCorrelation: 0.912238784243274
Weighted FMeasure: 0.9247680171021885
Iteration time: 560.0
Weighted AreaUnderPRC: 0.9513209708220356
Mean absolute error: 0.033798585764993304
Coverage of cases: 98.96103896103897
Instances selection time: 295.0
Test time: 583.0
Accumulative iteration time: 19883.0
Weighted Recall: 0.9246753246753247
Weighted FalsePositiveRate: 0.012554112554112552
Kappa statistic: 0.912121212121212
Training time: 265.0
		
Iteration: 31
Labeled set size: 831
Unlabelled set size: 324
	
Mean region size: 20.729746444031782
Incorrectly Classified Instances: 7.532467532467533
Correctly Classified Instances: 92.46753246753246
Weighted Precision: 0.92494069772811
Weighted AreaUnderROC: 0.991272027635664
Root mean squared error: 0.12625263667615486
Relative absolute error: 13.803870158044813
Root relative squared error: 36.07969616271672
Weighted TruePositiveRate: 0.9246753246753247
Weighted MatthewsCorrelation: 0.912238784243274
Weighted FMeasure: 0.9247680171021885
Iteration time: 550.0
Weighted AreaUnderPRC: 0.9512569993803698
Mean absolute error: 0.03380539630541601
Coverage of cases: 98.96103896103897
Instances selection time: 284.0
Test time: 603.0
Accumulative iteration time: 20433.0
Weighted Recall: 0.9246753246753247
Weighted FalsePositiveRate: 0.012554112554112552
Kappa statistic: 0.912121212121212
Training time: 266.0
		
Iteration: 32
Labeled set size: 851
Unlabelled set size: 304
	
Mean region size: 20.680272108843166
Incorrectly Classified Instances: 7.532467532467533
Correctly Classified Instances: 92.46753246753246
Weighted Precision: 0.92494069772811
Weighted AreaUnderROC: 0.9912930167475622
Root mean squared error: 0.12632628434365847
Relative absolute error: 13.788158448734476
Root relative squared error: 36.10074273676523
Weighted TruePositiveRate: 0.9246753246753247
Weighted MatthewsCorrelation: 0.912238784243274
Weighted FMeasure: 0.9247680171021885
Iteration time: 546.0
Weighted AreaUnderPRC: 0.9513581290993475
Mean absolute error: 0.033766918649962126
Coverage of cases: 98.96103896103897
Instances selection time: 268.0
Test time: 602.0
Accumulative iteration time: 20979.0
Weighted Recall: 0.9246753246753247
Weighted FalsePositiveRate: 0.012554112554112552
Kappa statistic: 0.912121212121212
Training time: 278.0
		
Iteration: 33
Labeled set size: 871
Unlabelled set size: 284
	
Mean region size: 20.655534941248852
Incorrectly Classified Instances: 7.532467532467533
Correctly Classified Instances: 92.46753246753246
Weighted Precision: 0.92494069772811
Weighted AreaUnderROC: 0.9912851458306003
Root mean squared error: 0.12634990587465253
Relative absolute error: 13.796186413127653
Root relative squared error: 36.10749315151775
Weighted TruePositiveRate: 0.9246753246753247
Weighted MatthewsCorrelation: 0.912238784243274
Weighted FMeasure: 0.9247680171021885
Iteration time: 542.0
Weighted AreaUnderPRC: 0.9513027279677805
Mean absolute error: 0.03378657897092501
Coverage of cases: 98.96103896103897
Instances selection time: 257.0
Test time: 621.0
Accumulative iteration time: 21521.0
Weighted Recall: 0.9246753246753247
Weighted FalsePositiveRate: 0.012554112554112552
Kappa statistic: 0.912121212121212
Training time: 285.0
		
Iteration: 34
Labeled set size: 891
Unlabelled set size: 264
	
Mean region size: 20.606060606060232
Incorrectly Classified Instances: 7.532467532467533
Correctly Classified Instances: 92.46753246753246
Weighted Precision: 0.92494069772811
Weighted AreaUnderROC: 0.9913218767764221
Root mean squared error: 0.12632258973019367
Relative absolute error: 13.763688022954456
Root relative squared error: 36.099686913023575
Weighted TruePositiveRate: 0.9246753246753247
Weighted MatthewsCorrelation: 0.912238784243274
Weighted FMeasure: 0.9247680171021885
Iteration time: 528.0
Weighted AreaUnderPRC: 0.9513571469755783
Mean absolute error: 0.033706991076623304
Coverage of cases: 98.96103896103897
Instances selection time: 239.0
Test time: 588.0
Accumulative iteration time: 22049.0
Weighted Recall: 0.9246753246753247
Weighted FalsePositiveRate: 0.012554112554112552
Kappa statistic: 0.912121212121212
Training time: 289.0
		
Iteration: 35
Labeled set size: 911
Unlabelled set size: 244
	
Mean region size: 20.568954854668767
Incorrectly Classified Instances: 7.532467532467533
Correctly Classified Instances: 92.46753246753246
Weighted Precision: 0.92494069772811
Weighted AreaUnderROC: 0.9912930167475622
Root mean squared error: 0.12634803687210117
Relative absolute error: 13.777205563937265
Root relative squared error: 36.106959039550226
Weighted TruePositiveRate: 0.9246753246753247
Weighted MatthewsCorrelation: 0.912238784243274
Weighted FMeasure: 0.9247680171021885
Iteration time: 510.0
Weighted AreaUnderPRC: 0.9512849100281959
Mean absolute error: 0.03374009525862202
Coverage of cases: 98.96103896103897
Instances selection time: 224.0
Test time: 611.0
Accumulative iteration time: 22559.0
Weighted Recall: 0.9246753246753247
Weighted FalsePositiveRate: 0.012554112554112552
Kappa statistic: 0.912121212121212
Training time: 286.0
		
Iteration: 36
Labeled set size: 931
Unlabelled set size: 224
	
Mean region size: 20.717377860234638
Incorrectly Classified Instances: 7.532467532467533
Correctly Classified Instances: 92.46753246753246
Weighted Precision: 0.92494069772811
Weighted AreaUnderROC: 0.9911802002711094
Root mean squared error: 0.1266062619068413
Relative absolute error: 13.852690532623129
Root relative squared error: 36.180752989841565
Weighted TruePositiveRate: 0.9246753246753247
Weighted MatthewsCorrelation: 0.912238784243274
Weighted FMeasure: 0.9247680171021885
Iteration time: 478.0
Weighted AreaUnderPRC: 0.9509637590790635
Mean absolute error: 0.03392495640642414
Coverage of cases: 98.96103896103897
Instances selection time: 198.0
Test time: 611.0
Accumulative iteration time: 23037.0
Weighted Recall: 0.9246753246753247
Weighted FalsePositiveRate: 0.012554112554112552
Kappa statistic: 0.912121212121212
Training time: 280.0
		
Iteration: 37
Labeled set size: 951
Unlabelled set size: 204
	
Mean region size: 20.618429189857387
Incorrectly Classified Instances: 7.532467532467533
Correctly Classified Instances: 92.46753246753246
Weighted Precision: 0.92494069772811
Weighted AreaUnderROC: 0.9912108093926277
Root mean squared error: 0.12673228827066663
Relative absolute error: 13.8817391548432
Root relative squared error: 36.21676802315111
Weighted TruePositiveRate: 0.9246753246753247
Weighted MatthewsCorrelation: 0.912238784243274
Weighted FMeasure: 0.9247680171021885
Iteration time: 461.0
Weighted AreaUnderPRC: 0.950932796688049
Mean absolute error: 0.03399609588941206
Coverage of cases: 98.96103896103897
Instances selection time: 177.0
Test time: 607.0
Accumulative iteration time: 23498.0
Weighted Recall: 0.9246753246753247
Weighted FalsePositiveRate: 0.012554112554112552
Kappa statistic: 0.912121212121212
Training time: 284.0
		
Iteration: 38
Labeled set size: 971
Unlabelled set size: 184
	
Mean region size: 20.593692022263077
Incorrectly Classified Instances: 7.532467532467533
Correctly Classified Instances: 92.46753246753246
Weighted Precision: 0.92494069772811
Weighted AreaUnderROC: 0.9912589094407276
Root mean squared error: 0.12673145769550387
Relative absolute error: 13.886782254246599
Root relative squared error: 36.21653066652791
Weighted TruePositiveRate: 0.9246753246753247
Weighted MatthewsCorrelation: 0.912238784243274
Weighted FMeasure: 0.9247680171021885
Iteration time: 446.0
Weighted AreaUnderPRC: 0.9509527573341019
Mean absolute error: 0.03400844633693059
Coverage of cases: 98.96103896103897
Instances selection time: 160.0
Test time: 633.0
Accumulative iteration time: 23944.0
Weighted Recall: 0.9246753246753247
Weighted FalsePositiveRate: 0.012554112554112552
Kappa statistic: 0.912121212121212
Training time: 286.0
		
Iteration: 39
Labeled set size: 991
Unlabelled set size: 164
	
Mean region size: 20.667903525046004
Incorrectly Classified Instances: 7.532467532467533
Correctly Classified Instances: 92.46753246753246
Weighted Precision: 0.92494069772811
Weighted AreaUnderROC: 0.991244042153133
Root mean squared error: 0.12681651548549544
Relative absolute error: 13.936245389149244
Root relative squared error: 36.24083795467619
Weighted TruePositiveRate: 0.9246753246753247
Weighted MatthewsCorrelation: 0.912238784243274
Weighted FMeasure: 0.9247680171021885
Iteration time: 427.0
Weighted AreaUnderPRC: 0.9507821230676758
Mean absolute error: 0.03412958054485544
Coverage of cases: 98.96103896103897
Instances selection time: 134.0
Test time: 624.0
Accumulative iteration time: 24371.0
Weighted Recall: 0.9246753246753247
Weighted FalsePositiveRate: 0.012554112554112552
Kappa statistic: 0.912121212121212
Training time: 293.0
		
Iteration: 40
Labeled set size: 1011
Unlabelled set size: 144
	
Mean region size: 20.667903525046007
Incorrectly Classified Instances: 7.532467532467533
Correctly Classified Instances: 92.46753246753246
Weighted Precision: 0.92494069772811
Weighted AreaUnderROC: 0.9912501639774368
Root mean squared error: 0.12683357216223737
Relative absolute error: 13.944318038471375
Root relative squared error: 36.24571230606081
Weighted TruePositiveRate: 0.9246753246753247
Weighted MatthewsCorrelation: 0.912238784243274
Weighted FMeasure: 0.9247680171021885
Iteration time: 396.0
Weighted AreaUnderPRC: 0.9507028135297723
Mean absolute error: 0.03414935029829739
Coverage of cases: 98.96103896103897
Instances selection time: 112.0
Test time: 627.0
Accumulative iteration time: 24767.0
Weighted Recall: 0.9246753246753247
Weighted FalsePositiveRate: 0.012554112554112552
Kappa statistic: 0.912121212121212
Training time: 284.0
		
Iteration: 41
Labeled set size: 1031
Unlabelled set size: 124
	
Mean region size: 20.618429189857387
Incorrectly Classified Instances: 7.532467532467533
Correctly Classified Instances: 92.46753246753246
Weighted Precision: 0.92494069772811
Weighted AreaUnderROC: 0.9912755258209803
Root mean squared error: 0.12676441531039137
Relative absolute error: 13.937648650916449
Root relative squared error: 36.22594908948282
Weighted TruePositiveRate: 0.9246753246753247
Weighted MatthewsCorrelation: 0.912238784243274
Weighted FMeasure: 0.9247680171021885
Iteration time: 371.0
Weighted AreaUnderPRC: 0.9508516100101836
Mean absolute error: 0.034133017104285325
Coverage of cases: 98.96103896103897
Instances selection time: 93.0
Test time: 627.0
Accumulative iteration time: 25138.0
Weighted Recall: 0.9246753246753247
Weighted FalsePositiveRate: 0.012554112554112552
Kappa statistic: 0.912121212121212
Training time: 278.0
		
Iteration: 42
Labeled set size: 1051
Unlabelled set size: 104
	
Mean region size: 20.643166357451694
Incorrectly Classified Instances: 7.445887445887446
Correctly Classified Instances: 92.55411255411255
Weighted Precision: 0.925806498593911
Weighted AreaUnderROC: 0.9912825221916131
Root mean squared error: 0.12673169892734226
Relative absolute error: 13.935297865663566
Root relative squared error: 36.21659960426784
Weighted TruePositiveRate: 0.9255411255411256
Weighted MatthewsCorrelation: 0.913248885253375
Weighted FMeasure: 0.9256338179679893
Iteration time: 349.0
Weighted AreaUnderPRC: 0.950822808689011
Mean absolute error: 0.03412726007917623
Coverage of cases: 98.96103896103897
Instances selection time: 75.0
Test time: 623.0
Accumulative iteration time: 25487.0
Weighted Recall: 0.9255411255411256
Weighted FalsePositiveRate: 0.012409812409812409
Kappa statistic: 0.913131313131313
Training time: 274.0
		
Iteration: 43
Labeled set size: 1071
Unlabelled set size: 84
	
Mean region size: 20.643166357451694
Incorrectly Classified Instances: 7.445887445887446
Correctly Classified Instances: 92.55411255411255
Weighted Precision: 0.925806498593911
Weighted AreaUnderROC: 0.9912790240062967
Root mean squared error: 0.12672085272315586
Relative absolute error: 13.93666022777646
Root relative squared error: 36.213500043245865
Weighted TruePositiveRate: 0.9255411255411256
Weighted MatthewsCorrelation: 0.913248885253375
Weighted FMeasure: 0.9256338179679893
Iteration time: 328.0
Weighted AreaUnderPRC: 0.9508666024118722
Mean absolute error: 0.034130596476187394
Coverage of cases: 98.96103896103897
Instances selection time: 54.0
Test time: 621.0
Accumulative iteration time: 25815.0
Weighted Recall: 0.9255411255411256
Weighted FalsePositiveRate: 0.012409812409812409
Kappa statistic: 0.913131313131313
Training time: 274.0
		
Iteration: 44
Labeled set size: 1091
Unlabelled set size: 64
	
Mean region size: 20.593692022263074
Incorrectly Classified Instances: 7.445887445887446
Correctly Classified Instances: 92.55411255411255
Weighted Precision: 0.925806498593911
Weighted AreaUnderROC: 0.9912764003673095
Root mean squared error: 0.12669710306028675
Relative absolute error: 13.936069742703825
Root relative squared error: 36.20671301176007
Weighted TruePositiveRate: 0.9255411255411256
Weighted MatthewsCorrelation: 0.913248885253375
Weighted FMeasure: 0.9256338179679893
Iteration time: 315.0
Weighted AreaUnderPRC: 0.9508719168023594
Mean absolute error: 0.03412915039029523
Coverage of cases: 98.96103896103897
Instances selection time: 38.0
Test time: 618.0
Accumulative iteration time: 26130.0
Weighted Recall: 0.9255411255411256
Weighted FalsePositiveRate: 0.012409812409812409
Kappa statistic: 0.913131313131313
Training time: 277.0
		
Iteration: 45
Labeled set size: 1111
Unlabelled set size: 44
	
Mean region size: 20.581323438465922
Incorrectly Classified Instances: 7.445887445887446
Correctly Classified Instances: 92.55411255411255
Weighted Precision: 0.925806498593911
Weighted AreaUnderROC: 0.9912519130700949
Root mean squared error: 0.12652291515760689
Relative absolute error: 13.923442699932409
Root relative squared error: 36.1569346723181
Weighted TruePositiveRate: 0.9255411255411256
Weighted MatthewsCorrelation: 0.913248885253375
Weighted FMeasure: 0.9256338179679893
Iteration time: 303.0
Weighted AreaUnderPRC: 0.9508706210778308
Mean absolute error: 0.03409822702024278
Coverage of cases: 98.96103896103897
Instances selection time: 27.0
Test time: 916.0
Accumulative iteration time: 26433.0
Weighted Recall: 0.9255411255411256
Weighted FalsePositiveRate: 0.012409812409812409
Kappa statistic: 0.913131313131313
Training time: 276.0
		
Iteration: 46
Labeled set size: 1131
Unlabelled set size: 24
	
Mean region size: 20.556586270871612
Incorrectly Classified Instances: 7.445887445887446
Correctly Classified Instances: 92.55411255411255
Weighted Precision: 0.925806498593911
Weighted AreaUnderROC: 0.9912527876164241
Root mean squared error: 0.12654889921628912
Relative absolute error: 13.92598198248014
Root relative squared error: 36.164360235593534
Weighted TruePositiveRate: 0.9255411255411256
Weighted MatthewsCorrelation: 0.913248885253375
Weighted FMeasure: 0.9256338179679893
Iteration time: 355.0
Weighted AreaUnderPRC: 0.9507602412111489
Mean absolute error: 0.03410444567138008
Coverage of cases: 98.96103896103897
Instances selection time: 17.0
Test time: 650.0
Accumulative iteration time: 26788.0
Weighted Recall: 0.9255411255411256
Weighted FalsePositiveRate: 0.012409812409812409
Kappa statistic: 0.913131313131313
Training time: 338.0
		
Time end:Thu Nov 30 22.55.07 EET 2017