Tue Oct 31 14.07.49 EET 2017
Dataset: kr-vs-kp
Test set size: 1598
Initial Labelled set size: 319
Initial Unlabelled set size: 1279
Batch mode: QBestBatchMode
Batch size: 20
Classifiers: RandomForest-1cores
Scenario: PoolBasedSamplingScenario
Query strategy: RandomSelectionQueryStrategy-1cores
Time begining: Tue Oct 31 14.07.49 EET 2017
		
Iteration: 1
Labeled set size: 319
Unlabelled set size: 1279
	
Mean region size: 84.27096370463077
Incorrectly Classified Instances: 6.97747183979975
Correctly Classified Instances: 93.02252816020027
Weighted Precision: 0.9315562239041238
Weighted AreaUnderROC: 0.9798766840436679
Root mean squared error: 0.24873452744303556
Relative absolute error: 34.081874530313755
Root relative squared error: 49.74690548860711
Weighted TruePositiveRate: 0.9302252816020026
Weighted MatthewsCorrelation: 0.8613313257262932
Weighted FMeasure: 0.9300711783751995
Iteration time: 20.1
Weighted AreaUnderPRC: 0.975048518977591
Mean absolute error: 0.1704093726515688
Coverage of cases: 99.89987484355444
Instances selection time: 5.2
Test time: 9.1
Accumulative iteration time: 20.1
Weighted Recall: 0.9302252816020026
Weighted FalsePositiveRate: 0.07241650301233066
Kappa statistic: 0.8598288116102456
Training time: 14.9
		
Iteration: 2
Labeled set size: 339
Unlabelled set size: 1259
	
Mean region size: 81.73028785982478
Incorrectly Classified Instances: 5.469336670838548
Correctly Classified Instances: 94.53066332916146
Weighted Precision: 0.9463329704725145
Weighted AreaUnderROC: 0.9833943263899707
Root mean squared error: 0.23093096596260648
Relative absolute error: 29.952221821234666
Root relative squared error: 46.186193192521294
Weighted TruePositiveRate: 0.9453066332916146
Weighted MatthewsCorrelation: 0.8913165868423721
Weighted FMeasure: 0.9452154416621041
Iteration time: 17.4
Weighted AreaUnderPRC: 0.9791134954931285
Mean absolute error: 0.14976110910617338
Coverage of cases: 99.80600750938672
Instances selection time: 4.9
Test time: 9.1
Accumulative iteration time: 37.5
Weighted Recall: 0.9453066332916146
Weighted FalsePositiveRate: 0.05670527449233244
Kappa statistic: 0.8901824864629146
Training time: 12.5
		
Iteration: 3
Labeled set size: 359
Unlabelled set size: 1239
	
Mean region size: 83.10387984981226
Incorrectly Classified Instances: 5.982478097622028
Correctly Classified Instances: 94.01752190237798
Weighted Precision: 0.9412281314516531
Weighted AreaUnderROC: 0.9831371882245664
Root mean squared error: 0.23815252746939342
Relative absolute error: 31.72240583246279
Root relative squared error: 47.63050549387868
Weighted TruePositiveRate: 0.9401752190237795
Weighted MatthewsCorrelation: 0.8810550281916486
Weighted FMeasure: 0.9400802385966743
Iteration time: 15.9
Weighted AreaUnderPRC: 0.9788631813640807
Mean absolute error: 0.15861202916231396
Coverage of cases: 99.8685857321652
Instances selection time: 4.3
Test time: 8.3
Accumulative iteration time: 53.4
Weighted Recall: 0.9401752190237795
Weighted FalsePositiveRate: 0.06194194974458881
Kappa statistic: 0.8798897912986694
Training time: 11.6
		
Iteration: 4
Labeled set size: 379
Unlabelled set size: 1219
	
Mean region size: 82.80976220275345
Incorrectly Classified Instances: 5.801001251564456
Correctly Classified Instances: 94.19899874843556
Weighted Precision: 0.9431431705478911
Weighted AreaUnderROC: 0.9848538358383369
Root mean squared error: 0.23505430231146446
Relative absolute error: 31.384156842167037
Root relative squared error: 47.0108604622929
Weighted TruePositiveRate: 0.9419899874843555
Weighted MatthewsCorrelation: 0.8847874415036581
Weighted FMeasure: 0.9418897505598605
Iteration time: 18.7
Weighted AreaUnderPRC: 0.9810124818997196
Mean absolute error: 0.15692078421083516
Coverage of cases: 99.94993742177721
Instances selection time: 4.6
Test time: 8.8
Accumulative iteration time: 72.1
Weighted Recall: 0.9419899874843555
Weighted FalsePositiveRate: 0.0601701673994451
Kappa statistic: 0.8835171865957918
Training time: 14.1
		
Iteration: 5
Labeled set size: 399
Unlabelled set size: 1199
	
Mean region size: 82.09949937421776
Incorrectly Classified Instances: 5.275344180225281
Correctly Classified Instances: 94.72465581977471
Weighted Precision: 0.948237888228906
Weighted AreaUnderROC: 0.9868277595459899
Root mean squared error: 0.2258464040579637
Relative absolute error: 29.657140107294566
Root relative squared error: 45.16928081159274
Weighted TruePositiveRate: 0.9472465581977472
Weighted MatthewsCorrelation: 0.8951751800039303
Weighted FMeasure: 0.9471617440412594
Iteration time: 18.2
Weighted AreaUnderPRC: 0.9834139196366894
Mean absolute error: 0.14828570053647286
Coverage of cases: 99.88110137672089
Instances selection time: 4.6
Test time: 8.7
Accumulative iteration time: 90.3
Weighted Recall: 0.9472465581977472
Weighted FalsePositiveRate: 0.054693813721401655
Kappa statistic: 0.8940824869345139
Training time: 13.6
		
Iteration: 6
Labeled set size: 419
Unlabelled set size: 1179
	
Mean region size: 81.60200250312892
Incorrectly Classified Instances: 5.594493116395495
Correctly Classified Instances: 94.4055068836045
Weighted Precision: 0.9449932272191534
Weighted AreaUnderROC: 0.9853596123840571
Root mean squared error: 0.22841801007095555
Relative absolute error: 29.655508811508774
Root relative squared error: 45.6836020141911
Weighted TruePositiveRate: 0.944055068836045
Weighted MatthewsCorrelation: 0.8887349998990288
Weighted FMeasure: 0.943976151891996
Iteration time: 20.8
Weighted AreaUnderPRC: 0.9815273334480376
Mean absolute error: 0.1482775440575439
Coverage of cases: 99.8811013767209
Instances selection time: 4.8
Test time: 10.6
Accumulative iteration time: 111.1
Weighted Recall: 0.944055068836045
Weighted FalsePositiveRate: 0.0578227069292909
Kappa statistic: 0.8877036341772095
Training time: 16.0
		
Iteration: 7
Labeled set size: 439
Unlabelled set size: 1159
	
Mean region size: 79.97809762202755
Incorrectly Classified Instances: 4.637046307884857
Correctly Classified Instances: 95.36295369211516
Weighted Precision: 0.954378724234408
Weighted AreaUnderROC: 0.988719664075127
Root mean squared error: 0.2151667215924578
Relative absolute error: 27.167261242301407
Root relative squared error: 43.03334431849156
Weighted TruePositiveRate: 0.9536295369211514
Weighted MatthewsCorrelation: 0.9077560352531687
Weighted FMeasure: 0.9535720508194283
Iteration time: 21.2
Weighted AreaUnderPRC: 0.9856673034576089
Mean absolute error: 0.13583630621150705
Coverage of cases: 99.93116395494368
Instances selection time: 4.6
Test time: 9.6
Accumulative iteration time: 132.3
Weighted Recall: 0.9536295369211514
Weighted FalsePositiveRate: 0.047916098673011345
Kappa statistic: 0.906937600560458
Training time: 16.6
		
Iteration: 8
Labeled set size: 459
Unlabelled set size: 1139
	
Mean region size: 81.2171464330413
Incorrectly Classified Instances: 5.0
Correctly Classified Instances: 95.00000000000001
Weighted Precision: 0.9507468318334313
Weighted AreaUnderROC: 0.9869817970984505
Root mean squared error: 0.22300387932602533
Relative absolute error: 28.773483486046672
Root relative squared error: 44.600775865205065
Weighted TruePositiveRate: 0.95
Weighted MatthewsCorrelation: 0.9004710058755417
Weighted FMeasure: 0.9499340079868789
Iteration time: 18.2
Weighted AreaUnderPRC: 0.9835780190085431
Mean absolute error: 0.14386741743023335
Coverage of cases: 99.89361702127658
Instances selection time: 3.6
Test time: 8.5
Accumulative iteration time: 150.5
Weighted Recall: 0.95
Weighted FalsePositiveRate: 0.05156129154874813
Kappa statistic: 0.8996458076957927
Training time: 14.6
		
Iteration: 9
Labeled set size: 479
Unlabelled set size: 1119
	
Mean region size: 79.61514392991239
Incorrectly Classified Instances: 4.86232790988736
Correctly Classified Instances: 95.13767209011264
Weighted Precision: 0.9521379534613125
Weighted AreaUnderROC: 0.9870632727465353
Root mean squared error: 0.21844593504722085
Relative absolute error: 26.988401240243576
Root relative squared error: 43.68918700944417
Weighted TruePositiveRate: 0.9513767209011265
Weighted MatthewsCorrelation: 0.9032458374414452
Weighted FMeasure: 0.9513134675972674
Iteration time: 18.8
Weighted AreaUnderPRC: 0.9837735563051672
Mean absolute error: 0.13494200620121788
Coverage of cases: 99.88110137672089
Instances selection time: 3.4
Test time: 8.5
Accumulative iteration time: 169.3
Weighted Recall: 0.9513767209011265
Weighted FalsePositiveRate: 0.050206689567832696
Kappa statistic: 0.9024074404629884
Training time: 15.4
		
Iteration: 10
Labeled set size: 499
Unlabelled set size: 1099
	
Mean region size: 79.59637046307884
Incorrectly Classified Instances: 4.74342928660826
Correctly Classified Instances: 95.25657071339177
Weighted Precision: 0.953176122352035
Weighted AreaUnderROC: 0.9884467342312183
Root mean squared error: 0.21419881805709426
Relative absolute error: 26.697264462693944
Root relative squared error: 42.83976361141885
Weighted TruePositiveRate: 0.9525657071339173
Weighted MatthewsCorrelation: 0.9054853424401111
Weighted FMeasure: 0.952512029711291
Iteration time: 19.5
Weighted AreaUnderPRC: 0.98527830597036
Mean absolute error: 0.13348632231346974
Coverage of cases: 99.92490613266582
Instances selection time: 3.3
Test time: 8.7
Accumulative iteration time: 188.8
Weighted Recall: 0.9525657071339173
Weighted FalsePositiveRate: 0.04901388942766472
Kappa statistic: 0.9048056789475524
Training time: 16.2
		
Iteration: 11
Labeled set size: 519
Unlabelled set size: 1079
	
Mean region size: 79.15832290362954
Incorrectly Classified Instances: 4.042553191489363
Correctly Classified Instances: 95.95744680851064
Weighted Precision: 0.9601995887953272
Weighted AreaUnderROC: 0.9908640418535739
Root mean squared error: 0.2048274301886886
Relative absolute error: 25.463442106404315
Root relative squared error: 40.96548603773773
Weighted TruePositiveRate: 0.9595744680851064
Weighted MatthewsCorrelation: 0.9195609047180839
Weighted FMeasure: 0.959531601945233
Iteration time: 20.0
Weighted AreaUnderPRC: 0.9883173883375885
Mean absolute error: 0.1273172105320216
Coverage of cases: 99.89361702127658
Instances selection time: 3.4
Test time: 8.7
Accumulative iteration time: 208.8
Weighted Recall: 0.9595744680851064
Weighted FalsePositiveRate: 0.04180238258428333
Kappa statistic: 0.918881463665141
Training time: 16.6
		
Iteration: 12
Labeled set size: 539
Unlabelled set size: 1059
	
Mean region size: 80.8479349186483
Incorrectly Classified Instances: 5.137672090112642
Correctly Classified Instances: 94.86232790988736
Weighted Precision: 0.9496367484305978
Weighted AreaUnderROC: 0.9876314443453724
Root mean squared error: 0.2211242939647927
Relative absolute error: 28.242791610690187
Root relative squared error: 44.22485879295854
Weighted TruePositiveRate: 0.9486232790988736
Weighted MatthewsCorrelation: 0.897957995375618
Weighted FMeasure: 0.9485379413864239
Iteration time: 21.2
Weighted AreaUnderPRC: 0.984291898304053
Mean absolute error: 0.14121395805345094
Coverage of cases: 99.89987484355444
Instances selection time: 3.2
Test time: 9.1
Accumulative iteration time: 230.0
Weighted Recall: 0.9486232790988736
Weighted FalsePositiveRate: 0.05335389174771068
Kappa statistic: 0.896845229250571
Training time: 18.0
		
Iteration: 13
Labeled set size: 559
Unlabelled set size: 1039
	
Mean region size: 79.88423028785982
Incorrectly Classified Instances: 4.236545682102628
Correctly Classified Instances: 95.76345431789736
Weighted Precision: 0.9581240361602859
Weighted AreaUnderROC: 0.9899230434956973
Root mean squared error: 0.20967291481951905
Relative absolute error: 26.383793922213577
Root relative squared error: 41.93458296390382
Weighted TruePositiveRate: 0.9576345431789737
Weighted MatthewsCorrelation: 0.9155362283038191
Weighted FMeasure: 0.9575934646276977
Iteration time: 21.4
Weighted AreaUnderPRC: 0.9870607403009387
Mean absolute error: 0.1319189696110679
Coverage of cases: 99.89361702127658
Instances selection time: 3.3
Test time: 8.9
Accumulative iteration time: 251.4
Weighted Recall: 0.9576345431789737
Weighted FalsePositiveRate: 0.04371775068838858
Kappa statistic: 0.9149913721578509
Training time: 18.1
		
Iteration: 14
Labeled set size: 579
Unlabelled set size: 1019
	
Mean region size: 78.84543178973718
Incorrectly Classified Instances: 4.317897371714644
Correctly Classified Instances: 95.68210262828536
Weighted Precision: 0.957471782115689
Weighted AreaUnderROC: 0.9882968175288835
Root mean squared error: 0.20787642169763884
Relative absolute error: 25.440598288412268
Root relative squared error: 41.57528433952776
Weighted TruePositiveRate: 0.9568210262828536
Weighted MatthewsCorrelation: 0.9140580615286957
Weighted FMeasure: 0.9567688203840383
Iteration time: 21.9
Weighted AreaUnderPRC: 0.9849140467897757
Mean absolute error: 0.12720299144206137
Coverage of cases: 99.82478097622028
Instances selection time: 3.1
Test time: 9.3
Accumulative iteration time: 273.3
Weighted Recall: 0.9568210262828536
Weighted FalsePositiveRate: 0.04458317043097601
Kappa statistic: 0.9133428599338422
Training time: 18.8
		
Iteration: 15
Labeled set size: 599
Unlabelled set size: 999
	
Mean region size: 79.13329161451814
Incorrectly Classified Instances: 4.105131414267835
Correctly Classified Instances: 95.89486858573215
Weighted Precision: 0.9593882346522034
Weighted AreaUnderROC: 0.990685340971533
Root mean squared error: 0.20590434802705904
Relative absolute error: 25.53682066943977
Root relative squared error: 41.180869605411814
Weighted TruePositiveRate: 0.9589486858573217
Weighted MatthewsCorrelation: 0.9181175634300427
Weighted FMeasure: 0.9589085583732967
Iteration time: 25.7
Weighted AreaUnderPRC: 0.9880820936945778
Mean absolute error: 0.12768410334719887
Coverage of cases: 99.91239048811012
Instances selection time: 3.5
Test time: 10.3
Accumulative iteration time: 299.0
Weighted Recall: 0.9589486858573217
Weighted FalsePositiveRate: 0.042582834594458864
Kappa statistic: 0.9176199521858628
Training time: 22.2
		
Iteration: 16
Labeled set size: 619
Unlabelled set size: 979
	
Mean region size: 78.9924906132666
Incorrectly Classified Instances: 4.155193992490613
Correctly Classified Instances: 95.84480600750939
Weighted Precision: 0.9588280706697623
Weighted AreaUnderROC: 0.9904718322251769
Root mean squared error: 0.20470904650220528
Relative absolute error: 25.075268195266045
Root relative squared error: 40.94180930044105
Weighted TruePositiveRate: 0.9584480600750938
Weighted MatthewsCorrelation: 0.9170699353091984
Weighted FMeasure: 0.9584157384964398
Iteration time: 26.4
Weighted AreaUnderPRC: 0.9879308085389045
Mean absolute error: 0.12537634097633021
Coverage of cases: 99.93742177722152
Instances selection time: 3.5
Test time: 10.5
Accumulative iteration time: 325.4
Weighted Recall: 0.9584480600750938
Weighted FalsePositiveRate: 0.04260025128018437
Kappa statistic: 0.9166474348024669
Training time: 22.9
		
Iteration: 17
Labeled set size: 639
Unlabelled set size: 959
	
Mean region size: 78.19148936170212
Incorrectly Classified Instances: 3.979974968710889
Correctly Classified Instances: 96.02002503128912
Weighted Precision: 0.9607162122013234
Weighted AreaUnderROC: 0.9906800502011904
Root mean squared error: 0.2014068794930019
Relative absolute error: 24.416045825666156
Root relative squared error: 40.28137589860038
Weighted TruePositiveRate: 0.9602002503128911
Weighted MatthewsCorrelation: 0.9207028232597156
Weighted FMeasure: 0.960158060643705
Iteration time: 24.5
Weighted AreaUnderPRC: 0.9879070856696774
Mean absolute error: 0.12208022912833079
Coverage of cases: 99.85607008760951
Instances selection time: 3.0
Test time: 9.5
Accumulative iteration time: 349.9
Weighted Recall: 0.9602002503128911
Weighted FalsePositiveRate: 0.04126211762683846
Kappa statistic: 0.9201297799138874
Training time: 21.5
		
Iteration: 18
Labeled set size: 659
Unlabelled set size: 939
	
Mean region size: 77.58448060075094
Incorrectly Classified Instances: 3.8923654568210266
Correctly Classified Instances: 96.10763454317897
Weighted Precision: 0.9612866964283985
Weighted AreaUnderROC: 0.9902226747289135
Root mean squared error: 0.1997616409303226
Relative absolute error: 23.825671596913352
Root relative squared error: 39.95232818606451
Weighted TruePositiveRate: 0.9610763454317898
Weighted MatthewsCorrelation: 0.9221775151793267
Weighted FMeasure: 0.9610554310539662
Iteration time: 28.4
Weighted AreaUnderPRC: 0.9872435679006857
Mean absolute error: 0.11912835798456678
Coverage of cases: 99.83729662077596
Instances selection time: 3.3
Test time: 10.8
Accumulative iteration time: 378.3
Weighted Recall: 0.9610763454317898
Weighted FalsePositiveRate: 0.0398914838607059
Kappa statistic: 0.9219351285665521
Training time: 25.1
		
Iteration: 19
Labeled set size: 679
Unlabelled set size: 919
	
Mean region size: 78.24468085106383
Incorrectly Classified Instances: 3.6921151439299122
Correctly Classified Instances: 96.30788485607009
Weighted Precision: 0.963568688544628
Weighted AreaUnderROC: 0.9908211911967492
Root mean squared error: 0.20008083023546427
Relative absolute error: 24.283469591304005
Root relative squared error: 40.01616604709285
Weighted TruePositiveRate: 0.9630788485607008
Weighted MatthewsCorrelation: 0.9264538064463158
Weighted FMeasure: 0.963043491875698
Iteration time: 34.6
Weighted AreaUnderPRC: 0.9883305226753201
Mean absolute error: 0.12141734795652001
Coverage of cases: 99.89361702127658
Instances selection time: 3.9
Test time: 13.6
Accumulative iteration time: 412.9
Weighted Recall: 0.9630788485607008
Weighted FalsePositiveRate: 0.0383086687747243
Kappa statistic: 0.9259149654571648
Training time: 30.7
		
Iteration: 20
Labeled set size: 699
Unlabelled set size: 899
	
Mean region size: 77.36232790988737
Incorrectly Classified Instances: 3.6483103879849805
Correctly Classified Instances: 96.35168961201502
Weighted Precision: 0.9639845196903858
Weighted AreaUnderROC: 0.9920343312983647
Root mean squared error: 0.19578187594128854
Relative absolute error: 23.393162001877215
Root relative squared error: 39.156375188257705
Weighted TruePositiveRate: 0.9635168961201502
Weighted MatthewsCorrelation: 0.9273080040679214
Weighted FMeasure: 0.9634805762187725
Iteration time: 37.4
Weighted AreaUnderPRC: 0.9898293961338114
Mean absolute error: 0.1169658100093861
Coverage of cases: 99.93116395494367
Instances selection time: 3.9
Test time: 13.0
Accumulative iteration time: 450.3
Weighted Recall: 0.9635168961201502
Weighted FalsePositiveRate: 0.03783096109896096
Kappa statistic: 0.9267906921979658
Training time: 33.5
		
Iteration: 21
Labeled set size: 719
Unlabelled set size: 879
	
Mean region size: 76.51752190237798
Incorrectly Classified Instances: 3.698372966207759
Correctly Classified Instances: 96.30162703379224
Weighted Precision: 0.9637981228210277
Weighted AreaUnderROC: 0.9916921343797869
Root mean squared error: 0.19525546176011285
Relative absolute error: 23.025463088585088
Root relative squared error: 39.05109235202258
Weighted TruePositiveRate: 0.9630162703379224
Weighted MatthewsCorrelation: 0.9266026811645107
Weighted FMeasure: 0.9629609763411144
Iteration time: 26.9
Weighted AreaUnderPRC: 0.9892714912238224
Mean absolute error: 0.11512731544292543
Coverage of cases: 99.88735919899875
Instances selection time: 3.0
Test time: 9.8
Accumulative iteration time: 477.2
Weighted Recall: 0.9630162703379224
Weighted FalsePositiveRate: 0.03866647769535437
Kappa statistic: 0.9257548449812395
Training time: 23.9
		
Iteration: 22
Labeled set size: 739
Unlabelled set size: 859
	
Mean region size: 77.6470588235294
Incorrectly Classified Instances: 3.229036295369211
Correctly Classified Instances: 96.77096370463079
Weighted Precision: 0.9679505177236735
Weighted AreaUnderROC: 0.9939552758277473
Root mean squared error: 0.18767696628006383
Relative absolute error: 22.699903115667
Root relative squared error: 37.535393256012775
Weighted TruePositiveRate: 0.967709637046308
Weighted MatthewsCorrelation: 0.9355046125456152
Weighted FMeasure: 0.9676906377263184
Iteration time: 27.1
Weighted AreaUnderPRC: 0.9920376648647361
Mean absolute error: 0.11349951557833501
Coverage of cases: 99.90613266583227
Instances selection time: 2.6
Test time: 9.6
Accumulative iteration time: 504.3
Weighted Recall: 0.967709637046308
Weighted FalsePositiveRate: 0.033257374404592754
Kappa statistic: 0.9352351654070494
Training time: 24.5
		
Iteration: 23
Labeled set size: 759
Unlabelled set size: 839
	
Mean region size: 76.0075093867334
Incorrectly Classified Instances: 3.4981226533166456
Correctly Classified Instances: 96.50187734668334
Weighted Precision: 0.9655090550603074
Weighted AreaUnderROC: 0.9923921501415688
Root mean squared error: 0.19010781968994092
Relative absolute error: 22.079707993635196
Root relative squared error: 38.02156393798818
Weighted TruePositiveRate: 0.9650187734668334
Weighted MatthewsCorrelation: 0.9303438191606169
Weighted FMeasure: 0.9649840548544015
Iteration time: 27.5
Weighted AreaUnderPRC: 0.9901539854808604
Mean absolute error: 0.11039853996817599
Coverage of cases: 99.89987484355444
Instances selection time: 2.4
Test time: 10.2
Accumulative iteration time: 531.8
Weighted Recall: 0.9650187734668334
Weighted FalsePositiveRate: 0.03631098620343169
Kappa statistic: 0.9298073425009798
Training time: 25.1
		
Iteration: 24
Labeled set size: 779
Unlabelled set size: 819
	
Mean region size: 76.07634543178973
Incorrectly Classified Instances: 3.3291614518147683
Correctly Classified Instances: 96.67083854818523
Weighted Precision: 0.9669449314523613
Weighted AreaUnderROC: 0.9930637113141924
Root mean squared error: 0.18696071320546342
Relative absolute error: 21.67691523751359
Root relative squared error: 37.39214264109269
Weighted TruePositiveRate: 0.9667083854818523
Weighted MatthewsCorrelation: 0.9334897040757528
Weighted FMeasure: 0.9666873378283942
Iteration time: 28.2
Weighted AreaUnderPRC: 0.9910670327995131
Mean absolute error: 0.10838457618756794
Coverage of cases: 99.93116395494367
Instances selection time: 2.5
Test time: 9.6
Accumulative iteration time: 560.0
Weighted Recall: 0.9667083854818523
Weighted FalsePositiveRate: 0.03437195688057313
Kappa statistic: 0.9332206198267146
Training time: 25.7
		
Iteration: 25
Labeled set size: 799
Unlabelled set size: 799
	
Mean region size: 74.71214017521903
Incorrectly Classified Instances: 3.1539424280350437
Correctly Classified Instances: 96.84605757196496
Weighted Precision: 0.96881881378916
Weighted AreaUnderROC: 0.9946835151199149
Root mean squared error: 0.17979325195757923
Relative absolute error: 20.35980065220287
Root relative squared error: 35.95865039151586
Weighted TruePositiveRate: 0.9684605757196495
Weighted MatthewsCorrelation: 0.937119769942264
Weighted FMeasure: 0.9684357375566875
Iteration time: 31.8
Weighted AreaUnderPRC: 0.9931196987519002
Mean absolute error: 0.10179900326101435
Coverage of cases: 99.95619524405507
Instances selection time: 2.6
Test time: 10.5
Accumulative iteration time: 591.8
Weighted Recall: 0.9684605757196495
Weighted FalsePositiveRate: 0.03271531763422137
Kappa statistic: 0.9367257738385906
Training time: 29.2
		
Iteration: 26
Labeled set size: 819
Unlabelled set size: 779
	
Mean region size: 76.56132665832291
Incorrectly Classified Instances: 3.4230287859824786
Correctly Classified Instances: 96.5769712140175
Weighted Precision: 0.9662071090562536
Weighted AreaUnderROC: 0.9929491462472958
Root mean squared error: 0.18758174603470765
Relative absolute error: 21.930365766425023
Root relative squared error: 37.516349206941534
Weighted TruePositiveRate: 0.9657697121401754
Weighted MatthewsCorrelation: 0.9318013561849575
Weighted FMeasure: 0.965740276082904
Iteration time: 33.1
Weighted AreaUnderPRC: 0.9907357087079525
Mean absolute error: 0.10965182883212514
Coverage of cases: 99.89361702127658
Instances selection time: 2.2
Test time: 10.0
Accumulative iteration time: 624.9
Weighted Recall: 0.9657697121401754
Weighted FalsePositiveRate: 0.03549877134331001
Kappa statistic: 0.9313228035914408
Training time: 30.9
		
Iteration: 27
Labeled set size: 839
Unlabelled set size: 759
	
Mean region size: 75.5569461827284
Incorrectly Classified Instances: 3.3541927409261576
Correctly Classified Instances: 96.64580725907385
Weighted Precision: 0.9670935355373029
Weighted AreaUnderROC: 0.9941879757884511
Root mean squared error: 0.18313489736141383
Relative absolute error: 21.2622921264212
Root relative squared error: 36.62697947228277
Weighted TruePositiveRate: 0.9664580725907383
Weighted MatthewsCorrelation: 0.9333621844117113
Weighted FMeasure: 0.9664122218831779
Iteration time: 30.1
Weighted AreaUnderPRC: 0.9924000642984053
Mean absolute error: 0.10631146063210602
Coverage of cases: 99.91239048811013
Instances selection time: 2.2
Test time: 10.0
Accumulative iteration time: 655.0
Weighted Recall: 0.9664580725907383
Weighted FalsePositiveRate: 0.035096088654085235
Kappa statistic: 0.9326697507366845
Training time: 27.9
		
Iteration: 28
Labeled set size: 859
Unlabelled set size: 739
	
Mean region size: 74.24280350438048
Incorrectly Classified Instances: 3.235294117647059
Correctly Classified Instances: 96.76470588235294
Weighted Precision: 0.9679956862952892
Weighted AreaUnderROC: 0.9940135007928872
Root mean squared error: 0.17878789203988038
Relative absolute error: 19.893932151822806
Root relative squared error: 35.75757840797608
Weighted TruePositiveRate: 0.9676470588235295
Weighted MatthewsCorrelation: 0.9354757265283169
Weighted FMeasure: 0.9676200438405818
Iteration time: 31.3
Weighted AreaUnderPRC: 0.9922179648909966
Mean absolute error: 0.09946966075911404
Coverage of cases: 99.92490613266582
Instances selection time: 2.2
Test time: 11.2
Accumulative iteration time: 686.3
Weighted Recall: 0.9676470588235295
Weighted FalsePositiveRate: 0.033599897125110065
Kappa statistic: 0.9350873324920466
Training time: 29.1
		
Iteration: 29
Labeled set size: 879
Unlabelled set size: 719
	
Mean region size: 75.37859824780978
Incorrectly Classified Instances: 3.254067584480601
Correctly Classified Instances: 96.7459324155194
Weighted Precision: 0.9678642695383667
Weighted AreaUnderROC: 0.9936766801027102
Root mean squared error: 0.18263135583106055
Relative absolute error: 20.966546879630613
Root relative squared error: 36.526271166212105
Weighted TruePositiveRate: 0.9674593241551939
Weighted MatthewsCorrelation: 0.9351542344993969
Weighted FMeasure: 0.9674306479044272
Iteration time: 36.0
Weighted AreaUnderPRC: 0.9918103817014279
Mean absolute error: 0.10483273439815306
Coverage of cases: 99.92490613266582
Instances selection time: 2.3
Test time: 10.2
Accumulative iteration time: 722.3
Weighted Recall: 0.9674593241551939
Weighted FalsePositiveRate: 0.03390749197910829
Kappa statistic: 0.9347076133400238
Training time: 33.7
		
Iteration: 30
Labeled set size: 899
Unlabelled set size: 699
	
Mean region size: 75.30976220275345
Incorrectly Classified Instances: 3.0788485607008758
Correctly Classified Instances: 96.92115143929914
Weighted Precision: 0.9694939047474825
Weighted AreaUnderROC: 0.9948480809799574
Root mean squared error: 0.17992136299712636
Relative absolute error: 20.659917294692953
Root relative squared error: 35.98427259942527
Weighted TruePositiveRate: 0.9692115143929912
Weighted MatthewsCorrelation: 0.9385519769956374
Weighted FMeasure: 0.9691904848143965
Iteration time: 32.2
Weighted AreaUnderPRC: 0.993303103002542
Mean absolute error: 0.10329958647346478
Coverage of cases: 99.95619524405507
Instances selection time: 1.8
Test time: 10.1
Accumulative iteration time: 754.5
Weighted Recall: 0.9692115143929912
Weighted FalsePositiveRate: 0.0319256655054119
Kappa statistic: 0.9382373987647125
Training time: 30.4
		
Iteration: 31
Labeled set size: 919
Unlabelled set size: 679
	
Mean region size: 75.94806007509388
Incorrectly Classified Instances: 2.9536921151439297
Correctly Classified Instances: 97.04630788485608
Weighted Precision: 0.9707599332029856
Weighted AreaUnderROC: 0.9944625770499407
Root mean squared error: 0.18028804325758302
Relative absolute error: 21.074606452350825
Root relative squared error: 36.057608651516595
Weighted TruePositiveRate: 0.9704630788485608
Weighted MatthewsCorrelation: 0.9410754580384679
Weighted FMeasure: 0.9704423718570094
Iteration time: 32.9
Weighted AreaUnderPRC: 0.9926481529751834
Mean absolute error: 0.10537303226175412
Coverage of cases: 99.89987484355444
Instances selection time: 1.9
Test time: 10.1
Accumulative iteration time: 787.4
Weighted Recall: 0.9704630788485608
Weighted FalsePositiveRate: 0.030702026858899674
Kappa statistic: 0.9407470507384499
Training time: 31.0
		
Iteration: 32
Labeled set size: 939
Unlabelled set size: 659
	
Mean region size: 74.50250312891114
Incorrectly Classified Instances: 3.0225281602002503
Correctly Classified Instances: 96.97747183979973
Weighted Precision: 0.9701368820145768
Weighted AreaUnderROC: 0.9941650889767271
Root mean squared error: 0.17927693821701646
Relative absolute error: 20.25780561524942
Root relative squared error: 35.85538764340329
Weighted TruePositiveRate: 0.9697747183979976
Weighted MatthewsCorrelation: 0.9397538402994904
Weighted FMeasure: 0.9697479046650243
Iteration time: 33.1
Weighted AreaUnderPRC: 0.9923234783744508
Mean absolute error: 0.10128902807624711
Coverage of cases: 99.91239048811013
Instances selection time: 1.7
Test time: 10.3
Accumulative iteration time: 820.5
Weighted Recall: 0.9697747183979976
Weighted FalsePositiveRate: 0.03150409505714904
Kappa statistic: 0.939352809938009
Training time: 31.4
		
Iteration: 33
Labeled set size: 959
Unlabelled set size: 639
	
Mean region size: 73.98310387984982
Incorrectly Classified Instances: 3.0475594493116396
Correctly Classified Instances: 96.95244055068835
Weighted Precision: 0.9697049334613096
Weighted AreaUnderROC: 0.9942399696786663
Root mean squared error: 0.17711396864639434
Relative absolute error: 19.75837569526701
Root relative squared error: 35.422793729278865
Weighted TruePositiveRate: 0.9695244055068837
Weighted MatthewsCorrelation: 0.9390811066853881
Weighted FMeasure: 0.9695071188941908
Iteration time: 33.8
Weighted AreaUnderPRC: 0.9924662138759756
Mean absolute error: 0.09879187847633505
Coverage of cases: 99.90613266583229
Instances selection time: 1.7
Test time: 10.1
Accumulative iteration time: 854.3
Weighted Recall: 0.9695244055068837
Weighted FalsePositiveRate: 0.031504603380371185
Kappa statistic: 0.9388724202220331
Training time: 32.1
		
Iteration: 34
Labeled set size: 979
Unlabelled set size: 619
	
Mean region size: 75.06257822277847
Incorrectly Classified Instances: 3.128911138923655
Correctly Classified Instances: 96.87108886107634
Weighted Precision: 0.9690895745360736
Weighted AreaUnderROC: 0.994005676806616
Root mean squared error: 0.18032644130964867
Relative absolute error: 20.633792919080697
Root relative squared error: 36.06528826192973
Weighted TruePositiveRate: 0.9687108886107636
Weighted MatthewsCorrelation: 0.9376380147617676
Weighted FMeasure: 0.9686833826226809
Iteration time: 40.4
Weighted AreaUnderPRC: 0.992182561502949
Mean absolute error: 0.10316896459540348
Coverage of cases: 99.91239048811013
Instances selection time: 1.7
Test time: 12.0
Accumulative iteration time: 894.7
Weighted Recall: 0.9687108886107636
Weighted FalsePositiveRate: 0.03255453121991638
Kappa statistic: 0.9372199309143042
Training time: 38.7
		
Iteration: 35
Labeled set size: 999
Unlabelled set size: 599
	
Mean region size: 74.91239048811015
Incorrectly Classified Instances: 3.010012515644555
Correctly Classified Instances: 96.98998748435544
Weighted Precision: 0.9702295770070609
Weighted AreaUnderROC: 0.99523870989623
Root mean squared error: 0.17759184554769006
Relative absolute error: 20.30071050569071
Root relative squared error: 35.51836910953801
Weighted TruePositiveRate: 0.9698998748435544
Weighted MatthewsCorrelation: 0.9399769263868796
Weighted FMeasure: 0.969876930755048
Iteration time: 34.6
Weighted AreaUnderPRC: 0.9938587504441253
Mean absolute error: 0.10150355252845353
Coverage of cases: 99.9749687108886
Instances selection time: 1.7
Test time: 10.1
Accumulative iteration time: 929.3
Weighted Recall: 0.9698998748435544
Weighted FalsePositiveRate: 0.031277461429705763
Kappa statistic: 0.9396132801009817
Training time: 32.9
		
Iteration: 36
Labeled set size: 1019
Unlabelled set size: 579
	
Mean region size: 74.44305381727159
Incorrectly Classified Instances: 2.5782227784730916
Correctly Classified Instances: 97.42177722152692
Weighted Precision: 0.9744288147620424
Weighted AreaUnderROC: 0.9956482011479693
Root mean squared error: 0.17375181936151946
Relative absolute error: 19.776193511425035
Root relative squared error: 34.750363872303886
Weighted TruePositiveRate: 0.9742177722152692
Weighted MatthewsCorrelation: 0.9485223531086717
Weighted FMeasure: 0.9742032378380763
Iteration time: 34.9
Weighted AreaUnderPRC: 0.9943052728626144
Mean absolute error: 0.09888096755712521
Coverage of cases: 99.96245306633291
Instances selection time: 1.6
Test time: 9.9
Accumulative iteration time: 964.2
Weighted Recall: 0.9742177722152692
Weighted FalsePositiveRate: 0.026741131967105265
Kappa statistic: 0.9482884642160991
Training time: 33.3
		
Iteration: 37
Labeled set size: 1039
Unlabelled set size: 559
	
Mean region size: 73.74217772215269
Incorrectly Classified Instances: 2.740926157697121
Correctly Classified Instances: 97.25907384230287
Weighted Precision: 0.9727878069136716
Weighted AreaUnderROC: 0.9946430972906007
Root mean squared error: 0.1729991720048757
Relative absolute error: 19.1466793333181
Root relative squared error: 34.59983440097514
Weighted TruePositiveRate: 0.9725907384230288
Weighted MatthewsCorrelation: 0.9452477034034492
Weighted FMeasure: 0.9725762899709316
Iteration time: 35.4
Weighted AreaUnderPRC: 0.9929508195396842
Mean absolute error: 0.0957333966665905
Coverage of cases: 99.8811013767209
Instances selection time: 1.4
Test time: 10.0
Accumulative iteration time: 999.6
Weighted Recall: 0.9725907384230288
Weighted FalsePositiveRate: 0.028334567120018382
Kappa statistic: 0.9450278130426224
Training time: 34.0
		
Iteration: 38
Labeled set size: 1059
Unlabelled set size: 539
	
Mean region size: 74.26157697121401
Incorrectly Classified Instances: 2.7596996245306635
Correctly Classified Instances: 97.24030037546933
Weighted Precision: 0.9727831975342468
Weighted AreaUnderROC: 0.9953655172483712
Root mean squared error: 0.17280456134395217
Relative absolute error: 19.47783909496765
Root relative squared error: 34.56091226879043
Weighted TruePositiveRate: 0.9724030037546934
Weighted MatthewsCorrelation: 0.9450432779270864
Weighted FMeasure: 0.9723783526155805
Iteration time: 36.5
Weighted AreaUnderPRC: 0.9939388761207443
Mean absolute error: 0.09738919547483826
Coverage of cases: 99.96245306633291
Instances selection time: 1.4
Test time: 10.1
Accumulative iteration time: 1036.1
Weighted Recall: 0.9724030037546934
Weighted FalsePositiveRate: 0.02877478781019995
Kappa statistic: 0.9446286765220282
Training time: 35.1
		
Iteration: 39
Labeled set size: 1079
Unlabelled set size: 519
	
Mean region size: 74.98122653316646
Incorrectly Classified Instances: 2.6658322903629537
Correctly Classified Instances: 97.33416770963704
Weighted Precision: 0.9736919393533515
Weighted AreaUnderROC: 0.9956005817242677
Root mean squared error: 0.17334558019530988
Relative absolute error: 19.931522041597308
Root relative squared error: 34.66911603906197
Weighted TruePositiveRate: 0.9733416770963705
Weighted MatthewsCorrelation: 0.9468980122367086
Weighted FMeasure: 0.9733205143718291
Iteration time: 37.5
Weighted AreaUnderPRC: 0.9942074990039147
Mean absolute error: 0.09965761020798655
Coverage of cases: 99.93742177722152
Instances selection time: 1.3
Test time: 10.3
Accumulative iteration time: 1073.6
Weighted Recall: 0.9733416770963705
Weighted FalsePositiveRate: 0.027847300483240085
Kappa statistic: 0.9465167980268655
Training time: 36.2
		
Iteration: 40
Labeled set size: 1099
Unlabelled set size: 499
	
Mean region size: 74.0206508135169
Incorrectly Classified Instances: 2.6658322903629537
Correctly Classified Instances: 97.33416770963706
Weighted Precision: 0.9736290311103529
Weighted AreaUnderROC: 0.9960242328543185
Root mean squared error: 0.16958771845943862
Relative absolute error: 19.07948328841157
Root relative squared error: 33.91754369188773
Weighted TruePositiveRate: 0.9733416770963705
Weighted MatthewsCorrelation: 0.9468377235568294
Weighted FMeasure: 0.9733230880788367
Iteration time: 37.6
Weighted AreaUnderPRC: 0.9947451271488676
Mean absolute error: 0.09539741644205783
Coverage of cases: 99.94367959949936
Instances selection time: 1.3
Test time: 10.1
Accumulative iteration time: 1111.2
Weighted Recall: 0.9733416770963705
Weighted FalsePositiveRate: 0.027766217931423497
Kappa statistic: 0.9465220136851495
Training time: 36.3
		
Iteration: 41
Labeled set size: 1119
Unlabelled set size: 479
	
Mean region size: 72.46245306633291
Incorrectly Classified Instances: 2.471839799749687
Correctly Classified Instances: 97.52816020025031
Weighted Precision: 0.9755647968889193
Weighted AreaUnderROC: 0.9957606448762532
Root mean squared error: 0.16680474983498103
Relative absolute error: 17.96375770595585
Root relative squared error: 33.360949966996216
Weighted TruePositiveRate: 0.9752816020025031
Weighted MatthewsCorrelation: 0.9507221134148685
Weighted FMeasure: 0.9752640381828712
Iteration time: 38.0
Weighted AreaUnderPRC: 0.9944260482509281
Mean absolute error: 0.08981878852977923
Coverage of cases: 99.94367959949936
Instances selection time: 1.3
Test time: 9.8
Accumulative iteration time: 1149.2
Weighted Recall: 0.9752816020025031
Weighted FalsePositiveRate: 0.02587111087870008
Kappa statistic: 0.9504116529690029
Training time: 36.7
		
Iteration: 42
Labeled set size: 1139
Unlabelled set size: 459
	
Mean region size: 72.55944931163955
Incorrectly Classified Instances: 2.5594493116395496
Correctly Classified Instances: 97.44055068836045
Weighted Precision: 0.9747066194246659
Weighted AreaUnderROC: 0.9953685292239278
Root mean squared error: 0.16598893263878461
Relative absolute error: 17.850234932867103
Root relative squared error: 33.197786527756925
Weighted TruePositiveRate: 0.9744055068836046
Weighted MatthewsCorrelation: 0.9489837432419496
Weighted FMeasure: 0.9743865355196759
Iteration time: 38.0
Weighted AreaUnderPRC: 0.9939448550777035
Mean absolute error: 0.08925117466433549
Coverage of cases: 99.89361702127658
Instances selection time: 1.2
Test time: 10.0
Accumulative iteration time: 1187.2
Weighted Recall: 0.9744055068836046
Weighted FalsePositiveRate: 0.026641110045075588
Kappa statistic: 0.9486549406689644
Training time: 36.8
		
Iteration: 43
Labeled set size: 1159
Unlabelled set size: 439
	
Mean region size: 72.69399249061325
Incorrectly Classified Instances: 2.722152690863579
Correctly Classified Instances: 97.27784730913643
Weighted Precision: 0.9730250885304722
Weighted AreaUnderROC: 0.9952108439871266
Root mean squared error: 0.1683769383840948
Relative absolute error: 18.184382681101596
Root relative squared error: 33.67538767681896
Weighted TruePositiveRate: 0.972778473091364
Weighted MatthewsCorrelation: 0.9456718825141053
Weighted FMeasure: 0.9727620305141571
Iteration time: 39.6
Weighted AreaUnderPRC: 0.9936315269042633
Mean absolute error: 0.09092191340550797
Coverage of cases: 99.91239048811013
Instances selection time: 1.3
Test time: 10.0
Accumulative iteration time: 1226.8
Weighted Recall: 0.972778473091364
Weighted FalsePositiveRate: 0.028138467494655484
Kappa statistic: 0.9454008474693854
Training time: 38.3
		
Iteration: 44
Labeled set size: 1179
Unlabelled set size: 419
	
Mean region size: 72.92866082603253
Incorrectly Classified Instances: 2.5344180225281603
Correctly Classified Instances: 97.46558197747183
Weighted Precision: 0.9749292597531369
Weighted AreaUnderROC: 0.9957744594112088
Root mean squared error: 0.16621467272382873
Relative absolute error: 18.057369214056287
Root relative squared error: 33.24293454476575
Weighted TruePositiveRate: 0.9746558197747184
Weighted MatthewsCorrelation: 0.9494631361487127
Weighted FMeasure: 0.9746407714013902
Iteration time: 40.2
Weighted AreaUnderPRC: 0.9944340077643321
Mean absolute error: 0.09028684607028141
Coverage of cases: 99.94367959949936
Instances selection time: 1.0
Test time: 10.3
Accumulative iteration time: 1267.0
Weighted Recall: 0.9746558197747184
Weighted FalsePositiveRate: 0.02626683883396102
Kappa statistic: 0.9491675867867959
Training time: 39.2
		
Iteration: 45
Labeled set size: 1199
Unlabelled set size: 399
	
Mean region size: 73.15707133917397
Incorrectly Classified Instances: 2.640801001251565
Correctly Classified Instances: 97.35919899874844
Weighted Precision: 0.9738064108635435
Weighted AreaUnderROC: 0.9960378577871388
Root mean squared error: 0.16770898496653097
Relative absolute error: 18.35789964546981
Root relative squared error: 33.541796993306185
Weighted TruePositiveRate: 0.9735919899874844
Weighted MatthewsCorrelation: 0.9472686537510203
Weighted FMeasure: 0.9735758398559098
Iteration time: 40.8
Weighted AreaUnderPRC: 0.9947822855029121
Mean absolute error: 0.09178949822734904
Coverage of cases: 99.94993742177721
Instances selection time: 1.0
Test time: 10.3
Accumulative iteration time: 1307.8
Weighted Recall: 0.9735919899874844
Weighted FalsePositiveRate: 0.027438379975014488
Kappa statistic: 0.9470285589956406
Training time: 39.8
		
Iteration: 46
Labeled set size: 1219
Unlabelled set size: 379
	
Mean region size: 72.540675844806
Incorrectly Classified Instances: 2.672090112640801
Correctly Classified Instances: 97.3279098873592
Weighted Precision: 0.9735035732445221
Weighted AreaUnderROC: 0.9950807936208562
Root mean squared error: 0.16821328695579837
Relative absolute error: 18.011910837092802
Root relative squared error: 33.64265739115967
Weighted TruePositiveRate: 0.973279098873592
Weighted MatthewsCorrelation: 0.946657025625959
Weighted FMeasure: 0.973265699116325
Iteration time: 41.2
Weighted AreaUnderPRC: 0.9935575992675238
Mean absolute error: 0.09005955418546402
Coverage of cases: 99.90613266583229
Instances selection time: 0.9
Test time: 10.1
Accumulative iteration time: 1349.0
Weighted Recall: 0.973279098873592
Weighted FalsePositiveRate: 0.027590369187675413
Kappa statistic: 0.9464122085419693
Training time: 40.3
		
Time end:Tue Oct 31 14.08.37 EET 2017