Tue Oct 31 13.18.52 EET 2017
Dataset: kr-vs-kp
Test set size: 1598
Initial Labelled set size: 319
Initial Unlabelled set size: 1279
Batch mode: QBestBatchMode
Batch size: 20
Classifiers: NaiveBayes-1cores
Scenario: PoolBasedSamplingScenario
Query strategy: EntropySamplingQueryStrategy-1cores
Time begining: Tue Oct 31 13.18.52 EET 2017
		
Iteration: 1
Labeled set size: 319
Unlabelled set size: 1279
	
Mean region size: 85.32540675844805
Incorrectly Classified Instances: 12.3279098873592
Correctly Classified Instances: 87.6720901126408
Weighted Precision: 0.876728457544824
Weighted AreaUnderROC: 0.9579739603362083
Root mean squared error: 0.29751430309229715
Relative absolute error: 42.61690162040412
Root relative squared error: 59.50286061845943
Weighted TruePositiveRate: 0.876720901126408
Weighted MatthewsCorrelation: 0.7529548047011045
Weighted FMeasure: 0.876724335538671
Iteration time: 17.0
Weighted AreaUnderPRC: 0.9596788251014681
Mean absolute error: 0.21308450810202062
Coverage of cases: 99.93742177722153
Instances selection time: 16.0
Test time: 23.0
Accumulative iteration time: 17.0
Weighted Recall: 0.876720901126408
Weighted FalsePositiveRate: 0.12372414235038208
Kappa statistic: 0.7529542126468081
Training time: 1.0
		
Iteration: 2
Labeled set size: 339
Unlabelled set size: 1259
	
Mean region size: 86.35794743429287
Incorrectly Classified Instances: 9.198998748435544
Correctly Classified Instances: 90.80100125156446
Weighted Precision: 0.9081085797523409
Weighted AreaUnderROC: 0.9707677698338577
Root mean squared error: 0.282953955060124
Relative absolute error: 41.672657939573
Root relative squared error: 56.5907910120248
Weighted TruePositiveRate: 0.9080100125156445
Weighted MatthewsCorrelation: 0.8157913916458932
Weighted FMeasure: 0.9080304696881041
Iteration time: 16.0
Weighted AreaUnderPRC: 0.9717998534471168
Mean absolute error: 0.208363289697865
Coverage of cases: 100.0
Instances selection time: 16.0
Test time: 24.0
Accumulative iteration time: 33.0
Weighted Recall: 0.9080100125156445
Weighted FalsePositiveRate: 0.09185568944487915
Kappa statistic: 0.8157394784360297
Training time: 0.0
		
Iteration: 3
Labeled set size: 359
Unlabelled set size: 1239
	
Mean region size: 86.88986232790988
Incorrectly Classified Instances: 7.071339173967459
Correctly Classified Instances: 92.92866082603254
Weighted Precision: 0.9296090732467706
Weighted AreaUnderROC: 0.9815524913475799
Root mean squared error: 0.27098463336372236
Relative absolute error: 40.99843526265106
Root relative squared error: 54.196926672744475
Weighted TruePositiveRate: 0.9292866082603254
Weighted MatthewsCorrelation: 0.8585083051272578
Weighted FMeasure: 0.9292192077760981
Iteration time: 16.0
Weighted AreaUnderPRC: 0.9819928824843621
Mean absolute error: 0.20499217631325528
Coverage of cases: 100.0
Instances selection time: 15.0
Test time: 24.0
Accumulative iteration time: 49.0
Weighted Recall: 0.9292866082603254
Weighted FalsePositiveRate: 0.07241372231530849
Kappa statistic: 0.8580850512020496
Training time: 1.0
		
Iteration: 4
Labeled set size: 379
Unlabelled set size: 1219
	
Mean region size: 87.42177722152691
Incorrectly Classified Instances: 6.257822277847309
Correctly Classified Instances: 93.74217772215269
Weighted Precision: 0.9375809847047236
Weighted AreaUnderROC: 0.9865108577079131
Root mean squared error: 0.2663188740037252
Relative absolute error: 41.19815397724582
Root relative squared error: 53.26377480074505
Weighted TruePositiveRate: 0.9374217772215269
Weighted MatthewsCorrelation: 0.8746846210562574
Weighted FMeasure: 0.9373819514263597
Iteration time: 16.0
Weighted AreaUnderPRC: 0.9867548239868009
Mean absolute error: 0.2059907698862291
Coverage of cases: 100.0
Instances selection time: 16.0
Test time: 23.0
Accumulative iteration time: 65.0
Weighted Recall: 0.9374217772215269
Weighted FalsePositiveRate: 0.06384991701010179
Kappa statistic: 0.8744612754671564
Training time: 0.0
		
Iteration: 5
Labeled set size: 399
Unlabelled set size: 1199
	
Mean region size: 87.76595744680851
Incorrectly Classified Instances: 5.381727158948686
Correctly Classified Instances: 94.61827284105131
Weighted Precision: 0.9465786685044648
Weighted AreaUnderROC: 0.9896359312829125
Root mean squared error: 0.2607719073628226
Relative absolute error: 41.0241986292301
Root relative squared error: 52.154381472564516
Weighted TruePositiveRate: 0.9461827284105131
Weighted MatthewsCorrelation: 0.8924637821849176
Weighted FMeasure: 0.9461288265205722
Iteration time: 15.0
Weighted AreaUnderPRC: 0.9896234056217075
Mean absolute error: 0.20512099314615048
Coverage of cases: 100.0
Instances selection time: 15.0
Test time: 25.0
Accumulative iteration time: 80.0
Weighted Recall: 0.9461827284105131
Weighted FalsePositiveRate: 0.055505367535932035
Kappa statistic: 0.8919878208463473
Training time: 0.0
		
Iteration: 6
Labeled set size: 419
Unlabelled set size: 1179
	
Mean region size: 88.86107634543178
Incorrectly Classified Instances: 5.193992490613266
Correctly Classified Instances: 94.80600750938673
Weighted Precision: 0.9482587334921593
Weighted AreaUnderROC: 0.990643614474851
Root mean squared error: 0.26896969268822957
Relative absolute error: 43.13684473553907
Root relative squared error: 53.793938537645914
Weighted TruePositiveRate: 0.9480600750938674
Weighted MatthewsCorrelation: 0.8960519273359449
Weighted FMeasure: 0.9480247930765507
Iteration time: 16.0
Weighted AreaUnderPRC: 0.9907384552024563
Mean absolute error: 0.21568422367769535
Coverage of cases: 100.0
Instances selection time: 16.0
Test time: 23.0
Accumulative iteration time: 96.0
Weighted Recall: 0.9480600750938674
Weighted FalsePositiveRate: 0.053224843852549185
Kappa statistic: 0.8957969645879065
Training time: 0.0
		
Iteration: 7
Labeled set size: 439
Unlabelled set size: 1159
	
Mean region size: 89.26783479349187
Incorrectly Classified Instances: 3.7546933667083855
Correctly Classified Instances: 96.24530663329162
Weighted Precision: 0.9624602114521237
Weighted AreaUnderROC: 0.991199252870406
Root mean squared error: 0.2688458557272948
Relative absolute error: 43.57344763868422
Root relative squared error: 53.76917114545896
Weighted TruePositiveRate: 0.9624530663329162
Weighted MatthewsCorrelation: 0.9247647876263363
Weighted FMeasure: 0.9624551287814053
Iteration time: 20.0
Weighted AreaUnderPRC: 0.9912947267535289
Mean absolute error: 0.2178672381934211
Coverage of cases: 100.0
Instances selection time: 18.0
Test time: 31.0
Accumulative iteration time: 116.0
Weighted Recall: 0.9624530663329162
Weighted FalsePositiveRate: 0.03758667853184725
Kappa statistic: 0.9247618793522051
Training time: 2.0
		
Iteration: 8
Labeled set size: 459
Unlabelled set size: 1139
	
Mean region size: 89.8936170212766
Incorrectly Classified Instances: 4.630788485607009
Correctly Classified Instances: 95.36921151439299
Weighted Precision: 0.953832861190867
Weighted AreaUnderROC: 0.9911600128707198
Root mean squared error: 0.27005803731477085
Relative absolute error: 43.94867625942025
Root relative squared error: 54.01160746295417
Weighted TruePositiveRate: 0.9536921151439299
Weighted MatthewsCorrelation: 0.907294855431383
Weighted FMeasure: 0.9536665043476265
Iteration time: 15.0
Weighted AreaUnderPRC: 0.9912493038698181
Mean absolute error: 0.21974338129710125
Coverage of cases: 100.0
Instances selection time: 14.0
Test time: 23.0
Accumulative iteration time: 131.0
Weighted Recall: 0.9536921151439299
Weighted FalsePositiveRate: 0.047400373594263835
Kappa statistic: 0.907111851934476
Training time: 1.0
		
Iteration: 9
Labeled set size: 479
Unlabelled set size: 1119
	
Mean region size: 89.76846057571964
Incorrectly Classified Instances: 4.130162703379224
Correctly Classified Instances: 95.86983729662077
Weighted Precision: 0.9586965848962837
Weighted AreaUnderROC: 0.9919196992646423
Root mean squared error: 0.270417367302991
Relative absolute error: 44.291514086579966
Root relative squared error: 54.0834734605982
Weighted TruePositiveRate: 0.9586983729662077
Weighted MatthewsCorrelation: 0.917222244980668
Weighted FMeasure: 0.9586959740911117
Iteration time: 14.0
Weighted AreaUnderPRC: 0.9920106904928478
Mean absolute error: 0.22145757043289982
Coverage of cases: 100.0
Instances selection time: 14.0
Test time: 29.0
Accumulative iteration time: 145.0
Weighted Recall: 0.9586983729662077
Weighted FalsePositiveRate: 0.041582669903133376
Kappa statistic: 0.9172193591226828
Training time: 0.0
		
Iteration: 10
Labeled set size: 499
Unlabelled set size: 1099
	
Mean region size: 89.61201501877346
Incorrectly Classified Instances: 3.44180225281602
Correctly Classified Instances: 96.55819774718398
Weighted Precision: 0.9658822649155434
Weighted AreaUnderROC: 0.9929729008562168
Root mean squared error: 0.27279788321417353
Relative absolute error: 44.868481418189724
Root relative squared error: 54.559576642834706
Weighted TruePositiveRate: 0.9655819774718398
Weighted MatthewsCorrelation: 0.9313617763158745
Weighted FMeasure: 0.9655955649803171
Iteration time: 21.0
Weighted AreaUnderPRC: 0.9930918205371143
Mean absolute error: 0.22434240709094863
Coverage of cases: 100.0
Instances selection time: 21.0
Test time: 23.0
Accumulative iteration time: 166.0
Weighted Recall: 0.9655819774718398
Weighted FalsePositiveRate: 0.03348444252862008
Kappa statistic: 0.9310979022842979
Training time: 0.0
		
Iteration: 11
Labeled set size: 519
Unlabelled set size: 1079
	
Mean region size: 90.17521902377972
Incorrectly Classified Instances: 3.8798498122653315
Correctly Classified Instances: 96.12015018773467
Weighted Precision: 0.9612406919800478
Weighted AreaUnderROC: 0.9909339904725281
Root mean squared error: 0.2729738432765046
Relative absolute error: 45.20910063208325
Root relative squared error: 54.59476865530092
Weighted TruePositiveRate: 0.9612015018773467
Weighted MatthewsCorrelation: 0.922297601561252
Weighted FMeasure: 0.9612075288332397
Iteration time: 15.0
Weighted AreaUnderPRC: 0.9909545810261746
Mean absolute error: 0.22604550316041624
Coverage of cases: 100.0
Instances selection time: 14.0
Test time: 23.0
Accumulative iteration time: 181.0
Weighted Recall: 0.9612015018773467
Weighted FalsePositiveRate: 0.0386173124580202
Kappa statistic: 0.9222715083921602
Training time: 1.0
		
Iteration: 12
Labeled set size: 539
Unlabelled set size: 1059
	
Mean region size: 89.73717146433042
Incorrectly Classified Instances: 3.942428035043805
Correctly Classified Instances: 96.0575719649562
Weighted Precision: 0.9606267001516497
Weighted AreaUnderROC: 0.9925867792593056
Root mean squared error: 0.27353596889177606
Relative absolute error: 45.366911404935365
Root relative squared error: 54.70719377835521
Weighted TruePositiveRate: 0.9605757196495619
Weighted MatthewsCorrelation: 0.9210577483471359
Weighted FMeasure: 0.9605827558915486
Iteration time: 15.0
Weighted AreaUnderPRC: 0.9927139135347499
Mean absolute error: 0.22683455702467684
Coverage of cases: 100.0
Instances selection time: 14.0
Test time: 23.0
Accumulative iteration time: 196.0
Weighted Recall: 0.9605757196495619
Weighted FalsePositiveRate: 0.039189135020654624
Kappa statistic: 0.9210222842143413
Training time: 1.0
		
Iteration: 13
Labeled set size: 559
Unlabelled set size: 1039
	
Mean region size: 89.86232790988736
Incorrectly Classified Instances: 3.8798498122653315
Correctly Classified Instances: 96.12015018773467
Weighted Precision: 0.9612218449517903
Weighted AreaUnderROC: 0.990401896076785
Root mean squared error: 0.27278395799645005
Relative absolute error: 45.34057091125886
Root relative squared error: 54.55679159929001
Weighted TruePositiveRate: 0.9612015018773467
Weighted MatthewsCorrelation: 0.9222743253879837
Weighted FMeasure: 0.9612056420398781
Iteration time: 14.0
Weighted AreaUnderPRC: 0.9902555508718229
Mean absolute error: 0.2267028545562943
Coverage of cases: 100.0
Instances selection time: 13.0
Test time: 23.0
Accumulative iteration time: 210.0
Weighted Recall: 0.9612015018773467
Weighted FalsePositiveRate: 0.03873032365711611
Kappa statistic: 0.9222627261870948
Training time: 1.0
		
Iteration: 14
Labeled set size: 579
Unlabelled set size: 1019
	
Mean region size: 90.08135168961202
Incorrectly Classified Instances: 4.5682102628285355
Correctly Classified Instances: 95.43178973717147
Weighted Precision: 0.9544804866200562
Weighted AreaUnderROC: 0.9907644736738843
Root mean squared error: 0.26907467563278153
Relative absolute error: 44.34727767765179
Root relative squared error: 53.81493512655631
Weighted TruePositiveRate: 0.9543178973717147
Weighted MatthewsCorrelation: 0.9085688244024792
Weighted FMeasure: 0.9542907466929865
Iteration time: 15.0
Weighted AreaUnderPRC: 0.9909539185743831
Mean absolute error: 0.22173638838825896
Coverage of cases: 100.0
Instances selection time: 14.0
Test time: 23.0
Accumulative iteration time: 225.0
Weighted Recall: 0.9543178973717147
Weighted FalsePositiveRate: 0.04682855103162941
Kappa statistic: 0.9083619144279671
Training time: 1.0
		
Iteration: 15
Labeled set size: 599
Unlabelled set size: 999
	
Mean region size: 89.45556946182728
Incorrectly Classified Instances: 4.630788485607009
Correctly Classified Instances: 95.36921151439299
Weighted Precision: 0.9537334255407357
Weighted AreaUnderROC: 0.9915916528672668
Root mean squared error: 0.2678486564633703
Relative absolute error: 44.20047184331932
Root relative squared error: 53.569731292674064
Weighted TruePositiveRate: 0.9536921151439299
Weighted MatthewsCorrelation: 0.9072529517435995
Weighted FMeasure: 0.9536993086074151
Iteration time: 14.0
Weighted AreaUnderPRC: 0.99166500510506
Mean absolute error: 0.2210023592165966
Coverage of cases: 100.0
Instances selection time: 13.0
Test time: 23.0
Accumulative iteration time: 239.0
Weighted Recall: 0.9536921151439299
Weighted FalsePositiveRate: 0.04615725040420883
Kappa statistic: 0.9072272842099979
Training time: 1.0
		
Iteration: 16
Labeled set size: 619
Unlabelled set size: 979
	
Mean region size: 89.54943679599499
Incorrectly Classified Instances: 4.630788485607009
Correctly Classified Instances: 95.36921151439299
Weighted Precision: 0.9537952514506832
Weighted AreaUnderROC: 0.9915947920672418
Root mean squared error: 0.2646437771717625
Relative absolute error: 43.517896687424674
Root relative squared error: 52.9287554343525
Weighted TruePositiveRate: 0.9536921151439299
Weighted MatthewsCorrelation: 0.9072624296866498
Weighted FMeasure: 0.9536702179959488
Iteration time: 24.0
Weighted AreaUnderPRC: 0.9917297191804653
Mean absolute error: 0.21758948343712337
Coverage of cases: 100.0
Instances selection time: 23.0
Test time: 24.0
Accumulative iteration time: 263.0
Weighted Recall: 0.9536921151439299
Weighted FalsePositiveRate: 0.04728736239516794
Kappa statistic: 0.9071223576463122
Training time: 1.0
		
Iteration: 17
Labeled set size: 639
Unlabelled set size: 959
	
Mean region size: 89.39299123904881
Incorrectly Classified Instances: 4.630788485607009
Correctly Classified Instances: 95.36921151439299
Weighted Precision: 0.9537633726067428
Weighted AreaUnderROC: 0.9914425408684596
Root mean squared error: 0.2635184190369148
Relative absolute error: 43.28422961304742
Root relative squared error: 52.70368380738296
Weighted TruePositiveRate: 0.9536921151439299
Weighted MatthewsCorrelation: 0.9072357426429632
Weighted FMeasure: 0.9536737850955919
Iteration time: 13.0
Weighted AreaUnderPRC: 0.9915475838690313
Mean absolute error: 0.21642114806523713
Coverage of cases: 100.0
Instances selection time: 12.0
Test time: 23.0
Accumulative iteration time: 276.0
Weighted Recall: 0.9536921151439299
Weighted FalsePositiveRate: 0.04717435119607203
Kappa statistic: 0.9071328609820112
Training time: 1.0
		
Iteration: 18
Labeled set size: 659
Unlabelled set size: 939
	
Mean region size: 89.26783479349187
Incorrectly Classified Instances: 4.943679599499374
Correctly Classified Instances: 95.05632040050062
Weighted Precision: 0.950720470689937
Weighted AreaUnderROC: 0.9926322976589416
Root mean squared error: 0.26052237557061275
Relative absolute error: 42.60686594366743
Root relative squared error: 52.10447511412255
Weighted TruePositiveRate: 0.9505632040050063
Weighted MatthewsCorrelation: 0.9010352113152595
Weighted FMeasure: 0.950533821763643
Iteration time: 13.0
Weighted AreaUnderPRC: 0.9928216579578176
Mean absolute error: 0.21303432971833713
Coverage of cases: 100.0
Instances selection time: 12.0
Test time: 23.0
Accumulative iteration time: 289.0
Weighted Recall: 0.9505632040050063
Weighted FalsePositiveRate: 0.05059852000472373
Kappa statistic: 0.9008300169836904
Training time: 1.0
		
Iteration: 19
Labeled set size: 679
Unlabelled set size: 919
	
Mean region size: 88.9549436795995
Incorrectly Classified Instances: 4.693366708385482
Correctly Classified Instances: 95.30663329161452
Weighted Precision: 0.9531868043610662
Weighted AreaUnderROC: 0.989262366485901
Root mean squared error: 0.2654175176751158
Relative absolute error: 43.464585025336625
Root relative squared error: 53.083503535023155
Weighted TruePositiveRate: 0.9530663329161452
Weighted MatthewsCorrelation: 0.9060225280644286
Weighted FMeasure: 0.9530422765164709
Iteration time: 13.0
Weighted AreaUnderPRC: 0.9893554172278706
Mean absolute error: 0.2173229251266831
Coverage of cases: 100.0
Instances selection time: 12.0
Test time: 23.0
Accumulative iteration time: 302.0
Weighted Recall: 0.9530663329161452
Weighted FalsePositiveRate: 0.047972196156898274
Kappa statistic: 0.9058619308318867
Training time: 1.0
		
Iteration: 20
Labeled set size: 699
Unlabelled set size: 899
	
Mean region size: 88.86107634543178
Incorrectly Classified Instances: 5.256570713391739
Correctly Classified Instances: 94.74342928660826
Weighted Precision: 0.9479037866471753
Weighted AreaUnderROC: 0.9919950400640397
Root mean squared error: 0.2599874188796155
Relative absolute error: 42.562969395666364
Root relative squared error: 51.9974837759231
Weighted TruePositiveRate: 0.9474342928660826
Weighted MatthewsCorrelation: 0.8950415362372856
Weighted FMeasure: 0.9473764285208564
Iteration time: 12.0
Weighted AreaUnderPRC: 0.9921160872869118
Mean absolute error: 0.21281484697833183
Coverage of cases: 100.0
Instances selection time: 11.0
Test time: 23.0
Accumulative iteration time: 314.0
Weighted Recall: 0.9474342928660826
Weighted FalsePositiveRate: 0.054361722410663164
Kappa statistic: 0.8944877903841709
Training time: 1.0
		
Iteration: 21
Labeled set size: 719
Unlabelled set size: 879
	
Mean region size: 88.67334167709637
Incorrectly Classified Instances: 4.8185231539424285
Correctly Classified Instances: 95.18147684605758
Weighted Precision: 0.9519738093333101
Weighted AreaUnderROC: 0.9910124704719003
Root mean squared error: 0.25995695560574134
Relative absolute error: 42.39830768715008
Root relative squared error: 51.99139112114827
Weighted TruePositiveRate: 0.9518147684605757
Weighted MatthewsCorrelation: 0.903546415677666
Weighted FMeasure: 0.9517861300734243
Iteration time: 15.0
Weighted AreaUnderPRC: 0.9912123956218482
Mean absolute error: 0.2119915384357504
Coverage of cases: 100.0
Instances selection time: 14.0
Test time: 22.0
Accumulative iteration time: 329.0
Weighted Recall: 0.9518147684605757
Weighted FalsePositiveRate: 0.04934186368035896
Kappa statistic: 0.9033406494651157
Training time: 1.0
		
Iteration: 22
Labeled set size: 739
Unlabelled set size: 859
	
Mean region size: 89.26783479349187
Incorrectly Classified Instances: 5.068836045056321
Correctly Classified Instances: 94.93116395494368
Weighted Precision: 0.9495123563900622
Weighted AreaUnderROC: 0.9900063568799491
Root mean squared error: 0.2602505109986786
Relative absolute error: 42.555212827597586
Root relative squared error: 52.05010219973572
Weighted TruePositiveRate: 0.9493116395494368
Weighted MatthewsCorrelation: 0.8985635585118056
Weighted FMeasure: 0.9492772077012123
Iteration time: 11.0
Weighted AreaUnderPRC: 0.9900463400775157
Mean absolute error: 0.2127760641379879
Coverage of cases: 100.0
Instances selection time: 11.0
Test time: 23.0
Accumulative iteration time: 340.0
Weighted Recall: 0.9493116395494368
Weighted FalsePositiveRate: 0.05196818752818441
Kappa statistic: 0.8983078811038604
Training time: 0.0
		
Iteration: 23
Labeled set size: 759
Unlabelled set size: 839
	
Mean region size: 88.5168961201502
Incorrectly Classified Instances: 5.006257822277847
Correctly Classified Instances: 94.99374217772215
Weighted Precision: 0.9501639885051075
Weighted AreaUnderROC: 0.9910030528719755
Root mean squared error: 0.25994098558539525
Relative absolute error: 42.243863765381704
Root relative squared error: 51.98819711707905
Weighted TruePositiveRate: 0.9499374217772215
Weighted MatthewsCorrelation: 0.8998413961168267
Weighted FMeasure: 0.9499012292125965
Iteration time: 11.0
Weighted AreaUnderPRC: 0.9912638022374943
Mean absolute error: 0.2112193188269085
Coverage of cases: 100.0
Instances selection time: 10.0
Test time: 23.0
Accumulative iteration time: 351.0
Weighted Recall: 0.9499374217772215
Weighted FalsePositiveRate: 0.05139636496554999
Kappa statistic: 0.8995576577072055
Training time: 1.0
		
Iteration: 24
Labeled set size: 779
Unlabelled set size: 819
	
Mean region size: 88.17271589486859
Incorrectly Classified Instances: 4.943679599499374
Correctly Classified Instances: 95.05632040050062
Weighted Precision: 0.950720470689937
Weighted AreaUnderROC: 0.989970256080238
Root mean squared error: 0.25849589487106117
Relative absolute error: 42.056893946333915
Root relative squared error: 51.69917897421223
Weighted TruePositiveRate: 0.9505632040050063
Weighted MatthewsCorrelation: 0.9010352113152595
Weighted FMeasure: 0.950533821763643
Iteration time: 12.0
Weighted AreaUnderPRC: 0.9899943996945871
Mean absolute error: 0.21028446973166956
Coverage of cases: 100.0
Instances selection time: 11.0
Test time: 23.0
Accumulative iteration time: 363.0
Weighted Recall: 0.9505632040050063
Weighted FalsePositiveRate: 0.05059852000472373
Kappa statistic: 0.9008300169836904
Training time: 1.0
		
Iteration: 25
Labeled set size: 799
Unlabelled set size: 799
	
Mean region size: 88.42302878598248
Incorrectly Classified Instances: 5.131414267834794
Correctly Classified Instances: 94.8685857321652
Weighted Precision: 0.9489638303436057
Weighted AreaUnderROC: 0.9908696368730429
Root mean squared error: 0.25611000446937326
Relative absolute error: 41.283673086635716
Root relative squared error: 51.22200089387465
Weighted TruePositiveRate: 0.9486858573216521
Weighted MatthewsCorrelation: 0.8973774220020198
Weighted FMeasure: 0.948644156998849
Iteration time: 12.0
Weighted AreaUnderPRC: 0.9911103768246652
Mean absolute error: 0.20641836543317857
Coverage of cases: 100.0
Instances selection time: 11.0
Test time: 22.0
Accumulative iteration time: 375.0
Weighted Recall: 0.9486858573216521
Weighted FalsePositiveRate: 0.05276603248901066
Kappa statistic: 0.8970349497810041
Training time: 1.0
		
Iteration: 26
Labeled set size: 819
Unlabelled set size: 779
	
Mean region size: 88.32916145181477
Incorrectly Classified Instances: 4.943679599499374
Correctly Classified Instances: 95.05632040050062
Weighted Precision: 0.9507659792879651
Weighted AreaUnderROC: 0.9913672000690623
Root mean squared error: 0.25775516076451654
Relative absolute error: 41.80949585145493
Root relative squared error: 51.55103215290331
Weighted TruePositiveRate: 0.9505632040050063
Weighted MatthewsCorrelation: 0.9010751896876662
Weighted FMeasure: 0.9505296223258736
Iteration time: 15.0
Weighted AreaUnderPRC: 0.991606233463488
Mean absolute error: 0.20904747925727465
Coverage of cases: 100.0
Instances selection time: 14.0
Test time: 29.0
Accumulative iteration time: 390.0
Weighted Recall: 0.9505632040050063
Weighted FalsePositiveRate: 0.05071153120381964
Kappa statistic: 0.9008187976198145
Training time: 1.0
		
Iteration: 27
Labeled set size: 839
Unlabelled set size: 759
	
Mean region size: 88.2665832290363
Incorrectly Classified Instances: 5.068836045056321
Correctly Classified Instances: 94.93116395494368
Weighted Precision: 0.9495632738551473
Weighted AreaUnderROC: 0.9914723632682211
Root mean squared error: 0.2571144859743544
Relative absolute error: 41.67958984140838
Root relative squared error: 51.42289719487088
Weighted TruePositiveRate: 0.9493116395494368
Weighted MatthewsCorrelation: 0.8986088086048828
Weighted FMeasure: 0.949272741271094
Iteration time: 14.0
Weighted AreaUnderPRC: 0.9915986641886039
Mean absolute error: 0.2083979492070419
Coverage of cases: 100.0
Instances selection time: 13.0
Test time: 23.0
Accumulative iteration time: 404.0
Weighted Recall: 0.9493116395494368
Weighted FalsePositiveRate: 0.05208119872728032
Kappa statistic: 0.8982963751023416
Training time: 1.0
		
Iteration: 28
Labeled set size: 859
Unlabelled set size: 739
	
Mean region size: 88.54818523153942
Incorrectly Classified Instances: 5.006257822277847
Correctly Classified Instances: 94.99374217772215
Weighted Precision: 0.9501157724447707
Weighted AreaUnderROC: 0.9907613344739093
Root mean squared error: 0.25647320594281414
Relative absolute error: 41.37478042822419
Root relative squared error: 51.29464118856283
Weighted TruePositiveRate: 0.9499374217772215
Weighted MatthewsCorrelation: 0.8997987787157227
Weighted FMeasure: 0.9499055611410878
Iteration time: 20.0
Weighted AreaUnderPRC: 0.9909007421820701
Mean absolute error: 0.20687390214112097
Coverage of cases: 100.0
Instances selection time: 19.0
Test time: 47.0
Accumulative iteration time: 424.0
Weighted Recall: 0.9499374217772215
Weighted FalsePositiveRate: 0.05128335376645408
Kappa statistic: 0.8995690203737251
Training time: 1.0
		
Iteration: 29
Labeled set size: 879
Unlabelled set size: 719
	
Mean region size: 88.39173967459324
Incorrectly Classified Instances: 5.131414267834794
Correctly Classified Instances: 94.8685857321652
Weighted Precision: 0.948910217486623
Weighted AreaUnderROC: 0.9913923136688614
Root mean squared error: 0.25423196001356874
Relative absolute error: 40.85956225800609
Root relative squared error: 50.84639200271375
Weighted TruePositiveRate: 0.9486858573216521
Weighted MatthewsCorrelation: 0.897329545521603
Weighted FMeasure: 0.9486487599429114
Iteration time: 11.0
Weighted AreaUnderPRC: 0.9915315025459784
Mean absolute error: 0.20429781129003047
Coverage of cases: 100.0
Instances selection time: 10.0
Test time: 23.0
Accumulative iteration time: 435.0
Weighted Recall: 0.9486858573216521
Weighted FalsePositiveRate: 0.05265302128991475
Kappa statistic: 0.8970465991498858
Training time: 1.0
		
Iteration: 30
Labeled set size: 899
Unlabelled set size: 699
	
Mean region size: 88.64205256570713
Incorrectly Classified Instances: 4.881101376720901
Correctly Classified Instances: 95.1188986232791
Weighted Precision: 0.951326456185529
Weighted AreaUnderROC: 0.9903187072774503
Root mean squared error: 0.25633357493232795
Relative absolute error: 41.31617782484908
Root relative squared error: 51.26671498646559
Weighted TruePositiveRate: 0.951188986232791
Weighted MatthewsCorrelation: 0.9022728615069339
Weighted FMeasure: 0.9511619910691196
Iteration time: 10.0
Weighted AreaUnderPRC: 0.9904093280199293
Mean absolute error: 0.20658088912424538
Coverage of cases: 100.0
Instances selection time: 9.0
Test time: 23.0
Accumulative iteration time: 445.0
Weighted Recall: 0.951188986232791
Weighted FalsePositiveRate: 0.04991368624299339
Kappa statistic: 0.9020908709579611
Training time: 1.0
		
Iteration: 31
Labeled set size: 919
Unlabelled set size: 679
	
Mean region size: 88.39173967459324
Incorrectly Classified Instances: 5.131414267834794
Correctly Classified Instances: 94.8685857321652
Weighted Precision: 0.948910217486623
Weighted AreaUnderROC: 0.9902261008781912
Root mean squared error: 0.25515485454677544
Relative absolute error: 40.74854755114701
Root relative squared error: 51.03097090935509
Weighted TruePositiveRate: 0.9486858573216521
Weighted MatthewsCorrelation: 0.897329545521603
Weighted FMeasure: 0.9486487599429114
Iteration time: 12.0
Weighted AreaUnderPRC: 0.9903855475802334
Mean absolute error: 0.20374273775573506
Coverage of cases: 100.0
Instances selection time: 11.0
Test time: 22.0
Accumulative iteration time: 457.0
Weighted Recall: 0.9486858573216521
Weighted FalsePositiveRate: 0.05265302128991475
Kappa statistic: 0.8970465991498858
Training time: 1.0
		
Iteration: 32
Labeled set size: 939
Unlabelled set size: 659
	
Mean region size: 88.11013767209012
Incorrectly Classified Instances: 4.8185231539424285
Correctly Classified Instances: 95.18147684605758
Weighted Precision: 0.9519337340124354
Weighted AreaUnderROC: 0.9906514624747883
Root mean squared error: 0.25458767886847444
Relative absolute error: 40.54498036169224
Root relative squared error: 50.91753577369489
Weighted TruePositiveRate: 0.9518147684605757
Weighted MatthewsCorrelation: 0.9035117345019859
Weighted FMeasure: 0.9517900705569102
Iteration time: 11.0
Weighted AreaUnderPRC: 0.9909077883625752
Mean absolute error: 0.2027249018084612
Coverage of cases: 100.0
Instances selection time: 10.0
Test time: 32.0
Accumulative iteration time: 468.0
Weighted Recall: 0.9518147684605757
Weighted FalsePositiveRate: 0.049228852481263054
Kappa statistic: 0.903351582320737
Training time: 1.0
		
Iteration: 33
Labeled set size: 959
Unlabelled set size: 639
	
Mean region size: 88.2665832290363
Incorrectly Classified Instances: 5.193992490613266
Correctly Classified Instances: 94.80600750938673
Weighted Precision: 0.9482587334921593
Weighted AreaUnderROC: 0.9895762864833897
Root mean squared error: 0.2532767769160715
Relative absolute error: 40.06630145464239
Root relative squared error: 50.65535538321429
Weighted TruePositiveRate: 0.9480600750938674
Weighted MatthewsCorrelation: 0.8960519273359449
Weighted FMeasure: 0.9480247930765507
Iteration time: 23.0
Weighted AreaUnderPRC: 0.9897927679767736
Mean absolute error: 0.20033150727321195
Coverage of cases: 100.0
Instances selection time: 21.0
Test time: 60.0
Accumulative iteration time: 491.0
Weighted Recall: 0.9480600750938674
Weighted FalsePositiveRate: 0.053224843852549185
Kappa statistic: 0.8957969645879065
Training time: 2.0
		
Iteration: 34
Labeled set size: 979
Unlabelled set size: 619
	
Mean region size: 88.2665832290363
Incorrectly Classified Instances: 5.006257822277847
Correctly Classified Instances: 94.99374217772215
Weighted Precision: 0.9501157724447707
Weighted AreaUnderROC: 0.9908994592728043
Root mean squared error: 0.25530006452295545
Relative absolute error: 40.57196926898766
Root relative squared error: 51.06001290459109
Weighted TruePositiveRate: 0.9499374217772215
Weighted MatthewsCorrelation: 0.8997987787157227
Weighted FMeasure: 0.9499055611410878
Iteration time: 23.0
Weighted AreaUnderPRC: 0.9911222123089283
Mean absolute error: 0.20285984634493828
Coverage of cases: 100.0
Instances selection time: 20.0
Test time: 28.0
Accumulative iteration time: 514.0
Weighted Recall: 0.9499374217772215
Weighted FalsePositiveRate: 0.05128335376645408
Kappa statistic: 0.8995690203737251
Training time: 3.0
		
Iteration: 35
Labeled set size: 999
Unlabelled set size: 599
	
Mean region size: 88.5168961201502
Incorrectly Classified Instances: 5.444305381727159
Correctly Classified Instances: 94.55569461827284
Weighted Precision: 0.945801504437415
Weighted AreaUnderROC: 0.9894303136845575
Root mean squared error: 0.2553828281723834
Relative absolute error: 40.22517797373803
Root relative squared error: 51.07656563447668
Weighted TruePositiveRate: 0.9455569461827285
Weighted MatthewsCorrelation: 0.891072586523376
Weighted FMeasure: 0.9455151665504343
Iteration time: 9.0
Weighted AreaUnderPRC: 0.9897319753669338
Mean absolute error: 0.20112588986869015
Coverage of cases: 100.0
Instances selection time: 8.0
Test time: 23.0
Accumulative iteration time: 523.0
Weighted Recall: 0.9455569461827285
Weighted FalsePositiveRate: 0.05585116770037464
Kappa statistic: 0.8907627732580707
Training time: 1.0
		
Iteration: 36
Labeled set size: 1019
Unlabelled set size: 579
	
Mean region size: 88.2665832290363
Incorrectly Classified Instances: 5.006257822277847
Correctly Classified Instances: 94.99374217772215
Weighted Precision: 0.9500052792815702
Weighted AreaUnderROC: 0.9904317184765462
Root mean squared error: 0.254727773625928
Relative absolute error: 40.24654657085165
Root relative squared error: 50.9455547251856
Weighted TruePositiveRate: 0.9499374217772215
Weighted MatthewsCorrelation: 0.8997051206325807
Weighted FMeasure: 0.949917605508748
Iteration time: 9.0
Weighted AreaUnderPRC: 0.9906978594165068
Mean absolute error: 0.20123273285425824
Coverage of cases: 100.0
Instances selection time: 8.0
Test time: 22.0
Accumulative iteration time: 532.0
Weighted Recall: 0.9499374217772215
Weighted FalsePositiveRate: 0.05094432016916634
Kappa statistic: 0.8996030929535256
Training time: 1.0
		
Iteration: 37
Labeled set size: 1039
Unlabelled set size: 559
	
Mean region size: 88.48560700876095
Incorrectly Classified Instances: 5.569461827284105
Correctly Classified Instances: 94.4305381727159
Weighted Precision: 0.9444537774730718
Weighted AreaUnderROC: 0.9886721968906225
Root mean squared error: 0.25558415934355433
Relative absolute error: 39.920879486696606
Root relative squared error: 51.11683186871087
Weighted TruePositiveRate: 0.9443053817271589
Weighted MatthewsCorrelation: 0.8884791895032266
Weighted FMeasure: 0.9442722802147371
Iteration time: 9.0
Weighted AreaUnderPRC: 0.9890650012967849
Mean absolute error: 0.19960439743348304
Coverage of cases: 100.0
Instances selection time: 8.0
Test time: 23.0
Accumulative iteration time: 541.0
Weighted Recall: 0.9443053817271589
Weighted FalsePositiveRate: 0.056881801626547594
Kappa statistic: 0.8882768545765625
Training time: 1.0
		
Iteration: 38
Labeled set size: 1059
Unlabelled set size: 539
	
Mean region size: 88.11013767209012
Incorrectly Classified Instances: 5.319148936170213
Correctly Classified Instances: 94.68085106382979
Weighted Precision: 0.9468218471162324
Weighted AreaUnderROC: 0.9896343616829251
Root mean squared error: 0.255303768238079
Relative absolute error: 39.9038735651711
Root relative squared error: 51.0607536476158
Weighted TruePositiveRate: 0.9468085106382979
Weighted MatthewsCorrelation: 0.8933928893361464
Weighted FMeasure: 0.9467969634447425
Iteration time: 9.0
Weighted AreaUnderPRC: 0.9899730806304922
Mean absolute error: 0.1995193678258555
Coverage of cases: 100.0
Instances selection time: 7.0
Test time: 23.0
Accumulative iteration time: 550.0
Weighted Recall: 0.9468085106382979
Weighted FalsePositiveRate: 0.053803432982338494
Kappa statistic: 0.8933584359341952
Training time: 2.0
		
Iteration: 39
Labeled set size: 1079
Unlabelled set size: 519
	
Mean region size: 87.9224030037547
Incorrectly Classified Instances: 5.882352941176471
Correctly Classified Instances: 94.11764705882354
Weighted Precision: 0.9412658296699348
Weighted AreaUnderROC: 0.9882436960940504
Root mean squared error: 0.25563467988195016
Relative absolute error: 39.574372607872924
Root relative squared error: 51.12693597639003
Weighted TruePositiveRate: 0.9411764705882353
Weighted MatthewsCorrelation: 0.8821564880850348
Weighted FMeasure: 0.9411486552921511
Iteration time: 8.0
Weighted AreaUnderPRC: 0.9886594680054405
Mean absolute error: 0.19787186303936463
Coverage of cases: 100.0
Instances selection time: 7.0
Test time: 23.0
Accumulative iteration time: 558.0
Weighted Recall: 0.9411764705882353
Weighted FalsePositiveRate: 0.05985392563881566
Kappa statistic: 0.8820202921453155
Training time: 1.0
		
Iteration: 40
Labeled set size: 1099
Unlabelled set size: 499
	
Mean region size: 88.20400500625782
Incorrectly Classified Instances: 5.882352941176471
Correctly Classified Instances: 94.11764705882354
Weighted Precision: 0.9411814600415472
Weighted AreaUnderROC: 0.9883975168928197
Root mean squared error: 0.2577519212545112
Relative absolute error: 39.91454237428703
Root relative squared error: 51.55038425090224
Weighted TruePositiveRate: 0.9411764705882353
Weighted MatthewsCorrelation: 0.8820986320933434
Weighted FMeasure: 0.9411656642307722
Iteration time: 8.0
Weighted AreaUnderPRC: 0.9888100319997972
Mean absolute error: 0.19957271187143516
Coverage of cases: 100.0
Instances selection time: 6.0
Test time: 23.0
Accumulative iteration time: 566.0
Weighted Recall: 0.9411764705882353
Weighted FalsePositiveRate: 0.05940188084243201
Kappa statistic: 0.8820736423458404
Training time: 2.0
		
Iteration: 41
Labeled set size: 1119
Unlabelled set size: 479
	
Mean region size: 87.85982478097623
Incorrectly Classified Instances: 5.632040050062578
Correctly Classified Instances: 94.36795994993741
Weighted Precision: 0.94368557976611
Weighted AreaUnderROC: 0.9883331632933348
Root mean squared error: 0.25652817549848883
Relative absolute error: 39.58450266797386
Root relative squared error: 51.30563509969777
Weighted TruePositiveRate: 0.9436795994993742
Weighted MatthewsCorrelation: 0.8871169171396518
Weighted FMeasure: 0.9436692529869094
Iteration time: 8.0
Weighted AreaUnderPRC: 0.9887254428114219
Mean absolute error: 0.1979225133398693
Coverage of cases: 100.0
Instances selection time: 7.0
Test time: 22.0
Accumulative iteration time: 574.0
Weighted Recall: 0.9436795994993742
Weighted FalsePositiveRate: 0.056888568193702464
Kappa statistic: 0.8870917852247409
Training time: 1.0
		
Iteration: 42
Labeled set size: 1139
Unlabelled set size: 459
	
Mean region size: 87.64080100125156
Incorrectly Classified Instances: 6.195244055068836
Correctly Classified Instances: 93.80475594493116
Weighted Precision: 0.9380472449463702
Weighted AreaUnderROC: 0.98604625611163
Root mean squared error: 0.25996693778477775
Relative absolute error: 39.68281333533461
Root relative squared error: 51.993387556955554
Weighted TruePositiveRate: 0.9380475594493116
Weighted MatthewsCorrelation: 0.8758252122202408
Weighted FMeasure: 0.9380381973094735
Iteration time: 7.0
Weighted AreaUnderPRC: 0.9866013101473246
Mean absolute error: 0.19841406667667305
Coverage of cases: 100.0
Instances selection time: 6.0
Test time: 23.0
Accumulative iteration time: 581.0
Weighted Recall: 0.9380475594493116
Weighted FalsePositiveRate: 0.062487016053795995
Kappa statistic: 0.8758079836715469
Training time: 1.0
		
Iteration: 43
Labeled set size: 1159
Unlabelled set size: 439
	
Mean region size: 87.76595744680851
Incorrectly Classified Instances: 6.07008760951189
Correctly Classified Instances: 93.92991239048811
Weighted Precision: 0.9392992123588334
Weighted AreaUnderROC: 0.9866254385069966
Root mean squared error: 0.25896011397448826
Relative absolute error: 39.59174259241158
Root relative squared error: 51.792022794897655
Weighted TruePositiveRate: 0.9392991239048811
Weighted MatthewsCorrelation: 0.8783341911977102
Weighted FMeasure: 0.9392899508991811
Iteration time: 8.0
Weighted AreaUnderPRC: 0.9871343944874879
Mean absolute error: 0.1979587129620579
Coverage of cases: 100.0
Instances selection time: 6.0
Test time: 22.0
Accumulative iteration time: 589.0
Weighted Recall: 0.9392991239048811
Weighted FalsePositiveRate: 0.06123035972943121
Kappa statistic: 0.8783169132943439
Training time: 2.0
		
Iteration: 44
Labeled set size: 1179
Unlabelled set size: 419
	
Mean region size: 87.29662077596996
Incorrectly Classified Instances: 6.633291614518147
Correctly Classified Instances: 93.36670838548186
Weighted Precision: 0.9336773007075171
Weighted AreaUnderROC: 0.9838566641291467
Root mean squared error: 0.26147090434390485
Relative absolute error: 39.395753478088835
Root relative squared error: 52.29418086878097
Weighted TruePositiveRate: 0.9336670838548186
Weighted MatthewsCorrelation: 0.8670820470577393
Weighted FMeasure: 0.9336707275138156
Iteration time: 7.0
Weighted AreaUnderPRC: 0.9845273882735903
Mean absolute error: 0.19697876739044418
Coverage of cases: 100.0
Instances selection time: 6.0
Test time: 23.0
Accumulative iteration time: 596.0
Weighted Recall: 0.9336670838548186
Weighted FalsePositiveRate: 0.066489773992237
Kappa statistic: 0.8670793201888958
Training time: 1.0
		
Iteration: 45
Labeled set size: 1199
Unlabelled set size: 399
	
Mean region size: 87.29662077596996
Incorrectly Classified Instances: 6.132665832290363
Correctly Classified Instances: 93.86733416770964
Weighted Precision: 0.9386704957875144
Weighted AreaUnderROC: 0.9858751697129986
Root mean squared error: 0.2606473043623559
Relative absolute error: 39.68403784469295
Root relative squared error: 52.12946087247118
Weighted TruePositiveRate: 0.9386733416770964
Weighted MatthewsCorrelation: 0.8770804375001524
Weighted FMeasure: 0.9386660243447922
Iteration time: 7.0
Weighted AreaUnderPRC: 0.9864181056202554
Mean absolute error: 0.19842018922346474
Coverage of cases: 100.0
Instances selection time: 6.0
Test time: 27.0
Accumulative iteration time: 603.0
Weighted Recall: 0.9386733416770964
Weighted FalsePositiveRate: 0.06180218229206565
Kappa statistic: 0.8770693967134565
Training time: 1.0
		
Iteration: 46
Labeled set size: 1219
Unlabelled set size: 379
	
Mean region size: 86.9837296620776
Incorrectly Classified Instances: 6.4455569461827285
Correctly Classified Instances: 93.55444305381727
Weighted Precision: 0.9355414717290861
Weighted AreaUnderROC: 0.9838174241294606
Root mean squared error: 0.2615535148403972
Relative absolute error: 39.33623053449894
Root relative squared error: 52.31070296807944
Weighted TruePositiveRate: 0.9355444305381727
Weighted MatthewsCorrelation: 0.8708200152896239
Weighted FMeasure: 0.93554258409045
Iteration time: 7.0
Weighted AreaUnderPRC: 0.9844776698502852
Mean absolute error: 0.1966811526724947
Coverage of cases: 100.0
Instances selection time: 5.0
Test time: 23.0
Accumulative iteration time: 610.0
Weighted Recall: 0.9355444305381727
Weighted FalsePositiveRate: 0.06477430630433371
Kappa statistic: 0.8708193304022013
Training time: 2.0
		
Time end:Tue Oct 31 13.18.56 EET 2017