Tue Oct 31 14.00.30 EET 2017
Dataset: kr-vs-kp
Test set size: 1598
Initial Labelled set size: 319
Initial Unlabelled set size: 1279
Batch mode: QBestBatchMode
Batch size: 20
Classifiers: NaiveBayes-1cores
Scenario: PoolBasedSamplingScenario
Query strategy: RandomSelectionQueryStrategy-1cores
Time begining: Tue Oct 31 14.00.30 EET 2017
		
Iteration: 1
Labeled set size: 319
Unlabelled set size: 1279
	
Mean region size: 85.41927409261577
Incorrectly Classified Instances: 18.335419274092615
Correctly Classified Instances: 81.66458072590738
Weighted Precision: 0.8167405936618473
Weighted AreaUnderROC: 0.916225658216882
Root mean squared error: 0.34398626847436325
Relative absolute error: 48.441428167183346
Root relative squared error: 68.79725369487265
Weighted TruePositiveRate: 0.8166458072590739
Weighted MatthewsCorrelation: 0.6327521787976442
Weighted FMeasure: 0.8166775212883364
Iteration time: 5.0
Weighted AreaUnderPRC: 0.9206135609808299
Mean absolute error: 0.24220714083591674
Coverage of cases: 99.93742177722153
Instances selection time: 4.0
Test time: 23.0
Accumulative iteration time: 5.0
Weighted Recall: 0.8166458072590739
Weighted FalsePositiveRate: 0.18367469723609745
Kappa statistic: 0.6327278203887228
Training time: 1.0
		
Iteration: 2
Labeled set size: 339
Unlabelled set size: 1259
	
Mean region size: 85.13767209011264
Incorrectly Classified Instances: 18.02252816020025
Correctly Classified Instances: 81.97747183979975
Weighted Precision: 0.8203004742956332
Weighted AreaUnderROC: 0.9183381043856015
Root mean squared error: 0.34150548473859954
Relative absolute error: 47.9437959053673
Root relative squared error: 68.30109694771991
Weighted TruePositiveRate: 0.8197747183979975
Weighted MatthewsCorrelation: 0.6396208929265096
Weighted FMeasure: 0.8198526998389797
Iteration time: 5.0
Weighted AreaUnderPRC: 0.9225009420561308
Mean absolute error: 0.23971897952683652
Coverage of cases: 99.93742177722153
Instances selection time: 5.0
Test time: 23.0
Accumulative iteration time: 10.0
Weighted Recall: 0.8197747183979975
Weighted FalsePositiveRate: 0.1795999472201754
Kappa statistic: 0.6393319289798376
Training time: 0.0
		
Iteration: 3
Labeled set size: 359
Unlabelled set size: 1239
	
Mean region size: 85.29411764705883
Incorrectly Classified Instances: 17.521902377972467
Correctly Classified Instances: 82.47809762202753
Weighted Precision: 0.8253046614716978
Weighted AreaUnderROC: 0.9204395645787035
Root mean squared error: 0.33967899832209775
Relative absolute error: 47.71546683258991
Root relative squared error: 67.93579966441955
Weighted TruePositiveRate: 0.8247809762202754
Weighted MatthewsCorrelation: 0.6496439786221299
Weighted FMeasure: 0.8248567915101189
Iteration time: 5.0
Weighted AreaUnderPRC: 0.9248249155931542
Mean absolute error: 0.23857733416294954
Coverage of cases: 100.0
Instances selection time: 4.0
Test time: 23.0
Accumulative iteration time: 15.0
Weighted Recall: 0.8247809762202754
Weighted FalsePositiveRate: 0.17457443987866803
Kappa statistic: 0.6493504865081754
Training time: 1.0
		
Iteration: 4
Labeled set size: 379
Unlabelled set size: 1219
	
Mean region size: 84.38673341677097
Incorrectly Classified Instances: 19.148936170212767
Correctly Classified Instances: 80.85106382978724
Weighted Precision: 0.8096074098939543
Weighted AreaUnderROC: 0.9106479214534131
Root mean squared error: 0.3503841685393104
Relative absolute error: 48.60200733974411
Root relative squared error: 70.07683370786208
Weighted TruePositiveRate: 0.8085106382978723
Weighted MatthewsCorrelation: 0.6177831037399999
Weighted FMeasure: 0.808601860145505
Iteration time: 4.0
Weighted AreaUnderPRC: 0.9155701788780093
Mean absolute error: 0.24301003669872057
Coverage of cases: 99.81226533166458
Instances selection time: 4.0
Test time: 23.0
Accumulative iteration time: 19.0
Weighted Recall: 0.8085106382978723
Weighted FalsePositiveRate: 0.19013832044534806
Kappa statistic: 0.6170842560602405
Training time: 0.0
		
Iteration: 5
Labeled set size: 399
Unlabelled set size: 1199
	
Mean region size: 84.69962453066333
Incorrectly Classified Instances: 18.773466833541928
Correctly Classified Instances: 81.22653316645807
Weighted Precision: 0.8131807185360146
Weighted AreaUnderROC: 0.9107813225859103
Root mean squared error: 0.3498638909041845
Relative absolute error: 48.78162439323511
Root relative squared error: 69.9727781808369
Weighted TruePositiveRate: 0.8122653316645807
Weighted MatthewsCorrelation: 0.6250763318525103
Weighted FMeasure: 0.8123553628183611
Iteration time: 4.0
Weighted AreaUnderPRC: 0.915785964458657
Mean absolute error: 0.24390812196617556
Coverage of cases: 99.87484355444306
Instances selection time: 4.0
Test time: 24.0
Accumulative iteration time: 23.0
Weighted Recall: 0.8122653316645807
Weighted FalsePositiveRate: 0.18658890945156584
Kappa statistic: 0.6245100772910838
Training time: 0.0
		
Iteration: 6
Labeled set size: 419
Unlabelled set size: 1179
	
Mean region size: 84.60575719649562
Incorrectly Classified Instances: 19.712140175219023
Correctly Classified Instances: 80.28785982478098
Weighted Precision: 0.8030994368849698
Weighted AreaUnderROC: 0.9095273519404372
Root mean squared error: 0.3513654277735665
Relative absolute error: 48.690761254230935
Root relative squared error: 70.2730855547133
Weighted TruePositiveRate: 0.8028785982478097
Weighted MatthewsCorrelation: 0.6053614366485339
Weighted FMeasure: 0.8029358714347578
Iteration time: 5.0
Weighted AreaUnderPRC: 0.9146962217939878
Mean absolute error: 0.24345380627115468
Coverage of cases: 99.87484355444306
Instances selection time: 4.0
Test time: 23.0
Accumulative iteration time: 28.0
Weighted Recall: 0.8028785982478097
Weighted FalsePositiveRate: 0.19716526315672037
Kappa statistic: 0.6052811108619248
Training time: 1.0
		
Iteration: 7
Labeled set size: 439
Unlabelled set size: 1159
	
Mean region size: 84.44931163954944
Incorrectly Classified Instances: 18.773466833541928
Correctly Classified Instances: 81.22653316645807
Weighted Precision: 0.8126092318083026
Weighted AreaUnderROC: 0.914320376159805
Root mean squared error: 0.3463971386303136
Relative absolute error: 47.898933582888866
Root relative squared error: 69.27942772606272
Weighted TruePositiveRate: 0.8122653316645807
Weighted MatthewsCorrelation: 0.6243391410049729
Weighted FMeasure: 0.8123342170185975
Iteration time: 6.0
Weighted AreaUnderPRC: 0.9190865495084022
Mean absolute error: 0.23949466791444432
Coverage of cases: 99.87484355444306
Instances selection time: 6.0
Test time: 22.0
Accumulative iteration time: 34.0
Weighted Recall: 0.8122653316645807
Weighted FalsePositiveRate: 0.18746778750095877
Kappa statistic: 0.6241803934111626
Training time: 0.0
		
Iteration: 8
Labeled set size: 459
Unlabelled set size: 1139
	
Mean region size: 84.0738423028786
Incorrectly Classified Instances: 18.773466833541928
Correctly Classified Instances: 81.22653316645807
Weighted Precision: 0.8126669769795105
Weighted AreaUnderROC: 0.9126536467161349
Root mean squared error: 0.3483513033203051
Relative absolute error: 47.96793088568761
Root relative squared error: 69.67026066406102
Weighted TruePositiveRate: 0.8122653316645807
Weighted MatthewsCorrelation: 0.6244176076895659
Weighted FMeasure: 0.8123389212431847
Iteration time: 4.0
Weighted AreaUnderPRC: 0.9174970301090686
Mean absolute error: 0.23983965442843805
Coverage of cases: 99.81226533166458
Instances selection time: 4.0
Test time: 23.0
Accumulative iteration time: 38.0
Weighted Recall: 0.8122653316645807
Weighted FalsePositiveRate: 0.18735792774478463
Kappa statistic: 0.6242216355529915
Training time: 0.0
		
Iteration: 9
Labeled set size: 479
Unlabelled set size: 1119
	
Mean region size: 84.29286608260325
Incorrectly Classified Instances: 17.58448060075094
Correctly Classified Instances: 82.41551939924906
Weighted Precision: 0.8248618383045148
Weighted AreaUnderROC: 0.918086996371489
Root mean squared error: 0.34225987331052155
Relative absolute error: 47.54708910874007
Root relative squared error: 68.4519746621043
Weighted TruePositiveRate: 0.8241551939924906
Weighted MatthewsCorrelation: 0.6486223174668851
Weighted FMeasure: 0.8242371241582295
Iteration time: 4.0
Weighted AreaUnderPRC: 0.9224148538781581
Mean absolute error: 0.23773544554370032
Coverage of cases: 99.93742177722153
Instances selection time: 4.0
Test time: 23.0
Accumulative iteration time: 42.0
Weighted Recall: 0.8241551939924906
Weighted FalsePositiveRate: 0.17492797890592113
Kappa statistic: 0.6481946627263625
Training time: 0.0
		
Iteration: 10
Labeled set size: 499
Unlabelled set size: 1099
	
Mean region size: 84.48060075093868
Incorrectly Classified Instances: 17.897371714643302
Correctly Classified Instances: 82.1026282853567
Weighted Precision: 0.8216953163156079
Weighted AreaUnderROC: 0.9213670948058308
Root mean squared error: 0.33900318969717996
Relative absolute error: 47.32013054138782
Root relative squared error: 67.80063793943599
Weighted TruePositiveRate: 0.8210262828535669
Weighted MatthewsCorrelation: 0.6423099674868207
Weighted FMeasure: 0.8211087618065437
Iteration time: 4.0
Weighted AreaUnderPRC: 0.9257320162063486
Mean absolute error: 0.23660065270693909
Coverage of cases: 100.0
Instances selection time: 3.0
Test time: 23.0
Accumulative iteration time: 46.0
Weighted Recall: 0.8210262828535669
Weighted FalsePositiveRate: 0.17812385087245025
Kappa statistic: 0.6419151430057853
Training time: 1.0
		
Iteration: 11
Labeled set size: 519
Unlabelled set size: 1079
	
Mean region size: 84.54317897371715
Incorrectly Classified Instances: 18.02252816020025
Correctly Classified Instances: 81.97747183979975
Weighted Precision: 0.820115017493094
Weighted AreaUnderROC: 0.918769696284857
Root mean squared error: 0.3416699549148347
Relative absolute error: 47.54177924960254
Root relative squared error: 68.33399098296694
Weighted TruePositiveRate: 0.8197747183979975
Weighted MatthewsCorrelation: 0.6393757485515953
Weighted FMeasure: 0.8198408483378536
Iteration time: 4.0
Weighted AreaUnderPRC: 0.9232929430765611
Mean absolute error: 0.2377088962480127
Coverage of cases: 100.0
Instances selection time: 3.0
Test time: 23.0
Accumulative iteration time: 50.0
Weighted Recall: 0.8197747183979975
Weighted FalsePositiveRate: 0.17992952648869773
Kappa statistic: 0.6392131776747162
Training time: 1.0
		
Iteration: 12
Labeled set size: 539
Unlabelled set size: 1059
	
Mean region size: 84.35544430538172
Incorrectly Classified Instances: 17.897371714643302
Correctly Classified Instances: 82.1026282853567
Weighted Precision: 0.8211370895424347
Weighted AreaUnderROC: 0.9173791856567104
Root mean squared error: 0.3429596666038383
Relative absolute error: 47.59257572790149
Root relative squared error: 68.59193332076767
Weighted TruePositiveRate: 0.8210262828535669
Weighted MatthewsCorrelation: 0.6415541789315405
Weighted FMeasure: 0.8210610982729416
Iteration time: 4.0
Weighted AreaUnderPRC: 0.9217424037855462
Mean absolute error: 0.23796287863950746
Coverage of cases: 100.0
Instances selection time: 3.0
Test time: 23.0
Accumulative iteration time: 54.0
Weighted Recall: 0.8210262828535669
Weighted FalsePositiveRate: 0.17922244843419144
Kappa statistic: 0.6415219246504856
Training time: 1.0
		
Iteration: 13
Labeled set size: 559
Unlabelled set size: 1039
	
Mean region size: 84.98122653316646
Incorrectly Classified Instances: 18.21026282853567
Correctly Classified Instances: 81.78973717146432
Weighted Precision: 0.8179318597057621
Weighted AreaUnderROC: 0.918879556041031
Root mean squared error: 0.34140627804780077
Relative absolute error: 47.65344452753161
Root relative squared error: 68.28125560956015
Weighted TruePositiveRate: 0.8178973717146433
Weighted MatthewsCorrelation: 0.6351591578119483
Weighted FMeasure: 0.817911730669922
Iteration time: 4.0
Weighted AreaUnderPRC: 0.9231529074707602
Mean absolute error: 0.23826722263765807
Coverage of cases: 100.0
Instances selection time: 3.0
Test time: 23.0
Accumulative iteration time: 58.0
Weighted Recall: 0.8178973717146433
Weighted FalsePositiveRate: 0.18263803991306884
Kappa statistic: 0.6351546648966467
Training time: 1.0
		
Iteration: 14
Labeled set size: 579
Unlabelled set size: 1019
	
Mean region size: 84.88735919899875
Incorrectly Classified Instances: 17.39674593241552
Correctly Classified Instances: 82.60325406758449
Weighted Precision: 0.826108251727232
Weighted AreaUnderROC: 0.9210124047358972
Root mean squared error: 0.3389381817032923
Relative absolute error: 47.37615943106269
Root relative squared error: 67.78763634065847
Weighted TruePositiveRate: 0.8260325406758448
Weighted MatthewsCorrelation: 0.6515294442794967
Weighted FMeasure: 0.8260587431840858
Iteration time: 4.0
Weighted AreaUnderPRC: 0.9249675490461635
Mean absolute error: 0.23688079715531343
Coverage of cases: 100.0
Instances selection time: 4.0
Test time: 22.0
Accumulative iteration time: 62.0
Weighted Recall: 0.8260325406758448
Weighted FalsePositiveRate: 0.17430680084885822
Kappa statistic: 0.6515110153031286
Training time: 0.0
		
Iteration: 15
Labeled set size: 599
Unlabelled set size: 999
	
Mean region size: 85.32540675844805
Incorrectly Classified Instances: 17.146433041301627
Correctly Classified Instances: 82.85356695869838
Weighted Precision: 0.8285188912140753
Weighted AreaUnderROC: 0.9249077178048138
Root mean squared error: 0.3350367982807405
Relative absolute error: 47.1025967912372
Root relative squared error: 67.0073596561481
Weighted TruePositiveRate: 0.8285356695869838
Weighted MatthewsCorrelation: 0.6563763571887915
Weighted FMeasure: 0.8285259808921926
Iteration time: 4.0
Weighted AreaUnderPRC: 0.9287551747914954
Mean absolute error: 0.235512983956186
Coverage of cases: 100.0
Instances selection time: 3.0
Test time: 23.0
Accumulative iteration time: 66.0
Weighted Recall: 0.8285356695869838
Weighted FalsePositiveRate: 0.17223348620280102
Kappa statistic: 0.6563742925039162
Training time: 1.0
		
Iteration: 16
Labeled set size: 619
Unlabelled set size: 979
	
Mean region size: 85.07509386733416
Incorrectly Classified Instances: 16.33291614518148
Correctly Classified Instances: 83.66708385481853
Weighted Precision: 0.8366338963449096
Weighted AreaUnderROC: 0.9274862832247293
Root mean squared error: 0.33260545706873584
Relative absolute error: 46.738522825855405
Root relative squared error: 66.52109141374717
Weighted TruePositiveRate: 0.8366708385481852
Weighted MatthewsCorrelation: 0.6726137013063603
Weighted FMeasure: 0.8366362837411464
Iteration time: 4.0
Weighted AreaUnderPRC: 0.931252050214433
Mean absolute error: 0.23369261412927703
Coverage of cases: 100.0
Instances selection time: 3.0
Test time: 23.0
Accumulative iteration time: 70.0
Weighted Recall: 0.8366708385481852
Weighted FalsePositiveRate: 0.16434168616328687
Kappa statistic: 0.6725877685337973
Training time: 1.0
		
Iteration: 17
Labeled set size: 639
Unlabelled set size: 959
	
Mean region size: 85.04380475594493
Incorrectly Classified Instances: 15.76971214017522
Correctly Classified Instances: 84.23028785982478
Weighted Precision: 0.842276812854405
Weighted AreaUnderROC: 0.9282443155423306
Root mean squared error: 0.3314488252766028
Relative absolute error: 46.40929186993536
Root relative squared error: 66.28976505532056
Weighted TruePositiveRate: 0.8423028785982478
Weighted MatthewsCorrelation: 0.6839385580516121
Weighted FMeasure: 0.8422845599156955
Iteration time: 3.0
Weighted AreaUnderPRC: 0.9319482545840504
Mean absolute error: 0.2320464593496768
Coverage of cases: 100.0
Instances selection time: 2.0
Test time: 23.0
Accumulative iteration time: 73.0
Weighted Recall: 0.8423028785982478
Weighted FalsePositiveRate: 0.15852320076982993
Kappa statistic: 0.6839299505836405
Training time: 1.0
		
Iteration: 18
Labeled set size: 659
Unlabelled set size: 939
	
Mean region size: 84.85607008760951
Incorrectly Classified Instances: 15.5819774718398
Correctly Classified Instances: 84.4180225281602
Weighted Precision: 0.844189323622649
Weighted AreaUnderROC: 0.9278409732946628
Root mean squared error: 0.3318336240037297
Relative absolute error: 46.547270383603916
Root relative squared error: 66.36672480074594
Weighted TruePositiveRate: 0.844180225281602
Weighted MatthewsCorrelation: 0.6877790002555729
Weighted FMeasure: 0.8441844434952994
Iteration time: 3.0
Weighted AreaUnderPRC: 0.9314762919068561
Mean absolute error: 0.23273635191801958
Coverage of cases: 100.0
Instances selection time: 2.0
Test time: 23.0
Accumulative iteration time: 76.0
Weighted Recall: 0.844180225281602
Weighted FalsePositiveRate: 0.15636398612632937
Kappa statistic: 0.6877784595683376
Training time: 1.0
		
Iteration: 19
Labeled set size: 679
Unlabelled set size: 919
	
Mean region size: 84.54317897371715
Incorrectly Classified Instances: 16.39549436795995
Correctly Classified Instances: 83.60450563204004
Weighted Precision: 0.8360651736668225
Weighted AreaUnderROC: 0.925127437317162
Root mean squared error: 0.33479892292393787
Relative absolute error: 46.638799751786095
Root relative squared error: 66.95978458478757
Weighted TruePositiveRate: 0.8360450563204005
Weighted MatthewsCorrelation: 0.6714978916023963
Weighted FMeasure: 0.8360538040831685
Iteration time: 4.0
Weighted AreaUnderPRC: 0.9290500150550705
Mean absolute error: 0.23319399875893046
Coverage of cases: 100.0
Instances selection time: 3.0
Test time: 23.0
Accumulative iteration time: 80.0
Weighted Recall: 0.8360450563204005
Weighted FalsePositiveRate: 0.16447550567819175
Kappa statistic: 0.6714957802795153
Training time: 1.0
		
Iteration: 20
Labeled set size: 699
Unlabelled set size: 899
	
Mean region size: 84.48060075093868
Incorrectly Classified Instances: 15.957446808510639
Correctly Classified Instances: 84.04255319148936
Weighted Precision: 0.840456626775449
Weighted AreaUnderROC: 0.9267282509071278
Root mean squared error: 0.33288192789630155
Relative absolute error: 46.30573397528191
Root relative squared error: 66.57638557926032
Weighted TruePositiveRate: 0.8404255319148937
Weighted MatthewsCorrelation: 0.6802949824621288
Weighted FMeasure: 0.8404381145045708
Iteration time: 4.0
Weighted AreaUnderPRC: 0.9304345393484198
Mean absolute error: 0.23152866987640955
Coverage of cases: 100.0
Instances selection time: 3.0
Test time: 22.0
Accumulative iteration time: 84.0
Weighted Recall: 0.8404255319148937
Weighted FalsePositiveRate: 0.16002325687628577
Kappa statistic: 0.6802901702702576
Training time: 1.0
		
Iteration: 21
Labeled set size: 719
Unlabelled set size: 879
	
Mean region size: 84.60575719649562
Incorrectly Classified Instances: 14.956195244055069
Correctly Classified Instances: 85.04380475594493
Weighted Precision: 0.8504928463642609
Weighted AreaUnderROC: 0.9302563185054052
Root mean squared error: 0.32907513955828516
Relative absolute error: 45.98693553310714
Root relative squared error: 65.81502791165703
Weighted TruePositiveRate: 0.8504380475594493
Weighted MatthewsCorrelation: 0.7003970645260698
Weighted FMeasure: 0.8504571140201612
Iteration time: 3.0
Weighted AreaUnderPRC: 0.9337424911480053
Mean absolute error: 0.2299346776655357
Coverage of cases: 100.0
Instances selection time: 3.0
Test time: 23.0
Accumulative iteration time: 87.0
Weighted Recall: 0.8504380475594493
Weighted FalsePositiveRate: 0.14986238243709696
Kappa statistic: 0.7003833052744877
Training time: 0.0
		
Iteration: 22
Labeled set size: 739
Unlabelled set size: 859
	
Mean region size: 84.48060075093868
Incorrectly Classified Instances: 14.956195244055069
Correctly Classified Instances: 85.04380475594493
Weighted Precision: 0.8504183444043256
Weighted AreaUnderROC: 0.9314773312240261
Root mean squared error: 0.327665471523853
Relative absolute error: 45.71532211659752
Root relative squared error: 65.5330943047706
Weighted TruePositiveRate: 0.8504380475594493
Weighted MatthewsCorrelation: 0.7002565769661037
Weighted FMeasure: 0.8504251941320978
Iteration time: 3.0
Weighted AreaUnderPRC: 0.9349368459369454
Mean absolute error: 0.2285766105829876
Coverage of cases: 100.0
Instances selection time: 2.0
Test time: 23.0
Accumulative iteration time: 90.0
Weighted Recall: 0.8504380475594493
Weighted FalsePositiveRate: 0.15030182146179338
Kappa statistic: 0.7002516203060569
Training time: 1.0
		
Iteration: 23
Labeled set size: 759
Unlabelled set size: 839
	
Mean region size: 84.57446808510639
Incorrectly Classified Instances: 15.018773466833542
Correctly Classified Instances: 84.98122653316646
Weighted Precision: 0.849854031269006
Weighted AreaUnderROC: 0.9313188192901176
Root mean squared error: 0.3276776315465818
Relative absolute error: 45.68064530692424
Root relative squared error: 65.53552630931637
Weighted TruePositiveRate: 0.8498122653316645
Weighted MatthewsCorrelation: 0.6991219466207809
Weighted FMeasure: 0.8498278187662275
Iteration time: 3.0
Weighted AreaUnderPRC: 0.9347277805818567
Mean absolute error: 0.2284032265346212
Coverage of cases: 100.0
Instances selection time: 2.0
Test time: 23.0
Accumulative iteration time: 93.0
Weighted Recall: 0.8498122653316645
Weighted FalsePositiveRate: 0.15054550073287243
Kappa statistic: 0.6991131557971241
Training time: 1.0
		
Iteration: 24
Labeled set size: 779
Unlabelled set size: 819
	
Mean region size: 84.44931163954944
Incorrectly Classified Instances: 15.081351689612015
Correctly Classified Instances: 84.91864831038798
Weighted Precision: 0.8492415763939836
Weighted AreaUnderROC: 0.9324299722525644
Root mean squared error: 0.3262723585580866
Relative absolute error: 45.349443693598204
Root relative squared error: 65.25447171161733
Weighted TruePositiveRate: 0.8491864831038799
Weighted MatthewsCorrelation: 0.6978897625947705
Weighted FMeasure: 0.8492057091165643
Iteration time: 3.0
Weighted AreaUnderPRC: 0.9357779429061827
Mean absolute error: 0.22674721846799104
Coverage of cases: 100.0
Instances selection time: 2.0
Test time: 23.0
Accumulative iteration time: 96.0
Weighted Recall: 0.8491864831038799
Weighted FalsePositiveRate: 0.15111875927247376
Kappa statistic: 0.6978760525989605
Training time: 1.0
		
Iteration: 25
Labeled set size: 799
Unlabelled set size: 799
	
Mean region size: 84.60575719649562
Incorrectly Classified Instances: 14.518147684605758
Correctly Classified Instances: 85.48185231539425
Weighted Precision: 0.8547907014374828
Weighted AreaUnderROC: 0.9364900749557423
Root mean squared error: 0.3220014045681535
Relative absolute error: 44.92911797306896
Root relative squared error: 64.40028091363071
Weighted TruePositiveRate: 0.8548185231539425
Weighted MatthewsCorrelation: 0.7090029781589007
Weighted FMeasure: 0.8547925391575967
Iteration time: 3.0
Weighted AreaUnderPRC: 0.9397246244294496
Mean absolute error: 0.2246455898653448
Coverage of cases: 100.0
Instances selection time: 2.0
Test time: 23.0
Accumulative iteration time: 99.0
Weighted Recall: 0.8548185231539425
Weighted FalsePositiveRate: 0.14606929217223566
Kappa statistic: 0.7089828970463102
Training time: 1.0
		
Iteration: 26
Labeled set size: 819
Unlabelled set size: 779
	
Mean region size: 84.69962453066333
Incorrectly Classified Instances: 14.705882352941176
Correctly Classified Instances: 85.29411764705883
Weighted Precision: 0.8529639860795686
Weighted AreaUnderROC: 0.938417328964054
Root mean squared error: 0.3202423028504108
Relative absolute error: 44.80457554921612
Root relative squared error: 64.04846057008216
Weighted TruePositiveRate: 0.8529411764705882
Weighted MatthewsCorrelation: 0.7052020161850088
Weighted FMeasure: 0.8528557495224119
Iteration time: 3.0
Weighted AreaUnderPRC: 0.9415775391491268
Mean absolute error: 0.2240228777460806
Coverage of cases: 100.0
Instances selection time: 2.0
Test time: 24.0
Accumulative iteration time: 102.0
Weighted Recall: 0.8529411764705882
Weighted FalsePositiveRate: 0.14855808608425855
Kappa statistic: 0.7050414636943295
Training time: 1.0
		
Iteration: 27
Labeled set size: 839
Unlabelled set size: 759
	
Mean region size: 84.69962453066333
Incorrectly Classified Instances: 14.768460575719649
Correctly Classified Instances: 85.23153942428036
Weighted Precision: 0.852348605620712
Weighted AreaUnderROC: 0.9365591296596231
Root mean squared error: 0.32222632811704593
Relative absolute error: 44.971541147145224
Root relative squared error: 64.44526562340918
Weighted TruePositiveRate: 0.8523153942428036
Weighted MatthewsCorrelation: 0.7039497330713211
Weighted FMeasure: 0.8522235068587685
Iteration time: 3.0
Weighted AreaUnderPRC: 0.9397117446852927
Mean absolute error: 0.2248577057357261
Coverage of cases: 100.0
Instances selection time: 2.0
Test time: 23.0
Accumulative iteration time: 105.0
Weighted Recall: 0.8523153942428036
Weighted FalsePositiveRate: 0.14924120438003405
Kappa statistic: 0.7037700339017134
Training time: 1.0
		
Iteration: 28
Labeled set size: 859
Unlabelled set size: 739
	
Mean region size: 84.69962453066333
Incorrectly Classified Instances: 14.267834793491865
Correctly Classified Instances: 85.73216520650813
Weighted Precision: 0.8572948178839153
Weighted AreaUnderROC: 0.9384659811417881
Root mean squared error: 0.32008558628811207
Relative absolute error: 44.76155200125812
Root relative squared error: 64.01711725762242
Weighted TruePositiveRate: 0.8573216520650814
Weighted MatthewsCorrelation: 0.714004959563519
Weighted FMeasure: 0.8572867038452003
Iteration time: 3.0
Weighted AreaUnderPRC: 0.9415673664295007
Mean absolute error: 0.22380776000629057
Coverage of cases: 100.0
Instances selection time: 2.0
Test time: 23.0
Accumulative iteration time: 108.0
Weighted Recall: 0.8573216520650814
Weighted FalsePositiveRate: 0.1436663982576561
Kappa statistic: 0.7139689996482943
Training time: 1.0
		
Iteration: 29
Labeled set size: 879
Unlabelled set size: 719
	
Mean region size: 84.63704630788486
Incorrectly Classified Instances: 14.705882352941176
Correctly Classified Instances: 85.29411764705883
Weighted Precision: 0.8530160410129909
Weighted AreaUnderROC: 0.938737491682047
Root mean squared error: 0.3200513986261114
Relative absolute error: 44.542530631345464
Root relative squared error: 64.01027972522229
Weighted TruePositiveRate: 0.8529411764705882
Weighted MatthewsCorrelation: 0.7052217053662733
Weighted FMeasure: 0.8528307663529864
Iteration time: 2.0
Weighted AreaUnderPRC: 0.941822628028397
Mean absolute error: 0.22271265315672734
Coverage of cases: 100.0
Instances selection time: 1.0
Test time: 24.0
Accumulative iteration time: 110.0
Weighted Recall: 0.8529411764705882
Weighted FalsePositiveRate: 0.1487778055966068
Kappa statistic: 0.7049765807042601
Training time: 1.0
		
Iteration: 30
Labeled set size: 899
Unlabelled set size: 699
	
Mean region size: 84.35544430538172
Incorrectly Classified Instances: 14.831038798498122
Correctly Classified Instances: 85.16896120150187
Weighted Precision: 0.8517106811989558
Weighted AreaUnderROC: 0.937561992290984
Root mean squared error: 0.3211621260937308
Relative absolute error: 44.568174573326516
Root relative squared error: 64.23242521874616
Weighted TruePositiveRate: 0.8516896120150188
Weighted MatthewsCorrelation: 0.7026911591258493
Weighted FMeasure: 0.8516034580289856
Iteration time: 3.0
Weighted AreaUnderPRC: 0.9407032660257607
Mean absolute error: 0.22284087286663257
Coverage of cases: 100.0
Instances selection time: 2.0
Test time: 23.0
Accumulative iteration time: 113.0
Weighted Recall: 0.8516896120150188
Weighted FalsePositiveRate: 0.1498144629196354
Kappa statistic: 0.7025311782789622
Training time: 1.0
		
Iteration: 31
Labeled set size: 919
Unlabelled set size: 679
	
Mean region size: 84.0738423028786
Incorrectly Classified Instances: 15.143929912390488
Correctly Classified Instances: 84.85607008760951
Weighted Precision: 0.8486427208003001
Weighted AreaUnderROC: 0.9348861225156001
Root mean squared error: 0.3242123274469009
Relative absolute error: 44.80264634258938
Root relative squared error: 64.84246548938019
Weighted TruePositiveRate: 0.8485607008760951
Weighted MatthewsCorrelation: 0.6964376490792477
Weighted FMeasure: 0.8484402701173052
Iteration time: 3.0
Weighted AreaUnderPRC: 0.93812458459042
Mean absolute error: 0.22401323171294688
Coverage of cases: 100.0
Instances selection time: 2.0
Test time: 23.0
Accumulative iteration time: 116.0
Weighted Recall: 0.8485607008760951
Weighted FalsePositiveRate: 0.1532300543985128
Kappa statistic: 0.6961719405536718
Training time: 1.0
		
Iteration: 32
Labeled set size: 939
Unlabelled set size: 659
	
Mean region size: 83.82352941176471
Incorrectly Classified Instances: 15.269086357947435
Correctly Classified Instances: 84.73091364205257
Weighted Precision: 0.8475492161712889
Weighted AreaUnderROC: 0.9331848657199896
Root mean squared error: 0.32608689610044905
Relative absolute error: 44.784683077668845
Root relative squared error: 65.21737922008981
Weighted TruePositiveRate: 0.8473091364205256
Weighted MatthewsCorrelation: 0.6940190100859398
Weighted FMeasure: 0.8471290484073213
Iteration time: 3.0
Weighted AreaUnderPRC: 0.9364942507326193
Mean absolute error: 0.22392341538834423
Coverage of cases: 100.0
Instances selection time: 2.0
Test time: 23.0
Accumulative iteration time: 119.0
Weighted Recall: 0.8473091364205256
Weighted FalsePositiveRate: 0.15492587025858612
Kappa statistic: 0.6935261253273722
Training time: 1.0
		
Iteration: 33
Labeled set size: 959
Unlabelled set size: 639
	
Mean region size: 83.69837296620776
Incorrectly Classified Instances: 15.206508135168962
Correctly Classified Instances: 84.79349186483104
Weighted Precision: 0.8481529008635086
Weighted AreaUnderROC: 0.9338330382814167
Root mean squared error: 0.32545210629411675
Relative absolute error: 44.632450172093655
Root relative squared error: 65.09042125882335
Weighted TruePositiveRate: 0.8479349186483104
Weighted MatthewsCorrelation: 0.6952602937738482
Weighted FMeasure: 0.8477632941755974
Iteration time: 3.0
Weighted AreaUnderPRC: 0.9369945339200341
Mean absolute error: 0.2231622508604683
Coverage of cases: 100.0
Instances selection time: 2.0
Test time: 23.0
Accumulative iteration time: 122.0
Weighted Recall: 0.8479349186483104
Weighted FalsePositiveRate: 0.15424275196281062
Kappa statistic: 0.6947989581253802
Training time: 1.0
		
Iteration: 34
Labeled set size: 979
Unlabelled set size: 619
	
Mean region size: 83.60450563204004
Incorrectly Classified Instances: 14.893617021276595
Correctly Classified Instances: 85.1063829787234
Weighted Precision: 0.8512675972449674
Weighted AreaUnderROC: 0.9377895589287734
Root mean squared error: 0.32095589737003255
Relative absolute error: 44.15090005630605
Root relative squared error: 64.1911794740065
Weighted TruePositiveRate: 0.851063829787234
Weighted MatthewsCorrelation: 0.7015291481137551
Weighted FMeasure: 0.8509031847986085
Iteration time: 3.0
Weighted AreaUnderPRC: 0.9408465440409263
Mean absolute error: 0.22075450028153026
Coverage of cases: 100.0
Instances selection time: 2.0
Test time: 23.0
Accumulative iteration time: 125.0
Weighted Recall: 0.851063829787234
Weighted FalsePositiveRate: 0.15104687999628147
Kappa statistic: 0.7010952599513357
Training time: 1.0
		
Iteration: 35
Labeled set size: 999
Unlabelled set size: 599
	
Mean region size: 83.51063829787235
Incorrectly Classified Instances: 15.081351689612015
Correctly Classified Instances: 84.91864831038798
Weighted Precision: 0.8492861855912319
Weighted AreaUnderROC: 0.9365638379348876
Root mean squared error: 0.3221404353504557
Relative absolute error: 44.209789885845424
Root relative squared error: 64.42808707009114
Weighted TruePositiveRate: 0.8491864831038799
Weighted MatthewsCorrelation: 0.6977017642408521
Weighted FMeasure: 0.8490597263979104
Iteration time: 2.0
Weighted AreaUnderPRC: 0.9396278599190994
Mean absolute error: 0.22104894942922712
Coverage of cases: 99.93742177722153
Instances selection time: 1.0
Test time: 23.0
Accumulative iteration time: 127.0
Weighted Recall: 0.8491864831038799
Weighted FalsePositiveRate: 0.15265679585891143
Kappa statistic: 0.6974107871037494
Training time: 1.0
		
Iteration: 36
Labeled set size: 1019
Unlabelled set size: 579
	
Mean region size: 83.35419274092615
Incorrectly Classified Instances: 14.956195244055069
Correctly Classified Instances: 85.04380475594493
Weighted Precision: 0.8504806125874139
Weighted AreaUnderROC: 0.9358450412444913
Root mean squared error: 0.32263259984322756
Relative absolute error: 44.21213026319853
Root relative squared error: 64.52651996864552
Weighted TruePositiveRate: 0.8504380475594493
Weighted MatthewsCorrelation: 0.7001870777911314
Weighted FMeasure: 0.8503386992660534
Iteration time: 3.0
Weighted AreaUnderPRC: 0.9389083113891199
Mean absolute error: 0.22106065131599267
Coverage of cases: 99.93742177722153
Instances selection time: 2.0
Test time: 22.0
Accumulative iteration time: 130.0
Weighted Recall: 0.8504380475594493
Weighted FalsePositiveRate: 0.15118069951118637
Kappa statistic: 0.6999879028013656
Training time: 1.0
		
Iteration: 37
Labeled set size: 1039
Unlabelled set size: 559
	
Mean region size: 83.4793491864831
Incorrectly Classified Instances: 14.768460575719649
Correctly Classified Instances: 85.23153942428036
Weighted Precision: 0.8523744882810849
Weighted AreaUnderROC: 0.9382478310545281
Root mean squared error: 0.31981918501944445
Relative absolute error: 43.943009222354554
Root relative squared error: 63.96383700388889
Weighted TruePositiveRate: 0.8523153942428036
Weighted MatthewsCorrelation: 0.7039593636751716
Weighted FMeasure: 0.8522109621576985
Iteration time: 2.0
Weighted AreaUnderPRC: 0.9411773324132748
Mean absolute error: 0.21971504611177275
Coverage of cases: 99.93742177722153
Instances selection time: 1.0
Test time: 23.0
Accumulative iteration time: 132.0
Weighted Recall: 0.8523153942428036
Weighted FalsePositiveRate: 0.14935106413620816
Kappa statistic: 0.7037374543580591
Training time: 1.0
		
Iteration: 38
Labeled set size: 1059
Unlabelled set size: 539
	
Mean region size: 83.94868585732165
Incorrectly Classified Instances: 14.330413016270338
Correctly Classified Instances: 85.66958698372966
Weighted Precision: 0.8567776850528818
Weighted AreaUnderROC: 0.9394280387208558
Root mean squared error: 0.3185509514925622
Relative absolute error: 44.00653439857341
Root relative squared error: 63.71019029851244
Weighted TruePositiveRate: 0.8566958698372966
Weighted MatthewsCorrelation: 0.7127568373000648
Weighted FMeasure: 0.8565882787014207
Iteration time: 2.0
Weighted AreaUnderPRC: 0.9423803059448952
Mean absolute error: 0.22003267199286702
Coverage of cases: 99.93742177722153
Instances selection time: 1.0
Test time: 23.0
Accumulative iteration time: 134.0
Weighted Recall: 0.8566958698372966
Weighted FalsePositiveRate: 0.14500867509047627
Kappa statistic: 0.7125090935373428
Training time: 1.0
		
Iteration: 39
Labeled set size: 1079
Unlabelled set size: 519
	
Mean region size: 84.19899874843554
Incorrectly Classified Instances: 14.205256570713392
Correctly Classified Instances: 85.79474342928661
Weighted Precision: 0.8580655406037531
Weighted AreaUnderROC: 0.9413835423807551
Root mean squared error: 0.3164872734426387
Relative absolute error: 43.93309988357682
Root relative squared error: 63.29745468852774
Weighted TruePositiveRate: 0.8579474342928661
Weighted MatthewsCorrelation: 0.715286894734841
Weighted FMeasure: 0.8578280410469944
Iteration time: 3.0
Weighted AreaUnderPRC: 0.9442530691850379
Mean absolute error: 0.2196654994178841
Coverage of cases: 99.93742177722153
Instances selection time: 1.0
Test time: 23.0
Accumulative iteration time: 137.0
Weighted Recall: 0.8579474342928661
Weighted FalsePositiveRate: 0.14386215801127356
Kappa statistic: 0.7149885837035316
Training time: 2.0
		
Iteration: 40
Labeled set size: 1099
Unlabelled set size: 499
	
Mean region size: 83.88610763454318
Incorrectly Classified Instances: 14.518147684605758
Correctly Classified Instances: 85.48185231539425
Weighted Precision: 0.8548554916354351
Weighted AreaUnderROC: 0.9395598704282647
Root mean squared error: 0.318272401814601
Relative absolute error: 43.991566380921995
Root relative squared error: 63.6544803629202
Weighted TruePositiveRate: 0.8548185231539425
Weighted MatthewsCorrelation: 0.7089718619668928
Weighted FMeasure: 0.8547281931831963
Iteration time: 2.0
Weighted AreaUnderPRC: 0.9424809494303599
Mean absolute error: 0.21995783190460996
Coverage of cases: 99.93742177722153
Instances selection time: 1.0
Test time: 23.0
Accumulative iteration time: 139.0
Weighted Recall: 0.8548185231539425
Weighted FalsePositiveRate: 0.14672845070928034
Kappa statistic: 0.7087908807847352
Training time: 1.0
		
Iteration: 41
Labeled set size: 1119
Unlabelled set size: 479
	
Mean region size: 83.91739674593242
Incorrectly Classified Instances: 14.205256570713392
Correctly Classified Instances: 85.79474342928661
Weighted Precision: 0.858002123337587
Weighted AreaUnderROC: 0.9418010094542169
Root mean squared error: 0.31570916172713454
Relative absolute error: 43.69551302417719
Root relative squared error: 63.141832345426906
Weighted TruePositiveRate: 0.8579474342928661
Weighted MatthewsCorrelation: 0.7152547328284143
Weighted FMeasure: 0.8578530741983017
Iteration time: 3.0
Weighted AreaUnderPRC: 0.9446243677447839
Mean absolute error: 0.21847756512088592
Coverage of cases: 99.93742177722153
Instances selection time: 1.0
Test time: 23.0
Accumulative iteration time: 142.0
Weighted Recall: 0.8579474342928661
Weighted FalsePositiveRate: 0.14364243849892533
Kappa statistic: 0.7150512716983682
Training time: 2.0
		
Iteration: 42
Labeled set size: 1139
Unlabelled set size: 459
	
Mean region size: 83.85481852315394
Incorrectly Classified Instances: 14.080100125156445
Correctly Classified Instances: 85.91989987484355
Weighted Precision: 0.8592098483131654
Weighted AreaUnderROC: 0.9412642660740519
Root mean squared error: 0.316227427498659
Relative absolute error: 43.79315291165186
Root relative squared error: 63.2454854997318
Weighted TruePositiveRate: 0.8591989987484355
Weighted MatthewsCorrelation: 0.7177511323019912
Weighted FMeasure: 0.8591284981369415
Iteration time: 2.0
Weighted AreaUnderPRC: 0.9441288697909183
Mean absolute error: 0.21896576455825928
Coverage of cases: 99.93742177722153
Instances selection time: 1.0
Test time: 23.0
Accumulative iteration time: 144.0
Weighted Recall: 0.8591989987484355
Weighted FalsePositiveRate: 0.14216634215120025
Kappa statistic: 0.7176239415315455
Training time: 1.0
		
Iteration: 43
Labeled set size: 1159
Unlabelled set size: 439
	
Mean region size: 83.88610763454318
Incorrectly Classified Instances: 14.330413016270338
Correctly Classified Instances: 85.66958698372966
Weighted Precision: 0.8566769916775689
Weighted AreaUnderROC: 0.9392491242608008
Root mean squared error: 0.31858671562970603
Relative absolute error: 44.06420347115762
Root relative squared error: 63.717343125941206
Weighted TruePositiveRate: 0.8566958698372966
Weighted MatthewsCorrelation: 0.7127349971149807
Weighted FMeasure: 0.8566457395568204
Iteration time: 2.0
Weighted AreaUnderPRC: 0.9422513453763339
Mean absolute error: 0.2203210173557881
Coverage of cases: 99.93742177722153
Instances selection time: 1.0
Test time: 23.0
Accumulative iteration time: 146.0
Weighted Recall: 0.8566958698372966
Weighted FalsePositiveRate: 0.14445937630960567
Kappa statistic: 0.7126671074182895
Training time: 1.0
		
Iteration: 44
Labeled set size: 1179
Unlabelled set size: 419
	
Mean region size: 83.729662077597
Incorrectly Classified Instances: 14.455569461827285
Correctly Classified Instances: 85.54443053817272
Weighted Precision: 0.8554179974856625
Weighted AreaUnderROC: 0.9373234396775774
Root mean squared error: 0.32065994826446637
Relative absolute error: 44.246947894477096
Root relative squared error: 64.13198965289327
Weighted TruePositiveRate: 0.8554443053817271
Weighted MatthewsCorrelation: 0.7102347843306687
Weighted FMeasure: 0.855403958128951
Iteration time: 2.0
Weighted AreaUnderPRC: 0.9403798691068744
Mean absolute error: 0.22123473947238548
Coverage of cases: 99.93742177722153
Instances selection time: 1.0
Test time: 23.0
Accumulative iteration time: 148.0
Weighted Recall: 0.8554443053817271
Weighted FalsePositiveRate: 0.14560589338880842
Kappa statistic: 0.7101895076005595
Training time: 1.0
		
Iteration: 45
Labeled set size: 1199
Unlabelled set size: 399
	
Mean region size: 83.79224030037547
Incorrectly Classified Instances: 14.267834793491865
Correctly Classified Instances: 85.73216520650813
Weighted Precision: 0.8573083375495966
Weighted AreaUnderROC: 0.9375431591899257
Root mean squared error: 0.3204882794477452
Relative absolute error: 44.18392425015297
Root relative squared error: 64.09765588954905
Weighted TruePositiveRate: 0.8573216520650814
Weighted MatthewsCorrelation: 0.7139870575153984
Weighted FMeasure: 0.8572665275620157
Iteration time: 2.0
Weighted AreaUnderPRC: 0.9406192700660168
Mean absolute error: 0.22091962125076486
Coverage of cases: 99.93742177722153
Instances selection time: 1.0
Test time: 23.0
Accumulative iteration time: 150.0
Weighted Recall: 0.8573216520650814
Weighted FalsePositiveRate: 0.14388611777000432
Kappa statistic: 0.7139061116031887
Training time: 1.0
		
Iteration: 46
Labeled set size: 1219
Unlabelled set size: 379
	
Mean region size: 83.63579474342929
Incorrectly Classified Instances: 14.330413016270338
Correctly Classified Instances: 85.66958698372966
Weighted Precision: 0.8566769916775689
Weighted AreaUnderROC: 0.9379229600612704
Root mean squared error: 0.31995870243304486
Relative absolute error: 44.088199258221074
Root relative squared error: 63.991740486608975
Weighted TruePositiveRate: 0.8566958698372966
Weighted MatthewsCorrelation: 0.7127349971149807
Weighted FMeasure: 0.8566457395568204
Iteration time: 2.0
Weighted AreaUnderPRC: 0.9409613338887498
Mean absolute error: 0.22044099629110536
Coverage of cases: 99.93742177722153
Instances selection time: 1.0
Test time: 23.0
Accumulative iteration time: 152.0
Weighted Recall: 0.8566958698372966
Weighted FalsePositiveRate: 0.14445937630960567
Kappa statistic: 0.7126671074182895
Training time: 1.0
		
Time end:Tue Oct 31 14.00.33 EET 2017