Tue Oct 31 14.01.19 EET 2017
Dataset: kr-vs-kp
Test set size: 1598
Initial Labelled set size: 319
Initial Unlabelled set size: 1279
Batch mode: QBestBatchMode
Batch size: 20
Classifiers: SMO-1cores
Scenario: PoolBasedSamplingScenario
Query strategy: RandomSelectionQueryStrategy-1cores
Time begining: Tue Oct 31 14.01.19 EET 2017
		
Iteration: 1
Labeled set size: 319
Unlabelled set size: 1279
	
Mean region size: 50.0
Incorrectly Classified Instances: 6.132665832290363
Correctly Classified Instances: 93.86733416770964
Weighted Precision: 0.9396432163401248
Weighted AreaUnderROC: 0.9374184789006521
Root mean squared error: 0.24764219818702876
Relative absolute error: 12.265331664580724
Root relative squared error: 49.528439637405754
Weighted TruePositiveRate: 0.9386733416770964
Weighted MatthewsCorrelation: 0.8779291177317935
Weighted FMeasure: 0.9385652200942584
Iteration time: 129.0
Weighted AreaUnderPRC: 0.9115789895501493
Mean absolute error: 0.06132665832290363
Coverage of cases: 93.86733416770964
Instances selection time: 5.0
Test time: 7.0
Accumulative iteration time: 129.0
Weighted Recall: 0.9386733416770964
Weighted FalsePositiveRate: 0.06383638387579203
Kappa statistic: 0.8768187646008511
Training time: 124.0
		
Iteration: 2
Labeled set size: 339
Unlabelled set size: 1259
	
Mean region size: 50.0
Incorrectly Classified Instances: 6.132665832290363
Correctly Classified Instances: 93.86733416770964
Weighted Precision: 0.9396432163401248
Weighted AreaUnderROC: 0.9374184789006521
Root mean squared error: 0.24764219818702876
Relative absolute error: 12.265331664580724
Root relative squared error: 49.528439637405754
Weighted TruePositiveRate: 0.9386733416770964
Weighted MatthewsCorrelation: 0.8779291177317935
Weighted FMeasure: 0.9385652200942584
Iteration time: 96.0
Weighted AreaUnderPRC: 0.9115789895501493
Mean absolute error: 0.06132665832290363
Coverage of cases: 93.86733416770964
Instances selection time: 4.0
Test time: 9.0
Accumulative iteration time: 225.0
Weighted Recall: 0.9386733416770964
Weighted FalsePositiveRate: 0.06383638387579203
Kappa statistic: 0.8768187646008511
Training time: 92.0
		
Iteration: 3
Labeled set size: 359
Unlabelled set size: 1239
	
Mean region size: 50.0
Incorrectly Classified Instances: 6.132665832290363
Correctly Classified Instances: 93.86733416770964
Weighted Precision: 0.9396432163401248
Weighted AreaUnderROC: 0.9374184789006521
Root mean squared error: 0.24764219818702876
Relative absolute error: 12.265331664580724
Root relative squared error: 49.528439637405754
Weighted TruePositiveRate: 0.9386733416770964
Weighted MatthewsCorrelation: 0.8779291177317935
Weighted FMeasure: 0.9385652200942584
Iteration time: 106.0
Weighted AreaUnderPRC: 0.9115789895501493
Mean absolute error: 0.06132665832290363
Coverage of cases: 93.86733416770964
Instances selection time: 4.0
Test time: 10.0
Accumulative iteration time: 331.0
Weighted Recall: 0.9386733416770964
Weighted FalsePositiveRate: 0.06383638387579203
Kappa statistic: 0.8768187646008511
Training time: 102.0
		
Iteration: 4
Labeled set size: 379
Unlabelled set size: 1219
	
Mean region size: 50.0
Incorrectly Classified Instances: 6.132665832290363
Correctly Classified Instances: 93.86733416770964
Weighted Precision: 0.9396432163401248
Weighted AreaUnderROC: 0.9374184789006521
Root mean squared error: 0.24764219818702876
Relative absolute error: 12.265331664580724
Root relative squared error: 49.528439637405754
Weighted TruePositiveRate: 0.9386733416770964
Weighted MatthewsCorrelation: 0.8779291177317935
Weighted FMeasure: 0.9385652200942584
Iteration time: 100.0
Weighted AreaUnderPRC: 0.9115789895501493
Mean absolute error: 0.06132665832290363
Coverage of cases: 93.86733416770964
Instances selection time: 5.0
Test time: 9.0
Accumulative iteration time: 431.0
Weighted Recall: 0.9386733416770964
Weighted FalsePositiveRate: 0.06383638387579203
Kappa statistic: 0.8768187646008511
Training time: 95.0
		
Iteration: 5
Labeled set size: 399
Unlabelled set size: 1199
	
Mean region size: 50.0
Incorrectly Classified Instances: 6.132665832290363
Correctly Classified Instances: 93.86733416770964
Weighted Precision: 0.9396432163401248
Weighted AreaUnderROC: 0.9374184789006521
Root mean squared error: 0.24764219818702876
Relative absolute error: 12.265331664580724
Root relative squared error: 49.528439637405754
Weighted TruePositiveRate: 0.9386733416770964
Weighted MatthewsCorrelation: 0.8779291177317935
Weighted FMeasure: 0.9385652200942584
Iteration time: 94.0
Weighted AreaUnderPRC: 0.9115789895501493
Mean absolute error: 0.06132665832290363
Coverage of cases: 93.86733416770964
Instances selection time: 4.0
Test time: 9.0
Accumulative iteration time: 525.0
Weighted Recall: 0.9386733416770964
Weighted FalsePositiveRate: 0.06383638387579203
Kappa statistic: 0.8768187646008511
Training time: 90.0
		
Iteration: 6
Labeled set size: 419
Unlabelled set size: 1179
	
Mean region size: 50.0
Incorrectly Classified Instances: 6.132665832290363
Correctly Classified Instances: 93.86733416770964
Weighted Precision: 0.9396432163401248
Weighted AreaUnderROC: 0.9374184789006521
Root mean squared error: 0.24764219818702876
Relative absolute error: 12.265331664580724
Root relative squared error: 49.528439637405754
Weighted TruePositiveRate: 0.9386733416770964
Weighted MatthewsCorrelation: 0.8779291177317935
Weighted FMeasure: 0.9385652200942584
Iteration time: 99.0
Weighted AreaUnderPRC: 0.9115789895501493
Mean absolute error: 0.06132665832290363
Coverage of cases: 93.86733416770964
Instances selection time: 4.0
Test time: 9.0
Accumulative iteration time: 624.0
Weighted Recall: 0.9386733416770964
Weighted FalsePositiveRate: 0.06383638387579203
Kappa statistic: 0.8768187646008511
Training time: 95.0
		
Iteration: 7
Labeled set size: 439
Unlabelled set size: 1159
	
Mean region size: 50.0
Incorrectly Classified Instances: 6.132665832290363
Correctly Classified Instances: 93.86733416770964
Weighted Precision: 0.9396432163401248
Weighted AreaUnderROC: 0.9374184789006521
Root mean squared error: 0.24764219818702876
Relative absolute error: 12.265331664580724
Root relative squared error: 49.528439637405754
Weighted TruePositiveRate: 0.9386733416770964
Weighted MatthewsCorrelation: 0.8779291177317935
Weighted FMeasure: 0.9385652200942584
Iteration time: 162.0
Weighted AreaUnderPRC: 0.9115789895501493
Mean absolute error: 0.06132665832290363
Coverage of cases: 93.86733416770964
Instances selection time: 4.0
Test time: 9.0
Accumulative iteration time: 786.0
Weighted Recall: 0.9386733416770964
Weighted FalsePositiveRate: 0.06383638387579203
Kappa statistic: 0.8768187646008511
Training time: 158.0
		
Iteration: 8
Labeled set size: 459
Unlabelled set size: 1139
	
Mean region size: 50.0
Incorrectly Classified Instances: 6.132665832290363
Correctly Classified Instances: 93.86733416770964
Weighted Precision: 0.9396432163401248
Weighted AreaUnderROC: 0.9374184789006521
Root mean squared error: 0.24764219818702876
Relative absolute error: 12.265331664580724
Root relative squared error: 49.528439637405754
Weighted TruePositiveRate: 0.9386733416770964
Weighted MatthewsCorrelation: 0.8779291177317935
Weighted FMeasure: 0.9385652200942584
Iteration time: 121.0
Weighted AreaUnderPRC: 0.9115789895501493
Mean absolute error: 0.06132665832290363
Coverage of cases: 93.86733416770964
Instances selection time: 4.0
Test time: 9.0
Accumulative iteration time: 907.0
Weighted Recall: 0.9386733416770964
Weighted FalsePositiveRate: 0.06383638387579203
Kappa statistic: 0.8768187646008511
Training time: 117.0
		
Iteration: 9
Labeled set size: 479
Unlabelled set size: 1119
	
Mean region size: 50.0
Incorrectly Classified Instances: 6.132665832290363
Correctly Classified Instances: 93.86733416770964
Weighted Precision: 0.9396432163401248
Weighted AreaUnderROC: 0.9374184789006521
Root mean squared error: 0.24764219818702876
Relative absolute error: 12.265331664580724
Root relative squared error: 49.528439637405754
Weighted TruePositiveRate: 0.9386733416770964
Weighted MatthewsCorrelation: 0.8779291177317935
Weighted FMeasure: 0.9385652200942584
Iteration time: 132.0
Weighted AreaUnderPRC: 0.9115789895501493
Mean absolute error: 0.06132665832290363
Coverage of cases: 93.86733416770964
Instances selection time: 5.0
Test time: 8.0
Accumulative iteration time: 1039.0
Weighted Recall: 0.9386733416770964
Weighted FalsePositiveRate: 0.06383638387579203
Kappa statistic: 0.8768187646008511
Training time: 127.0
		
Iteration: 10
Labeled set size: 499
Unlabelled set size: 1099
	
Mean region size: 50.0
Incorrectly Classified Instances: 6.132665832290363
Correctly Classified Instances: 93.86733416770964
Weighted Precision: 0.9396432163401248
Weighted AreaUnderROC: 0.9374184789006521
Root mean squared error: 0.24764219818702876
Relative absolute error: 12.265331664580724
Root relative squared error: 49.528439637405754
Weighted TruePositiveRate: 0.9386733416770964
Weighted MatthewsCorrelation: 0.8779291177317935
Weighted FMeasure: 0.9385652200942584
Iteration time: 122.0
Weighted AreaUnderPRC: 0.9115789895501493
Mean absolute error: 0.06132665832290363
Coverage of cases: 93.86733416770964
Instances selection time: 6.0
Test time: 7.0
Accumulative iteration time: 1161.0
Weighted Recall: 0.9386733416770964
Weighted FalsePositiveRate: 0.06383638387579203
Kappa statistic: 0.8768187646008511
Training time: 116.0
		
Iteration: 11
Labeled set size: 519
Unlabelled set size: 1079
	
Mean region size: 50.0
Incorrectly Classified Instances: 6.132665832290363
Correctly Classified Instances: 93.86733416770964
Weighted Precision: 0.9396432163401248
Weighted AreaUnderROC: 0.9374184789006521
Root mean squared error: 0.24764219818702876
Relative absolute error: 12.265331664580724
Root relative squared error: 49.528439637405754
Weighted TruePositiveRate: 0.9386733416770964
Weighted MatthewsCorrelation: 0.8779291177317935
Weighted FMeasure: 0.9385652200942584
Iteration time: 148.0
Weighted AreaUnderPRC: 0.9115789895501493
Mean absolute error: 0.06132665832290363
Coverage of cases: 93.86733416770964
Instances selection time: 6.0
Test time: 7.0
Accumulative iteration time: 1309.0
Weighted Recall: 0.9386733416770964
Weighted FalsePositiveRate: 0.06383638387579203
Kappa statistic: 0.8768187646008511
Training time: 142.0
		
Iteration: 12
Labeled set size: 539
Unlabelled set size: 1059
	
Mean region size: 50.0
Incorrectly Classified Instances: 6.132665832290363
Correctly Classified Instances: 93.86733416770964
Weighted Precision: 0.9396432163401248
Weighted AreaUnderROC: 0.9374184789006521
Root mean squared error: 0.24764219818702876
Relative absolute error: 12.265331664580724
Root relative squared error: 49.528439637405754
Weighted TruePositiveRate: 0.9386733416770964
Weighted MatthewsCorrelation: 0.8779291177317935
Weighted FMeasure: 0.9385652200942584
Iteration time: 106.0
Weighted AreaUnderPRC: 0.9115789895501493
Mean absolute error: 0.06132665832290363
Coverage of cases: 93.86733416770964
Instances selection time: 5.0
Test time: 7.0
Accumulative iteration time: 1415.0
Weighted Recall: 0.9386733416770964
Weighted FalsePositiveRate: 0.06383638387579203
Kappa statistic: 0.8768187646008511
Training time: 101.0
		
Iteration: 13
Labeled set size: 559
Unlabelled set size: 1039
	
Mean region size: 50.0
Incorrectly Classified Instances: 4.8185231539424285
Correctly Classified Instances: 95.18147684605758
Weighted Precision: 0.9518993691013137
Weighted AreaUnderROC: 0.9513494635892042
Root mean squared error: 0.2195113471769154
Relative absolute error: 9.637046307884855
Root relative squared error: 43.902269435383076
Weighted TruePositiveRate: 0.9518147684605757
Weighted MatthewsCorrelation: 0.9034827710689175
Weighted FMeasure: 0.9517938585014333
Iteration time: 121.0
Weighted AreaUnderPRC: 0.9298876338853839
Mean absolute error: 0.04818523153942428
Coverage of cases: 95.18147684605758
Instances selection time: 4.0
Test time: 7.0
Accumulative iteration time: 1536.0
Weighted Recall: 0.9518147684605757
Weighted FalsePositiveRate: 0.04911584128216713
Kappa statistic: 0.9033625127034715
Training time: 117.0
		
Iteration: 14
Labeled set size: 579
Unlabelled set size: 1019
	
Mean region size: 50.0
Incorrectly Classified Instances: 5.193992490613266
Correctly Classified Instances: 94.80600750938673
Weighted Precision: 0.9483656529964415
Weighted AreaUnderROC: 0.9473046044215632
Root mean squared error: 0.22790332359606488
Relative absolute error: 10.387984981226534
Root relative squared error: 45.580664719212976
Weighted TruePositiveRate: 0.9480600750938674
Weighted MatthewsCorrelation: 0.8961472311727686
Weighted FMeasure: 0.9480154748924509
Iteration time: 104.0
Weighted AreaUnderPRC: 0.9245756954352334
Mean absolute error: 0.05193992490613267
Coverage of cases: 94.80600750938673
Instances selection time: 3.0
Test time: 7.0
Accumulative iteration time: 1640.0
Weighted Recall: 0.9480600750938674
Weighted FalsePositiveRate: 0.05345086625074101
Kappa statistic: 0.8957733817189684
Training time: 101.0
		
Iteration: 15
Labeled set size: 599
Unlabelled set size: 999
	
Mean region size: 50.0
Incorrectly Classified Instances: 5.569461827284105
Correctly Classified Instances: 94.4305381727159
Weighted Precision: 0.9448808910689088
Weighted AreaUnderROC: 0.94331625085347
Root mean squared error: 0.2359970725937952
Relative absolute error: 11.13892365456821
Root relative squared error: 47.19941451875904
Weighted TruePositiveRate: 0.9443053817271589
Weighted MatthewsCorrelation: 0.8888626705518485
Weighted FMeasure: 0.9442354512254689
Iteration time: 127.0
Weighted AreaUnderPRC: 0.9193414130272372
Mean absolute error: 0.05569461827284105
Coverage of cases: 94.4305381727159
Instances selection time: 3.0
Test time: 7.0
Accumulative iteration time: 1767.0
Weighted Recall: 0.9443053817271589
Weighted FalsePositiveRate: 0.05767288002021896
Kappa statistic: 0.8881883177224763
Training time: 124.0
		
Iteration: 16
Labeled set size: 619
Unlabelled set size: 979
	
Mean region size: 50.0
Incorrectly Classified Instances: 5.694618272841051
Correctly Classified Instances: 94.30538172715895
Weighted Precision: 0.9437085005963913
Weighted AreaUnderROC: 0.942005634863955
Root mean squared error: 0.23863399323736448
Relative absolute error: 11.389236545682103
Root relative squared error: 47.7267986474729
Weighted TruePositiveRate: 0.9430538172715894
Weighted MatthewsCorrelation: 0.8864250400816698
Weighted FMeasure: 0.9429762116108985
Iteration time: 155.0
Weighted AreaUnderPRC: 0.9176077577825306
Mean absolute error: 0.05694618272841051
Coverage of cases: 94.30538172715895
Instances selection time: 3.0
Test time: 7.0
Accumulative iteration time: 1922.0
Weighted Recall: 0.9430538172715894
Weighted FalsePositiveRate: 0.05904254754367965
Kappa statistic: 0.8856627515855056
Training time: 152.0
		
Iteration: 17
Labeled set size: 639
Unlabelled set size: 959
	
Mean region size: 50.0
Incorrectly Classified Instances: 5.819774718397998
Correctly Classified Instances: 94.180225281602
Weighted Precision: 0.9425409773932713
Weighted AreaUnderROC: 0.9406950188744398
Root mean squared error: 0.2412420924796914
Relative absolute error: 11.639549436795996
Root relative squared error: 48.248418495938274
Weighted TruePositiveRate: 0.94180225281602
Weighted MatthewsCorrelation: 0.8839919866586351
Weighted FMeasure: 0.9417165182470405
Iteration time: 123.0
Weighted AreaUnderPRC: 0.915879086451954
Mean absolute error: 0.05819774718397998
Coverage of cases: 94.180225281602
Instances selection time: 3.0
Test time: 8.0
Accumulative iteration time: 2045.0
Weighted Recall: 0.94180225281602
Weighted FalsePositiveRate: 0.06041221506714032
Kappa statistic: 0.8831366134828457
Training time: 120.0
		
Iteration: 18
Labeled set size: 659
Unlabelled set size: 939
	
Mean region size: 50.0
Incorrectly Classified Instances: 6.132665832290363
Correctly Classified Instances: 93.86733416770964
Weighted Precision: 0.9396432163401248
Weighted AreaUnderROC: 0.9374184789006521
Root mean squared error: 0.24764219818702876
Relative absolute error: 12.265331664580724
Root relative squared error: 49.528439637405754
Weighted TruePositiveRate: 0.9386733416770964
Weighted MatthewsCorrelation: 0.8779291177317935
Weighted FMeasure: 0.9385652200942584
Iteration time: 149.0
Weighted AreaUnderPRC: 0.9115789895501493
Mean absolute error: 0.06132665832290363
Coverage of cases: 93.86733416770964
Instances selection time: 3.0
Test time: 8.0
Accumulative iteration time: 2194.0
Weighted Recall: 0.9386733416770964
Weighted FalsePositiveRate: 0.06383638387579203
Kappa statistic: 0.8768187646008511
Training time: 146.0
		
Iteration: 19
Labeled set size: 679
Unlabelled set size: 919
	
Mean region size: 50.0
Incorrectly Classified Instances: 6.132665832290363
Correctly Classified Instances: 93.86733416770964
Weighted Precision: 0.9396432163401248
Weighted AreaUnderROC: 0.9374184789006521
Root mean squared error: 0.24764219818702876
Relative absolute error: 12.265331664580724
Root relative squared error: 49.528439637405754
Weighted TruePositiveRate: 0.9386733416770964
Weighted MatthewsCorrelation: 0.8779291177317935
Weighted FMeasure: 0.9385652200942584
Iteration time: 184.0
Weighted AreaUnderPRC: 0.9115789895501493
Mean absolute error: 0.06132665832290363
Coverage of cases: 93.86733416770964
Instances selection time: 3.0
Test time: 7.0
Accumulative iteration time: 2378.0
Weighted Recall: 0.9386733416770964
Weighted FalsePositiveRate: 0.06383638387579203
Kappa statistic: 0.8768187646008511
Training time: 181.0
		
Iteration: 20
Labeled set size: 699
Unlabelled set size: 899
	
Mean region size: 50.0
Incorrectly Classified Instances: 5.819774718397998
Correctly Classified Instances: 94.180225281602
Weighted Precision: 0.9425409773932713
Weighted AreaUnderROC: 0.9406950188744398
Root mean squared error: 0.2412420924796914
Relative absolute error: 11.639549436795996
Root relative squared error: 48.248418495938274
Weighted TruePositiveRate: 0.94180225281602
Weighted MatthewsCorrelation: 0.8839919866586351
Weighted FMeasure: 0.9417165182470405
Iteration time: 173.0
Weighted AreaUnderPRC: 0.915879086451954
Mean absolute error: 0.05819774718397998
Coverage of cases: 94.180225281602
Instances selection time: 2.0
Test time: 8.0
Accumulative iteration time: 2551.0
Weighted Recall: 0.94180225281602
Weighted FalsePositiveRate: 0.06041221506714032
Kappa statistic: 0.8831366134828457
Training time: 171.0
		
Iteration: 21
Labeled set size: 719
Unlabelled set size: 879
	
Mean region size: 50.0
Incorrectly Classified Instances: 5.694618272841051
Correctly Classified Instances: 94.30538172715895
Weighted Precision: 0.9437085005963913
Weighted AreaUnderROC: 0.942005634863955
Root mean squared error: 0.23863399323736448
Relative absolute error: 11.389236545682103
Root relative squared error: 47.7267986474729
Weighted TruePositiveRate: 0.9430538172715894
Weighted MatthewsCorrelation: 0.8864250400816698
Weighted FMeasure: 0.9429762116108985
Iteration time: 171.0
Weighted AreaUnderPRC: 0.9176077577825306
Mean absolute error: 0.05694618272841051
Coverage of cases: 94.30538172715895
Instances selection time: 3.0
Test time: 7.0
Accumulative iteration time: 2722.0
Weighted Recall: 0.9430538172715894
Weighted FalsePositiveRate: 0.05904254754367965
Kappa statistic: 0.8856627515855056
Training time: 168.0
		
Iteration: 22
Labeled set size: 739
Unlabelled set size: 859
	
Mean region size: 50.0
Incorrectly Classified Instances: 5.632040050062578
Correctly Classified Instances: 94.36795994993741
Weighted Precision: 0.9442940850495134
Weighted AreaUnderROC: 0.9426609428587124
Root mean squared error: 0.23731919539014493
Relative absolute error: 11.264080100125156
Root relative squared error: 47.46383907802898
Weighted TruePositiveRate: 0.9436795994993742
Weighted MatthewsCorrelation: 0.8876432806971258
Weighted FMeasure: 0.9436058873798951
Iteration time: 174.0
Weighted AreaUnderPRC: 0.9184739602701786
Mean absolute error: 0.056320400500625784
Coverage of cases: 94.36795994993741
Instances selection time: 2.0
Test time: 8.0
Accumulative iteration time: 2896.0
Weighted Recall: 0.9436795994993742
Weighted FalsePositiveRate: 0.058357713781949296
Kappa statistic: 0.8869256061375604
Training time: 172.0
		
Iteration: 23
Labeled set size: 759
Unlabelled set size: 839
	
Mean region size: 50.0
Incorrectly Classified Instances: 6.132665832290363
Correctly Classified Instances: 93.86733416770964
Weighted Precision: 0.9396432163401248
Weighted AreaUnderROC: 0.9374184789006521
Root mean squared error: 0.24764219818702876
Relative absolute error: 12.265331664580724
Root relative squared error: 49.528439637405754
Weighted TruePositiveRate: 0.9386733416770964
Weighted MatthewsCorrelation: 0.8779291177317935
Weighted FMeasure: 0.9385652200942584
Iteration time: 163.0
Weighted AreaUnderPRC: 0.9115789895501493
Mean absolute error: 0.06132665832290363
Coverage of cases: 93.86733416770964
Instances selection time: 3.0
Test time: 7.0
Accumulative iteration time: 3059.0
Weighted Recall: 0.9386733416770964
Weighted FalsePositiveRate: 0.06383638387579203
Kappa statistic: 0.8768187646008511
Training time: 160.0
		
Iteration: 24
Labeled set size: 779
Unlabelled set size: 819
	
Mean region size: 50.0
Incorrectly Classified Instances: 6.132665832290363
Correctly Classified Instances: 93.86733416770964
Weighted Precision: 0.9396432163401248
Weighted AreaUnderROC: 0.9374184789006521
Root mean squared error: 0.24764219818702876
Relative absolute error: 12.265331664580724
Root relative squared error: 49.528439637405754
Weighted TruePositiveRate: 0.9386733416770964
Weighted MatthewsCorrelation: 0.8779291177317935
Weighted FMeasure: 0.9385652200942584
Iteration time: 224.0
Weighted AreaUnderPRC: 0.9115789895501493
Mean absolute error: 0.06132665832290363
Coverage of cases: 93.86733416770964
Instances selection time: 2.0
Test time: 7.0
Accumulative iteration time: 3283.0
Weighted Recall: 0.9386733416770964
Weighted FalsePositiveRate: 0.06383638387579203
Kappa statistic: 0.8768187646008511
Training time: 222.0
		
Iteration: 25
Labeled set size: 799
Unlabelled set size: 799
	
Mean region size: 50.0
Incorrectly Classified Instances: 6.132665832290363
Correctly Classified Instances: 93.86733416770964
Weighted Precision: 0.9396432163401248
Weighted AreaUnderROC: 0.9374184789006521
Root mean squared error: 0.24764219818702876
Relative absolute error: 12.265331664580724
Root relative squared error: 49.528439637405754
Weighted TruePositiveRate: 0.9386733416770964
Weighted MatthewsCorrelation: 0.8779291177317935
Weighted FMeasure: 0.9385652200942584
Iteration time: 177.0
Weighted AreaUnderPRC: 0.9115789895501493
Mean absolute error: 0.06132665832290363
Coverage of cases: 93.86733416770964
Instances selection time: 2.0
Test time: 7.0
Accumulative iteration time: 3460.0
Weighted Recall: 0.9386733416770964
Weighted FalsePositiveRate: 0.06383638387579203
Kappa statistic: 0.8768187646008511
Training time: 175.0
		
Iteration: 26
Labeled set size: 819
Unlabelled set size: 779
	
Mean region size: 50.0
Incorrectly Classified Instances: 6.132665832290363
Correctly Classified Instances: 93.86733416770964
Weighted Precision: 0.9396432163401248
Weighted AreaUnderROC: 0.9374184789006521
Root mean squared error: 0.24764219818702876
Relative absolute error: 12.265331664580724
Root relative squared error: 49.528439637405754
Weighted TruePositiveRate: 0.9386733416770964
Weighted MatthewsCorrelation: 0.8779291177317935
Weighted FMeasure: 0.9385652200942584
Iteration time: 219.0
Weighted AreaUnderPRC: 0.9115789895501493
Mean absolute error: 0.06132665832290363
Coverage of cases: 93.86733416770964
Instances selection time: 2.0
Test time: 7.0
Accumulative iteration time: 3679.0
Weighted Recall: 0.9386733416770964
Weighted FalsePositiveRate: 0.06383638387579203
Kappa statistic: 0.8768187646008511
Training time: 217.0
		
Iteration: 27
Labeled set size: 839
Unlabelled set size: 759
	
Mean region size: 50.0
Incorrectly Classified Instances: 6.195244055068836
Correctly Classified Instances: 93.80475594493116
Weighted Precision: 0.9390672348581542
Weighted AreaUnderROC: 0.9367631709058948
Root mean squared error: 0.24890247196580503
Relative absolute error: 12.390488110137673
Root relative squared error: 49.78049439316101
Weighted TruePositiveRate: 0.9380475594493116
Weighted MatthewsCorrelation: 0.8767198928141047
Weighted FMeasure: 0.9379345943582799
Iteration time: 188.0
Weighted AreaUnderPRC: 0.9107226362217297
Mean absolute error: 0.06195244055068836
Coverage of cases: 93.80475594493116
Instances selection time: 2.0
Test time: 7.0
Accumulative iteration time: 3867.0
Weighted Recall: 0.9380475594493116
Weighted FalsePositiveRate: 0.06452121763752237
Kappa statistic: 0.875554765437071
Training time: 186.0
		
Iteration: 28
Labeled set size: 859
Unlabelled set size: 739
	
Mean region size: 50.0
Incorrectly Classified Instances: 6.195244055068836
Correctly Classified Instances: 93.80475594493116
Weighted Precision: 0.9390672348581542
Weighted AreaUnderROC: 0.9367631709058948
Root mean squared error: 0.24890247196580503
Relative absolute error: 12.390488110137673
Root relative squared error: 49.78049439316101
Weighted TruePositiveRate: 0.9380475594493116
Weighted MatthewsCorrelation: 0.8767198928141047
Weighted FMeasure: 0.9379345943582799
Iteration time: 220.0
Weighted AreaUnderPRC: 0.9107226362217297
Mean absolute error: 0.06195244055068836
Coverage of cases: 93.80475594493116
Instances selection time: 2.0
Test time: 7.0
Accumulative iteration time: 4087.0
Weighted Recall: 0.9380475594493116
Weighted FalsePositiveRate: 0.06452121763752237
Kappa statistic: 0.875554765437071
Training time: 218.0
		
Iteration: 29
Labeled set size: 879
Unlabelled set size: 719
	
Mean region size: 50.0
Incorrectly Classified Instances: 5.819774718397998
Correctly Classified Instances: 94.180225281602
Weighted Precision: 0.9424524386149944
Weighted AreaUnderROC: 0.9407515244739877
Root mean squared error: 0.2412420924796914
Relative absolute error: 11.639549436795996
Root relative squared error: 48.248418495938274
Weighted TruePositiveRate: 0.94180225281602
Weighted MatthewsCorrelation: 0.8839099706685036
Weighted FMeasure: 0.9417229415364128
Iteration time: 280.0
Weighted AreaUnderPRC: 0.9158711064273353
Mean absolute error: 0.05819774718397998
Coverage of cases: 94.180225281602
Instances selection time: 2.0
Test time: 7.0
Accumulative iteration time: 4367.0
Weighted Recall: 0.94180225281602
Weighted FalsePositiveRate: 0.06029920386804442
Kappa statistic: 0.8831498450269454
Training time: 278.0
		
Iteration: 30
Labeled set size: 899
Unlabelled set size: 699
	
Mean region size: 50.0
Incorrectly Classified Instances: 5.819774718397998
Correctly Classified Instances: 94.180225281602
Weighted Precision: 0.9424524386149944
Weighted AreaUnderROC: 0.9407515244739877
Root mean squared error: 0.2412420924796914
Relative absolute error: 11.639549436795996
Root relative squared error: 48.248418495938274
Weighted TruePositiveRate: 0.94180225281602
Weighted MatthewsCorrelation: 0.8839099706685036
Weighted FMeasure: 0.9417229415364128
Iteration time: 230.0
Weighted AreaUnderPRC: 0.9158711064273353
Mean absolute error: 0.05819774718397998
Coverage of cases: 94.180225281602
Instances selection time: 2.0
Test time: 7.0
Accumulative iteration time: 4597.0
Weighted Recall: 0.94180225281602
Weighted FalsePositiveRate: 0.06029920386804442
Kappa statistic: 0.8831498450269454
Training time: 228.0
		
Iteration: 31
Labeled set size: 919
Unlabelled set size: 679
	
Mean region size: 50.0
Incorrectly Classified Instances: 5.819774718397998
Correctly Classified Instances: 94.180225281602
Weighted Precision: 0.9424524386149944
Weighted AreaUnderROC: 0.9407515244739877
Root mean squared error: 0.2412420924796914
Relative absolute error: 11.639549436795996
Root relative squared error: 48.248418495938274
Weighted TruePositiveRate: 0.94180225281602
Weighted MatthewsCorrelation: 0.8839099706685036
Weighted FMeasure: 0.9417229415364128
Iteration time: 282.0
Weighted AreaUnderPRC: 0.9158711064273353
Mean absolute error: 0.05819774718397998
Coverage of cases: 94.180225281602
Instances selection time: 2.0
Test time: 7.0
Accumulative iteration time: 4879.0
Weighted Recall: 0.94180225281602
Weighted FalsePositiveRate: 0.06029920386804442
Kappa statistic: 0.8831498450269454
Training time: 280.0
		
Iteration: 32
Labeled set size: 939
Unlabelled set size: 659
	
Mean region size: 50.0
Incorrectly Classified Instances: 5.819774718397998
Correctly Classified Instances: 94.180225281602
Weighted Precision: 0.9424524386149944
Weighted AreaUnderROC: 0.9407515244739877
Root mean squared error: 0.2412420924796914
Relative absolute error: 11.639549436795996
Root relative squared error: 48.248418495938274
Weighted TruePositiveRate: 0.94180225281602
Weighted MatthewsCorrelation: 0.8839099706685036
Weighted FMeasure: 0.9417229415364128
Iteration time: 229.0
Weighted AreaUnderPRC: 0.9158711064273353
Mean absolute error: 0.05819774718397998
Coverage of cases: 94.180225281602
Instances selection time: 2.0
Test time: 7.0
Accumulative iteration time: 5108.0
Weighted Recall: 0.94180225281602
Weighted FalsePositiveRate: 0.06029920386804442
Kappa statistic: 0.8831498450269454
Training time: 227.0
		
Iteration: 33
Labeled set size: 959
Unlabelled set size: 639
	
Mean region size: 50.0
Incorrectly Classified Instances: 5.819774718397998
Correctly Classified Instances: 94.180225281602
Weighted Precision: 0.9424524386149944
Weighted AreaUnderROC: 0.9407515244739877
Root mean squared error: 0.2412420924796914
Relative absolute error: 11.639549436795996
Root relative squared error: 48.248418495938274
Weighted TruePositiveRate: 0.94180225281602
Weighted MatthewsCorrelation: 0.8839099706685036
Weighted FMeasure: 0.9417229415364128
Iteration time: 252.0
Weighted AreaUnderPRC: 0.9158711064273353
Mean absolute error: 0.05819774718397998
Coverage of cases: 94.180225281602
Instances selection time: 2.0
Test time: 7.0
Accumulative iteration time: 5360.0
Weighted Recall: 0.94180225281602
Weighted FalsePositiveRate: 0.06029920386804442
Kappa statistic: 0.8831498450269454
Training time: 250.0
		
Iteration: 34
Labeled set size: 979
Unlabelled set size: 619
	
Mean region size: 50.0
Incorrectly Classified Instances: 5.256570713391739
Correctly Classified Instances: 94.74342928660826
Weighted Precision: 0.9477097510798516
Weighted AreaUnderROC: 0.9467058020263536
Root mean squared error: 0.22927212463340893
Relative absolute error: 10.513141426783479
Root relative squared error: 45.85442492668179
Weighted TruePositiveRate: 0.9474342928660826
Weighted MatthewsCorrelation: 0.894865120527131
Weighted FMeasure: 0.9473915754622356
Iteration time: 254.0
Weighted AreaUnderPRC: 0.9237039984443823
Mean absolute error: 0.052565707133917394
Coverage of cases: 94.74342928660826
Instances selection time: 2.0
Test time: 7.0
Accumulative iteration time: 5614.0
Weighted Recall: 0.9474342928660826
Weighted FalsePositiveRate: 0.054022688813375436
Kappa statistic: 0.8945236070927358
Training time: 252.0
		
Iteration: 35
Labeled set size: 999
Unlabelled set size: 599
	
Mean region size: 50.0
Incorrectly Classified Instances: 5.444305381727159
Correctly Classified Instances: 94.55569461827284
Weighted Precision: 0.9458571742051092
Weighted AreaUnderROC: 0.9447963836416289
Root mean squared error: 0.23333035339893435
Relative absolute error: 10.888610763454318
Root relative squared error: 46.66607067978687
Weighted TruePositiveRate: 0.9455569461827285
Weighted MatthewsCorrelation: 0.8911221652894994
Weighted FMeasure: 0.9455101965740148
Iteration time: 292.0
Weighted AreaUnderPRC: 0.921083402456082
Mean absolute error: 0.05444305381727159
Coverage of cases: 94.55569461827284
Instances selection time: 1.0
Test time: 8.0
Accumulative iteration time: 5906.0
Weighted Recall: 0.9455569461827285
Weighted FalsePositiveRate: 0.05596417889947055
Kappa statistic: 0.890750412163256
Training time: 291.0
		
Iteration: 36
Labeled set size: 1019
Unlabelled set size: 579
	
Mean region size: 50.0
Incorrectly Classified Instances: 5.319148936170213
Correctly Classified Instances: 94.68085106382979
Weighted Precision: 0.9472404265514229
Weighted AreaUnderROC: 0.9459374828325002
Root mean squared error: 0.23063280200722128
Relative absolute error: 10.638297872340425
Root relative squared error: 46.12656040144426
Weighted TruePositiveRate: 0.9468085106382979
Weighted MatthewsCorrelation: 0.8937518224445401
Weighted FMeasure: 0.9467526176107861
Iteration time: 305.0
Weighted AreaUnderPRC: 0.9228238133680569
Mean absolute error: 0.05319148936170213
Coverage of cases: 94.68085106382979
Instances selection time: 1.0
Test time: 7.0
Accumulative iteration time: 6211.0
Weighted Recall: 0.9468085106382979
Weighted FalsePositiveRate: 0.0549335449732976
Kappa statistic: 0.8932377348761972
Training time: 304.0
		
Iteration: 37
Labeled set size: 1039
Unlabelled set size: 559
	
Mean region size: 50.0
Incorrectly Classified Instances: 5.193992490613266
Correctly Classified Instances: 94.80600750938673
Weighted Precision: 0.948427648697129
Weighted AreaUnderROC: 0.9472480988220153
Root mean squared error: 0.22790332359606488
Relative absolute error: 10.387984981226534
Root relative squared error: 45.580664719212976
Weighted TruePositiveRate: 0.9480600750938674
Weighted MatthewsCorrelation: 0.8962034243098097
Weighted FMeasure: 0.9480105685435056
Iteration time: 314.0
Weighted AreaUnderPRC: 0.9245726283260801
Mean absolute error: 0.05193992490613267
Coverage of cases: 94.80600750938673
Instances selection time: 2.0
Test time: 7.0
Accumulative iteration time: 6525.0
Weighted Recall: 0.9480600750938674
Weighted FalsePositiveRate: 0.053563877449836914
Kappa statistic: 0.8957615862811515
Training time: 312.0
		
Iteration: 38
Labeled set size: 1059
Unlabelled set size: 539
	
Mean region size: 50.0
Incorrectly Classified Instances: 5.319148936170213
Correctly Classified Instances: 94.68085106382979
Weighted Precision: 0.9472404265514229
Weighted AreaUnderROC: 0.9459374828325002
Root mean squared error: 0.23063280200722128
Relative absolute error: 10.638297872340425
Root relative squared error: 46.12656040144426
Weighted TruePositiveRate: 0.9468085106382979
Weighted MatthewsCorrelation: 0.8937518224445401
Weighted FMeasure: 0.9467526176107861
Iteration time: 315.0
Weighted AreaUnderPRC: 0.9228238133680569
Mean absolute error: 0.05319148936170213
Coverage of cases: 94.68085106382979
Instances selection time: 1.0
Test time: 8.0
Accumulative iteration time: 6840.0
Weighted Recall: 0.9468085106382979
Weighted FalsePositiveRate: 0.0549335449732976
Kappa statistic: 0.8932377348761972
Training time: 314.0
		
Iteration: 39
Labeled set size: 1079
Unlabelled set size: 519
	
Mean region size: 50.0
Incorrectly Classified Instances: 5.381727158948686
Correctly Classified Instances: 94.61827284105131
Weighted Precision: 0.9465786685044648
Weighted AreaUnderROC: 0.9453386804372905
Root mean squared error: 0.23198549866206478
Relative absolute error: 10.763454317897372
Root relative squared error: 46.397099732412954
Weighted TruePositiveRate: 0.9461827284105131
Weighted MatthewsCorrelation: 0.8924637821849176
Weighted FMeasure: 0.9461288265205722
Iteration time: 317.0
Weighted AreaUnderPRC: 0.9219510082292657
Mean absolute error: 0.05381727158948686
Coverage of cases: 94.61827284105131
Instances selection time: 2.0
Test time: 7.0
Accumulative iteration time: 7157.0
Weighted Recall: 0.9461827284105131
Weighted FalsePositiveRate: 0.055505367535932035
Kappa statistic: 0.8919878208463473
Training time: 315.0
		
Iteration: 40
Labeled set size: 1099
Unlabelled set size: 499
	
Mean region size: 50.0
Incorrectly Classified Instances: 6.007509386733417
Correctly Classified Instances: 93.99249061326658
Weighted Precision: 0.9407987361062726
Weighted AreaUnderROC: 0.9387290948901672
Root mean squared error: 0.24510221106170008
Relative absolute error: 12.015018773466833
Root relative squared error: 49.020442212340015
Weighted TruePositiveRate: 0.9399249061326659
Weighted MatthewsCorrelation: 0.8803509017244394
Weighted FMeasure: 0.9398261009006593
Iteration time: 262.0
Weighted AreaUnderPRC: 0.9132953497237505
Mean absolute error: 0.060075093867334166
Coverage of cases: 93.99249061326658
Instances selection time: 2.0
Test time: 7.0
Accumulative iteration time: 7419.0
Weighted Recall: 0.9399249061326659
Weighted FalsePositiveRate: 0.06246671635233134
Kappa statistic: 0.8793463334680852
Training time: 260.0
		
Iteration: 41
Labeled set size: 1119
Unlabelled set size: 479
	
Mean region size: 50.0
Incorrectly Classified Instances: 6.195244055068836
Correctly Classified Instances: 93.80475594493116
Weighted Precision: 0.9390672348581542
Weighted AreaUnderROC: 0.9367631709058948
Root mean squared error: 0.24890247196580503
Relative absolute error: 12.390488110137673
Root relative squared error: 49.78049439316101
Weighted TruePositiveRate: 0.9380475594493116
Weighted MatthewsCorrelation: 0.8767198928141047
Weighted FMeasure: 0.9379345943582799
Iteration time: 353.0
Weighted AreaUnderPRC: 0.9107226362217297
Mean absolute error: 0.06195244055068836
Coverage of cases: 93.80475594493116
Instances selection time: 1.0
Test time: 7.0
Accumulative iteration time: 7772.0
Weighted Recall: 0.9380475594493116
Weighted FalsePositiveRate: 0.06452121763752237
Kappa statistic: 0.875554765437071
Training time: 352.0
		
Iteration: 42
Labeled set size: 1139
Unlabelled set size: 459
	
Mean region size: 50.0
Incorrectly Classified Instances: 6.195244055068836
Correctly Classified Instances: 93.80475594493116
Weighted Precision: 0.9390672348581542
Weighted AreaUnderROC: 0.9367631709058948
Root mean squared error: 0.24890247196580503
Relative absolute error: 12.390488110137673
Root relative squared error: 49.78049439316101
Weighted TruePositiveRate: 0.9380475594493116
Weighted MatthewsCorrelation: 0.8767198928141047
Weighted FMeasure: 0.9379345943582799
Iteration time: 333.0
Weighted AreaUnderPRC: 0.9107226362217297
Mean absolute error: 0.06195244055068836
Coverage of cases: 93.80475594493116
Instances selection time: 1.0
Test time: 7.0
Accumulative iteration time: 8105.0
Weighted Recall: 0.9380475594493116
Weighted FalsePositiveRate: 0.06452121763752237
Kappa statistic: 0.875554765437071
Training time: 332.0
		
Iteration: 43
Labeled set size: 1159
Unlabelled set size: 439
	
Mean region size: 50.0
Incorrectly Classified Instances: 5.381727158948686
Correctly Classified Instances: 94.61827284105131
Weighted Precision: 0.9465786685044648
Weighted AreaUnderROC: 0.9453386804372905
Root mean squared error: 0.23198549866206478
Relative absolute error: 10.763454317897372
Root relative squared error: 46.397099732412954
Weighted TruePositiveRate: 0.9461827284105131
Weighted MatthewsCorrelation: 0.8924637821849176
Weighted FMeasure: 0.9461288265205722
Iteration time: 283.0
Weighted AreaUnderPRC: 0.9219510082292657
Mean absolute error: 0.05381727158948686
Coverage of cases: 94.61827284105131
Instances selection time: 1.0
Test time: 7.0
Accumulative iteration time: 8388.0
Weighted Recall: 0.9461827284105131
Weighted FalsePositiveRate: 0.055505367535932035
Kappa statistic: 0.8919878208463473
Training time: 282.0
		
Iteration: 44
Labeled set size: 1179
Unlabelled set size: 419
	
Mean region size: 50.0
Incorrectly Classified Instances: 5.381727158948686
Correctly Classified Instances: 94.61827284105131
Weighted Precision: 0.9465786685044648
Weighted AreaUnderROC: 0.9453386804372905
Root mean squared error: 0.23198549866206478
Relative absolute error: 10.763454317897372
Root relative squared error: 46.397099732412954
Weighted TruePositiveRate: 0.9461827284105131
Weighted MatthewsCorrelation: 0.8924637821849176
Weighted FMeasure: 0.9461288265205722
Iteration time: 263.0
Weighted AreaUnderPRC: 0.9219510082292657
Mean absolute error: 0.05381727158948686
Coverage of cases: 94.61827284105131
Instances selection time: 1.0
Test time: 8.0
Accumulative iteration time: 8651.0
Weighted Recall: 0.9461827284105131
Weighted FalsePositiveRate: 0.055505367535932035
Kappa statistic: 0.8919878208463473
Training time: 262.0
		
Iteration: 45
Labeled set size: 1199
Unlabelled set size: 399
	
Mean region size: 50.0
Incorrectly Classified Instances: 5.381727158948686
Correctly Classified Instances: 94.61827284105131
Weighted Precision: 0.9465786685044648
Weighted AreaUnderROC: 0.9453386804372905
Root mean squared error: 0.23198549866206478
Relative absolute error: 10.763454317897372
Root relative squared error: 46.397099732412954
Weighted TruePositiveRate: 0.9461827284105131
Weighted MatthewsCorrelation: 0.8924637821849176
Weighted FMeasure: 0.9461288265205722
Iteration time: 301.0
Weighted AreaUnderPRC: 0.9219510082292657
Mean absolute error: 0.05381727158948686
Coverage of cases: 94.61827284105131
Instances selection time: 1.0
Test time: 7.0
Accumulative iteration time: 8952.0
Weighted Recall: 0.9461827284105131
Weighted FalsePositiveRate: 0.055505367535932035
Kappa statistic: 0.8919878208463473
Training time: 300.0
		
Iteration: 46
Labeled set size: 1219
Unlabelled set size: 379
	
Mean region size: 50.0
Incorrectly Classified Instances: 5.381727158948686
Correctly Classified Instances: 94.61827284105131
Weighted Precision: 0.9465786685044648
Weighted AreaUnderROC: 0.9453386804372905
Root mean squared error: 0.23198549866206478
Relative absolute error: 10.763454317897372
Root relative squared error: 46.397099732412954
Weighted TruePositiveRate: 0.9461827284105131
Weighted MatthewsCorrelation: 0.8924637821849176
Weighted FMeasure: 0.9461288265205722
Iteration time: 376.0
Weighted AreaUnderPRC: 0.9219510082292657
Mean absolute error: 0.05381727158948686
Coverage of cases: 94.61827284105131
Instances selection time: 1.0
Test time: 7.0
Accumulative iteration time: 9328.0
Weighted Recall: 0.9461827284105131
Weighted FalsePositiveRate: 0.055505367535932035
Kappa statistic: 0.8919878208463473
Training time: 375.0
		
Time end:Tue Oct 31 14.01.31 EET 2017