Tue Oct 31 14.09.16 EET 2017
Dataset: kr-vs-kp
Test set size: 1598
Initial Labelled set size: 319
Initial Unlabelled set size: 1279
Batch mode: QBestBatchMode
Batch size: 20
Classifiers: NaiveBayes-1cores
Scenario: PoolBasedSamplingScenario
Query strategy: VoteEntropyQueryStrategy-1cores
Time begining: Tue Oct 31 14.09.16 EET 2017
		
Iteration: 1
Labeled set size: 319
Unlabelled set size: 1279
	
Mean region size: 84.48060075093868
Incorrectly Classified Instances: 16.45807259073842
Correctly Classified Instances: 83.54192740926158
Weighted Precision: 0.8353981915897546
Weighted AreaUnderROC: 0.9173181814614545
Root mean squared error: 0.3413679681312754
Relative absolute error: 47.69872022053626
Root relative squared error: 68.27359362625508
Weighted TruePositiveRate: 0.8354192740926157
Weighted MatthewsCorrelation: 0.670007933194815
Weighted FMeasure: 0.8353349163177582
Iteration time: 16.0
Weighted AreaUnderPRC: 0.9201381924022309
Mean absolute error: 0.23849360110268128
Coverage of cases: 99.93742177722153
Instances selection time: 16.0
Test time: 23.0
Accumulative iteration time: 16.0
Weighted Recall: 0.8354192740926157
Weighted FalsePositiveRate: 0.16609789064718683
Kappa statistic: 0.6698891707838163
Training time: 0.0
		
Iteration: 2
Labeled set size: 339
Unlabelled set size: 1259
	
Mean region size: 84.29286608260325
Incorrectly Classified Instances: 16.082603254067585
Correctly Classified Instances: 83.91739674593242
Weighted Precision: 0.8395382402022136
Weighted AreaUnderROC: 0.9187214038502287
Root mean squared error: 0.33875768374331494
Relative absolute error: 47.3547736167328
Root relative squared error: 67.75153674866299
Weighted TruePositiveRate: 0.8391739674593242
Weighted MatthewsCorrelation: 0.6782314458354293
Weighted FMeasure: 0.8392374581807535
Iteration time: 16.0
Weighted AreaUnderPRC: 0.9214865332989076
Mean absolute error: 0.236773868083664
Coverage of cases: 99.93742177722153
Instances selection time: 15.0
Test time: 23.0
Accumulative iteration time: 32.0
Weighted Recall: 0.8391739674593242
Weighted FalsePositiveRate: 0.16040673128946206
Kappa statistic: 0.6780392888557187
Training time: 1.0
		
Iteration: 3
Labeled set size: 359
Unlabelled set size: 1239
	
Mean region size: 84.01126408010012
Incorrectly Classified Instances: 16.14518147684606
Correctly Classified Instances: 83.85481852315394
Weighted Precision: 0.8395632212355557
Weighted AreaUnderROC: 0.9162461446700308
Root mean squared error: 0.3416876413514705
Relative absolute error: 47.45866640100871
Root relative squared error: 68.3375282702941
Weighted TruePositiveRate: 0.8385481852315394
Weighted MatthewsCorrelation: 0.6777846958473341
Weighted FMeasure: 0.8386301665409818
Iteration time: 16.0
Weighted AreaUnderPRC: 0.9191474372384829
Mean absolute error: 0.23729333200504357
Coverage of cases: 99.93742177722153
Instances selection time: 15.0
Test time: 23.0
Accumulative iteration time: 48.0
Weighted Recall: 0.8385481852315394
Weighted FalsePositiveRate: 0.16007446425932922
Kappa statistic: 0.6770963704630788
Training time: 1.0
		
Iteration: 4
Labeled set size: 379
Unlabelled set size: 1219
	
Mean region size: 83.63579474342929
Incorrectly Classified Instances: 15.832290362953692
Correctly Classified Instances: 84.16770963704631
Weighted Precision: 0.8440688862903447
Weighted AreaUnderROC: 0.9179177686566578
Root mean squared error: 0.3405116071516842
Relative absolute error: 47.20203943403488
Root relative squared error: 68.10232143033684
Weighted TruePositiveRate: 0.8416770963704631
Weighted MatthewsCorrelation: 0.6856313158426293
Weighted FMeasure: 0.8417246533543236
Iteration time: 16.0
Weighted AreaUnderPRC: 0.9206335927132991
Mean absolute error: 0.2360101971701744
Coverage of cases: 99.87484355444306
Instances selection time: 15.0
Test time: 23.0
Accumulative iteration time: 64.0
Weighted Recall: 0.8416770963704631
Weighted FalsePositiveRate: 0.1556331946588143
Kappa statistic: 0.6837643473622129
Training time: 1.0
		
Iteration: 5
Labeled set size: 399
Unlabelled set size: 1199
	
Mean region size: 83.91739674593242
Incorrectly Classified Instances: 15.269086357947435
Correctly Classified Instances: 84.73091364205257
Weighted Precision: 0.8523009589527389
Weighted AreaUnderROC: 0.9203569270371447
Root mean squared error: 0.3397649418108696
Relative absolute error: 47.136460821464574
Root relative squared error: 67.95298836217391
Weighted TruePositiveRate: 0.8473091364205256
Weighted MatthewsCorrelation: 0.699743200392338
Weighted FMeasure: 0.847224937660341
Iteration time: 16.0
Weighted AreaUnderPRC: 0.923143821350585
Mean absolute error: 0.23568230410732288
Coverage of cases: 99.93742177722153
Instances selection time: 15.0
Test time: 24.0
Accumulative iteration time: 80.0
Weighted Recall: 0.8473091364205256
Weighted FalsePositiveRate: 0.14833957881228213
Kappa statistic: 0.6955111335321027
Training time: 1.0
		
Iteration: 6
Labeled set size: 419
Unlabelled set size: 1179
	
Mean region size: 83.32290362953692
Incorrectly Classified Instances: 15.519399249061326
Correctly Classified Instances: 84.48060075093868
Weighted Precision: 0.8521103147443361
Weighted AreaUnderROC: 0.9181359430549124
Root mean squared error: 0.34351658072747143
Relative absolute error: 47.298302191422366
Root relative squared error: 68.70331614549428
Weighted TruePositiveRate: 0.8448060075093867
Weighted MatthewsCorrelation: 0.6972138940783562
Weighted FMeasure: 0.8445695962914603
Iteration time: 16.0
Weighted AreaUnderPRC: 0.9208984738913305
Mean absolute error: 0.23649151095711182
Coverage of cases: 99.81226533166458
Instances selection time: 15.0
Test time: 23.0
Accumulative iteration time: 96.0
Weighted Recall: 0.8448060075093867
Weighted FalsePositiveRate: 0.14972277947005255
Kappa statistic: 0.6908671389547155
Training time: 1.0
		
Iteration: 7
Labeled set size: 439
Unlabelled set size: 1159
	
Mean region size: 83.1351689612015
Incorrectly Classified Instances: 15.894868585732166
Correctly Classified Instances: 84.10513141426783
Weighted Precision: 0.8533120499625593
Weighted AreaUnderROC: 0.9204118630367051
Root mean squared error: 0.3446433508087588
Relative absolute error: 47.56214771123345
Root relative squared error: 68.92867016175175
Weighted TruePositiveRate: 0.8410513141426783
Weighted MatthewsCorrelation: 0.6949220931823507
Weighted FMeasure: 0.8404314108752052
Iteration time: 15.0
Weighted AreaUnderPRC: 0.9231643921771795
Mean absolute error: 0.23781073855616724
Coverage of cases: 99.68710888610764
Instances selection time: 14.0
Test time: 24.0
Accumulative iteration time: 111.0
Weighted Recall: 0.8410513141426783
Weighted FalsePositiveRate: 0.1515715580585164
Kappa statistic: 0.6839915480281588
Training time: 1.0
		
Iteration: 8
Labeled set size: 459
Unlabelled set size: 1139
	
Mean region size: 83.26032540675845
Incorrectly Classified Instances: 16.520650813516895
Correctly Classified Instances: 83.4793491864831
Weighted Precision: 0.8524211757223611
Weighted AreaUnderROC: 0.925263496597892
Root mean squared error: 0.34432211014277786
Relative absolute error: 47.42777038134863
Root relative squared error: 68.86442202855557
Weighted TruePositiveRate: 0.8347934918648311
Weighted MatthewsCorrelation: 0.6879841553076651
Weighted FMeasure: 0.8336763557304622
Iteration time: 15.0
Weighted AreaUnderPRC: 0.9279804676222813
Mean absolute error: 0.23713885190674316
Coverage of cases: 99.81226533166458
Instances selection time: 14.0
Test time: 23.0
Accumulative iteration time: 126.0
Weighted Recall: 0.8347934918648311
Weighted FalsePositiveRate: 0.1561596716939016
Kappa statistic: 0.6721016886445919
Training time: 1.0
		
Iteration: 9
Labeled set size: 479
Unlabelled set size: 1119
	
Mean region size: 83.04130162703379
Incorrectly Classified Instances: 17.083854818523154
Correctly Classified Instances: 82.91614518147685
Weighted Precision: 0.8492902012780501
Weighted AreaUnderROC: 0.924530493403756
Root mean squared error: 0.3496348552034542
Relative absolute error: 47.9384940444066
Root relative squared error: 69.92697104069084
Weighted TruePositiveRate: 0.8291614518147684
Weighted MatthewsCorrelation: 0.6793194356508546
Weighted FMeasure: 0.8277558588306462
Iteration time: 15.0
Weighted AreaUnderPRC: 0.9272432519541361
Mean absolute error: 0.23969247022203302
Coverage of cases: 99.81226533166458
Instances selection time: 14.0
Test time: 23.0
Accumulative iteration time: 141.0
Weighted Recall: 0.8291614518147684
Weighted FalsePositiveRate: 0.16108005235941963
Kappa statistic: 0.6611698368193362
Training time: 1.0
		
Iteration: 10
Labeled set size: 499
Unlabelled set size: 1099
	
Mean region size: 82.75969962453067
Incorrectly Classified Instances: 17.897371714643302
Correctly Classified Instances: 82.1026282853567
Weighted Precision: 0.8455551030286477
Weighted AreaUnderROC: 0.924806743001546
Root mean squared error: 0.35261091784233606
Relative absolute error: 48.11918931720264
Root relative squared error: 70.52218356846721
Weighted TruePositiveRate: 0.8210262828535669
Weighted MatthewsCorrelation: 0.6675870759606343
Weighted FMeasure: 0.81907790891203
Iteration time: 15.0
Weighted AreaUnderPRC: 0.9274940438477624
Mean absolute error: 0.2405959465860132
Coverage of cases: 99.62453066332917
Instances selection time: 14.0
Test time: 23.0
Accumulative iteration time: 156.0
Weighted Recall: 0.8210262828535669
Weighted FalsePositiveRate: 0.16806170087728362
Kappa statistic: 0.6454514282699865
Training time: 1.0
		
Iteration: 11
Labeled set size: 519
Unlabelled set size: 1079
	
Mean region size: 82.60325406758449
Incorrectly Classified Instances: 17.647058823529413
Correctly Classified Instances: 82.3529411764706
Weighted Precision: 0.8501907420932464
Weighted AreaUnderROC: 0.9267922869856617
Root mean squared error: 0.35402031900483666
Relative absolute error: 48.16474887773257
Root relative squared error: 70.80406380096733
Weighted TruePositiveRate: 0.8235294117647058
Weighted MatthewsCorrelation: 0.6747207384647902
Weighted FMeasure: 0.8214126897443328
Iteration time: 15.0
Weighted AreaUnderPRC: 0.9295146460518972
Mean absolute error: 0.24082374438866286
Coverage of cases: 99.68710888610764
Instances selection time: 14.0
Test time: 23.0
Accumulative iteration time: 171.0
Weighted Recall: 0.8235294117647058
Weighted FalsePositiveRate: 0.16509634343217044
Kappa statistic: 0.6505662917235956
Training time: 1.0
		
Iteration: 12
Labeled set size: 539
Unlabelled set size: 1059
	
Mean region size: 82.47809762202753
Incorrectly Classified Instances: 18.39799749687109
Correctly Classified Instances: 81.60200250312892
Weighted Precision: 0.8480456151982121
Weighted AreaUnderROC: 0.9300319413597445
Root mean squared error: 0.355691971159846
Relative absolute error: 48.20014868750942
Root relative squared error: 71.1383942319692
Weighted TruePositiveRate: 0.8160200250312891
Weighted MatthewsCorrelation: 0.6651471790626667
Weighted FMeasure: 0.8132018280131973
Iteration time: 14.0
Weighted AreaUnderPRC: 0.932654859415663
Mean absolute error: 0.2410007434375471
Coverage of cases: 99.62453066332917
Instances selection time: 13.0
Test time: 23.0
Accumulative iteration time: 185.0
Weighted Recall: 0.8160200250312891
Weighted FalsePositiveRate: 0.17139315818830406
Kappa statistic: 0.6361436862706222
Training time: 1.0
		
Iteration: 13
Labeled set size: 559
Unlabelled set size: 1039
	
Mean region size: 82.1964956195244
Incorrectly Classified Instances: 18.64831038798498
Correctly Classified Instances: 81.35168961201502
Weighted Precision: 0.848814254362471
Weighted AreaUnderROC: 0.9307382613540939
Root mean squared error: 0.35803372363420655
Relative absolute error: 48.25345104061087
Root relative squared error: 71.60674472684131
Weighted TruePositiveRate: 0.8135168961201502
Weighted MatthewsCorrelation: 0.6634169676103525
Weighted FMeasure: 0.8102902552844234
Iteration time: 14.0
Weighted AreaUnderPRC: 0.9334264633110079
Mean absolute error: 0.24126725520305436
Coverage of cases: 99.62453066332917
Instances selection time: 13.0
Test time: 23.0
Accumulative iteration time: 199.0
Weighted Recall: 0.8135168961201502
Weighted FalsePositiveRate: 0.17322840364245812
Kappa statistic: 0.6314398800061298
Training time: 1.0
		
Iteration: 14
Labeled set size: 579
Unlabelled set size: 1019
	
Mean region size: 82.1026282853567
Incorrectly Classified Instances: 18.773466833541928
Correctly Classified Instances: 81.22653316645807
Weighted Precision: 0.8486546996071345
Weighted AreaUnderROC: 0.9298592853611257
Root mean squared error: 0.36145037056809126
Relative absolute error: 48.55518187856241
Root relative squared error: 72.29007411361825
Weighted TruePositiveRate: 0.8122653316645807
Weighted MatthewsCorrelation: 0.6620078989435675
Weighted FMeasure: 0.8088877213816784
Iteration time: 14.0
Weighted AreaUnderPRC: 0.9325664697338482
Mean absolute error: 0.24277590939281204
Coverage of cases: 99.56195244055068
Instances selection time: 13.0
Test time: 23.0
Accumulative iteration time: 213.0
Weighted Recall: 0.8122653316645807
Weighted FalsePositiveRate: 0.1742590375686311
Kappa statistic: 0.6290490066963077
Training time: 1.0
		
Iteration: 15
Labeled set size: 599
Unlabelled set size: 999
	
Mean region size: 81.44555694618273
Incorrectly Classified Instances: 19.46182728410513
Correctly Classified Instances: 80.53817271589487
Weighted Precision: 0.8464396244682685
Weighted AreaUnderROC: 0.9276853893785169
Root mean squared error: 0.36396514404594565
Relative absolute error: 48.67318516716844
Root relative squared error: 72.79302880918912
Weighted TruePositiveRate: 0.8053817271589487
Weighted MatthewsCorrelation: 0.6529151342467685
Weighted FMeasure: 0.8012806349694599
Iteration time: 14.0
Weighted AreaUnderPRC: 0.9304185249420233
Mean absolute error: 0.2433659258358422
Coverage of cases: 99.37421777221527
Instances selection time: 12.0
Test time: 23.0
Accumulative iteration time: 227.0
Weighted Recall: 0.8053817271589487
Weighted FalsePositiveRate: 0.1802100521603221
Kappa statistic: 0.615811338782818
Training time: 2.0
		
Iteration: 16
Labeled set size: 619
Unlabelled set size: 979
	
Mean region size: 81.38297872340425
Incorrectly Classified Instances: 19.64956195244055
Correctly Classified Instances: 80.35043804755945
Weighted Precision: 0.8473487034506307
Weighted AreaUnderROC: 0.9312938997496489
Root mean squared error: 0.36456986322381224
Relative absolute error: 48.60047794508548
Root relative squared error: 72.91397264476245
Weighted TruePositiveRate: 0.8035043804755945
Weighted MatthewsCorrelation: 0.6519069291065813
Weighted FMeasure: 0.7990232341966821
Iteration time: 13.0
Weighted AreaUnderPRC: 0.9340770770962098
Mean absolute error: 0.2430023897254274
Coverage of cases: 99.37421777221527
Instances selection time: 12.0
Test time: 24.0
Accumulative iteration time: 240.0
Weighted Recall: 0.8035043804755945
Weighted FalsePositiveRate: 0.18158648625093762
Kappa statistic: 0.6122995520102361
Training time: 1.0
		
Iteration: 17
Labeled set size: 639
Unlabelled set size: 959
	
Mean region size: 80.97622027534418
Incorrectly Classified Instances: 20.150187734668336
Correctly Classified Instances: 79.84981226533166
Weighted Precision: 0.8438022580097467
Weighted AreaUnderROC: 0.9314492901484057
Root mean squared error: 0.36723132073702164
Relative absolute error: 48.675846520763244
Root relative squared error: 73.44626414740432
Weighted TruePositiveRate: 0.7984981226533167
Weighted MatthewsCorrelation: 0.643378803462093
Weighted FMeasure: 0.793662064745394
Iteration time: 13.0
Weighted AreaUnderPRC: 0.93414403649725
Mean absolute error: 0.24337923260381622
Coverage of cases: 99.43679599499374
Instances selection time: 12.0
Test time: 23.0
Accumulative iteration time: 253.0
Weighted Recall: 0.7984981226533167
Weighted FalsePositiveRate: 0.186274077951109
Kappa statistic: 0.6025544970177452
Training time: 1.0
		
Iteration: 18
Labeled set size: 659
Unlabelled set size: 939
	
Mean region size: 80.97622027534418
Incorrectly Classified Instances: 20.775969962453065
Correctly Classified Instances: 79.22403003754694
Weighted Precision: 0.8402592485444058
Weighted AreaUnderROC: 0.9337927029296583
Root mean squared error: 0.36965871973143016
Relative absolute error: 48.83408735957593
Root relative squared error: 73.93174394628603
Weighted TruePositiveRate: 0.7922403003754693
Weighted MatthewsCorrelation: 0.6335780163782999
Weighted FMeasure: 0.7868256328908452
Iteration time: 12.0
Weighted AreaUnderPRC: 0.9364791292660518
Mean absolute error: 0.24417043679787964
Coverage of cases: 99.43679599499374
Instances selection time: 11.0
Test time: 24.0
Accumulative iteration time: 265.0
Weighted Recall: 0.7922403003754693
Weighted FalsePositiveRate: 0.1919923035774533
Kappa statistic: 0.5904392385851852
Training time: 1.0
		
Iteration: 19
Labeled set size: 679
Unlabelled set size: 919
	
Mean region size: 80.75719649561952
Incorrectly Classified Instances: 20.963704630788484
Correctly Classified Instances: 79.03629536921152
Weighted Precision: 0.8399302155282151
Weighted AreaUnderROC: 0.9326060853391513
Root mean squared error: 0.37316121948384257
Relative absolute error: 49.11702736198977
Root relative squared error: 74.63224389676851
Weighted TruePositiveRate: 0.7903629536921152
Weighted MatthewsCorrelation: 0.6313446748081434
Weighted FMeasure: 0.7846761956037066
Iteration time: 13.0
Weighted AreaUnderPRC: 0.9353142189212049
Mean absolute error: 0.24558513680994884
Coverage of cases: 99.37421777221527
Instances selection time: 12.0
Test time: 23.0
Accumulative iteration time: 278.0
Weighted Recall: 0.7903629536921152
Weighted FalsePositiveRate: 0.1935947600662607
Kappa statistic: 0.5868532064352516
Training time: 1.0
		
Iteration: 20
Labeled set size: 699
Unlabelled set size: 899
	
Mean region size: 80.5694618272841
Incorrectly Classified Instances: 21.46433041301627
Correctly Classified Instances: 78.53566958698373
Weighted Precision: 0.8356812209240871
Weighted AreaUnderROC: 0.9315450357476397
Root mean squared error: 0.3770716997724323
Relative absolute error: 49.40373074967961
Root relative squared error: 75.41433995448646
Weighted TruePositiveRate: 0.7853566958698373
Weighted MatthewsCorrelation: 0.6221291925884933
Weighted FMeasure: 0.7793478684134731
Iteration time: 12.0
Weighted AreaUnderPRC: 0.9342679901285018
Mean absolute error: 0.24701865374839804
Coverage of cases: 99.43679599499374
Instances selection time: 11.0
Test time: 23.0
Accumulative iteration time: 290.0
Weighted Recall: 0.7853566958698373
Weighted FalsePositiveRate: 0.19839536296552798
Kappa statistic: 0.5770810153500007
Training time: 1.0
		
Iteration: 21
Labeled set size: 719
Unlabelled set size: 879
	
Mean region size: 80.2252816020025
Incorrectly Classified Instances: 21.65206508135169
Correctly Classified Instances: 78.3479349186483
Weighted Precision: 0.8346358702709503
Weighted AreaUnderROC: 0.9311887365504901
Root mean squared error: 0.37826782079713384
Relative absolute error: 49.400620705590995
Root relative squared error: 75.65356415942676
Weighted TruePositiveRate: 0.7834793491864831
Weighted MatthewsCorrelation: 0.6192012249435944
Weighted FMeasure: 0.7772749923465109
Iteration time: 12.0
Weighted AreaUnderPRC: 0.9338850573370338
Mean absolute error: 0.24700310352795496
Coverage of cases: 99.24906132665832
Instances selection time: 11.0
Test time: 23.0
Accumulative iteration time: 302.0
Weighted Recall: 0.7834793491864831
Weighted FalsePositiveRate: 0.20011083065343124
Kappa statistic: 0.5734531052072067
Training time: 1.0
		
Iteration: 22
Labeled set size: 739
Unlabelled set size: 859
	
Mean region size: 80.2252816020025
Incorrectly Classified Instances: 22.02753441802253
Correctly Classified Instances: 77.97246558197747
Weighted Precision: 0.8318079332623376
Weighted AreaUnderROC: 0.9312468117500257
Root mean squared error: 0.380409783769974
Relative absolute error: 49.54472958957638
Root relative squared error: 76.08195675399479
Weighted TruePositiveRate: 0.7797246558197747
Weighted MatthewsCorrelation: 0.6126340929928796
Weighted FMeasure: 0.773215975306824
Iteration time: 12.0
Weighted AreaUnderPRC: 0.9338697013218406
Mean absolute error: 0.2477236479478819
Coverage of cases: 99.0613266583229
Instances selection time: 11.0
Test time: 23.0
Accumulative iteration time: 314.0
Weighted Recall: 0.7797246558197747
Weighted FalsePositiveRate: 0.20365477722833372
Kappa statistic: 0.5661527307505418
Training time: 1.0
		
Iteration: 23
Labeled set size: 759
Unlabelled set size: 839
	
Mean region size: 79.8811013767209
Incorrectly Classified Instances: 22.215269086357946
Correctly Classified Instances: 77.78473091364205
Weighted Precision: 0.8346259179291793
Weighted AreaUnderROC: 0.9344315301245478
Root mean squared error: 0.3816160111119839
Relative absolute error: 49.57258991058351
Root relative squared error: 76.32320222239677
Weighted TruePositiveRate: 0.7778473091364205
Weighted MatthewsCorrelation: 0.6133977217530436
Weighted FMeasure: 0.7706158936493344
Iteration time: 12.0
Weighted AreaUnderPRC: 0.9369655499531478
Mean absolute error: 0.24786294955291754
Coverage of cases: 99.0613266583229
Instances selection time: 11.0
Test time: 24.0
Accumulative iteration time: 326.0
Weighted Recall: 0.7778473091364205
Weighted FalsePositiveRate: 0.20480518892075747
Kappa statistic: 0.5627708163450911
Training time: 1.0
		
Iteration: 24
Labeled set size: 779
Unlabelled set size: 819
	
Mean region size: 79.75594493116395
Incorrectly Classified Instances: 22.590738423028785
Correctly Classified Instances: 77.40926157697122
Weighted Precision: 0.8318254609600583
Weighted AreaUnderROC: 0.9342212037262304
Root mean squared error: 0.38350432687849567
Relative absolute error: 49.693755189073784
Root relative squared error: 76.70086537569914
Weighted TruePositiveRate: 0.7740926157697121
Weighted MatthewsCorrelation: 0.6068480480829386
Weighted FMeasure: 0.7665231203934181
Iteration time: 11.0
Weighted AreaUnderPRC: 0.9367182545913405
Mean absolute error: 0.24846877594536892
Coverage of cases: 99.0613266583229
Instances selection time: 10.0
Test time: 23.0
Accumulative iteration time: 337.0
Weighted Recall: 0.7740926157697121
Weighted FalsePositiveRate: 0.20834913549566
Kappa statistic: 0.555479698001316
Training time: 1.0
		
Iteration: 25
Labeled set size: 799
Unlabelled set size: 799
	
Mean region size: 79.56821026282853
Incorrectly Classified Instances: 22.778473091364205
Correctly Classified Instances: 77.2215269086358
Weighted Precision: 0.8316343508036426
Weighted AreaUnderROC: 0.9348223605214211
Root mean squared error: 0.38556649410504357
Relative absolute error: 49.868083021764384
Root relative squared error: 77.11329882100871
Weighted TruePositiveRate: 0.772215269086358
Weighted MatthewsCorrelation: 0.6047202099052031
Weighted FMeasure: 0.7643060388628887
Iteration time: 11.0
Weighted AreaUnderPRC: 0.93738183316136
Mean absolute error: 0.2493404151088219
Coverage of cases: 99.0613266583229
Instances selection time: 10.0
Test time: 23.0
Accumulative iteration time: 348.0
Weighted Recall: 0.772215269086358
Weighted FalsePositiveRate: 0.20995159198446736
Kappa statistic: 0.5519099247061505
Training time: 1.0
		
Iteration: 26
Labeled set size: 819
Unlabelled set size: 779
	
Mean region size: 79.44305381727159
Incorrectly Classified Instances: 23.27909887359199
Correctly Classified Instances: 76.72090112640801
Weighted Precision: 0.8315438337117342
Weighted AreaUnderROC: 0.9364264917085879
Root mean squared error: 0.38822055084495916
Relative absolute error: 50.10376190500554
Root relative squared error: 77.64411016899183
Weighted TruePositiveRate: 0.7672090112640801
Weighted MatthewsCorrelation: 0.5994150078028355
Weighted FMeasure: 0.7583047273923144
Iteration time: 11.0
Weighted AreaUnderPRC: 0.9388810259148547
Mean absolute error: 0.2505188095250277
Coverage of cases: 99.0613266583229
Instances selection time: 10.0
Test time: 24.0
Accumulative iteration time: 359.0
Weighted Recall: 0.7672090112640801
Weighted FalsePositiveRate: 0.21418713888825508
Kappa statistic: 0.5424171094015805
Training time: 1.0
		
Iteration: 27
Labeled set size: 839
Unlabelled set size: 759
	
Mean region size: 79.34918648310388
Incorrectly Classified Instances: 23.591989987484354
Correctly Classified Instances: 76.40801001251565
Weighted Precision: 0.831715294927395
Weighted AreaUnderROC: 0.9368377269052982
Root mean squared error: 0.3913475582275897
Relative absolute error: 50.40138036897639
Root relative squared error: 78.26951164551794
Weighted TruePositiveRate: 0.7640801001251565
Weighted MatthewsCorrelation: 0.5962900874923406
Weighted FMeasure: 0.7544979092991754
Iteration time: 10.0
Weighted AreaUnderPRC: 0.9392868604515034
Mean absolute error: 0.25200690184488195
Coverage of cases: 99.0613266583229
Instances selection time: 9.0
Test time: 24.0
Accumulative iteration time: 369.0
Weighted Recall: 0.7640801001251565
Weighted FalsePositiveRate: 0.2168202293032354
Kappa statistic: 0.5364979957992568
Training time: 1.0
		
Iteration: 28
Labeled set size: 859
Unlabelled set size: 739
	
Mean region size: 79.06758448060076
Incorrectly Classified Instances: 23.779724655819773
Correctly Classified Instances: 76.22027534418022
Weighted Precision: 0.8316845534351505
Weighted AreaUnderROC: 0.9358127781134977
Root mean squared error: 0.3950038507033719
Relative absolute error: 50.72260434547176
Root relative squared error: 79.00077014067438
Weighted TruePositiveRate: 0.7622027534418022
Weighted MatthewsCorrelation: 0.5942813594843194
Weighted FMeasure: 0.7522237120022055
Iteration time: 11.0
Weighted AreaUnderPRC: 0.9382431802212509
Mean absolute error: 0.2536130217273588
Coverage of cases: 99.0613266583229
Instances selection time: 9.0
Test time: 23.0
Accumulative iteration time: 380.0
Weighted Recall: 0.7622027534418022
Weighted FalsePositiveRate: 0.2184226857920428
Kappa statistic: 0.5329390137909286
Training time: 2.0
		
Iteration: 29
Labeled set size: 879
Unlabelled set size: 719
	
Mean region size: 78.87984981226533
Incorrectly Classified Instances: 23.90488110137672
Correctly Classified Instances: 76.09511889862328
Weighted Precision: 0.8310688713252382
Weighted AreaUnderROC: 0.9363950997088392
Root mean squared error: 0.39641073387004466
Relative absolute error: 50.80813239852614
Root relative squared error: 79.28214677400894
Weighted TruePositiveRate: 0.7609511889862328
Weighted MatthewsCorrelation: 0.5923859915611875
Weighted FMeasure: 0.7507890899654474
Iteration time: 11.0
Weighted AreaUnderPRC: 0.9388533504749124
Mean absolute error: 0.2540406619926307
Coverage of cases: 99.0613266583229
Instances selection time: 9.0
Test time: 23.0
Accumulative iteration time: 391.0
Weighted Recall: 0.7609511889862328
Weighted FalsePositiveRate: 0.21956633091731168
Kappa statistic: 0.5305327953954321
Training time: 2.0
		
Iteration: 30
Labeled set size: 899
Unlabelled set size: 699
	
Mean region size: 78.53566958698373
Incorrectly Classified Instances: 24.155193992490613
Correctly Classified Instances: 75.84480600750939
Weighted Precision: 0.8298423665936271
Weighted AreaUnderROC: 0.9361596597107226
Root mean squared error: 0.3995691385851764
Relative absolute error: 51.14389282471913
Root relative squared error: 79.91382771703528
Weighted TruePositiveRate: 0.7584480600750939
Weighted MatthewsCorrelation: 0.5885973220739185
Weighted FMeasure: 0.7479129222394542
Iteration time: 10.0
Weighted AreaUnderPRC: 0.9386171691649774
Mean absolute error: 0.25571946412359564
Coverage of cases: 98.811013767209
Instances selection time: 9.0
Test time: 23.0
Accumulative iteration time: 401.0
Weighted Recall: 0.7584480600750939
Weighted FalsePositiveRate: 0.22185362116784943
Kappa statistic: 0.5257219571231515
Training time: 1.0
		
Iteration: 31
Labeled set size: 919
Unlabelled set size: 679
	
Mean region size: 78.44180225281602
Incorrectly Classified Instances: 24.405506883604506
Correctly Classified Instances: 75.5944931163955
Weighted Precision: 0.8305151661093966
Weighted AreaUnderROC: 0.9381577604947379
Root mean squared error: 0.40088401172140814
Relative absolute error: 51.21479107873424
Root relative squared error: 80.17680234428163
Weighted TruePositiveRate: 0.7559449311639549
Weighted MatthewsCorrelation: 0.5865580074502799
Weighted FMeasure: 0.7447503519262627
Iteration time: 10.0
Weighted AreaUnderPRC: 0.9406130529702877
Mean absolute error: 0.25607395539367117
Coverage of cases: 99.0613266583229
Instances selection time: 8.0
Test time: 24.0
Accumulative iteration time: 411.0
Weighted Recall: 0.7559449311639549
Weighted FalsePositiveRate: 0.22391488902019524
Kappa statistic: 0.5210192923425494
Training time: 2.0
		
Iteration: 32
Labeled set size: 939
Unlabelled set size: 659
	
Mean region size: 78.5982478097622
Incorrectly Classified Instances: 24.405506883604506
Correctly Classified Instances: 75.5944931163955
Weighted Precision: 0.8286222358612408
Weighted AreaUnderROC: 0.9367718037058256
Root mean squared error: 0.3965236307110079
Relative absolute error: 50.667686283003235
Root relative squared error: 79.30472614220157
Weighted TruePositiveRate: 0.7559449311639549
Weighted MatthewsCorrelation: 0.5848112129803092
Weighted FMeasure: 0.7450274076773181
Iteration time: 10.0
Weighted AreaUnderPRC: 0.9392470468215814
Mean absolute error: 0.25333843141501616
Coverage of cases: 98.87359198998749
Instances selection time: 9.0
Test time: 23.0
Accumulative iteration time: 421.0
Weighted Recall: 0.7559449311639549
Weighted FalsePositiveRate: 0.22414091141838713
Kappa statistic: 0.5209132490294807
Training time: 1.0
		
Iteration: 33
Labeled set size: 959
Unlabelled set size: 639
	
Mean region size: 78.97371714643305
Incorrectly Classified Instances: 23.341677096370464
Correctly Classified Instances: 76.65832290362954
Weighted Precision: 0.8329674425739862
Weighted AreaUnderROC: 0.9401919620784642
Root mean squared error: 0.3873208414694795
Relative absolute error: 49.662318850646145
Root relative squared error: 77.4641682938959
Weighted TruePositiveRate: 0.7665832290362954
Weighted MatthewsCorrelation: 0.6000934311254912
Weighted FMeasure: 0.757350410319922
Iteration time: 9.0
Weighted AreaUnderPRC: 0.9425587731367318
Mean absolute error: 0.24831159425323074
Coverage of cases: 99.18648310387985
Instances selection time: 8.0
Test time: 23.0
Accumulative iteration time: 430.0
Weighted Recall: 0.7665832290362954
Weighted FalsePositiveRate: 0.2145329390526977
Kappa statistic: 0.5413141544092185
Training time: 1.0
		
Iteration: 34
Labeled set size: 979
Unlabelled set size: 619
	
Mean region size: 79.41176470588235
Incorrectly Classified Instances: 21.902377972465583
Correctly Classified Instances: 78.09762202753441
Weighted Precision: 0.8386772719613125
Weighted AreaUnderROC: 0.9383241380934069
Root mean squared error: 0.37848857434197697
Relative absolute error: 48.93234014583598
Root relative squared error: 75.6977148683954
Weighted TruePositiveRate: 0.7809762202753442
Weighted MatthewsCorrelation: 0.6204912645788433
Weighted FMeasure: 0.773794639789838
Iteration time: 9.0
Weighted AreaUnderPRC: 0.9407936095222814
Mean absolute error: 0.2446617007291799
Coverage of cases: 99.18648310387985
Instances selection time: 8.0
Test time: 23.0
Accumulative iteration time: 439.0
Weighted Recall: 0.7809762202753442
Weighted FalsePositiveRate: 0.2016070425102976
Kappa statistic: 0.5689528938651508
Training time: 1.0
		
Iteration: 35
Labeled set size: 999
Unlabelled set size: 599
	
Mean region size: 79.84981226533166
Incorrectly Classified Instances: 21.151439299123904
Correctly Classified Instances: 78.84856070087609
Weighted Precision: 0.8442233762415573
Weighted AreaUnderROC: 0.9402437588780499
Root mean squared error: 0.37077997191839435
Relative absolute error: 48.566671123989316
Root relative squared error: 74.15599438367887
Weighted TruePositiveRate: 0.7884856070087609
Weighted MatthewsCorrelation: 0.633538520034417
Weighted FMeasure: 0.7819466490664768
Iteration time: 10.0
Weighted AreaUnderPRC: 0.9428351264918763
Mean absolute error: 0.24283335561994657
Coverage of cases: 99.49937421777221
Instances selection time: 8.0
Test time: 23.0
Accumulative iteration time: 449.0
Weighted Recall: 0.7884856070087609
Weighted FalsePositiveRate: 0.1945191493604926
Kappa statistic: 0.583546780861737
Training time: 2.0
		
Iteration: 36
Labeled set size: 1019
Unlabelled set size: 579
	
Mean region size: 79.72465581977472
Incorrectly Classified Instances: 20.775969962453065
Correctly Classified Instances: 79.22403003754694
Weighted Precision: 0.8402592485444058
Weighted AreaUnderROC: 0.9344456565244348
Root mean squared error: 0.36840891350625976
Relative absolute error: 48.08819184483886
Root relative squared error: 73.68178270125195
Weighted TruePositiveRate: 0.7922403003754693
Weighted MatthewsCorrelation: 0.6335780163782999
Weighted FMeasure: 0.7868256328908452
Iteration time: 9.0
Weighted AreaUnderPRC: 0.937036565498458
Mean absolute error: 0.24044095922419428
Coverage of cases: 99.18648310387985
Instances selection time: 8.0
Test time: 23.0
Accumulative iteration time: 458.0
Weighted Recall: 0.7922403003754693
Weighted FalsePositiveRate: 0.1919923035774533
Kappa statistic: 0.5904392385851852
Training time: 1.0
		
Iteration: 37
Labeled set size: 1039
Unlabelled set size: 559
	
Mean region size: 80.38172715894869
Incorrectly Classified Instances: 19.712140175219023
Correctly Classified Instances: 80.28785982478098
Weighted Precision: 0.8449761610496337
Weighted AreaUnderROC: 0.9404478068764175
Root mean squared error: 0.358260414859592
Relative absolute error: 47.119840381919886
Root relative squared error: 71.65208297191839
Weighted TruePositiveRate: 0.8028785982478097
Weighted MatthewsCorrelation: 0.6489573249960122
Weighted FMeasure: 0.798574671076647
Iteration time: 9.0
Weighted AreaUnderPRC: 0.942908092235281
Mean absolute error: 0.23559920190959943
Coverage of cases: 99.68710888610764
Instances selection time: 7.0
Test time: 23.0
Accumulative iteration time: 467.0
Weighted Recall: 0.8028785982478097
Weighted FalsePositiveRate: 0.1824973424108598
Kappa statistic: 0.6109566214739393
Training time: 2.0
		
Iteration: 38
Labeled set size: 1059
Unlabelled set size: 539
	
Mean region size: 81.44555694618273
Incorrectly Classified Instances: 19.46182728410513
Correctly Classified Instances: 80.53817271589487
Weighted Precision: 0.8445139305919228
Weighted AreaUnderROC: 0.9353795685169635
Root mean squared error: 0.35734899642516227
Relative absolute error: 47.550813113848605
Root relative squared error: 71.46979928503245
Weighted TruePositiveRate: 0.8053817271589487
Weighted MatthewsCorrelation: 0.6510247823650991
Weighted FMeasure: 0.8014978249024343
Iteration time: 9.0
Weighted AreaUnderPRC: 0.9379027654554022
Mean absolute error: 0.23775406556924303
Coverage of cases: 99.81226533166458
Instances selection time: 7.0
Test time: 23.0
Accumulative iteration time: 476.0
Weighted Recall: 0.8053817271589487
Weighted FalsePositiveRate: 0.1805490857576098
Kappa statistic: 0.6156829932583019
Training time: 2.0
		
Iteration: 39
Labeled set size: 1079
Unlabelled set size: 519
	
Mean region size: 81.5081351689612
Incorrectly Classified Instances: 18.961201501877348
Correctly Classified Instances: 81.03879849812266
Weighted Precision: 0.8469078099863919
Weighted AreaUnderROC: 0.9349463589204292
Root mean squared error: 0.35507050053368
Relative absolute error: 47.308202893809465
Root relative squared error: 71.014100106736
Weighted TruePositiveRate: 0.8103879849812266
Weighted MatthewsCorrelation: 0.6584035935960413
Weighted FMeasure: 0.8069435407997544
Iteration time: 8.0
Weighted AreaUnderPRC: 0.937455805935026
Mean absolute error: 0.23654101446904732
Coverage of cases: 99.7496871088861
Instances selection time: 6.0
Test time: 23.0
Accumulative iteration time: 484.0
Weighted Recall: 0.8103879849812266
Weighted FalsePositiveRate: 0.17608751645563028
Kappa statistic: 0.6253603687948093
Training time: 2.0
		
Iteration: 40
Labeled set size: 1099
Unlabelled set size: 499
	
Mean region size: 81.32040050062578
Incorrectly Classified Instances: 18.585732165206508
Correctly Classified Instances: 81.41426783479349
Weighted Precision: 0.8468679330824369
Weighted AreaUnderROC: 0.9304604421563165
Root mean squared error: 0.3554264778706543
Relative absolute error: 47.32188650663642
Root relative squared error: 71.08529557413085
Weighted TruePositiveRate: 0.814142678347935
Weighted MatthewsCorrelation: 0.6621091908541612
Weighted FMeasure: 0.8112056394187214
Iteration time: 8.0
Weighted AreaUnderPRC: 0.9329273467363615
Mean absolute error: 0.2366094325331821
Coverage of cases: 99.56195244055068
Instances selection time: 7.0
Test time: 23.0
Accumulative iteration time: 492.0
Weighted Recall: 0.814142678347935
Weighted FalsePositiveRate: 0.17310862587620732
Kappa statistic: 0.6324923456231833
Training time: 1.0
		
Iteration: 41
Labeled set size: 1119
Unlabelled set size: 479
	
Mean region size: 81.28911138923655
Incorrectly Classified Instances: 18.02252816020025
Correctly Classified Instances: 81.97747183979975
Weighted Precision: 0.8482609642424177
Weighted AreaUnderROC: 0.9304698597562411
Root mean squared error: 0.3513941300078681
Relative absolute error: 46.846488422215046
Root relative squared error: 70.27882600157362
Weighted TruePositiveRate: 0.8197747183979975
Weighted MatthewsCorrelation: 0.6690807573306179
Weighted FMeasure: 0.8174036179306337
Iteration time: 8.0
Weighted AreaUnderPRC: 0.9327853235579742
Mean absolute error: 0.23423244211107522
Coverage of cases: 99.56195244055068
Instances selection time: 6.0
Test time: 23.0
Accumulative iteration time: 500.0
Weighted Recall: 0.8197747183979975
Weighted FalsePositiveRate: 0.16841426760888112
Kappa statistic: 0.6432908539335945
Training time: 2.0
		
Iteration: 42
Labeled set size: 1139
Unlabelled set size: 459
	
Mean region size: 81.69586983729663
Incorrectly Classified Instances: 17.2090112640801
Correctly Classified Instances: 82.7909887359199
Weighted Precision: 0.8530806574078784
Weighted AreaUnderROC: 0.9353575941171393
Root mean squared error: 0.34397405433357264
Relative absolute error: 46.16698512028607
Root relative squared error: 68.79481086671453
Weighted TruePositiveRate: 0.827909887359199
Weighted MatthewsCorrelation: 0.6819397818730351
Weighted FMeasure: 0.8260131065632125
Iteration time: 7.0
Weighted AreaUnderPRC: 0.9375397462003746
Mean absolute error: 0.23083492560143035
Coverage of cases: 99.81226533166458
Instances selection time: 6.0
Test time: 23.0
Accumulative iteration time: 507.0
Weighted Recall: 0.827909887359199
Weighted FalsePositiveRate: 0.16109358549372943
Kappa statistic: 0.6591069525270845
Training time: 1.0
		
Iteration: 43
Labeled set size: 1159
Unlabelled set size: 439
	
Mean region size: 82.07133917396746
Incorrectly Classified Instances: 16.896120150187734
Correctly Classified Instances: 83.10387984981226
Weighted Precision: 0.8532725425526293
Weighted AreaUnderROC: 0.9328901829368785
Root mean squared error: 0.3446017052520528
Relative absolute error: 46.401369435864936
Root relative squared error: 68.92034105041056
Weighted TruePositiveRate: 0.8310387984981227
Weighted MatthewsCorrelation: 0.6852000810624385
Weighted FMeasure: 0.8294636055988874
Iteration time: 7.0
Weighted AreaUnderPRC: 0.9351657408722318
Mean absolute error: 0.23200684717932468
Coverage of cases: 99.81226533166458
Instances selection time: 5.0
Test time: 24.0
Accumulative iteration time: 514.0
Weighted Recall: 0.8310387984981227
Weighted FalsePositiveRate: 0.1586865174769409
Kappa statistic: 0.6650618159912685
Training time: 2.0
		
Iteration: 44
Labeled set size: 1179
Unlabelled set size: 419
	
Mean region size: 81.88360450563204
Incorrectly Classified Instances: 16.270337922403005
Correctly Classified Instances: 83.729662077597
Weighted Precision: 0.856696665153607
Weighted AreaUnderROC: 0.9332056725343546
Root mean squared error: 0.3401588484067049
Relative absolute error: 45.75844745902669
Root relative squared error: 68.03176968134098
Weighted TruePositiveRate: 0.83729662077597
Weighted MatthewsCorrelation: 0.6947844102180791
Weighted FMeasure: 0.836052313793069
Iteration time: 7.0
Weighted AreaUnderPRC: 0.9353758896168227
Mean absolute error: 0.22879223729513345
Coverage of cases: 99.7496871088861
Instances selection time: 5.0
Test time: 23.0
Accumulative iteration time: 521.0
Weighted Recall: 0.83729662077597
Weighted FalsePositiveRate: 0.15319431424878843
Kappa statistic: 0.6772143539703381
Training time: 2.0
		
Iteration: 45
Labeled set size: 1199
Unlabelled set size: 399
	
Mean region size: 82.1964956195244
Incorrectly Classified Instances: 15.39424280350438
Correctly Classified Instances: 84.60575719649562
Weighted Precision: 0.8620886183630103
Weighted AreaUnderROC: 0.9350562309195501
Root mean squared error: 0.3352207430718004
Relative absolute error: 45.296134580096705
Root relative squared error: 67.04414861436008
Weighted TruePositiveRate: 0.8460575719649562
Weighted MatthewsCorrelation: 0.7088000531116909
Weighted FMeasure: 0.8451758288599558
Iteration time: 6.0
Weighted AreaUnderPRC: 0.9373001000419214
Mean absolute error: 0.22648067290048354
Coverage of cases: 99.87484355444306
Instances selection time: 5.0
Test time: 23.0
Accumulative iteration time: 527.0
Weighted Recall: 0.8460575719649562
Weighted FalsePositiveRate: 0.14541482077009818
Kappa statistic: 0.694287309643091
Training time: 1.0
		
Iteration: 46
Labeled set size: 1219
Unlabelled set size: 379
	
Mean region size: 81.97747183979975
Incorrectly Classified Instances: 15.456821026282853
Correctly Classified Instances: 84.54317897371715
Weighted Precision: 0.8608626281382064
Weighted AreaUnderROC: 0.9326924133384606
Root mean squared error: 0.33610644556124986
Relative absolute error: 45.36849236302805
Root relative squared error: 67.22128911224998
Weighted TruePositiveRate: 0.8454317897371715
Weighted MatthewsCorrelation: 0.706935833899496
Weighted FMeasure: 0.844591996862146
Iteration time: 6.0
Weighted AreaUnderPRC: 0.9348488855431771
Mean absolute error: 0.22684246181514023
Coverage of cases: 99.81226533166458
Instances selection time: 4.0
Test time: 24.0
Accumulative iteration time: 533.0
Weighted Recall: 0.8454317897371715
Weighted FalsePositiveRate: 0.14621266573092445
Kappa statistic: 0.692993004360413
Training time: 2.0
		
Time end:Tue Oct 31 14.09.20 EET 2017