Tue Oct 31 13.59.16 EET 2017
Dataset: kr-vs-kp
Test set size: 1598
Initial Labelled set size: 319
Initial Unlabelled set size: 1279
Batch mode: QBestBatchMode
Batch size: 20
Classifiers: J48-1cores
Scenario: PoolBasedSamplingScenario
Query strategy: MarginSamplingQueryStrategy-1cores
Time begining: Tue Oct 31 13.59.16 EET 2017
		
Iteration: 1
Labeled set size: 319
Unlabelled set size: 1279
	
Mean region size: 63.6107634543179
Incorrectly Classified Instances: 2.9411764705882355
Correctly Classified Instances: 97.05882352941177
Weighted Precision: 0.9705873118942034
Weighted AreaUnderROC: 0.9809607521523139
Root mean squared error: 0.16399007242206223
Relative absolute error: 9.192062630735954
Root relative squared error: 32.79801448441245
Weighted TruePositiveRate: 0.9705882352941176
Weighted MatthewsCorrelation: 0.9410542209887564
Weighted FMeasure: 0.9705873927403025
Iteration time: 9.0
Weighted AreaUnderPRC: 0.9731550839387939
Mean absolute error: 0.04596031315367977
Coverage of cases: 99.0613266583229
Instances selection time: 2.0
Test time: 3.0
Accumulative iteration time: 9.0
Weighted Recall: 0.9705882352941176
Weighted FalsePositiveRate: 0.029587929222120092
Kappa statistic: 0.9410534808631404
Training time: 7.0
		
Iteration: 2
Labeled set size: 339
Unlabelled set size: 1259
	
Mean region size: 63.23529411764706
Incorrectly Classified Instances: 3.7546933667083855
Correctly Classified Instances: 96.24530663329162
Weighted Precision: 0.962785302766287
Weighted AreaUnderROC: 0.977256496181948
Root mean squared error: 0.1821911949706878
Relative absolute error: 10.10317175523679
Root relative squared error: 36.43823899413756
Weighted TruePositiveRate: 0.9624530663329162
Weighted MatthewsCorrelation: 0.9251287138387235
Weighted FMeasure: 0.9624683741893644
Iteration time: 5.0
Weighted AreaUnderPRC: 0.9677275683487456
Mean absolute error: 0.05051585877618395
Coverage of cases: 98.74843554443054
Instances selection time: 1.0
Test time: 4.0
Accumulative iteration time: 14.0
Weighted Recall: 0.9624530663329162
Weighted FalsePositiveRate: 0.03656957773998405
Kappa statistic: 0.924838317720378
Training time: 4.0
		
Iteration: 3
Labeled set size: 359
Unlabelled set size: 1239
	
Mean region size: 63.798498122653314
Incorrectly Classified Instances: 2.252816020025031
Correctly Classified Instances: 97.74718397997496
Weighted Precision: 0.9775594282142733
Weighted AreaUnderROC: 0.9826088321391293
Root mean squared error: 0.14946347624896758
Relative absolute error: 7.940498175166523
Root relative squared error: 29.892695249793515
Weighted TruePositiveRate: 0.9774718397997497
Weighted MatthewsCorrelation: 0.954952537964763
Weighted FMeasure: 0.9774773177503505
Iteration time: 6.0
Weighted AreaUnderPRC: 0.9754821943605014
Mean absolute error: 0.039702490875832615
Coverage of cases: 99.18648310387985
Instances selection time: 2.0
Test time: 3.0
Accumulative iteration time: 20.0
Weighted Recall: 0.9774718397997497
Weighted FalsePositiveRate: 0.02205475784308634
Kappa statistic: 0.9548775226875201
Training time: 4.0
		
Iteration: 4
Labeled set size: 379
Unlabelled set size: 1219
	
Mean region size: 60.60700876095119
Incorrectly Classified Instances: 3.379224030037547
Correctly Classified Instances: 96.62077596996245
Weighted Precision: 0.9662455362729225
Weighted AreaUnderROC: 0.9764583545883332
Root mean squared error: 0.1785435378332977
Relative absolute error: 8.79584328895965
Root relative squared error: 35.70870756665954
Weighted TruePositiveRate: 0.9662077596996246
Weighted MatthewsCorrelation: 0.9323273681063537
Weighted FMeasure: 0.9662130089837895
Iteration time: 5.0
Weighted AreaUnderPRC: 0.9656249841108779
Mean absolute error: 0.043979216444798255
Coverage of cases: 98.43554443053817
Instances selection time: 1.0
Test time: 3.0
Accumulative iteration time: 25.0
Weighted Recall: 0.9662077596996246
Weighted FalsePositiveRate: 0.03359068716056111
Kappa statistic: 0.9323009911802688
Training time: 4.0
		
Iteration: 5
Labeled set size: 399
Unlabelled set size: 1199
	
Mean region size: 58.166458072590736
Incorrectly Classified Instances: 3.1914893617021276
Correctly Classified Instances: 96.80851063829788
Weighted Precision: 0.968738529517353
Weighted AreaUnderROC: 0.987881118496951
Root mean squared error: 0.17267665255882228
Relative absolute error: 8.905278423426115
Root relative squared error: 34.53533051176446
Weighted TruePositiveRate: 0.9680851063829787
Weighted MatthewsCorrelation: 0.9366387361860125
Weighted FMeasure: 0.9680450338483024
Iteration time: 8.0
Weighted AreaUnderPRC: 0.9833583749123864
Mean absolute error: 0.044526392117130574
Coverage of cases: 99.12390488110138
Instances selection time: 2.0
Test time: 3.0
Accumulative iteration time: 33.0
Weighted Recall: 0.9680851063829787
Weighted FalsePositiveRate: 0.033796409857288295
Kappa statistic: 0.9359281371218685
Training time: 6.0
		
Iteration: 6
Labeled set size: 419
Unlabelled set size: 1179
	
Mean region size: 54.22403003754693
Incorrectly Classified Instances: 2.753441802252816
Correctly Classified Instances: 97.24655819774718
Weighted Precision: 0.9734839857638931
Weighted AreaUnderROC: 0.9898132960814935
Root mean squared error: 0.16005543331457464
Relative absolute error: 7.2447507790234535
Root relative squared error: 32.01108666291493
Weighted TruePositiveRate: 0.9724655819774718
Weighted MatthewsCorrelation: 0.9457796318080787
Weighted FMeasure: 0.9724202962461357
Iteration time: 7.0
Weighted AreaUnderPRC: 0.9855228654155459
Mean absolute error: 0.03622375389511727
Coverage of cases: 99.0613266583229
Instances selection time: 2.0
Test time: 3.0
Accumulative iteration time: 40.0
Weighted Recall: 0.9724655819774718
Weighted FalsePositiveRate: 0.02979365191884728
Kappa statistic: 0.9447004028395389
Training time: 5.0
		
Iteration: 7
Labeled set size: 439
Unlabelled set size: 1159
	
Mean region size: 56.25782227784731
Incorrectly Classified Instances: 3.379224030037547
Correctly Classified Instances: 96.62077596996245
Weighted Precision: 0.9662077596996246
Weighted AreaUnderROC: 0.9757434017940528
Root mean squared error: 0.17941248518564812
Relative absolute error: 8.89542664261067
Root relative squared error: 35.882497037129625
Weighted TruePositiveRate: 0.9662077596996246
Weighted MatthewsCorrelation: 0.9322780389417756
Weighted FMeasure: 0.9662077596996246
Iteration time: 11.0
Weighted AreaUnderPRC: 0.9657677189076882
Mean absolute error: 0.04447713321305335
Coverage of cases: 97.99749687108886
Instances selection time: 1.0
Test time: 4.0
Accumulative iteration time: 51.0
Weighted Recall: 0.9662077596996246
Weighted FalsePositiveRate: 0.03392972075784884
Kappa statistic: 0.9322780389417757
Training time: 10.0
		
Iteration: 8
Labeled set size: 459
Unlabelled set size: 1139
	
Mean region size: 52.44055068836045
Incorrectly Classified Instances: 1.0638297872340425
Correctly Classified Instances: 98.93617021276596
Weighted Precision: 0.9894185733631583
Weighted AreaUnderROC: 0.9978826096169391
Root mean squared error: 0.09705799463578622
Relative absolute error: 3.8486294681538578
Root relative squared error: 19.411598927157243
Weighted TruePositiveRate: 0.9893617021276596
Weighted MatthewsCorrelation: 0.978731684429576
Weighted FMeasure: 0.989358657295221
Iteration time: 7.0
Weighted AreaUnderPRC: 0.9969290473711143
Mean absolute error: 0.01924314734076929
Coverage of cases: 99.7496871088861
Instances selection time: 1.0
Test time: 4.0
Accumulative iteration time: 58.0
Weighted Recall: 0.9893617021276596
Weighted FalsePositiveRate: 0.01119012915303216
Kappa statistic: 0.9786692756222313
Training time: 6.0
		
Iteration: 9
Labeled set size: 479
Unlabelled set size: 1119
	
Mean region size: 54.00500625782228
Incorrectly Classified Instances: 1.0638297872340425
Correctly Classified Instances: 98.93617021276596
Weighted Precision: 0.9894185733631583
Weighted AreaUnderROC: 0.9978292432173661
Root mean squared error: 0.09739488164951483
Relative absolute error: 3.9116953134474857
Root relative squared error: 19.478976329902967
Weighted TruePositiveRate: 0.9893617021276596
Weighted MatthewsCorrelation: 0.978731684429576
Weighted FMeasure: 0.989358657295221
Iteration time: 8.0
Weighted AreaUnderPRC: 0.9968793215750456
Mean absolute error: 0.01955847656723743
Coverage of cases: 99.7496871088861
Instances selection time: 2.0
Test time: 3.0
Accumulative iteration time: 66.0
Weighted Recall: 0.9893617021276596
Weighted FalsePositiveRate: 0.01119012915303216
Kappa statistic: 0.9786692756222313
Training time: 6.0
		
Iteration: 10
Labeled set size: 499
Unlabelled set size: 1099
	
Mean region size: 54.098873591989985
Incorrectly Classified Instances: 1.1264080100125156
Correctly Classified Instances: 98.87359198998749
Weighted Precision: 0.9888389103083539
Weighted AreaUnderROC: 0.9981933904144529
Root mean squared error: 0.09715299351020328
Relative absolute error: 3.519538450702399
Root relative squared error: 19.430598702040655
Weighted TruePositiveRate: 0.9887359198998749
Weighted MatthewsCorrelation: 0.9775215480731995
Weighted FMeasure: 0.9887314612394684
Iteration time: 8.0
Weighted AreaUnderPRC: 0.9973167417838444
Mean absolute error: 0.017597692253511994
Coverage of cases: 99.81226533166458
Instances selection time: 1.0
Test time: 3.0
Accumulative iteration time: 74.0
Weighted Recall: 0.9887359198998749
Weighted FalsePositiveRate: 0.011987974113858409
Kappa statistic: 0.9774106959145433
Training time: 7.0
		
Iteration: 11
Labeled set size: 519
Unlabelled set size: 1079
	
Mean region size: 54.00500625782228
Incorrectly Classified Instances: 1.0012515644555695
Correctly Classified Instances: 98.99874843554443
Weighted Precision: 0.9900588269814743
Weighted AreaUnderROC: 0.9982224280142206
Root mean squared error: 0.09385301282278541
Relative absolute error: 3.28780939544394
Root relative squared error: 18.77060256455708
Weighted TruePositiveRate: 0.9899874843554443
Weighted MatthewsCorrelation: 0.9800000461282953
Weighted FMeasure: 0.9899842607002943
Iteration time: 8.0
Weighted AreaUnderPRC: 0.9973470884032475
Mean absolute error: 0.0164390469772197
Coverage of cases: 99.81226533166458
Instances selection time: 2.0
Test time: 3.0
Accumulative iteration time: 82.0
Weighted Recall: 0.9899874843554443
Weighted FalsePositiveRate: 0.010618306590397726
Kappa statistic: 0.9799228890686223
Training time: 6.0
		
Iteration: 12
Labeled set size: 539
Unlabelled set size: 1059
	
Mean region size: 54.00500625782228
Incorrectly Classified Instances: 1.0012515644555695
Correctly Classified Instances: 98.99874843554443
Weighted Precision: 0.9900588269814743
Weighted AreaUnderROC: 0.9982224280142206
Root mean squared error: 0.09385301282278541
Relative absolute error: 3.28780939544394
Root relative squared error: 18.77060256455708
Weighted TruePositiveRate: 0.9899874843554443
Weighted MatthewsCorrelation: 0.9800000461282953
Weighted FMeasure: 0.9899842607002943
Iteration time: 8.0
Weighted AreaUnderPRC: 0.9973470884032475
Mean absolute error: 0.0164390469772197
Coverage of cases: 99.81226533166458
Instances selection time: 1.0
Test time: 3.0
Accumulative iteration time: 90.0
Weighted Recall: 0.9899874843554443
Weighted FalsePositiveRate: 0.010618306590397726
Kappa statistic: 0.9799228890686223
Training time: 7.0
		
Iteration: 13
Labeled set size: 559
Unlabelled set size: 1039
	
Mean region size: 54.00500625782228
Incorrectly Classified Instances: 1.7521902377972465
Correctly Classified Instances: 98.24780976220275
Weighted Precision: 0.9828239704649732
Weighted AreaUnderROC: 0.9896900824824792
Root mean squared error: 0.12774104567182268
Relative absolute error: 4.789686742127299
Root relative squared error: 25.548209134364537
Weighted TruePositiveRate: 0.9824780976220275
Weighted MatthewsCorrelation: 0.9652095618240208
Weighted FMeasure: 0.9824638584874118
Iteration time: 8.0
Weighted AreaUnderPRC: 0.9854098183367388
Mean absolute error: 0.023948433710636496
Coverage of cases: 99.0613266583229
Instances selection time: 2.0
Test time: 3.0
Accumulative iteration time: 98.0
Weighted Recall: 0.9824780976220275
Weighted FalsePositiveRate: 0.01883631173116182
Kappa statistic: 0.9648412023642453
Training time: 6.0
		
Iteration: 14
Labeled set size: 579
Unlabelled set size: 1019
	
Mean region size: 53.37922403003755
Incorrectly Classified Instances: 1.7521902377972465
Correctly Classified Instances: 98.24780976220275
Weighted Precision: 0.9828239704649732
Weighted AreaUnderROC: 0.9898941304808471
Root mean squared error: 0.12731904998533022
Relative absolute error: 4.54031487691985
Root relative squared error: 25.463809997066043
Weighted TruePositiveRate: 0.9824780976220275
Weighted MatthewsCorrelation: 0.9652095618240208
Weighted FMeasure: 0.9824638584874118
Iteration time: 9.0
Weighted AreaUnderPRC: 0.9856033715460136
Mean absolute error: 0.02270157438459925
Coverage of cases: 99.0613266583229
Instances selection time: 2.0
Test time: 3.0
Accumulative iteration time: 107.0
Weighted Recall: 0.9824780976220275
Weighted FalsePositiveRate: 0.01883631173116182
Kappa statistic: 0.9648412023642453
Training time: 7.0
		
Iteration: 15
Labeled set size: 599
Unlabelled set size: 999
	
Mean region size: 53.37922403003755
Incorrectly Classified Instances: 1.7521902377972465
Correctly Classified Instances: 98.24780976220275
Weighted Precision: 0.9828239704649732
Weighted AreaUnderROC: 0.9898941304808471
Root mean squared error: 0.12731904998533022
Relative absolute error: 4.54031487691985
Root relative squared error: 25.463809997066043
Weighted TruePositiveRate: 0.9824780976220275
Weighted MatthewsCorrelation: 0.9652095618240208
Weighted FMeasure: 0.9824638584874118
Iteration time: 8.0
Weighted AreaUnderPRC: 0.9856033715460136
Mean absolute error: 0.02270157438459925
Coverage of cases: 99.0613266583229
Instances selection time: 1.0
Test time: 4.0
Accumulative iteration time: 115.0
Weighted Recall: 0.9824780976220275
Weighted FalsePositiveRate: 0.01883631173116182
Kappa statistic: 0.9648412023642453
Training time: 7.0
		
Iteration: 16
Labeled set size: 619
Unlabelled set size: 979
	
Mean region size: 53.37922403003755
Incorrectly Classified Instances: 1.7521902377972465
Correctly Classified Instances: 98.24780976220275
Weighted Precision: 0.9828239704649732
Weighted AreaUnderROC: 0.9898941304808471
Root mean squared error: 0.12731904998533022
Relative absolute error: 4.54031487691985
Root relative squared error: 25.463809997066043
Weighted TruePositiveRate: 0.9824780976220275
Weighted MatthewsCorrelation: 0.9652095618240208
Weighted FMeasure: 0.9824638584874118
Iteration time: 9.0
Weighted AreaUnderPRC: 0.9856033715460136
Mean absolute error: 0.02270157438459925
Coverage of cases: 99.0613266583229
Instances selection time: 2.0
Test time: 3.0
Accumulative iteration time: 124.0
Weighted Recall: 0.9824780976220275
Weighted FalsePositiveRate: 0.01883631173116182
Kappa statistic: 0.9648412023642453
Training time: 7.0
		
Iteration: 17
Labeled set size: 639
Unlabelled set size: 959
	
Mean region size: 53.37922403003755
Incorrectly Classified Instances: 1.7521902377972465
Correctly Classified Instances: 98.24780976220275
Weighted Precision: 0.9828239704649732
Weighted AreaUnderROC: 0.9898941304808471
Root mean squared error: 0.12731904998533022
Relative absolute error: 4.54031487691985
Root relative squared error: 25.463809997066043
Weighted TruePositiveRate: 0.9824780976220275
Weighted MatthewsCorrelation: 0.9652095618240208
Weighted FMeasure: 0.9824638584874118
Iteration time: 9.0
Weighted AreaUnderPRC: 0.9856033715460136
Mean absolute error: 0.02270157438459925
Coverage of cases: 99.0613266583229
Instances selection time: 1.0
Test time: 3.0
Accumulative iteration time: 133.0
Weighted Recall: 0.9824780976220275
Weighted FalsePositiveRate: 0.01883631173116182
Kappa statistic: 0.9648412023642453
Training time: 8.0
		
Iteration: 18
Labeled set size: 659
Unlabelled set size: 939
	
Mean region size: 53.37922403003755
Incorrectly Classified Instances: 1.7521902377972465
Correctly Classified Instances: 98.24780976220275
Weighted Precision: 0.9828239704649732
Weighted AreaUnderROC: 0.9898941304808471
Root mean squared error: 0.12731904998533022
Relative absolute error: 4.54031487691985
Root relative squared error: 25.463809997066043
Weighted TruePositiveRate: 0.9824780976220275
Weighted MatthewsCorrelation: 0.9652095618240208
Weighted FMeasure: 0.9824638584874118
Iteration time: 9.0
Weighted AreaUnderPRC: 0.9856033715460136
Mean absolute error: 0.02270157438459925
Coverage of cases: 99.0613266583229
Instances selection time: 1.0
Test time: 3.0
Accumulative iteration time: 142.0
Weighted Recall: 0.9824780976220275
Weighted FalsePositiveRate: 0.01883631173116182
Kappa statistic: 0.9648412023642453
Training time: 8.0
		
Iteration: 19
Labeled set size: 679
Unlabelled set size: 919
	
Mean region size: 53.37922403003755
Incorrectly Classified Instances: 1.7521902377972465
Correctly Classified Instances: 98.24780976220275
Weighted Precision: 0.9828239704649732
Weighted AreaUnderROC: 0.9898941304808471
Root mean squared error: 0.12731904998533022
Relative absolute error: 4.54031487691985
Root relative squared error: 25.463809997066043
Weighted TruePositiveRate: 0.9824780976220275
Weighted MatthewsCorrelation: 0.9652095618240208
Weighted FMeasure: 0.9824638584874118
Iteration time: 9.0
Weighted AreaUnderPRC: 0.9856033715460136
Mean absolute error: 0.02270157438459925
Coverage of cases: 99.0613266583229
Instances selection time: 1.0
Test time: 3.0
Accumulative iteration time: 151.0
Weighted Recall: 0.9824780976220275
Weighted FalsePositiveRate: 0.01883631173116182
Kappa statistic: 0.9648412023642453
Training time: 8.0
		
Iteration: 20
Labeled set size: 699
Unlabelled set size: 899
	
Mean region size: 53.37922403003755
Incorrectly Classified Instances: 1.7521902377972465
Correctly Classified Instances: 98.24780976220275
Weighted Precision: 0.9828239704649732
Weighted AreaUnderROC: 0.9898941304808471
Root mean squared error: 0.12731904998533022
Relative absolute error: 4.54031487691985
Root relative squared error: 25.463809997066043
Weighted TruePositiveRate: 0.9824780976220275
Weighted MatthewsCorrelation: 0.9652095618240208
Weighted FMeasure: 0.9824638584874118
Iteration time: 9.0
Weighted AreaUnderPRC: 0.9856033715460136
Mean absolute error: 0.02270157438459925
Coverage of cases: 99.0613266583229
Instances selection time: 1.0
Test time: 3.0
Accumulative iteration time: 160.0
Weighted Recall: 0.9824780976220275
Weighted FalsePositiveRate: 0.01883631173116182
Kappa statistic: 0.9648412023642453
Training time: 8.0
		
Iteration: 21
Labeled set size: 719
Unlabelled set size: 879
	
Mean region size: 53.37922403003755
Incorrectly Classified Instances: 1.7521902377972465
Correctly Classified Instances: 98.24780976220275
Weighted Precision: 0.9828239704649732
Weighted AreaUnderROC: 0.9898941304808471
Root mean squared error: 0.12731904998533022
Relative absolute error: 4.54031487691985
Root relative squared error: 25.463809997066043
Weighted TruePositiveRate: 0.9824780976220275
Weighted MatthewsCorrelation: 0.9652095618240208
Weighted FMeasure: 0.9824638584874118
Iteration time: 9.0
Weighted AreaUnderPRC: 0.9856033715460136
Mean absolute error: 0.02270157438459925
Coverage of cases: 99.0613266583229
Instances selection time: 1.0
Test time: 4.0
Accumulative iteration time: 169.0
Weighted Recall: 0.9824780976220275
Weighted FalsePositiveRate: 0.01883631173116182
Kappa statistic: 0.9648412023642453
Training time: 8.0
		
Iteration: 22
Labeled set size: 739
Unlabelled set size: 859
	
Mean region size: 53.37922403003755
Incorrectly Classified Instances: 1.7521902377972465
Correctly Classified Instances: 98.24780976220275
Weighted Precision: 0.9828239704649732
Weighted AreaUnderROC: 0.9898941304808471
Root mean squared error: 0.12731904998533022
Relative absolute error: 4.54031487691985
Root relative squared error: 25.463809997066043
Weighted TruePositiveRate: 0.9824780976220275
Weighted MatthewsCorrelation: 0.9652095618240208
Weighted FMeasure: 0.9824638584874118
Iteration time: 9.0
Weighted AreaUnderPRC: 0.9856033715460136
Mean absolute error: 0.02270157438459925
Coverage of cases: 99.0613266583229
Instances selection time: 1.0
Test time: 3.0
Accumulative iteration time: 178.0
Weighted Recall: 0.9824780976220275
Weighted FalsePositiveRate: 0.01883631173116182
Kappa statistic: 0.9648412023642453
Training time: 8.0
		
Iteration: 23
Labeled set size: 759
Unlabelled set size: 839
	
Mean region size: 53.37922403003755
Incorrectly Classified Instances: 1.7521902377972465
Correctly Classified Instances: 98.24780976220275
Weighted Precision: 0.9828239704649732
Weighted AreaUnderROC: 0.9898941304808471
Root mean squared error: 0.12731904998533022
Relative absolute error: 4.54031487691985
Root relative squared error: 25.463809997066043
Weighted TruePositiveRate: 0.9824780976220275
Weighted MatthewsCorrelation: 0.9652095618240208
Weighted FMeasure: 0.9824638584874118
Iteration time: 10.0
Weighted AreaUnderPRC: 0.9856033715460136
Mean absolute error: 0.02270157438459925
Coverage of cases: 99.0613266583229
Instances selection time: 2.0
Test time: 3.0
Accumulative iteration time: 188.0
Weighted Recall: 0.9824780976220275
Weighted FalsePositiveRate: 0.01883631173116182
Kappa statistic: 0.9648412023642453
Training time: 8.0
		
Iteration: 24
Labeled set size: 779
Unlabelled set size: 819
	
Mean region size: 53.37922403003755
Incorrectly Classified Instances: 1.7521902377972465
Correctly Classified Instances: 98.24780976220275
Weighted Precision: 0.9828239704649732
Weighted AreaUnderROC: 0.9898941304808471
Root mean squared error: 0.12731904998533022
Relative absolute error: 4.54031487691985
Root relative squared error: 25.463809997066043
Weighted TruePositiveRate: 0.9824780976220275
Weighted MatthewsCorrelation: 0.9652095618240208
Weighted FMeasure: 0.9824638584874118
Iteration time: 15.0
Weighted AreaUnderPRC: 0.9856033715460136
Mean absolute error: 0.02270157438459925
Coverage of cases: 99.0613266583229
Instances selection time: 1.0
Test time: 3.0
Accumulative iteration time: 203.0
Weighted Recall: 0.9824780976220275
Weighted FalsePositiveRate: 0.01883631173116182
Kappa statistic: 0.9648412023642453
Training time: 14.0
		
Iteration: 25
Labeled set size: 799
Unlabelled set size: 799
	
Mean region size: 53.37922403003755
Incorrectly Classified Instances: 1.7521902377972465
Correctly Classified Instances: 98.24780976220275
Weighted Precision: 0.9828239704649732
Weighted AreaUnderROC: 0.9898941304808471
Root mean squared error: 0.12731904998533022
Relative absolute error: 4.54031487691985
Root relative squared error: 25.463809997066043
Weighted TruePositiveRate: 0.9824780976220275
Weighted MatthewsCorrelation: 0.9652095618240208
Weighted FMeasure: 0.9824638584874118
Iteration time: 15.0
Weighted AreaUnderPRC: 0.9856033715460136
Mean absolute error: 0.02270157438459925
Coverage of cases: 99.0613266583229
Instances selection time: 1.0
Test time: 3.0
Accumulative iteration time: 218.0
Weighted Recall: 0.9824780976220275
Weighted FalsePositiveRate: 0.01883631173116182
Kappa statistic: 0.9648412023642453
Training time: 14.0
		
Iteration: 26
Labeled set size: 819
Unlabelled set size: 779
	
Mean region size: 53.37922403003755
Incorrectly Classified Instances: 1.7521902377972465
Correctly Classified Instances: 98.24780976220275
Weighted Precision: 0.9828239704649732
Weighted AreaUnderROC: 0.9898941304808471
Root mean squared error: 0.12731904998533022
Relative absolute error: 4.54031487691985
Root relative squared error: 25.463809997066043
Weighted TruePositiveRate: 0.9824780976220275
Weighted MatthewsCorrelation: 0.9652095618240208
Weighted FMeasure: 0.9824638584874118
Iteration time: 15.0
Weighted AreaUnderPRC: 0.9856033715460136
Mean absolute error: 0.02270157438459925
Coverage of cases: 99.0613266583229
Instances selection time: 1.0
Test time: 4.0
Accumulative iteration time: 233.0
Weighted Recall: 0.9824780976220275
Weighted FalsePositiveRate: 0.01883631173116182
Kappa statistic: 0.9648412023642453
Training time: 14.0
		
Iteration: 27
Labeled set size: 839
Unlabelled set size: 759
	
Mean region size: 53.37922403003755
Incorrectly Classified Instances: 1.7521902377972465
Correctly Classified Instances: 98.24780976220275
Weighted Precision: 0.9828239704649732
Weighted AreaUnderROC: 0.9898941304808471
Root mean squared error: 0.12731904998533022
Relative absolute error: 4.54031487691985
Root relative squared error: 25.463809997066043
Weighted TruePositiveRate: 0.9824780976220275
Weighted MatthewsCorrelation: 0.9652095618240208
Weighted FMeasure: 0.9824638584874118
Iteration time: 15.0
Weighted AreaUnderPRC: 0.9856033715460136
Mean absolute error: 0.02270157438459925
Coverage of cases: 99.0613266583229
Instances selection time: 1.0
Test time: 4.0
Accumulative iteration time: 248.0
Weighted Recall: 0.9824780976220275
Weighted FalsePositiveRate: 0.01883631173116182
Kappa statistic: 0.9648412023642453
Training time: 14.0
		
Iteration: 28
Labeled set size: 859
Unlabelled set size: 739
	
Mean region size: 53.37922403003755
Incorrectly Classified Instances: 1.7521902377972465
Correctly Classified Instances: 98.24780976220275
Weighted Precision: 0.9828239704649732
Weighted AreaUnderROC: 0.9898941304808471
Root mean squared error: 0.12731904998533022
Relative absolute error: 4.54031487691985
Root relative squared error: 25.463809997066043
Weighted TruePositiveRate: 0.9824780976220275
Weighted MatthewsCorrelation: 0.9652095618240208
Weighted FMeasure: 0.9824638584874118
Iteration time: 16.0
Weighted AreaUnderPRC: 0.9856033715460136
Mean absolute error: 0.02270157438459925
Coverage of cases: 99.0613266583229
Instances selection time: 1.0
Test time: 3.0
Accumulative iteration time: 264.0
Weighted Recall: 0.9824780976220275
Weighted FalsePositiveRate: 0.01883631173116182
Kappa statistic: 0.9648412023642453
Training time: 15.0
		
Iteration: 29
Labeled set size: 879
Unlabelled set size: 719
	
Mean region size: 53.37922403003755
Incorrectly Classified Instances: 1.7521902377972465
Correctly Classified Instances: 98.24780976220275
Weighted Precision: 0.9828239704649732
Weighted AreaUnderROC: 0.9898941304808471
Root mean squared error: 0.12731904998533022
Relative absolute error: 4.54031487691985
Root relative squared error: 25.463809997066043
Weighted TruePositiveRate: 0.9824780976220275
Weighted MatthewsCorrelation: 0.9652095618240208
Weighted FMeasure: 0.9824638584874118
Iteration time: 16.0
Weighted AreaUnderPRC: 0.9856033715460136
Mean absolute error: 0.02270157438459925
Coverage of cases: 99.0613266583229
Instances selection time: 1.0
Test time: 3.0
Accumulative iteration time: 280.0
Weighted Recall: 0.9824780976220275
Weighted FalsePositiveRate: 0.01883631173116182
Kappa statistic: 0.9648412023642453
Training time: 15.0
		
Iteration: 30
Labeled set size: 899
Unlabelled set size: 699
	
Mean region size: 53.37922403003755
Incorrectly Classified Instances: 1.7521902377972465
Correctly Classified Instances: 98.24780976220275
Weighted Precision: 0.9828239704649732
Weighted AreaUnderROC: 0.9898941304808471
Root mean squared error: 0.12731904998533022
Relative absolute error: 4.54031487691985
Root relative squared error: 25.463809997066043
Weighted TruePositiveRate: 0.9824780976220275
Weighted MatthewsCorrelation: 0.9652095618240208
Weighted FMeasure: 0.9824638584874118
Iteration time: 16.0
Weighted AreaUnderPRC: 0.9856033715460136
Mean absolute error: 0.02270157438459925
Coverage of cases: 99.0613266583229
Instances selection time: 1.0
Test time: 3.0
Accumulative iteration time: 296.0
Weighted Recall: 0.9824780976220275
Weighted FalsePositiveRate: 0.01883631173116182
Kappa statistic: 0.9648412023642453
Training time: 15.0
		
Iteration: 31
Labeled set size: 919
Unlabelled set size: 679
	
Mean region size: 53.37922403003755
Incorrectly Classified Instances: 1.7521902377972465
Correctly Classified Instances: 98.24780976220275
Weighted Precision: 0.9828239704649732
Weighted AreaUnderROC: 0.9898941304808471
Root mean squared error: 0.12731904998533022
Relative absolute error: 4.54031487691985
Root relative squared error: 25.463809997066043
Weighted TruePositiveRate: 0.9824780976220275
Weighted MatthewsCorrelation: 0.9652095618240208
Weighted FMeasure: 0.9824638584874118
Iteration time: 16.0
Weighted AreaUnderPRC: 0.9856033715460136
Mean absolute error: 0.02270157438459925
Coverage of cases: 99.0613266583229
Instances selection time: 1.0
Test time: 3.0
Accumulative iteration time: 312.0
Weighted Recall: 0.9824780976220275
Weighted FalsePositiveRate: 0.01883631173116182
Kappa statistic: 0.9648412023642453
Training time: 15.0
		
Iteration: 32
Labeled set size: 939
Unlabelled set size: 659
	
Mean region size: 53.37922403003755
Incorrectly Classified Instances: 1.7521902377972465
Correctly Classified Instances: 98.24780976220275
Weighted Precision: 0.9828239704649732
Weighted AreaUnderROC: 0.9898941304808471
Root mean squared error: 0.12731904998533022
Relative absolute error: 4.54031487691985
Root relative squared error: 25.463809997066043
Weighted TruePositiveRate: 0.9824780976220275
Weighted MatthewsCorrelation: 0.9652095618240208
Weighted FMeasure: 0.9824638584874118
Iteration time: 17.0
Weighted AreaUnderPRC: 0.9856033715460136
Mean absolute error: 0.02270157438459925
Coverage of cases: 99.0613266583229
Instances selection time: 1.0
Test time: 3.0
Accumulative iteration time: 329.0
Weighted Recall: 0.9824780976220275
Weighted FalsePositiveRate: 0.01883631173116182
Kappa statistic: 0.9648412023642453
Training time: 16.0
		
Iteration: 33
Labeled set size: 959
Unlabelled set size: 639
	
Mean region size: 53.37922403003755
Incorrectly Classified Instances: 1.7521902377972465
Correctly Classified Instances: 98.24780976220275
Weighted Precision: 0.9828239704649732
Weighted AreaUnderROC: 0.9898941304808471
Root mean squared error: 0.12731904998533022
Relative absolute error: 4.54031487691985
Root relative squared error: 25.463809997066043
Weighted TruePositiveRate: 0.9824780976220275
Weighted MatthewsCorrelation: 0.9652095618240208
Weighted FMeasure: 0.9824638584874118
Iteration time: 17.0
Weighted AreaUnderPRC: 0.9856033715460136
Mean absolute error: 0.02270157438459925
Coverage of cases: 99.0613266583229
Instances selection time: 1.0
Test time: 3.0
Accumulative iteration time: 346.0
Weighted Recall: 0.9824780976220275
Weighted FalsePositiveRate: 0.01883631173116182
Kappa statistic: 0.9648412023642453
Training time: 16.0
		
Iteration: 34
Labeled set size: 979
Unlabelled set size: 619
	
Mean region size: 53.37922403003755
Incorrectly Classified Instances: 1.7521902377972465
Correctly Classified Instances: 98.24780976220275
Weighted Precision: 0.9828239704649732
Weighted AreaUnderROC: 0.9898721560810227
Root mean squared error: 0.12734205530517562
Relative absolute error: 4.57916552356148
Root relative squared error: 25.468411061035123
Weighted TruePositiveRate: 0.9824780976220275
Weighted MatthewsCorrelation: 0.9652095618240208
Weighted FMeasure: 0.9824638584874118
Iteration time: 18.0
Weighted AreaUnderPRC: 0.985570444026047
Mean absolute error: 0.0228958276178074
Coverage of cases: 99.0613266583229
Instances selection time: 1.0
Test time: 3.0
Accumulative iteration time: 364.0
Weighted Recall: 0.9824780976220275
Weighted FalsePositiveRate: 0.01883631173116182
Kappa statistic: 0.9648412023642453
Training time: 17.0
		
Iteration: 35
Labeled set size: 999
Unlabelled set size: 599
	
Mean region size: 53.37922403003755
Incorrectly Classified Instances: 1.7521902377972465
Correctly Classified Instances: 98.24780976220275
Weighted Precision: 0.9828239704649732
Weighted AreaUnderROC: 0.9898721560810227
Root mean squared error: 0.1273048643333126
Relative absolute error: 4.5176012997632045
Root relative squared error: 25.46097286666252
Weighted TruePositiveRate: 0.9824780976220275
Weighted MatthewsCorrelation: 0.9652095618240208
Weighted FMeasure: 0.9824638584874118
Iteration time: 18.0
Weighted AreaUnderPRC: 0.985570444026047
Mean absolute error: 0.022588006498816024
Coverage of cases: 99.0613266583229
Instances selection time: 1.0
Test time: 3.0
Accumulative iteration time: 382.0
Weighted Recall: 0.9824780976220275
Weighted FalsePositiveRate: 0.01883631173116182
Kappa statistic: 0.9648412023642453
Training time: 17.0
		
Iteration: 36
Labeled set size: 1019
Unlabelled set size: 579
	
Mean region size: 53.37922403003755
Incorrectly Classified Instances: 1.7521902377972465
Correctly Classified Instances: 98.24780976220275
Weighted Precision: 0.9828239704649732
Weighted AreaUnderROC: 0.9898721560810227
Root mean squared error: 0.1273048643333126
Relative absolute error: 4.5176012997632045
Root relative squared error: 25.46097286666252
Weighted TruePositiveRate: 0.9824780976220275
Weighted MatthewsCorrelation: 0.9652095618240208
Weighted FMeasure: 0.9824638584874118
Iteration time: 19.0
Weighted AreaUnderPRC: 0.985570444026047
Mean absolute error: 0.022588006498816024
Coverage of cases: 99.0613266583229
Instances selection time: 1.0
Test time: 3.0
Accumulative iteration time: 401.0
Weighted Recall: 0.9824780976220275
Weighted FalsePositiveRate: 0.01883631173116182
Kappa statistic: 0.9648412023642453
Training time: 18.0
		
Iteration: 37
Labeled set size: 1039
Unlabelled set size: 559
	
Mean region size: 53.37922403003755
Incorrectly Classified Instances: 1.7521902377972465
Correctly Classified Instances: 98.24780976220275
Weighted Precision: 0.9828239704649732
Weighted AreaUnderROC: 0.9898721560810227
Root mean squared error: 0.1273048643333126
Relative absolute error: 4.5176012997632045
Root relative squared error: 25.46097286666252
Weighted TruePositiveRate: 0.9824780976220275
Weighted MatthewsCorrelation: 0.9652095618240208
Weighted FMeasure: 0.9824638584874118
Iteration time: 19.0
Weighted AreaUnderPRC: 0.985570444026047
Mean absolute error: 0.022588006498816024
Coverage of cases: 99.0613266583229
Instances selection time: 1.0
Test time: 3.0
Accumulative iteration time: 420.0
Weighted Recall: 0.9824780976220275
Weighted FalsePositiveRate: 0.01883631173116182
Kappa statistic: 0.9648412023642453
Training time: 18.0
		
Iteration: 38
Labeled set size: 1059
Unlabelled set size: 539
	
Mean region size: 53.37922403003755
Incorrectly Classified Instances: 1.7521902377972465
Correctly Classified Instances: 98.24780976220275
Weighted Precision: 0.9828239704649732
Weighted AreaUnderROC: 0.9898721560810227
Root mean squared error: 0.1273048643333126
Relative absolute error: 4.5176012997632045
Root relative squared error: 25.46097286666252
Weighted TruePositiveRate: 0.9824780976220275
Weighted MatthewsCorrelation: 0.9652095618240208
Weighted FMeasure: 0.9824638584874118
Iteration time: 19.0
Weighted AreaUnderPRC: 0.985570444026047
Mean absolute error: 0.022588006498816024
Coverage of cases: 99.0613266583229
Instances selection time: 1.0
Test time: 3.0
Accumulative iteration time: 439.0
Weighted Recall: 0.9824780976220275
Weighted FalsePositiveRate: 0.01883631173116182
Kappa statistic: 0.9648412023642453
Training time: 18.0
		
Iteration: 39
Labeled set size: 1079
Unlabelled set size: 519
	
Mean region size: 53.37922403003755
Incorrectly Classified Instances: 1.7521902377972465
Correctly Classified Instances: 98.24780976220275
Weighted Precision: 0.9828239704649732
Weighted AreaUnderROC: 0.9898721560810227
Root mean squared error: 0.1273048643333126
Relative absolute error: 4.5176012997632045
Root relative squared error: 25.46097286666252
Weighted TruePositiveRate: 0.9824780976220275
Weighted MatthewsCorrelation: 0.9652095618240208
Weighted FMeasure: 0.9824638584874118
Iteration time: 19.0
Weighted AreaUnderPRC: 0.985570444026047
Mean absolute error: 0.022588006498816024
Coverage of cases: 99.0613266583229
Instances selection time: 1.0
Test time: 4.0
Accumulative iteration time: 458.0
Weighted Recall: 0.9824780976220275
Weighted FalsePositiveRate: 0.01883631173116182
Kappa statistic: 0.9648412023642453
Training time: 18.0
		
Iteration: 40
Labeled set size: 1099
Unlabelled set size: 499
	
Mean region size: 53.37922403003755
Incorrectly Classified Instances: 1.7521902377972465
Correctly Classified Instances: 98.24780976220275
Weighted Precision: 0.9828239704649732
Weighted AreaUnderROC: 0.9898721560810227
Root mean squared error: 0.1273048643333126
Relative absolute error: 4.5176012997632045
Root relative squared error: 25.46097286666252
Weighted TruePositiveRate: 0.9824780976220275
Weighted MatthewsCorrelation: 0.9652095618240208
Weighted FMeasure: 0.9824638584874118
Iteration time: 19.0
Weighted AreaUnderPRC: 0.985570444026047
Mean absolute error: 0.022588006498816024
Coverage of cases: 99.0613266583229
Instances selection time: 1.0
Test time: 4.0
Accumulative iteration time: 477.0
Weighted Recall: 0.9824780976220275
Weighted FalsePositiveRate: 0.01883631173116182
Kappa statistic: 0.9648412023642453
Training time: 18.0
		
Iteration: 41
Labeled set size: 1119
Unlabelled set size: 479
	
Mean region size: 53.44180225281602
Incorrectly Classified Instances: 2.5031289111389237
Correctly Classified Instances: 97.49687108886107
Weighted Precision: 0.9750952684779557
Weighted AreaUnderROC: 0.9888456376892348
Root mean squared error: 0.15017126694146624
Relative absolute error: 5.905300836464784
Root relative squared error: 30.034253388293248
Weighted TruePositiveRate: 0.9749687108886108
Weighted MatthewsCorrelation: 0.9499425304093955
Weighted FMeasure: 0.9749568745924049
Iteration time: 19.0
Weighted AreaUnderPRC: 0.984494886022016
Mean absolute error: 0.02952650418232392
Coverage of cases: 99.0613266583229
Instances selection time: 1.0
Test time: 3.0
Accumulative iteration time: 496.0
Weighted Recall: 0.9749687108886108
Weighted FalsePositiveRate: 0.025924204880966813
Kappa statistic: 0.9497958689980067
Training time: 18.0
		
Iteration: 42
Labeled set size: 1139
Unlabelled set size: 459
	
Mean region size: 52.972465581977474
Incorrectly Classified Instances: 2.3779724655819776
Correctly Classified Instances: 97.62202753441802
Weighted Precision: 0.9763119325577786
Weighted AreaUnderROC: 0.9898054480815565
Root mean squared error: 0.14583266170742948
Relative absolute error: 5.53400338131251
Root relative squared error: 29.166532341485897
Weighted TruePositiveRate: 0.9762202753441802
Weighted MatthewsCorrelation: 0.9524194747052579
Weighted FMeasure: 0.9762108626166552
Iteration time: 20.0
Weighted AreaUnderPRC: 0.9854469726753171
Mean absolute error: 0.02767001690656255
Coverage of cases: 99.0613266583229
Instances selection time: 1.0
Test time: 3.0
Accumulative iteration time: 516.0
Weighted Recall: 0.9762202753441802
Weighted FalsePositiveRate: 0.024554537357506134
Kappa statistic: 0.9523114691529246
Training time: 19.0
		
Iteration: 43
Labeled set size: 1159
Unlabelled set size: 439
	
Mean region size: 52.972465581977474
Incorrectly Classified Instances: 2.3779724655819776
Correctly Classified Instances: 97.62202753441802
Weighted Precision: 0.9763119325577786
Weighted AreaUnderROC: 0.9956639800346881
Root mean squared error: 0.14520180112231307
Relative absolute error: 5.79793874269111
Root relative squared error: 29.040360224462614
Weighted TruePositiveRate: 0.9762202753441802
Weighted MatthewsCorrelation: 0.9524194747052579
Weighted FMeasure: 0.9762108626166552
Iteration time: 20.0
Weighted AreaUnderPRC: 0.9935316717815901
Mean absolute error: 0.02898969371345555
Coverage of cases: 99.0613266583229
Instances selection time: 1.0
Test time: 3.0
Accumulative iteration time: 536.0
Weighted Recall: 0.9762202753441802
Weighted FalsePositiveRate: 0.024554537357506134
Kappa statistic: 0.9523114691529246
Training time: 19.0
		
Iteration: 44
Labeled set size: 1179
Unlabelled set size: 419
	
Mean region size: 53.5982478097622
Incorrectly Classified Instances: 2.127659574468085
Correctly Classified Instances: 97.87234042553192
Weighted Precision: 0.9787810657628492
Weighted AreaUnderROC: 0.9980113168159095
Root mean squared error: 0.13342232974334456
Relative absolute error: 5.227605691822333
Root relative squared error: 26.68446594866891
Weighted TruePositiveRate: 0.9787234042553191
Weighted MatthewsCorrelation: 0.9574276575179014
Weighted FMeasure: 0.9787276770863993
Iteration time: 21.0
Weighted AreaUnderPRC: 0.9972250046668779
Mean absolute error: 0.026138028459111666
Coverage of cases: 99.81226533166458
Instances selection time: 0.0
Test time: 4.0
Accumulative iteration time: 557.0
Weighted Recall: 0.9787234042553191
Weighted FalsePositiveRate: 0.02091111271781748
Kappa statistic: 0.9573795131104357
Training time: 21.0
		
Iteration: 45
Labeled set size: 1199
Unlabelled set size: 399
	
Mean region size: 53.5982478097622
Incorrectly Classified Instances: 2.127659574468085
Correctly Classified Instances: 97.87234042553192
Weighted Precision: 0.9787810657628492
Weighted AreaUnderROC: 0.9980835184153318
Root mean squared error: 0.13374237387400376
Relative absolute error: 5.244756760287559
Root relative squared error: 26.74847477480075
Weighted TruePositiveRate: 0.9787234042553191
Weighted MatthewsCorrelation: 0.9574276575179014
Weighted FMeasure: 0.9787276770863993
Iteration time: 20.0
Weighted AreaUnderPRC: 0.9971769414115028
Mean absolute error: 0.026223783801437795
Coverage of cases: 99.81226533166458
Instances selection time: 1.0
Test time: 3.0
Accumulative iteration time: 577.0
Weighted Recall: 0.9787234042553191
Weighted FalsePositiveRate: 0.02091111271781748
Kappa statistic: 0.9573795131104357
Training time: 19.0
		
Iteration: 46
Labeled set size: 1219
Unlabelled set size: 379
	
Mean region size: 53.5982478097622
Incorrectly Classified Instances: 2.127659574468085
Correctly Classified Instances: 97.87234042553192
Weighted Precision: 0.9787810657628492
Weighted AreaUnderROC: 0.9980835184153318
Root mean squared error: 0.13374237387400376
Relative absolute error: 5.244756760287559
Root relative squared error: 26.74847477480075
Weighted TruePositiveRate: 0.9787234042553191
Weighted MatthewsCorrelation: 0.9574276575179014
Weighted FMeasure: 0.9787276770863993
Iteration time: 21.0
Weighted AreaUnderPRC: 0.9971769414115028
Mean absolute error: 0.026223783801437795
Coverage of cases: 99.81226533166458
Instances selection time: 1.0
Test time: 3.0
Accumulative iteration time: 598.0
Weighted Recall: 0.9787234042553191
Weighted FalsePositiveRate: 0.02091111271781748
Kappa statistic: 0.9573795131104357
Training time: 20.0
		
Time end:Tue Oct 31 13.59.19 EET 2017