Tue Oct 31 13.51.06 EET 2017
Dataset: kr-vs-kp
Test set size: 1598
Initial Labelled set size: 319
Initial Unlabelled set size: 1279
Batch mode: QBestBatchMode
Batch size: 20
Classifiers: NaiveBayes-1cores
Scenario: PoolBasedSamplingScenario
Query strategy: MarginSamplingQueryStrategy-1cores
Time begining: Tue Oct 31 13.51.06 EET 2017
		
Iteration: 1
Labeled set size: 319
Unlabelled set size: 1279
	
Mean region size: 84.48060075093868
Incorrectly Classified Instances: 16.45807259073842
Correctly Classified Instances: 83.54192740926158
Weighted Precision: 0.8353981915897546
Weighted AreaUnderROC: 0.9173181814614545
Root mean squared error: 0.3413679681312754
Relative absolute error: 47.69872022053626
Root relative squared error: 68.27359362625508
Weighted TruePositiveRate: 0.8354192740926157
Weighted MatthewsCorrelation: 0.670007933194815
Weighted FMeasure: 0.8353349163177582
Iteration time: 16.0
Weighted AreaUnderPRC: 0.9201381924022309
Mean absolute error: 0.23849360110268128
Coverage of cases: 99.93742177722153
Instances selection time: 16.0
Test time: 23.0
Accumulative iteration time: 16.0
Weighted Recall: 0.8354192740926157
Weighted FalsePositiveRate: 0.16609789064718683
Kappa statistic: 0.6698891707838163
Training time: 0.0
		
Iteration: 2
Labeled set size: 339
Unlabelled set size: 1259
	
Mean region size: 85.79474342928661
Incorrectly Classified Instances: 14.080100125156445
Correctly Classified Instances: 85.91989987484355
Weighted Precision: 0.8593974703843974
Weighted AreaUnderROC: 0.9371689125026487
Root mean squared error: 0.32103993355521493
Relative absolute error: 46.02539964390308
Root relative squared error: 64.20798671104299
Weighted TruePositiveRate: 0.8591989987484355
Weighted MatthewsCorrelation: 0.718127594204575
Weighted FMeasure: 0.8592413474382673
Iteration time: 17.0
Weighted AreaUnderPRC: 0.9395849131950029
Mean absolute error: 0.2301269982195154
Coverage of cases: 100.0
Instances selection time: 16.0
Test time: 22.0
Accumulative iteration time: 33.0
Weighted Recall: 0.8591989987484355
Weighted FalsePositiveRate: 0.14063926369691343
Kappa statistic: 0.7180322880674056
Training time: 1.0
		
Iteration: 3
Labeled set size: 359
Unlabelled set size: 1239
	
Mean region size: 86.51439299123905
Incorrectly Classified Instances: 12.14017521902378
Correctly Classified Instances: 87.85982478097623
Weighted Precision: 0.880047743269416
Weighted AreaUnderROC: 0.9547060531623517
Root mean squared error: 0.3047246138431924
Relative absolute error: 45.03940528003136
Root relative squared error: 60.94492276863848
Weighted TruePositiveRate: 0.8785982478097623
Weighted MatthewsCorrelation: 0.7584558539671864
Weighted FMeasure: 0.8786568367266065
Iteration time: 16.0
Weighted AreaUnderPRC: 0.9565136768706763
Mean absolute error: 0.22519702640015682
Coverage of cases: 100.0
Instances selection time: 16.0
Test time: 23.0
Accumulative iteration time: 49.0
Weighted Recall: 0.8785982478097623
Weighted FalsePositiveRate: 0.11940941708327285
Kappa statistic: 0.7573059814714204
Training time: 0.0
		
Iteration: 4
Labeled set size: 379
Unlabelled set size: 1219
	
Mean region size: 87.73466833541927
Incorrectly Classified Instances: 9.449311639549437
Correctly Classified Instances: 90.55068836045056
Weighted Precision: 0.9060371925708038
Weighted AreaUnderROC: 0.9693033330455733
Root mean squared error: 0.29077076663059465
Relative absolute error: 44.223750583673635
Root relative squared error: 58.15415332611893
Weighted TruePositiveRate: 0.9055068836045056
Weighted MatthewsCorrelation: 0.8112941889074033
Weighted FMeasure: 0.9055504007438606
Iteration time: 16.0
Weighted AreaUnderPRC: 0.9706589047582543
Mean absolute error: 0.2211187529183682
Coverage of cases: 100.0
Instances selection time: 16.0
Test time: 22.0
Accumulative iteration time: 65.0
Weighted Recall: 0.9055068836045056
Weighted FalsePositiveRate: 0.09346491250084141
Kappa statistic: 0.8108964663286337
Training time: 0.0
		
Iteration: 5
Labeled set size: 399
Unlabelled set size: 1199
	
Mean region size: 88.5168961201502
Incorrectly Classified Instances: 8.51063829787234
Correctly Classified Instances: 91.48936170212765
Weighted Precision: 0.9150067185298807
Weighted AreaUnderROC: 0.9774526961803784
Root mean squared error: 0.28349792906062826
Relative absolute error: 44.03463896198885
Root relative squared error: 56.699585812125655
Weighted TruePositiveRate: 0.9148936170212766
Weighted MatthewsCorrelation: 0.8296024764676002
Weighted FMeasure: 0.9149143115013245
Iteration time: 16.0
Weighted AreaUnderPRC: 0.9783456519605014
Mean absolute error: 0.22017319480994424
Coverage of cases: 100.0
Instances selection time: 15.0
Test time: 22.0
Accumulative iteration time: 81.0
Weighted Recall: 0.9148936170212766
Weighted FalsePositiveRate: 0.08488757406132494
Kappa statistic: 0.8295373079306315
Training time: 1.0
		
Iteration: 6
Labeled set size: 419
Unlabelled set size: 1179
	
Mean region size: 89.01752190237798
Incorrectly Classified Instances: 6.88360450563204
Correctly Classified Instances: 93.11639549436796
Weighted Precision: 0.9312752161428249
Weighted AreaUnderROC: 0.983602388931181
Root mean squared error: 0.2773369978397345
Relative absolute error: 43.82013521028051
Root relative squared error: 55.4673995679469
Weighted TruePositiveRate: 0.9311639549436797
Weighted MatthewsCorrelation: 0.8620969101113407
Weighted FMeasure: 0.9311258848410662
Iteration time: 15.0
Weighted AreaUnderPRC: 0.9841299356281463
Mean absolute error: 0.21910067605140257
Coverage of cases: 100.0
Instances selection time: 15.0
Test time: 23.0
Accumulative iteration time: 96.0
Weighted Recall: 0.9311639549436797
Weighted FalsePositiveRate: 0.07002018743282974
Kappa statistic: 0.8619230231458427
Training time: 0.0
		
Iteration: 7
Labeled set size: 439
Unlabelled set size: 1159
	
Mean region size: 89.86232790988736
Incorrectly Classified Instances: 6.195244055068836
Correctly Classified Instances: 93.80475594493116
Weighted Precision: 0.938331737831112
Weighted AreaUnderROC: 0.984427998524576
Root mean squared error: 0.27580944142562297
Relative absolute error: 44.06263664311395
Root relative squared error: 55.1618882851246
Weighted TruePositiveRate: 0.9380475594493116
Weighted MatthewsCorrelation: 0.8760469676396915
Weighted FMeasure: 0.9379943616187064
Iteration time: 15.0
Weighted AreaUnderPRC: 0.9849473287847124
Mean absolute error: 0.22031318321556972
Coverage of cases: 100.0
Instances selection time: 15.0
Test time: 22.0
Accumulative iteration time: 111.0
Weighted Recall: 0.9380475594493116
Weighted FalsePositiveRate: 0.06350411684565918
Kappa statistic: 0.8756815034961188
Training time: 0.0
		
Iteration: 8
Labeled set size: 459
Unlabelled set size: 1139
	
Mean region size: 90.36295369211514
Incorrectly Classified Instances: 7.196495619524406
Correctly Classified Instances: 92.8035043804756
Weighted Precision: 0.9287197524757407
Weighted AreaUnderROC: 0.9808194881534442
Root mean squared error: 0.2802349278941627
Relative absolute error: 44.676791560002
Root relative squared error: 56.04698557883254
Weighted TruePositiveRate: 0.928035043804756
Weighted MatthewsCorrelation: 0.8563201084571856
Weighted FMeasure: 0.927929027939889
Iteration time: 15.0
Weighted AreaUnderPRC: 0.981674716672215
Mean absolute error: 0.22338395780001002
Coverage of cases: 100.0
Instances selection time: 15.0
Test time: 23.0
Accumulative iteration time: 126.0
Weighted Recall: 0.928035043804756
Weighted FalsePositiveRate: 0.07423543463515281
Kappa statistic: 0.855491511295992
Training time: 0.0
		
Iteration: 9
Labeled set size: 479
Unlabelled set size: 1119
	
Mean region size: 89.83103879849813
Incorrectly Classified Instances: 6.320400500625782
Correctly Classified Instances: 93.67959949937422
Weighted Precision: 0.9371365034269139
Weighted AreaUnderROC: 0.9855628193154974
Root mean squared error: 0.2769154853067863
Relative absolute error: 44.74084152060171
Root relative squared error: 55.383097061357255
Weighted TruePositiveRate: 0.9367959949937422
Weighted MatthewsCorrelation: 0.8735863528002787
Weighted FMeasure: 0.9367357520830611
Iteration time: 15.0
Weighted AreaUnderPRC: 0.9860770654296731
Mean absolute error: 0.22370420760300858
Coverage of cases: 100.0
Instances selection time: 14.0
Test time: 23.0
Accumulative iteration time: 141.0
Weighted Recall: 0.9367959949937422
Weighted FalsePositiveRate: 0.06487378436911986
Kappa statistic: 0.8731556652336905
Training time: 1.0
		
Iteration: 10
Labeled set size: 499
Unlabelled set size: 1099
	
Mean region size: 90.26908635794743
Incorrectly Classified Instances: 6.07008760951189
Correctly Classified Instances: 93.92991239048811
Weighted Precision: 0.9395318887411945
Weighted AreaUnderROC: 0.9847450577220395
Root mean squared error: 0.2786343869757261
Relative absolute error: 45.246796681994425
Root relative squared error: 55.72687739514522
Weighted TruePositiveRate: 0.9392991239048811
Weighted MatthewsCorrelation: 0.878512216387531
Weighted FMeasure: 0.9392525420160015
Iteration time: 15.0
Weighted AreaUnderPRC: 0.9852985301264171
Mean absolute error: 0.22623398340997214
Coverage of cases: 100.0
Instances selection time: 14.0
Test time: 23.0
Accumulative iteration time: 156.0
Weighted Recall: 0.9392991239048811
Weighted FalsePositiveRate: 0.062134449322198505
Kappa statistic: 0.8782067701842857
Training time: 1.0
		
Iteration: 11
Labeled set size: 519
Unlabelled set size: 1079
	
Mean region size: 91.02002503128911
Incorrectly Classified Instances: 5.694618272841051
Correctly Classified Instances: 94.30538172715895
Weighted Precision: 0.9434756663321333
Weighted AreaUnderROC: 0.989205860886353
Root mean squared error: 0.2784650333251046
Relative absolute error: 46.08989713778694
Root relative squared error: 55.69300666502092
Weighted TruePositiveRate: 0.9430538172715894
Weighted MatthewsCorrelation: 0.8862113252466355
Weighted FMeasure: 0.9429939788539002
Iteration time: 15.0
Weighted AreaUnderPRC: 0.9894189677398294
Mean absolute error: 0.2304494856889347
Coverage of cases: 100.0
Instances selection time: 14.0
Test time: 23.0
Accumulative iteration time: 171.0
Weighted Recall: 0.9430538172715894
Weighted FalsePositiveRate: 0.05870351394639191
Kappa statistic: 0.8857015749851052
Training time: 1.0
		
Iteration: 12
Labeled set size: 539
Unlabelled set size: 1059
	
Mean region size: 91.45807259073842
Incorrectly Classified Instances: 4.943679599499374
Correctly Classified Instances: 95.05632040050062
Weighted Precision: 0.9506181263813809
Weighted AreaUnderROC: 0.9886878928904969
Root mean squared error: 0.28517975598874756
Relative absolute error: 47.50670187334467
Root relative squared error: 57.03595119774951
Weighted TruePositiveRate: 0.9505632040050063
Weighted MatthewsCorrelation: 0.900949499531644
Weighted FMeasure: 0.9505454808617636
Iteration time: 14.0
Weighted AreaUnderPRC: 0.9889586825486973
Mean absolute error: 0.23753350936672332
Coverage of cases: 100.0
Instances selection time: 13.0
Test time: 23.0
Accumulative iteration time: 185.0
Weighted Recall: 0.9505632040050063
Weighted FalsePositiveRate: 0.050259486407435994
Kappa statistic: 0.9008636598508896
Training time: 1.0
		
Iteration: 13
Labeled set size: 559
Unlabelled set size: 1039
	
Mean region size: 91.39549436795996
Incorrectly Classified Instances: 5.193992490613266
Correctly Classified Instances: 94.80600750938673
Weighted Precision: 0.9482587334921593
Weighted AreaUnderROC: 0.9886894624904842
Root mean squared error: 0.2838606274156638
Relative absolute error: 47.440382442769895
Root relative squared error: 56.77212548313276
Weighted TruePositiveRate: 0.9480600750938674
Weighted MatthewsCorrelation: 0.8960519273359449
Weighted FMeasure: 0.9480247930765507
Iteration time: 13.0
Weighted AreaUnderPRC: 0.9887473409351064
Mean absolute error: 0.23720191221384948
Coverage of cases: 100.0
Instances selection time: 13.0
Test time: 23.0
Accumulative iteration time: 198.0
Weighted Recall: 0.9480600750938674
Weighted FalsePositiveRate: 0.053224843852549185
Kappa statistic: 0.8957969645879065
Training time: 0.0
		
Iteration: 14
Labeled set size: 579
Unlabelled set size: 1019
	
Mean region size: 91.77096370463079
Incorrectly Classified Instances: 5.944931163954943
Correctly Classified Instances: 94.05506883604505
Weighted Precision: 0.9411138955244176
Weighted AreaUnderROC: 0.9888872320889021
Root mean squared error: 0.28382968475085707
Relative absolute error: 47.41431625948458
Root relative squared error: 56.765936950171415
Weighted TruePositiveRate: 0.9405506883604505
Weighted MatthewsCorrelation: 0.881319081241191
Weighted FMeasure: 0.9404760434429162
Iteration time: 13.0
Weighted AreaUnderPRC: 0.9889103494381182
Mean absolute error: 0.2370715812974229
Coverage of cases: 100.0
Instances selection time: 12.0
Test time: 23.0
Accumulative iteration time: 211.0
Weighted Recall: 0.9405506883604505
Weighted FalsePositiveRate: 0.06144284899331328
Kappa statistic: 0.8806504515015195
Training time: 1.0
		
Iteration: 15
Labeled set size: 599
Unlabelled set size: 999
	
Mean region size: 91.30162703379224
Incorrectly Classified Instances: 5.694618272841051
Correctly Classified Instances: 94.30538172715895
Weighted Precision: 0.9435476178026045
Weighted AreaUnderROC: 0.9871057361031541
Root mean squared error: 0.28152536436572223
Relative absolute error: 46.67506713041192
Root relative squared error: 56.30507287314445
Weighted TruePositiveRate: 0.9430538172715894
Weighted MatthewsCorrelation: 0.8862769053061513
Weighted FMeasure: 0.9429882376645781
Iteration time: 14.0
Weighted AreaUnderPRC: 0.9874091391521608
Mean absolute error: 0.2333753356520596
Coverage of cases: 100.0
Instances selection time: 13.0
Test time: 24.0
Accumulative iteration time: 225.0
Weighted Recall: 0.9430538172715894
Weighted FalsePositiveRate: 0.05881652514548783
Kappa statistic: 0.8856886367816922
Training time: 1.0
		
Iteration: 16
Labeled set size: 619
Unlabelled set size: 979
	
Mean region size: 92.05256570713392
Incorrectly Classified Instances: 5.7571964956195245
Correctly Classified Instances: 94.24280350438048
Weighted Precision: 0.9430382234921949
Weighted AreaUnderROC: 0.9886235392910117
Root mean squared error: 0.27986961053317694
Relative absolute error: 46.679871098772566
Root relative squared error: 55.973922106635385
Weighted TruePositiveRate: 0.9424280350438048
Weighted MatthewsCorrelation: 0.8851284831328372
Weighted FMeasure: 0.9423526848772261
Iteration time: 13.0
Weighted AreaUnderPRC: 0.9885775492959095
Mean absolute error: 0.23339935549386281
Coverage of cases: 100.0
Instances selection time: 12.0
Test time: 23.0
Accumulative iteration time: 238.0
Weighted Recall: 0.9424280350438048
Weighted FalsePositiveRate: 0.059614370106314075
Kappa statistic: 0.8844128418295063
Training time: 1.0
		
Iteration: 17
Labeled set size: 639
Unlabelled set size: 959
	
Mean region size: 91.48936170212765
Incorrectly Classified Instances: 6.382978723404255
Correctly Classified Instances: 93.61702127659575
Weighted Precision: 0.9369322788372876
Weighted AreaUnderROC: 0.9865579457075364
Root mean squared error: 0.2819772139246069
Relative absolute error: 46.54279798190694
Root relative squared error: 56.39544278492138
Weighted TruePositiveRate: 0.9361702127659575
Weighted MatthewsCorrelation: 0.8727135266167035
Weighted FMeasure: 0.9360725825257604
Iteration time: 13.0
Weighted AreaUnderPRC: 0.9869774728470336
Mean absolute error: 0.2327139899095347
Coverage of cases: 100.0
Instances selection time: 12.0
Test time: 23.0
Accumulative iteration time: 251.0
Weighted Recall: 0.9361702127659575
Weighted FalsePositiveRate: 0.06612367412632976
Kappa statistic: 0.8718199962567375
Training time: 1.0
		
Iteration: 18
Labeled set size: 659
Unlabelled set size: 939
	
Mean region size: 91.45807259073842
Incorrectly Classified Instances: 5.882352941176471
Correctly Classified Instances: 94.11764705882354
Weighted Precision: 0.941867866497634
Weighted AreaUnderROC: 0.987841878497265
Root mean squared error: 0.2775771843983715
Relative absolute error: 45.980731934565355
Root relative squared error: 55.5154368796743
Weighted TruePositiveRate: 0.9411764705882353
Weighted MatthewsCorrelation: 0.8826925984039534
Weighted FMeasure: 0.941093083761466
Iteration time: 12.0
Weighted AreaUnderPRC: 0.9879211573375817
Mean absolute error: 0.22990365967282678
Coverage of cases: 100.0
Instances selection time: 12.0
Test time: 23.0
Accumulative iteration time: 263.0
Weighted Recall: 0.9411764705882353
Weighted FalsePositiveRate: 0.06098403762977476
Kappa statistic: 0.8818867052168565
Training time: 0.0
		
Iteration: 19
Labeled set size: 679
Unlabelled set size: 919
	
Mean region size: 91.39549436795996
Incorrectly Classified Instances: 5.882352941176471
Correctly Classified Instances: 94.11764705882354
Weighted Precision: 0.9419590291925759
Weighted AreaUnderROC: 0.9885827296913381
Root mean squared error: 0.2774657875902672
Relative absolute error: 45.82193226604932
Root relative squared error: 55.49315751805344
Weighted TruePositiveRate: 0.9411764705882353
Weighted MatthewsCorrelation: 0.8827771639288514
Weighted FMeasure: 0.9410864976217793
Iteration time: 12.0
Weighted AreaUnderPRC: 0.988878283273533
Mean absolute error: 0.2291096613302466
Coverage of cases: 100.0
Instances selection time: 12.0
Test time: 23.0
Accumulative iteration time: 275.0
Weighted Recall: 0.9411764705882353
Weighted FalsePositiveRate: 0.061097048828870675
Kappa statistic: 0.88187332988366
Training time: 0.0
		
Iteration: 20
Labeled set size: 699
Unlabelled set size: 899
	
Mean region size: 91.14518147684606
Incorrectly Classified Instances: 5.819774718397998
Correctly Classified Instances: 94.180225281602
Weighted Precision: 0.9424524386149944
Weighted AreaUnderROC: 0.9885089584919283
Root mean squared error: 0.2736243384126828
Relative absolute error: 45.158392947509256
Root relative squared error: 54.72486768253656
Weighted TruePositiveRate: 0.94180225281602
Weighted MatthewsCorrelation: 0.8839099706685036
Weighted FMeasure: 0.9417229415364128
Iteration time: 13.0
Weighted AreaUnderPRC: 0.9885935532043861
Mean absolute error: 0.22579196473754629
Coverage of cases: 100.0
Instances selection time: 12.0
Test time: 22.0
Accumulative iteration time: 288.0
Weighted Recall: 0.94180225281602
Weighted FalsePositiveRate: 0.06029920386804442
Kappa statistic: 0.8831498450269454
Training time: 1.0
		
Iteration: 21
Labeled set size: 719
Unlabelled set size: 879
	
Mean region size: 91.33291614518147
Incorrectly Classified Instances: 6.07008760951189
Correctly Classified Instances: 93.92991239048811
Weighted Precision: 0.9402203818815139
Weighted AreaUnderROC: 0.9878638528970892
Root mean squared error: 0.2760191170422224
Relative absolute error: 45.40898529495936
Root relative squared error: 55.20382340844448
Weighted TruePositiveRate: 0.9392991239048811
Weighted MatthewsCorrelation: 0.8791394524049404
Weighted FMeasure: 0.9391957217680015
Iteration time: 12.0
Weighted AreaUnderPRC: 0.9881794677265853
Mean absolute error: 0.2270449264747968
Coverage of cases: 100.0
Instances selection time: 11.0
Test time: 23.0
Accumulative iteration time: 300.0
Weighted Recall: 0.9392991239048811
Weighted FalsePositiveRate: 0.06315155011406169
Kappa statistic: 0.8780826206030823
Training time: 1.0
		
Iteration: 22
Labeled set size: 739
Unlabelled set size: 859
	
Mean region size: 90.61326658322903
Incorrectly Classified Instances: 5.882352941176471
Correctly Classified Instances: 94.11764705882354
Weighted Precision: 0.9417823619348761
Weighted AreaUnderROC: 0.9890834320873325
Root mean squared error: 0.27153707858682036
Relative absolute error: 44.61153104695522
Root relative squared error: 54.30741571736407
Weighted TruePositiveRate: 0.9411764705882353
Weighted MatthewsCorrelation: 0.8826136855685486
Weighted FMeasure: 0.9410994823745572
Iteration time: 11.0
Weighted AreaUnderPRC: 0.9893665803617694
Mean absolute error: 0.2230576552347761
Coverage of cases: 100.0
Instances selection time: 10.0
Test time: 23.0
Accumulative iteration time: 311.0
Weighted Recall: 0.9411764705882353
Weighted FalsePositiveRate: 0.060871026430678855
Kappa statistic: 0.881900077521452
Training time: 1.0
		
Iteration: 23
Labeled set size: 759
Unlabelled set size: 839
	
Mean region size: 90.51939924906132
Incorrectly Classified Instances: 6.007509386733417
Correctly Classified Instances: 93.99249061326658
Weighted Precision: 0.9407023416037537
Weighted AreaUnderROC: 0.987816764897466
Root mean squared error: 0.2718509591339221
Relative absolute error: 44.48148117058495
Root relative squared error: 54.37019182678442
Weighted TruePositiveRate: 0.9399249061326659
Weighted MatthewsCorrelation: 0.8802612546008144
Weighted FMeasure: 0.9398330188477747
Iteration time: 12.0
Weighted AreaUnderPRC: 0.9880107527499351
Mean absolute error: 0.22240740585292476
Coverage of cases: 100.0
Instances selection time: 11.0
Test time: 22.0
Accumulative iteration time: 323.0
Weighted Recall: 0.9399249061326659
Weighted FalsePositiveRate: 0.06235370515323544
Kappa statistic: 0.8793599964769295
Training time: 1.0
		
Iteration: 24
Labeled set size: 779
Unlabelled set size: 819
	
Mean region size: 90.51939924906132
Incorrectly Classified Instances: 6.007509386733417
Correctly Classified Instances: 93.99249061326658
Weighted Precision: 0.9407023416037537
Weighted AreaUnderROC: 0.989194873686441
Root mean squared error: 0.27170437284324905
Relative absolute error: 44.66865871688845
Root relative squared error: 54.34087456864981
Weighted TruePositiveRate: 0.9399249061326659
Weighted MatthewsCorrelation: 0.8802612546008144
Weighted FMeasure: 0.9398330188477747
Iteration time: 11.0
Weighted AreaUnderPRC: 0.9893425379853141
Mean absolute error: 0.22334329358444224
Coverage of cases: 100.0
Instances selection time: 10.0
Test time: 23.0
Accumulative iteration time: 334.0
Weighted Recall: 0.9399249061326659
Weighted FalsePositiveRate: 0.06235370515323544
Kappa statistic: 0.8793599964769295
Training time: 1.0
		
Iteration: 25
Labeled set size: 799
Unlabelled set size: 799
	
Mean region size: 90.36295369211514
Incorrectly Classified Instances: 6.257822277847309
Correctly Classified Instances: 93.74217772215269
Weighted Precision: 0.9383856376487207
Weighted AreaUnderROC: 0.9873223409014211
Root mean squared error: 0.27201687030000127
Relative absolute error: 44.34473795733084
Root relative squared error: 54.40337406000025
Weighted TruePositiveRate: 0.9374217772215269
Weighted MatthewsCorrelation: 0.8754120315058772
Weighted FMeasure: 0.9373114490757739
Iteration time: 11.0
Weighted AreaUnderPRC: 0.9875920936258923
Mean absolute error: 0.22172368978665422
Coverage of cases: 100.0
Instances selection time: 10.0
Test time: 23.0
Accumulative iteration time: 345.0
Weighted Recall: 0.9374217772215269
Weighted FalsePositiveRate: 0.0650930402001568
Kappa statistic: 0.874304861837603
Training time: 1.0
		
Iteration: 26
Labeled set size: 819
Unlabelled set size: 779
	
Mean region size: 89.86232790988736
Incorrectly Classified Instances: 6.007509386733417
Correctly Classified Instances: 93.99249061326658
Weighted Precision: 0.9407023416037537
Weighted AreaUnderROC: 0.988811891289505
Root mean squared error: 0.26830699702513144
Relative absolute error: 43.793315991671335
Root relative squared error: 53.66139940502629
Weighted TruePositiveRate: 0.9399249061326659
Weighted MatthewsCorrelation: 0.8802612546008144
Weighted FMeasure: 0.9398330188477747
Iteration time: 11.0
Weighted AreaUnderPRC: 0.9889233566939791
Mean absolute error: 0.21896657995835667
Coverage of cases: 100.0
Instances selection time: 10.0
Test time: 23.0
Accumulative iteration time: 356.0
Weighted Recall: 0.9399249061326659
Weighted FalsePositiveRate: 0.06235370515323544
Kappa statistic: 0.8793599964769295
Training time: 1.0
		
Iteration: 27
Labeled set size: 839
Unlabelled set size: 759
	
Mean region size: 89.79974968710889
Incorrectly Classified Instances: 6.320400500625782
Correctly Classified Instances: 93.67959949937422
Weighted Precision: 0.9377056822849111
Weighted AreaUnderROC: 0.9878073472975413
Root mean squared error: 0.26829608785420894
Relative absolute error: 43.50811320813017
Root relative squared error: 53.65921757084179
Weighted TruePositiveRate: 0.9367959949937422
Weighted MatthewsCorrelation: 0.8741058806438696
Weighted FMeasure: 0.9366883288512181
Iteration time: 11.0
Weighted AreaUnderPRC: 0.9881486171265147
Mean absolute error: 0.21754056604065083
Coverage of cases: 100.0
Instances selection time: 10.0
Test time: 23.0
Accumulative iteration time: 367.0
Weighted Recall: 0.9367959949937422
Weighted FalsePositiveRate: 0.06566486276279124
Kappa statistic: 0.8730550998032095
Training time: 1.0
		
Iteration: 28
Labeled set size: 859
Unlabelled set size: 739
	
Mean region size: 89.76846057571964
Incorrectly Classified Instances: 5.882352941176471
Correctly Classified Instances: 94.11764705882354
Weighted Precision: 0.941867866497634
Weighted AreaUnderROC: 0.988351998493184
Root mean squared error: 0.26916999697851013
Relative absolute error: 43.98160879936025
Root relative squared error: 53.83399939570202
Weighted TruePositiveRate: 0.9411764705882353
Weighted MatthewsCorrelation: 0.8826925984039534
Weighted FMeasure: 0.941093083761466
Iteration time: 10.0
Weighted AreaUnderPRC: 0.9883692753946223
Mean absolute error: 0.21990804399680128
Coverage of cases: 100.0
Instances selection time: 9.0
Test time: 23.0
Accumulative iteration time: 377.0
Weighted Recall: 0.9411764705882353
Weighted FalsePositiveRate: 0.06098403762977476
Kappa statistic: 0.8818867052168565
Training time: 1.0
		
Iteration: 29
Labeled set size: 879
Unlabelled set size: 719
	
Mean region size: 90.11264080100125
Incorrectly Classified Instances: 6.257822277847309
Correctly Classified Instances: 93.74217772215269
Weighted Precision: 0.9381889664261094
Weighted AreaUnderROC: 0.9855879329152964
Root mean squared error: 0.27062912415541385
Relative absolute error: 43.62145745547534
Root relative squared error: 54.12582483108277
Weighted TruePositiveRate: 0.9374217772215269
Weighted MatthewsCorrelation: 0.8752294359447406
Weighted FMeasure: 0.9373260612997653
Iteration time: 10.0
Weighted AreaUnderPRC: 0.9860769486984455
Mean absolute error: 0.2181072872773767
Coverage of cases: 100.0
Instances selection time: 9.0
Test time: 23.0
Accumulative iteration time: 387.0
Weighted Recall: 0.9374217772215269
Weighted FalsePositiveRate: 0.06486701780196498
Kappa statistic: 0.874333329663468
Training time: 1.0
		
Iteration: 30
Labeled set size: 899
Unlabelled set size: 699
	
Mean region size: 89.67459324155195
Incorrectly Classified Instances: 6.07008760951189
Correctly Classified Instances: 93.92991239048811
Weighted Precision: 0.9400280274082656
Weighted AreaUnderROC: 0.9870884705032921
Root mean squared error: 0.26762103769293105
Relative absolute error: 43.17724057806407
Root relative squared error: 53.52420753858621
Weighted TruePositiveRate: 0.9392991239048811
Weighted MatthewsCorrelation: 0.8789607360765533
Weighted FMeasure: 0.9392097018275585
Iteration time: 10.0
Weighted AreaUnderPRC: 0.987445789730889
Mean absolute error: 0.21588620289032037
Coverage of cases: 100.0
Instances selection time: 9.0
Test time: 23.0
Accumulative iteration time: 397.0
Weighted Recall: 0.9392991239048811
Weighted FalsePositiveRate: 0.06292552771586987
Kappa statistic: 0.8781102312670541
Training time: 1.0
		
Iteration: 31
Labeled set size: 919
Unlabelled set size: 679
	
Mean region size: 89.33041301627034
Incorrectly Classified Instances: 6.132665832290363
Correctly Classified Instances: 93.86733416770964
Weighted Precision: 0.9393553335811211
Weighted AreaUnderROC: 0.9873584417011326
Root mean squared error: 0.2663015262984225
Relative absolute error: 42.79940528984984
Root relative squared error: 53.2603052596845
Weighted TruePositiveRate: 0.9386733416770964
Weighted MatthewsCorrelation: 0.8776619077624322
Weighted FMeasure: 0.9385864064747198
Iteration time: 10.0
Weighted AreaUnderPRC: 0.9876925995923707
Mean absolute error: 0.21399702644924917
Coverage of cases: 100.0
Instances selection time: 9.0
Test time: 23.0
Accumulative iteration time: 407.0
Weighted Recall: 0.9386733416770964
Weighted FalsePositiveRate: 0.06349735027850431
Kappa statistic: 0.8768606075665101
Training time: 1.0
		
Iteration: 32
Labeled set size: 939
Unlabelled set size: 659
	
Mean region size: 89.08010012515645
Incorrectly Classified Instances: 6.07008760951189
Correctly Classified Instances: 93.92991239048811
Weighted Precision: 0.9399403146522005
Weighted AreaUnderROC: 0.9874479089004168
Root mean squared error: 0.26594874737861146
Relative absolute error: 42.66895694737724
Root relative squared error: 53.189749475722294
Weighted TruePositiveRate: 0.9392991239048811
Weighted MatthewsCorrelation: 0.8788798318421712
Weighted FMeasure: 0.9392164013874414
Iteration time: 11.0
Weighted AreaUnderPRC: 0.9878259788956302
Mean absolute error: 0.2133447847368862
Coverage of cases: 100.0
Instances selection time: 10.0
Test time: 28.0
Accumulative iteration time: 418.0
Weighted Recall: 0.9392991239048811
Weighted FalsePositiveRate: 0.06281251651677396
Kappa statistic: 0.8781240319098248
Training time: 1.0
		
Iteration: 33
Labeled set size: 959
Unlabelled set size: 639
	
Mean region size: 89.26783479349187
Incorrectly Classified Instances: 6.132665832290363
Correctly Classified Instances: 93.86733416770964
Weighted Precision: 0.9393553335811211
Weighted AreaUnderROC: 0.986790246505678
Root mean squared error: 0.26603109959020776
Relative absolute error: 42.54070322924354
Root relative squared error: 53.206219918041555
Weighted TruePositiveRate: 0.9386733416770964
Weighted MatthewsCorrelation: 0.8776619077624322
Weighted FMeasure: 0.9385864064747198
Iteration time: 11.0
Weighted AreaUnderPRC: 0.987042866636112
Mean absolute error: 0.21270351614621769
Coverage of cases: 100.0
Instances selection time: 10.0
Test time: 29.0
Accumulative iteration time: 429.0
Weighted Recall: 0.9386733416770964
Weighted FalsePositiveRate: 0.06349735027850431
Kappa statistic: 0.8768606075665101
Training time: 1.0
		
Iteration: 34
Labeled set size: 979
Unlabelled set size: 619
	
Mean region size: 88.82978723404256
Incorrectly Classified Instances: 6.195244055068836
Correctly Classified Instances: 93.80475594493116
Weighted Precision: 0.9386842526708035
Weighted AreaUnderROC: 0.9868279169053766
Root mean squared error: 0.26496953050249455
Relative absolute error: 42.21564137934302
Root relative squared error: 52.99390610049891
Weighted TruePositiveRate: 0.9380475594493116
Weighted MatthewsCorrelation: 0.876364762429005
Weighted FMeasure: 0.9379631313129556
Iteration time: 9.0
Weighted AreaUnderPRC: 0.9872364137570153
Mean absolute error: 0.21107820689671508
Coverage of cases: 100.0
Instances selection time: 8.0
Test time: 23.0
Accumulative iteration time: 438.0
Weighted Recall: 0.9380475594493116
Weighted FalsePositiveRate: 0.06406917284113874
Kappa statistic: 0.8756111253512644
Training time: 1.0
		
Iteration: 35
Labeled set size: 999
Unlabelled set size: 599
	
Mean region size: 88.76720901126409
Incorrectly Classified Instances: 6.320400500625782
Correctly Classified Instances: 93.67959949937422
Weighted Precision: 0.9372711950179676
Weighted AreaUnderROC: 0.9863915681088675
Root mean squared error: 0.2645105652409524
Relative absolute error: 41.90934083246588
Root relative squared error: 52.90211304819048
Weighted TruePositiveRate: 0.9367959949937422
Weighted MatthewsCorrelation: 0.8737068736502841
Weighted FMeasure: 0.9367232088365098
Iteration time: 9.0
Weighted AreaUnderPRC: 0.9868366690938848
Mean absolute error: 0.2095467041623294
Coverage of cases: 100.0
Instances selection time: 8.0
Test time: 23.0
Accumulative iteration time: 447.0
Weighted Recall: 0.9367959949937422
Weighted FalsePositiveRate: 0.06509980676731168
Kappa statistic: 0.8731269485159443
Training time: 1.0
		
Iteration: 36
Labeled set size: 1019
Unlabelled set size: 579
	
Mean region size: 88.82978723404256
Incorrectly Classified Instances: 6.633291614518147
Correctly Classified Instances: 93.36670838548186
Weighted Precision: 0.934247192590964
Weighted AreaUnderROC: 0.985532996915736
Root mean squared error: 0.26627275881186707
Relative absolute error: 42.00044770442689
Root relative squared error: 53.25455176237342
Weighted TruePositiveRate: 0.9336670838548186
Weighted MatthewsCorrelation: 0.8675249001828175
Weighted FMeasure: 0.933580267358543
Iteration time: 9.0
Weighted AreaUnderPRC: 0.9860887469813648
Mean absolute error: 0.21000223852213445
Coverage of cases: 100.0
Instances selection time: 8.0
Test time: 23.0
Accumulative iteration time: 456.0
Weighted Recall: 0.9336670838548186
Weighted FalsePositiveRate: 0.06841096437686747
Kappa statistic: 0.8668234916731269
Training time: 1.0
		
Iteration: 37
Labeled set size: 1039
Unlabelled set size: 559
	
Mean region size: 88.79849812265331
Incorrectly Classified Instances: 6.88360450563204
Correctly Classified Instances: 93.11639549436796
Weighted Precision: 0.9315217420224907
Weighted AreaUnderROC: 0.9837750449297996
Root mean squared error: 0.2671989496392025
Relative absolute error: 41.7596159392753
Root relative squared error: 53.4397899278405
Weighted TruePositiveRate: 0.9311639549436797
Weighted MatthewsCorrelation: 0.8623047643118211
Weighted FMeasure: 0.9310950106658479
Iteration time: 8.0
Weighted AreaUnderPRC: 0.9844515643953876
Mean absolute error: 0.20879807969637648
Coverage of cases: 100.0
Instances selection time: 7.0
Test time: 23.0
Accumulative iteration time: 464.0
Weighted Recall: 0.9311639549436797
Weighted FalsePositiveRate: 0.0705852434283093
Kappa statistic: 0.8618448871290492
Training time: 1.0
		
Iteration: 38
Labeled set size: 1059
Unlabelled set size: 539
	
Mean region size: 88.57947434292866
Incorrectly Classified Instances: 7.008760951188986
Correctly Classified Instances: 92.99123904881101
Weighted Precision: 0.9302669981489929
Weighted AreaUnderROC: 0.9836588945307289
Root mean squared error: 0.2662227464225806
Relative absolute error: 41.42912468015024
Root relative squared error: 53.24454928451612
Weighted TruePositiveRate: 0.9299123904881101
Weighted MatthewsCorrelation: 0.8597915128223964
Weighted FMeasure: 0.9298421926779544
Iteration time: 8.0
Weighted AreaUnderPRC: 0.9843443144485113
Mean absolute error: 0.20714562340075118
Coverage of cases: 100.0
Instances selection time: 7.0
Test time: 23.0
Accumulative iteration time: 472.0
Weighted Recall: 0.9299123904881101
Weighted FalsePositiveRate: 0.07184189975267406
Kappa statistic: 0.8593329759859408
Training time: 1.0
		
Iteration: 39
Labeled set size: 1079
Unlabelled set size: 519
	
Mean region size: 88.61076345431789
Incorrectly Classified Instances: 7.321652065081351
Correctly Classified Instances: 92.67834793491865
Weighted Precision: 0.9269070364658487
Weighted AreaUnderROC: 0.9834579857323361
Root mean squared error: 0.26886239604307377
Relative absolute error: 41.920880885174476
Root relative squared error: 53.772479208614754
Weighted TruePositiveRate: 0.9267834793491865
Weighted MatthewsCorrelation: 0.8533223284295345
Weighted FMeasure: 0.9267399638778003
Iteration time: 8.0
Weighted AreaUnderPRC: 0.9841759270781486
Mean absolute error: 0.2096044044258724
Coverage of cases: 100.0
Instances selection time: 7.0
Test time: 23.0
Accumulative iteration time: 480.0
Weighted Recall: 0.9267834793491865
Weighted FalsePositiveRate: 0.0744749901676544
Kappa statistic: 0.8531279998366046
Training time: 1.0
		
Iteration: 40
Labeled set size: 1099
Unlabelled set size: 499
	
Mean region size: 88.73591989987484
Incorrectly Classified Instances: 7.008760951188986
Correctly Classified Instances: 92.99123904881101
Weighted Precision: 0.9302070873179872
Weighted AreaUnderROC: 0.983280620933755
Root mean squared error: 0.2669504111127465
Relative absolute error: 41.43165700866133
Root relative squared error: 53.390082222549296
Weighted TruePositiveRate: 0.9299123904881101
Weighted MatthewsCorrelation: 0.8597394729658687
Weighted FMeasure: 0.9298489245967777
Iteration time: 8.0
Weighted AreaUnderPRC: 0.9839651180576894
Mean absolute error: 0.20715828504330666
Coverage of cases: 100.0
Instances selection time: 7.0
Test time: 22.0
Accumulative iteration time: 488.0
Weighted Recall: 0.9299123904881101
Weighted FalsePositiveRate: 0.07172888855357815
Kappa statistic: 0.859348894522673
Training time: 1.0
		
Iteration: 41
Labeled set size: 1119
Unlabelled set size: 479
	
Mean region size: 88.2665832290363
Incorrectly Classified Instances: 8.07259073842303
Correctly Classified Instances: 91.92740926157697
Weighted Precision: 0.9192744091678776
Weighted AreaUnderROC: 0.9802811153577512
Root mean squared error: 0.2706317938456791
Relative absolute error: 41.48028013446471
Root relative squared error: 54.12635876913582
Weighted TruePositiveRate: 0.9192740926157698
Weighted MatthewsCorrelation: 0.8381880683934398
Weighted FMeasure: 0.9192565680514326
Iteration time: 8.0
Weighted AreaUnderPRC: 0.9811786715414651
Mean absolute error: 0.20740140067232354
Coverage of cases: 100.0
Instances selection time: 7.0
Test time: 22.0
Accumulative iteration time: 496.0
Weighted Recall: 0.9192740926157698
Weighted FalsePositiveRate: 0.08144987211836348
Kappa statistic: 0.8381557439471904
Training time: 1.0
		
Iteration: 42
Labeled set size: 1139
Unlabelled set size: 459
	
Mean region size: 88.2665832290363
Incorrectly Classified Instances: 7.509386733416771
Correctly Classified Instances: 92.49061326658322
Weighted Precision: 0.92500920362948
Weighted AreaUnderROC: 0.9820076753439385
Root mean squared error: 0.2674865117477563
Relative absolute error: 41.03577223739755
Root relative squared error: 53.497302349551255
Weighted TruePositiveRate: 0.9249061326658323
Weighted MatthewsCorrelation: 0.8495419253002181
Weighted FMeasure: 0.9248646016447993
Iteration time: 7.0
Weighted AreaUnderPRC: 0.9828252013653374
Mean absolute error: 0.20517886118698775
Coverage of cases: 100.0
Instances selection time: 6.0
Test time: 23.0
Accumulative iteration time: 503.0
Weighted Recall: 0.9249061326658323
Weighted FalsePositiveRate: 0.0763034690546536
Kappa statistic: 0.8493705707045556
Training time: 1.0
		
Iteration: 43
Labeled set size: 1159
Unlabelled set size: 439
	
Mean region size: 87.6720901126408
Incorrectly Classified Instances: 8.010012515644556
Correctly Classified Instances: 91.98998748435544
Weighted Precision: 0.9199963936188039
Weighted AreaUnderROC: 0.9772831793817346
Root mean squared error: 0.27190069733342237
Relative absolute error: 41.050956722836034
Root relative squared error: 54.380139466684476
Weighted TruePositiveRate: 0.9198998748435544
Weighted MatthewsCorrelation: 0.8394979374513197
Weighted FMeasure: 0.9198555750877859
Iteration time: 7.0
Weighted AreaUnderPRC: 0.9783275897036356
Mean absolute error: 0.20525478361418018
Coverage of cases: 100.0
Instances selection time: 6.0
Test time: 23.0
Accumulative iteration time: 510.0
Weighted Recall: 0.9198998748435544
Weighted FalsePositiveRate: 0.08133009435211269
Kappa statistic: 0.8393286087515258
Training time: 1.0
		
Iteration: 44
Labeled set size: 1179
Unlabelled set size: 419
	
Mean region size: 88.0162703379224
Incorrectly Classified Instances: 8.07259073842303
Correctly Classified Instances: 91.92740926157697
Weighted Precision: 0.9193870046056104
Weighted AreaUnderROC: 0.9795402641636778
Root mean squared error: 0.27232065508952036
Relative absolute error: 41.63069443760149
Root relative squared error: 54.46413101790407
Weighted TruePositiveRate: 0.9192740926157698
Weighted MatthewsCorrelation: 0.838255102255095
Weighted FMeasure: 0.9192261140191134
Iteration time: 7.0
Weighted AreaUnderPRC: 0.9804362873644672
Mean absolute error: 0.20815347218800745
Coverage of cases: 100.0
Instances selection time: 5.0
Test time: 23.0
Accumulative iteration time: 517.0
Weighted Recall: 0.9192740926157698
Weighted FalsePositiveRate: 0.08201492811384303
Kappa statistic: 0.8380642049480513
Training time: 2.0
		
Iteration: 45
Labeled set size: 1199
Unlabelled set size: 399
	
Mean region size: 87.6720901126408
Incorrectly Classified Instances: 8.88610763454318
Correctly Classified Instances: 91.11389236545682
Weighted Precision: 0.9111291595803671
Weighted AreaUnderROC: 0.9760400561916796
Root mean squared error: 0.27553770971997477
Relative absolute error: 41.52755214022748
Root relative squared error: 55.10754194399495
Weighted TruePositiveRate: 0.9111389236545682
Weighted MatthewsCorrelation: 0.8218864106237297
Weighted FMeasure: 0.9111283209893924
Iteration time: 7.0
Weighted AreaUnderPRC: 0.9771613847351529
Mean absolute error: 0.20763776070113737
Coverage of cases: 100.0
Instances selection time: 5.0
Test time: 23.0
Accumulative iteration time: 524.0
Weighted Recall: 0.9111389236545682
Weighted FalsePositiveRate: 0.08944862142809062
Kappa statistic: 0.8218760646256206
Training time: 2.0
		
Iteration: 46
Labeled set size: 1219
Unlabelled set size: 379
	
Mean region size: 87.60951188986233
Incorrectly Classified Instances: 8.51063829787234
Correctly Classified Instances: 91.48936170212765
Weighted Precision: 0.9149106708003689
Weighted AreaUnderROC: 0.9766553393867574
Root mean squared error: 0.2731394859056865
Relative absolute error: 41.01911415106444
Root relative squared error: 54.6278971811373
Weighted TruePositiveRate: 0.9148936170212766
Weighted MatthewsCorrelation: 0.829409857922973
Weighted FMeasure: 0.9148662159525011
Iteration time: 7.0
Weighted AreaUnderPRC: 0.9777316779149452
Mean absolute error: 0.20509557075532223
Coverage of cases: 100.0
Instances selection time: 5.0
Test time: 23.0
Accumulative iteration time: 531.0
Weighted Recall: 0.9148936170212766
Weighted FalsePositiveRate: 0.08601768605228403
Kappa statistic: 0.8293445570832908
Training time: 2.0
		
Time end:Tue Oct 31 13.51.10 EET 2017