Correctly Classified Instances: 95.87609511889862
Correctly Classified Instances: 96.04505632040049
Correctly Classified Instances: 95.95118898623278
Correctly Classified Instances: 95.86983729662077
Correctly Classified Instances: 95.78848560700877
Correctly Classified Instances: 95.79474342928661
Correctly Classified Instances: 95.77596996245306
Correctly Classified Instances: 95.77596996245306
Correctly Classified Instances: 95.819774718398
Correctly Classified Instances: 95.819774718398
Correctly Classified Instances: 95.819774718398
Correctly Classified Instances: 95.77596996245306
Correctly Classified Instances: 95.60075093867334
Correctly Classified Instances: 96.08886107634542
Correctly Classified Instances: 95.9136420525657
Correctly Classified Instances: 95.62578222778473
Correctly Classified Instances: 95.7822277847309
Correctly Classified Instances: 95.90112640801001
Correctly Classified Instances: 96.20150187734669
Correctly Classified Instances: 96.43304130162704
Correctly Classified Instances: 96.73967459324156
Correctly Classified Instances: 96.97747183979975
Correctly Classified Instances: 96.45807259073842
Correctly Classified Instances: 96.72090112640801
Correctly Classified Instances: 96.72715894868585
Correctly Classified Instances: 96.8272841051314
Correctly Classified Instances: 96.48936170212765
Correctly Classified Instances: 96.78347934918648
Correctly Classified Instances: 96.88986232790987
Correctly Classified Instances: 96.57071339173966
Correctly Classified Instances: 97.04005006257822
Correctly Classified Instances: 96.85857321652064
Correctly Classified Instances: 96.88986232790988
Correctly Classified Instances: 97.24030037546933
Correctly Classified Instances: 97.47183979974969
Correctly Classified Instances: 97.49061326658321
Correctly Classified Instances: 97.50312891113892
Correctly Classified Instances: 97.77847309136419
Correctly Classified Instances: 97.81602002503128
Correctly Classified Instances: 97.83479349186481
Correctly Classified Instances: 97.73466833541927
Correctly Classified Instances: 97.81602002503129
Correctly Classified Instances: 97.95994993742177
Correctly Classified Instances: 98.02252816020025
Correctly Classified Instances: 98.03504380475594
Correctly Classified Instances: 98.17271589486857
