Correctly Classified Instances: 96.19524405506883
Correctly Classified Instances: 96.34543178973716
Correctly Classified Instances: 96.23904881101376
Correctly Classified Instances: 96.31414267834793
Correctly Classified Instances: 96.47684605757198
Correctly Classified Instances: 96.68335419274094
Correctly Classified Instances: 96.66458072590738
Correctly Classified Instances: 96.77722152690865
Correctly Classified Instances: 97.14643304130162
Correctly Classified Instances: 97.17772215269086
Correctly Classified Instances: 97.38423028785982
Correctly Classified Instances: 97.39048811013768
Correctly Classified Instances: 97.459324155194
Correctly Classified Instances: 97.52816020025031
Correctly Classified Instances: 97.4843554443054
Correctly Classified Instances: 97.52190237797247
Correctly Classified Instances: 97.57822277847308
Correctly Classified Instances: 97.59699624530663
Correctly Classified Instances: 97.71589486858574
Correctly Classified Instances: 97.82853566958698
Correctly Classified Instances: 97.90362953692114
Correctly Classified Instances: 97.95369211514392
Correctly Classified Instances: 98.09762202753441
Correctly Classified Instances: 98.03504380475593
Correctly Classified Instances: 98.04130162703379
Correctly Classified Instances: 98.14142678347935
Correctly Classified Instances: 98.23529411764704
Correctly Classified Instances: 98.19148936170211
Correctly Classified Instances: 98.21026282853566
Correctly Classified Instances: 98.02878598247808
Correctly Classified Instances: 98.10387984981227
Correctly Classified Instances: 98.14768460575719
Correctly Classified Instances: 98.26032540675844
Correctly Classified Instances: 98.19148936170211
Correctly Classified Instances: 98.360450563204
Correctly Classified Instances: 98.44180225281602
Correctly Classified Instances: 98.47309136420525
Correctly Classified Instances: 98.49812265331664
Correctly Classified Instances: 98.4668335419274
Correctly Classified Instances: 98.54818523153942
Correctly Classified Instances: 98.7171464330413
Correctly Classified Instances: 98.71088861076345
Correctly Classified Instances: 98.76095118898624
Correctly Classified Instances: 98.76720901126407
Correctly Classified Instances: 98.77346683354192
Correctly Classified Instances: 98.84856070087609
