Correctly Classified Instances: 95.87609511889862
Correctly Classified Instances: 95.4881101376721
Correctly Classified Instances: 95.70713391739676
Correctly Classified Instances: 96.0450563204005
Correctly Classified Instances: 96.08260325406759
Correctly Classified Instances: 96.01376720901128
Correctly Classified Instances: 95.92615769712143
Correctly Classified Instances: 95.88861076345434
Correctly Classified Instances: 95.69461827284104
Correctly Classified Instances: 95.89486858573217
Correctly Classified Instances: 95.7133917396746
Correctly Classified Instances: 95.73216520650814
Correctly Classified Instances: 95.27534418022529
Correctly Classified Instances: 95.42553191489363
Correctly Classified Instances: 95.31914893617021
Correctly Classified Instances: 95.41927409261577
Correctly Classified Instances: 95.38798498122652
Correctly Classified Instances: 95.55694618272841
Correctly Classified Instances: 95.68210262828535
Correctly Classified Instances: 95.76345431789737
Correctly Classified Instances: 95.83229036295369
Correctly Classified Instances: 95.81351689612015
Correctly Classified Instances: 95.81351689612015
Correctly Classified Instances: 95.76971214017522
Correctly Classified Instances: 95.84480600750939
Correctly Classified Instances: 95.85106382978724
Correctly Classified Instances: 95.91989987484355
Correctly Classified Instances: 95.9261576971214
Correctly Classified Instances: 95.46307884856068
Correctly Classified Instances: 95.56320400500626
Correctly Classified Instances: 95.56320400500626
Correctly Classified Instances: 95.52565707133917
Correctly Classified Instances: 95.63204005006257
Correctly Classified Instances: 95.70713391739676
Correctly Classified Instances: 96.43929912390487
Correctly Classified Instances: 96.92740926157695
Correctly Classified Instances: 97.16520650813516
Correctly Classified Instances: 97.27158948685857
Correctly Classified Instances: 97.4468085106383
Correctly Classified Instances: 97.6345431789737
Correctly Classified Instances: 97.66583229036294
Correctly Classified Instances: 97.84105131414267
Correctly Classified Instances: 97.95369211514392
Correctly Classified Instances: 98.12891113892366
Correctly Classified Instances: 98.39173967459325
Correctly Classified Instances: 98.36670838548186
