Wed Nov 01 07.02.33 EET 2017
Dataset: mushroom
Test set size: 4062
Initial Labelled set size: 812
Initial Unlabelled set size: 3250
Batch mode: QBestBatchMode
Batch size: 20
Classifiers: IBk-1cores
Scenario: PoolBasedSamplingScenario
Query strategy: RandomSelectionQueryStrategy-1cores
Time begining: Wed Nov 01 07.02.33 EET 2017
		
Iteration: 1
Labeled set size: 812
Unlabelled set size: 3250
	
Mean region size: 50.06154603643525
Incorrectly Classified Instances: 0.2708025603151157
Correctly Classified Instances: 99.72919743968488
Weighted Precision: 0.9973060586907659
Weighted AreaUnderROC: 0.998200688799388
Root mean squared error: 0.04885959910080666
Relative absolute error: 0.666295233119132
Root relative squared error: 9.771919820161331
Weighted TruePositiveRate: 0.9972919743968488
Weighted MatthewsCorrelation: 0.9945905165650267
Weighted FMeasure: 0.9972916905300894
Iteration time: 19.0
Weighted AreaUnderPRC: 0.997905181819313
Mean absolute error: 0.00333147616559566
Coverage of cases: 99.8276710979813
Instances selection time: 19.0
Test time: 1009.0
Accumulative iteration time: 19.0
Weighted Recall: 0.9972919743968488
Weighted FalsePositiveRate: 0.0029099519249387307
Kappa statistic: 0.994575885524745
Training time: 0.0
		
Iteration: 2
Labeled set size: 832
Unlabelled set size: 3230
	
Mean region size: 50.06154603643525
Incorrectly Classified Instances: 0.2708025603151157
Correctly Classified Instances: 99.72919743968488
Weighted Precision: 0.9973060586907659
Weighted AreaUnderROC: 0.9982090633338123
Root mean squared error: 0.04885984374507871
Relative absolute error: 0.6622121563460079
Root relative squared error: 9.771968749015741
Weighted TruePositiveRate: 0.9972919743968488
Weighted MatthewsCorrelation: 0.9945905165650267
Weighted FMeasure: 0.9972916905300894
Iteration time: 20.0
Weighted AreaUnderPRC: 0.9979168425063949
Mean absolute error: 0.00331106078173004
Coverage of cases: 99.8276710979813
Instances selection time: 20.0
Test time: 1146.0
Accumulative iteration time: 39.0
Weighted Recall: 0.9972919743968488
Weighted FalsePositiveRate: 0.0029099519249387307
Kappa statistic: 0.994575885524745
Training time: 0.0
		
Iteration: 3
Labeled set size: 852
Unlabelled set size: 3210
	
Mean region size: 50.08616445100935
Incorrectly Classified Instances: 0.2708025603151157
Correctly Classified Instances: 99.72919743968488
Weighted Precision: 0.9973060586907659
Weighted AreaUnderROC: 0.9989227193108511
Root mean squared error: 0.04530001336115823
Relative absolute error: 0.6175966432822058
Root relative squared error: 9.060002672231645
Weighted TruePositiveRate: 0.9972919743968488
Weighted MatthewsCorrelation: 0.9945905165650267
Weighted FMeasure: 0.9972916905300894
Iteration time: 18.0
Weighted AreaUnderPRC: 0.998691878708672
Mean absolute error: 0.0030879832164110287
Coverage of cases: 99.8769079271295
Instances selection time: 18.0
Test time: 967.0
Accumulative iteration time: 57.0
Weighted Recall: 0.9972919743968488
Weighted FalsePositiveRate: 0.0029099519249387307
Kappa statistic: 0.994575885524745
Training time: 0.0
		
Iteration: 4
Labeled set size: 872
Unlabelled set size: 3190
	
Mean region size: 50.08616445100935
Incorrectly Classified Instances: 0.2708025603151157
Correctly Classified Instances: 99.72919743968488
Weighted Precision: 0.9973060586907659
Weighted AreaUnderROC: 0.998924539861813
Root mean squared error: 0.045300186112471955
Relative absolute error: 0.6139558954925781
Root relative squared error: 9.06003722249439
Weighted TruePositiveRate: 0.9972919743968488
Weighted MatthewsCorrelation: 0.9945905165650267
Weighted FMeasure: 0.9972916905300894
Iteration time: 18.0
Weighted AreaUnderPRC: 0.9986923498196584
Mean absolute error: 0.0030697794774628903
Coverage of cases: 99.8769079271295
Instances selection time: 18.0
Test time: 998.0
Accumulative iteration time: 75.0
Weighted Recall: 0.9972919743968488
Weighted FalsePositiveRate: 0.0029099519249387307
Kappa statistic: 0.994575885524745
Training time: 0.0
		
Iteration: 5
Labeled set size: 892
Unlabelled set size: 3170
	
Mean region size: 50.08616445100935
Incorrectly Classified Instances: 0.2708025603151157
Correctly Classified Instances: 99.72919743968488
Weighted Precision: 0.9973060586907659
Weighted AreaUnderROC: 0.9989251467121335
Root mean squared error: 0.04530035200482712
Relative absolute error: 0.6103720816665019
Root relative squared error: 9.060070400965424
Weighted TruePositiveRate: 0.9972919743968488
Weighted MatthewsCorrelation: 0.9945905165650267
Weighted FMeasure: 0.9972916905300894
Iteration time: 17.0
Weighted AreaUnderPRC: 0.9986904006967252
Mean absolute error: 0.0030518604083325097
Coverage of cases: 99.8769079271295
Instances selection time: 17.0
Test time: 1048.0
Accumulative iteration time: 92.0
Weighted Recall: 0.9972919743968488
Weighted FalsePositiveRate: 0.0029099519249387307
Kappa statistic: 0.994575885524745
Training time: 0.0
		
Iteration: 6
Labeled set size: 912
Unlabelled set size: 3150
	
Mean region size: 50.08616445100935
Incorrectly Classified Instances: 0.2708025603151157
Correctly Classified Instances: 99.72919743968488
Weighted Precision: 0.9973060586907659
Weighted AreaUnderROC: 0.9989259963025824
Root mean squared error: 0.045300566494820456
Relative absolute error: 0.6075927113972353
Root relative squared error: 9.060113298964092
Weighted TruePositiveRate: 0.9972919743968488
Weighted MatthewsCorrelation: 0.9945905165650267
Weighted FMeasure: 0.9972916905300894
Iteration time: 17.0
Weighted AreaUnderPRC: 0.998687394299807
Mean absolute error: 0.0030379635569861762
Coverage of cases: 99.8769079271295
Instances selection time: 17.0
Test time: 1166.0
Accumulative iteration time: 109.0
Weighted Recall: 0.9972919743968488
Weighted FalsePositiveRate: 0.0029099519249387307
Kappa statistic: 0.994575885524745
Training time: 0.0
		
Iteration: 7
Labeled set size: 932
Unlabelled set size: 3130
	
Mean region size: 50.073855243722306
Incorrectly Classified Instances: 0.17232890201870998
Correctly Classified Instances: 99.8276710979813
Weighted Precision: 0.9982824253441622
Weighted AreaUnderROC: 0.9994749531026073
Root mean squared error: 0.03382203158770538
Relative absolute error: 0.4171034232267251
Root relative squared error: 6.764406317541076
Weighted TruePositiveRate: 0.9982767109798129
Weighted MatthewsCorrelation: 0.9965544712751208
Weighted FMeasure: 0.9982765989627084
Iteration time: 17.0
Weighted AreaUnderPRC: 0.9994034907574787
Mean absolute error: 0.0020855171161336256
Coverage of cases: 99.9507631708518
Instances selection time: 17.0
Test time: 1018.0
Accumulative iteration time: 126.0
Weighted Recall: 0.9982767109798129
Weighted FalsePositiveRate: 0.001851787588597374
Kappa statistic: 0.9965485354763794
Training time: 0.0
		
Iteration: 8
Labeled set size: 952
Unlabelled set size: 3110
	
Mean region size: 50.06154603643525
Incorrectly Classified Instances: 0.14771048744460857
Correctly Classified Instances: 99.85228951255539
Weighted Precision: 0.998527095423775
Weighted AreaUnderROC: 0.9994824780465827
Root mean squared error: 0.03144690133801876
Relative absolute error: 0.3740313647724435
Root relative squared error: 6.289380267603752
Weighted TruePositiveRate: 0.9985228951255539
Weighted MatthewsCorrelation: 0.997046017253315
Weighted FMeasure: 0.9985228133666838
Iteration time: 16.0
Weighted AreaUnderPRC: 0.9994071222621579
Mean absolute error: 0.0018701568238622174
Coverage of cases: 99.9507631708518
Instances selection time: 16.0
Test time: 1520.0
Accumulative iteration time: 142.0
Weighted Recall: 0.9985228951255539
Weighted FalsePositiveRate: 0.0015872465045120349
Kappa statistic: 0.9970416542653733
Training time: 0.0
		
Iteration: 9
Labeled set size: 972
Unlabelled set size: 3090
	
Mean region size: 50.06154603643525
Incorrectly Classified Instances: 0.14771048744460857
Correctly Classified Instances: 99.85228951255539
Weighted Precision: 0.998527095423775
Weighted AreaUnderROC: 0.9994832062669675
Root mean squared error: 0.031446744158001146
Relative absolute error: 0.37118900792496134
Root relative squared error: 6.289348831600229
Weighted TruePositiveRate: 0.9985228951255539
Weighted MatthewsCorrelation: 0.997046017253315
Weighted FMeasure: 0.9985228133666838
Iteration time: 18.0
Weighted AreaUnderPRC: 0.9994071794604323
Mean absolute error: 0.0018559450396248068
Coverage of cases: 99.9507631708518
Instances selection time: 18.0
Test time: 1288.0
Accumulative iteration time: 160.0
Weighted Recall: 0.9985228951255539
Weighted FalsePositiveRate: 0.0015872465045120349
Kappa statistic: 0.9970416542653733
Training time: 0.0
		
Iteration: 10
Labeled set size: 992
Unlabelled set size: 3070
	
Mean region size: 50.06154603643525
Incorrectly Classified Instances: 0.14771048744460857
Correctly Classified Instances: 99.85228951255539
Weighted Precision: 0.998527095423775
Weighted AreaUnderROC: 0.9994858764083784
Root mean squared error: 0.03144662482948347
Relative absolute error: 0.36877874211894374
Root relative squared error: 6.289324965896694
Weighted TruePositiveRate: 0.9985228951255539
Weighted MatthewsCorrelation: 0.997046017253315
Weighted FMeasure: 0.9985228133666838
Iteration time: 17.0
Weighted AreaUnderPRC: 0.9994087214641563
Mean absolute error: 0.0018438937105947188
Coverage of cases: 99.9507631708518
Instances selection time: 17.0
Test time: 1175.0
Accumulative iteration time: 177.0
Weighted Recall: 0.9985228951255539
Weighted FalsePositiveRate: 0.0015872465045120349
Kappa statistic: 0.9970416542653733
Training time: 0.0
		
Iteration: 11
Labeled set size: 1012
Unlabelled set size: 3050
	
Mean region size: 50.06154603643525
Incorrectly Classified Instances: 0.14771048744460857
Correctly Classified Instances: 99.85228951255539
Weighted Precision: 0.998527095423775
Weighted AreaUnderROC: 0.9994836917472241
Root mean squared error: 0.031864998018641164
Relative absolute error: 0.370677511937094
Root relative squared error: 6.372999603728233
Weighted TruePositiveRate: 0.9985228951255539
Weighted MatthewsCorrelation: 0.997046017253315
Weighted FMeasure: 0.9985228133666838
Iteration time: 40.0
Weighted AreaUnderPRC: 0.9994072145820325
Mean absolute error: 0.0018533875596854698
Coverage of cases: 99.9507631708518
Instances selection time: 40.0
Test time: 1068.0
Accumulative iteration time: 217.0
Weighted Recall: 0.9985228951255539
Weighted FalsePositiveRate: 0.0015872465045120349
Kappa statistic: 0.9970416542653733
Training time: 0.0
		
Iteration: 12
Labeled set size: 1032
Unlabelled set size: 3030
	
Mean region size: 50.06154603643525
Incorrectly Classified Instances: 0.14771048744460857
Correctly Classified Instances: 99.85228951255539
Weighted Precision: 0.998527095423775
Weighted AreaUnderROC: 0.9994846627077368
Root mean squared error: 0.031864854826419584
Relative absolute error: 0.3679968598201363
Root relative squared error: 6.372970965283916
Weighted TruePositiveRate: 0.9985228951255539
Weighted MatthewsCorrelation: 0.997046017253315
Weighted FMeasure: 0.9985228133666838
Iteration time: 16.0
Weighted AreaUnderPRC: 0.9994081742818494
Mean absolute error: 0.0018399842991006815
Coverage of cases: 99.9507631708518
Instances selection time: 16.0
Test time: 1100.0
Accumulative iteration time: 233.0
Weighted Recall: 0.9985228951255539
Weighted FalsePositiveRate: 0.0015872465045120349
Kappa statistic: 0.9970416542653733
Training time: 0.0
		
Iteration: 13
Labeled set size: 1052
Unlabelled set size: 3010
	
Mean region size: 50.06154603643525
Incorrectly Classified Instances: 0.14771048744460857
Correctly Classified Instances: 99.85228951255539
Weighted Precision: 0.998527095423775
Weighted AreaUnderROC: 0.9994836917472241
Root mean squared error: 0.031864734288917555
Relative absolute error: 0.3655715961972728
Root relative squared error: 6.372946857783511
Weighted TruePositiveRate: 0.9985228951255539
Weighted MatthewsCorrelation: 0.997046017253315
Weighted FMeasure: 0.9985228133666838
Iteration time: 20.0
Weighted AreaUnderPRC: 0.9994054638492016
Mean absolute error: 0.001827857980986364
Coverage of cases: 99.9507631708518
Instances selection time: 20.0
Test time: 1497.0
Accumulative iteration time: 253.0
Weighted Recall: 0.9985228951255539
Weighted FalsePositiveRate: 0.0015872465045120349
Kappa statistic: 0.9970416542653733
Training time: 0.0
		
Iteration: 14
Labeled set size: 1072
Unlabelled set size: 2990
	
Mean region size: 50.06154603643525
Incorrectly Classified Instances: 0.14771048744460857
Correctly Classified Instances: 99.85228951255539
Weighted Precision: 0.998527095423775
Weighted AreaUnderROC: 0.9994878183294041
Root mean squared error: 0.03186458524398514
Relative absolute error: 0.36284741203859944
Root relative squared error: 6.372917048797028
Weighted TruePositiveRate: 0.9985228951255539
Weighted MatthewsCorrelation: 0.997046017253315
Weighted FMeasure: 0.9985228133666838
Iteration time: 40.0
Weighted AreaUnderPRC: 0.9994067475426235
Mean absolute error: 0.001814237060192997
Coverage of cases: 99.9507631708518
Instances selection time: 40.0
Test time: 1412.0
Accumulative iteration time: 293.0
Weighted Recall: 0.9985228951255539
Weighted FalsePositiveRate: 0.0015872465045120349
Kappa statistic: 0.9970416542653733
Training time: 0.0
		
Iteration: 15
Labeled set size: 1092
Unlabelled set size: 2970
	
Mean region size: 50.06154603643525
Incorrectly Classified Instances: 0.14771048744460857
Correctly Classified Instances: 99.85228951255539
Weighted Precision: 0.998527095423775
Weighted AreaUnderROC: 0.9994902457306867
Root mean squared error: 0.031864450822354784
Relative absolute error: 0.36021006188686966
Root relative squared error: 6.372890164470957
Weighted TruePositiveRate: 0.9985228951255539
Weighted MatthewsCorrelation: 0.997046017253315
Weighted FMeasure: 0.9985228133666838
Iteration time: 17.0
Weighted AreaUnderPRC: 0.9994061885884898
Mean absolute error: 0.0018010503094343482
Coverage of cases: 99.9507631708518
Instances selection time: 17.0
Test time: 1185.0
Accumulative iteration time: 310.0
Weighted Recall: 0.9985228951255539
Weighted FalsePositiveRate: 0.0015872465045120349
Kappa statistic: 0.9970416542653733
Training time: 0.0
		
Iteration: 16
Labeled set size: 1112
Unlabelled set size: 2950
	
Mean region size: 50.06154603643525
Incorrectly Classified Instances: 0.14771048744460857
Correctly Classified Instances: 99.85228951255539
Weighted Precision: 0.998527095423775
Weighted AreaUnderROC: 0.999496556974021
Root mean squared error: 0.03186435309896115
Relative absolute error: 0.3578989075798423
Root relative squared error: 6.37287061979223
Weighted TruePositiveRate: 0.9985228951255539
Weighted MatthewsCorrelation: 0.997046017253315
Weighted FMeasure: 0.9985228133666838
Iteration time: 16.0
Weighted AreaUnderPRC: 0.9994116079530254
Mean absolute error: 0.0017894945378992113
Coverage of cases: 99.9507631708518
Instances selection time: 16.0
Test time: 1186.0
Accumulative iteration time: 326.0
Weighted Recall: 0.9985228951255539
Weighted FalsePositiveRate: 0.0015872465045120349
Kappa statistic: 0.9970416542653733
Training time: 0.0
		
Iteration: 17
Labeled set size: 1132
Unlabelled set size: 2930
	
Mean region size: 50.06154603643525
Incorrectly Classified Instances: 0.14771048744460857
Correctly Classified Instances: 99.85228951255539
Weighted Precision: 0.998527095423775
Weighted AreaUnderROC: 0.999501654516714
Root mean squared error: 0.03186426640615394
Relative absolute error: 0.35574692070494895
Root relative squared error: 6.372853281230788
Weighted TruePositiveRate: 0.9985228951255539
Weighted MatthewsCorrelation: 0.997046017253315
Weighted FMeasure: 0.9985228133666838
Iteration time: 16.0
Weighted AreaUnderPRC: 0.999414792094923
Mean absolute error: 0.0017787346035247449
Coverage of cases: 99.9507631708518
Instances selection time: 16.0
Test time: 1194.0
Accumulative iteration time: 342.0
Weighted Recall: 0.9985228951255539
Weighted FalsePositiveRate: 0.0015872465045120349
Kappa statistic: 0.9970416542653733
Training time: 0.0
		
Iteration: 18
Labeled set size: 1152
Unlabelled set size: 2910
	
Mean region size: 50.06154603643525
Incorrectly Classified Instances: 0.14771048744460857
Correctly Classified Instances: 99.85228951255539
Weighted Precision: 0.998527095423775
Weighted AreaUnderROC: 0.9995048101383813
Root mean squared error: 0.03186419419302577
Relative absolute error: 0.35380053080695456
Root relative squared error: 6.372838838605153
Weighted TruePositiveRate: 0.9985228951255539
Weighted MatthewsCorrelation: 0.997046017253315
Weighted FMeasure: 0.9985228133666838
Iteration time: 15.0
Weighted AreaUnderPRC: 0.9994156772246022
Mean absolute error: 0.0017690026540347727
Coverage of cases: 99.9507631708518
Instances selection time: 15.0
Test time: 1198.0
Accumulative iteration time: 357.0
Weighted Recall: 0.9985228951255539
Weighted FalsePositiveRate: 0.0015872465045120349
Kappa statistic: 0.9970416542653733
Training time: 0.0
		
Iteration: 19
Labeled set size: 1172
Unlabelled set size: 2890
	
Mean region size: 50.06154603643525
Incorrectly Classified Instances: 0.14771048744460857
Correctly Classified Instances: 99.85228951255539
Weighted Precision: 0.998527095423775
Weighted AreaUnderROC: 0.999507480279792
Root mean squared error: 0.03186410901714285
Relative absolute error: 0.3516757245810086
Root relative squared error: 6.37282180342857
Weighted TruePositiveRate: 0.9985228951255539
Weighted MatthewsCorrelation: 0.997046017253315
Weighted FMeasure: 0.9985228133666838
Iteration time: 15.0
Weighted AreaUnderPRC: 0.9994173113609203
Mean absolute error: 0.001758378622905043
Coverage of cases: 99.9507631708518
Instances selection time: 15.0
Test time: 1221.0
Accumulative iteration time: 372.0
Weighted Recall: 0.9985228951255539
Weighted FalsePositiveRate: 0.0015872465045120349
Kappa statistic: 0.9970416542653733
Training time: 0.0
		
Iteration: 20
Labeled set size: 1192
Unlabelled set size: 2870
	
Mean region size: 50.06154603643525
Incorrectly Classified Instances: 0.14771048744460857
Correctly Classified Instances: 99.85228951255539
Weighted Precision: 0.998527095423775
Weighted AreaUnderROC: 0.9995145197435111
Root mean squared error: 0.03186402056184209
Relative absolute error: 0.34940296648267455
Root relative squared error: 6.372804112368417
Weighted TruePositiveRate: 0.9985228951255539
Weighted MatthewsCorrelation: 0.997046017253315
Weighted FMeasure: 0.9985228133666838
Iteration time: 15.0
Weighted AreaUnderPRC: 0.9994236495684119
Mean absolute error: 0.0017470148324133727
Coverage of cases: 99.9507631708518
Instances selection time: 15.0
Test time: 1225.0
Accumulative iteration time: 387.0
Weighted Recall: 0.9985228951255539
Weighted FalsePositiveRate: 0.0015872465045120349
Kappa statistic: 0.9970416542653733
Training time: 0.0
		
Iteration: 21
Labeled set size: 1212
Unlabelled set size: 2850
	
Mean region size: 50.06154603643525
Incorrectly Classified Instances: 0.14771048744460857
Correctly Classified Instances: 99.85228951255539
Weighted Precision: 0.998527095423775
Weighted AreaUnderROC: 0.9995205882467172
Root mean squared error: 0.031863960644298785
Relative absolute error: 0.3474479013107037
Root relative squared error: 6.372792128859757
Weighted TruePositiveRate: 0.9985228951255539
Weighted MatthewsCorrelation: 0.997046017253315
Weighted FMeasure: 0.9985228133666838
Iteration time: 14.0
Weighted AreaUnderPRC: 0.9994286237698258
Mean absolute error: 0.0017372395065535183
Coverage of cases: 99.9507631708518
Instances selection time: 14.0
Test time: 1234.0
Accumulative iteration time: 401.0
Weighted Recall: 0.9985228951255539
Weighted FalsePositiveRate: 0.0015872465045120349
Kappa statistic: 0.9970416542653733
Training time: 0.0
		
Iteration: 22
Labeled set size: 1232
Unlabelled set size: 2830
	
Mean region size: 50.06154603643525
Incorrectly Classified Instances: 0.14771048744460857
Correctly Classified Instances: 99.85228951255539
Weighted Precision: 0.998527095423775
Weighted AreaUnderROC: 0.9995242293486408
Root mean squared error: 0.03186387119967039
Relative absolute error: 0.34517492530874666
Root relative squared error: 6.3727742399340785
Weighted TruePositiveRate: 0.9985228951255539
Weighted MatthewsCorrelation: 0.997046017253315
Weighted FMeasure: 0.9985228133666838
Iteration time: 14.0
Weighted AreaUnderPRC: 0.9994308317502076
Mean absolute error: 0.0017258746265437334
Coverage of cases: 99.9507631708518
Instances selection time: 14.0
Test time: 1257.0
Accumulative iteration time: 415.0
Weighted Recall: 0.9985228951255539
Weighted FalsePositiveRate: 0.0015872465045120349
Kappa statistic: 0.9970416542653733
Training time: 0.0
		
Iteration: 23
Labeled set size: 1252
Unlabelled set size: 2810
	
Mean region size: 50.06154603643525
Incorrectly Classified Instances: 0.14771048744460857
Correctly Classified Instances: 99.85228951255539
Weighted Precision: 0.998527095423775
Weighted AreaUnderROC: 0.9995278704505646
Root mean squared error: 0.03186380314984587
Relative absolute error: 0.34318239222038466
Root relative squared error: 6.372760629969173
Weighted TruePositiveRate: 0.9985228951255539
Weighted MatthewsCorrelation: 0.997046017253315
Weighted FMeasure: 0.9985228133666838
Iteration time: 15.0
Weighted AreaUnderPRC: 0.9994330515939313
Mean absolute error: 0.0017159119611019232
Coverage of cases: 99.9507631708518
Instances selection time: 15.0
Test time: 1276.0
Accumulative iteration time: 430.0
Weighted Recall: 0.9985228951255539
Weighted FalsePositiveRate: 0.0015872465045120349
Kappa statistic: 0.9970416542653733
Training time: 0.0
		
Iteration: 24
Labeled set size: 1272
Unlabelled set size: 2790
	
Mean region size: 50.06154603643525
Incorrectly Classified Instances: 0.14771048744460857
Correctly Classified Instances: 99.85228951255539
Weighted Precision: 0.998527095423775
Weighted AreaUnderROC: 0.9995339389537705
Root mean squared error: 0.031863759407119496
Relative absolute error: 0.34142373340011956
Root relative squared error: 6.372751881423899
Weighted TruePositiveRate: 0.9985228951255539
Weighted MatthewsCorrelation: 0.997046017253315
Weighted FMeasure: 0.9985228133666838
Iteration time: 14.0
Weighted AreaUnderPRC: 0.9994387869983901
Mean absolute error: 0.0017071186670005976
Coverage of cases: 99.9507631708518
Instances selection time: 14.0
Test time: 1274.0
Accumulative iteration time: 444.0
Weighted Recall: 0.9985228951255539
Weighted FalsePositiveRate: 0.0015872465045120349
Kappa statistic: 0.9970416542653733
Training time: 0.0
		
Iteration: 25
Labeled set size: 1292
Unlabelled set size: 2770
	
Mean region size: 50.06154603643525
Incorrectly Classified Instances: 0.14771048744460857
Correctly Classified Instances: 99.85228951255539
Weighted Precision: 0.998527095423775
Weighted AreaUnderROC: 0.9995361236149249
Root mean squared error: 0.031863728102248974
Relative absolute error: 0.3398607645401818
Root relative squared error: 6.372745620449795
Weighted TruePositiveRate: 0.9985228951255539
Weighted MatthewsCorrelation: 0.997046017253315
Weighted FMeasure: 0.9985228133666838
Iteration time: 14.0
Weighted AreaUnderPRC: 0.9994399722237215
Mean absolute error: 0.0016993038227009092
Coverage of cases: 99.9507631708518
Instances selection time: 14.0
Test time: 1464.0
Accumulative iteration time: 458.0
Weighted Recall: 0.9985228951255539
Weighted FalsePositiveRate: 0.0015872465045120349
Kappa statistic: 0.9970416542653733
Training time: 0.0
		
Iteration: 26
Labeled set size: 1312
Unlabelled set size: 2750
	
Mean region size: 50.06154603643525
Incorrectly Classified Instances: 0.14771048744460857
Correctly Classified Instances: 99.85228951255539
Weighted Precision: 0.998527095423775
Weighted AreaUnderROC: 0.999541221157618
Root mean squared error: 0.031863684497669395
Relative absolute error: 0.338034419862869
Root relative squared error: 6.372736899533879
Weighted TruePositiveRate: 0.9985228951255539
Weighted MatthewsCorrelation: 0.997046017253315
Weighted FMeasure: 0.9985228133666838
Iteration time: 28.0
Weighted AreaUnderPRC: 0.9994458688780592
Mean absolute error: 0.001690172099314345
Coverage of cases: 99.9507631708518
Instances selection time: 28.0
Test time: 1488.0
Accumulative iteration time: 486.0
Weighted Recall: 0.9985228951255539
Weighted FalsePositiveRate: 0.0015872465045120349
Kappa statistic: 0.9970416542653733
Training time: 0.0
		
Iteration: 27
Labeled set size: 1332
Unlabelled set size: 2730
	
Mean region size: 50.06154603643525
Incorrectly Classified Instances: 0.14771048744460857
Correctly Classified Instances: 99.85228951255539
Weighted Precision: 0.998527095423775
Weighted AreaUnderROC: 0.9995429203385158
Root mean squared error: 0.03186365324787772
Relative absolute error: 0.33645233028624943
Root relative squared error: 6.372730649575543
Weighted TruePositiveRate: 0.9985228951255539
Weighted MatthewsCorrelation: 0.997046017253315
Weighted FMeasure: 0.9985228133666838
Iteration time: 13.0
Weighted AreaUnderPRC: 0.9994465809237438
Mean absolute error: 0.0016822616514312473
Coverage of cases: 99.9507631708518
Instances selection time: 13.0
Test time: 1301.0
Accumulative iteration time: 499.0
Weighted Recall: 0.9985228951255539
Weighted FalsePositiveRate: 0.0015872465045120349
Kappa statistic: 0.9970416542653733
Training time: 0.0
		
Iteration: 28
Labeled set size: 1352
Unlabelled set size: 2710
	
Mean region size: 50.06154603643525
Incorrectly Classified Instances: 0.14771048744460857
Correctly Classified Instances: 99.85228951255539
Weighted Precision: 0.998527095423775
Weighted AreaUnderROC: 0.9995453477397981
Root mean squared error: 0.031863629420154575
Relative absolute error: 0.3349898982549505
Root relative squared error: 6.372725884030915
Weighted TruePositiveRate: 0.9985228951255539
Weighted MatthewsCorrelation: 0.997046017253315
Weighted FMeasure: 0.9985228133666838
Iteration time: 13.0
Weighted AreaUnderPRC: 0.999449307504618
Mean absolute error: 0.0016749494912747527
Coverage of cases: 99.9507631708518
Instances selection time: 13.0
Test time: 1296.0
Accumulative iteration time: 512.0
Weighted Recall: 0.9985228951255539
Weighted FalsePositiveRate: 0.0015872465045120349
Kappa statistic: 0.9970416542653733
Training time: 0.0
		
Iteration: 29
Labeled set size: 1372
Unlabelled set size: 2690
	
Mean region size: 50.06154603643525
Incorrectly Classified Instances: 0.14771048744460857
Correctly Classified Instances: 99.85228951255539
Weighted Precision: 0.998527095423775
Weighted AreaUnderROC: 0.9995499598022347
Root mean squared error: 0.031863604529831675
Relative absolute error: 0.3334760598079989
Root relative squared error: 6.372720905966335
Weighted TruePositiveRate: 0.9985228951255539
Weighted MatthewsCorrelation: 0.997046017253315
Weighted FMeasure: 0.9985228133666838
Iteration time: 13.0
Weighted AreaUnderPRC: 0.9994535830119597
Mean absolute error: 0.0016673802990399944
Coverage of cases: 99.9507631708518
Instances selection time: 13.0
Test time: 1303.0
Accumulative iteration time: 525.0
Weighted Recall: 0.9985228951255539
Weighted FalsePositiveRate: 0.0015872465045120349
Kappa statistic: 0.9970416542653733
Training time: 0.0
		
Iteration: 30
Labeled set size: 1392
Unlabelled set size: 2670
	
Mean region size: 50.06154603643525
Incorrectly Classified Instances: 0.14771048744460857
Correctly Classified Instances: 99.85228951255539
Weighted Precision: 0.998527095423775
Weighted AreaUnderROC: 0.9995538436442867
Root mean squared error: 0.03167520674469901
Relative absolute error: 0.3279369716620249
Root relative squared error: 6.335041348939802
Weighted TruePositiveRate: 0.9985228951255539
Weighted MatthewsCorrelation: 0.997046017253315
Weighted FMeasure: 0.9985228133666838
Iteration time: 13.0
Weighted AreaUnderPRC: 0.9994576695839439
Mean absolute error: 0.0016396848583101246
Coverage of cases: 99.9507631708518
Instances selection time: 13.0
Test time: 1315.0
Accumulative iteration time: 538.0
Weighted Recall: 0.9985228951255539
Weighted FalsePositiveRate: 0.0015872465045120349
Kappa statistic: 0.9970416542653733
Training time: 0.0
		
Iteration: 31
Labeled set size: 1412
Unlabelled set size: 2650
	
Mean region size: 50.06154603643525
Incorrectly Classified Instances: 0.14771048744460857
Correctly Classified Instances: 99.85228951255539
Weighted Precision: 0.998527095423775
Weighted AreaUnderROC: 0.9995599121474928
Root mean squared error: 0.03167518152461469
Relative absolute error: 0.32644737029147286
Root relative squared error: 6.335036304922938
Weighted TruePositiveRate: 0.9985228951255539
Weighted MatthewsCorrelation: 0.997046017253315
Weighted FMeasure: 0.9985228133666838
Iteration time: 12.0
Weighted AreaUnderPRC: 0.999463325039703
Mean absolute error: 0.0016322368514573643
Coverage of cases: 99.9507631708518
Instances selection time: 12.0
Test time: 1343.0
Accumulative iteration time: 550.0
Weighted Recall: 0.9985228951255539
Weighted FalsePositiveRate: 0.0015872465045120349
Kappa statistic: 0.9970416542653733
Training time: 0.0
		
Iteration: 32
Labeled set size: 1432
Unlabelled set size: 2630
	
Mean region size: 50.06154603643525
Incorrectly Classified Instances: 0.14771048744460857
Correctly Classified Instances: 99.85228951255539
Weighted Precision: 0.998527095423775
Weighted AreaUnderROC: 0.9995647669500577
Root mean squared error: 0.03167516576755216
Relative absolute error: 0.32508280557265357
Root relative squared error: 6.335033153510432
Weighted TruePositiveRate: 0.9985228951255539
Weighted MatthewsCorrelation: 0.997046017253315
Weighted FMeasure: 0.9985228133666838
Iteration time: 12.0
Weighted AreaUnderPRC: 0.9994687183991731
Mean absolute error: 0.0016254140278632678
Coverage of cases: 99.9507631708518
Instances selection time: 12.0
Test time: 1342.0
Accumulative iteration time: 562.0
Weighted Recall: 0.9985228951255539
Weighted FalsePositiveRate: 0.0015872465045120349
Kappa statistic: 0.9970416542653733
Training time: 0.0
		
Iteration: 33
Labeled set size: 1452
Unlabelled set size: 2610
	
Mean region size: 50.06154603643525
Incorrectly Classified Instances: 0.14771048744460857
Correctly Classified Instances: 99.85228951255539
Weighted Precision: 0.998527095423775
Weighted AreaUnderROC: 0.9995684080519813
Root mean squared error: 0.03167513940142914
Relative absolute error: 0.3235729792620639
Root relative squared error: 6.3350278802858275
Weighted TruePositiveRate: 0.9985228951255539
Weighted MatthewsCorrelation: 0.997046017253315
Weighted FMeasure: 0.9985228133666838
Iteration time: 12.0
Weighted AreaUnderPRC: 0.9994731208388067
Mean absolute error: 0.0016178648963103195
Coverage of cases: 99.9507631708518
Instances selection time: 12.0
Test time: 1352.0
Accumulative iteration time: 574.0
Weighted Recall: 0.9985228951255539
Weighted FalsePositiveRate: 0.0015872465045120349
Kappa statistic: 0.9970416542653733
Training time: 0.0
		
Iteration: 34
Labeled set size: 1472
Unlabelled set size: 2590
	
Mean region size: 50.06154603643525
Incorrectly Classified Instances: 0.14771048744460857
Correctly Classified Instances: 99.85228951255539
Weighted Precision: 0.998527095423775
Weighted AreaUnderROC: 0.9995708354532638
Root mean squared error: 0.03167513343687188
Relative absolute error: 0.32231739139807786
Root relative squared error: 6.335026687374376
Weighted TruePositiveRate: 0.9985228951255539
Weighted MatthewsCorrelation: 0.997046017253315
Weighted FMeasure: 0.9985228133666838
Iteration time: 12.0
Weighted AreaUnderPRC: 0.9994750704973797
Mean absolute error: 0.0016115869569903894
Coverage of cases: 99.9507631708518
Instances selection time: 12.0
Test time: 1370.0
Accumulative iteration time: 586.0
Weighted Recall: 0.9985228951255539
Weighted FalsePositiveRate: 0.0015872465045120349
Kappa statistic: 0.9970416542653733
Training time: 0.0
		
Iteration: 35
Labeled set size: 1492
Unlabelled set size: 2570
	
Mean region size: 50.06154603643525
Incorrectly Classified Instances: 0.14771048744460857
Correctly Classified Instances: 99.85228951255539
Weighted Precision: 0.998527095423775
Weighted AreaUnderROC: 0.9995739910749311
Root mean squared error: 0.03167512603150836
Relative absolute error: 0.32111891128330605
Root relative squared error: 6.3350252063016725
Weighted TruePositiveRate: 0.9985228951255539
Weighted MatthewsCorrelation: 0.997046017253315
Weighted FMeasure: 0.9985228133666838
Iteration time: 11.0
Weighted AreaUnderPRC: 0.9994786284186317
Mean absolute error: 0.0016055945564165304
Coverage of cases: 99.9507631708518
Instances selection time: 11.0
Test time: 1379.0
Accumulative iteration time: 597.0
Weighted Recall: 0.9985228951255539
Weighted FalsePositiveRate: 0.0015872465045120349
Kappa statistic: 0.9970416542653733
Training time: 0.0
		
Iteration: 36
Labeled set size: 1512
Unlabelled set size: 2550
	
Mean region size: 50.06154603643525
Incorrectly Classified Instances: 0.14771048744460857
Correctly Classified Instances: 99.85228951255539
Weighted Precision: 0.998527095423775
Weighted AreaUnderROC: 0.9995781176571111
Root mean squared error: 0.03167511283292481
Relative absolute error: 0.3197736316265435
Root relative squared error: 6.335022566584962
Weighted TruePositiveRate: 0.9985228951255539
Weighted MatthewsCorrelation: 0.997046017253315
Weighted FMeasure: 0.9985228133666838
Iteration time: 12.0
Weighted AreaUnderPRC: 0.9994834687983838
Mean absolute error: 0.0015988681581327175
Coverage of cases: 99.9507631708518
Instances selection time: 12.0
Test time: 1390.0
Accumulative iteration time: 609.0
Weighted Recall: 0.9985228951255539
Weighted FalsePositiveRate: 0.0015872465045120349
Kappa statistic: 0.9970416542653733
Training time: 0.0
		
Iteration: 37
Labeled set size: 1532
Unlabelled set size: 2530
	
Mean region size: 50.06154603643525
Incorrectly Classified Instances: 0.14771048744460857
Correctly Classified Instances: 99.85228951255539
Weighted Precision: 0.998527095423775
Weighted AreaUnderROC: 0.9995832151998043
Root mean squared error: 0.031675105612612074
Relative absolute error: 0.31857742910973286
Root relative squared error: 6.335021122522415
Weighted TruePositiveRate: 0.9985228951255539
Weighted MatthewsCorrelation: 0.997046017253315
Weighted FMeasure: 0.9985228133666838
Iteration time: 11.0
Weighted AreaUnderPRC: 0.9994873923245731
Mean absolute error: 0.0015928871455486643
Coverage of cases: 99.9507631708518
Instances selection time: 11.0
Test time: 1418.0
Accumulative iteration time: 620.0
Weighted Recall: 0.9985228951255539
Weighted FalsePositiveRate: 0.0015872465045120349
Kappa statistic: 0.9970416542653733
Training time: 0.0
		
Iteration: 38
Labeled set size: 1552
Unlabelled set size: 2510
	
Mean region size: 50.06154603643525
Incorrectly Classified Instances: 0.14771048744460857
Correctly Classified Instances: 99.85228951255539
Weighted Precision: 0.998527095423775
Weighted AreaUnderROC: 0.9995863708214714
Root mean squared error: 0.03167508190007533
Relative absolute error: 0.3171179962858617
Root relative squared error: 6.335016380015065
Weighted TruePositiveRate: 0.9985228951255539
Weighted MatthewsCorrelation: 0.997046017253315
Weighted FMeasure: 0.9985228133666838
Iteration time: 11.0
Weighted AreaUnderPRC: 0.9994891186945225
Mean absolute error: 0.0015855899814293084
Coverage of cases: 99.9507631708518
Instances selection time: 11.0
Test time: 1415.0
Accumulative iteration time: 631.0
Weighted Recall: 0.9985228951255539
Weighted FalsePositiveRate: 0.0015872465045120349
Kappa statistic: 0.9970416542653733
Training time: 0.0
		
Iteration: 39
Labeled set size: 1572
Unlabelled set size: 2490
	
Mean region size: 50.06154603643525
Incorrectly Classified Instances: 0.14771048744460857
Correctly Classified Instances: 99.85228951255539
Weighted Precision: 0.998527095423775
Weighted AreaUnderROC: 0.9995960804266012
Root mean squared error: 0.031675058604136434
Relative absolute error: 0.3156508441712863
Root relative squared error: 6.3350117208272865
Weighted TruePositiveRate: 0.9985228951255539
Weighted MatthewsCorrelation: 0.997046017253315
Weighted FMeasure: 0.9985228133666838
Iteration time: 11.0
Weighted AreaUnderPRC: 0.999498660415532
Mean absolute error: 0.0015782542208564315
Coverage of cases: 99.9507631708518
Instances selection time: 11.0
Test time: 1429.0
Accumulative iteration time: 642.0
Weighted Recall: 0.9985228951255539
Weighted FalsePositiveRate: 0.0015872465045120349
Kappa statistic: 0.9970416542653733
Training time: 0.0
		
Iteration: 40
Labeled set size: 1592
Unlabelled set size: 2470
	
Mean region size: 50.06154603643525
Incorrectly Classified Instances: 0.14771048744460857
Correctly Classified Instances: 99.85228951255539
Weighted Precision: 0.998527095423775
Weighted AreaUnderROC: 0.9995999642686532
Root mean squared error: 0.03167505075009781
Relative absolute error: 0.31445509587479176
Root relative squared error: 6.335010150019563
Weighted TruePositiveRate: 0.9985228951255539
Weighted MatthewsCorrelation: 0.997046017253315
Weighted FMeasure: 0.9985228133666838
Iteration time: 11.0
Weighted AreaUnderPRC: 0.9995016124478822
Mean absolute error: 0.0015722754793739589
Coverage of cases: 99.9507631708518
Instances selection time: 11.0
Test time: 1434.0
Accumulative iteration time: 653.0
Weighted Recall: 0.9985228951255539
Weighted FalsePositiveRate: 0.0015872465045120349
Kappa statistic: 0.9970416542653733
Training time: 0.0
		
Iteration: 41
Labeled set size: 1612
Unlabelled set size: 2450
	
Mean region size: 50.06154603643525
Incorrectly Classified Instances: 0.14771048744460857
Correctly Classified Instances: 99.85228951255539
Weighted Precision: 0.998527095423775
Weighted AreaUnderROC: 0.9996023916699355
Root mean squared error: 0.0316750412957771
Relative absolute error: 0.3132355641740167
Root relative squared error: 6.33500825915542
Weighted TruePositiveRate: 0.9985228951255539
Weighted MatthewsCorrelation: 0.997046017253315
Weighted FMeasure: 0.9985228133666838
Iteration time: 11.0
Weighted AreaUnderPRC: 0.999504253931774
Mean absolute error: 0.0015661778208700837
Coverage of cases: 99.9507631708518
Instances selection time: 11.0
Test time: 1445.0
Accumulative iteration time: 664.0
Weighted Recall: 0.9985228951255539
Weighted FalsePositiveRate: 0.0015872465045120349
Kappa statistic: 0.9970416542653733
Training time: 0.0
		
Iteration: 42
Labeled set size: 1632
Unlabelled set size: 2430
	
Mean region size: 50.06154603643525
Incorrectly Classified Instances: 0.14771048744460857
Correctly Classified Instances: 99.85228951255539
Weighted Precision: 0.998527095423775
Weighted AreaUnderROC: 0.9996079746928852
Root mean squared error: 0.031675029845029117
Relative absolute error: 0.311957795286055
Root relative squared error: 6.335005969005823
Weighted TruePositiveRate: 0.9985228951255539
Weighted MatthewsCorrelation: 0.997046017253315
Weighted FMeasure: 0.9985228133666838
Iteration time: 11.0
Weighted AreaUnderPRC: 0.9995110977831946
Mean absolute error: 0.0015597889764302748
Coverage of cases: 99.9507631708518
Instances selection time: 11.0
Test time: 1466.0
Accumulative iteration time: 675.0
Weighted Recall: 0.9985228951255539
Weighted FalsePositiveRate: 0.0015872465045120349
Kappa statistic: 0.9970416542653733
Training time: 0.0
		
Iteration: 43
Labeled set size: 1652
Unlabelled set size: 2410
	
Mean region size: 50.06154603643525
Incorrectly Classified Instances: 0.14771048744460857
Correctly Classified Instances: 99.85228951255539
Weighted Precision: 0.998527095423775
Weighted AreaUnderROC: 0.9996140431960913
Root mean squared error: 0.03167502261737219
Relative absolute error: 0.31072577722299544
Root relative squared error: 6.3350045234744385
Weighted TruePositiveRate: 0.9985228951255539
Weighted MatthewsCorrelation: 0.997046017253315
Weighted FMeasure: 0.9985228133666838
Iteration time: 11.0
Weighted AreaUnderPRC: 0.9995169609601713
Mean absolute error: 0.0015536288861149772
Coverage of cases: 99.9507631708518
Instances selection time: 11.0
Test time: 1478.0
Accumulative iteration time: 686.0
Weighted Recall: 0.9985228951255539
Weighted FalsePositiveRate: 0.0015872465045120349
Kappa statistic: 0.9970416542653733
Training time: 0.0
		
Iteration: 44
Labeled set size: 1672
Unlabelled set size: 2390
	
Mean region size: 50.06154603643525
Incorrectly Classified Instances: 0.14771048744460857
Correctly Classified Instances: 99.85228951255539
Weighted Precision: 0.998527095423775
Weighted AreaUnderROC: 0.999614771416476
Root mean squared error: 0.03167503344197556
Relative absolute error: 0.3098189185671372
Root relative squared error: 6.3350066883951115
Weighted TruePositiveRate: 0.9985228951255539
Weighted MatthewsCorrelation: 0.997046017253315
Weighted FMeasure: 0.9985228133666838
Iteration time: 11.0
Weighted AreaUnderPRC: 0.9995174657003273
Mean absolute error: 0.0015490945928356861
Coverage of cases: 99.9507631708518
Instances selection time: 10.0
Test time: 1488.0
Accumulative iteration time: 697.0
Weighted Recall: 0.9985228951255539
Weighted FalsePositiveRate: 0.0015872465045120349
Kappa statistic: 0.9970416542653733
Training time: 1.0
		
Iteration: 45
Labeled set size: 1692
Unlabelled set size: 2370
	
Mean region size: 50.06154603643525
Incorrectly Classified Instances: 0.14771048744460857
Correctly Classified Instances: 99.85228951255539
Weighted Precision: 0.998527095423775
Weighted AreaUnderROC: 0.999618655258528
Root mean squared error: 0.03202711231383716
Relative absolute error: 0.31200165845625155
Root relative squared error: 6.405422462767432
Weighted TruePositiveRate: 0.9985228951255539
Weighted MatthewsCorrelation: 0.997046017253315
Weighted FMeasure: 0.9985228133666838
Iteration time: 10.0
Weighted AreaUnderPRC: 0.9995214498193584
Mean absolute error: 0.0015600082922812577
Coverage of cases: 99.9507631708518
Instances selection time: 10.0
Test time: 1500.0
Accumulative iteration time: 707.0
Weighted Recall: 0.9985228951255539
Weighted FalsePositiveRate: 0.0015872465045120349
Kappa statistic: 0.9970416542653733
Training time: 0.0
		
Iteration: 46
Labeled set size: 1712
Unlabelled set size: 2350
	
Mean region size: 50.06154603643525
Incorrectly Classified Instances: 0.14771048744460857
Correctly Classified Instances: 99.85228951255539
Weighted Precision: 0.998527095423775
Weighted AreaUnderROC: 0.9996281221235295
Root mean squared error: 0.03202710718911397
Relative absolute error: 0.31082357217046147
Root relative squared error: 6.405421437822794
Weighted TruePositiveRate: 0.9985228951255539
Weighted MatthewsCorrelation: 0.997046017253315
Weighted FMeasure: 0.9985228133666838
Iteration time: 10.0
Weighted AreaUnderPRC: 0.9995329196139029
Mean absolute error: 0.0015541178608523074
Coverage of cases: 99.9507631708518
Instances selection time: 10.0
Test time: 1508.0
Accumulative iteration time: 717.0
Weighted Recall: 0.9985228951255539
Weighted FalsePositiveRate: 0.0015872465045120349
Kappa statistic: 0.9970416542653733
Training time: 0.0
		
Time end:Wed Nov 01 07.03.38 EET 2017