Wed Nov 01 07.09.26 EET 2017
Dataset: mushroom
Test set size: 4062
Initial Labelled set size: 812
Initial Unlabelled set size: 3250
Batch mode: QBestBatchMode
Batch size: 20
Classifiers: SMO-1cores
Scenario: PoolBasedSamplingScenario
Query strategy: VoteEntropyQueryStrategy-1cores
Time begining: Wed Nov 01 07.09.26 EET 2017
		
Iteration: 1
Labeled set size: 812
Unlabelled set size: 3250
	
Mean region size: 50.0
Incorrectly Classified Instances: 0.34465780403741997
Correctly Classified Instances: 99.65534219596258
Weighted Precision: 0.9965551064461662
Weighted AreaUnderROC: 0.9965135235380248
Root mean squared error: 0.05870756374074979
Relative absolute error: 0.6893156080748399
Root relative squared error: 11.741512748149958
Weighted TruePositiveRate: 0.9965534219596258
Weighted MatthewsCorrelation: 0.9930993692299427
Weighted FMeasure: 0.9965532964571889
Iteration time: 204.0
Weighted AreaUnderPRC: 0.9948250451858812
Mean absolute error: 0.0034465780403741997
Coverage of cases: 99.65534219596258
Instances selection time: 25.0
Test time: 28.0
Accumulative iteration time: 204.0
Weighted Recall: 0.9965534219596258
Weighted FalsePositiveRate: 0.003526374883576289
Kappa statistic: 0.9930974379390873
Training time: 179.0
		
Iteration: 2
Labeled set size: 832
Unlabelled set size: 3230
	
Mean region size: 50.0
Incorrectly Classified Instances: 0.34465780403741997
Correctly Classified Instances: 99.65534219596258
Weighted Precision: 0.9965551064461662
Weighted AreaUnderROC: 0.9965135235380248
Root mean squared error: 0.05870756374074979
Relative absolute error: 0.6893156080748399
Root relative squared error: 11.741512748149958
Weighted TruePositiveRate: 0.9965534219596258
Weighted MatthewsCorrelation: 0.9930993692299427
Weighted FMeasure: 0.9965532964571889
Iteration time: 204.0
Weighted AreaUnderPRC: 0.9948250451858812
Mean absolute error: 0.0034465780403741997
Coverage of cases: 99.65534219596258
Instances selection time: 22.0
Test time: 29.0
Accumulative iteration time: 408.0
Weighted Recall: 0.9965534219596258
Weighted FalsePositiveRate: 0.003526374883576289
Kappa statistic: 0.9930974379390873
Training time: 182.0
		
Iteration: 3
Labeled set size: 852
Unlabelled set size: 3210
	
Mean region size: 50.0
Incorrectly Classified Instances: 0.34465780403741997
Correctly Classified Instances: 99.65534219596258
Weighted Precision: 0.9965551064461662
Weighted AreaUnderROC: 0.9965135235380248
Root mean squared error: 0.05870756374074979
Relative absolute error: 0.6893156080748399
Root relative squared error: 11.741512748149958
Weighted TruePositiveRate: 0.9965534219596258
Weighted MatthewsCorrelation: 0.9930993692299427
Weighted FMeasure: 0.9965532964571889
Iteration time: 207.0
Weighted AreaUnderPRC: 0.9948250451858812
Mean absolute error: 0.0034465780403741997
Coverage of cases: 99.65534219596258
Instances selection time: 22.0
Test time: 29.0
Accumulative iteration time: 615.0
Weighted Recall: 0.9965534219596258
Weighted FalsePositiveRate: 0.003526374883576289
Kappa statistic: 0.9930974379390873
Training time: 185.0
		
Iteration: 4
Labeled set size: 872
Unlabelled set size: 3190
	
Mean region size: 50.0
Incorrectly Classified Instances: 0.34465780403741997
Correctly Classified Instances: 99.65534219596258
Weighted Precision: 0.9965551064461662
Weighted AreaUnderROC: 0.9965135235380248
Root mean squared error: 0.05870756374074979
Relative absolute error: 0.6893156080748399
Root relative squared error: 11.741512748149958
Weighted TruePositiveRate: 0.9965534219596258
Weighted MatthewsCorrelation: 0.9930993692299427
Weighted FMeasure: 0.9965532964571889
Iteration time: 191.0
Weighted AreaUnderPRC: 0.9948250451858812
Mean absolute error: 0.0034465780403741997
Coverage of cases: 99.65534219596258
Instances selection time: 22.0
Test time: 28.0
Accumulative iteration time: 806.0
Weighted Recall: 0.9965534219596258
Weighted FalsePositiveRate: 0.003526374883576289
Kappa statistic: 0.9930974379390873
Training time: 169.0
		
Iteration: 5
Labeled set size: 892
Unlabelled set size: 3170
	
Mean region size: 50.0
Incorrectly Classified Instances: 0.34465780403741997
Correctly Classified Instances: 99.65534219596258
Weighted Precision: 0.9965551064461662
Weighted AreaUnderROC: 0.9965135235380248
Root mean squared error: 0.05870756374074979
Relative absolute error: 0.6893156080748399
Root relative squared error: 11.741512748149958
Weighted TruePositiveRate: 0.9965534219596258
Weighted MatthewsCorrelation: 0.9930993692299427
Weighted FMeasure: 0.9965532964571889
Iteration time: 220.0
Weighted AreaUnderPRC: 0.9948250451858812
Mean absolute error: 0.0034465780403741997
Coverage of cases: 99.65534219596258
Instances selection time: 22.0
Test time: 35.0
Accumulative iteration time: 1026.0
Weighted Recall: 0.9965534219596258
Weighted FalsePositiveRate: 0.003526374883576289
Kappa statistic: 0.9930974379390873
Training time: 198.0
		
Iteration: 6
Labeled set size: 912
Unlabelled set size: 3150
	
Mean region size: 50.0
Incorrectly Classified Instances: 0.34465780403741997
Correctly Classified Instances: 99.65534219596258
Weighted Precision: 0.9965551064461662
Weighted AreaUnderROC: 0.9965135235380248
Root mean squared error: 0.05870756374074979
Relative absolute error: 0.6893156080748399
Root relative squared error: 11.741512748149958
Weighted TruePositiveRate: 0.9965534219596258
Weighted MatthewsCorrelation: 0.9930993692299427
Weighted FMeasure: 0.9965532964571889
Iteration time: 176.0
Weighted AreaUnderPRC: 0.9948250451858812
Mean absolute error: 0.0034465780403741997
Coverage of cases: 99.65534219596258
Instances selection time: 21.0
Test time: 28.0
Accumulative iteration time: 1202.0
Weighted Recall: 0.9965534219596258
Weighted FalsePositiveRate: 0.003526374883576289
Kappa statistic: 0.9930974379390873
Training time: 155.0
		
Iteration: 7
Labeled set size: 932
Unlabelled set size: 3130
	
Mean region size: 50.0
Incorrectly Classified Instances: 0.34465780403741997
Correctly Classified Instances: 99.65534219596258
Weighted Precision: 0.9965551064461662
Weighted AreaUnderROC: 0.9965135235380248
Root mean squared error: 0.05870756374074979
Relative absolute error: 0.6893156080748399
Root relative squared error: 11.741512748149958
Weighted TruePositiveRate: 0.9965534219596258
Weighted MatthewsCorrelation: 0.9930993692299427
Weighted FMeasure: 0.9965532964571889
Iteration time: 177.0
Weighted AreaUnderPRC: 0.9948250451858812
Mean absolute error: 0.0034465780403741997
Coverage of cases: 99.65534219596258
Instances selection time: 21.0
Test time: 28.0
Accumulative iteration time: 1379.0
Weighted Recall: 0.9965534219596258
Weighted FalsePositiveRate: 0.003526374883576289
Kappa statistic: 0.9930974379390873
Training time: 156.0
		
Iteration: 8
Labeled set size: 952
Unlabelled set size: 3110
	
Mean region size: 50.0
Incorrectly Classified Instances: 0.34465780403741997
Correctly Classified Instances: 99.65534219596258
Weighted Precision: 0.9965551064461662
Weighted AreaUnderROC: 0.9965135235380248
Root mean squared error: 0.05870756374074979
Relative absolute error: 0.6893156080748399
Root relative squared error: 11.741512748149958
Weighted TruePositiveRate: 0.9965534219596258
Weighted MatthewsCorrelation: 0.9930993692299427
Weighted FMeasure: 0.9965532964571889
Iteration time: 176.0
Weighted AreaUnderPRC: 0.9948250451858812
Mean absolute error: 0.0034465780403741997
Coverage of cases: 99.65534219596258
Instances selection time: 21.0
Test time: 29.0
Accumulative iteration time: 1555.0
Weighted Recall: 0.9965534219596258
Weighted FalsePositiveRate: 0.003526374883576289
Kappa statistic: 0.9930974379390873
Training time: 155.0
		
Iteration: 9
Labeled set size: 972
Unlabelled set size: 3090
	
Mean region size: 50.0
Incorrectly Classified Instances: 0.34465780403741997
Correctly Classified Instances: 99.65534219596258
Weighted Precision: 0.9965551064461662
Weighted AreaUnderROC: 0.9965135235380248
Root mean squared error: 0.05870756374074979
Relative absolute error: 0.6893156080748399
Root relative squared error: 11.741512748149958
Weighted TruePositiveRate: 0.9965534219596258
Weighted MatthewsCorrelation: 0.9930993692299427
Weighted FMeasure: 0.9965532964571889
Iteration time: 214.0
Weighted AreaUnderPRC: 0.9948250451858812
Mean absolute error: 0.0034465780403741997
Coverage of cases: 99.65534219596258
Instances selection time: 22.0
Test time: 28.0
Accumulative iteration time: 1769.0
Weighted Recall: 0.9965534219596258
Weighted FalsePositiveRate: 0.003526374883576289
Kappa statistic: 0.9930974379390873
Training time: 192.0
		
Iteration: 10
Labeled set size: 992
Unlabelled set size: 3070
	
Mean region size: 50.0
Incorrectly Classified Instances: 0.34465780403741997
Correctly Classified Instances: 99.65534219596258
Weighted Precision: 0.9965551064461662
Weighted AreaUnderROC: 0.9965135235380248
Root mean squared error: 0.05870756374074979
Relative absolute error: 0.6893156080748399
Root relative squared error: 11.741512748149958
Weighted TruePositiveRate: 0.9965534219596258
Weighted MatthewsCorrelation: 0.9930993692299427
Weighted FMeasure: 0.9965532964571889
Iteration time: 180.0
Weighted AreaUnderPRC: 0.9948250451858812
Mean absolute error: 0.0034465780403741997
Coverage of cases: 99.65534219596258
Instances selection time: 21.0
Test time: 29.0
Accumulative iteration time: 1949.0
Weighted Recall: 0.9965534219596258
Weighted FalsePositiveRate: 0.003526374883576289
Kappa statistic: 0.9930974379390873
Training time: 159.0
		
Iteration: 11
Labeled set size: 1012
Unlabelled set size: 3050
	
Mean region size: 50.0
Incorrectly Classified Instances: 0.34465780403741997
Correctly Classified Instances: 99.65534219596258
Weighted Precision: 0.9965551064461662
Weighted AreaUnderROC: 0.9965135235380248
Root mean squared error: 0.05870756374074979
Relative absolute error: 0.6893156080748399
Root relative squared error: 11.741512748149958
Weighted TruePositiveRate: 0.9965534219596258
Weighted MatthewsCorrelation: 0.9930993692299427
Weighted FMeasure: 0.9965532964571889
Iteration time: 217.0
Weighted AreaUnderPRC: 0.9948250451858812
Mean absolute error: 0.0034465780403741997
Coverage of cases: 99.65534219596258
Instances selection time: 20.0
Test time: 29.0
Accumulative iteration time: 2166.0
Weighted Recall: 0.9965534219596258
Weighted FalsePositiveRate: 0.003526374883576289
Kappa statistic: 0.9930974379390873
Training time: 197.0
		
Iteration: 12
Labeled set size: 1032
Unlabelled set size: 3030
	
Mean region size: 50.0
Incorrectly Classified Instances: 0.34465780403741997
Correctly Classified Instances: 99.65534219596258
Weighted Precision: 0.9965551064461662
Weighted AreaUnderROC: 0.9965135235380248
Root mean squared error: 0.05870756374074979
Relative absolute error: 0.6893156080748399
Root relative squared error: 11.741512748149958
Weighted TruePositiveRate: 0.9965534219596258
Weighted MatthewsCorrelation: 0.9930993692299427
Weighted FMeasure: 0.9965532964571889
Iteration time: 190.0
Weighted AreaUnderPRC: 0.9948250451858812
Mean absolute error: 0.0034465780403741997
Coverage of cases: 99.65534219596258
Instances selection time: 23.0
Test time: 29.0
Accumulative iteration time: 2356.0
Weighted Recall: 0.9965534219596258
Weighted FalsePositiveRate: 0.003526374883576289
Kappa statistic: 0.9930974379390873
Training time: 167.0
		
Iteration: 13
Labeled set size: 1052
Unlabelled set size: 3010
	
Mean region size: 50.0
Incorrectly Classified Instances: 0.34465780403741997
Correctly Classified Instances: 99.65534219596258
Weighted Precision: 0.9965551064461662
Weighted AreaUnderROC: 0.9965135235380248
Root mean squared error: 0.05870756374074979
Relative absolute error: 0.6893156080748399
Root relative squared error: 11.741512748149958
Weighted TruePositiveRate: 0.9965534219596258
Weighted MatthewsCorrelation: 0.9930993692299427
Weighted FMeasure: 0.9965532964571889
Iteration time: 187.0
Weighted AreaUnderPRC: 0.9948250451858812
Mean absolute error: 0.0034465780403741997
Coverage of cases: 99.65534219596258
Instances selection time: 21.0
Test time: 28.0
Accumulative iteration time: 2543.0
Weighted Recall: 0.9965534219596258
Weighted FalsePositiveRate: 0.003526374883576289
Kappa statistic: 0.9930974379390873
Training time: 166.0
		
Iteration: 14
Labeled set size: 1072
Unlabelled set size: 2990
	
Mean region size: 50.0
Incorrectly Classified Instances: 0.34465780403741997
Correctly Classified Instances: 99.65534219596258
Weighted Precision: 0.9965551064461662
Weighted AreaUnderROC: 0.9965135235380248
Root mean squared error: 0.05870756374074979
Relative absolute error: 0.6893156080748399
Root relative squared error: 11.741512748149958
Weighted TruePositiveRate: 0.9965534219596258
Weighted MatthewsCorrelation: 0.9930993692299427
Weighted FMeasure: 0.9965532964571889
Iteration time: 189.0
Weighted AreaUnderPRC: 0.9948250451858812
Mean absolute error: 0.0034465780403741997
Coverage of cases: 99.65534219596258
Instances selection time: 20.0
Test time: 29.0
Accumulative iteration time: 2732.0
Weighted Recall: 0.9965534219596258
Weighted FalsePositiveRate: 0.003526374883576289
Kappa statistic: 0.9930974379390873
Training time: 169.0
		
Iteration: 15
Labeled set size: 1092
Unlabelled set size: 2970
	
Mean region size: 50.0
Incorrectly Classified Instances: 0.34465780403741997
Correctly Classified Instances: 99.65534219596258
Weighted Precision: 0.9965551064461662
Weighted AreaUnderROC: 0.9965135235380248
Root mean squared error: 0.05870756374074979
Relative absolute error: 0.6893156080748399
Root relative squared error: 11.741512748149958
Weighted TruePositiveRate: 0.9965534219596258
Weighted MatthewsCorrelation: 0.9930993692299427
Weighted FMeasure: 0.9965532964571889
Iteration time: 187.0
Weighted AreaUnderPRC: 0.9948250451858812
Mean absolute error: 0.0034465780403741997
Coverage of cases: 99.65534219596258
Instances selection time: 20.0
Test time: 29.0
Accumulative iteration time: 2919.0
Weighted Recall: 0.9965534219596258
Weighted FalsePositiveRate: 0.003526374883576289
Kappa statistic: 0.9930974379390873
Training time: 167.0
		
Iteration: 16
Labeled set size: 1112
Unlabelled set size: 2950
	
Mean region size: 50.0
Incorrectly Classified Instances: 0.34465780403741997
Correctly Classified Instances: 99.65534219596258
Weighted Precision: 0.9965551064461662
Weighted AreaUnderROC: 0.9965135235380248
Root mean squared error: 0.05870756374074979
Relative absolute error: 0.6893156080748399
Root relative squared error: 11.741512748149958
Weighted TruePositiveRate: 0.9965534219596258
Weighted MatthewsCorrelation: 0.9930993692299427
Weighted FMeasure: 0.9965532964571889
Iteration time: 180.0
Weighted AreaUnderPRC: 0.9948250451858812
Mean absolute error: 0.0034465780403741997
Coverage of cases: 99.65534219596258
Instances selection time: 20.0
Test time: 29.0
Accumulative iteration time: 3099.0
Weighted Recall: 0.9965534219596258
Weighted FalsePositiveRate: 0.003526374883576289
Kappa statistic: 0.9930974379390873
Training time: 160.0
		
Iteration: 17
Labeled set size: 1132
Unlabelled set size: 2930
	
Mean region size: 50.0
Incorrectly Classified Instances: 0.34465780403741997
Correctly Classified Instances: 99.65534219596258
Weighted Precision: 0.9965551064461662
Weighted AreaUnderROC: 0.9965135235380248
Root mean squared error: 0.05870756374074979
Relative absolute error: 0.6893156080748399
Root relative squared error: 11.741512748149958
Weighted TruePositiveRate: 0.9965534219596258
Weighted MatthewsCorrelation: 0.9930993692299427
Weighted FMeasure: 0.9965532964571889
Iteration time: 182.0
Weighted AreaUnderPRC: 0.9948250451858812
Mean absolute error: 0.0034465780403741997
Coverage of cases: 99.65534219596258
Instances selection time: 20.0
Test time: 29.0
Accumulative iteration time: 3281.0
Weighted Recall: 0.9965534219596258
Weighted FalsePositiveRate: 0.003526374883576289
Kappa statistic: 0.9930974379390873
Training time: 162.0
		
Iteration: 18
Labeled set size: 1152
Unlabelled set size: 2910
	
Mean region size: 50.0
Incorrectly Classified Instances: 0.34465780403741997
Correctly Classified Instances: 99.65534219596258
Weighted Precision: 0.9965551064461662
Weighted AreaUnderROC: 0.9965135235380248
Root mean squared error: 0.05870756374074979
Relative absolute error: 0.6893156080748399
Root relative squared error: 11.741512748149958
Weighted TruePositiveRate: 0.9965534219596258
Weighted MatthewsCorrelation: 0.9930993692299427
Weighted FMeasure: 0.9965532964571889
Iteration time: 174.0
Weighted AreaUnderPRC: 0.9948250451858812
Mean absolute error: 0.0034465780403741997
Coverage of cases: 99.65534219596258
Instances selection time: 20.0
Test time: 30.0
Accumulative iteration time: 3455.0
Weighted Recall: 0.9965534219596258
Weighted FalsePositiveRate: 0.003526374883576289
Kappa statistic: 0.9930974379390873
Training time: 154.0
		
Iteration: 19
Labeled set size: 1172
Unlabelled set size: 2890
	
Mean region size: 50.0
Incorrectly Classified Instances: 0.39389463318562284
Correctly Classified Instances: 99.60610536681438
Weighted Precision: 0.9960693163309527
Weighted AreaUnderROC: 0.9961268385137312
Root mean squared error: 0.06276102558002242
Relative absolute error: 0.7877892663712458
Root relative squared error: 12.552205116004483
Weighted TruePositiveRate: 0.9960610536681438
Weighted MatthewsCorrelation: 0.9921207491426691
Weighted FMeasure: 0.9960613175264972
Iteration time: 191.0
Weighted AreaUnderPRC: 0.9941468858436122
Mean absolute error: 0.003938946331856229
Coverage of cases: 99.60610536681438
Instances selection time: 20.0
Test time: 28.0
Accumulative iteration time: 3646.0
Weighted Recall: 0.9960610536681438
Weighted FalsePositiveRate: 0.003807376640681125
Kappa statistic: 0.9921130348506001
Training time: 171.0
		
Iteration: 20
Labeled set size: 1192
Unlabelled set size: 2870
	
Mean region size: 50.0
Incorrectly Classified Instances: 0.39389463318562284
Correctly Classified Instances: 99.60610536681438
Weighted Precision: 0.9960693163309527
Weighted AreaUnderROC: 0.9961268385137312
Root mean squared error: 0.06276102558002242
Relative absolute error: 0.7877892663712458
Root relative squared error: 12.552205116004483
Weighted TruePositiveRate: 0.9960610536681438
Weighted MatthewsCorrelation: 0.9921207491426691
Weighted FMeasure: 0.9960613175264972
Iteration time: 196.0
Weighted AreaUnderPRC: 0.9941468858436122
Mean absolute error: 0.003938946331856229
Coverage of cases: 99.60610536681438
Instances selection time: 20.0
Test time: 28.0
Accumulative iteration time: 3842.0
Weighted Recall: 0.9960610536681438
Weighted FalsePositiveRate: 0.003807376640681125
Kappa statistic: 0.9921130348506001
Training time: 176.0
		
Iteration: 21
Labeled set size: 1212
Unlabelled set size: 2850
	
Mean region size: 50.0
Incorrectly Classified Instances: 0.39389463318562284
Correctly Classified Instances: 99.60610536681438
Weighted Precision: 0.9960693163309527
Weighted AreaUnderROC: 0.9961268385137312
Root mean squared error: 0.06276102558002242
Relative absolute error: 0.7877892663712458
Root relative squared error: 12.552205116004483
Weighted TruePositiveRate: 0.9960610536681438
Weighted MatthewsCorrelation: 0.9921207491426691
Weighted FMeasure: 0.9960613175264972
Iteration time: 198.0
Weighted AreaUnderPRC: 0.9941468858436122
Mean absolute error: 0.003938946331856229
Coverage of cases: 99.60610536681438
Instances selection time: 19.0
Test time: 28.0
Accumulative iteration time: 4040.0
Weighted Recall: 0.9960610536681438
Weighted FalsePositiveRate: 0.003807376640681125
Kappa statistic: 0.9921130348506001
Training time: 179.0
		
Iteration: 22
Labeled set size: 1232
Unlabelled set size: 2830
	
Mean region size: 50.0
Incorrectly Classified Instances: 0.39389463318562284
Correctly Classified Instances: 99.60610536681438
Weighted Precision: 0.9960693163309527
Weighted AreaUnderROC: 0.9961268385137312
Root mean squared error: 0.06276102558002242
Relative absolute error: 0.7877892663712458
Root relative squared error: 12.552205116004483
Weighted TruePositiveRate: 0.9960610536681438
Weighted MatthewsCorrelation: 0.9921207491426691
Weighted FMeasure: 0.9960613175264972
Iteration time: 178.0
Weighted AreaUnderPRC: 0.9941468858436122
Mean absolute error: 0.003938946331856229
Coverage of cases: 99.60610536681438
Instances selection time: 19.0
Test time: 28.0
Accumulative iteration time: 4218.0
Weighted Recall: 0.9960610536681438
Weighted FalsePositiveRate: 0.003807376640681125
Kappa statistic: 0.9921130348506001
Training time: 159.0
		
Iteration: 23
Labeled set size: 1252
Unlabelled set size: 2810
	
Mean region size: 50.0
Incorrectly Classified Instances: 0.39389463318562284
Correctly Classified Instances: 99.60610536681438
Weighted Precision: 0.9960693163309527
Weighted AreaUnderROC: 0.9961268385137312
Root mean squared error: 0.06276102558002242
Relative absolute error: 0.7877892663712458
Root relative squared error: 12.552205116004483
Weighted TruePositiveRate: 0.9960610536681438
Weighted MatthewsCorrelation: 0.9921207491426691
Weighted FMeasure: 0.9960613175264972
Iteration time: 228.0
Weighted AreaUnderPRC: 0.9941468858436122
Mean absolute error: 0.003938946331856229
Coverage of cases: 99.60610536681438
Instances selection time: 19.0
Test time: 28.0
Accumulative iteration time: 4446.0
Weighted Recall: 0.9960610536681438
Weighted FalsePositiveRate: 0.003807376640681125
Kappa statistic: 0.9921130348506001
Training time: 209.0
		
Iteration: 24
Labeled set size: 1272
Unlabelled set size: 2790
	
Mean region size: 50.0
Incorrectly Classified Instances: 0.39389463318562284
Correctly Classified Instances: 99.60610536681438
Weighted Precision: 0.9960693163309527
Weighted AreaUnderROC: 0.9961268385137312
Root mean squared error: 0.06276102558002242
Relative absolute error: 0.7877892663712458
Root relative squared error: 12.552205116004483
Weighted TruePositiveRate: 0.9960610536681438
Weighted MatthewsCorrelation: 0.9921207491426691
Weighted FMeasure: 0.9960613175264972
Iteration time: 214.0
Weighted AreaUnderPRC: 0.9941468858436122
Mean absolute error: 0.003938946331856229
Coverage of cases: 99.60610536681438
Instances selection time: 19.0
Test time: 28.0
Accumulative iteration time: 4660.0
Weighted Recall: 0.9960610536681438
Weighted FalsePositiveRate: 0.003807376640681125
Kappa statistic: 0.9921130348506001
Training time: 195.0
		
Iteration: 25
Labeled set size: 1292
Unlabelled set size: 2770
	
Mean region size: 50.0
Incorrectly Classified Instances: 0.39389463318562284
Correctly Classified Instances: 99.60610536681438
Weighted Precision: 0.9960693163309527
Weighted AreaUnderROC: 0.9961268385137312
Root mean squared error: 0.06276102558002242
Relative absolute error: 0.7877892663712458
Root relative squared error: 12.552205116004483
Weighted TruePositiveRate: 0.9960610536681438
Weighted MatthewsCorrelation: 0.9921207491426691
Weighted FMeasure: 0.9960613175264972
Iteration time: 186.0
Weighted AreaUnderPRC: 0.9941468858436122
Mean absolute error: 0.003938946331856229
Coverage of cases: 99.60610536681438
Instances selection time: 19.0
Test time: 28.0
Accumulative iteration time: 4846.0
Weighted Recall: 0.9960610536681438
Weighted FalsePositiveRate: 0.003807376640681125
Kappa statistic: 0.9921130348506001
Training time: 167.0
		
Iteration: 26
Labeled set size: 1312
Unlabelled set size: 2750
	
Mean region size: 50.0
Incorrectly Classified Instances: 0.39389463318562284
Correctly Classified Instances: 99.60610536681438
Weighted Precision: 0.9960693163309527
Weighted AreaUnderROC: 0.9961268385137312
Root mean squared error: 0.06276102558002242
Relative absolute error: 0.7877892663712458
Root relative squared error: 12.552205116004483
Weighted TruePositiveRate: 0.9960610536681438
Weighted MatthewsCorrelation: 0.9921207491426691
Weighted FMeasure: 0.9960613175264972
Iteration time: 229.0
Weighted AreaUnderPRC: 0.9941468858436122
Mean absolute error: 0.003938946331856229
Coverage of cases: 99.60610536681438
Instances selection time: 19.0
Test time: 30.0
Accumulative iteration time: 5075.0
Weighted Recall: 0.9960610536681438
Weighted FalsePositiveRate: 0.003807376640681125
Kappa statistic: 0.9921130348506001
Training time: 210.0
		
Iteration: 27
Labeled set size: 1332
Unlabelled set size: 2730
	
Mean region size: 50.0
Incorrectly Classified Instances: 0.39389463318562284
Correctly Classified Instances: 99.60610536681438
Weighted Precision: 0.9960693163309527
Weighted AreaUnderROC: 0.9961268385137312
Root mean squared error: 0.06276102558002242
Relative absolute error: 0.7877892663712458
Root relative squared error: 12.552205116004483
Weighted TruePositiveRate: 0.9960610536681438
Weighted MatthewsCorrelation: 0.9921207491426691
Weighted FMeasure: 0.9960613175264972
Iteration time: 225.0
Weighted AreaUnderPRC: 0.9941468858436122
Mean absolute error: 0.003938946331856229
Coverage of cases: 99.60610536681438
Instances selection time: 18.0
Test time: 29.0
Accumulative iteration time: 5300.0
Weighted Recall: 0.9960610536681438
Weighted FalsePositiveRate: 0.003807376640681125
Kappa statistic: 0.9921130348506001
Training time: 207.0
		
Iteration: 28
Labeled set size: 1352
Unlabelled set size: 2710
	
Mean region size: 50.0
Incorrectly Classified Instances: 0.39389463318562284
Correctly Classified Instances: 99.60610536681438
Weighted Precision: 0.9960693163309527
Weighted AreaUnderROC: 0.9961268385137312
Root mean squared error: 0.06276102558002242
Relative absolute error: 0.7877892663712458
Root relative squared error: 12.552205116004483
Weighted TruePositiveRate: 0.9960610536681438
Weighted MatthewsCorrelation: 0.9921207491426691
Weighted FMeasure: 0.9960613175264972
Iteration time: 230.0
Weighted AreaUnderPRC: 0.9941468858436122
Mean absolute error: 0.003938946331856229
Coverage of cases: 99.60610536681438
Instances selection time: 19.0
Test time: 29.0
Accumulative iteration time: 5530.0
Weighted Recall: 0.9960610536681438
Weighted FalsePositiveRate: 0.003807376640681125
Kappa statistic: 0.9921130348506001
Training time: 211.0
		
Iteration: 29
Labeled set size: 1372
Unlabelled set size: 2690
	
Mean region size: 50.0
Incorrectly Classified Instances: 0.39389463318562284
Correctly Classified Instances: 99.60610536681438
Weighted Precision: 0.9960693163309527
Weighted AreaUnderROC: 0.9961268385137312
Root mean squared error: 0.06276102558002242
Relative absolute error: 0.7877892663712458
Root relative squared error: 12.552205116004483
Weighted TruePositiveRate: 0.9960610536681438
Weighted MatthewsCorrelation: 0.9921207491426691
Weighted FMeasure: 0.9960613175264972
Iteration time: 228.0
Weighted AreaUnderPRC: 0.9941468858436122
Mean absolute error: 0.003938946331856229
Coverage of cases: 99.60610536681438
Instances selection time: 19.0
Test time: 28.0
Accumulative iteration time: 5758.0
Weighted Recall: 0.9960610536681438
Weighted FalsePositiveRate: 0.003807376640681125
Kappa statistic: 0.9921130348506001
Training time: 209.0
		
Iteration: 30
Labeled set size: 1392
Unlabelled set size: 2670
	
Mean region size: 50.0
Incorrectly Classified Instances: 0.39389463318562284
Correctly Classified Instances: 99.60610536681438
Weighted Precision: 0.9960693163309527
Weighted AreaUnderROC: 0.9961268385137312
Root mean squared error: 0.06276102558002242
Relative absolute error: 0.7877892663712458
Root relative squared error: 12.552205116004483
Weighted TruePositiveRate: 0.9960610536681438
Weighted MatthewsCorrelation: 0.9921207491426691
Weighted FMeasure: 0.9960613175264972
Iteration time: 247.0
Weighted AreaUnderPRC: 0.9941468858436122
Mean absolute error: 0.003938946331856229
Coverage of cases: 99.60610536681438
Instances selection time: 18.0
Test time: 29.0
Accumulative iteration time: 6005.0
Weighted Recall: 0.9960610536681438
Weighted FalsePositiveRate: 0.003807376640681125
Kappa statistic: 0.9921130348506001
Training time: 229.0
		
Iteration: 31
Labeled set size: 1412
Unlabelled set size: 2650
	
Mean region size: 50.0
Incorrectly Classified Instances: 0.39389463318562284
Correctly Classified Instances: 99.60610536681438
Weighted Precision: 0.9960693163309527
Weighted AreaUnderROC: 0.9961268385137312
Root mean squared error: 0.06276102558002242
Relative absolute error: 0.7877892663712458
Root relative squared error: 12.552205116004483
Weighted TruePositiveRate: 0.9960610536681438
Weighted MatthewsCorrelation: 0.9921207491426691
Weighted FMeasure: 0.9960613175264972
Iteration time: 210.0
Weighted AreaUnderPRC: 0.9941468858436122
Mean absolute error: 0.003938946331856229
Coverage of cases: 99.60610536681438
Instances selection time: 18.0
Test time: 29.0
Accumulative iteration time: 6215.0
Weighted Recall: 0.9960610536681438
Weighted FalsePositiveRate: 0.003807376640681125
Kappa statistic: 0.9921130348506001
Training time: 192.0
		
Iteration: 32
Labeled set size: 1432
Unlabelled set size: 2630
	
Mean region size: 50.0
Incorrectly Classified Instances: 0.39389463318562284
Correctly Classified Instances: 99.60610536681438
Weighted Precision: 0.9960693163309527
Weighted AreaUnderROC: 0.9961268385137312
Root mean squared error: 0.06276102558002242
Relative absolute error: 0.7877892663712458
Root relative squared error: 12.552205116004483
Weighted TruePositiveRate: 0.9960610536681438
Weighted MatthewsCorrelation: 0.9921207491426691
Weighted FMeasure: 0.9960613175264972
Iteration time: 242.0
Weighted AreaUnderPRC: 0.9941468858436122
Mean absolute error: 0.003938946331856229
Coverage of cases: 99.60610536681438
Instances selection time: 19.0
Test time: 28.0
Accumulative iteration time: 6457.0
Weighted Recall: 0.9960610536681438
Weighted FalsePositiveRate: 0.003807376640681125
Kappa statistic: 0.9921130348506001
Training time: 223.0
		
Iteration: 33
Labeled set size: 1452
Unlabelled set size: 2610
	
Mean region size: 50.0
Incorrectly Classified Instances: 0.39389463318562284
Correctly Classified Instances: 99.60610536681438
Weighted Precision: 0.9960693163309527
Weighted AreaUnderROC: 0.9961268385137312
Root mean squared error: 0.06276102558002242
Relative absolute error: 0.7877892663712458
Root relative squared error: 12.552205116004483
Weighted TruePositiveRate: 0.9960610536681438
Weighted MatthewsCorrelation: 0.9921207491426691
Weighted FMeasure: 0.9960613175264972
Iteration time: 244.0
Weighted AreaUnderPRC: 0.9941468858436122
Mean absolute error: 0.003938946331856229
Coverage of cases: 99.60610536681438
Instances selection time: 18.0
Test time: 28.0
Accumulative iteration time: 6701.0
Weighted Recall: 0.9960610536681438
Weighted FalsePositiveRate: 0.003807376640681125
Kappa statistic: 0.9921130348506001
Training time: 226.0
		
Iteration: 34
Labeled set size: 1472
Unlabelled set size: 2590
	
Mean region size: 50.0
Incorrectly Classified Instances: 0.39389463318562284
Correctly Classified Instances: 99.60610536681438
Weighted Precision: 0.9960693163309527
Weighted AreaUnderROC: 0.9961268385137312
Root mean squared error: 0.06276102558002242
Relative absolute error: 0.7877892663712458
Root relative squared error: 12.552205116004483
Weighted TruePositiveRate: 0.9960610536681438
Weighted MatthewsCorrelation: 0.9921207491426691
Weighted FMeasure: 0.9960613175264972
Iteration time: 242.0
Weighted AreaUnderPRC: 0.9941468858436122
Mean absolute error: 0.003938946331856229
Coverage of cases: 99.60610536681438
Instances selection time: 18.0
Test time: 28.0
Accumulative iteration time: 6943.0
Weighted Recall: 0.9960610536681438
Weighted FalsePositiveRate: 0.003807376640681125
Kappa statistic: 0.9921130348506001
Training time: 224.0
		
Iteration: 35
Labeled set size: 1492
Unlabelled set size: 2570
	
Mean region size: 50.0
Incorrectly Classified Instances: 0.39389463318562284
Correctly Classified Instances: 99.60610536681438
Weighted Precision: 0.9960693163309527
Weighted AreaUnderROC: 0.9961268385137312
Root mean squared error: 0.06276102558002242
Relative absolute error: 0.7877892663712458
Root relative squared error: 12.552205116004483
Weighted TruePositiveRate: 0.9960610536681438
Weighted MatthewsCorrelation: 0.9921207491426691
Weighted FMeasure: 0.9960613175264972
Iteration time: 245.0
Weighted AreaUnderPRC: 0.9941468858436122
Mean absolute error: 0.003938946331856229
Coverage of cases: 99.60610536681438
Instances selection time: 18.0
Test time: 28.0
Accumulative iteration time: 7188.0
Weighted Recall: 0.9960610536681438
Weighted FalsePositiveRate: 0.003807376640681125
Kappa statistic: 0.9921130348506001
Training time: 227.0
		
Iteration: 36
Labeled set size: 1512
Unlabelled set size: 2550
	
Mean region size: 50.0
Incorrectly Classified Instances: 0.39389463318562284
Correctly Classified Instances: 99.60610536681438
Weighted Precision: 0.9960693163309527
Weighted AreaUnderROC: 0.9961268385137312
Root mean squared error: 0.06276102558002242
Relative absolute error: 0.7877892663712458
Root relative squared error: 12.552205116004483
Weighted TruePositiveRate: 0.9960610536681438
Weighted MatthewsCorrelation: 0.9921207491426691
Weighted FMeasure: 0.9960613175264972
Iteration time: 217.0
Weighted AreaUnderPRC: 0.9941468858436122
Mean absolute error: 0.003938946331856229
Coverage of cases: 99.60610536681438
Instances selection time: 18.0
Test time: 28.0
Accumulative iteration time: 7405.0
Weighted Recall: 0.9960610536681438
Weighted FalsePositiveRate: 0.003807376640681125
Kappa statistic: 0.9921130348506001
Training time: 199.0
		
Iteration: 37
Labeled set size: 1532
Unlabelled set size: 2530
	
Mean region size: 50.0
Incorrectly Classified Instances: 0.39389463318562284
Correctly Classified Instances: 99.60610536681438
Weighted Precision: 0.9960693163309527
Weighted AreaUnderROC: 0.9961268385137312
Root mean squared error: 0.06276102558002242
Relative absolute error: 0.7877892663712458
Root relative squared error: 12.552205116004483
Weighted TruePositiveRate: 0.9960610536681438
Weighted MatthewsCorrelation: 0.9921207491426691
Weighted FMeasure: 0.9960613175264972
Iteration time: 263.0
Weighted AreaUnderPRC: 0.9941468858436122
Mean absolute error: 0.003938946331856229
Coverage of cases: 99.60610536681438
Instances selection time: 18.0
Test time: 28.0
Accumulative iteration time: 7668.0
Weighted Recall: 0.9960610536681438
Weighted FalsePositiveRate: 0.003807376640681125
Kappa statistic: 0.9921130348506001
Training time: 245.0
		
Iteration: 38
Labeled set size: 1552
Unlabelled set size: 2510
	
Mean region size: 50.0
Incorrectly Classified Instances: 0.39389463318562284
Correctly Classified Instances: 99.60610536681438
Weighted Precision: 0.9960693163309527
Weighted AreaUnderROC: 0.9961268385137312
Root mean squared error: 0.06276102558002242
Relative absolute error: 0.7877892663712458
Root relative squared error: 12.552205116004483
Weighted TruePositiveRate: 0.9960610536681438
Weighted MatthewsCorrelation: 0.9921207491426691
Weighted FMeasure: 0.9960613175264972
Iteration time: 234.0
Weighted AreaUnderPRC: 0.9941468858436122
Mean absolute error: 0.003938946331856229
Coverage of cases: 99.60610536681438
Instances selection time: 17.0
Test time: 28.0
Accumulative iteration time: 7902.0
Weighted Recall: 0.9960610536681438
Weighted FalsePositiveRate: 0.003807376640681125
Kappa statistic: 0.9921130348506001
Training time: 217.0
		
Iteration: 39
Labeled set size: 1572
Unlabelled set size: 2490
	
Mean region size: 50.0
Incorrectly Classified Instances: 0.39389463318562284
Correctly Classified Instances: 99.60610536681438
Weighted Precision: 0.9960693163309527
Weighted AreaUnderROC: 0.9961268385137312
Root mean squared error: 0.06276102558002242
Relative absolute error: 0.7877892663712458
Root relative squared error: 12.552205116004483
Weighted TruePositiveRate: 0.9960610536681438
Weighted MatthewsCorrelation: 0.9921207491426691
Weighted FMeasure: 0.9960613175264972
Iteration time: 215.0
Weighted AreaUnderPRC: 0.9941468858436122
Mean absolute error: 0.003938946331856229
Coverage of cases: 99.60610536681438
Instances selection time: 17.0
Test time: 28.0
Accumulative iteration time: 8117.0
Weighted Recall: 0.9960610536681438
Weighted FalsePositiveRate: 0.003807376640681125
Kappa statistic: 0.9921130348506001
Training time: 198.0
		
Iteration: 40
Labeled set size: 1592
Unlabelled set size: 2470
	
Mean region size: 50.0
Incorrectly Classified Instances: 0.39389463318562284
Correctly Classified Instances: 99.60610536681438
Weighted Precision: 0.9960693163309527
Weighted AreaUnderROC: 0.9961268385137312
Root mean squared error: 0.06276102558002242
Relative absolute error: 0.7877892663712458
Root relative squared error: 12.552205116004483
Weighted TruePositiveRate: 0.9960610536681438
Weighted MatthewsCorrelation: 0.9921207491426691
Weighted FMeasure: 0.9960613175264972
Iteration time: 201.0
Weighted AreaUnderPRC: 0.9941468858436122
Mean absolute error: 0.003938946331856229
Coverage of cases: 99.60610536681438
Instances selection time: 17.0
Test time: 28.0
Accumulative iteration time: 8318.0
Weighted Recall: 0.9960610536681438
Weighted FalsePositiveRate: 0.003807376640681125
Kappa statistic: 0.9921130348506001
Training time: 184.0
		
Iteration: 41
Labeled set size: 1612
Unlabelled set size: 2450
	
Mean region size: 50.0
Incorrectly Classified Instances: 0.39389463318562284
Correctly Classified Instances: 99.60610536681438
Weighted Precision: 0.9960693163309527
Weighted AreaUnderROC: 0.9961268385137312
Root mean squared error: 0.06276102558002242
Relative absolute error: 0.7877892663712458
Root relative squared error: 12.552205116004483
Weighted TruePositiveRate: 0.9960610536681438
Weighted MatthewsCorrelation: 0.9921207491426691
Weighted FMeasure: 0.9960613175264972
Iteration time: 244.0
Weighted AreaUnderPRC: 0.9941468858436122
Mean absolute error: 0.003938946331856229
Coverage of cases: 99.60610536681438
Instances selection time: 16.0
Test time: 28.0
Accumulative iteration time: 8562.0
Weighted Recall: 0.9960610536681438
Weighted FalsePositiveRate: 0.003807376640681125
Kappa statistic: 0.9921130348506001
Training time: 228.0
		
Iteration: 42
Labeled set size: 1632
Unlabelled set size: 2430
	
Mean region size: 50.0
Incorrectly Classified Instances: 0.39389463318562284
Correctly Classified Instances: 99.60610536681438
Weighted Precision: 0.9960693163309527
Weighted AreaUnderROC: 0.9961268385137312
Root mean squared error: 0.06276102558002242
Relative absolute error: 0.7877892663712458
Root relative squared error: 12.552205116004483
Weighted TruePositiveRate: 0.9960610536681438
Weighted MatthewsCorrelation: 0.9921207491426691
Weighted FMeasure: 0.9960613175264972
Iteration time: 253.0
Weighted AreaUnderPRC: 0.9941468858436122
Mean absolute error: 0.003938946331856229
Coverage of cases: 99.60610536681438
Instances selection time: 17.0
Test time: 29.0
Accumulative iteration time: 8815.0
Weighted Recall: 0.9960610536681438
Weighted FalsePositiveRate: 0.003807376640681125
Kappa statistic: 0.9921130348506001
Training time: 236.0
		
Iteration: 43
Labeled set size: 1652
Unlabelled set size: 2410
	
Mean region size: 50.0
Incorrectly Classified Instances: 0.39389463318562284
Correctly Classified Instances: 99.60610536681438
Weighted Precision: 0.9960693163309527
Weighted AreaUnderROC: 0.9961268385137312
Root mean squared error: 0.06276102558002242
Relative absolute error: 0.7877892663712458
Root relative squared error: 12.552205116004483
Weighted TruePositiveRate: 0.9960610536681438
Weighted MatthewsCorrelation: 0.9921207491426691
Weighted FMeasure: 0.9960613175264972
Iteration time: 268.0
Weighted AreaUnderPRC: 0.9941468858436122
Mean absolute error: 0.003938946331856229
Coverage of cases: 99.60610536681438
Instances selection time: 16.0
Test time: 28.0
Accumulative iteration time: 9083.0
Weighted Recall: 0.9960610536681438
Weighted FalsePositiveRate: 0.003807376640681125
Kappa statistic: 0.9921130348506001
Training time: 252.0
		
Iteration: 44
Labeled set size: 1672
Unlabelled set size: 2390
	
Mean region size: 50.0
Incorrectly Classified Instances: 0.39389463318562284
Correctly Classified Instances: 99.60610536681438
Weighted Precision: 0.9960693163309527
Weighted AreaUnderROC: 0.9961268385137312
Root mean squared error: 0.06276102558002242
Relative absolute error: 0.7877892663712458
Root relative squared error: 12.552205116004483
Weighted TruePositiveRate: 0.9960610536681438
Weighted MatthewsCorrelation: 0.9921207491426691
Weighted FMeasure: 0.9960613175264972
Iteration time: 249.0
Weighted AreaUnderPRC: 0.9941468858436122
Mean absolute error: 0.003938946331856229
Coverage of cases: 99.60610536681438
Instances selection time: 14.0
Test time: 31.0
Accumulative iteration time: 9332.0
Weighted Recall: 0.9960610536681438
Weighted FalsePositiveRate: 0.003807376640681125
Kappa statistic: 0.9921130348506001
Training time: 235.0
		
Iteration: 45
Labeled set size: 1692
Unlabelled set size: 2370
	
Mean region size: 50.0
Incorrectly Classified Instances: 0.0
Correctly Classified Instances: 100.0
Weighted Precision: 1.0
Weighted AreaUnderROC: 1.0
Root mean squared error: 0.0
Relative absolute error: 0.0
Root relative squared error: 0.0
Weighted TruePositiveRate: 1.0
Weighted MatthewsCorrelation: 1.0
Weighted FMeasure: 1.0
Iteration time: 346.0
Weighted AreaUnderPRC: 1.0
Mean absolute error: 0.0
Coverage of cases: 100.0
Instances selection time: 15.0
Test time: 31.0
Accumulative iteration time: 9678.0
Weighted Recall: 1.0
Weighted FalsePositiveRate: 0.0
Kappa statistic: 1.0
Training time: 331.0
		
Iteration: 46
Labeled set size: 1712
Unlabelled set size: 2350
	
Mean region size: 50.0
Incorrectly Classified Instances: 0.0
Correctly Classified Instances: 100.0
Weighted Precision: 1.0
Weighted AreaUnderROC: 1.0
Root mean squared error: 0.0
Relative absolute error: 0.0
Root relative squared error: 0.0
Weighted TruePositiveRate: 1.0
Weighted MatthewsCorrelation: 1.0
Weighted FMeasure: 1.0
Iteration time: 355.0
Weighted AreaUnderPRC: 1.0
Mean absolute error: 0.0
Coverage of cases: 100.0
Instances selection time: 14.0
Test time: 36.0
Accumulative iteration time: 10033.0
Weighted Recall: 1.0
Weighted FalsePositiveRate: 0.0
Kappa statistic: 1.0
Training time: 341.0
		
Time end:Wed Nov 01 07.09.42 EET 2017