Wed Nov 01 07.07.10 EET 2017
Dataset: mushroom
Test set size: 4062
Initial Labelled set size: 812
Initial Unlabelled set size: 3250
Batch mode: QBestBatchMode
Batch size: 20
Classifiers: NaiveBayes-1cores
Scenario: PoolBasedSamplingScenario
Query strategy: VoteEntropyQueryStrategy-1cores
Time begining: Wed Nov 01 07.07.10 EET 2017
		
Iteration: 1
Labeled set size: 812
Unlabelled set size: 3250
	
Mean region size: 53.360413589364846
Incorrectly Classified Instances: 5.9330379123584445
Correctly Classified Instances: 94.06696208764156
Weighted Precision: 0.9445954428723169
Weighted AreaUnderROC: 0.9963234580176092
Root mean squared error: 0.21291931999973449
Relative absolute error: 11.343954017307794
Root relative squared error: 42.5838639999469
Weighted TruePositiveRate: 0.9406696208764156
Weighted MatthewsCorrelation: 0.884900989617239
Weighted FMeasure: 0.9404288201690344
Iteration time: 27.0
Weighted AreaUnderPRC: 0.996418407672945
Mean absolute error: 0.05671977008653897
Coverage of cases: 98.07976366322009
Instances selection time: 25.0
Test time: 39.0
Accumulative iteration time: 27.0
Weighted Recall: 0.9406696208764156
Weighted FalsePositiveRate: 0.06293927991392183
Kappa statistic: 0.8807737716961357
Training time: 2.0
		
Iteration: 2
Labeled set size: 832
Unlabelled set size: 3230
	
Mean region size: 53.45888724766125
Incorrectly Classified Instances: 5.760709010339734
Correctly Classified Instances: 94.23929098966026
Weighted Precision: 0.9462158348060268
Weighted AreaUnderROC: 0.996413514605188
Root mean squared error: 0.20725644085474773
Relative absolute error: 10.963447316550536
Root relative squared error: 41.451288170949546
Weighted TruePositiveRate: 0.9423929098966026
Weighted MatthewsCorrelation: 0.8882586179250888
Weighted FMeasure: 0.9421647540939864
Iteration time: 25.0
Weighted AreaUnderPRC: 0.996505990627214
Mean absolute error: 0.05481723658275268
Coverage of cases: 98.22747415066469
Instances selection time: 24.0
Test time: 40.0
Accumulative iteration time: 52.0
Weighted Recall: 0.9423929098966026
Weighted FalsePositiveRate: 0.06115837244277183
Kappa statistic: 0.8842429491701123
Training time: 1.0
		
Iteration: 3
Labeled set size: 852
Unlabelled set size: 3210
	
Mean region size: 53.335795174790746
Incorrectly Classified Instances: 5.85918266863614
Correctly Classified Instances: 94.14081733136386
Weighted Precision: 0.945301695177593
Weighted AreaUnderROC: 0.9963698213821041
Root mean squared error: 0.2109038958676486
Relative absolute error: 11.163681089859425
Root relative squared error: 42.18077917352972
Weighted TruePositiveRate: 0.9414081733136386
Weighted MatthewsCorrelation: 0.8863514571560049
Weighted FMeasure: 0.9411722932273658
Iteration time: 25.0
Weighted AreaUnderPRC: 0.9964633854619875
Mean absolute error: 0.05581840544929712
Coverage of cases: 98.1536189069424
Instances selection time: 24.0
Test time: 39.0
Accumulative iteration time: 77.0
Weighted Recall: 0.9414081733136386
Weighted FalsePositiveRate: 0.062181096720389496
Kappa statistic: 0.8822600092072284
Training time: 1.0
		
Iteration: 4
Labeled set size: 872
Unlabelled set size: 3190
	
Mean region size: 53.32348596750369
Incorrectly Classified Instances: 5.908419497784343
Correctly Classified Instances: 94.09158050221566
Weighted Precision: 0.9448867976945121
Weighted AreaUnderROC: 0.9963472465501771
Root mean squared error: 0.21388761586230406
Relative absolute error: 11.376742777006974
Root relative squared error: 42.77752317246081
Weighted TruePositiveRate: 0.9409158050221565
Weighted MatthewsCorrelation: 0.885438815471193
Weighted FMeasure: 0.940674056821733
Iteration time: 25.0
Weighted AreaUnderPRC: 0.9964414550921193
Mean absolute error: 0.056883713885034874
Coverage of cases: 98.03052683407189
Instances selection time: 24.0
Test time: 40.0
Accumulative iteration time: 102.0
Weighted Recall: 0.9409158050221565
Weighted FalsePositiveRate: 0.06271017888856018
Kappa statistic: 0.8812663750778257
Training time: 1.0
		
Iteration: 5
Labeled set size: 892
Unlabelled set size: 3170
	
Mean region size: 53.22501230920729
Incorrectly Classified Instances: 6.080748399803053
Correctly Classified Instances: 93.91925160019694
Weighted Precision: 0.9430163890884339
Weighted AreaUnderROC: 0.9962865615181161
Root mean squared error: 0.21718460596411657
Relative absolute error: 11.582521648669028
Root relative squared error: 43.43692119282331
Weighted TruePositiveRate: 0.9391925160019695
Weighted MatthewsCorrelation: 0.8818383478869594
Weighted FMeasure: 0.9389497042868616
Iteration time: 24.0
Weighted AreaUnderPRC: 0.996382366437406
Mean absolute error: 0.05791260824334514
Coverage of cases: 97.83357951747908
Instances selection time: 23.0
Test time: 42.0
Accumulative iteration time: 126.0
Weighted Recall: 0.9391925160019695
Weighted FalsePositiveRate: 0.06438476618353908
Kappa statistic: 0.8778098292966363
Training time: 1.0
		
Iteration: 6
Labeled set size: 912
Unlabelled set size: 3150
	
Mean region size: 53.06499261447563
Incorrectly Classified Instances: 6.03151157065485
Correctly Classified Instances: 93.96848842934514
Weighted Precision: 0.9434328935124824
Weighted AreaUnderROC: 0.9962513641995207
Root mean squared error: 0.21922513290608972
Relative absolute error: 11.7090842194409
Root relative squared error: 43.845026581217944
Weighted TruePositiveRate: 0.9396848842934515
Weighted MatthewsCorrelation: 0.8827526141203927
Weighted FMeasure: 0.939447960218109
Iteration time: 25.0
Weighted AreaUnderPRC: 0.9963479610169489
Mean absolute error: 0.0585454210972045
Coverage of cases: 97.56277695716396
Instances selection time: 24.0
Test time: 39.0
Accumulative iteration time: 151.0
Weighted Recall: 0.9396848842934515
Weighted FalsePositiveRate: 0.06385568401536841
Kappa statistic: 0.8788035333411762
Training time: 1.0
		
Iteration: 7
Labeled set size: 932
Unlabelled set size: 3130
	
Mean region size: 53.04037419990153
Incorrectly Classified Instances: 6.03151157065485
Correctly Classified Instances: 93.96848842934514
Weighted Precision: 0.9433517121327064
Weighted AreaUnderROC: 0.9961695607763024
Root mean squared error: 0.22013264488958814
Relative absolute error: 11.763718281595466
Root relative squared error: 44.02652897791763
Weighted TruePositiveRate: 0.9396848842934515
Weighted MatthewsCorrelation: 0.8826738519643421
Weighted FMeasure: 0.9394518515660638
Iteration time: 25.0
Weighted AreaUnderPRC: 0.9962688175733445
Mean absolute error: 0.05881859140797733
Coverage of cases: 97.48892171344166
Instances selection time: 24.0
Test time: 39.0
Accumulative iteration time: 176.0
Weighted Recall: 0.9396848842934515
Weighted FalsePositiveRate: 0.06382024395664472
Kappa statistic: 0.8788078429844356
Training time: 1.0
		
Iteration: 8
Labeled set size: 952
Unlabelled set size: 3110
	
Mean region size: 53.028064992614475
Incorrectly Classified Instances: 6.080748399803053
Correctly Classified Instances: 93.91925160019694
Weighted Precision: 0.942934403012284
Weighted AreaUnderROC: 0.9961382472997589
Root mean squared error: 0.22008904289648187
Relative absolute error: 11.75989137480764
Root relative squared error: 44.01780857929637
Weighted TruePositiveRate: 0.9391925160019695
Weighted MatthewsCorrelation: 0.8817588093252414
Weighted FMeasure: 0.9389536578525426
Iteration time: 25.0
Weighted AreaUnderPRC: 0.9962391079559982
Mean absolute error: 0.0587994568740382
Coverage of cases: 97.48892171344166
Instances selection time: 23.0
Test time: 40.0
Accumulative iteration time: 201.0
Weighted Recall: 0.9391925160019695
Weighted FalsePositiveRate: 0.06434932612481539
Kappa statistic: 0.8778141744296756
Training time: 2.0
		
Iteration: 9
Labeled set size: 972
Unlabelled set size: 3090
	
Mean region size: 53.06499261447563
Incorrectly Classified Instances: 6.105366814377154
Correctly Classified Instances: 93.89463318562285
Weighted Precision: 0.9428083962012197
Weighted AreaUnderROC: 0.9960913984550077
Root mean squared error: 0.2210462753833157
Relative absolute error: 11.83116139741035
Root relative squared error: 44.20925507666314
Weighted TruePositiveRate: 0.9389463318562284
Weighted MatthewsCorrelation: 0.8813814569199981
Weighted FMeasure: 0.9387005408419611
Iteration time: 24.0
Weighted AreaUnderPRC: 0.9961943754841642
Mean absolute error: 0.05915580698705175
Coverage of cases: 97.43968488429346
Instances selection time: 23.0
Test time: 39.0
Accumulative iteration time: 225.0
Weighted Recall: 0.9389463318562284
Weighted FalsePositiveRate: 0.06464930726762444
Kappa statistic: 0.8773129507705573
Training time: 1.0
		
Iteration: 10
Labeled set size: 992
Unlabelled set size: 3070
	
Mean region size: 53.003446578040375
Incorrectly Classified Instances: 6.129985228951256
Correctly Classified Instances: 93.87001477104874
Weighted Precision: 0.9426005758774479
Weighted AreaUnderROC: 0.9960659107415419
Root mean squared error: 0.22128676040040549
Relative absolute error: 11.845755541888812
Root relative squared error: 44.2573520800811
Weighted TruePositiveRate: 0.9387001477104875
Weighted MatthewsCorrelation: 0.8809247270279877
Weighted FMeasure: 0.9384513536186291
Iteration time: 25.0
Weighted AreaUnderPRC: 0.9961700893464939
Mean absolute error: 0.059228777709444055
Coverage of cases: 97.31659281142295
Instances selection time: 23.0
Test time: 38.0
Accumulative iteration time: 250.0
Weighted Recall: 0.9387001477104875
Weighted FalsePositiveRate: 0.06491384835170977
Kappa statistic: 0.8768160545740157
Training time: 2.0
		
Iteration: 11
Labeled set size: 1012
Unlabelled set size: 3050
	
Mean region size: 52.88035450516987
Incorrectly Classified Instances: 6.03151157065485
Correctly Classified Instances: 93.96848842934514
Weighted Precision: 0.9438525841954432
Weighted AreaUnderROC: 0.9959491527398564
Root mean squared error: 0.22311396963938976
Relative absolute error: 11.954144989077328
Root relative squared error: 44.62279392787795
Weighted TruePositiveRate: 0.9396848842934515
Weighted MatthewsCorrelation: 0.8831600386284244
Weighted FMeasure: 0.9394280501367676
Iteration time: 24.0
Weighted AreaUnderPRC: 0.9960580075526502
Mean absolute error: 0.05977072494538664
Coverage of cases: 96.99655342195963
Instances selection time: 22.0
Test time: 40.0
Accumulative iteration time: 274.0
Weighted Recall: 0.9396848842934515
Weighted FalsePositiveRate: 0.06403288430898688
Kappa statistic: 0.8787819805264804
Training time: 2.0
		
Iteration: 12
Labeled set size: 1032
Unlabelled set size: 3030
	
Mean region size: 53.06499261447563
Incorrectly Classified Instances: 5.908419497784343
Correctly Classified Instances: 94.09158050221566
Weighted Precision: 0.9449714829568278
Weighted AreaUnderROC: 0.9960137216139693
Root mean squared error: 0.22069593625311976
Relative absolute error: 11.81167443116185
Root relative squared error: 44.13918725062395
Weighted TruePositiveRate: 0.9409158050221565
Weighted MatthewsCorrelation: 0.8855210851077348
Weighted FMeasure: 0.9406701412720102
Iteration time: 24.0
Weighted AreaUnderPRC: 0.9961205627950398
Mean absolute error: 0.059058372155809245
Coverage of cases: 97.31659281142295
Instances selection time: 23.0
Test time: 39.0
Accumulative iteration time: 298.0
Weighted Recall: 0.9409158050221565
Weighted FalsePositiveRate: 0.06274561894728387
Kappa statistic: 0.8812621523354164
Training time: 1.0
		
Iteration: 13
Labeled set size: 1052
Unlabelled set size: 3010
	
Mean region size: 53.003446578040375
Incorrectly Classified Instances: 5.908419497784343
Correctly Classified Instances: 94.09158050221566
Weighted Precision: 0.9449714829568278
Weighted AreaUnderROC: 0.9959549785029342
Root mean squared error: 0.22048516394612253
Relative absolute error: 11.761144747706195
Root relative squared error: 44.09703278922451
Weighted TruePositiveRate: 0.9409158050221565
Weighted MatthewsCorrelation: 0.8855210851077348
Weighted FMeasure: 0.9406701412720102
Iteration time: 24.0
Weighted AreaUnderPRC: 0.9960641604764691
Mean absolute error: 0.05880572373853098
Coverage of cases: 97.24273756770064
Instances selection time: 22.0
Test time: 40.0
Accumulative iteration time: 322.0
Weighted Recall: 0.9409158050221565
Weighted FalsePositiveRate: 0.06274561894728387
Kappa statistic: 0.8812621523354164
Training time: 2.0
		
Iteration: 14
Labeled set size: 1072
Unlabelled set size: 2990
	
Mean region size: 53.08961102904973
Incorrectly Classified Instances: 5.908419497784343
Correctly Classified Instances: 94.09158050221566
Weighted Precision: 0.9448867976945121
Weighted AreaUnderROC: 0.995992603222812
Root mean squared error: 0.21911283886623628
Relative absolute error: 11.660021915606666
Root relative squared error: 43.82256777324726
Weighted TruePositiveRate: 0.9409158050221565
Weighted MatthewsCorrelation: 0.885438815471193
Weighted FMeasure: 0.940674056821733
Iteration time: 23.0
Weighted AreaUnderPRC: 0.9961007515752589
Mean absolute error: 0.05830010957803333
Coverage of cases: 97.58739537173805
Instances selection time: 22.0
Test time: 40.0
Accumulative iteration time: 345.0
Weighted Recall: 0.9409158050221565
Weighted FalsePositiveRate: 0.06271017888856018
Kappa statistic: 0.8812663750778257
Training time: 1.0
		
Iteration: 15
Labeled set size: 1092
Unlabelled set size: 2970
	
Mean region size: 53.07730182176268
Incorrectly Classified Instances: 5.908419497784343
Correctly Classified Instances: 94.09158050221566
Weighted Precision: 0.9448867976945121
Weighted AreaUnderROC: 0.9960188191566626
Root mean squared error: 0.21767495586293142
Relative absolute error: 11.541426124210512
Root relative squared error: 43.53499117258629
Weighted TruePositiveRate: 0.9409158050221565
Weighted MatthewsCorrelation: 0.885438815471193
Weighted FMeasure: 0.940674056821733
Iteration time: 24.0
Weighted AreaUnderPRC: 0.9961263133893663
Mean absolute error: 0.05770713062105256
Coverage of cases: 97.58739537173805
Instances selection time: 22.0
Test time: 39.0
Accumulative iteration time: 369.0
Weighted Recall: 0.9409158050221565
Weighted FalsePositiveRate: 0.06271017888856018
Kappa statistic: 0.8812663750778257
Training time: 2.0
		
Iteration: 16
Labeled set size: 1112
Unlabelled set size: 2950
	
Mean region size: 53.028064992614475
Incorrectly Classified Instances: 5.9330379123584445
Correctly Classified Instances: 94.06696208764156
Weighted Precision: 0.9445954428723169
Weighted AreaUnderROC: 0.9959889621208886
Root mean squared error: 0.2178689109588587
Relative absolute error: 11.513990078448936
Root relative squared error: 43.57378219177174
Weighted TruePositiveRate: 0.9406696208764156
Weighted MatthewsCorrelation: 0.884900989617239
Weighted FMeasure: 0.9404288201690344
Iteration time: 24.0
Weighted AreaUnderPRC: 0.9960975278018908
Mean absolute error: 0.05756995039224468
Coverage of cases: 97.56277695716396
Instances selection time: 22.0
Test time: 39.0
Accumulative iteration time: 393.0
Weighted Recall: 0.9406696208764156
Weighted FalsePositiveRate: 0.06293927991392183
Kappa statistic: 0.8807737716961357
Training time: 2.0
		
Iteration: 17
Labeled set size: 1132
Unlabelled set size: 2930
	
Mean region size: 52.96651895617922
Incorrectly Classified Instances: 5.9330379123584445
Correctly Classified Instances: 94.06696208764156
Weighted Precision: 0.9446796091600116
Weighted AreaUnderROC: 0.9959348310722899
Root mean squared error: 0.21950821487664104
Relative absolute error: 11.626745072594032
Root relative squared error: 43.90164297532821
Weighted TruePositiveRate: 0.9406696208764156
Weighted MatthewsCorrelation: 0.8849827375085995
Weighted FMeasure: 0.940424903178466
Iteration time: 23.0
Weighted AreaUnderPRC: 0.9960454925826812
Mean absolute error: 0.05813372536297016
Coverage of cases: 97.41506646971935
Instances selection time: 22.0
Test time: 39.0
Accumulative iteration time: 416.0
Weighted Recall: 0.9406696208764156
Weighted FalsePositiveRate: 0.06297471997264552
Kappa statistic: 0.8807695315097664
Training time: 1.0
		
Iteration: 18
Labeled set size: 1152
Unlabelled set size: 2910
	
Mean region size: 52.978828163466275
Incorrectly Classified Instances: 5.908419497784343
Correctly Classified Instances: 94.09158050221566
Weighted Precision: 0.9448867976945121
Weighted AreaUnderROC: 0.9959396858748549
Root mean squared error: 0.2175915872311984
Relative absolute error: 11.475563396496176
Root relative squared error: 43.51831744623968
Weighted TruePositiveRate: 0.9409158050221565
Weighted MatthewsCorrelation: 0.885438815471193
Weighted FMeasure: 0.940674056821733
Iteration time: 25.0
Weighted AreaUnderPRC: 0.9960506748903447
Mean absolute error: 0.05737781698248088
Coverage of cases: 97.46430329886755
Instances selection time: 23.0
Test time: 39.0
Accumulative iteration time: 441.0
Weighted Recall: 0.9409158050221565
Weighted FalsePositiveRate: 0.06271017888856018
Kappa statistic: 0.8812663750778257
Training time: 2.0
		
Iteration: 19
Labeled set size: 1172
Unlabelled set size: 2890
	
Mean region size: 52.95420974889217
Incorrectly Classified Instances: 5.9330379123584445
Correctly Classified Instances: 94.06696208764156
Weighted Precision: 0.9445954428723169
Weighted AreaUnderROC: 0.9959496382201128
Root mean squared error: 0.217548800137692
Relative absolute error: 11.459760387842838
Root relative squared error: 43.509760027538405
Weighted TruePositiveRate: 0.9406696208764156
Weighted MatthewsCorrelation: 0.884900989617239
Weighted FMeasure: 0.9404288201690344
Iteration time: 23.0
Weighted AreaUnderPRC: 0.9960600935437819
Mean absolute error: 0.05729880193921419
Coverage of cases: 97.43968488429346
Instances selection time: 22.0
Test time: 39.0
Accumulative iteration time: 464.0
Weighted Recall: 0.9406696208764156
Weighted FalsePositiveRate: 0.06293927991392183
Kappa statistic: 0.8807737716961357
Training time: 1.0
		
Iteration: 20
Labeled set size: 1192
Unlabelled set size: 2870
	
Mean region size: 52.892663712456915
Incorrectly Classified Instances: 5.9330379123584445
Correctly Classified Instances: 94.06696208764156
Weighted Precision: 0.9447646984931977
Weighted AreaUnderROC: 0.9958605525930472
Root mean squared error: 0.2195588978532644
Relative absolute error: 11.59670063269997
Root relative squared error: 43.91177957065288
Weighted TruePositiveRate: 0.9406696208764156
Weighted MatthewsCorrelation: 0.8850653966399339
Weighted FMeasure: 0.9404209564366992
Iteration time: 22.0
Weighted AreaUnderPRC: 0.9959744284717594
Mean absolute error: 0.05798350316349986
Coverage of cases: 97.26735598227474
Instances selection time: 21.0
Test time: 40.0
Accumulative iteration time: 486.0
Weighted Recall: 0.9406696208764156
Weighted FalsePositiveRate: 0.06301016003136921
Kappa statistic: 0.8807652910217888
Training time: 1.0
		
Iteration: 21
Labeled set size: 1212
Unlabelled set size: 2850
	
Mean region size: 52.85573609059576
Incorrectly Classified Instances: 5.957656326932546
Correctly Classified Instances: 94.04234367306745
Weighted Precision: 0.9444725937799041
Weighted AreaUnderROC: 0.995886040306513
Root mean squared error: 0.22005758387721688
Relative absolute error: 11.616022834413412
Root relative squared error: 44.011516775443376
Weighted TruePositiveRate: 0.9404234367306745
Weighted MatthewsCorrelation: 0.884526821109704
Weighted FMeasure: 0.9401757257826104
Iteration time: 22.0
Weighted AreaUnderPRC: 0.9959986321627986
Mean absolute error: 0.05808011417206706
Coverage of cases: 97.24273756770064
Instances selection time: 21.0
Test time: 40.0
Accumulative iteration time: 508.0
Weighted Recall: 0.9404234367306745
Weighted FalsePositiveRate: 0.06323926105673086
Kappa statistic: 0.8802726702715448
Training time: 1.0
		
Iteration: 22
Labeled set size: 1232
Unlabelled set size: 2830
	
Mean region size: 52.868045297882816
Incorrectly Classified Instances: 5.908419497784343
Correctly Classified Instances: 94.09158050221566
Weighted Precision: 0.9448030353823182
Weighted AreaUnderROC: 0.995942841496522
Root mean squared error: 0.21869304296412334
Relative absolute error: 11.506804237373315
Root relative squared error: 43.73860859282467
Weighted TruePositiveRate: 0.9409158050221565
Weighted MatthewsCorrelation: 0.8853574571088036
Weighted FMeasure: 0.9406779427502848
Iteration time: 23.0
Weighted AreaUnderPRC: 0.9960532773805426
Mean absolute error: 0.057534021186866575
Coverage of cases: 97.39044805514524
Instances selection time: 21.0
Test time: 39.0
Accumulative iteration time: 531.0
Weighted Recall: 0.9409158050221565
Weighted FalsePositiveRate: 0.06267473882983648
Kappa statistic: 0.8812705975198941
Training time: 2.0
		
Iteration: 23
Labeled set size: 1252
Unlabelled set size: 2810
	
Mean region size: 52.85573609059576
Incorrectly Classified Instances: 5.883801083210241
Correctly Classified Instances: 94.11619891678976
Weighted Precision: 0.9450108014997609
Weighted AreaUnderROC: 0.9959304617499817
Root mean squared error: 0.2177472449697572
Relative absolute error: 11.438810804709187
Root relative squared error: 43.54944899395144
Weighted TruePositiveRate: 0.9411619891678976
Weighted MatthewsCorrelation: 0.8858140867079063
Weighted FMeasure: 0.9409270417998379
Iteration time: 23.0
Weighted AreaUnderPRC: 0.9960415797306704
Mean absolute error: 0.05719405402354593
Coverage of cases: 97.41506646971935
Instances selection time: 21.0
Test time: 39.0
Accumulative iteration time: 554.0
Weighted Recall: 0.9411619891678976
Weighted FalsePositiveRate: 0.06241019774575114
Kappa statistic: 0.8817674056756927
Training time: 2.0
		
Iteration: 24
Labeled set size: 1272
Unlabelled set size: 2790
	
Mean region size: 52.85573609059576
Incorrectly Classified Instances: 5.834564254062038
Correctly Classified Instances: 94.16543574593796
Weighted Precision: 0.9454268555132753
Weighted AreaUnderROC: 0.9958705049383052
Root mean squared error: 0.21756600022236505
Relative absolute error: 11.407562223409212
Root relative squared error: 43.51320004447301
Weighted TruePositiveRate: 0.9416543574593796
Weighted MatthewsCorrelation: 0.8867278333009986
Weighted FMeasure: 0.9414251696803748
Iteration time: 22.0
Weighted AreaUnderPRC: 0.9959838475249075
Mean absolute error: 0.057037811117046054
Coverage of cases: 97.41506646971935
Instances selection time: 21.0
Test time: 39.0
Accumulative iteration time: 576.0
Weighted Recall: 0.9416543574593796
Weighted FalsePositiveRate: 0.06188111557758046
Kappa statistic: 0.8827609689871786
Training time: 1.0
		
Iteration: 25
Labeled set size: 1292
Unlabelled set size: 2770
	
Mean region size: 52.90497291974397
Incorrectly Classified Instances: 5.711472181191532
Correctly Classified Instances: 94.28852781880848
Weighted Precision: 0.9464700454536108
Weighted AreaUnderROC: 0.9958955071715143
Root mean squared error: 0.2150779830061957
Relative absolute error: 11.209231308197301
Root relative squared error: 43.01559660123914
Weighted TruePositiveRate: 0.9428852781880847
Weighted MatthewsCorrelation: 0.8890150554581032
Weighted FMeasure: 0.9426700841627607
Iteration time: 22.0
Weighted AreaUnderPRC: 0.9960080858620135
Mean absolute error: 0.056046156540986505
Coverage of cases: 97.68586903003447
Instances selection time: 21.0
Test time: 39.0
Accumulative iteration time: 598.0
Weighted Recall: 0.9428852781880847
Weighted FalsePositiveRate: 0.06055841015715377
Kappa statistic: 0.8852445681425524
Training time: 1.0
		
Iteration: 26
Labeled set size: 1312
Unlabelled set size: 2750
	
Mean region size: 52.94190054160512
Incorrectly Classified Instances: 5.662235352043329
Correctly Classified Instances: 94.33776464795667
Weighted Precision: 0.9468885484519982
Weighted AreaUnderROC: 0.9959091006186961
Root mean squared error: 0.21398264633702682
Relative absolute error: 11.106210821640284
Root relative squared error: 42.79652926740536
Weighted TruePositiveRate: 0.9433776464795667
Weighted MatthewsCorrelation: 0.8899310922465229
Weighted FMeasure: 0.9431678898416475
Iteration time: 22.0
Weighted AreaUnderPRC: 0.9960211057093948
Mean absolute error: 0.055531054108201416
Coverage of cases: 97.73510585918267
Instances selection time: 21.0
Test time: 38.0
Accumulative iteration time: 620.0
Weighted Recall: 0.9433776464795667
Weighted FalsePositiveRate: 0.06002932798898309
Kappa statistic: 0.8862378841751497
Training time: 1.0
		
Iteration: 27
Labeled set size: 1332
Unlabelled set size: 2730
	
Mean region size: 52.95420974889217
Incorrectly Classified Instances: 5.68685376661743
Correctly Classified Instances: 94.31314623338257
Weighted Precision: 0.9466792090666352
Weighted AreaUnderROC: 0.9959904185616579
Root mean squared error: 0.21396623713463253
Relative absolute error: 11.111590292196588
Root relative squared error: 42.793247426926506
Weighted TruePositiveRate: 0.9431314623338257
Weighted MatthewsCorrelation: 0.8894729915877698
Weighted FMeasure: 0.9429189983450106
Iteration time: 22.0
Weighted AreaUnderPRC: 0.9960996227235627
Mean absolute error: 0.05555795146098294
Coverage of cases: 97.75972427375677
Instances selection time: 21.0
Test time: 39.0
Accumulative iteration time: 642.0
Weighted Recall: 0.9431314623338257
Weighted FalsePositiveRate: 0.060293869073068426
Kappa statistic: 0.8857412349885915
Training time: 1.0
		
Iteration: 28
Labeled set size: 1352
Unlabelled set size: 2710
	
Mean region size: 53.003446578040375
Incorrectly Classified Instances: 5.662235352043329
Correctly Classified Instances: 94.33776464795667
Weighted Precision: 0.9468885484519982
Weighted AreaUnderROC: 0.9959870201998625
Root mean squared error: 0.2126664038444853
Relative absolute error: 11.020002914863268
Root relative squared error: 42.53328076889706
Weighted TruePositiveRate: 0.9433776464795667
Weighted MatthewsCorrelation: 0.8899310922465229
Weighted FMeasure: 0.9431678898416475
Iteration time: 21.0
Weighted AreaUnderPRC: 0.9960965461936085
Mean absolute error: 0.05510001457431634
Coverage of cases: 97.88281634662728
Instances selection time: 20.0
Test time: 39.0
Accumulative iteration time: 663.0
Weighted Recall: 0.9433776464795667
Weighted FalsePositiveRate: 0.06002932798898309
Kappa statistic: 0.8862378841751497
Training time: 1.0
		
Iteration: 29
Labeled set size: 1372
Unlabelled set size: 2690
	
Mean region size: 53.028064992614475
Incorrectly Classified Instances: 5.662235352043329
Correctly Classified Instances: 94.33776464795667
Weighted Precision: 0.9468885484519982
Weighted AreaUnderROC: 0.9960491616726931
Root mean squared error: 0.21300019940938375
Relative absolute error: 11.048825196946806
Root relative squared error: 42.600039881876754
Weighted TruePositiveRate: 0.9433776464795667
Weighted MatthewsCorrelation: 0.8899310922465229
Weighted FMeasure: 0.9431678898416475
Iteration time: 21.0
Weighted AreaUnderPRC: 0.996156356980988
Mean absolute error: 0.055244125984734035
Coverage of cases: 97.95667159034959
Instances selection time: 20.0
Test time: 39.0
Accumulative iteration time: 684.0
Weighted Recall: 0.9433776464795667
Weighted FalsePositiveRate: 0.06002932798898309
Kappa statistic: 0.8862378841751497
Training time: 1.0
		
Iteration: 30
Labeled set size: 1392
Unlabelled set size: 2670
	
Mean region size: 52.978828163466275
Incorrectly Classified Instances: 5.68685376661743
Correctly Classified Instances: 94.31314623338257
Weighted Precision: 0.9466792090666352
Weighted AreaUnderROC: 0.9960071676305068
Root mean squared error: 0.21415633715991014
Relative absolute error: 11.124363030068626
Root relative squared error: 42.83126743198203
Weighted TruePositiveRate: 0.9431314623338257
Weighted MatthewsCorrelation: 0.8894729915877698
Weighted FMeasure: 0.9429189983450106
Iteration time: 22.0
Weighted AreaUnderPRC: 0.9961158779777645
Mean absolute error: 0.05562181515034313
Coverage of cases: 97.80896110290497
Instances selection time: 20.0
Test time: 39.0
Accumulative iteration time: 706.0
Weighted Recall: 0.9431314623338257
Weighted FalsePositiveRate: 0.060293869073068426
Kappa statistic: 0.8857412349885915
Training time: 2.0
		
Iteration: 31
Labeled set size: 1412
Unlabelled set size: 2650
	
Mean region size: 53.052683407188574
Incorrectly Classified Instances: 5.662235352043329
Correctly Classified Instances: 94.33776464795667
Weighted Precision: 0.9468885484519982
Weighted AreaUnderROC: 0.996042122208974
Root mean squared error: 0.21203765485957485
Relative absolute error: 10.96561131893926
Root relative squared error: 42.40753097191497
Weighted TruePositiveRate: 0.9433776464795667
Weighted MatthewsCorrelation: 0.8899310922465229
Weighted FMeasure: 0.9431678898416475
Iteration time: 21.0
Weighted AreaUnderPRC: 0.9961497859658831
Mean absolute error: 0.0548280565946963
Coverage of cases: 98.00590841949779
Instances selection time: 20.0
Test time: 39.0
Accumulative iteration time: 727.0
Weighted Recall: 0.9433776464795667
Weighted FalsePositiveRate: 0.06002932798898309
Kappa statistic: 0.8862378841751497
Training time: 1.0
		
Iteration: 32
Labeled set size: 1432
Unlabelled set size: 2630
	
Mean region size: 53.06499261447563
Incorrectly Classified Instances: 5.662235352043329
Correctly Classified Instances: 94.33776464795667
Weighted Precision: 0.9468885484519982
Weighted AreaUnderROC: 0.9960741639059023
Root mean squared error: 0.21184866861695625
Relative absolute error: 10.97825921153364
Root relative squared error: 42.36973372339125
Weighted TruePositiveRate: 0.9433776464795667
Weighted MatthewsCorrelation: 0.8899310922465229
Weighted FMeasure: 0.9431678898416475
Iteration time: 21.0
Weighted AreaUnderPRC: 0.9961803519152623
Mean absolute error: 0.054891296057668196
Coverage of cases: 98.05514524864599
Instances selection time: 19.0
Test time: 40.0
Accumulative iteration time: 748.0
Weighted Recall: 0.9433776464795667
Weighted FalsePositiveRate: 0.06002932798898309
Kappa statistic: 0.8862378841751497
Training time: 2.0
		
Iteration: 33
Labeled set size: 1452
Unlabelled set size: 2610
	
Mean region size: 53.06499261447563
Incorrectly Classified Instances: 5.662235352043329
Correctly Classified Instances: 94.33776464795667
Weighted Precision: 0.9468885484519982
Weighted AreaUnderROC: 0.9961156724678321
Root mean squared error: 0.21054995038317545
Relative absolute error: 10.881458138018237
Root relative squared error: 42.10999007663509
Weighted TruePositiveRate: 0.9433776464795667
Weighted MatthewsCorrelation: 0.8899310922465229
Weighted FMeasure: 0.9431678898416475
Iteration time: 22.0
Weighted AreaUnderPRC: 0.9962206855702959
Mean absolute error: 0.05440729069009119
Coverage of cases: 98.10438207779418
Instances selection time: 20.0
Test time: 39.0
Accumulative iteration time: 770.0
Weighted Recall: 0.9433776464795667
Weighted FalsePositiveRate: 0.06002932798898309
Kappa statistic: 0.8862378841751497
Training time: 2.0
		
Iteration: 34
Labeled set size: 1472
Unlabelled set size: 2590
	
Mean region size: 53.10192023633678
Incorrectly Classified Instances: 5.637616937469227
Correctly Classified Instances: 94.36238306253077
Weighted Precision: 0.9470980638522142
Weighted AreaUnderROC: 0.9961608221316856
Root mean squared error: 0.20860753892613784
Relative absolute error: 10.746948104401147
Root relative squared error: 41.721507785227566
Weighted TruePositiveRate: 0.9436238306253077
Weighted MatthewsCorrelation: 0.8903893577047581
Weighted FMeasure: 0.9434167587465206
Iteration time: 21.0
Weighted AreaUnderPRC: 0.996264551486132
Mean absolute error: 0.05373474052200573
Coverage of cases: 98.2028557360906
Instances selection time: 19.0
Test time: 39.0
Accumulative iteration time: 791.0
Weighted Recall: 0.9436238306253077
Weighted FalsePositiveRate: 0.059764786904897754
Kappa statistic: 0.8867345157031693
Training time: 2.0
		
Iteration: 35
Labeled set size: 1492
Unlabelled set size: 2570
	
Mean region size: 53.17577548005909
Incorrectly Classified Instances: 5.637616937469227
Correctly Classified Instances: 94.36238306253077
Weighted Precision: 0.9469422170447249
Weighted AreaUnderROC: 0.9962528206402902
Root mean squared error: 0.2061166346097651
Relative absolute error: 10.575101231315328
Root relative squared error: 41.22332692195302
Weighted TruePositiveRate: 0.9436238306253077
Weighted MatthewsCorrelation: 0.8902379790685013
Weighted FMeasure: 0.9434237793966782
Iteration time: 21.0
Weighted AreaUnderPRC: 0.9963531133487386
Mean absolute error: 0.05287550615657664
Coverage of cases: 98.301329394387
Instances selection time: 20.0
Test time: 40.0
Accumulative iteration time: 812.0
Weighted Recall: 0.9436238306253077
Weighted FalsePositiveRate: 0.05969390678745037
Kappa statistic: 0.8867425695197811
Training time: 1.0
		
Iteration: 36
Labeled set size: 1512
Unlabelled set size: 2550
	
Mean region size: 53.188084687346134
Incorrectly Classified Instances: 5.637616937469227
Correctly Classified Instances: 94.36238306253077
Weighted Precision: 0.9470196805848978
Weighted AreaUnderROC: 0.996277580133371
Root mean squared error: 0.2062784670054095
Relative absolute error: 10.595503860830329
Root relative squared error: 41.2556934010819
Weighted TruePositiveRate: 0.9436238306253077
Weighted MatthewsCorrelation: 0.8903132134192018
Weighted FMeasure: 0.9434202831575889
Iteration time: 20.0
Weighted AreaUnderPRC: 0.9963769326012565
Mean absolute error: 0.05297751930415164
Coverage of cases: 98.2767109798129
Instances selection time: 19.0
Test time: 39.0
Accumulative iteration time: 832.0
Weighted Recall: 0.9436238306253077
Weighted FalsePositiveRate: 0.059729346846174064
Kappa statistic: 0.8867385427546483
Training time: 1.0
		
Iteration: 37
Labeled set size: 1532
Unlabelled set size: 2530
	
Mean region size: 53.12653865091088
Incorrectly Classified Instances: 5.662235352043329
Correctly Classified Instances: 94.33776464795667
Weighted Precision: 0.9467318890366517
Weighted AreaUnderROC: 0.996277580133371
Root mean squared error: 0.20586172950394613
Relative absolute error: 10.556234032332721
Root relative squared error: 41.172345900789225
Weighted TruePositiveRate: 0.9433776464795667
Weighted MatthewsCorrelation: 0.8897789282163748
Weighted FMeasure: 0.9431749694476612
Iteration time: 20.0
Weighted AreaUnderPRC: 0.9963771247771953
Mean absolute error: 0.05278117016166361
Coverage of cases: 98.2520925652388
Instances selection time: 19.0
Test time: 40.0
Accumulative iteration time: 852.0
Weighted Recall: 0.9433776464795667
Weighted FalsePositiveRate: 0.0599584478715357
Kappa statistic: 0.8862459734488707
Training time: 1.0
		
Iteration: 38
Labeled set size: 1552
Unlabelled set size: 2510
	
Mean region size: 53.138847858197934
Incorrectly Classified Instances: 5.637616937469227
Correctly Classified Instances: 94.36238306253077
Weighted Precision: 0.9470196805848978
Weighted AreaUnderROC: 0.9962996694850413
Root mean squared error: 0.20492790827084656
Relative absolute error: 10.49768633645372
Root relative squared error: 40.98558165416931
Weighted TruePositiveRate: 0.9436238306253077
Weighted MatthewsCorrelation: 0.8903132134192018
Weighted FMeasure: 0.9434202831575889
Iteration time: 20.0
Weighted AreaUnderPRC: 0.9963988696294585
Mean absolute error: 0.0524884316822686
Coverage of cases: 98.301329394387
Instances selection time: 19.0
Test time: 40.0
Accumulative iteration time: 872.0
Weighted Recall: 0.9436238306253077
Weighted FalsePositiveRate: 0.059729346846174064
Kappa statistic: 0.8867385427546483
Training time: 1.0
		
Iteration: 39
Labeled set size: 1572
Unlabelled set size: 2490
	
Mean region size: 53.12653865091088
Incorrectly Classified Instances: 5.637616937469227
Correctly Classified Instances: 94.36238306253077
Weighted Precision: 0.9470196805848978
Weighted AreaUnderROC: 0.996247723097597
Root mean squared error: 0.2060891422804931
Relative absolute error: 10.562825359779623
Root relative squared error: 41.21782845609862
Weighted TruePositiveRate: 0.9436238306253077
Weighted MatthewsCorrelation: 0.8903132134192018
Weighted FMeasure: 0.9434202831575889
Iteration time: 21.0
Weighted AreaUnderPRC: 0.9963487587101154
Mean absolute error: 0.05281412679889812
Coverage of cases: 98.301329394387
Instances selection time: 19.0
Test time: 38.0
Accumulative iteration time: 893.0
Weighted Recall: 0.9436238306253077
Weighted FalsePositiveRate: 0.059729346846174064
Kappa statistic: 0.8867385427546483
Training time: 2.0
		
Iteration: 40
Labeled set size: 1592
Unlabelled set size: 2470
	
Mean region size: 53.11422944362383
Incorrectly Classified Instances: 5.637616937469227
Correctly Classified Instances: 94.36238306253077
Weighted Precision: 0.9470196805848978
Weighted AreaUnderROC: 0.9962567044823422
Root mean squared error: 0.20483869763058968
Relative absolute error: 10.48123653747785
Root relative squared error: 40.96773952611794
Weighted TruePositiveRate: 0.9436238306253077
Weighted MatthewsCorrelation: 0.8903132134192018
Weighted FMeasure: 0.9434202831575889
Iteration time: 20.0
Weighted AreaUnderPRC: 0.9963576857855632
Mean absolute error: 0.052406182687389245
Coverage of cases: 98.301329394387
Instances selection time: 18.0
Test time: 40.0
Accumulative iteration time: 913.0
Weighted Recall: 0.9436238306253077
Weighted FalsePositiveRate: 0.059729346846174064
Kappa statistic: 0.8867385427546483
Training time: 2.0
		
Iteration: 41
Labeled set size: 1612
Unlabelled set size: 2450
	
Mean region size: 53.11422944362383
Incorrectly Classified Instances: 5.612998522895126
Correctly Classified Instances: 94.38700147710487
Weighted Precision: 0.9472297788048698
Weighted AreaUnderROC: 0.9962273329268244
Root mean squared error: 0.2041181865537517
Relative absolute error: 10.433149206878571
Root relative squared error: 40.823637310750335
Weighted TruePositiveRate: 0.9438700147710487
Weighted MatthewsCorrelation: 0.8907720369003735
Weighted FMeasure: 0.9436691001481164
Iteration time: 20.0
Weighted AreaUnderPRC: 0.9963295880619785
Mean absolute error: 0.052165746034392856
Coverage of cases: 98.301329394387
Instances selection time: 18.0
Test time: 39.0
Accumulative iteration time: 933.0
Weighted Recall: 0.9438700147710487
Weighted FalsePositiveRate: 0.05946480576208872
Kappa statistic: 0.8872351388971413
Training time: 2.0
		
Iteration: 42
Labeled set size: 1632
Unlabelled set size: 2430
	
Mean region size: 53.10192023633678
Incorrectly Classified Instances: 5.612998522895126
Correctly Classified Instances: 94.38700147710487
Weighted Precision: 0.9472297788048698
Weighted AreaUnderROC: 0.9962088846770779
Root mean squared error: 0.20346351369008225
Relative absolute error: 10.388832845648583
Root relative squared error: 40.69270273801645
Weighted TruePositiveRate: 0.9438700147710487
Weighted MatthewsCorrelation: 0.8907720369003735
Weighted FMeasure: 0.9436691001481164
Iteration time: 20.0
Weighted AreaUnderPRC: 0.9963120203686104
Mean absolute error: 0.05194416422824291
Coverage of cases: 98.301329394387
Instances selection time: 18.0
Test time: 39.0
Accumulative iteration time: 953.0
Weighted Recall: 0.9438700147710487
Weighted FalsePositiveRate: 0.05946480576208872
Kappa statistic: 0.8872351388971413
Training time: 2.0
		
Iteration: 43
Labeled set size: 1652
Unlabelled set size: 2410
	
Mean region size: 53.10192023633678
Incorrectly Classified Instances: 5.637616937469227
Correctly Classified Instances: 94.36238306253077
Weighted Precision: 0.9470196805848978
Weighted AreaUnderROC: 0.9962088846770779
Root mean squared error: 0.20539858214206855
Relative absolute error: 10.515900893588178
Root relative squared error: 41.07971642841371
Weighted TruePositiveRate: 0.9436238306253077
Weighted MatthewsCorrelation: 0.8903132134192018
Weighted FMeasure: 0.9434202831575889
Iteration time: 20.0
Weighted AreaUnderPRC: 0.9963117230371586
Mean absolute error: 0.052579504467940893
Coverage of cases: 98.301329394387
Instances selection time: 19.0
Test time: 38.0
Accumulative iteration time: 973.0
Weighted Recall: 0.9436238306253077
Weighted FalsePositiveRate: 0.059729346846174064
Kappa statistic: 0.8867385427546483
Training time: 1.0
		
Iteration: 44
Labeled set size: 1672
Unlabelled set size: 2390
	
Mean region size: 53.10192023633678
Incorrectly Classified Instances: 5.612998522895126
Correctly Classified Instances: 94.38700147710487
Weighted Precision: 0.9472297788048698
Weighted AreaUnderROC: 0.9962885034391421
Root mean squared error: 0.20303661090478156
Relative absolute error: 10.364701821251899
Root relative squared error: 40.60732218095631
Weighted TruePositiveRate: 0.9438700147710487
Weighted MatthewsCorrelation: 0.8907720369003735
Weighted FMeasure: 0.9436691001481164
Iteration time: 19.0
Weighted AreaUnderPRC: 0.9963886095284464
Mean absolute error: 0.05182350910625949
Coverage of cases: 98.3259478089611
Instances selection time: 18.0
Test time: 39.0
Accumulative iteration time: 992.0
Weighted Recall: 0.9438700147710487
Weighted FalsePositiveRate: 0.05946480576208872
Kappa statistic: 0.8872351388971413
Training time: 1.0
		
Iteration: 45
Labeled set size: 1692
Unlabelled set size: 2370
	
Mean region size: 53.10192023633678
Incorrectly Classified Instances: 5.612998522895126
Correctly Classified Instances: 94.38700147710487
Weighted Precision: 0.9471527217696261
Weighted AreaUnderROC: 0.9962831631563207
Root mean squared error: 0.2025246899165296
Relative absolute error: 10.320926829664637
Root relative squared error: 40.50493798330592
Weighted TruePositiveRate: 0.9438700147710487
Weighted MatthewsCorrelation: 0.890697195564208
Weighted FMeasure: 0.9436725670997332
Iteration time: 19.0
Weighted AreaUnderPRC: 0.9963836191556306
Mean absolute error: 0.05160463414832319
Coverage of cases: 98.35056622353521
Instances selection time: 18.0
Test time: 39.0
Accumulative iteration time: 1011.0
Weighted Recall: 0.9438700147710487
Weighted FalsePositiveRate: 0.059429365703365024
Kappa statistic: 0.8872391479356105
Training time: 1.0
		
Iteration: 46
Labeled set size: 1712
Unlabelled set size: 2350
	
Mean region size: 53.10192023633678
Incorrectly Classified Instances: 5.539143279172821
Correctly Classified Instances: 94.46085672082718
Weighted Precision: 0.9477103809622406
Weighted AreaUnderROC: 0.9962569472224704
Root mean squared error: 0.2027315896045408
Relative absolute error: 10.335385519794935
Root relative squared error: 40.54631792090816
Weighted TruePositiveRate: 0.9446085672082718
Weighted MatthewsCorrelation: 0.89200309038528
Weighted FMeasure: 0.944422149869033
Iteration time: 20.0
Weighted AreaUnderPRC: 0.9963582456875095
Mean absolute error: 0.05167692759897467
Coverage of cases: 98.35056622353521
Instances selection time: 18.0
Test time: 39.0
Accumulative iteration time: 1031.0
Weighted Recall: 0.9446085672082718
Weighted FalsePositiveRate: 0.058600302392385326
Kappa statistic: 0.8887327328467985
Training time: 2.0
		
Time end:Wed Nov 01 07.07.17 EET 2017