Wed Nov 01 05.38.34 EET 2017
Dataset: mushroom
Test set size: 4062
Initial Labelled set size: 812
Initial Unlabelled set size: 3250
Batch mode: QBestBatchMode
Batch size: 20
Classifiers: NaiveBayes-1cores
Scenario: PoolBasedSamplingScenario
Query strategy: KullbackLeiblerDivergenceQueryStrategy-1cores
Time begining: Wed Nov 01 05.38.34 EET 2017
		
Iteration: 1
Labeled set size: 812
Unlabelled set size: 3250
	
Mean region size: 52.72033481043821
Incorrectly Classified Instances: 6.37616937469227
Correctly Classified Instances: 93.62383062530773
Weighted Precision: 0.9407081603860038
Weighted AreaUnderROC: 0.9955180462720942
Root mean squared error: 0.23139958140804018
Relative absolute error: 12.514921857523015
Root relative squared error: 46.27991628160804
Weighted TruePositiveRate: 0.9362383062530774
Weighted MatthewsCorrelation: 0.8765372940851064
Weighted FMeasure: 0.9359493816675819
Iteration time: 49.0
Weighted AreaUnderPRC: 0.9956436039630129
Mean absolute error: 0.06257460928761507
Coverage of cases: 96.7011324470704
Instances selection time: 48.0
Test time: 40.0
Accumulative iteration time: 49.0
Weighted Recall: 0.9362383062530774
Weighted FalsePositiveRate: 0.06763013931001054
Kappa statistic: 0.8718370031978073
Training time: 1.0
		
Iteration: 2
Labeled set size: 832
Unlabelled set size: 3230
	
Mean region size: 52.79419005416051
Incorrectly Classified Instances: 6.228458887247661
Correctly Classified Instances: 93.77154111275235
Weighted Precision: 0.9419425605204037
Weighted AreaUnderROC: 0.9954789651114468
Root mean squared error: 0.22951210200067731
Relative absolute error: 12.35074228101202
Root relative squared error: 45.90242040013546
Weighted TruePositiveRate: 0.9377154111275234
Weighted MatthewsCorrelation: 0.8792658539626357
Weighted FMeasure: 0.9374459847822727
Iteration time: 48.0
Weighted AreaUnderPRC: 0.9956058833787114
Mean absolute error: 0.0617537114050601
Coverage of cases: 96.77498769079271
Instances selection time: 47.0
Test time: 41.0
Accumulative iteration time: 97.0
Weighted Recall: 0.9377154111275234
Weighted FalsePositiveRate: 0.06604289280549852
Kappa statistic: 0.8748193888491389
Training time: 1.0
		
Iteration: 3
Labeled set size: 852
Unlabelled set size: 3210
	
Mean region size: 52.75726243229936
Incorrectly Classified Instances: 6.179222058099459
Correctly Classified Instances: 93.82077794190054
Weighted Precision: 0.9423553923126363
Weighted AreaUnderROC: 0.9955178035319661
Root mean squared error: 0.22843660694509252
Relative absolute error: 12.261163147940621
Root relative squared error: 45.68732138901851
Weighted TruePositiveRate: 0.9382077794190055
Weighted MatthewsCorrelation: 0.8801766445959048
Weighted FMeasure: 0.9379446554462394
Iteration time: 48.0
Weighted AreaUnderPRC: 0.9956437901107579
Mean absolute error: 0.061305815739703104
Coverage of cases: 96.79960610536682
Instances selection time: 47.0
Test time: 40.0
Accumulative iteration time: 145.0
Weighted Recall: 0.9382077794190055
Weighted FalsePositiveRate: 0.06551381063732782
Kappa statistic: 0.8758133759679452
Training time: 1.0
		
Iteration: 4
Labeled set size: 872
Unlabelled set size: 3190
	
Mean region size: 52.83111767602166
Incorrectly Classified Instances: 6.129985228951256
Correctly Classified Instances: 93.87001477104874
Weighted Precision: 0.9428544562735719
Weighted AreaUnderROC: 0.9954440105329795
Root mean squared error: 0.2271796818490518
Relative absolute error: 12.169272223790502
Root relative squared error: 45.435936369810356
Weighted TruePositiveRate: 0.9387001477104875
Weighted MatthewsCorrelation: 0.8811711092734115
Weighted FMeasure: 0.9384391203430821
Iteration time: 48.0
Weighted AreaUnderPRC: 0.9955724806744528
Mean absolute error: 0.06084636111895251
Coverage of cases: 96.89807976366322
Instances selection time: 47.0
Test time: 40.0
Accumulative iteration time: 193.0
Weighted Recall: 0.9387001477104875
Weighted FalsePositiveRate: 0.06502016852788084
Kappa statistic: 0.8768029108207902
Training time: 1.0
		
Iteration: 5
Labeled set size: 892
Unlabelled set size: 3170
	
Mean region size: 52.892663712456915
Incorrectly Classified Instances: 6.105366814377154
Correctly Classified Instances: 93.89463318562285
Weighted Precision: 0.942891701841124
Weighted AreaUnderROC: 0.9957937990577799
Root mean squared error: 0.22298350084835847
Relative absolute error: 11.820609287865674
Root relative squared error: 44.59670016967169
Weighted TruePositiveRate: 0.9389463318562284
Weighted MatthewsCorrelation: 0.8814622894483088
Weighted FMeasure: 0.9386965253824575
Iteration time: 47.0
Weighted AreaUnderPRC: 0.995910511423958
Mean absolute error: 0.059103046439328365
Coverage of cases: 97.24273756770064
Instances selection time: 46.0
Test time: 40.0
Accumulative iteration time: 240.0
Weighted Recall: 0.9389463318562284
Weighted FalsePositiveRate: 0.06468474732634812
Kappa statistic: 0.87730858758042
Training time: 1.0
		
Iteration: 6
Labeled set size: 912
Unlabelled set size: 3150
	
Mean region size: 52.83111767602166
Incorrectly Classified Instances: 6.105366814377154
Correctly Classified Instances: 93.89463318562285
Weighted Precision: 0.942891701841124
Weighted AreaUnderROC: 0.9958163738897068
Root mean squared error: 0.22075743298656172
Relative absolute error: 11.657856993648377
Root relative squared error: 44.15148659731234
Weighted TruePositiveRate: 0.9389463318562284
Weighted MatthewsCorrelation: 0.8814622894483088
Weighted FMeasure: 0.9386965253824575
Iteration time: 48.0
Weighted AreaUnderPRC: 0.9959326399160736
Mean absolute error: 0.05828928496824188
Coverage of cases: 97.21811915312654
Instances selection time: 47.0
Test time: 40.0
Accumulative iteration time: 288.0
Weighted Recall: 0.9389463318562284
Weighted FalsePositiveRate: 0.06468474732634812
Kappa statistic: 0.87730858758042
Training time: 1.0
		
Iteration: 7
Labeled set size: 932
Unlabelled set size: 3130
	
Mean region size: 53.06499261447563
Incorrectly Classified Instances: 5.68685376661743
Correctly Classified Instances: 94.31314623338257
Weighted Precision: 0.9464443803341773
Weighted AreaUnderROC: 0.9959634744074228
Root mean squared error: 0.20995890109239693
Relative absolute error: 10.930572561636378
Root relative squared error: 41.991780218479384
Weighted TruePositiveRate: 0.9431314623338257
Weighted MatthewsCorrelation: 0.8892449321277978
Weighted FMeasure: 0.9429296639328937
Iteration time: 47.0
Weighted AreaUnderPRC: 0.9960752049067729
Mean absolute error: 0.05465286280818189
Coverage of cases: 97.93205317577548
Instances selection time: 46.0
Test time: 41.0
Accumulative iteration time: 335.0
Weighted Recall: 0.9431314623338257
Weighted FalsePositiveRate: 0.060187548896897355
Kappa statistic: 0.8857534216553251
Training time: 1.0
		
Iteration: 8
Labeled set size: 952
Unlabelled set size: 3110
	
Mean region size: 53.04037419990153
Incorrectly Classified Instances: 5.68685376661743
Correctly Classified Instances: 94.31314623338257
Weighted Precision: 0.9464443803341773
Weighted AreaUnderROC: 0.9959098288390807
Root mean squared error: 0.20961564791549725
Relative absolute error: 10.908312464233683
Root relative squared error: 41.92312958309945
Weighted TruePositiveRate: 0.9431314623338257
Weighted MatthewsCorrelation: 0.8892449321277978
Weighted FMeasure: 0.9429296639328937
Iteration time: 47.0
Weighted AreaUnderPRC: 0.9960235563055698
Mean absolute error: 0.05454156232116841
Coverage of cases: 97.93205317577548
Instances selection time: 46.0
Test time: 40.0
Accumulative iteration time: 382.0
Weighted Recall: 0.9431314623338257
Weighted FalsePositiveRate: 0.060187548896897355
Kappa statistic: 0.8857534216553251
Training time: 1.0
		
Iteration: 9
Labeled set size: 972
Unlabelled set size: 3090
	
Mean region size: 53.07730182176268
Incorrectly Classified Instances: 5.68685376661743
Correctly Classified Instances: 94.31314623338257
Weighted Precision: 0.9464443803341773
Weighted AreaUnderROC: 0.9958447744847112
Root mean squared error: 0.20997060952735566
Relative absolute error: 10.929616835387897
Root relative squared error: 41.99412190547113
Weighted TruePositiveRate: 0.9431314623338257
Weighted MatthewsCorrelation: 0.8892449321277978
Weighted FMeasure: 0.9429296639328937
Iteration time: 47.0
Weighted AreaUnderPRC: 0.9959610831350194
Mean absolute error: 0.05464808417693948
Coverage of cases: 97.95667159034959
Instances selection time: 46.0
Test time: 40.0
Accumulative iteration time: 429.0
Weighted Recall: 0.9431314623338257
Weighted FalsePositiveRate: 0.060187548896897355
Kappa statistic: 0.8857534216553251
Training time: 1.0
		
Iteration: 10
Labeled set size: 992
Unlabelled set size: 3070
	
Mean region size: 53.07730182176268
Incorrectly Classified Instances: 5.588380108321024
Correctly Classified Instances: 94.41161989167898
Weighted Precision: 0.9472876716389051
Weighted AreaUnderROC: 0.9959671155093465
Root mean squared error: 0.20737733531163272
Relative absolute error: 10.748561457960673
Root relative squared error: 41.475467062326544
Weighted TruePositiveRate: 0.9441161989167898
Weighted MatthewsCorrelation: 0.8910830391113818
Weighted FMeasure: 0.9439247425380158
Iteration time: 46.0
Weighted AreaUnderPRC: 0.9960788310860827
Mean absolute error: 0.053742807289803365
Coverage of cases: 98.07976366322009
Instances selection time: 45.0
Test time: 41.0
Accumulative iteration time: 475.0
Weighted Recall: 0.9441161989167898
Weighted FalsePositiveRate: 0.059129384560556005
Kappa statistic: 0.8877396997265793
Training time: 1.0
		
Iteration: 11
Labeled set size: 1012
Unlabelled set size: 3050
	
Mean region size: 52.978828163466275
Incorrectly Classified Instances: 5.760709010339734
Correctly Classified Instances: 94.23929098966026
Weighted Precision: 0.9458137655328248
Weighted AreaUnderROC: 0.9958535131293281
Root mean squared error: 0.21014844129147173
Relative absolute error: 10.900817854235244
Root relative squared error: 42.02968825829434
Weighted TruePositiveRate: 0.9423929098966026
Weighted MatthewsCorrelation: 0.8878680894159201
Weighted FMeasure: 0.9421831210785377
Iteration time: 47.0
Weighted AreaUnderPRC: 0.9959693440638427
Mean absolute error: 0.05450408927117622
Coverage of cases: 97.90743476120137
Instances selection time: 45.0
Test time: 40.0
Accumulative iteration time: 522.0
Weighted Recall: 0.9423929098966026
Weighted FalsePositiveRate: 0.06098117214915338
Kappa statistic: 0.8842635277202651
Training time: 2.0
		
Iteration: 12
Labeled set size: 1032
Unlabelled set size: 3030
	
Mean region size: 53.10192023633678
Incorrectly Classified Instances: 5.637616937469227
Correctly Classified Instances: 94.36238306253077
Weighted Precision: 0.9468656720867198
Weighted AreaUnderROC: 0.9960149353146106
Root mean squared error: 0.20720833092083984
Relative absolute error: 10.747432394288985
Root relative squared error: 41.44166618416797
Weighted TruePositiveRate: 0.9436238306253077
Weighted MatthewsCorrelation: 0.8901636537539056
Weighted FMeasure: 0.9434272474756279
Iteration time: 45.0
Weighted AreaUnderPRC: 0.9961245251792435
Mean absolute error: 0.05373716197144492
Coverage of cases: 98.17823732151649
Instances selection time: 44.0
Test time: 41.0
Accumulative iteration time: 567.0
Weighted Recall: 0.9436238306253077
Weighted FalsePositiveRate: 0.059658466728726676
Kappa statistic: 0.8867465959985984
Training time: 1.0
		
Iteration: 13
Labeled set size: 1052
Unlabelled set size: 3010
	
Mean region size: 53.163466272772034
Incorrectly Classified Instances: 5.588380108321024
Correctly Classified Instances: 94.41161989167898
Weighted Precision: 0.9471389589685935
Weighted AreaUnderROC: 0.9961501415660428
Root mean squared error: 0.20447194019246018
Relative absolute error: 10.571212845920204
Root relative squared error: 40.89438803849204
Weighted TruePositiveRate: 0.9441161989167898
Weighted MatthewsCorrelation: 0.890938685369557
Weighted FMeasure: 0.9439314786515527
Iteration time: 46.0
Weighted AreaUnderPRC: 0.9962542796409445
Mean absolute error: 0.05285606422960102
Coverage of cases: 98.3751846381093
Instances selection time: 45.0
Test time: 40.0
Accumulative iteration time: 613.0
Weighted Recall: 0.9441161989167898
Weighted FalsePositiveRate: 0.05905850444310862
Kappa statistic: 0.8877476809339033
Training time: 1.0
		
Iteration: 14
Labeled set size: 1072
Unlabelled set size: 2990
	
Mean region size: 53.20039389463319
Incorrectly Classified Instances: 5.465288035450517
Correctly Classified Instances: 94.53471196454949
Weighted Precision: 0.947991041980771
Weighted AreaUnderROC: 0.9963919107337743
Root mean squared error: 0.20035549941641254
Relative absolute error: 10.297018385664188
Root relative squared error: 40.07109988328251
Weighted TruePositiveRate: 0.9453471196454948
Weighted MatthewsCorrelation: 0.8930401955269741
Weighted FMeasure: 0.9451840225409015
Iteration time: 46.0
Weighted AreaUnderPRC: 0.9964861552923976
Mean absolute error: 0.051485091928320945
Coverage of cases: 98.54751354012802
Instances selection time: 45.0
Test time: 41.0
Accumulative iteration time: 659.0
Weighted Recall: 0.9453471196454948
Weighted FalsePositiveRate: 0.05762947884651084
Kappa statistic: 0.8902416581303773
Training time: 1.0
		
Iteration: 15
Labeled set size: 1092
Unlabelled set size: 2970
	
Mean region size: 53.15115706548498
Incorrectly Classified Instances: 5.366814377154111
Correctly Classified Instances: 94.63318562284589
Weighted Precision: 0.9488489118185863
Weighted AreaUnderROC: 0.9964700730550691
Root mean squared error: 0.19930167407536153
Relative absolute error: 10.23068623121077
Root relative squared error: 39.86033481507231
Weighted TruePositiveRate: 0.9463318562284588
Weighted MatthewsCorrelation: 0.8948922370834723
Weighted FMeasure: 0.9461777658474545
Iteration time: 56.0
Weighted AreaUnderPRC: 0.9965612873845476
Mean absolute error: 0.05115343115605385
Coverage of cases: 98.57213195470212
Instances selection time: 55.0
Test time: 41.0
Accumulative iteration time: 715.0
Weighted Recall: 0.9463318562284588
Weighted FalsePositiveRate: 0.05657131451016949
Kappa statistic: 0.8922269465981085
Training time: 1.0
		
Iteration: 16
Labeled set size: 1112
Unlabelled set size: 2950
	
Mean region size: 53.15115706548498
Incorrectly Classified Instances: 5.5637616937469225
Correctly Classified Instances: 94.43623830625307
Weighted Precision: 0.9472068000468818
Weighted AreaUnderROC: 0.9964465272626294
Root mean squared error: 0.20194176914491443
Relative absolute error: 10.395524776685608
Root relative squared error: 40.388353828982886
Weighted TruePositiveRate: 0.9443623830625307
Weighted MatthewsCorrelation: 0.8912594755011004
Weighted FMeasure: 0.944186703534628
Iteration time: 45.0
Weighted AreaUnderPRC: 0.9965384007073377
Mean absolute error: 0.05197762388342804
Coverage of cases: 98.49827671097981
Instances selection time: 43.0
Test time: 40.0
Accumulative iteration time: 760.0
Weighted Recall: 0.9443623830625307
Weighted FalsePositiveRate: 0.058723083241575894
Kappa statistic: 0.888252115513179
Training time: 2.0
		
Iteration: 17
Labeled set size: 1132
Unlabelled set size: 2930
	
Mean region size: 53.163466272772034
Incorrectly Classified Instances: 5.5637616937469225
Correctly Classified Instances: 94.43623830625307
Weighted Precision: 0.9472068000468818
Weighted AreaUnderROC: 0.9964659464728889
Root mean squared error: 0.20212878947357527
Relative absolute error: 10.412278830829127
Root relative squared error: 40.425757894715055
Weighted TruePositiveRate: 0.9443623830625307
Weighted MatthewsCorrelation: 0.8912594755011004
Weighted FMeasure: 0.944186703534628
Iteration time: 45.0
Weighted AreaUnderPRC: 0.9965568605538948
Mean absolute error: 0.05206139415414563
Coverage of cases: 98.49827671097981
Instances selection time: 43.0
Test time: 40.0
Accumulative iteration time: 805.0
Weighted Recall: 0.9443623830625307
Weighted FalsePositiveRate: 0.058723083241575894
Kappa statistic: 0.888252115513179
Training time: 2.0
		
Iteration: 18
Labeled set size: 1152
Unlabelled set size: 2910
	
Mean region size: 53.17577548005909
Incorrectly Classified Instances: 5.5145248645987195
Correctly Classified Instances: 94.48547513540127
Weighted Precision: 0.947563187572983
Weighted AreaUnderROC: 0.9963967655363392
Root mean squared error: 0.20322691732532475
Relative absolute error: 10.495394625465075
Root relative squared error: 40.64538346506495
Weighted TruePositiveRate: 0.9448547513540128
Weighted MatthewsCorrelation: 0.892115191930163
Weighted FMeasure: 0.9446870262286887
Iteration time: 44.0
Weighted AreaUnderPRC: 0.9964899587168246
Mean absolute error: 0.05247697312732537
Coverage of cases: 98.39980305268341
Instances selection time: 43.0
Test time: 40.0
Accumulative iteration time: 849.0
Weighted Recall: 0.9448547513540128
Weighted FalsePositiveRate: 0.05815856101468152
Kappa statistic: 0.8892489080545672
Training time: 1.0
		
Iteration: 19
Labeled set size: 1172
Unlabelled set size: 2890
	
Mean region size: 53.15115706548498
Incorrectly Classified Instances: 5.637616937469227
Correctly Classified Instances: 94.36238306253077
Weighted Precision: 0.9464966867921103
Weighted AreaUnderROC: 0.9962819494556795
Root mean squared error: 0.20641467997407648
Relative absolute error: 10.70162325249497
Root relative squared error: 41.2829359948153
Weighted TruePositiveRate: 0.9436238306253077
Weighted MatthewsCorrelation: 0.8898056318842033
Weighted FMeasure: 0.9434441658766505
Iteration time: 44.0
Weighted AreaUnderPRC: 0.996379251959596
Mean absolute error: 0.05350811626247485
Coverage of cases: 98.2767109798129
Instances selection time: 42.0
Test time: 40.0
Accumulative iteration time: 893.0
Weighted Recall: 0.9436238306253077
Weighted FalsePositiveRate: 0.05948126643510821
Kappa statistic: 0.8867667240990194
Training time: 2.0
		
Iteration: 20
Labeled set size: 1192
Unlabelled set size: 2870
	
Mean region size: 53.15115706548498
Incorrectly Classified Instances: 5.612998522895126
Correctly Classified Instances: 94.38700147710487
Weighted Precision: 0.9467811921743776
Weighted AreaUnderROC: 0.9962450529561864
Root mean squared error: 0.2071828318834859
Relative absolute error: 10.743323360864885
Root relative squared error: 41.43656637669718
Weighted TruePositiveRate: 0.9438700147710487
Weighted MatthewsCorrelation: 0.8903366078203708
Weighted FMeasure: 0.9436894816201081
Iteration time: 43.0
Weighted AreaUnderPRC: 0.9963438115147221
Mean absolute error: 0.05371661680432442
Coverage of cases: 98.2520925652388
Instances selection time: 42.0
Test time: 40.0
Accumulative iteration time: 936.0
Weighted Recall: 0.9438700147710487
Weighted FalsePositiveRate: 0.059252165409746566
Kappa statistic: 0.8872591888528127
Training time: 1.0
		
Iteration: 21
Labeled set size: 1212
Unlabelled set size: 2850
	
Mean region size: 53.138847858197934
Incorrectly Classified Instances: 5.637616937469227
Correctly Classified Instances: 94.36238306253077
Weighted Precision: 0.9464966867921103
Weighted AreaUnderROC: 0.9962501504988795
Root mean squared error: 0.20571586891171847
Relative absolute error: 10.626028022836392
Root relative squared error: 41.143173782343695
Weighted TruePositiveRate: 0.9436238306253077
Weighted MatthewsCorrelation: 0.8898056318842033
Weighted FMeasure: 0.9434441658766505
Iteration time: 44.0
Weighted AreaUnderPRC: 0.9963490215407594
Mean absolute error: 0.05313014011418196
Coverage of cases: 98.301329394387
Instances selection time: 42.0
Test time: 40.0
Accumulative iteration time: 980.0
Weighted Recall: 0.9436238306253077
Weighted FalsePositiveRate: 0.05948126643510821
Kappa statistic: 0.8867667240990194
Training time: 2.0
		
Iteration: 22
Labeled set size: 1232
Unlabelled set size: 2830
	
Mean region size: 53.15115706548498
Incorrectly Classified Instances: 5.5637616937469225
Correctly Classified Instances: 94.43623830625307
Weighted Precision: 0.9471360508009835
Weighted AreaUnderROC: 0.9962569472224704
Root mean squared error: 0.20466157953643796
Relative absolute error: 10.551551095319178
Root relative squared error: 40.932315907287595
Weighted TruePositiveRate: 0.9443623830625307
Weighted MatthewsCorrelation: 0.891190863487576
Weighted FMeasure: 0.9441899458161862
Iteration time: 43.0
Weighted AreaUnderPRC: 0.9963558274438213
Mean absolute error: 0.05275775547659589
Coverage of cases: 98.35056622353521
Instances selection time: 41.0
Test time: 41.0
Accumulative iteration time: 1023.0
Weighted Recall: 0.9443623830625307
Weighted FalsePositiveRate: 0.0586876431828522
Kappa statistic: 0.888256087407429
Training time: 2.0
		
Iteration: 23
Labeled set size: 1252
Unlabelled set size: 2810
	
Mean region size: 53.15115706548498
Incorrectly Classified Instances: 5.465288035450517
Correctly Classified Instances: 94.53471196454949
Weighted Precision: 0.9480601616818588
Weighted AreaUnderROC: 0.9962926300213223
Root mean squared error: 0.20233840445218096
Relative absolute error: 10.389434349428338
Root relative squared error: 40.46768089043619
Weighted TruePositiveRate: 0.9453471196454948
Weighted MatthewsCorrelation: 0.8931072282867569
Weighted FMeasure: 0.9451808920659326
Iteration time: 43.0
Weighted AreaUnderPRC: 0.996390569592954
Mean absolute error: 0.05194717174714169
Coverage of cases: 98.44903988183161
Instances selection time: 41.0
Test time: 41.0
Accumulative iteration time: 1066.0
Weighted Recall: 0.9453471196454948
Weighted FalsePositiveRate: 0.057664918905234536
Kappa statistic: 0.8902377570897944
Training time: 2.0
		
Iteration: 24
Labeled set size: 1272
Unlabelled set size: 2790
	
Mean region size: 53.12653865091088
Incorrectly Classified Instances: 5.317577548005908
Correctly Classified Instances: 94.68242245199409
Weighted Precision: 0.9492131753768615
Weighted AreaUnderROC: 0.9963113210111971
Root mean squared error: 0.19901979534030817
Relative absolute error: 10.154809016761144
Root relative squared error: 39.80395906806164
Weighted TruePositiveRate: 0.946824224519941
Weighted MatthewsCorrelation: 0.8957555298183952
Weighted FMeasure: 0.9466774544233385
Iteration time: 43.0
Weighted AreaUnderPRC: 0.9964088922202995
Mean absolute error: 0.050774045083805716
Coverage of cases: 98.52289512555392
Instances selection time: 41.0
Test time: 45.0
Accumulative iteration time: 1109.0
Weighted Recall: 0.946824224519941
Weighted FalsePositiveRate: 0.05600679228327512
Kappa statistic: 0.8932232795331477
Training time: 2.0
		
Iteration: 25
Labeled set size: 1292
Unlabelled set size: 2770
	
Mean region size: 53.138847858197934
Incorrectly Classified Instances: 5.317577548005908
Correctly Classified Instances: 94.68242245199409
Weighted Precision: 0.9492789313226488
Weighted AreaUnderROC: 0.9963054952481193
Root mean squared error: 0.1990646880413455
Relative absolute error: 10.142588382280792
Root relative squared error: 39.8129376082691
Weighted TruePositiveRate: 0.946824224519941
Weighted MatthewsCorrelation: 0.8958192795046837
Weighted FMeasure: 0.9466745143321307
Iteration time: 42.0
Weighted AreaUnderPRC: 0.9964033220013786
Mean absolute error: 0.050712941911403964
Coverage of cases: 98.54751354012802
Instances selection time: 40.0
Test time: 41.0
Accumulative iteration time: 1151.0
Weighted Recall: 0.946824224519941
Weighted FalsePositiveRate: 0.05604223234199881
Kappa statistic: 0.8932194850050751
Training time: 2.0
		
Iteration: 26
Labeled set size: 1312
Unlabelled set size: 2750
	
Mean region size: 53.12653865091088
Incorrectly Classified Instances: 5.292959133431807
Correctly Classified Instances: 94.70704086656819
Weighted Precision: 0.9494942131154496
Weighted AreaUnderROC: 0.9962724825906779
Root mean squared error: 0.19889643104872276
Relative absolute error: 10.126244139571543
Root relative squared error: 39.779286209744555
Weighted TruePositiveRate: 0.9470704086656819
Weighted MatthewsCorrelation: 0.8962830571042518
Weighted FMeasure: 0.9469228581081027
Iteration time: 48.0
Weighted AreaUnderPRC: 0.9963719140717816
Mean absolute error: 0.05063122069785772
Coverage of cases: 98.52289512555392
Instances selection time: 47.0
Test time: 40.0
Accumulative iteration time: 1199.0
Weighted Recall: 0.9470704086656819
Weighted FalsePositiveRate: 0.055777691257913466
Kappa statistic: 0.893715727755124
Training time: 1.0
		
Iteration: 27
Labeled set size: 1332
Unlabelled set size: 2730
	
Mean region size: 53.12653865091088
Incorrectly Classified Instances: 5.1944854751354015
Correctly Classified Instances: 94.8055145248646
Weighted Precision: 0.9503571598819289
Weighted AreaUnderROC: 0.9964156992663421
Root mean squared error: 0.19645442957069323
Relative absolute error: 9.96778625261474
Root relative squared error: 39.29088591413865
Weighted TruePositiveRate: 0.948055145248646
Weighted MatthewsCorrelation: 0.8981398833023371
Weighted FMeasure: 0.9479160322729533
Iteration time: 42.0
Weighted AreaUnderPRC: 0.9965094276214266
Mean absolute error: 0.049838931263073705
Coverage of cases: 98.57213195470212
Instances selection time: 41.0
Test time: 40.0
Accumulative iteration time: 1241.0
Weighted Recall: 0.948055145248646
Weighted FalsePositiveRate: 0.05471952692157211
Kappa statistic: 0.8957005224210254
Training time: 1.0
		
Iteration: 28
Labeled set size: 1352
Unlabelled set size: 2710
	
Mean region size: 53.138847858197934
Incorrectly Classified Instances: 5.219103889709503
Correctly Classified Instances: 94.7808961102905
Weighted Precision: 0.9501411497363109
Weighted AreaUnderROC: 0.9963574416355636
Root mean squared error: 0.196796810300358
Relative absolute error: 9.983338787579807
Root relative squared error: 39.359362060071604
Weighted TruePositiveRate: 0.947808961102905
Weighted MatthewsCorrelation: 0.8976754188213928
Weighted FMeasure: 0.9476677686866753
Iteration time: 42.0
Weighted AreaUnderPRC: 0.9964535668143762
Mean absolute error: 0.04991669393789904
Coverage of cases: 98.59675036927622
Instances selection time: 41.0
Test time: 40.0
Accumulative iteration time: 1283.0
Weighted Recall: 0.947808961102905
Weighted FalsePositiveRate: 0.05498406800565745
Kappa statistic: 0.8952043502028145
Training time: 1.0
		
Iteration: 29
Labeled set size: 1372
Unlabelled set size: 2690
	
Mean region size: 53.163466272772034
Incorrectly Classified Instances: 5.1944854751354015
Correctly Classified Instances: 94.8055145248646
Weighted Precision: 0.9504217774103159
Weighted AreaUnderROC: 0.9963656947999239
Root mean squared error: 0.19545554182664995
Relative absolute error: 9.89475274529707
Root relative squared error: 39.091108365329994
Weighted TruePositiveRate: 0.948055145248646
Weighted MatthewsCorrelation: 0.8982025480400356
Weighted FMeasure: 0.9479131989464625
Iteration time: 42.0
Weighted AreaUnderPRC: 0.9964620630116716
Mean absolute error: 0.049473763726485355
Coverage of cases: 98.67060561299853
Instances selection time: 40.0
Test time: 40.0
Accumulative iteration time: 1325.0
Weighted Recall: 0.948055145248646
Weighted FalsePositiveRate: 0.054754966980295805
Kappa statistic: 0.8956968161243866
Training time: 2.0
		
Iteration: 30
Labeled set size: 1392
Unlabelled set size: 2670
	
Mean region size: 53.11422944362383
Incorrectly Classified Instances: 5.2437223042836045
Correctly Classified Instances: 94.75627769571639
Weighted Precision: 0.9499907604917077
Weighted AreaUnderROC: 0.9963802592076185
Root mean squared error: 0.19647011488524058
Relative absolute error: 9.956246010814558
Root relative squared error: 39.294022977048115
Weighted TruePositiveRate: 0.947562776957164
Weighted MatthewsCorrelation: 0.897274588168313
Weighted FMeasure: 0.9474165989629111
Iteration time: 41.0
Weighted AreaUnderPRC: 0.9964756882503533
Mean absolute error: 0.04978123005407279
Coverage of cases: 98.59675036927622
Instances selection time: 40.0
Test time: 40.0
Accumulative iteration time: 1366.0
Weighted Recall: 0.947562776957164
Weighted FalsePositiveRate: 0.055284049148466484
Kappa statistic: 0.8947044186597275
Training time: 1.0
		
Iteration: 31
Labeled set size: 1412
Unlabelled set size: 2650
	
Mean region size: 53.07730182176268
Incorrectly Classified Instances: 5.292959133431807
Correctly Classified Instances: 94.70704086656819
Weighted Precision: 0.949560471399217
Weighted AreaUnderROC: 0.9963169040341466
Root mean squared error: 0.1978723170297386
Relative absolute error: 10.03463728523945
Root relative squared error: 39.57446340594772
Weighted TruePositiveRate: 0.9470704086656819
Weighted MatthewsCorrelation: 0.8963473145046549
Weighted FMeasure: 0.9469199184764817
Iteration time: 41.0
Weighted AreaUnderPRC: 0.9964148903846507
Mean absolute error: 0.050173186426197246
Coverage of cases: 98.57213195470212
Instances selection time: 39.0
Test time: 40.0
Accumulative iteration time: 1407.0
Weighted Recall: 0.9470704086656819
Weighted FalsePositiveRate: 0.05581313131663717
Kappa statistic: 0.8937119506600878
Training time: 2.0
		
Iteration: 32
Labeled set size: 1432
Unlabelled set size: 2630
	
Mean region size: 53.10192023633678
Incorrectly Classified Instances: 5.219103889709503
Correctly Classified Instances: 94.7808961102905
Weighted Precision: 0.9502061778444106
Weighted AreaUnderROC: 0.9963909397732613
Root mean squared error: 0.19663891676504844
Relative absolute error: 9.949848039325543
Root relative squared error: 39.327783353009686
Weighted TruePositiveRate: 0.947808961102905
Weighted MatthewsCorrelation: 0.8977384821880476
Weighted FMeasure: 0.9476649089710546
Iteration time: 41.0
Weighted AreaUnderPRC: 0.9964859849537808
Mean absolute error: 0.049749240196627714
Coverage of cases: 98.64598719842442
Instances selection time: 39.0
Test time: 40.0
Accumulative iteration time: 1448.0
Weighted Recall: 0.947808961102905
Weighted FalsePositiveRate: 0.05501950806438115
Kappa statistic: 0.8952006262084597
Training time: 2.0
		
Iteration: 33
Labeled set size: 1452
Unlabelled set size: 2610
	
Mean region size: 53.10192023633678
Incorrectly Classified Instances: 5.1944854751354015
Correctly Classified Instances: 94.8055145248646
Weighted Precision: 0.9504217774103159
Weighted AreaUnderROC: 0.9963654520597957
Root mean squared error: 0.1962816520281106
Relative absolute error: 9.91727255167327
Root relative squared error: 39.25633040562212
Weighted TruePositiveRate: 0.948055145248646
Weighted MatthewsCorrelation: 0.8982025480400356
Weighted FMeasure: 0.9479131989464625
Iteration time: 40.0
Weighted AreaUnderPRC: 0.9964617279117742
Mean absolute error: 0.049586362758366344
Coverage of cases: 98.64598719842442
Instances selection time: 38.0
Test time: 40.0
Accumulative iteration time: 1488.0
Weighted Recall: 0.948055145248646
Weighted FalsePositiveRate: 0.054754966980295805
Kappa statistic: 0.8956968161243866
Training time: 2.0
		
Iteration: 34
Labeled set size: 1472
Unlabelled set size: 2590
	
Mean region size: 53.10192023633678
Incorrectly Classified Instances: 5.145248645987198
Correctly Classified Instances: 94.8547513540128
Weighted Precision: 0.9508535242109639
Weighted AreaUnderROC: 0.9963984647172369
Root mean squared error: 0.1954640197300524
Relative absolute error: 9.869793142940072
Root relative squared error: 39.09280394601048
Weighted TruePositiveRate: 0.948547513540128
Weighted MatthewsCorrelation: 0.8991311963634727
Weighted FMeasure: 0.9484097191708399
Iteration time: 40.0
Weighted AreaUnderPRC: 0.9964935586631558
Mean absolute error: 0.04934896571470036
Coverage of cases: 98.62136878385031
Instances selection time: 39.0
Test time: 39.0
Accumulative iteration time: 1528.0
Weighted Recall: 0.948547513540128
Weighted FalsePositiveRate: 0.054225884812125126
Kappa statistic: 0.8966891430615843
Training time: 1.0
		
Iteration: 35
Labeled set size: 1492
Unlabelled set size: 2570
	
Mean region size: 53.08961102904973
Incorrectly Classified Instances: 5.120630231413097
Correctly Classified Instances: 94.8793697685869
Weighted Precision: 0.9510696719613834
Weighted AreaUnderROC: 0.99650866873546
Root mean squared error: 0.19380025899436765
Relative absolute error: 9.764098947446362
Root relative squared error: 38.760051798873526
Weighted TruePositiveRate: 0.9487936976858691
Weighted MatthewsCorrelation: 0.8995957793970063
Weighted FMeasure: 0.9486579496056231
Iteration time: 39.0
Weighted AreaUnderPRC: 0.9965993877724192
Mean absolute error: 0.04882049473723181
Coverage of cases: 98.64598719842442
Instances selection time: 38.0
Test time: 40.0
Accumulative iteration time: 1567.0
Weighted Recall: 0.9487936976858691
Weighted FalsePositiveRate: 0.05396134372803979
Kappa statistic: 0.8971852800847347
Training time: 1.0
		
Iteration: 36
Labeled set size: 1512
Unlabelled set size: 2550
	
Mean region size: 53.11422944362383
Incorrectly Classified Instances: 5.120630231413097
Correctly Classified Instances: 94.8793697685869
Weighted Precision: 0.9510696719613834
Weighted AreaUnderROC: 0.9964419152001927
Root mean squared error: 0.1945456112300409
Relative absolute error: 9.807318893674594
Root relative squared error: 38.90912224600818
Weighted TruePositiveRate: 0.9487936976858691
Weighted MatthewsCorrelation: 0.8995957793970063
Weighted FMeasure: 0.9486579496056231
Iteration time: 40.0
Weighted AreaUnderPRC: 0.9965354085859253
Mean absolute error: 0.04903659446837297
Coverage of cases: 98.64598719842442
Instances selection time: 38.0
Test time: 40.0
Accumulative iteration time: 1607.0
Weighted Recall: 0.9487936976858691
Weighted FalsePositiveRate: 0.05396134372803979
Kappa statistic: 0.8971852800847347
Training time: 2.0
		
Iteration: 37
Labeled set size: 1532
Unlabelled set size: 2530
	
Mean region size: 53.10192023633678
Incorrectly Classified Instances: 5.1944854751354015
Correctly Classified Instances: 94.8055145248646
Weighted Precision: 0.9504217774103159
Weighted AreaUnderROC: 0.9963923962140306
Root mean squared error: 0.19588721584572574
Relative absolute error: 9.891139177473818
Root relative squared error: 39.17744316914515
Weighted TruePositiveRate: 0.948055145248646
Weighted MatthewsCorrelation: 0.8982025480400356
Weighted FMeasure: 0.9479131989464625
Iteration time: 39.0
Weighted AreaUnderPRC: 0.9964876519432585
Mean absolute error: 0.04945569588736909
Coverage of cases: 98.62136878385031
Instances selection time: 38.0
Test time: 40.0
Accumulative iteration time: 1646.0
Weighted Recall: 0.948055145248646
Weighted FalsePositiveRate: 0.054754966980295805
Kappa statistic: 0.8956968161243866
Training time: 1.0
		
Iteration: 38
Labeled set size: 1552
Unlabelled set size: 2510
	
Mean region size: 53.12653865091088
Incorrectly Classified Instances: 5.2437223042836045
Correctly Classified Instances: 94.75627769571639
Weighted Precision: 0.9498607955528939
Weighted AreaUnderROC: 0.9964004066382628
Root mean squared error: 0.19750446101382593
Relative absolute error: 10.002580702609274
Root relative squared error: 39.500892202765186
Weighted TruePositiveRate: 0.947562776957164
Weighted MatthewsCorrelation: 0.8971485702412015
Weighted FMeasure: 0.9474223453750664
Iteration time: 39.0
Weighted AreaUnderPRC: 0.9964947182101259
Mean absolute error: 0.050012903513046374
Coverage of cases: 98.62136878385031
Instances selection time: 37.0
Test time: 48.0
Accumulative iteration time: 1685.0
Weighted Recall: 0.947562776957164
Weighted FalsePositiveRate: 0.055213169031019096
Kappa statistic: 0.8947119017804663
Training time: 2.0
		
Iteration: 39
Labeled set size: 1572
Unlabelled set size: 2490
	
Mean region size: 53.11422944362383
Incorrectly Classified Instances: 5.268340718857705
Correctly Classified Instances: 94.7316592811423
Weighted Precision: 0.9496447400259967
Weighted AreaUnderROC: 0.9964598779696828
Root mean squared error: 0.19856918346709582
Relative absolute error: 10.073848633086456
Root relative squared error: 39.71383669341916
Weighted TruePositiveRate: 0.947316592811423
Weighted MatthewsCorrelation: 0.8966840516379067
Weighted FMeasure: 0.9471740683912667
Iteration time: 38.0
Weighted AreaUnderPRC: 0.9965514332270393
Mean absolute error: 0.05036924316543228
Coverage of cases: 98.57213195470212
Instances selection time: 37.0
Test time: 41.0
Accumulative iteration time: 1723.0
Weighted Recall: 0.947316592811423
Weighted FalsePositiveRate: 0.055477710115104446
Kappa statistic: 0.8942157119971808
Training time: 1.0
		
Iteration: 40
Labeled set size: 1592
Unlabelled set size: 2470
	
Mean region size: 53.11422944362383
Incorrectly Classified Instances: 5.391432791728213
Correctly Classified Instances: 94.6085672082718
Weighted Precision: 0.9485671905522312
Weighted AreaUnderROC: 0.996459149749298
Root mean squared error: 0.20016819013196227
Relative absolute error: 10.1797259151667
Root relative squared error: 40.03363802639245
Weighted TruePositiveRate: 0.9460856720827179
Weighted MatthewsCorrelation: 0.8943640313440949
Weighted FMeasure: 0.945932382076044
Iteration time: 39.0
Weighted AreaUnderPRC: 0.9965504653806367
Mean absolute error: 0.05089862957583349
Coverage of cases: 98.54751354012802
Instances selection time: 37.0
Test time: 40.0
Accumulative iteration time: 1762.0
Weighted Recall: 0.9460856720827179
Weighted FalsePositiveRate: 0.05680041553553114
Kappa statistic: 0.8917344985793453
Training time: 2.0
		
Iteration: 41
Labeled set size: 1612
Unlabelled set size: 2450
	
Mean region size: 53.08961102904973
Incorrectly Classified Instances: 5.416051206302314
Correctly Classified Instances: 94.58394879369769
Weighted Precision: 0.9483522244900351
Weighted AreaUnderROC: 0.9964118154242904
Root mean squared error: 0.20039042225914033
Relative absolute error: 10.188538604803615
Root relative squared error: 40.07808445182807
Weighted TruePositiveRate: 0.9458394879369768
Weighted MatthewsCorrelation: 0.8939005398659593
Weighted FMeasure: 0.9456839838827521
Iteration time: 37.0
Weighted AreaUnderPRC: 0.996505025400965
Mean absolute error: 0.05094269302401807
Coverage of cases: 98.52289512555392
Instances selection time: 36.0
Test time: 40.0
Accumulative iteration time: 1799.0
Weighted Recall: 0.9458394879369768
Weighted FalsePositiveRate: 0.057064956619616476
Kappa statistic: 0.8912382029889169
Training time: 1.0
		
Iteration: 42
Labeled set size: 1632
Unlabelled set size: 2430
	
Mean region size: 53.11422944362383
Incorrectly Classified Instances: 5.34219596258001
Correctly Classified Instances: 94.65780403742
Weighted Precision: 0.9489976657391916
Weighted AreaUnderROC: 0.9964295354536523
Root mean squared error: 0.19921544495748322
Relative absolute error: 10.119975216520753
Root relative squared error: 39.84308899149664
Weighted TruePositiveRate: 0.9465780403741999
Weighted MatthewsCorrelation: 0.8952915260401907
Weighted FMeasure: 0.9464291172532945
Iteration time: 38.0
Weighted AreaUnderPRC: 0.996522283925674
Mean absolute error: 0.050599876082603766
Coverage of cases: 98.54751354012802
Instances selection time: 36.0
Test time: 40.0
Accumulative iteration time: 1837.0
Weighted Recall: 0.9465780403741999
Weighted FalsePositiveRate: 0.05627133336736046
Kappa statistic: 0.8927270368505205
Training time: 2.0
		
Iteration: 43
Labeled set size: 1652
Unlabelled set size: 2410
	
Mean region size: 53.11422944362383
Incorrectly Classified Instances: 5.416051206302314
Correctly Classified Instances: 94.58394879369769
Weighted Precision: 0.9483522244900351
Weighted AreaUnderROC: 0.99641739844724
Root mean squared error: 0.2011396893215403
Relative absolute error: 10.24424788026882
Root relative squared error: 40.22793786430806
Weighted TruePositiveRate: 0.9458394879369768
Weighted MatthewsCorrelation: 0.8939005398659593
Weighted FMeasure: 0.9456839838827521
Iteration time: 37.0
Weighted AreaUnderPRC: 0.9965101840434002
Mean absolute error: 0.0512212394013441
Coverage of cases: 98.49827671097981
Instances selection time: 35.0
Test time: 40.0
Accumulative iteration time: 1874.0
Weighted Recall: 0.9458394879369768
Weighted FalsePositiveRate: 0.057064956619616476
Kappa statistic: 0.8912382029889169
Training time: 2.0
		
Iteration: 44
Labeled set size: 1672
Unlabelled set size: 2390
	
Mean region size: 53.11422944362383
Incorrectly Classified Instances: 5.391432791728213
Correctly Classified Instances: 94.6085672082718
Weighted Precision: 0.9485671905522312
Weighted AreaUnderROC: 0.9963989501974932
Root mean squared error: 0.20117220260250288
Relative absolute error: 10.244521471168392
Root relative squared error: 40.23444052050058
Weighted TruePositiveRate: 0.9460856720827179
Weighted MatthewsCorrelation: 0.8943640313440949
Weighted FMeasure: 0.945932382076044
Iteration time: 37.0
Weighted AreaUnderPRC: 0.996492394464676
Mean absolute error: 0.05122260735584196
Coverage of cases: 98.49827671097981
Instances selection time: 36.0
Test time: 40.0
Accumulative iteration time: 1911.0
Weighted Recall: 0.9460856720827179
Weighted FalsePositiveRate: 0.05680041553553114
Kappa statistic: 0.8917344985793453
Training time: 1.0
		
Iteration: 45
Labeled set size: 1692
Unlabelled set size: 2370
	
Mean region size: 53.11422944362383
Incorrectly Classified Instances: 5.391432791728213
Correctly Classified Instances: 94.6085672082718
Weighted Precision: 0.9485671905522312
Weighted AreaUnderROC: 0.9964006493783912
Root mean squared error: 0.20188864634013115
Relative absolute error: 10.286384139614897
Root relative squared error: 40.37772926802623
Weighted TruePositiveRate: 0.9460856720827179
Weighted MatthewsCorrelation: 0.8943640313440949
Weighted FMeasure: 0.945932382076044
Iteration time: 37.0
Weighted AreaUnderPRC: 0.9964937253576568
Mean absolute error: 0.051431920698074486
Coverage of cases: 98.47365829640572
Instances selection time: 35.0
Test time: 40.0
Accumulative iteration time: 1948.0
Weighted Recall: 0.9460856720827179
Weighted FalsePositiveRate: 0.05680041553553114
Kappa statistic: 0.8917344985793453
Training time: 2.0
		
Iteration: 46
Labeled set size: 1712
Unlabelled set size: 2350
	
Mean region size: 53.08961102904973
Incorrectly Classified Instances: 5.391432791728213
Correctly Classified Instances: 94.6085672082718
Weighted Precision: 0.9485671905522312
Weighted AreaUnderROC: 0.9964387595785255
Root mean squared error: 0.2020192229060684
Relative absolute error: 10.289690331430219
Root relative squared error: 40.40384458121368
Weighted TruePositiveRate: 0.9460856720827179
Weighted MatthewsCorrelation: 0.8943640313440949
Weighted FMeasure: 0.945932382076044
Iteration time: 36.0
Weighted AreaUnderPRC: 0.9965300979668452
Mean absolute error: 0.0514484516571511
Coverage of cases: 98.44903988183161
Instances selection time: 35.0
Test time: 40.0
Accumulative iteration time: 1984.0
Weighted Recall: 0.9460856720827179
Weighted FalsePositiveRate: 0.05680041553553114
Kappa statistic: 0.8917344985793453
Training time: 1.0
		
Time end:Wed Nov 01 05.38.42 EET 2017