Wed Nov 01 05.14.44 EET 2017
Dataset: mushroom
Test set size: 4062
Initial Labelled set size: 812
Initial Unlabelled set size: 3250
Batch mode: QBestBatchMode
Batch size: 20
Classifiers: NaiveBayes-1cores
Scenario: PoolBasedSamplingScenario
Query strategy: EntropySamplingQueryStrategy-1cores
Time begining: Wed Nov 01 05.14.44 EET 2017
		
Iteration: 1
Labeled set size: 812
Unlabelled set size: 3250
	
Mean region size: 53.003446578040375
Incorrectly Classified Instances: 6.72082717872969
Correctly Classified Instances: 93.27917282127031
Weighted Precision: 0.9377573306910565
Weighted AreaUnderROC: 0.9947842428644111
Root mean squared error: 0.23424567640653504
Relative absolute error: 12.954636053825164
Root relative squared error: 46.84913528130701
Weighted TruePositiveRate: 0.9327917282127031
Weighted MatthewsCorrelation: 0.8701012756410476
Weighted FMeasure: 0.9324586387124904
Iteration time: 285.0
Weighted AreaUnderPRC: 0.9949394334106553
Mean absolute error: 0.06477318026912582
Coverage of cases: 96.99655342195963
Instances selection time: 202.0
Test time: 329.0
Accumulative iteration time: 285.0
Weighted Recall: 0.9327917282127031
Weighted FalsePositiveRate: 0.07129827442848159
Kappa statistic: 0.8648804349653795
Training time: 83.0
		
Iteration: 2
Labeled set size: 832
Unlabelled set size: 3230
	
Mean region size: 53.32348596750369
Incorrectly Classified Instances: 5.5145248645987195
Correctly Classified Instances: 94.48547513540127
Weighted Precision: 0.9499661068381586
Weighted AreaUnderROC: 0.9957088400128944
Root mean squared error: 0.21152736103037567
Relative absolute error: 11.117426278793356
Root relative squared error: 42.30547220607514
Weighted TruePositiveRate: 0.9448547513540128
Weighted MatthewsCorrelation: 0.8944527986091989
Weighted FMeasure: 0.9445834372999893
Iteration time: 176.0
Weighted AreaUnderPRC: 0.9958343907641192
Mean absolute error: 0.05558713139396678
Coverage of cases: 97.98129000492368
Instances selection time: 162.0
Test time: 167.0
Accumulative iteration time: 461.0
Weighted Recall: 0.9448547513540128
Weighted FalsePositiveRate: 0.059186322717668584
Kappa statistic: 0.8891346368480922
Training time: 14.0
		
Iteration: 3
Labeled set size: 852
Unlabelled set size: 3210
	
Mean region size: 53.37272279665189
Incorrectly Classified Instances: 4.579025110782865
Correctly Classified Instances: 95.42097488921713
Weighted Precision: 0.9579289570607549
Weighted AreaUnderROC: 0.9964008921185193
Root mean squared error: 0.1878089789872811
Relative absolute error: 9.371744648301128
Root relative squared error: 37.56179579745622
Weighted TruePositiveRate: 0.9542097488921714
Weighted MatthewsCorrelation: 0.9118651995822072
Weighted FMeasure: 0.9540372226477305
Iteration time: 88.0
Weighted AreaUnderPRC: 0.9965099173030587
Mean absolute error: 0.04685872324150564
Coverage of cases: 98.52289512555392
Instances selection time: 79.0
Test time: 127.0
Accumulative iteration time: 549.0
Weighted Recall: 0.9542097488921714
Weighted FalsePositiveRate: 0.04920464163987308
Kappa statistic: 0.9079978003211844
Training time: 9.0
		
Iteration: 4
Labeled set size: 872
Unlabelled set size: 3190
	
Mean region size: 53.360413589364846
Incorrectly Classified Instances: 2.855736090595766
Correctly Classified Instances: 97.14426390940423
Weighted Precision: 0.9729348255197591
Weighted AreaUnderROC: 0.9967829650803761
Root mean squared error: 0.14995216541309497
Relative absolute error: 6.87199786050912
Root relative squared error: 29.990433082618996
Weighted TruePositiveRate: 0.9714426390940424
Weighted MatthewsCorrelation: 0.9442453389551817
Weighted FMeasure: 0.9713898179177037
Iteration time: 74.0
Weighted AreaUnderPRC: 0.9968865282412995
Mean absolute error: 0.0343599893025456
Coverage of cases: 99.03988183161005
Instances selection time: 61.0
Test time: 115.0
Accumulative iteration time: 623.0
Weighted Recall: 0.9714426390940424
Weighted FalsePositiveRate: 0.03068676575389934
Kappa statistic: 0.9426936021039297
Training time: 13.0
		
Iteration: 5
Labeled set size: 892
Unlabelled set size: 3170
	
Mean region size: 52.85573609059576
Incorrectly Classified Instances: 1.4524864598719842
Correctly Classified Instances: 98.54751354012802
Weighted Precision: 0.985871329118952
Weighted AreaUnderROC: 0.9968390380500006
Root mean squared error: 0.12059662880628055
Relative absolute error: 4.795398861759469
Root relative squared error: 24.11932576125611
Weighted TruePositiveRate: 0.9854751354012802
Weighted MatthewsCorrelation: 0.9712940910047041
Weighted FMeasure: 0.9854644609469481
Iteration time: 59.0
Weighted AreaUnderPRC: 0.9969423505479902
Mean absolute error: 0.023976994308797343
Coverage of cases: 99.01526341703594
Instances selection time: 57.0
Test time: 98.0
Accumulative iteration time: 682.0
Weighted Recall: 0.9854751354012802
Weighted FalsePositiveRate: 0.015607923961035008
Kappa statistic: 0.97088225109803
Training time: 2.0
		
Iteration: 6
Labeled set size: 912
Unlabelled set size: 3150
	
Mean region size: 52.19103889709503
Incorrectly Classified Instances: 1.03397341211226
Correctly Classified Instances: 98.96602658788774
Weighted Precision: 0.9898626278700643
Weighted AreaUnderROC: 0.9966523708913806
Root mean squared error: 0.10816982126705653
Relative absolute error: 3.724392894918939
Root relative squared error: 21.633964253411307
Weighted TruePositiveRate: 0.9896602658788775
Weighted MatthewsCorrelation: 0.9794886718063529
Weighted FMeasure: 0.9896553071773911
Iteration time: 58.0
Weighted AreaUnderPRC: 0.9967607030837263
Mean absolute error: 0.018621964474594695
Coverage of cases: 98.99064500246185
Instances selection time: 56.0
Test time: 99.0
Accumulative iteration time: 740.0
Weighted Recall: 0.9896602658788775
Weighted FalsePositiveRate: 0.011110725531584245
Kappa statistic: 0.9792783596813461
Training time: 2.0
		
Iteration: 7
Labeled set size: 932
Unlabelled set size: 3130
	
Mean region size: 52.080256031511574
Incorrectly Classified Instances: 1.03397341211226
Correctly Classified Instances: 98.96602658788774
Weighted Precision: 0.9898626278700643
Weighted AreaUnderROC: 0.9971567848778727
Root mean squared error: 0.10580539145881775
Relative absolute error: 3.492700612877492
Root relative squared error: 21.16107829176355
Weighted TruePositiveRate: 0.9896602658788775
Weighted MatthewsCorrelation: 0.9794886718063529
Weighted FMeasure: 0.9896553071773911
Iteration time: 46.0
Weighted AreaUnderPRC: 0.9972519384735915
Mean absolute error: 0.01746350306438746
Coverage of cases: 99.03988183161005
Instances selection time: 44.0
Test time: 78.0
Accumulative iteration time: 786.0
Weighted Recall: 0.9896602658788775
Weighted FalsePositiveRate: 0.011110725531584245
Kappa statistic: 0.9792783596813461
Training time: 2.0
		
Iteration: 8
Labeled set size: 952
Unlabelled set size: 3110
	
Mean region size: 51.88330871491876
Incorrectly Classified Instances: 1.0093549975381586
Correctly Classified Instances: 98.99064500246185
Weighted Precision: 0.9900993803504882
Weighted AreaUnderROC: 0.9970502219615732
Root mean squared error: 0.10307135747925508
Relative absolute error: 3.14236592328971
Root relative squared error: 20.614271495851018
Weighted TruePositiveRate: 0.9899064500246184
Weighted MatthewsCorrelation: 0.9799725981550977
Weighted FMeasure: 0.9899017498827917
Iteration time: 45.0
Weighted AreaUnderPRC: 0.9971480032649387
Mean absolute error: 0.01571182961644855
Coverage of cases: 99.03988183161005
Instances selection time: 43.0
Test time: 110.0
Accumulative iteration time: 831.0
Weighted Recall: 0.9899064500246184
Weighted FalsePositiveRate: 0.010846184447498904
Kappa statistic: 0.9797720907759947
Training time: 2.0
		
Iteration: 9
Labeled set size: 972
Unlabelled set size: 3090
	
Mean region size: 51.66174298375184
Incorrectly Classified Instances: 1.0093549975381586
Correctly Classified Instances: 98.99064500246185
Weighted Precision: 0.9900993803504882
Weighted AreaUnderROC: 0.9970803217374756
Root mean squared error: 0.10310044100942511
Relative absolute error: 3.154420819611867
Root relative squared error: 20.62008820188502
Weighted TruePositiveRate: 0.9899064500246184
Weighted MatthewsCorrelation: 0.9799725981550977
Weighted FMeasure: 0.9899017498827917
Iteration time: 38.0
Weighted AreaUnderPRC: 0.9971775201502587
Mean absolute error: 0.015772104098059334
Coverage of cases: 99.03988183161005
Instances selection time: 36.0
Test time: 101.0
Accumulative iteration time: 869.0
Weighted Recall: 0.9899064500246184
Weighted FalsePositiveRate: 0.010846184447498904
Kappa statistic: 0.9797720907759947
Training time: 2.0
		
Iteration: 10
Labeled set size: 992
Unlabelled set size: 3070
	
Mean region size: 51.32939438700148
Incorrectly Classified Instances: 1.0093549975381586
Correctly Classified Instances: 98.99064500246185
Weighted Precision: 0.9900993803504882
Weighted AreaUnderROC: 0.9969822547256648
Root mean squared error: 0.10234737950345679
Relative absolute error: 2.9618734928125683
Root relative squared error: 20.469475900691357
Weighted TruePositiveRate: 0.9899064500246184
Weighted MatthewsCorrelation: 0.9799725981550977
Weighted FMeasure: 0.9899017498827917
Iteration time: 62.0
Weighted AreaUnderPRC: 0.997082264980695
Mean absolute error: 0.014809367464062842
Coverage of cases: 98.99064500246185
Instances selection time: 60.0
Test time: 91.0
Accumulative iteration time: 931.0
Weighted Recall: 0.9899064500246184
Weighted FalsePositiveRate: 0.010846184447498904
Kappa statistic: 0.9797720907759947
Training time: 2.0
		
Iteration: 11
Labeled set size: 1012
Unlabelled set size: 3050
	
Mean region size: 51.35401280157558
Incorrectly Classified Instances: 1.0093549975381586
Correctly Classified Instances: 98.99064500246185
Weighted Precision: 0.9900993803504882
Weighted AreaUnderROC: 0.9973242755663613
Root mean squared error: 0.10180239230665332
Relative absolute error: 2.951210299911345
Root relative squared error: 20.360478461330665
Weighted TruePositiveRate: 0.9899064500246184
Weighted MatthewsCorrelation: 0.9799725981550977
Weighted FMeasure: 0.9899017498827917
Iteration time: 32.0
Weighted AreaUnderPRC: 0.9974109686006846
Mean absolute error: 0.014756051499556725
Coverage of cases: 99.03988183161005
Instances selection time: 30.0
Test time: 90.0
Accumulative iteration time: 963.0
Weighted Recall: 0.9899064500246184
Weighted FalsePositiveRate: 0.010846184447498904
Kappa statistic: 0.9797720907759947
Training time: 2.0
		
Iteration: 12
Labeled set size: 1032
Unlabelled set size: 3030
	
Mean region size: 51.30477597242738
Incorrectly Classified Instances: 0.9354997538158543
Correctly Classified Instances: 99.06450024618415
Weighted Precision: 0.9908109641361879
Weighted AreaUnderROC: 0.998103471378026
Root mean squared error: 0.09733554322838905
Relative absolute error: 2.847307313203445
Root relative squared error: 19.46710864567781
Weighted TruePositiveRate: 0.9906450024618415
Weighted MatthewsCorrelation: 0.9814256518906768
Weighted FMeasure: 0.9906410300222412
Iteration time: 44.0
Weighted AreaUnderPRC: 0.9981634687998786
Mean absolute error: 0.014236536566017227
Coverage of cases: 99.23682914820286
Instances selection time: 42.0
Test time: 53.0
Accumulative iteration time: 1007.0
Weighted Recall: 0.9906450024618415
Weighted FalsePositiveRate: 0.010052561195242888
Kappa statistic: 0.9812531790020449
Training time: 2.0
		
Iteration: 13
Labeled set size: 1052
Unlabelled set size: 3010
	
Mean region size: 51.587887740029544
Incorrectly Classified Instances: 0.9108813392417529
Correctly Classified Instances: 99.08911866075825
Weighted Precision: 0.9910486018787266
Weighted AreaUnderROC: 0.9991547788734527
Root mean squared error: 0.08921053374907088
Relative absolute error: 2.735096057269649
Root relative squared error: 17.842106749814178
Weighted TruePositiveRate: 0.9908911866075825
Weighted MatthewsCorrelation: 0.9819104290901205
Weighted FMeasure: 0.9908874410442517
Iteration time: 31.0
Weighted AreaUnderPRC: 0.999176344113089
Mean absolute error: 0.013675480286348244
Coverage of cases: 99.58148695224027
Instances selection time: 28.0
Test time: 56.0
Accumulative iteration time: 1038.0
Weighted Recall: 0.9908911866075825
Weighted FalsePositiveRate: 0.009788020111157548
Kappa statistic: 0.9817468400612009
Training time: 3.0
		
Iteration: 14
Labeled set size: 1072
Unlabelled set size: 2990
	
Mean region size: 51.858690300344655
Incorrectly Classified Instances: 0.5908419497784343
Correctly Classified Instances: 99.40915805022156
Weighted Precision: 0.9941582168123411
Weighted AreaUnderROC: 0.9996472985936607
Root mean squared error: 0.06922648043879734
Relative absolute error: 2.378004626250064
Root relative squared error: 13.845296087759468
Weighted TruePositiveRate: 0.9940915805022157
Weighted MatthewsCorrelation: 0.9882320782139375
Weighted FMeasure: 0.9940901169339131
Iteration time: 44.0
Weighted AreaUnderPRC: 0.9996560517525513
Mean absolute error: 0.01189002313125032
Coverage of cases: 99.8769079271295
Instances selection time: 42.0
Test time: 58.0
Accumulative iteration time: 1082.0
Weighted Recall: 0.9940915805022157
Weighted FalsePositiveRate: 0.006348986018048139
Kappa statistic: 0.9881628410735622
Training time: 2.0
		
Iteration: 15
Labeled set size: 1092
Unlabelled set size: 2970
	
Mean region size: 51.84638109305761
Incorrectly Classified Instances: 0.46774987690792713
Correctly Classified Instances: 99.53225012309207
Weighted Precision: 0.9953643629721419
Weighted AreaUnderROC: 0.999692205517386
Root mean squared error: 0.0652206358407951
Relative absolute error: 2.2609383238632264
Root relative squared error: 13.04412716815902
Weighted TruePositiveRate: 0.9953225012309207
Weighted MatthewsCorrelation: 0.9906732387373184
Weighted FMeasure: 0.9953216110289048
Iteration time: 54.0
Weighted AreaUnderPRC: 0.9997000230374502
Mean absolute error: 0.011304691619316132
Coverage of cases: 99.8769079271295
Instances selection time: 52.0
Test time: 69.0
Accumulative iteration time: 1136.0
Weighted Recall: 0.9953225012309207
Weighted FalsePositiveRate: 0.005026280597621444
Kappa statistic: 0.9906297464089678
Training time: 2.0
		
Iteration: 16
Labeled set size: 1112
Unlabelled set size: 2950
	
Mean region size: 51.784835056622356
Incorrectly Classified Instances: 0.41851304775972425
Correctly Classified Instances: 99.58148695224027
Weighted Precision: 0.9958484137082203
Weighted AreaUnderROC: 0.9997577453520119
Root mean squared error: 0.0639139746520888
Relative absolute error: 2.215633301317091
Root relative squared error: 12.78279493041776
Weighted TruePositiveRate: 0.9958148695224027
Weighted MatthewsCorrelation: 0.9916512358150081
Weighted FMeasure: 0.9958141655338788
Iteration time: 39.0
Weighted AreaUnderPRC: 0.9997628893286513
Mean absolute error: 0.011078166506585455
Coverage of cases: 99.8769079271295
Instances selection time: 37.0
Test time: 58.0
Accumulative iteration time: 1175.0
Weighted Recall: 0.9958148695224027
Weighted FalsePositiveRate: 0.004497198429450765
Kappa statistic: 0.9916163861080698
Training time: 2.0
		
Iteration: 17
Labeled set size: 1132
Unlabelled set size: 2930
	
Mean region size: 51.73559822747415
Incorrectly Classified Instances: 0.41851304775972425
Correctly Classified Instances: 99.58148695224027
Weighted Precision: 0.9958484137082203
Weighted AreaUnderROC: 0.9997946418515051
Root mean squared error: 0.0629622125520488
Relative absolute error: 2.147388452385317
Root relative squared error: 12.592442510409759
Weighted TruePositiveRate: 0.9958148695224027
Weighted MatthewsCorrelation: 0.9916512358150081
Weighted FMeasure: 0.9958141655338788
Iteration time: 30.0
Weighted AreaUnderPRC: 0.9997987367606614
Mean absolute error: 0.010736942261926586
Coverage of cases: 99.9015263417036
Instances selection time: 28.0
Test time: 48.0
Accumulative iteration time: 1205.0
Weighted Recall: 0.9958148695224027
Weighted FalsePositiveRate: 0.004497198429450765
Kappa statistic: 0.9916163861080698
Training time: 2.0
		
Iteration: 18
Labeled set size: 1152
Unlabelled set size: 2910
	
Mean region size: 51.73559822747415
Incorrectly Classified Instances: 0.41851304775972425
Correctly Classified Instances: 99.58148695224027
Weighted Precision: 0.9958484137082203
Weighted AreaUnderROC: 0.9998167312031754
Root mean squared error: 0.062235936954142056
Relative absolute error: 2.10554018158748
Root relative squared error: 12.447187390828411
Weighted TruePositiveRate: 0.9958148695224027
Weighted MatthewsCorrelation: 0.9916512358150081
Weighted FMeasure: 0.9958141655338788
Iteration time: 29.0
Weighted AreaUnderPRC: 0.9998198668381517
Mean absolute error: 0.0105277009079374
Coverage of cases: 99.9015263417036
Instances selection time: 26.0
Test time: 46.0
Accumulative iteration time: 1234.0
Weighted Recall: 0.9958148695224027
Weighted FalsePositiveRate: 0.004497198429450765
Kappa statistic: 0.9916163861080698
Training time: 3.0
		
Iteration: 19
Labeled set size: 1172
Unlabelled set size: 2890
	
Mean region size: 51.68636139832595
Incorrectly Classified Instances: 0.41851304775972425
Correctly Classified Instances: 99.58148695224027
Weighted Precision: 0.9958484137082203
Weighted AreaUnderROC: 0.9998293536898443
Root mean squared error: 0.0610618488733494
Relative absolute error: 2.025722834704094
Root relative squared error: 12.212369774669881
Weighted TruePositiveRate: 0.9958148695224027
Weighted MatthewsCorrelation: 0.9916512358150081
Weighted FMeasure: 0.9958141655338788
Iteration time: 30.0
Weighted AreaUnderPRC: 0.999832387638578
Mean absolute error: 0.01012861417352047
Coverage of cases: 99.9015263417036
Instances selection time: 28.0
Test time: 85.0
Accumulative iteration time: 1264.0
Weighted Recall: 0.9958148695224027
Weighted FalsePositiveRate: 0.004497198429450765
Kappa statistic: 0.9916163861080698
Training time: 2.0
		
Iteration: 20
Labeled set size: 1192
Unlabelled set size: 2870
	
Mean region size: 51.7232890201871
Incorrectly Classified Instances: 0.36927621861152143
Correctly Classified Instances: 99.63072378138848
Weighted Precision: 0.9963333781785813
Weighted AreaUnderROC: 0.9998410052159998
Root mean squared error: 0.06072283809915167
Relative absolute error: 2.0273825042703377
Root relative squared error: 12.144567619830333
Weighted TruePositiveRate: 0.9963072378138847
Weighted MatthewsCorrelation: 0.9926301127316234
Weighted FMeasure: 0.9963066964722335
Iteration time: 33.0
Weighted AreaUnderPRC: 0.999843447144345
Mean absolute error: 0.010136912521351689
Coverage of cases: 99.9015263417036
Instances selection time: 30.0
Test time: 51.0
Accumulative iteration time: 1297.0
Weighted Recall: 0.9963072378138847
Weighted FalsePositiveRate: 0.003968116261280088
Kappa statistic: 0.9926029558554408
Training time: 3.0
		
Iteration: 21
Labeled set size: 1212
Unlabelled set size: 2850
	
Mean region size: 51.698670605612996
Incorrectly Classified Instances: 0.36927621861152143
Correctly Classified Instances: 99.63072378138848
Weighted Precision: 0.9963333781785813
Weighted AreaUnderROC: 0.999830081910229
Root mean squared error: 0.06121913275382272
Relative absolute error: 2.013339752916647
Root relative squared error: 12.243826550764544
Weighted TruePositiveRate: 0.9963072378138847
Weighted MatthewsCorrelation: 0.9926301127316234
Weighted FMeasure: 0.9963066964722335
Iteration time: 33.0
Weighted AreaUnderPRC: 0.9998328739047246
Mean absolute error: 0.010066698764583236
Coverage of cases: 99.9015263417036
Instances selection time: 31.0
Test time: 45.0
Accumulative iteration time: 1330.0
Weighted Recall: 0.9963072378138847
Weighted FalsePositiveRate: 0.003968116261280088
Kappa statistic: 0.9926029558554408
Training time: 2.0
		
Iteration: 22
Labeled set size: 1232
Unlabelled set size: 2830
	
Mean region size: 51.71097981290005
Incorrectly Classified Instances: 0.36927621861152143
Correctly Classified Instances: 99.63072378138848
Weighted Precision: 0.9963333781785813
Weighted AreaUnderROC: 0.999842218916641
Root mean squared error: 0.06126215199525191
Relative absolute error: 2.0153677669957535
Root relative squared error: 12.252430399050382
Weighted TruePositiveRate: 0.9963072378138847
Weighted MatthewsCorrelation: 0.9926301127316234
Weighted FMeasure: 0.9963066964722335
Iteration time: 27.0
Weighted AreaUnderPRC: 0.9998444821598124
Mean absolute error: 0.010076838834978768
Coverage of cases: 99.9015263417036
Instances selection time: 25.0
Test time: 45.0
Accumulative iteration time: 1357.0
Weighted Recall: 0.9963072378138847
Weighted FalsePositiveRate: 0.003968116261280088
Kappa statistic: 0.9926029558554408
Training time: 2.0
		
Iteration: 23
Labeled set size: 1252
Unlabelled set size: 2810
	
Mean region size: 51.66174298375184
Incorrectly Classified Instances: 0.36927621861152143
Correctly Classified Instances: 99.63072378138848
Weighted Precision: 0.9963333781785813
Weighted AreaUnderROC: 0.9998562978440793
Root mean squared error: 0.05948507349128159
Relative absolute error: 1.942698851256067
Root relative squared error: 11.897014698256319
Weighted TruePositiveRate: 0.9963072378138847
Weighted MatthewsCorrelation: 0.9926301127316234
Weighted FMeasure: 0.9963066964722335
Iteration time: 27.0
Weighted AreaUnderPRC: 0.9998583981005189
Mean absolute error: 0.009713494256280335
Coverage of cases: 99.9015263417036
Instances selection time: 25.0
Test time: 45.0
Accumulative iteration time: 1384.0
Weighted Recall: 0.9963072378138847
Weighted FalsePositiveRate: 0.003968116261280088
Kappa statistic: 0.9926029558554408
Training time: 2.0
		
Iteration: 24
Labeled set size: 1272
Unlabelled set size: 2790
	
Mean region size: 51.73559822747415
Incorrectly Classified Instances: 0.36927621861152143
Correctly Classified Instances: 99.63072378138848
Weighted Precision: 0.9963333781785813
Weighted AreaUnderROC: 0.9998565405842075
Root mean squared error: 0.059771542919932426
Relative absolute error: 1.9701420423829183
Root relative squared error: 11.954308583986485
Weighted TruePositiveRate: 0.9963072378138847
Weighted MatthewsCorrelation: 0.9926301127316234
Weighted FMeasure: 0.9963066964722335
Iteration time: 26.0
Weighted AreaUnderPRC: 0.9998585372293823
Mean absolute error: 0.009850710211914592
Coverage of cases: 99.9261447562777
Instances selection time: 23.0
Test time: 42.0
Accumulative iteration time: 1410.0
Weighted Recall: 0.9963072378138847
Weighted FalsePositiveRate: 0.003968116261280088
Kappa statistic: 0.9926029558554408
Training time: 3.0
		
Iteration: 25
Labeled set size: 1292
Unlabelled set size: 2770
	
Mean region size: 51.66174298375184
Incorrectly Classified Instances: 0.36927621861152143
Correctly Classified Instances: 99.63072378138848
Weighted Precision: 0.9963333781785813
Weighted AreaUnderROC: 0.9998655219689525
Root mean squared error: 0.0583920396734567
Relative absolute error: 1.900188177104924
Root relative squared error: 11.67840793469134
Weighted TruePositiveRate: 0.9963072378138847
Weighted MatthewsCorrelation: 0.9926301127316234
Weighted FMeasure: 0.9963066964722335
Iteration time: 59.0
Weighted AreaUnderPRC: 0.9998673990651504
Mean absolute error: 0.00950094088552462
Coverage of cases: 99.9261447562777
Instances selection time: 52.0
Test time: 68.0
Accumulative iteration time: 1469.0
Weighted Recall: 0.9963072378138847
Weighted FalsePositiveRate: 0.003968116261280088
Kappa statistic: 0.9926029558554408
Training time: 7.0
		
Iteration: 26
Labeled set size: 1312
Unlabelled set size: 2750
	
Mean region size: 51.71097981290005
Incorrectly Classified Instances: 0.36927621861152143
Correctly Classified Instances: 99.63072378138848
Weighted Precision: 0.9963333781785813
Weighted AreaUnderROC: 0.9998660074492091
Root mean squared error: 0.058568606548796545
Relative absolute error: 1.9169237560446122
Root relative squared error: 11.71372130975931
Weighted TruePositiveRate: 0.9963072378138847
Weighted MatthewsCorrelation: 0.9926301127316234
Weighted FMeasure: 0.9963066964722335
Iteration time: 28.0
Weighted AreaUnderPRC: 0.9998677886783796
Mean absolute error: 0.009584618780223061
Coverage of cases: 99.9261447562777
Instances selection time: 26.0
Test time: 80.0
Accumulative iteration time: 1497.0
Weighted Recall: 0.9963072378138847
Weighted FalsePositiveRate: 0.003968116261280088
Kappa statistic: 0.9926029558554408
Training time: 2.0
		
Iteration: 27
Labeled set size: 1332
Unlabelled set size: 2730
	
Mean region size: 51.66174298375184
Incorrectly Classified Instances: 0.36927621861152143
Correctly Classified Instances: 99.63072378138848
Weighted Precision: 0.9963333781785813
Weighted AreaUnderROC: 0.9998723186925434
Root mean squared error: 0.05708323342486256
Relative absolute error: 1.8588503689338498
Root relative squared error: 11.416646684972513
Weighted TruePositiveRate: 0.9963072378138847
Weighted MatthewsCorrelation: 0.9926301127316234
Weighted FMeasure: 0.9963066964722335
Iteration time: 46.0
Weighted AreaUnderPRC: 0.9998740222407917
Mean absolute error: 0.00929425184466925
Coverage of cases: 99.9261447562777
Instances selection time: 43.0
Test time: 80.0
Accumulative iteration time: 1543.0
Weighted Recall: 0.9963072378138847
Weighted FalsePositiveRate: 0.003968116261280088
Kappa statistic: 0.9926029558554408
Training time: 3.0
		
Iteration: 28
Labeled set size: 1352
Unlabelled set size: 2710
	
Mean region size: 51.71097981290005
Incorrectly Classified Instances: 0.34465780403741997
Correctly Classified Instances: 99.65534219596258
Weighted Precision: 0.9965762038730183
Weighted AreaUnderROC: 0.9998708622517738
Root mean squared error: 0.05757442433701066
Relative absolute error: 1.8969652852475896
Root relative squared error: 11.514884867402133
Weighted TruePositiveRate: 0.9965534219596258
Weighted MatthewsCorrelation: 0.9931198819477166
Weighted FMeasure: 0.9965529533290282
Iteration time: 28.0
Weighted AreaUnderPRC: 0.9998725477961091
Mean absolute error: 0.009484826426237948
Coverage of cases: 99.9261447562777
Instances selection time: 25.0
Test time: 60.0
Accumulative iteration time: 1571.0
Weighted Recall: 0.9965534219596258
Weighted FalsePositiveRate: 0.003703575177194748
Kappa statistic: 0.9930962144995521
Training time: 3.0
		
Iteration: 29
Labeled set size: 1372
Unlabelled set size: 2690
	
Mean region size: 51.68636139832595
Incorrectly Classified Instances: 0.34465780403741997
Correctly Classified Instances: 99.65534219596258
Weighted Precision: 0.9965762038730183
Weighted AreaUnderROC: 0.9998749888339541
Root mean squared error: 0.057715191717243236
Relative absolute error: 1.8758057266147266
Root relative squared error: 11.543038343448647
Weighted TruePositiveRate: 0.9965534219596258
Weighted MatthewsCorrelation: 0.9931198819477166
Weighted FMeasure: 0.9965529533290282
Iteration time: 25.0
Weighted AreaUnderPRC: 0.9998766232844508
Mean absolute error: 0.009379028633073633
Coverage of cases: 99.9261447562777
Instances selection time: 23.0
Test time: 47.0
Accumulative iteration time: 1596.0
Weighted Recall: 0.9965534219596258
Weighted FalsePositiveRate: 0.003703575177194748
Kappa statistic: 0.9930962144995521
Training time: 2.0
		
Iteration: 30
Labeled set size: 1392
Unlabelled set size: 2670
	
Mean region size: 51.674052191038896
Incorrectly Classified Instances: 0.32003938946331856
Correctly Classified Instances: 99.67996061053668
Weighted Precision: 0.9968192589729296
Weighted AreaUnderROC: 0.9998713477320305
Root mean squared error: 0.05770996603037816
Relative absolute error: 1.879498169728056
Root relative squared error: 11.541993206075633
Weighted TruePositiveRate: 0.9967996061053668
Weighted MatthewsCorrelation: 0.9936098721062485
Weighted FMeasure: 0.996799204564265
Iteration time: 27.0
Weighted AreaUnderPRC: 0.9998729989199657
Mean absolute error: 0.00939749084864028
Coverage of cases: 99.9261447562777
Instances selection time: 25.0
Test time: 46.0
Accumulative iteration time: 1623.0
Weighted Recall: 0.9967996061053668
Weighted FalsePositiveRate: 0.0034390340931094087
Kappa statistic: 0.9935894556585199
Training time: 2.0
		
Iteration: 31
Labeled set size: 1412
Unlabelled set size: 2650
	
Mean region size: 51.7232890201871
Incorrectly Classified Instances: 0.32003938946331856
Correctly Classified Instances: 99.67996061053668
Weighted Precision: 0.9968192589729296
Weighted AreaUnderROC: 0.9998888250212641
Root mean squared error: 0.05562178350662303
Relative absolute error: 1.8203939402938727
Root relative squared error: 11.124356701324606
Weighted TruePositiveRate: 0.9967996061053668
Weighted MatthewsCorrelation: 0.9936098721062485
Weighted FMeasure: 0.996799204564265
Iteration time: 25.0
Weighted AreaUnderPRC: 0.9998901960243675
Mean absolute error: 0.009101969701469363
Coverage of cases: 99.9261447562777
Instances selection time: 22.0
Test time: 48.0
Accumulative iteration time: 1648.0
Weighted Recall: 0.9967996061053668
Weighted FalsePositiveRate: 0.0034390340931094087
Kappa statistic: 0.9935894556585199
Training time: 3.0
		
Iteration: 32
Labeled set size: 1432
Unlabelled set size: 2630
	
Mean region size: 51.7479074347612
Incorrectly Classified Instances: 0.29542097488921715
Correctly Classified Instances: 99.70457902511079
Weighted Precision: 0.997062543803559
Weighted AreaUnderROC: 0.9998895532416487
Root mean squared error: 0.05596900250397924
Relative absolute error: 1.8498761585720804
Root relative squared error: 11.193800500795847
Weighted TruePositiveRate: 0.9970457902511078
Weighted MatthewsCorrelation: 0.994100083535708
Weighted FMeasure: 0.9970454502679525
Iteration time: 25.0
Weighted AreaUnderPRC: 0.9998909122139089
Mean absolute error: 0.009249380792860402
Coverage of cases: 99.9261447562777
Instances selection time: 22.0
Test time: 41.0
Accumulative iteration time: 1673.0
Weighted Recall: 0.9970457902511078
Weighted FalsePositiveRate: 0.0031744930090240697
Kappa statistic: 0.9940826793332744
Training time: 3.0
		
Iteration: 33
Labeled set size: 1452
Unlabelled set size: 2610
	
Mean region size: 51.71097981290005
Incorrectly Classified Instances: 0.32003938946331856
Correctly Classified Instances: 99.67996061053668
Weighted Precision: 0.9968192589729296
Weighted AreaUnderROC: 0.9998844556989558
Root mean squared error: 0.05689745422565163
Relative absolute error: 1.8665907433251754
Root relative squared error: 11.379490845130325
Weighted TruePositiveRate: 0.9967996061053668
Weighted MatthewsCorrelation: 0.9936098721062485
Weighted FMeasure: 0.996799204564265
Iteration time: 37.0
Weighted AreaUnderPRC: 0.9998858238652636
Mean absolute error: 0.009332953716625876
Coverage of cases: 99.9261447562777
Instances selection time: 34.0
Test time: 57.0
Accumulative iteration time: 1710.0
Weighted Recall: 0.9967996061053668
Weighted FalsePositiveRate: 0.0034390340931094087
Kappa statistic: 0.9935894556585199
Training time: 3.0
		
Iteration: 34
Labeled set size: 1472
Unlabelled set size: 2590
	
Mean region size: 51.698670605612996
Incorrectly Classified Instances: 0.34465780403741997
Correctly Classified Instances: 99.65534219596258
Weighted Precision: 0.9965700535480516
Weighted AreaUnderROC: 0.9998827565180579
Root mean squared error: 0.05751932827758036
Relative absolute error: 1.8924394943452871
Root relative squared error: 11.503865655516073
Weighted TruePositiveRate: 0.9965534219596258
Weighted MatthewsCorrelation: 0.9931138461580409
Weighted FMeasure: 0.9965530253126115
Iteration time: 25.0
Weighted AreaUnderPRC: 0.9998841544177828
Mean absolute error: 0.009462197471726436
Coverage of cases: 99.9261447562777
Instances selection time: 22.0
Test time: 41.0
Accumulative iteration time: 1735.0
Weighted Recall: 0.9965534219596258
Weighted FalsePositiveRate: 0.003668135118471056
Kappa statistic: 0.9930964592221535
Training time: 3.0
		
Iteration: 35
Labeled set size: 1492
Unlabelled set size: 2570
	
Mean region size: 51.68636139832595
Incorrectly Classified Instances: 0.32003938946331856
Correctly Classified Instances: 99.67996061053668
Weighted Precision: 0.9968135799187601
Weighted AreaUnderROC: 0.9998861548798533
Root mean squared error: 0.0570739099704428
Relative absolute error: 1.8855901908467028
Root relative squared error: 11.41478199408856
Weighted TruePositiveRate: 0.9967996061053668
Weighted MatthewsCorrelation: 0.9936042994252995
Weighted FMeasure: 0.9967992706264692
Iteration time: 24.0
Weighted AreaUnderPRC: 0.9998875184404569
Mean absolute error: 0.009427950954233514
Coverage of cases: 99.9261447562777
Instances selection time: 21.0
Test time: 41.0
Accumulative iteration time: 1759.0
Weighted Recall: 0.9967996061053668
Weighted FalsePositiveRate: 0.003403594034385717
Kappa statistic: 0.9935896828928804
Training time: 3.0
		
Iteration: 36
Labeled set size: 1512
Unlabelled set size: 2550
	
Mean region size: 51.71097981290005
Incorrectly Classified Instances: 0.34465780403741997
Correctly Classified Instances: 99.65534219596258
Weighted Precision: 0.9965700535480516
Weighted AreaUnderROC: 0.9998803291167755
Root mean squared error: 0.05847613681970342
Relative absolute error: 1.9329084712018743
Root relative squared error: 11.695227363940685
Weighted TruePositiveRate: 0.9965534219596258
Weighted MatthewsCorrelation: 0.9931138461580409
Weighted FMeasure: 0.9965530253126115
Iteration time: 48.0
Weighted AreaUnderPRC: 0.9998817415695606
Mean absolute error: 0.009664542356009371
Coverage of cases: 99.9261447562777
Instances selection time: 41.0
Test time: 57.0
Accumulative iteration time: 1807.0
Weighted Recall: 0.9965534219596258
Weighted FalsePositiveRate: 0.003668135118471056
Kappa statistic: 0.9930964592221535
Training time: 7.0
		
Iteration: 37
Labeled set size: 1532
Unlabelled set size: 2530
	
Mean region size: 51.71097981290005
Incorrectly Classified Instances: 0.32003938946331856
Correctly Classified Instances: 99.67996061053668
Weighted Precision: 0.9968135799187601
Weighted AreaUnderROC: 0.9998944080442137
Root mean squared error: 0.05678244564615686
Relative absolute error: 1.889470475851902
Root relative squared error: 11.356489129231372
Weighted TruePositiveRate: 0.9967996061053668
Weighted MatthewsCorrelation: 0.9936042994252995
Weighted FMeasure: 0.9967992706264692
Iteration time: 24.0
Weighted AreaUnderPRC: 0.9998956400563968
Mean absolute error: 0.00944735237925951
Coverage of cases: 99.9261447562777
Instances selection time: 22.0
Test time: 42.0
Accumulative iteration time: 1831.0
Weighted Recall: 0.9967996061053668
Weighted FalsePositiveRate: 0.003403594034385717
Kappa statistic: 0.9935896828928804
Training time: 2.0
		
Iteration: 38
Labeled set size: 1552
Unlabelled set size: 2510
	
Mean region size: 51.76021664204825
Incorrectly Classified Instances: 0.32003938946331856
Correctly Classified Instances: 99.67996061053668
Weighted Precision: 0.9968135799187601
Weighted AreaUnderROC: 0.9998888250212641
Root mean squared error: 0.058022869810026564
Relative absolute error: 1.9353180625126916
Root relative squared error: 11.604573962005313
Weighted TruePositiveRate: 0.9967996061053668
Weighted MatthewsCorrelation: 0.9936042994252995
Weighted FMeasure: 0.9967992706264692
Iteration time: 24.0
Weighted AreaUnderPRC: 0.999890093791261
Mean absolute error: 0.009676590312563458
Coverage of cases: 99.9261447562777
Instances selection time: 21.0
Test time: 41.0
Accumulative iteration time: 1855.0
Weighted Recall: 0.9967996061053668
Weighted FalsePositiveRate: 0.003403594034385717
Kappa statistic: 0.9935896828928804
Training time: 3.0
		
Iteration: 39
Labeled set size: 1572
Unlabelled set size: 2490
	
Mean region size: 51.7479074347612
Incorrectly Classified Instances: 0.32003938946331856
Correctly Classified Instances: 99.67996061053668
Weighted Precision: 0.9968135799187601
Weighted AreaUnderROC: 0.9998859121397251
Root mean squared error: 0.05861609792645803
Relative absolute error: 1.954978279996673
Root relative squared error: 11.723219585291606
Weighted TruePositiveRate: 0.9967996061053668
Weighted MatthewsCorrelation: 0.9936042994252995
Weighted FMeasure: 0.9967992706264692
Iteration time: 39.0
Weighted AreaUnderPRC: 0.9998872043982702
Mean absolute error: 0.009774891399983365
Coverage of cases: 99.9261447562777
Instances selection time: 36.0
Test time: 81.0
Accumulative iteration time: 1894.0
Weighted Recall: 0.9967996061053668
Weighted FalsePositiveRate: 0.003403594034385717
Kappa statistic: 0.9935896828928804
Training time: 3.0
		
Iteration: 40
Labeled set size: 1592
Unlabelled set size: 2470
	
Mean region size: 51.76021664204825
Incorrectly Classified Instances: 0.29542097488921715
Correctly Classified Instances: 99.70457902511079
Weighted Precision: 0.9970573364324054
Weighted AreaUnderROC: 0.9998900387219053
Root mean squared error: 0.05832857297932115
Relative absolute error: 1.950822766839154
Root relative squared error: 11.66571459586423
Weighted TruePositiveRate: 0.9970457902511078
Weighted MatthewsCorrelation: 0.9940949743810684
Weighted FMeasure: 0.9970455105287945
Iteration time: 25.0
Weighted AreaUnderPRC: 0.9998912779506697
Mean absolute error: 0.00975411383419577
Coverage of cases: 99.9261447562777
Instances selection time: 21.0
Test time: 42.0
Accumulative iteration time: 1919.0
Weighted Recall: 0.9970457902511078
Weighted FalsePositiveRate: 0.0031390529503003777
Kappa statistic: 0.9940828890806337
Training time: 4.0
		
Iteration: 41
Labeled set size: 1612
Unlabelled set size: 2450
	
Mean region size: 51.7232890201871
Incorrectly Classified Instances: 0.32003938946331856
Correctly Classified Instances: 99.67996061053668
Weighted Precision: 0.9968088668908207
Weighted AreaUnderROC: 0.9998902814620335
Root mean squared error: 0.05858473673145039
Relative absolute error: 1.9544167636762013
Root relative squared error: 11.716947346290079
Weighted TruePositiveRate: 0.9967996061053668
Weighted MatthewsCorrelation: 0.9935996939692315
Weighted FMeasure: 0.996799335129491
Iteration time: 26.0
Weighted AreaUnderPRC: 0.999891506440181
Mean absolute error: 0.009772083818381006
Coverage of cases: 99.9261447562777
Instances selection time: 20.0
Test time: 48.0
Accumulative iteration time: 1945.0
Weighted Recall: 0.9967996061053668
Weighted FalsePositiveRate: 0.003368153975662025
Kappa statistic: 0.993589910111132
Training time: 6.0
		
Iteration: 42
Labeled set size: 1632
Unlabelled set size: 2430
	
Mean region size: 51.73559822747415
Incorrectly Classified Instances: 0.29542097488921715
Correctly Classified Instances: 99.70457902511079
Weighted Precision: 0.9970573364324054
Weighted AreaUnderROC: 0.999902661208574
Root mean squared error: 0.05669595199542373
Relative absolute error: 1.8962406119040043
Root relative squared error: 11.339190399084746
Weighted TruePositiveRate: 0.9970457902511078
Weighted MatthewsCorrelation: 0.9940949743810684
Weighted FMeasure: 0.9970455105287945
Iteration time: 24.0
Weighted AreaUnderPRC: 0.9999037365811126
Mean absolute error: 0.009481203059520021
Coverage of cases: 99.9261447562777
Instances selection time: 21.0
Test time: 41.0
Accumulative iteration time: 1969.0
Weighted Recall: 0.9970457902511078
Weighted FalsePositiveRate: 0.0031390529503003777
Kappa statistic: 0.9940828890806337
Training time: 3.0
		
Iteration: 43
Labeled set size: 1652
Unlabelled set size: 2410
	
Mean region size: 51.698670605612996
Incorrectly Classified Instances: 0.32003938946331856
Correctly Classified Instances: 99.67996061053668
Weighted Precision: 0.9968088668908207
Weighted AreaUnderROC: 0.9998968354454961
Root mean squared error: 0.05802410868423415
Relative absolute error: 1.9445616138388113
Root relative squared error: 11.60482173684683
Weighted TruePositiveRate: 0.9967996061053668
Weighted MatthewsCorrelation: 0.9935996939692315
Weighted FMeasure: 0.996799335129491
Iteration time: 32.0
Weighted AreaUnderPRC: 0.999897983998251
Mean absolute error: 0.009722808069194056
Coverage of cases: 99.9261447562777
Instances selection time: 30.0
Test time: 65.0
Accumulative iteration time: 2001.0
Weighted Recall: 0.9967996061053668
Weighted FalsePositiveRate: 0.003368153975662025
Kappa statistic: 0.993589910111132
Training time: 2.0
		
Iteration: 44
Labeled set size: 1672
Unlabelled set size: 2390
	
Mean region size: 51.68636139832595
Incorrectly Classified Instances: 0.36927621861152143
Correctly Classified Instances: 99.63072378138848
Weighted Precision: 0.9963126843893212
Weighted AreaUnderROC: 0.9998902814620335
Root mean squared error: 0.0595622669344394
Relative absolute error: 1.9846661217346948
Root relative squared error: 11.912453386887881
Weighted TruePositiveRate: 0.9963072378138847
Weighted MatthewsCorrelation: 0.9926099168959495
Weighted FMeasure: 0.9963069977772324
Iteration time: 24.0
Weighted AreaUnderPRC: 0.9998914550885329
Mean absolute error: 0.009923330608673474
Coverage of cases: 99.9261447562777
Instances selection time: 21.0
Test time: 48.0
Accumulative iteration time: 2025.0
Weighted Recall: 0.9963072378138847
Weighted FalsePositiveRate: 0.0038263560263853197
Kappa statistic: 0.9926040045922419
Training time: 3.0
		
Iteration: 45
Labeled set size: 1692
Unlabelled set size: 2370
	
Mean region size: 51.7479074347612
Incorrectly Classified Instances: 0.39389463318562284
Correctly Classified Instances: 99.60610536681438
Weighted Precision: 0.9960649706470689
Weighted AreaUnderROC: 0.9998927088633159
Root mean squared error: 0.05947519569730071
Relative absolute error: 1.9888541067691057
Root relative squared error: 11.895039139460142
Weighted TruePositiveRate: 0.9960610536681438
Weighted MatthewsCorrelation: 0.9921154194530635
Weighted FMeasure: 0.9960608356444901
Iteration time: 23.0
Weighted AreaUnderPRC: 0.9998938464550498
Mean absolute error: 0.009944270533845528
Coverage of cases: 99.9261447562777
Instances selection time: 20.0
Test time: 41.0
Accumulative iteration time: 2048.0
Weighted Recall: 0.9960610536681438
Weighted FalsePositiveRate: 0.004055457051746966
Kappa statistic: 0.9921110780409954
Training time: 3.0
		
Iteration: 46
Labeled set size: 1712
Unlabelled set size: 2350
	
Mean region size: 51.73559822747415
Incorrectly Classified Instances: 0.41851304775972425
Correctly Classified Instances: 99.58148695224027
Weighted Precision: 0.9958175080569145
Weighted AreaUnderROC: 0.9998861548798533
Root mean squared error: 0.06062383718197484
Relative absolute error: 2.029219964932655
Root relative squared error: 12.124767436394968
Weighted TruePositiveRate: 0.9958148695224027
Weighted MatthewsCorrelation: 0.9916211822194148
Weighted FMeasure: 0.9958146777541642
Iteration time: 50.0
Weighted AreaUnderPRC: 0.9998873739878145
Mean absolute error: 0.010146099824663276
Coverage of cases: 99.9261447562777
Instances selection time: 47.0
Test time: 45.0
Accumulative iteration time: 2098.0
Weighted Recall: 0.9958148695224027
Weighted FalsePositiveRate: 0.004284558077108614
Kappa statistic: 0.9916181689606427
Training time: 3.0
		
Time end:Wed Nov 01 05.14.52 EET 2017