Wed Nov 01 06.04.30 EET 2017
Dataset: mushroom
Test set size: 4062
Initial Labelled set size: 812
Initial Unlabelled set size: 3250
Batch mode: QBestBatchMode
Batch size: 20
Classifiers: J48-1cores
Scenario: PoolBasedSamplingScenario
Query strategy: KullbackLeiblerDivergenceQueryStrategy-1cores
Time begining: Wed Nov 01 06.04.30 EET 2017
		
Iteration: 1
Labeled set size: 812
Unlabelled set size: 3250
	
Mean region size: 50.0
Incorrectly Classified Instances: 0.07385524372230429
Correctly Classified Instances: 99.9261447562777
Weighted Precision: 0.9992624991324549
Weighted AreaUnderROC: 0.9992339121552605
Root mean squared error: 0.0271763212599322
Relative absolute error: 0.14771048744460857
Root relative squared error: 5.43526425198644
Weighted TruePositiveRate: 0.9992614475627769
Weighted MatthewsCorrelation: 0.9985219980135681
Weighted FMeasure: 0.999261427527573
Iteration time: 5.0
Weighted AreaUnderPRC: 0.9988799500610819
Mean absolute error: 7.385524372230429E-4
Coverage of cases: 99.9261447562777
Instances selection time: 2.0
Test time: 7.0
Accumulative iteration time: 5.0
Weighted Recall: 0.9992614475627769
Weighted FalsePositiveRate: 7.936232522560174E-4
Kappa statistic: 0.9985209057698268
Training time: 3.0
		
Iteration: 2
Labeled set size: 832
Unlabelled set size: 3230
	
Mean region size: 50.0
Incorrectly Classified Instances: 0.07385524372230429
Correctly Classified Instances: 99.9261447562777
Weighted Precision: 0.9992624991324549
Weighted AreaUnderROC: 0.9992339121552605
Root mean squared error: 0.0271763212599322
Relative absolute error: 0.14771048744460857
Root relative squared error: 5.43526425198644
Weighted TruePositiveRate: 0.9992614475627769
Weighted MatthewsCorrelation: 0.9985219980135681
Weighted FMeasure: 0.999261427527573
Iteration time: 6.0
Weighted AreaUnderPRC: 0.9988799500610819
Mean absolute error: 7.385524372230429E-4
Coverage of cases: 99.9261447562777
Instances selection time: 3.0
Test time: 6.0
Accumulative iteration time: 11.0
Weighted Recall: 0.9992614475627769
Weighted FalsePositiveRate: 7.936232522560174E-4
Kappa statistic: 0.9985209057698268
Training time: 3.0
		
Iteration: 3
Labeled set size: 852
Unlabelled set size: 3210
	
Mean region size: 50.0
Incorrectly Classified Instances: 0.07385524372230429
Correctly Classified Instances: 99.9261447562777
Weighted Precision: 0.9992624991324549
Weighted AreaUnderROC: 0.9992339121552605
Root mean squared error: 0.0271763212599322
Relative absolute error: 0.14771048744460857
Root relative squared error: 5.43526425198644
Weighted TruePositiveRate: 0.9992614475627769
Weighted MatthewsCorrelation: 0.9985219980135681
Weighted FMeasure: 0.999261427527573
Iteration time: 5.0
Weighted AreaUnderPRC: 0.9988799500610819
Mean absolute error: 7.385524372230429E-4
Coverage of cases: 99.9261447562777
Instances selection time: 2.0
Test time: 6.0
Accumulative iteration time: 16.0
Weighted Recall: 0.9992614475627769
Weighted FalsePositiveRate: 7.936232522560174E-4
Kappa statistic: 0.9985209057698268
Training time: 3.0
		
Iteration: 4
Labeled set size: 872
Unlabelled set size: 3190
	
Mean region size: 50.0
Incorrectly Classified Instances: 0.07385524372230429
Correctly Classified Instances: 99.9261447562777
Weighted Precision: 0.9992624991324549
Weighted AreaUnderROC: 0.9992339121552605
Root mean squared error: 0.0271763212599322
Relative absolute error: 0.14771048744460857
Root relative squared error: 5.43526425198644
Weighted TruePositiveRate: 0.9992614475627769
Weighted MatthewsCorrelation: 0.9985219980135681
Weighted FMeasure: 0.999261427527573
Iteration time: 5.0
Weighted AreaUnderPRC: 0.9988799500610819
Mean absolute error: 7.385524372230429E-4
Coverage of cases: 99.9261447562777
Instances selection time: 3.0
Test time: 7.0
Accumulative iteration time: 21.0
Weighted Recall: 0.9992614475627769
Weighted FalsePositiveRate: 7.936232522560174E-4
Kappa statistic: 0.9985209057698268
Training time: 2.0
		
Iteration: 5
Labeled set size: 892
Unlabelled set size: 3170
	
Mean region size: 50.0
Incorrectly Classified Instances: 0.07385524372230429
Correctly Classified Instances: 99.9261447562777
Weighted Precision: 0.9992624991324549
Weighted AreaUnderROC: 0.9992339121552605
Root mean squared error: 0.0271763212599322
Relative absolute error: 0.14771048744460857
Root relative squared error: 5.43526425198644
Weighted TruePositiveRate: 0.9992614475627769
Weighted MatthewsCorrelation: 0.9985219980135681
Weighted FMeasure: 0.999261427527573
Iteration time: 5.0
Weighted AreaUnderPRC: 0.9988799500610819
Mean absolute error: 7.385524372230429E-4
Coverage of cases: 99.9261447562777
Instances selection time: 3.0
Test time: 7.0
Accumulative iteration time: 26.0
Weighted Recall: 0.9992614475627769
Weighted FalsePositiveRate: 7.936232522560174E-4
Kappa statistic: 0.9985209057698268
Training time: 2.0
		
Iteration: 6
Labeled set size: 912
Unlabelled set size: 3150
	
Mean region size: 50.0
Incorrectly Classified Instances: 0.07385524372230429
Correctly Classified Instances: 99.9261447562777
Weighted Precision: 0.9992624991324549
Weighted AreaUnderROC: 0.9992339121552605
Root mean squared error: 0.0271763212599322
Relative absolute error: 0.14771048744460857
Root relative squared error: 5.43526425198644
Weighted TruePositiveRate: 0.9992614475627769
Weighted MatthewsCorrelation: 0.9985219980135681
Weighted FMeasure: 0.999261427527573
Iteration time: 5.0
Weighted AreaUnderPRC: 0.9988799500610819
Mean absolute error: 7.385524372230429E-4
Coverage of cases: 99.9261447562777
Instances selection time: 3.0
Test time: 6.0
Accumulative iteration time: 31.0
Weighted Recall: 0.9992614475627769
Weighted FalsePositiveRate: 7.936232522560174E-4
Kappa statistic: 0.9985209057698268
Training time: 2.0
		
Iteration: 7
Labeled set size: 932
Unlabelled set size: 3130
	
Mean region size: 50.0
Incorrectly Classified Instances: 0.07385524372230429
Correctly Classified Instances: 99.9261447562777
Weighted Precision: 0.9992624991324549
Weighted AreaUnderROC: 0.9992339121552605
Root mean squared error: 0.0271763212599322
Relative absolute error: 0.14771048744460857
Root relative squared error: 5.43526425198644
Weighted TruePositiveRate: 0.9992614475627769
Weighted MatthewsCorrelation: 0.9985219980135681
Weighted FMeasure: 0.999261427527573
Iteration time: 5.0
Weighted AreaUnderPRC: 0.9988799500610819
Mean absolute error: 7.385524372230429E-4
Coverage of cases: 99.9261447562777
Instances selection time: 3.0
Test time: 6.0
Accumulative iteration time: 36.0
Weighted Recall: 0.9992614475627769
Weighted FalsePositiveRate: 7.936232522560174E-4
Kappa statistic: 0.9985209057698268
Training time: 2.0
		
Iteration: 8
Labeled set size: 952
Unlabelled set size: 3110
	
Mean region size: 50.0
Incorrectly Classified Instances: 0.07385524372230429
Correctly Classified Instances: 99.9261447562777
Weighted Precision: 0.9992624991324549
Weighted AreaUnderROC: 0.9992339121552605
Root mean squared error: 0.0271763212599322
Relative absolute error: 0.14771048744460857
Root relative squared error: 5.43526425198644
Weighted TruePositiveRate: 0.9992614475627769
Weighted MatthewsCorrelation: 0.9985219980135681
Weighted FMeasure: 0.999261427527573
Iteration time: 5.0
Weighted AreaUnderPRC: 0.9988799500610819
Mean absolute error: 7.385524372230429E-4
Coverage of cases: 99.9261447562777
Instances selection time: 2.0
Test time: 7.0
Accumulative iteration time: 41.0
Weighted Recall: 0.9992614475627769
Weighted FalsePositiveRate: 7.936232522560174E-4
Kappa statistic: 0.9985209057698268
Training time: 3.0
		
Iteration: 9
Labeled set size: 972
Unlabelled set size: 3090
	
Mean region size: 50.0
Incorrectly Classified Instances: 0.07385524372230429
Correctly Classified Instances: 99.9261447562777
Weighted Precision: 0.9992624991324549
Weighted AreaUnderROC: 0.9992339121552605
Root mean squared error: 0.0271763212599322
Relative absolute error: 0.14771048744460857
Root relative squared error: 5.43526425198644
Weighted TruePositiveRate: 0.9992614475627769
Weighted MatthewsCorrelation: 0.9985219980135681
Weighted FMeasure: 0.999261427527573
Iteration time: 5.0
Weighted AreaUnderPRC: 0.9988799500610819
Mean absolute error: 7.385524372230429E-4
Coverage of cases: 99.9261447562777
Instances selection time: 2.0
Test time: 7.0
Accumulative iteration time: 46.0
Weighted Recall: 0.9992614475627769
Weighted FalsePositiveRate: 7.936232522560174E-4
Kappa statistic: 0.9985209057698268
Training time: 3.0
		
Iteration: 10
Labeled set size: 992
Unlabelled set size: 3070
	
Mean region size: 50.0
Incorrectly Classified Instances: 0.07385524372230429
Correctly Classified Instances: 99.9261447562777
Weighted Precision: 0.9992624991324549
Weighted AreaUnderROC: 0.9992339121552605
Root mean squared error: 0.0271763212599322
Relative absolute error: 0.14771048744460857
Root relative squared error: 5.43526425198644
Weighted TruePositiveRate: 0.9992614475627769
Weighted MatthewsCorrelation: 0.9985219980135681
Weighted FMeasure: 0.999261427527573
Iteration time: 5.0
Weighted AreaUnderPRC: 0.9988799500610819
Mean absolute error: 7.385524372230429E-4
Coverage of cases: 99.9261447562777
Instances selection time: 2.0
Test time: 7.0
Accumulative iteration time: 51.0
Weighted Recall: 0.9992614475627769
Weighted FalsePositiveRate: 7.936232522560174E-4
Kappa statistic: 0.9985209057698268
Training time: 3.0
		
Iteration: 11
Labeled set size: 1012
Unlabelled set size: 3050
	
Mean region size: 50.0
Incorrectly Classified Instances: 0.07385524372230429
Correctly Classified Instances: 99.9261447562777
Weighted Precision: 0.9992624991324549
Weighted AreaUnderROC: 0.9992339121552605
Root mean squared error: 0.0271763212599322
Relative absolute error: 0.14771048744460857
Root relative squared error: 5.43526425198644
Weighted TruePositiveRate: 0.9992614475627769
Weighted MatthewsCorrelation: 0.9985219980135681
Weighted FMeasure: 0.999261427527573
Iteration time: 4.0
Weighted AreaUnderPRC: 0.9988799500610819
Mean absolute error: 7.385524372230429E-4
Coverage of cases: 99.9261447562777
Instances selection time: 2.0
Test time: 7.0
Accumulative iteration time: 55.0
Weighted Recall: 0.9992614475627769
Weighted FalsePositiveRate: 7.936232522560174E-4
Kappa statistic: 0.9985209057698268
Training time: 2.0
		
Iteration: 12
Labeled set size: 1032
Unlabelled set size: 3030
	
Mean region size: 50.0
Incorrectly Classified Instances: 0.07385524372230429
Correctly Classified Instances: 99.9261447562777
Weighted Precision: 0.9992624991324549
Weighted AreaUnderROC: 0.9992339121552605
Root mean squared error: 0.0271763212599322
Relative absolute error: 0.14771048744460857
Root relative squared error: 5.43526425198644
Weighted TruePositiveRate: 0.9992614475627769
Weighted MatthewsCorrelation: 0.9985219980135681
Weighted FMeasure: 0.999261427527573
Iteration time: 5.0
Weighted AreaUnderPRC: 0.9988799500610819
Mean absolute error: 7.385524372230429E-4
Coverage of cases: 99.9261447562777
Instances selection time: 3.0
Test time: 6.0
Accumulative iteration time: 60.0
Weighted Recall: 0.9992614475627769
Weighted FalsePositiveRate: 7.936232522560174E-4
Kappa statistic: 0.9985209057698268
Training time: 2.0
		
Iteration: 13
Labeled set size: 1052
Unlabelled set size: 3010
	
Mean region size: 50.0
Incorrectly Classified Instances: 0.07385524372230429
Correctly Classified Instances: 99.9261447562777
Weighted Precision: 0.9992624991324549
Weighted AreaUnderROC: 0.9992339121552605
Root mean squared error: 0.0271763212599322
Relative absolute error: 0.14771048744460857
Root relative squared error: 5.43526425198644
Weighted TruePositiveRate: 0.9992614475627769
Weighted MatthewsCorrelation: 0.9985219980135681
Weighted FMeasure: 0.999261427527573
Iteration time: 12.0
Weighted AreaUnderPRC: 0.9988799500610819
Mean absolute error: 7.385524372230429E-4
Coverage of cases: 99.9261447562777
Instances selection time: 6.0
Test time: 12.0
Accumulative iteration time: 72.0
Weighted Recall: 0.9992614475627769
Weighted FalsePositiveRate: 7.936232522560174E-4
Kappa statistic: 0.9985209057698268
Training time: 6.0
		
Iteration: 14
Labeled set size: 1072
Unlabelled set size: 2990
	
Mean region size: 50.0
Incorrectly Classified Instances: 0.07385524372230429
Correctly Classified Instances: 99.9261447562777
Weighted Precision: 0.9992624991324549
Weighted AreaUnderROC: 0.9992339121552605
Root mean squared error: 0.0271763212599322
Relative absolute error: 0.14771048744460857
Root relative squared error: 5.43526425198644
Weighted TruePositiveRate: 0.9992614475627769
Weighted MatthewsCorrelation: 0.9985219980135681
Weighted FMeasure: 0.999261427527573
Iteration time: 5.0
Weighted AreaUnderPRC: 0.9988799500610819
Mean absolute error: 7.385524372230429E-4
Coverage of cases: 99.9261447562777
Instances selection time: 2.0
Test time: 7.0
Accumulative iteration time: 77.0
Weighted Recall: 0.9992614475627769
Weighted FalsePositiveRate: 7.936232522560174E-4
Kappa statistic: 0.9985209057698268
Training time: 3.0
		
Iteration: 15
Labeled set size: 1092
Unlabelled set size: 2970
	
Mean region size: 50.0
Incorrectly Classified Instances: 0.07385524372230429
Correctly Classified Instances: 99.9261447562777
Weighted Precision: 0.9992624991324549
Weighted AreaUnderROC: 0.9992339121552605
Root mean squared error: 0.0271763212599322
Relative absolute error: 0.14771048744460857
Root relative squared error: 5.43526425198644
Weighted TruePositiveRate: 0.9992614475627769
Weighted MatthewsCorrelation: 0.9985219980135681
Weighted FMeasure: 0.999261427527573
Iteration time: 5.0
Weighted AreaUnderPRC: 0.9988799500610819
Mean absolute error: 7.385524372230429E-4
Coverage of cases: 99.9261447562777
Instances selection time: 3.0
Test time: 7.0
Accumulative iteration time: 82.0
Weighted Recall: 0.9992614475627769
Weighted FalsePositiveRate: 7.936232522560174E-4
Kappa statistic: 0.9985209057698268
Training time: 2.0
		
Iteration: 16
Labeled set size: 1112
Unlabelled set size: 2950
	
Mean region size: 50.0
Incorrectly Classified Instances: 0.07385524372230429
Correctly Classified Instances: 99.9261447562777
Weighted Precision: 0.9992624991324549
Weighted AreaUnderROC: 0.9992339121552605
Root mean squared error: 0.0271763212599322
Relative absolute error: 0.14771048744460857
Root relative squared error: 5.43526425198644
Weighted TruePositiveRate: 0.9992614475627769
Weighted MatthewsCorrelation: 0.9985219980135681
Weighted FMeasure: 0.999261427527573
Iteration time: 5.0
Weighted AreaUnderPRC: 0.9988799500610819
Mean absolute error: 7.385524372230429E-4
Coverage of cases: 99.9261447562777
Instances selection time: 2.0
Test time: 7.0
Accumulative iteration time: 87.0
Weighted Recall: 0.9992614475627769
Weighted FalsePositiveRate: 7.936232522560174E-4
Kappa statistic: 0.9985209057698268
Training time: 3.0
		
Iteration: 17
Labeled set size: 1132
Unlabelled set size: 2930
	
Mean region size: 50.0
Incorrectly Classified Instances: 0.07385524372230429
Correctly Classified Instances: 99.9261447562777
Weighted Precision: 0.9992624991324549
Weighted AreaUnderROC: 0.9992339121552605
Root mean squared error: 0.0271763212599322
Relative absolute error: 0.14771048744460857
Root relative squared error: 5.43526425198644
Weighted TruePositiveRate: 0.9992614475627769
Weighted MatthewsCorrelation: 0.9985219980135681
Weighted FMeasure: 0.999261427527573
Iteration time: 5.0
Weighted AreaUnderPRC: 0.9988799500610819
Mean absolute error: 7.385524372230429E-4
Coverage of cases: 99.9261447562777
Instances selection time: 3.0
Test time: 6.0
Accumulative iteration time: 92.0
Weighted Recall: 0.9992614475627769
Weighted FalsePositiveRate: 7.936232522560174E-4
Kappa statistic: 0.9985209057698268
Training time: 2.0
		
Iteration: 18
Labeled set size: 1152
Unlabelled set size: 2910
	
Mean region size: 50.0
Incorrectly Classified Instances: 0.07385524372230429
Correctly Classified Instances: 99.9261447562777
Weighted Precision: 0.9992624991324549
Weighted AreaUnderROC: 0.9992339121552605
Root mean squared error: 0.0271763212599322
Relative absolute error: 0.14771048744460857
Root relative squared error: 5.43526425198644
Weighted TruePositiveRate: 0.9992614475627769
Weighted MatthewsCorrelation: 0.9985219980135681
Weighted FMeasure: 0.999261427527573
Iteration time: 5.0
Weighted AreaUnderPRC: 0.9988799500610819
Mean absolute error: 7.385524372230429E-4
Coverage of cases: 99.9261447562777
Instances selection time: 3.0
Test time: 6.0
Accumulative iteration time: 97.0
Weighted Recall: 0.9992614475627769
Weighted FalsePositiveRate: 7.936232522560174E-4
Kappa statistic: 0.9985209057698268
Training time: 2.0
		
Iteration: 19
Labeled set size: 1172
Unlabelled set size: 2890
	
Mean region size: 50.0
Incorrectly Classified Instances: 0.07385524372230429
Correctly Classified Instances: 99.9261447562777
Weighted Precision: 0.9992624991324549
Weighted AreaUnderROC: 0.9992339121552605
Root mean squared error: 0.0271763212599322
Relative absolute error: 0.14771048744460857
Root relative squared error: 5.43526425198644
Weighted TruePositiveRate: 0.9992614475627769
Weighted MatthewsCorrelation: 0.9985219980135681
Weighted FMeasure: 0.999261427527573
Iteration time: 5.0
Weighted AreaUnderPRC: 0.9988799500610819
Mean absolute error: 7.385524372230429E-4
Coverage of cases: 99.9261447562777
Instances selection time: 2.0
Test time: 7.0
Accumulative iteration time: 102.0
Weighted Recall: 0.9992614475627769
Weighted FalsePositiveRate: 7.936232522560174E-4
Kappa statistic: 0.9985209057698268
Training time: 3.0
		
Iteration: 20
Labeled set size: 1192
Unlabelled set size: 2870
	
Mean region size: 50.0
Incorrectly Classified Instances: 0.07385524372230429
Correctly Classified Instances: 99.9261447562777
Weighted Precision: 0.9992624991324549
Weighted AreaUnderROC: 0.9992339121552605
Root mean squared error: 0.0271763212599322
Relative absolute error: 0.14771048744460857
Root relative squared error: 5.43526425198644
Weighted TruePositiveRate: 0.9992614475627769
Weighted MatthewsCorrelation: 0.9985219980135681
Weighted FMeasure: 0.999261427527573
Iteration time: 5.0
Weighted AreaUnderPRC: 0.9988799500610819
Mean absolute error: 7.385524372230429E-4
Coverage of cases: 99.9261447562777
Instances selection time: 3.0
Test time: 6.0
Accumulative iteration time: 107.0
Weighted Recall: 0.9992614475627769
Weighted FalsePositiveRate: 7.936232522560174E-4
Kappa statistic: 0.9985209057698268
Training time: 2.0
		
Iteration: 21
Labeled set size: 1212
Unlabelled set size: 2850
	
Mean region size: 50.0
Incorrectly Classified Instances: 0.07385524372230429
Correctly Classified Instances: 99.9261447562777
Weighted Precision: 0.9992624991324549
Weighted AreaUnderROC: 0.9992339121552605
Root mean squared error: 0.0271763212599322
Relative absolute error: 0.14771048744460857
Root relative squared error: 5.43526425198644
Weighted TruePositiveRate: 0.9992614475627769
Weighted MatthewsCorrelation: 0.9985219980135681
Weighted FMeasure: 0.999261427527573
Iteration time: 5.0
Weighted AreaUnderPRC: 0.9988799500610819
Mean absolute error: 7.385524372230429E-4
Coverage of cases: 99.9261447562777
Instances selection time: 2.0
Test time: 7.0
Accumulative iteration time: 112.0
Weighted Recall: 0.9992614475627769
Weighted FalsePositiveRate: 7.936232522560174E-4
Kappa statistic: 0.9985209057698268
Training time: 3.0
		
Iteration: 22
Labeled set size: 1232
Unlabelled set size: 2830
	
Mean region size: 50.0
Incorrectly Classified Instances: 0.07385524372230429
Correctly Classified Instances: 99.9261447562777
Weighted Precision: 0.9992624991324549
Weighted AreaUnderROC: 0.9992339121552605
Root mean squared error: 0.0271763212599322
Relative absolute error: 0.14771048744460857
Root relative squared error: 5.43526425198644
Weighted TruePositiveRate: 0.9992614475627769
Weighted MatthewsCorrelation: 0.9985219980135681
Weighted FMeasure: 0.999261427527573
Iteration time: 5.0
Weighted AreaUnderPRC: 0.9988799500610819
Mean absolute error: 7.385524372230429E-4
Coverage of cases: 99.9261447562777
Instances selection time: 2.0
Test time: 7.0
Accumulative iteration time: 117.0
Weighted Recall: 0.9992614475627769
Weighted FalsePositiveRate: 7.936232522560174E-4
Kappa statistic: 0.9985209057698268
Training time: 3.0
		
Iteration: 23
Labeled set size: 1252
Unlabelled set size: 2810
	
Mean region size: 50.0
Incorrectly Classified Instances: 0.07385524372230429
Correctly Classified Instances: 99.9261447562777
Weighted Precision: 0.9992624991324549
Weighted AreaUnderROC: 0.9992339121552605
Root mean squared error: 0.0271763212599322
Relative absolute error: 0.14771048744460857
Root relative squared error: 5.43526425198644
Weighted TruePositiveRate: 0.9992614475627769
Weighted MatthewsCorrelation: 0.9985219980135681
Weighted FMeasure: 0.999261427527573
Iteration time: 5.0
Weighted AreaUnderPRC: 0.9988799500610819
Mean absolute error: 7.385524372230429E-4
Coverage of cases: 99.9261447562777
Instances selection time: 2.0
Test time: 7.0
Accumulative iteration time: 122.0
Weighted Recall: 0.9992614475627769
Weighted FalsePositiveRate: 7.936232522560174E-4
Kappa statistic: 0.9985209057698268
Training time: 3.0
		
Iteration: 24
Labeled set size: 1272
Unlabelled set size: 2790
	
Mean region size: 50.0
Incorrectly Classified Instances: 0.07385524372230429
Correctly Classified Instances: 99.9261447562777
Weighted Precision: 0.9992624991324549
Weighted AreaUnderROC: 0.9992339121552605
Root mean squared error: 0.0271763212599322
Relative absolute error: 0.14771048744460857
Root relative squared error: 5.43526425198644
Weighted TruePositiveRate: 0.9992614475627769
Weighted MatthewsCorrelation: 0.9985219980135681
Weighted FMeasure: 0.999261427527573
Iteration time: 5.0
Weighted AreaUnderPRC: 0.9988799500610819
Mean absolute error: 7.385524372230429E-4
Coverage of cases: 99.9261447562777
Instances selection time: 3.0
Test time: 6.0
Accumulative iteration time: 127.0
Weighted Recall: 0.9992614475627769
Weighted FalsePositiveRate: 7.936232522560174E-4
Kappa statistic: 0.9985209057698268
Training time: 2.0
		
Iteration: 25
Labeled set size: 1292
Unlabelled set size: 2770
	
Mean region size: 50.0
Incorrectly Classified Instances: 0.07385524372230429
Correctly Classified Instances: 99.9261447562777
Weighted Precision: 0.9992624991324549
Weighted AreaUnderROC: 0.9992339121552605
Root mean squared error: 0.0271763212599322
Relative absolute error: 0.14771048744460857
Root relative squared error: 5.43526425198644
Weighted TruePositiveRate: 0.9992614475627769
Weighted MatthewsCorrelation: 0.9985219980135681
Weighted FMeasure: 0.999261427527573
Iteration time: 5.0
Weighted AreaUnderPRC: 0.9988799500610819
Mean absolute error: 7.385524372230429E-4
Coverage of cases: 99.9261447562777
Instances selection time: 3.0
Test time: 6.0
Accumulative iteration time: 132.0
Weighted Recall: 0.9992614475627769
Weighted FalsePositiveRate: 7.936232522560174E-4
Kappa statistic: 0.9985209057698268
Training time: 2.0
		
Iteration: 26
Labeled set size: 1312
Unlabelled set size: 2750
	
Mean region size: 50.0
Incorrectly Classified Instances: 0.07385524372230429
Correctly Classified Instances: 99.9261447562777
Weighted Precision: 0.9992624991324549
Weighted AreaUnderROC: 0.9992339121552605
Root mean squared error: 0.0271763212599322
Relative absolute error: 0.14771048744460857
Root relative squared error: 5.43526425198644
Weighted TruePositiveRate: 0.9992614475627769
Weighted MatthewsCorrelation: 0.9985219980135681
Weighted FMeasure: 0.999261427527573
Iteration time: 4.0
Weighted AreaUnderPRC: 0.9988799500610819
Mean absolute error: 7.385524372230429E-4
Coverage of cases: 99.9261447562777
Instances selection time: 2.0
Test time: 7.0
Accumulative iteration time: 136.0
Weighted Recall: 0.9992614475627769
Weighted FalsePositiveRate: 7.936232522560174E-4
Kappa statistic: 0.9985209057698268
Training time: 2.0
		
Iteration: 27
Labeled set size: 1332
Unlabelled set size: 2730
	
Mean region size: 50.0
Incorrectly Classified Instances: 0.07385524372230429
Correctly Classified Instances: 99.9261447562777
Weighted Precision: 0.9992624991324549
Weighted AreaUnderROC: 0.9992339121552605
Root mean squared error: 0.0271763212599322
Relative absolute error: 0.14771048744460857
Root relative squared error: 5.43526425198644
Weighted TruePositiveRate: 0.9992614475627769
Weighted MatthewsCorrelation: 0.9985219980135681
Weighted FMeasure: 0.999261427527573
Iteration time: 5.0
Weighted AreaUnderPRC: 0.9988799500610819
Mean absolute error: 7.385524372230429E-4
Coverage of cases: 99.9261447562777
Instances selection time: 2.0
Test time: 7.0
Accumulative iteration time: 141.0
Weighted Recall: 0.9992614475627769
Weighted FalsePositiveRate: 7.936232522560174E-4
Kappa statistic: 0.9985209057698268
Training time: 3.0
		
Iteration: 28
Labeled set size: 1352
Unlabelled set size: 2710
	
Mean region size: 50.0
Incorrectly Classified Instances: 0.07385524372230429
Correctly Classified Instances: 99.9261447562777
Weighted Precision: 0.9992624991324549
Weighted AreaUnderROC: 0.9992339121552605
Root mean squared error: 0.0271763212599322
Relative absolute error: 0.14771048744460857
Root relative squared error: 5.43526425198644
Weighted TruePositiveRate: 0.9992614475627769
Weighted MatthewsCorrelation: 0.9985219980135681
Weighted FMeasure: 0.999261427527573
Iteration time: 5.0
Weighted AreaUnderPRC: 0.9988799500610819
Mean absolute error: 7.385524372230429E-4
Coverage of cases: 99.9261447562777
Instances selection time: 2.0
Test time: 7.0
Accumulative iteration time: 146.0
Weighted Recall: 0.9992614475627769
Weighted FalsePositiveRate: 7.936232522560174E-4
Kappa statistic: 0.9985209057698268
Training time: 3.0
		
Iteration: 29
Labeled set size: 1372
Unlabelled set size: 2690
	
Mean region size: 50.0
Incorrectly Classified Instances: 0.07385524372230429
Correctly Classified Instances: 99.9261447562777
Weighted Precision: 0.9992624991324549
Weighted AreaUnderROC: 0.9992339121552605
Root mean squared error: 0.0271763212599322
Relative absolute error: 0.14771048744460857
Root relative squared error: 5.43526425198644
Weighted TruePositiveRate: 0.9992614475627769
Weighted MatthewsCorrelation: 0.9985219980135681
Weighted FMeasure: 0.999261427527573
Iteration time: 5.0
Weighted AreaUnderPRC: 0.9988799500610819
Mean absolute error: 7.385524372230429E-4
Coverage of cases: 99.9261447562777
Instances selection time: 2.0
Test time: 7.0
Accumulative iteration time: 151.0
Weighted Recall: 0.9992614475627769
Weighted FalsePositiveRate: 7.936232522560174E-4
Kappa statistic: 0.9985209057698268
Training time: 3.0
		
Iteration: 30
Labeled set size: 1392
Unlabelled set size: 2670
	
Mean region size: 50.0
Incorrectly Classified Instances: 0.07385524372230429
Correctly Classified Instances: 99.9261447562777
Weighted Precision: 0.9992624991324549
Weighted AreaUnderROC: 0.9992339121552605
Root mean squared error: 0.0271763212599322
Relative absolute error: 0.14771048744460857
Root relative squared error: 5.43526425198644
Weighted TruePositiveRate: 0.9992614475627769
Weighted MatthewsCorrelation: 0.9985219980135681
Weighted FMeasure: 0.999261427527573
Iteration time: 5.0
Weighted AreaUnderPRC: 0.9988799500610819
Mean absolute error: 7.385524372230429E-4
Coverage of cases: 99.9261447562777
Instances selection time: 2.0
Test time: 7.0
Accumulative iteration time: 156.0
Weighted Recall: 0.9992614475627769
Weighted FalsePositiveRate: 7.936232522560174E-4
Kappa statistic: 0.9985209057698268
Training time: 3.0
		
Iteration: 31
Labeled set size: 1412
Unlabelled set size: 2650
	
Mean region size: 50.0
Incorrectly Classified Instances: 0.07385524372230429
Correctly Classified Instances: 99.9261447562777
Weighted Precision: 0.9992624991324549
Weighted AreaUnderROC: 0.9992339121552605
Root mean squared error: 0.0271763212599322
Relative absolute error: 0.14771048744460857
Root relative squared error: 5.43526425198644
Weighted TruePositiveRate: 0.9992614475627769
Weighted MatthewsCorrelation: 0.9985219980135681
Weighted FMeasure: 0.999261427527573
Iteration time: 5.0
Weighted AreaUnderPRC: 0.9988799500610819
Mean absolute error: 7.385524372230429E-4
Coverage of cases: 99.9261447562777
Instances selection time: 2.0
Test time: 7.0
Accumulative iteration time: 161.0
Weighted Recall: 0.9992614475627769
Weighted FalsePositiveRate: 7.936232522560174E-4
Kappa statistic: 0.9985209057698268
Training time: 3.0
		
Iteration: 32
Labeled set size: 1432
Unlabelled set size: 2630
	
Mean region size: 50.0
Incorrectly Classified Instances: 0.07385524372230429
Correctly Classified Instances: 99.9261447562777
Weighted Precision: 0.9992624991324549
Weighted AreaUnderROC: 0.9992339121552605
Root mean squared error: 0.0271763212599322
Relative absolute error: 0.14771048744460857
Root relative squared error: 5.43526425198644
Weighted TruePositiveRate: 0.9992614475627769
Weighted MatthewsCorrelation: 0.9985219980135681
Weighted FMeasure: 0.999261427527573
Iteration time: 4.0
Weighted AreaUnderPRC: 0.9988799500610819
Mean absolute error: 7.385524372230429E-4
Coverage of cases: 99.9261447562777
Instances selection time: 2.0
Test time: 6.0
Accumulative iteration time: 165.0
Weighted Recall: 0.9992614475627769
Weighted FalsePositiveRate: 7.936232522560174E-4
Kappa statistic: 0.9985209057698268
Training time: 2.0
		
Iteration: 33
Labeled set size: 1452
Unlabelled set size: 2610
	
Mean region size: 50.0
Incorrectly Classified Instances: 0.07385524372230429
Correctly Classified Instances: 99.9261447562777
Weighted Precision: 0.9992624991324549
Weighted AreaUnderROC: 0.9992339121552605
Root mean squared error: 0.0271763212599322
Relative absolute error: 0.14771048744460857
Root relative squared error: 5.43526425198644
Weighted TruePositiveRate: 0.9992614475627769
Weighted MatthewsCorrelation: 0.9985219980135681
Weighted FMeasure: 0.999261427527573
Iteration time: 5.0
Weighted AreaUnderPRC: 0.9988799500610819
Mean absolute error: 7.385524372230429E-4
Coverage of cases: 99.9261447562777
Instances selection time: 2.0
Test time: 7.0
Accumulative iteration time: 170.0
Weighted Recall: 0.9992614475627769
Weighted FalsePositiveRate: 7.936232522560174E-4
Kappa statistic: 0.9985209057698268
Training time: 3.0
		
Iteration: 34
Labeled set size: 1472
Unlabelled set size: 2590
	
Mean region size: 50.0
Incorrectly Classified Instances: 0.07385524372230429
Correctly Classified Instances: 99.9261447562777
Weighted Precision: 0.9992624991324549
Weighted AreaUnderROC: 0.9992339121552605
Root mean squared error: 0.0271763212599322
Relative absolute error: 0.14771048744460857
Root relative squared error: 5.43526425198644
Weighted TruePositiveRate: 0.9992614475627769
Weighted MatthewsCorrelation: 0.9985219980135681
Weighted FMeasure: 0.999261427527573
Iteration time: 5.0
Weighted AreaUnderPRC: 0.9988799500610819
Mean absolute error: 7.385524372230429E-4
Coverage of cases: 99.9261447562777
Instances selection time: 3.0
Test time: 6.0
Accumulative iteration time: 175.0
Weighted Recall: 0.9992614475627769
Weighted FalsePositiveRate: 7.936232522560174E-4
Kappa statistic: 0.9985209057698268
Training time: 2.0
		
Iteration: 35
Labeled set size: 1492
Unlabelled set size: 2570
	
Mean region size: 50.0
Incorrectly Classified Instances: 0.07385524372230429
Correctly Classified Instances: 99.9261447562777
Weighted Precision: 0.9992624991324549
Weighted AreaUnderROC: 0.9992339121552605
Root mean squared error: 0.0271763212599322
Relative absolute error: 0.14771048744460857
Root relative squared error: 5.43526425198644
Weighted TruePositiveRate: 0.9992614475627769
Weighted MatthewsCorrelation: 0.9985219980135681
Weighted FMeasure: 0.999261427527573
Iteration time: 5.0
Weighted AreaUnderPRC: 0.9988799500610819
Mean absolute error: 7.385524372230429E-4
Coverage of cases: 99.9261447562777
Instances selection time: 3.0
Test time: 6.0
Accumulative iteration time: 180.0
Weighted Recall: 0.9992614475627769
Weighted FalsePositiveRate: 7.936232522560174E-4
Kappa statistic: 0.9985209057698268
Training time: 2.0
		
Iteration: 36
Labeled set size: 1512
Unlabelled set size: 2550
	
Mean region size: 50.0
Incorrectly Classified Instances: 0.07385524372230429
Correctly Classified Instances: 99.9261447562777
Weighted Precision: 0.9992624991324549
Weighted AreaUnderROC: 0.9992339121552605
Root mean squared error: 0.0271763212599322
Relative absolute error: 0.14771048744460857
Root relative squared error: 5.43526425198644
Weighted TruePositiveRate: 0.9992614475627769
Weighted MatthewsCorrelation: 0.9985219980135681
Weighted FMeasure: 0.999261427527573
Iteration time: 5.0
Weighted AreaUnderPRC: 0.9988799500610819
Mean absolute error: 7.385524372230429E-4
Coverage of cases: 99.9261447562777
Instances selection time: 2.0
Test time: 7.0
Accumulative iteration time: 185.0
Weighted Recall: 0.9992614475627769
Weighted FalsePositiveRate: 7.936232522560174E-4
Kappa statistic: 0.9985209057698268
Training time: 3.0
		
Iteration: 37
Labeled set size: 1532
Unlabelled set size: 2530
	
Mean region size: 50.0
Incorrectly Classified Instances: 0.07385524372230429
Correctly Classified Instances: 99.9261447562777
Weighted Precision: 0.9992624991324549
Weighted AreaUnderROC: 0.9992339121552605
Root mean squared error: 0.0271763212599322
Relative absolute error: 0.14771048744460857
Root relative squared error: 5.43526425198644
Weighted TruePositiveRate: 0.9992614475627769
Weighted MatthewsCorrelation: 0.9985219980135681
Weighted FMeasure: 0.999261427527573
Iteration time: 5.0
Weighted AreaUnderPRC: 0.9988799500610819
Mean absolute error: 7.385524372230429E-4
Coverage of cases: 99.9261447562777
Instances selection time: 2.0
Test time: 7.0
Accumulative iteration time: 190.0
Weighted Recall: 0.9992614475627769
Weighted FalsePositiveRate: 7.936232522560174E-4
Kappa statistic: 0.9985209057698268
Training time: 3.0
		
Iteration: 38
Labeled set size: 1552
Unlabelled set size: 2510
	
Mean region size: 50.0
Incorrectly Classified Instances: 0.07385524372230429
Correctly Classified Instances: 99.9261447562777
Weighted Precision: 0.9992624991324549
Weighted AreaUnderROC: 0.9992339121552605
Root mean squared error: 0.0271763212599322
Relative absolute error: 0.14771048744460857
Root relative squared error: 5.43526425198644
Weighted TruePositiveRate: 0.9992614475627769
Weighted MatthewsCorrelation: 0.9985219980135681
Weighted FMeasure: 0.999261427527573
Iteration time: 5.0
Weighted AreaUnderPRC: 0.9988799500610819
Mean absolute error: 7.385524372230429E-4
Coverage of cases: 99.9261447562777
Instances selection time: 2.0
Test time: 6.0
Accumulative iteration time: 195.0
Weighted Recall: 0.9992614475627769
Weighted FalsePositiveRate: 7.936232522560174E-4
Kappa statistic: 0.9985209057698268
Training time: 3.0
		
Iteration: 39
Labeled set size: 1572
Unlabelled set size: 2490
	
Mean region size: 50.0
Incorrectly Classified Instances: 0.07385524372230429
Correctly Classified Instances: 99.9261447562777
Weighted Precision: 0.9992624991324549
Weighted AreaUnderROC: 0.9992339121552605
Root mean squared error: 0.0271763212599322
Relative absolute error: 0.14771048744460857
Root relative squared error: 5.43526425198644
Weighted TruePositiveRate: 0.9992614475627769
Weighted MatthewsCorrelation: 0.9985219980135681
Weighted FMeasure: 0.999261427527573
Iteration time: 6.0
Weighted AreaUnderPRC: 0.9988799500610819
Mean absolute error: 7.385524372230429E-4
Coverage of cases: 99.9261447562777
Instances selection time: 3.0
Test time: 6.0
Accumulative iteration time: 201.0
Weighted Recall: 0.9992614475627769
Weighted FalsePositiveRate: 7.936232522560174E-4
Kappa statistic: 0.9985209057698268
Training time: 3.0
		
Iteration: 40
Labeled set size: 1592
Unlabelled set size: 2470
	
Mean region size: 50.0
Incorrectly Classified Instances: 0.07385524372230429
Correctly Classified Instances: 99.9261447562777
Weighted Precision: 0.9992624991324549
Weighted AreaUnderROC: 0.9992339121552605
Root mean squared error: 0.0271763212599322
Relative absolute error: 0.14771048744460857
Root relative squared error: 5.43526425198644
Weighted TruePositiveRate: 0.9992614475627769
Weighted MatthewsCorrelation: 0.9985219980135681
Weighted FMeasure: 0.999261427527573
Iteration time: 5.0
Weighted AreaUnderPRC: 0.9988799500610819
Mean absolute error: 7.385524372230429E-4
Coverage of cases: 99.9261447562777
Instances selection time: 2.0
Test time: 7.0
Accumulative iteration time: 206.0
Weighted Recall: 0.9992614475627769
Weighted FalsePositiveRate: 7.936232522560174E-4
Kappa statistic: 0.9985209057698268
Training time: 3.0
		
Iteration: 41
Labeled set size: 1612
Unlabelled set size: 2450
	
Mean region size: 50.0
Incorrectly Classified Instances: 0.07385524372230429
Correctly Classified Instances: 99.9261447562777
Weighted Precision: 0.9992624991324549
Weighted AreaUnderROC: 0.9992339121552605
Root mean squared error: 0.0271763212599322
Relative absolute error: 0.14771048744460857
Root relative squared error: 5.43526425198644
Weighted TruePositiveRate: 0.9992614475627769
Weighted MatthewsCorrelation: 0.9985219980135681
Weighted FMeasure: 0.999261427527573
Iteration time: 5.0
Weighted AreaUnderPRC: 0.9988799500610819
Mean absolute error: 7.385524372230429E-4
Coverage of cases: 99.9261447562777
Instances selection time: 2.0
Test time: 7.0
Accumulative iteration time: 211.0
Weighted Recall: 0.9992614475627769
Weighted FalsePositiveRate: 7.936232522560174E-4
Kappa statistic: 0.9985209057698268
Training time: 3.0
		
Iteration: 42
Labeled set size: 1632
Unlabelled set size: 2430
	
Mean region size: 50.0
Incorrectly Classified Instances: 0.07385524372230429
Correctly Classified Instances: 99.9261447562777
Weighted Precision: 0.9992624991324549
Weighted AreaUnderROC: 0.9992339121552605
Root mean squared error: 0.0271763212599322
Relative absolute error: 0.14771048744460857
Root relative squared error: 5.43526425198644
Weighted TruePositiveRate: 0.9992614475627769
Weighted MatthewsCorrelation: 0.9985219980135681
Weighted FMeasure: 0.999261427527573
Iteration time: 6.0
Weighted AreaUnderPRC: 0.9988799500610819
Mean absolute error: 7.385524372230429E-4
Coverage of cases: 99.9261447562777
Instances selection time: 2.0
Test time: 6.0
Accumulative iteration time: 217.0
Weighted Recall: 0.9992614475627769
Weighted FalsePositiveRate: 7.936232522560174E-4
Kappa statistic: 0.9985209057698268
Training time: 4.0
		
Iteration: 43
Labeled set size: 1652
Unlabelled set size: 2410
	
Mean region size: 50.0
Incorrectly Classified Instances: 0.07385524372230429
Correctly Classified Instances: 99.9261447562777
Weighted Precision: 0.9992624991324549
Weighted AreaUnderROC: 0.9992339121552605
Root mean squared error: 0.0271763212599322
Relative absolute error: 0.14771048744460857
Root relative squared error: 5.43526425198644
Weighted TruePositiveRate: 0.9992614475627769
Weighted MatthewsCorrelation: 0.9985219980135681
Weighted FMeasure: 0.999261427527573
Iteration time: 5.0
Weighted AreaUnderPRC: 0.9988799500610819
Mean absolute error: 7.385524372230429E-4
Coverage of cases: 99.9261447562777
Instances selection time: 2.0
Test time: 7.0
Accumulative iteration time: 222.0
Weighted Recall: 0.9992614475627769
Weighted FalsePositiveRate: 7.936232522560174E-4
Kappa statistic: 0.9985209057698268
Training time: 3.0
		
Iteration: 44
Labeled set size: 1672
Unlabelled set size: 2390
	
Mean region size: 50.0
Incorrectly Classified Instances: 0.07385524372230429
Correctly Classified Instances: 99.9261447562777
Weighted Precision: 0.9992624991324549
Weighted AreaUnderROC: 0.9992339121552605
Root mean squared error: 0.0271763212599322
Relative absolute error: 0.14771048744460857
Root relative squared error: 5.43526425198644
Weighted TruePositiveRate: 0.9992614475627769
Weighted MatthewsCorrelation: 0.9985219980135681
Weighted FMeasure: 0.999261427527573
Iteration time: 5.0
Weighted AreaUnderPRC: 0.9988799500610819
Mean absolute error: 7.385524372230429E-4
Coverage of cases: 99.9261447562777
Instances selection time: 2.0
Test time: 7.0
Accumulative iteration time: 227.0
Weighted Recall: 0.9992614475627769
Weighted FalsePositiveRate: 7.936232522560174E-4
Kappa statistic: 0.9985209057698268
Training time: 3.0
		
Iteration: 45
Labeled set size: 1692
Unlabelled set size: 2370
	
Mean region size: 50.0
Incorrectly Classified Instances: 0.07385524372230429
Correctly Classified Instances: 99.9261447562777
Weighted Precision: 0.9992624991324549
Weighted AreaUnderROC: 0.9992339121552605
Root mean squared error: 0.0271763212599322
Relative absolute error: 0.14771048744460857
Root relative squared error: 5.43526425198644
Weighted TruePositiveRate: 0.9992614475627769
Weighted MatthewsCorrelation: 0.9985219980135681
Weighted FMeasure: 0.999261427527573
Iteration time: 5.0
Weighted AreaUnderPRC: 0.9988799500610819
Mean absolute error: 7.385524372230429E-4
Coverage of cases: 99.9261447562777
Instances selection time: 2.0
Test time: 6.0
Accumulative iteration time: 232.0
Weighted Recall: 0.9992614475627769
Weighted FalsePositiveRate: 7.936232522560174E-4
Kappa statistic: 0.9985209057698268
Training time: 3.0
		
Iteration: 46
Labeled set size: 1712
Unlabelled set size: 2350
	
Mean region size: 50.0
Incorrectly Classified Instances: 0.07385524372230429
Correctly Classified Instances: 99.9261447562777
Weighted Precision: 0.9992624991324549
Weighted AreaUnderROC: 0.9992339121552605
Root mean squared error: 0.0271763212599322
Relative absolute error: 0.14771048744460857
Root relative squared error: 5.43526425198644
Weighted TruePositiveRate: 0.9992614475627769
Weighted MatthewsCorrelation: 0.9985219980135681
Weighted FMeasure: 0.999261427527573
Iteration time: 5.0
Weighted AreaUnderPRC: 0.9988799500610819
Mean absolute error: 7.385524372230429E-4
Coverage of cases: 99.9261447562777
Instances selection time: 2.0
Test time: 6.0
Accumulative iteration time: 237.0
Weighted Recall: 0.9992614475627769
Weighted FalsePositiveRate: 7.936232522560174E-4
Kappa statistic: 0.9985209057698268
Training time: 3.0
		
Time end:Wed Nov 01 06.04.35 EET 2017