Wed Nov 01 06.07.12 EET 2017
Dataset: mushroom
Test set size: 4062
Initial Labelled set size: 812
Initial Unlabelled set size: 3250
Batch mode: QBestBatchMode
Batch size: 20
Classifiers: NaiveBayes-1cores
Scenario: PoolBasedSamplingScenario
Query strategy: LeastConfidentSamplingQueryStrategy-1cores
Time begining: Wed Nov 01 06.07.12 EET 2017
		
Iteration: 1
Labeled set size: 812
Unlabelled set size: 3250
	
Mean region size: 52.96651895617922
Incorrectly Classified Instances: 6.154603643525357
Correctly Classified Instances: 93.84539635647464
Weighted Precision: 0.9430010342890247
Weighted AreaUnderROC: 0.9942174446649603
Root mean squared error: 0.22818424655933697
Relative absolute error: 12.519924588017828
Root relative squared error: 45.636849311867394
Weighted TruePositiveRate: 0.9384539635647464
Weighted MatthewsCorrelation: 0.8810584908917131
Weighted FMeasure: 0.9381729429006245
Iteration time: 26.0
Weighted AreaUnderPRC: 0.9943995956185475
Mean absolute error: 0.06259962294008914
Coverage of cases: 96.7503692762186
Instances selection time: 25.0
Test time: 39.0
Accumulative iteration time: 26.0
Weighted Recall: 0.9384539635647464
Weighted FalsePositiveRate: 0.06542646984686094
Kappa statistic: 0.876288343304172
Training time: 1.0
		
Iteration: 2
Labeled set size: 832
Unlabelled set size: 3230
	
Mean region size: 53.28655834564254
Incorrectly Classified Instances: 5.292959133431807
Correctly Classified Instances: 94.70704086656819
Weighted Precision: 0.9516980757745599
Weighted AreaUnderROC: 0.9951570917013947
Root mean squared error: 0.208424648374849
Relative absolute error: 10.886896614496589
Root relative squared error: 41.6849296749698
Weighted TruePositiveRate: 0.9470704086656819
Weighted MatthewsCorrelation: 0.8984275413525931
Weighted FMeasure: 0.9468305677935525
Iteration time: 26.0
Weighted AreaUnderPRC: 0.9953114794464896
Mean absolute error: 0.05443448307248294
Coverage of cases: 97.85819793205317
Instances selection time: 25.0
Test time: 39.0
Accumulative iteration time: 52.0
Weighted Recall: 0.9470704086656819
Weighted FalsePositiveRate: 0.056770012902176835
Kappa statistic: 0.8936098675194153
Training time: 1.0
		
Iteration: 3
Labeled set size: 852
Unlabelled set size: 3210
	
Mean region size: 53.53274249138355
Incorrectly Classified Instances: 3.79123584441162
Correctly Classified Instances: 96.20876415558838
Weighted Precision: 0.9645370313354212
Weighted AreaUnderROC: 0.9958935652504884
Root mean squared error: 0.17514466606064674
Relative absolute error: 8.557182263283291
Root relative squared error: 35.028933212129346
Weighted TruePositiveRate: 0.9620876415558838
Weighted MatthewsCorrelation: 0.9264250671424933
Weighted FMeasure: 0.9619850772535282
Iteration time: 25.0
Weighted AreaUnderPRC: 0.9960313297099139
Mean absolute error: 0.04278591131641646
Coverage of cases: 98.54751354012802
Instances selection time: 25.0
Test time: 39.0
Accumulative iteration time: 77.0
Weighted Recall: 0.9620876415558838
Weighted FalsePositiveRate: 0.04066844683169485
Kappa statistic: 0.9238748581661953
Training time: 0.0
		
Iteration: 4
Labeled set size: 872
Unlabelled set size: 3190
	
Mean region size: 53.360413589364846
Incorrectly Classified Instances: 2.4864598719842443
Correctly Classified Instances: 97.51354012801576
Weighted Precision: 0.9761838433729657
Weighted AreaUnderROC: 0.9961217409710382
Root mean squared error: 0.1429431406846877
Relative absolute error: 6.337478178471876
Root relative squared error: 28.588628136937537
Weighted TruePositiveRate: 0.9751354012801575
Weighted MatthewsCorrelation: 0.9512127781897547
Weighted FMeasure: 0.9750997531587362
Iteration time: 25.0
Weighted AreaUnderPRC: 0.9962580118311389
Mean absolute error: 0.031687390892359384
Coverage of cases: 98.79369768586903
Instances selection time: 25.0
Test time: 39.0
Accumulative iteration time: 102.0
Weighted Recall: 0.9751354012801575
Weighted FalsePositiveRate: 0.026647769375171868
Kappa statistic: 0.9501207401440127
Training time: 0.0
		
Iteration: 5
Labeled set size: 892
Unlabelled set size: 3170
	
Mean region size: 52.92959133431807
Incorrectly Classified Instances: 1.427868045297883
Correctly Classified Instances: 98.57213195470212
Weighted Precision: 0.9860277409681596
Weighted AreaUnderROC: 0.9960151780547389
Root mean squared error: 0.12318275828028434
Relative absolute error: 4.884340274162063
Root relative squared error: 24.636551656056866
Weighted TruePositiveRate: 0.9857213195470211
Weighted MatthewsCorrelation: 0.9716992773381236
Weighted FMeasure: 0.9857123883454432
Iteration time: 25.0
Weighted AreaUnderPRC: 0.9961572801317669
Mean absolute error: 0.024421701370810314
Coverage of cases: 98.79369768586903
Instances selection time: 24.0
Test time: 40.0
Accumulative iteration time: 127.0
Weighted Recall: 0.9857213195470211
Weighted FalsePositiveRate: 0.015237062700778596
Kappa statistic: 0.9713793260955975
Training time: 1.0
		
Iteration: 6
Labeled set size: 912
Unlabelled set size: 3150
	
Mean region size: 52.41260462826194
Incorrectly Classified Instances: 1.2309207287050714
Correctly Classified Instances: 98.76907927129493
Weighted Precision: 0.9879536695994392
Weighted AreaUnderROC: 0.9959947878839663
Root mean squared error: 0.11718377563836863
Relative absolute error: 4.258528407355526
Root relative squared error: 23.436755127673724
Weighted TruePositiveRate: 0.9876907927129492
Weighted MatthewsCorrelation: 0.9756024263115431
Weighted FMeasure: 0.9876838298961598
Iteration time: 25.0
Weighted AreaUnderPRC: 0.9961382669111847
Mean absolute error: 0.021292642036777634
Coverage of cases: 98.79369768586903
Instances selection time: 24.0
Test time: 39.0
Accumulative iteration time: 152.0
Weighted Recall: 0.9876907927129492
Weighted FalsePositiveRate: 0.013191614145543266
Kappa statistic: 0.9753287555683399
Training time: 1.0
		
Iteration: 7
Labeled set size: 932
Unlabelled set size: 3130
	
Mean region size: 52.215657311669126
Incorrectly Classified Instances: 1.2309207287050714
Correctly Classified Instances: 98.76907927129493
Weighted Precision: 0.9879765217586097
Weighted AreaUnderROC: 0.9958535131293281
Root mean squared error: 0.11489740383820135
Relative absolute error: 3.9723562841104516
Root relative squared error: 22.97948076764027
Weighted TruePositiveRate: 0.9876907927129492
Weighted MatthewsCorrelation: 0.9756248636485737
Weighted FMeasure: 0.9876834646590639
Iteration time: 25.0
Weighted AreaUnderPRC: 0.996002651260249
Mean absolute error: 0.019861781420552258
Coverage of cases: 98.79369768586903
Instances selection time: 24.0
Test time: 39.0
Accumulative iteration time: 177.0
Weighted Recall: 0.9876907927129492
Weighted FalsePositiveRate: 0.013227054204266958
Kappa statistic: 0.9753278804426257
Training time: 1.0
		
Iteration: 8
Labeled set size: 952
Unlabelled set size: 3110
	
Mean region size: 52.15411127523387
Incorrectly Classified Instances: 1.2063023141309699
Correctly Classified Instances: 98.79369768586903
Weighted Precision: 0.9882115184907962
Weighted AreaUnderROC: 0.9961227119315512
Root mean squared error: 0.1129322134851489
Relative absolute error: 3.789879703753191
Root relative squared error: 22.586442697029778
Weighted TruePositiveRate: 0.9879369768586903
Weighted MatthewsCorrelation: 0.9761071034622945
Weighted FMeasure: 0.987929975069513
Iteration time: 25.0
Weighted AreaUnderPRC: 0.996262856940454
Mean absolute error: 0.018949398518765953
Coverage of cases: 98.84293451501723
Instances selection time: 24.0
Test time: 39.0
Accumulative iteration time: 202.0
Weighted Recall: 0.9879369768586903
Weighted FalsePositiveRate: 0.012962513120181618
Kappa statistic: 0.9758217516529785
Training time: 1.0
		
Iteration: 9
Labeled set size: 972
Unlabelled set size: 3090
	
Mean region size: 52.15411127523387
Incorrectly Classified Instances: 1.157065484982767
Correctly Classified Instances: 98.84293451501723
Weighted Precision: 0.9886821674551197
Weighted AreaUnderROC: 0.9962967566035025
Root mean squared error: 0.10941907225972612
Relative absolute error: 3.658673690048856
Root relative squared error: 21.883814451945224
Weighted TruePositiveRate: 0.9884293451501723
Weighted MatthewsCorrelation: 0.9770722125521617
Weighted FMeasure: 0.9884229696419282
Iteration time: 24.0
Weighted AreaUnderPRC: 0.9964314327280471
Mean absolute error: 0.01829336845024428
Coverage of cases: 98.91678975873954
Instances selection time: 24.0
Test time: 39.0
Accumulative iteration time: 226.0
Weighted Recall: 0.9884293451501723
Weighted FalsePositiveRate: 0.01243343095201094
Kappa statistic: 0.9768094415214418
Training time: 0.0
		
Iteration: 10
Labeled set size: 992
Unlabelled set size: 3070
	
Mean region size: 51.63712456917774
Incorrectly Classified Instances: 1.1816838995568686
Correctly Classified Instances: 98.81831610044313
Weighted Precision: 0.9884467336214329
Weighted AreaUnderROC: 0.9962074282363085
Root mean squared error: 0.10845767777808137
Relative absolute error: 3.358115581805352
Root relative squared error: 21.691535555616273
Weighted TruePositiveRate: 0.9881831610044313
Weighted MatthewsCorrelation: 0.9765895529922747
Weighted FMeasure: 0.9881764767003133
Iteration time: 24.0
Weighted AreaUnderPRC: 0.9963438814438476
Mean absolute error: 0.01679057790902676
Coverage of cases: 98.91678975873954
Instances selection time: 23.0
Test time: 39.0
Accumulative iteration time: 250.0
Weighted Recall: 0.9881831610044313
Weighted FalsePositiveRate: 0.012697972036096279
Kappa statistic: 0.9763156053456062
Training time: 1.0
		
Iteration: 11
Labeled set size: 1012
Unlabelled set size: 3050
	
Mean region size: 51.66174298375184
Incorrectly Classified Instances: 1.1324470704086658
Correctly Classified Instances: 98.86755292959134
Weighted Precision: 0.988917820297024
Weighted AreaUnderROC: 0.9972864081063552
Root mean squared error: 0.10660189119967614
Relative absolute error: 3.3160660902147114
Root relative squared error: 21.320378239935227
Weighted TruePositiveRate: 0.9886755292959133
Weighted MatthewsCorrelation: 0.9775550824560092
Weighted FMeasure: 0.9886694539848058
Iteration time: 24.0
Weighted AreaUnderPRC: 0.99737701067762
Mean absolute error: 0.016580330451073558
Coverage of cases: 98.94140817331363
Instances selection time: 24.0
Test time: 39.0
Accumulative iteration time: 274.0
Weighted Recall: 0.9886755292959133
Weighted FalsePositiveRate: 0.0121688898679256
Kappa statistic: 0.9773032601814164
Training time: 0.0
		
Iteration: 12
Labeled set size: 1032
Unlabelled set size: 3030
	
Mean region size: 51.48941408173314
Incorrectly Classified Instances: 1.157065484982767
Correctly Classified Instances: 98.84293451501723
Weighted Precision: 0.9886821674551197
Weighted AreaUnderROC: 0.9982003246891954
Root mean squared error: 0.10517830596815139
Relative absolute error: 3.2535098654498946
Root relative squared error: 21.03566119363028
Weighted TruePositiveRate: 0.9884293451501723
Weighted MatthewsCorrelation: 0.9770722125521617
Weighted FMeasure: 0.9884229696419282
Iteration time: 24.0
Weighted AreaUnderPRC: 0.9982522125588583
Mean absolute error: 0.016267549327249473
Coverage of cases: 99.18759231905466
Instances selection time: 23.0
Test time: 39.0
Accumulative iteration time: 298.0
Weighted Recall: 0.9884293451501723
Weighted FalsePositiveRate: 0.01243343095201094
Kappa statistic: 0.9768094415214418
Training time: 1.0
		
Iteration: 13
Labeled set size: 1052
Unlabelled set size: 3010
	
Mean region size: 51.7725258493353
Incorrectly Classified Instances: 1.1324470704086658
Correctly Classified Instances: 98.86755292959134
Weighted Precision: 0.988917820297024
Weighted AreaUnderROC: 0.9990152032997122
Root mean squared error: 0.09727997548666577
Relative absolute error: 3.108158907469121
Root relative squared error: 19.455995097333155
Weighted TruePositiveRate: 0.9886755292959133
Weighted MatthewsCorrelation: 0.9775550824560092
Weighted FMeasure: 0.9886694539848058
Iteration time: 24.0
Weighted AreaUnderPRC: 0.9990382167450889
Mean absolute error: 0.015540794537345606
Coverage of cases: 99.48301329394387
Instances selection time: 23.0
Test time: 39.0
Accumulative iteration time: 322.0
Weighted Recall: 0.9886755292959133
Weighted FalsePositiveRate: 0.0121688898679256
Kappa statistic: 0.9773032601814164
Training time: 1.0
		
Iteration: 14
Labeled set size: 1072
Unlabelled set size: 2990
	
Mean region size: 51.95716395864106
Incorrectly Classified Instances: 0.9601181683899557
Correctly Classified Instances: 99.03988183161005
Weighted Precision: 0.9905735481740902
Weighted AreaUnderROC: 0.9993856247354133
Root mean squared error: 0.08625463467394351
Relative absolute error: 2.879095353043491
Root relative squared error: 17.2509269347887
Weighted TruePositiveRate: 0.9903988183161004
Weighted MatthewsCorrelation: 0.9809410878801266
Weighted FMeasure: 0.9903946112148763
Iteration time: 24.0
Weighted AreaUnderPRC: 0.9993999809977226
Mean absolute error: 0.014395476765217454
Coverage of cases: 99.77843426883308
Instances selection time: 23.0
Test time: 38.0
Accumulative iteration time: 346.0
Weighted Recall: 0.9903988183161004
Weighted FalsePositiveRate: 0.010317102279328227
Kappa statistic: 0.9807595004354126
Training time: 1.0
		
Iteration: 15
Labeled set size: 1092
Unlabelled set size: 2970
	
Mean region size: 52.104874446085674
Incorrectly Classified Instances: 0.7139340226489415
Correctly Classified Instances: 99.28606597735106
Weighted Precision: 0.9929577253462102
Weighted AreaUnderROC: 0.9995754475157004
Root mean squared error: 0.07671761654931694
Relative absolute error: 2.668661328658388
Root relative squared error: 15.343523309863388
Weighted TruePositiveRate: 0.9928606597735106
Weighted MatthewsCorrelation: 0.9857963597545174
Weighted FMeasure: 0.9928584597814133
Iteration time: 23.0
Weighted AreaUnderPRC: 0.9995850076757888
Mean absolute error: 0.01334330664329194
Coverage of cases: 99.85228951255539
Instances selection time: 22.0
Test time: 39.0
Accumulative iteration time: 369.0
Weighted Recall: 0.9928606597735106
Weighted FalsePositiveRate: 0.007671691438474835
Kappa statistic: 0.9856954983770551
Training time: 1.0
		
Iteration: 16
Labeled set size: 1112
Unlabelled set size: 2950
	
Mean region size: 51.994091580502214
Incorrectly Classified Instances: 0.7877892663712457
Correctly Classified Instances: 99.21221073362875
Weighted Precision: 0.9922401282001634
Weighted AreaUnderROC: 0.9995674370914683
Root mean squared error: 0.07837388750536982
Relative absolute error: 2.6490505834400913
Root relative squared error: 15.674777501073963
Weighted TruePositiveRate: 0.9921221073362876
Weighted MatthewsCorrelation: 0.9843375240714242
Weighted FMeasure: 0.9921193825342082
Iteration time: 24.0
Weighted AreaUnderPRC: 0.999576990083299
Mean absolute error: 0.013245252917200457
Coverage of cases: 99.85228951255539
Instances selection time: 23.0
Test time: 39.0
Accumulative iteration time: 393.0
Weighted Recall: 0.9921221073362876
Weighted FalsePositiveRate: 0.008465314690730853
Kappa statistic: 0.9842148827774346
Training time: 1.0
		
Iteration: 17
Labeled set size: 1132
Unlabelled set size: 2930
	
Mean region size: 52.04332840965042
Incorrectly Classified Instances: 0.7631708517971443
Correctly Classified Instances: 99.23682914820286
Weighted Precision: 0.9924791031747954
Weighted AreaUnderROC: 0.9996023916699355
Root mean squared error: 0.07806697808855992
Relative absolute error: 2.6440000150785137
Root relative squared error: 15.613395617711983
Weighted TruePositiveRate: 0.9923682914820285
Weighted MatthewsCorrelation: 0.9848235871005075
Weighted FMeasure: 0.9923657487400365
Iteration time: 23.0
Weighted AreaUnderPRC: 0.9996097190812976
Mean absolute error: 0.013220000075392568
Coverage of cases: 99.85228951255539
Instances selection time: 22.0
Test time: 39.0
Accumulative iteration time: 416.0
Weighted Recall: 0.9923682914820285
Weighted FalsePositiveRate: 0.008200773606645513
Kappa statistic: 0.9847084388112894
Training time: 1.0
		
Iteration: 18
Labeled set size: 1152
Unlabelled set size: 2910
	
Mean region size: 51.89561792220581
Incorrectly Classified Instances: 0.7385524372230429
Correctly Classified Instances: 99.26144756277695
Weighted Precision: 0.9927183021184757
Weighted AreaUnderROC: 0.999648512294302
Root mean squared error: 0.07602535103991225
Relative absolute error: 2.5163443999968047
Root relative squared error: 15.205070207982448
Weighted TruePositiveRate: 0.9926144756277696
Weighted MatthewsCorrelation: 0.9853098655544993
Weighted FMeasure: 0.9926121077923672
Iteration time: 24.0
Weighted AreaUnderPRC: 0.9996550804595853
Mean absolute error: 0.012581721999984023
Coverage of cases: 99.85228951255539
Instances selection time: 23.0
Test time: 39.0
Accumulative iteration time: 440.0
Weighted Recall: 0.9926144756277696
Weighted FalsePositiveRate: 0.007936232522560175
Kappa statistic: 0.9852019773441861
Training time: 1.0
		
Iteration: 19
Labeled set size: 1172
Unlabelled set size: 2890
	
Mean region size: 51.90792712949286
Incorrectly Classified Instances: 0.7139340226489415
Correctly Classified Instances: 99.28606597735106
Weighted Precision: 0.9929577253462102
Weighted AreaUnderROC: 0.9996560372382776
Root mean squared error: 0.0767551909968907
Relative absolute error: 2.5265522980951496
Root relative squared error: 15.35103819937814
Weighted TruePositiveRate: 0.9928606597735106
Weighted MatthewsCorrelation: 0.9857963597545174
Weighted FMeasure: 0.9928584597814133
Iteration time: 24.0
Weighted AreaUnderPRC: 0.9996619339313195
Mean absolute error: 0.012632761490475748
Coverage of cases: 99.85228951255539
Instances selection time: 23.0
Test time: 39.0
Accumulative iteration time: 464.0
Weighted Recall: 0.9928606597735106
Weighted FalsePositiveRate: 0.007671691438474835
Kappa statistic: 0.9856954983770551
Training time: 1.0
		
Iteration: 20
Labeled set size: 1192
Unlabelled set size: 2870
	
Mean region size: 51.834071885770555
Incorrectly Classified Instances: 0.7139340226489415
Correctly Classified Instances: 99.28606597735106
Weighted Precision: 0.9929577253462102
Weighted AreaUnderROC: 0.9996681742446898
Root mean squared error: 0.07542735733734167
Relative absolute error: 2.4835642585512527
Root relative squared error: 15.085471467468334
Weighted TruePositiveRate: 0.9928606597735106
Weighted MatthewsCorrelation: 0.9857963597545174
Weighted FMeasure: 0.9928584597814133
Iteration time: 28.0
Weighted AreaUnderPRC: 0.9996738136341347
Mean absolute error: 0.012417821292756263
Coverage of cases: 99.85228951255539
Instances selection time: 27.0
Test time: 39.0
Accumulative iteration time: 492.0
Weighted Recall: 0.9928606597735106
Weighted FalsePositiveRate: 0.007671691438474835
Kappa statistic: 0.9856954983770551
Training time: 1.0
		
Iteration: 21
Labeled set size: 1212
Unlabelled set size: 2850
	
Mean region size: 51.93254554406696
Incorrectly Classified Instances: 0.7139340226489415
Correctly Classified Instances: 99.28606597735106
Weighted Precision: 0.9929577253462102
Weighted AreaUnderROC: 0.9996880789352058
Root mean squared error: 0.07504770043185063
Relative absolute error: 2.4987952893506087
Root relative squared error: 15.009540086370126
Weighted TruePositiveRate: 0.9928606597735106
Weighted MatthewsCorrelation: 0.9857963597545174
Weighted FMeasure: 0.9928584597814133
Iteration time: 23.0
Weighted AreaUnderPRC: 0.9996928248221926
Mean absolute error: 0.012493976446753043
Coverage of cases: 99.85228951255539
Instances selection time: 22.0
Test time: 40.0
Accumulative iteration time: 515.0
Weighted Recall: 0.9928606597735106
Weighted FalsePositiveRate: 0.007671691438474835
Kappa statistic: 0.9856954983770551
Training time: 1.0
		
Iteration: 22
Labeled set size: 1232
Unlabelled set size: 2830
	
Mean region size: 51.809453471196456
Incorrectly Classified Instances: 0.6893156080748399
Correctly Classified Instances: 99.31068439192516
Weighted Precision: 0.9931973731735954
Weighted AreaUnderROC: 0.99970409978367
Root mean squared error: 0.07443703266333461
Relative absolute error: 2.440060282139374
Root relative squared error: 14.887406532666922
Weighted TruePositiveRate: 0.9931068439192516
Weighted MatthewsCorrelation: 0.9862830700221047
Weighted FMeasure: 0.9931048047973738
Iteration time: 22.0
Weighted AreaUnderPRC: 0.9997085543302113
Mean absolute error: 0.012200301410696869
Coverage of cases: 99.85228951255539
Instances selection time: 21.0
Test time: 40.0
Accumulative iteration time: 537.0
Weighted Recall: 0.9931068439192516
Weighted FalsePositiveRate: 0.007407150354389496
Kappa statistic: 0.9861890019108275
Training time: 1.0
		
Iteration: 23
Labeled set size: 1252
Unlabelled set size: 2810
	
Mean region size: 51.84638109305761
Incorrectly Classified Instances: 0.6893156080748399
Correctly Classified Instances: 99.31068439192516
Weighted Precision: 0.9931973731735954
Weighted AreaUnderROC: 0.9997152658295693
Root mean squared error: 0.0736232382507435
Relative absolute error: 2.4183748591701386
Root relative squared error: 14.7246476501487
Weighted TruePositiveRate: 0.9931068439192516
Weighted MatthewsCorrelation: 0.9862830700221047
Weighted FMeasure: 0.9931048047973738
Iteration time: 23.0
Weighted AreaUnderPRC: 0.9997195070130942
Mean absolute error: 0.012091874295850694
Coverage of cases: 99.85228951255539
Instances selection time: 22.0
Test time: 38.0
Accumulative iteration time: 560.0
Weighted Recall: 0.9931068439192516
Weighted FalsePositiveRate: 0.007407150354389496
Kappa statistic: 0.9861890019108275
Training time: 1.0
		
Iteration: 24
Labeled set size: 1272
Unlabelled set size: 2790
	
Mean region size: 51.82176267848351
Incorrectly Classified Instances: 0.6646971935007385
Correctly Classified Instances: 99.33530280649926
Weighted Precision: 0.9934372459168205
Weighted AreaUnderROC: 0.999723033513673
Root mean squared error: 0.0732851096063882
Relative absolute error: 2.3917715064091647
Root relative squared error: 14.657021921277641
Weighted TruePositiveRate: 0.9933530280649926
Weighted MatthewsCorrelation: 0.98676999667923
Weighted FMeasure: 0.993351142930436
Iteration time: 22.0
Weighted AreaUnderPRC: 0.999727024706897
Mean absolute error: 0.011958857532045824
Coverage of cases: 99.8769079271295
Instances selection time: 21.0
Test time: 39.0
Accumulative iteration time: 582.0
Weighted Recall: 0.9933530280649926
Weighted FalsePositiveRate: 0.007142609270304157
Kappa statistic: 0.9866824879464337
Training time: 1.0
		
Iteration: 25
Labeled set size: 1292
Unlabelled set size: 2770
	
Mean region size: 51.87099950763171
Incorrectly Classified Instances: 0.6646971935007385
Correctly Classified Instances: 99.33530280649926
Weighted Precision: 0.9934372459168205
Weighted AreaUnderROC: 0.9997203633722623
Root mean squared error: 0.07344959854882942
Relative absolute error: 2.422212743861957
Root relative squared error: 14.689919709765883
Weighted TruePositiveRate: 0.9933530280649926
Weighted MatthewsCorrelation: 0.98676999667923
Weighted FMeasure: 0.993351142930436
Iteration time: 22.0
Weighted AreaUnderPRC: 0.9997242751245975
Mean absolute error: 0.012111063719309785
Coverage of cases: 99.8769079271295
Instances selection time: 21.0
Test time: 39.0
Accumulative iteration time: 604.0
Weighted Recall: 0.9933530280649926
Weighted FalsePositiveRate: 0.007142609270304157
Kappa statistic: 0.9866824879464337
Training time: 1.0
		
Iteration: 26
Labeled set size: 1312
Unlabelled set size: 2750
	
Mean region size: 51.944854751354015
Incorrectly Classified Instances: 0.6646971935007385
Correctly Classified Instances: 99.33530280649926
Weighted Precision: 0.9934372459168205
Weighted AreaUnderROC: 0.9997351705200853
Root mean squared error: 0.07223924754243279
Relative absolute error: 2.3600438985331773
Root relative squared error: 14.447849508486557
Weighted TruePositiveRate: 0.9933530280649926
Weighted MatthewsCorrelation: 0.98676999667923
Weighted FMeasure: 0.993351142930436
Iteration time: 22.0
Weighted AreaUnderPRC: 0.999738893525893
Mean absolute error: 0.011800219492665886
Coverage of cases: 99.8769079271295
Instances selection time: 21.0
Test time: 39.0
Accumulative iteration time: 626.0
Weighted Recall: 0.9933530280649926
Weighted FalsePositiveRate: 0.007142609270304157
Kappa statistic: 0.9866824879464337
Training time: 1.0
		
Iteration: 27
Labeled set size: 1332
Unlabelled set size: 2730
	
Mean region size: 51.93254554406696
Incorrectly Classified Instances: 0.6400787789266371
Correctly Classified Instances: 99.35992122107336
Weighted Precision: 0.9936773438926683
Weighted AreaUnderROC: 0.9997349277799571
Root mean squared error: 0.07208097676178518
Relative absolute error: 2.371821074669268
Root relative squared error: 14.416195352357036
Weighted TruePositiveRate: 0.9935992122107337
Weighted MatthewsCorrelation: 0.9872571400482897
Weighted FMeasure: 0.9935974742707745
Iteration time: 22.0
Weighted AreaUnderPRC: 0.9997386432325739
Mean absolute error: 0.011859105373346338
Coverage of cases: 99.8769079271295
Instances selection time: 21.0
Test time: 40.0
Accumulative iteration time: 648.0
Weighted Recall: 0.9935992122107337
Weighted FalsePositiveRate: 0.0068780681862188175
Kappa statistic: 0.9871759564848046
Training time: 1.0
		
Iteration: 28
Labeled set size: 1352
Unlabelled set size: 2710
	
Mean region size: 51.92023633677991
Incorrectly Classified Instances: 0.6154603643525357
Correctly Classified Instances: 99.38453963564747
Weighted Precision: 0.993917667418517
Weighted AreaUnderROC: 0.999758716312525
Root mean squared error: 0.07031111058086484
Relative absolute error: 2.2947126027980747
Root relative squared error: 14.062222116172968
Weighted TruePositiveRate: 0.9938453963564746
Weighted MatthewsCorrelation: 0.9877445004521075
Weighted FMeasure: 0.9938437989085503
Iteration time: 22.0
Weighted AreaUnderPRC: 0.9997620420341489
Mean absolute error: 0.011473563013990372
Coverage of cases: 99.8769079271295
Instances selection time: 21.0
Test time: 40.0
Accumulative iteration time: 670.0
Weighted Recall: 0.9938453963564746
Weighted FalsePositiveRate: 0.006613527102133479
Kappa statistic: 0.9876694075268705
Training time: 1.0
		
Iteration: 29
Labeled set size: 1372
Unlabelled set size: 2690
	
Mean region size: 51.92023633677991
Incorrectly Classified Instances: 0.6154603643525357
Correctly Classified Instances: 99.38453963564747
Weighted Precision: 0.993917667418517
Weighted AreaUnderROC: 0.9997485212271388
Root mean squared error: 0.07079726534805993
Relative absolute error: 2.3255678948434713
Root relative squared error: 14.159453069611985
Weighted TruePositiveRate: 0.9938453963564746
Weighted MatthewsCorrelation: 0.9877445004521075
Weighted FMeasure: 0.9938437989085503
Iteration time: 22.0
Weighted AreaUnderPRC: 0.9997519626576608
Mean absolute error: 0.011627839474217356
Coverage of cases: 99.8769079271295
Instances selection time: 21.0
Test time: 40.0
Accumulative iteration time: 692.0
Weighted Recall: 0.9938453963564746
Weighted FalsePositiveRate: 0.006613527102133479
Kappa statistic: 0.9876694075268705
Training time: 1.0
		
Iteration: 30
Labeled set size: 1392
Unlabelled set size: 2670
	
Mean region size: 51.92023633677991
Incorrectly Classified Instances: 0.6154603643525357
Correctly Classified Instances: 99.38453963564747
Weighted Precision: 0.993917667418517
Weighted AreaUnderROC: 0.9997524050691907
Root mean squared error: 0.07028221759935302
Relative absolute error: 2.309147750984849
Root relative squared error: 14.056443519870603
Weighted TruePositiveRate: 0.9938453963564746
Weighted MatthewsCorrelation: 0.9877445004521075
Weighted FMeasure: 0.9938437989085503
Iteration time: 21.0
Weighted AreaUnderPRC: 0.9997558617101374
Mean absolute error: 0.011545738754924244
Coverage of cases: 99.8769079271295
Instances selection time: 20.0
Test time: 39.0
Accumulative iteration time: 713.0
Weighted Recall: 0.9938453963564746
Weighted FalsePositiveRate: 0.006613527102133479
Kappa statistic: 0.9876694075268705
Training time: 1.0
		
Iteration: 31
Labeled set size: 1412
Unlabelled set size: 2650
	
Mean region size: 51.92023633677991
Incorrectly Classified Instances: 0.6154603643525357
Correctly Classified Instances: 99.38453963564747
Weighted Precision: 0.993917667418517
Weighted AreaUnderROC: 0.9997443946449586
Root mean squared error: 0.07130732666391426
Relative absolute error: 2.364204156680048
Root relative squared error: 14.261465332782851
Weighted TruePositiveRate: 0.9938453963564746
Weighted MatthewsCorrelation: 0.9877445004521075
Weighted FMeasure: 0.9938437989085503
Iteration time: 22.0
Weighted AreaUnderPRC: 0.9997478932208432
Mean absolute error: 0.01182102078340024
Coverage of cases: 99.8769079271295
Instances selection time: 21.0
Test time: 40.0
Accumulative iteration time: 735.0
Weighted Recall: 0.9938453963564746
Weighted FalsePositiveRate: 0.006613527102133479
Kappa statistic: 0.9876694075268705
Training time: 1.0
		
Iteration: 32
Labeled set size: 1432
Unlabelled set size: 2630
	
Mean region size: 51.90792712949286
Incorrectly Classified Instances: 0.6154603643525357
Correctly Classified Instances: 99.38453963564747
Weighted Precision: 0.993917667418517
Weighted AreaUnderROC: 0.9997575026118837
Root mean squared error: 0.07042474145732179
Relative absolute error: 2.328981566607643
Root relative squared error: 14.084948291464357
Weighted TruePositiveRate: 0.9938453963564746
Weighted MatthewsCorrelation: 0.9877445004521075
Weighted FMeasure: 0.9938437989085503
Iteration time: 21.0
Weighted AreaUnderPRC: 0.9997607734295273
Mean absolute error: 0.011644907833038216
Coverage of cases: 99.8769079271295
Instances selection time: 21.0
Test time: 39.0
Accumulative iteration time: 756.0
Weighted Recall: 0.9938453963564746
Weighted FalsePositiveRate: 0.006613527102133479
Kappa statistic: 0.9876694075268705
Training time: 0.0
		
Iteration: 33
Labeled set size: 1452
Unlabelled set size: 2610
	
Mean region size: 51.89561792220581
Incorrectly Classified Instances: 0.5908419497784343
Correctly Classified Instances: 99.40915805022156
Weighted Precision: 0.9941582168123411
Weighted AreaUnderROC: 0.9997565316513709
Root mean squared error: 0.07033824852207061
Relative absolute error: 2.3486870503202213
Root relative squared error: 14.067649704414123
Weighted TruePositiveRate: 0.9940915805022157
Weighted MatthewsCorrelation: 0.9882320782139375
Weighted FMeasure: 0.9940901169339131
Iteration time: 22.0
Weighted AreaUnderPRC: 0.9997598123342377
Mean absolute error: 0.011743435251601106
Coverage of cases: 99.8769079271295
Instances selection time: 21.0
Test time: 39.0
Accumulative iteration time: 778.0
Weighted Recall: 0.9940915805022157
Weighted FalsePositiveRate: 0.006348986018048139
Kappa statistic: 0.9881628410735622
Training time: 1.0
		
Iteration: 34
Labeled set size: 1472
Unlabelled set size: 2590
	
Mean region size: 51.944854751354015
Incorrectly Classified Instances: 0.5908419497784343
Correctly Classified Instances: 99.40915805022156
Weighted Precision: 0.9941582168123411
Weighted AreaUnderROC: 0.9997674549571418
Root mean squared error: 0.06990098501206297
Relative absolute error: 2.3283749102552043
Root relative squared error: 13.980197002412595
Weighted TruePositiveRate: 0.9940915805022157
Weighted MatthewsCorrelation: 0.9882320782139375
Weighted FMeasure: 0.9940901169339131
Iteration time: 21.0
Weighted AreaUnderPRC: 0.999770577530743
Mean absolute error: 0.011641874551276021
Coverage of cases: 99.8769079271295
Instances selection time: 20.0
Test time: 39.0
Accumulative iteration time: 799.0
Weighted Recall: 0.9940915805022157
Weighted FalsePositiveRate: 0.006348986018048139
Kappa statistic: 0.9881628410735622
Training time: 1.0
		
Iteration: 35
Labeled set size: 1492
Unlabelled set size: 2570
	
Mean region size: 51.89561792220581
Incorrectly Classified Instances: 0.5908419497784343
Correctly Classified Instances: 99.40915805022156
Weighted Precision: 0.9941582168123411
Weighted AreaUnderROC: 0.9997558034309861
Root mean squared error: 0.07076270292235973
Relative absolute error: 2.3740321719889925
Root relative squared error: 14.152540584471945
Weighted TruePositiveRate: 0.9940915805022157
Weighted MatthewsCorrelation: 0.9882320782139375
Weighted FMeasure: 0.9940901169339131
Iteration time: 21.0
Weighted AreaUnderPRC: 0.9997590525655612
Mean absolute error: 0.011870160859944962
Coverage of cases: 99.8769079271295
Instances selection time: 20.0
Test time: 39.0
Accumulative iteration time: 820.0
Weighted Recall: 0.9940915805022157
Weighted FalsePositiveRate: 0.006348986018048139
Kappa statistic: 0.9881628410735622
Training time: 1.0
		
Iteration: 36
Labeled set size: 1512
Unlabelled set size: 2550
	
Mean region size: 51.90792712949286
Incorrectly Classified Instances: 0.5908419497784343
Correctly Classified Instances: 99.40915805022156
Weighted Precision: 0.9941582168123411
Weighted AreaUnderROC: 0.9997718242794501
Root mean squared error: 0.06974396307979526
Relative absolute error: 2.330148806826422
Root relative squared error: 13.948792615959052
Weighted TruePositiveRate: 0.9940915805022157
Weighted MatthewsCorrelation: 0.9882320782139375
Weighted FMeasure: 0.9940901169339131
Iteration time: 21.0
Weighted AreaUnderPRC: 0.9997748675764613
Mean absolute error: 0.01165074403413211
Coverage of cases: 99.8769079271295
Instances selection time: 20.0
Test time: 40.0
Accumulative iteration time: 841.0
Weighted Recall: 0.9940915805022157
Weighted FalsePositiveRate: 0.006348986018048139
Kappa statistic: 0.9881628410735622
Training time: 1.0
		
Iteration: 37
Labeled set size: 1532
Unlabelled set size: 2530
	
Mean region size: 51.89561792220581
Incorrectly Classified Instances: 0.5416051206302314
Correctly Classified Instances: 99.45839487936976
Weighted Precision: 0.9946399944788052
Weighted AreaUnderROC: 0.9997650275558594
Root mean squared error: 0.07022718618566134
Relative absolute error: 2.375549142720141
Root relative squared error: 14.045437237132269
Weighted TruePositiveRate: 0.9945839487936977
Weighted MatthewsCorrelation: 0.9892078871067993
Weighted FMeasure: 0.9945827335079359
Iteration time: 21.0
Weighted AreaUnderPRC: 0.9997681155074488
Mean absolute error: 0.011877745713600705
Coverage of cases: 99.8769079271295
Instances selection time: 20.0
Test time: 39.0
Accumulative iteration time: 862.0
Weighted Recall: 0.9945839487936977
Weighted FalsePositiveRate: 0.005819903849877461
Kappa statistic: 0.989149655684544
Training time: 1.0
		
Iteration: 38
Labeled set size: 1552
Unlabelled set size: 2510
	
Mean region size: 51.92023633677991
Incorrectly Classified Instances: 0.6154603643525357
Correctly Classified Instances: 99.38453963564747
Weighted Precision: 0.9939063599572701
Weighted AreaUnderROC: 0.9997482784870104
Root mean squared error: 0.07189213433045408
Relative absolute error: 2.426272413307812
Root relative squared error: 14.378426866090816
Weighted TruePositiveRate: 0.9938453963564746
Weighted MatthewsCorrelation: 0.9877333977614715
Weighted FMeasure: 0.993843943953261
Iteration time: 21.0
Weighted AreaUnderPRC: 0.99975151345334
Mean absolute error: 0.012131362066539059
Coverage of cases: 99.8769079271295
Instances selection time: 20.0
Test time: 39.0
Accumulative iteration time: 883.0
Weighted Recall: 0.9938453963564746
Weighted FalsePositiveRate: 0.006578087043409787
Kappa statistic: 0.9876698447019672
Training time: 1.0
		
Iteration: 39
Labeled set size: 1572
Unlabelled set size: 2490
	
Mean region size: 51.92023633677991
Incorrectly Classified Instances: 0.5908419497784343
Correctly Classified Instances: 99.40915805022156
Weighted Precision: 0.9941473761713538
Weighted AreaUnderROC: 0.9997609009736791
Root mean squared error: 0.0709619455671236
Relative absolute error: 2.4002411052919093
Root relative squared error: 14.192389113424719
Weighted TruePositiveRate: 0.9940915805022157
Weighted MatthewsCorrelation: 0.988221434099779
Weighted FMeasure: 0.9940902547359302
Iteration time: 21.0
Weighted AreaUnderPRC: 0.9997639815790789
Mean absolute error: 0.012001205526459545
Coverage of cases: 99.8769079271295
Instances selection time: 20.0
Test time: 39.0
Accumulative iteration time: 904.0
Weighted Recall: 0.9940915805022157
Weighted FalsePositiveRate: 0.006313545959324447
Kappa statistic: 0.9881632607467753
Training time: 1.0
		
Iteration: 40
Labeled set size: 1592
Unlabelled set size: 2470
	
Mean region size: 51.93254554406696
Incorrectly Classified Instances: 0.5662235352043329
Correctly Classified Instances: 99.43377646479567
Weighted Precision: 0.9943886189702659
Weighted AreaUnderROC: 0.9997604154934228
Root mean squared error: 0.07076836607649349
Relative absolute error: 2.403701867803618
Root relative squared error: 14.153673215298697
Weighted TruePositiveRate: 0.9943377646479566
Weighted MatthewsCorrelation: 0.9887096885272018
Weighted FMeasure: 0.9943365591165321
Iteration time: 20.0
Weighted AreaUnderPRC: 0.9997635548313735
Mean absolute error: 0.012018509339018092
Coverage of cases: 99.8769079271295
Instances selection time: 19.0
Test time: 40.0
Accumulative iteration time: 924.0
Weighted Recall: 0.9943377646479566
Weighted FalsePositiveRate: 0.006049004875239108
Kappa statistic: 0.9886566592983801
Training time: 1.0
		
Iteration: 41
Labeled set size: 1612
Unlabelled set size: 2450
	
Mean region size: 51.93254554406696
Incorrectly Classified Instances: 0.5662235352043329
Correctly Classified Instances: 99.43377646479567
Weighted Precision: 0.9943886189702659
Weighted AreaUnderROC: 0.9997684259176548
Root mean squared error: 0.0701663136276507
Relative absolute error: 2.3811584825189964
Root relative squared error: 14.033262725530141
Weighted TruePositiveRate: 0.9943377646479566
Weighted MatthewsCorrelation: 0.9887096885272018
Weighted FMeasure: 0.9943365591165321
Iteration time: 20.0
Weighted AreaUnderPRC: 0.9997714535976162
Mean absolute error: 0.011905792412594983
Coverage of cases: 99.8769079271295
Instances selection time: 18.0
Test time: 40.0
Accumulative iteration time: 944.0
Weighted Recall: 0.9943377646479566
Weighted FalsePositiveRate: 0.006049004875239108
Kappa statistic: 0.9886566592983801
Training time: 2.0
		
Iteration: 42
Labeled set size: 1632
Unlabelled set size: 2430
	
Mean region size: 51.92023633677991
Incorrectly Classified Instances: 0.6400787789266371
Correctly Classified Instances: 99.35992122107336
Weighted Precision: 0.9936449071276184
Weighted AreaUnderROC: 0.9997536187698318
Root mean squared error: 0.07149334443469961
Relative absolute error: 2.4382497064396067
Root relative squared error: 14.298668886939922
Weighted TruePositiveRate: 0.9935992122107337
Weighted MatthewsCorrelation: 0.9872253454632547
Weighted FMeasure: 0.9935979221279315
Iteration time: 19.0
Weighted AreaUnderPRC: 0.9997567794865756
Mean absolute error: 0.012191248532198034
Coverage of cases: 99.8769079271295
Instances selection time: 18.0
Test time: 40.0
Accumulative iteration time: 963.0
Weighted Recall: 0.9935992122107337
Weighted FalsePositiveRate: 0.006771748010047742
Kappa statistic: 0.9871773204227507
Training time: 1.0
		
Iteration: 43
Labeled set size: 1652
Unlabelled set size: 2410
	
Mean region size: 51.93254554406696
Incorrectly Classified Instances: 0.6154603643525357
Correctly Classified Instances: 99.38453963564747
Weighted Precision: 0.9938866308703904
Weighted AreaUnderROC: 0.9997613864539356
Root mean squared error: 0.07111903894378722
Relative absolute error: 2.418967763368541
Root relative squared error: 14.223807788757444
Weighted TruePositiveRate: 0.9938453963564746
Weighted MatthewsCorrelation: 0.9877140813752142
Weighted FMeasure: 0.9938442250380326
Iteration time: 20.0
Weighted AreaUnderPRC: 0.9997644132145189
Mean absolute error: 0.012094838816842705
Coverage of cases: 99.8769079271295
Instances selection time: 19.0
Test time: 39.0
Accumulative iteration time: 983.0
Weighted Recall: 0.9938453963564746
Weighted FalsePositiveRate: 0.006507206925962403
Kappa statistic: 0.9876707189591682
Training time: 1.0
		
Iteration: 44
Labeled set size: 1672
Unlabelled set size: 2390
	
Mean region size: 51.944854751354015
Incorrectly Classified Instances: 0.6154603643525357
Correctly Classified Instances: 99.38453963564747
Weighted Precision: 0.9938866308703904
Weighted AreaUnderROC: 0.9997521623290624
Root mean squared error: 0.07191063882689791
Relative absolute error: 2.4576443542961885
Root relative squared error: 14.382127765379582
Weighted TruePositiveRate: 0.9938453963564746
Weighted MatthewsCorrelation: 0.9877140813752142
Weighted FMeasure: 0.9938442250380326
Iteration time: 19.0
Weighted AreaUnderPRC: 0.9997553207709674
Mean absolute error: 0.012288221771480942
Coverage of cases: 99.8769079271295
Instances selection time: 18.0
Test time: 39.0
Accumulative iteration time: 1002.0
Weighted Recall: 0.9938453963564746
Weighted FalsePositiveRate: 0.006507206925962403
Kappa statistic: 0.9876707189591682
Training time: 1.0
		
Iteration: 45
Labeled set size: 1692
Unlabelled set size: 2370
	
Mean region size: 51.95716395864106
Incorrectly Classified Instances: 0.5908419497784343
Correctly Classified Instances: 99.40915805022156
Weighted Precision: 0.9941285816800732
Weighted AreaUnderROC: 0.9997628428947052
Root mean squared error: 0.07135642166678163
Relative absolute error: 2.4428941344795274
Root relative squared error: 14.271284333356327
Weighted TruePositiveRate: 0.9940915805022157
Weighted MatthewsCorrelation: 0.9882030358704932
Weighted FMeasure: 0.9940905216963262
Iteration time: 20.0
Weighted AreaUnderPRC: 0.9997658296375104
Mean absolute error: 0.012214470672397637
Coverage of cases: 99.9015263417036
Instances selection time: 18.0
Test time: 40.0
Accumulative iteration time: 1022.0
Weighted Recall: 0.9940915805022157
Weighted FalsePositiveRate: 0.006242665841877065
Kappa statistic: 0.9881641000039337
Training time: 2.0
		
Iteration: 46
Labeled set size: 1712
Unlabelled set size: 2350
	
Mean region size: 51.969473165928115
Incorrectly Classified Instances: 0.6154603643525357
Correctly Classified Instances: 99.38453963564747
Weighted Precision: 0.9938782086026071
Weighted AreaUnderROC: 0.9997572598717557
Root mean squared error: 0.07209726089279064
Relative absolute error: 2.474640510641055
Root relative squared error: 14.419452178558128
Weighted TruePositiveRate: 0.9938453963564746
Weighted MatthewsCorrelation: 0.9877058670956966
Weighted FMeasure: 0.9938443610792335
Iteration time: 19.0
Weighted AreaUnderPRC: 0.9997602847363171
Mean absolute error: 0.012373202553205277
Coverage of cases: 99.9015263417036
Instances selection time: 18.0
Test time: 40.0
Accumulative iteration time: 1041.0
Weighted Recall: 0.9938453963564746
Weighted FalsePositiveRate: 0.006471766867238713
Kappa statistic: 0.9876711560412792
Training time: 1.0
		
Time end:Wed Nov 01 06.07.19 EET 2017