Sun Oct 08 05.15.51 EEST 2017
Dataset: sick
Test set size: 1886
Initial Labelled set size: 377
Initial Unlabelled set size: 1509
Batch mode: QBestBatchMode
Batch size: 20
Classifiers: NaiveBayes-1cores
Scenario: PoolBasedSamplingScenario
Query strategy: EntropySamplingQueryStrategy-1cores
Time begining: Sun Oct 08 05.15.51 EEST 2017
		
Iteration: 1
Labeled set size: 377
Unlabelled set size: 1509
	
Mean region size: 56.54825026511135
Incorrectly Classified Instances: 4.135737009544009
Correctly Classified Instances: 95.864262990456
Weighted Precision: 0.9583099442692016
Weighted AreaUnderROC: 0.8947094493408293
Root mean squared error: 0.17260052559316694
Relative absolute error: 10.558061808768036
Root relative squared error: 34.52010511863339
Weighted TruePositiveRate: 0.95864262990456
Weighted MatthewsCorrelation: 0.6359152253292418
Weighted FMeasure: 0.9584729076172787
Iteration time: 445.0
Weighted AreaUnderPRC: 0.9706194671661039
Mean absolute error: 0.05279030904384018
Coverage of cases: 99.09862142099682
Instances selection time: 252.0
Test time: 252.0
Accumulative iteration time: 445.0
Weighted Recall: 0.95864262990456
Weighted FalsePositiveRate: 0.3279255209265814
Kappa statistic: 0.6358875099624277
Training time: 193.0
		
Iteration: 2
Labeled set size: 397
Unlabelled set size: 1489
	
Mean region size: 57.37009544008484
Incorrectly Classified Instances: 3.9236479321314954
Correctly Classified Instances: 96.0763520678685
Weighted Precision: 0.9635375375088651
Weighted AreaUnderROC: 0.9037488031816955
Root mean squared error: 0.17746326422007921
Relative absolute error: 11.289485476595239
Root relative squared error: 35.49265284401584
Weighted TruePositiveRate: 0.9607635206786851
Weighted MatthewsCorrelation: 0.6799418581118045
Weighted FMeasure: 0.9619504816715779
Iteration time: 104.0
Weighted AreaUnderPRC: 0.9730545290814652
Mean absolute error: 0.056447427382976194
Coverage of cases: 99.09862142099682
Instances selection time: 92.0
Test time: 123.0
Accumulative iteration time: 549.0
Weighted Recall: 0.9607635206786851
Weighted FalsePositiveRate: 0.23834680695762347
Kappa statistic: 0.6782949846251728
Training time: 12.0
		
Iteration: 3
Labeled set size: 417
Unlabelled set size: 1469
	
Mean region size: 57.3966065747614
Incorrectly Classified Instances: 3.9236479321314954
Correctly Classified Instances: 96.0763520678685
Weighted Precision: 0.9631686903360278
Weighted AreaUnderROC: 0.902810988633295
Root mean squared error: 0.17150727193287993
Relative absolute error: 10.940082804413455
Root relative squared error: 34.30145438657598
Weighted TruePositiveRate: 0.9607635206786851
Weighted MatthewsCorrelation: 0.6770947231554525
Weighted FMeasure: 0.9618113072231425
Iteration time: 68.0
Weighted AreaUnderPRC: 0.9738124797099903
Mean absolute error: 0.054700414022067274
Coverage of cases: 99.09862142099682
Instances selection time: 62.0
Test time: 168.0
Accumulative iteration time: 617.0
Weighted Recall: 0.9607635206786851
Weighted FalsePositiveRate: 0.24647780639297076
Kappa statistic: 0.6758200662463941
Training time: 6.0
		
Iteration: 4
Labeled set size: 437
Unlabelled set size: 1449
	
Mean region size: 57.47613997879109
Incorrectly Classified Instances: 3.9236479321314954
Correctly Classified Instances: 96.0763520678685
Weighted Precision: 0.9642919235207962
Weighted AreaUnderROC: 0.9047209878967913
Root mean squared error: 0.17309931927470878
Relative absolute error: 11.218074698700669
Root relative squared error: 34.619863854941755
Weighted TruePositiveRate: 0.9607635206786851
Weighted MatthewsCorrelation: 0.6856521261980871
Weighted FMeasure: 0.9622215758784504
Iteration time: 326.0
Weighted AreaUnderPRC: 0.9755321862888535
Mean absolute error: 0.05609037349350334
Coverage of cases: 99.15164369034994
Instances selection time: 298.0
Test time: 98.0
Accumulative iteration time: 943.0
Weighted Recall: 0.9607635206786851
Weighted FalsePositiveRate: 0.222084808086929
Kappa statistic: 0.6831331592689299
Training time: 28.0
		
Iteration: 5
Labeled set size: 457
Unlabelled set size: 1429
	
Mean region size: 56.09756097560975
Incorrectly Classified Instances: 4.984093319194061
Correctly Classified Instances: 95.01590668080594
Weighted Precision: 0.9485760281315598
Weighted AreaUnderROC: 0.8942233569832813
Root mean squared error: 0.2025860412502835
Relative absolute error: 12.470378194691657
Root relative squared error: 40.517208250056704
Weighted TruePositiveRate: 0.9501590668080594
Weighted MatthewsCorrelation: 0.5505378875589465
Weighted FMeasure: 0.9493171907737349
Iteration time: 64.0
Weighted AreaUnderPRC: 0.954788976352467
Mean absolute error: 0.062351890973458286
Coverage of cases: 97.98515376458113
Instances selection time: 48.0
Test time: 99.0
Accumulative iteration time: 1007.0
Weighted Recall: 0.9501590668080594
Weighted FalsePositiveRate: 0.41791739543595324
Kappa statistic: 0.550134236021945
Training time: 16.0
		
Iteration: 6
Labeled set size: 477
Unlabelled set size: 1409
	
Mean region size: 56.52173913043478
Incorrectly Classified Instances: 4.878048780487805
Correctly Classified Instances: 95.1219512195122
Weighted Precision: 0.9545328637862617
Weighted AreaUnderROC: 0.8952200918174454
Root mean squared error: 0.19990667956656716
Relative absolute error: 12.610568363634531
Root relative squared error: 39.98133591331343
Weighted TruePositiveRate: 0.9512195121951219
Weighted MatthewsCorrelation: 0.6014992926457249
Weighted FMeasure: 0.9526951934295292
Iteration time: 55.0
Weighted AreaUnderPRC: 0.9558295993277931
Mean absolute error: 0.06305284181817265
Coverage of cases: 98.03817603393425
Instances selection time: 44.0
Test time: 80.0
Accumulative iteration time: 1062.0
Weighted Recall: 0.9512195121951219
Weighted FalsePositiveRate: 0.3121455426863698
Kappa statistic: 0.6000424133177816
Training time: 11.0
		
Iteration: 7
Labeled set size: 497
Unlabelled set size: 1389
	
Mean region size: 56.813361611876985
Incorrectly Classified Instances: 4.665959703075291
Correctly Classified Instances: 95.33404029692471
Weighted Precision: 0.9565339023912847
Weighted AreaUnderROC: 0.8970613507475511
Root mean squared error: 0.1922772226293571
Relative absolute error: 12.049624170605759
Root relative squared error: 38.45544452587142
Weighted TruePositiveRate: 0.953340402969247
Weighted MatthewsCorrelation: 0.6189309738604093
Weighted FMeasure: 0.9547519241499846
Iteration time: 55.0
Weighted AreaUnderPRC: 0.9577987584748525
Mean absolute error: 0.06024812085302879
Coverage of cases: 98.3032873806999
Instances selection time: 43.0
Test time: 78.0
Accumulative iteration time: 1117.0
Weighted Recall: 0.953340402969247
Weighted FalsePositiveRate: 0.29574582363553736
Kappa statistic: 0.6174318736083129
Training time: 12.0
		
Iteration: 8
Labeled set size: 517
Unlabelled set size: 1369
	
Mean region size: 57.21102863202545
Incorrectly Classified Instances: 3.9766702014846236
Correctly Classified Instances: 96.02332979851538
Weighted Precision: 0.9621176926054974
Weighted AreaUnderROC: 0.9037389831340682
Root mean squared error: 0.17733252156341114
Relative absolute error: 11.227506699607087
Root relative squared error: 35.466504312682225
Weighted TruePositiveRate: 0.9602332979851538
Weighted MatthewsCorrelation: 0.6683982683982683
Weighted FMeasure: 0.9610788949243664
Iteration time: 50.0
Weighted AreaUnderPRC: 0.9663133169779171
Mean absolute error: 0.056137533498035436
Coverage of cases: 98.93955461293743
Instances selection time: 42.0
Test time: 82.0
Accumulative iteration time: 1167.0
Weighted Recall: 0.9602332979851538
Weighted FalsePositiveRate: 0.2627742353086998
Kappa statistic: 0.6676035023240732
Training time: 8.0
		
Iteration: 9
Labeled set size: 537
Unlabelled set size: 1349
	
Mean region size: 57.52916224814422
Incorrectly Classified Instances: 3.552492046659597
Correctly Classified Instances: 96.4475079533404
Weighted Precision: 0.9649180974898942
Weighted AreaUnderROC: 0.9089976186384503
Root mean squared error: 0.16400570390912217
Relative absolute error: 10.334374803156663
Root relative squared error: 32.80114078182444
Weighted TruePositiveRate: 0.9644750795334041
Weighted MatthewsCorrelation: 0.6935831072917922
Weighted FMeasure: 0.9646887235522811
Iteration time: 61.0
Weighted AreaUnderPRC: 0.9755331153132177
Mean absolute error: 0.05167187401578332
Coverage of cases: 99.20466595970308
Instances selection time: 49.0
Test time: 70.0
Accumulative iteration time: 1228.0
Weighted Recall: 0.9644750795334041
Weighted FalsePositiveRate: 0.26249879494842376
Kappa statistic: 0.6935177953810109
Training time: 12.0
		
Iteration: 10
Labeled set size: 557
Unlabelled set size: 1329
	
Mean region size: 57.44962884411453
Incorrectly Classified Instances: 3.3404029692470836
Correctly Classified Instances: 96.65959703075292
Weighted Precision: 0.9667329522506214
Weighted AreaUnderROC: 0.909832322686765
Root mean squared error: 0.1602935572280251
Relative absolute error: 10.11184420883318
Root relative squared error: 32.05871144560502
Weighted TruePositiveRate: 0.9665959703075292
Weighted MatthewsCorrelation: 0.709489041845742
Weighted FMeasure: 0.966663556651227
Iteration time: 46.0
Weighted AreaUnderPRC: 0.9768861433424941
Mean absolute error: 0.050559221044165895
Coverage of cases: 99.20466595970308
Instances selection time: 43.0
Test time: 79.0
Accumulative iteration time: 1274.0
Weighted Recall: 0.9665959703075292
Weighted FalsePositiveRate: 0.2542300753329385
Kappa statistic: 0.7094814981441909
Training time: 3.0
		
Iteration: 11
Labeled set size: 577
Unlabelled set size: 1309
	
Mean region size: 57.21102863202545
Incorrectly Classified Instances: 3.4464475079533403
Correctly Classified Instances: 96.55355249204666
Weighted Precision: 0.9662637304459114
Weighted AreaUnderROC: 0.9106179264969435
Root mean squared error: 0.16319473885256658
Relative absolute error: 10.27273798795336
Root relative squared error: 32.63894777051332
Weighted TruePositiveRate: 0.9655355249204666
Weighted MatthewsCorrelation: 0.7052175229622581
Weighted FMeasure: 0.9658778083097815
Iteration time: 46.0
Weighted AreaUnderPRC: 0.9772153101252156
Mean absolute error: 0.051363689939766796
Coverage of cases: 99.20466595970308
Instances selection time: 38.0
Test time: 48.0
Accumulative iteration time: 1320.0
Weighted Recall: 0.9655355249204666
Weighted FalsePositiveRate: 0.24616793598766026
Kappa statistic: 0.7050359712230214
Training time: 8.0
		
Iteration: 12
Labeled set size: 597
Unlabelled set size: 1289
	
Mean region size: 57.237539766702014
Incorrectly Classified Instances: 3.4464475079533403
Correctly Classified Instances: 96.55355249204666
Weighted Precision: 0.9659659623381263
Weighted AreaUnderROC: 0.910701396901775
Root mean squared error: 0.16115951208305399
Relative absolute error: 10.11172618452567
Root relative squared error: 32.231902416610794
Weighted TruePositiveRate: 0.9655355249204666
Weighted MatthewsCorrelation: 0.7027326913969928
Weighted FMeasure: 0.9657427915059443
Iteration time: 43.0
Weighted AreaUnderPRC: 0.9773155273876276
Mean absolute error: 0.05055863092262835
Coverage of cases: 99.20466595970308
Instances selection time: 36.0
Test time: 68.0
Accumulative iteration time: 1363.0
Weighted Recall: 0.9655355249204666
Weighted FalsePositiveRate: 0.2542989354230075
Kappa statistic: 0.7026665179069504
Training time: 7.0
		
Iteration: 13
Labeled set size: 617
Unlabelled set size: 1269
	
Mean region size: 57.07847295864263
Incorrectly Classified Instances: 3.393425238600212
Correctly Classified Instances: 96.60657476139978
Weighted Precision: 0.9663462643236251
Weighted AreaUnderROC: 0.9105933763778755
Root mean squared error: 0.16046657285359994
Relative absolute error: 9.89021058329346
Root relative squared error: 32.09331457071999
Weighted TruePositiveRate: 0.9660657476139979
Weighted MatthewsCorrelation: 0.7060900556049619
Weighted FMeasure: 0.9662024299962462
Iteration time: 44.0
Weighted AreaUnderPRC: 0.9775274284614555
Mean absolute error: 0.0494510529164673
Coverage of cases: 99.20466595970308
Instances selection time: 40.0
Test time: 65.0
Accumulative iteration time: 1407.0
Weighted Recall: 0.9660657476139979
Weighted FalsePositiveRate: 0.254264505377973
Kappa statistic: 0.7060602666069228
Training time: 4.0
		
Iteration: 14
Labeled set size: 637
Unlabelled set size: 1249
	
Mean region size: 57.07847295864263
Incorrectly Classified Instances: 3.3404029692470836
Correctly Classified Instances: 96.65959703075292
Weighted Precision: 0.9667329522506214
Weighted AreaUnderROC: 0.9102054844965998
Root mean squared error: 0.16098836788240742
Relative absolute error: 9.920595056964968
Root relative squared error: 32.197673576481485
Weighted TruePositiveRate: 0.9665959703075292
Weighted MatthewsCorrelation: 0.709489041845742
Weighted FMeasure: 0.966663556651227
Iteration time: 50.0
Weighted AreaUnderPRC: 0.9770106601842193
Mean absolute error: 0.04960297528482484
Coverage of cases: 99.2576882290562
Instances selection time: 35.0
Test time: 69.0
Accumulative iteration time: 1457.0
Weighted Recall: 0.9665959703075292
Weighted FalsePositiveRate: 0.2542300753329385
Kappa statistic: 0.7094814981441909
Training time: 15.0
		
Iteration: 15
Labeled set size: 657
Unlabelled set size: 1229
	
Mean region size: 56.866383881230114
Incorrectly Classified Instances: 3.3404029692470836
Correctly Classified Instances: 96.65959703075292
Weighted Precision: 0.9664613620711472
Weighted AreaUnderROC: 0.9103282350919402
Root mean squared error: 0.15938464779382783
Relative absolute error: 9.68491519678075
Root relative squared error: 31.876929558765564
Weighted TruePositiveRate: 0.9665959703075292
Weighted MatthewsCorrelation: 0.707117291370331
Weighted FMeasure: 0.9665277498331817
Iteration time: 49.0
Weighted AreaUnderPRC: 0.9772602152934902
Mean absolute error: 0.048424575983903755
Coverage of cases: 99.20466595970308
Instances selection time: 33.0
Test time: 49.0
Accumulative iteration time: 1506.0
Weighted Recall: 0.9665959703075292
Weighted FalsePositiveRate: 0.2623610747682858
Kappa statistic: 0.7071096496201386
Training time: 16.0
		
Iteration: 16
Labeled set size: 677
Unlabelled set size: 1209
	
Mean region size: 56.46871686108165
Incorrectly Classified Instances: 3.2343584305408273
Correctly Classified Instances: 96.76564156945918
Weighted Precision: 0.967273239278938
Weighted AreaUnderROC: 0.9094493408293031
Root mean squared error: 0.15963455426849235
Relative absolute error: 9.445466219319284
Root relative squared error: 31.92691085369847
Weighted TruePositiveRate: 0.9676564156945917
Weighted MatthewsCorrelation: 0.7141440070856786
Weighted FMeasure: 0.9674563771479162
Iteration time: 48.0
Weighted AreaUnderPRC: 0.9768728147977997
Mean absolute error: 0.04722733109659642
Coverage of cases: 99.20466595970308
Instances selection time: 31.0
Test time: 62.0
Accumulative iteration time: 1554.0
Weighted Recall: 0.9676564156945917
Weighted FalsePositiveRate: 0.2622922146782168
Kappa statistic: 0.7140733965931175
Training time: 17.0
		
Iteration: 17
Labeled set size: 697
Unlabelled set size: 1189
	
Mean region size: 56.38918345705196
Incorrectly Classified Instances: 3.2343584305408273
Correctly Classified Instances: 96.76564156945918
Weighted Precision: 0.967273239278938
Weighted AreaUnderROC: 0.9096948420199839
Root mean squared error: 0.1588128322790889
Relative absolute error: 9.31121649213768
Root relative squared error: 31.76256645581778
Weighted TruePositiveRate: 0.9676564156945917
Weighted MatthewsCorrelation: 0.7141440070856786
Weighted FMeasure: 0.9674563771479162
Iteration time: 49.0
Weighted AreaUnderPRC: 0.9768514127425014
Mean absolute error: 0.0465560824606884
Coverage of cases: 99.20466595970308
Instances selection time: 37.0
Test time: 56.0
Accumulative iteration time: 1603.0
Weighted Recall: 0.9676564156945917
Weighted FalsePositiveRate: 0.2622922146782168
Kappa statistic: 0.7140733965931175
Training time: 12.0
		
Iteration: 18
Labeled set size: 717
Unlabelled set size: 1169
	
Mean region size: 56.52173913043478
Incorrectly Classified Instances: 3.3404029692470836
Correctly Classified Instances: 96.65959703075292
Weighted Precision: 0.9667329522506214
Weighted AreaUnderROC: 0.9102693148061767
Root mean squared error: 0.16161689807824678
Relative absolute error: 9.623520579029778
Root relative squared error: 32.32337961564936
Weighted TruePositiveRate: 0.9665959703075292
Weighted MatthewsCorrelation: 0.709489041845742
Weighted FMeasure: 0.966663556651227
Iteration time: 28.0
Weighted AreaUnderPRC: 0.9772445433478566
Mean absolute error: 0.04811760289514889
Coverage of cases: 99.2576882290562
Instances selection time: 21.0
Test time: 56.0
Accumulative iteration time: 1631.0
Weighted Recall: 0.9665959703075292
Weighted FalsePositiveRate: 0.2542300753329385
Kappa statistic: 0.7094814981441909
Training time: 7.0
		
Iteration: 19
Labeled set size: 737
Unlabelled set size: 1149
	
Mean region size: 56.415694591728524
Incorrectly Classified Instances: 3.2873806998939554
Correctly Classified Instances: 96.71261930010604
Weighted Precision: 0.9671261930010604
Weighted AreaUnderROC: 0.9104362556158397
Root mean squared error: 0.16063923583062706
Relative absolute error: 9.478096702901206
Root relative squared error: 32.12784716612541
Weighted TruePositiveRate: 0.9671261930010604
Weighted MatthewsCorrelation: 0.7129305477131566
Weighted FMeasure: 0.9671261930010604
Iteration time: 31.0
Weighted AreaUnderPRC: 0.9771693014314708
Mean absolute error: 0.04739048351450603
Coverage of cases: 99.2576882290562
Instances selection time: 28.0
Test time: 66.0
Accumulative iteration time: 1662.0
Weighted Recall: 0.9671261930010604
Weighted FalsePositiveRate: 0.254195645287904
Kappa statistic: 0.7129305477131559
Training time: 3.0
		
Iteration: 20
Labeled set size: 757
Unlabelled set size: 1129
	
Mean region size: 56.38918345705196
Incorrectly Classified Instances: 3.2873806998939554
Correctly Classified Instances: 96.71261930010604
Weighted Precision: 0.9666115170477932
Weighted AreaUnderROC: 0.9105688262588073
Root mean squared error: 0.15949169945188788
Relative absolute error: 9.371915257414035
Root relative squared error: 31.898339890377574
Weighted TruePositiveRate: 0.9671261930010604
Weighted MatthewsCorrelation: 0.7083105938938138
Weighted FMeasure: 0.9668538157013572
Iteration time: 37.0
Weighted AreaUnderPRC: 0.977290148645071
Mean absolute error: 0.04685957628707017
Coverage of cases: 99.20466595970308
Instances selection time: 33.0
Test time: 57.0
Accumulative iteration time: 1699.0
Weighted Recall: 0.9671261930010604
Weighted FalsePositiveRate: 0.2704576441585986
Kappa statistic: 0.7081850533807825
Training time: 4.0
		
Iteration: 21
Labeled set size: 777
Unlabelled set size: 1109
	
Mean region size: 56.44220572640509
Incorrectly Classified Instances: 3.3404029692470836
Correctly Classified Instances: 96.65959703075292
Weighted Precision: 0.9664613620711472
Weighted AreaUnderROC: 0.9105590062111801
Root mean squared error: 0.16086595279974672
Relative absolute error: 9.507212744446328
Root relative squared error: 32.17319055994935
Weighted TruePositiveRate: 0.9665959703075292
Weighted MatthewsCorrelation: 0.707117291370331
Weighted FMeasure: 0.9665277498331817
Iteration time: 36.0
Weighted AreaUnderPRC: 0.9772462837992119
Mean absolute error: 0.04753606372223164
Coverage of cases: 99.2576882290562
Instances selection time: 34.0
Test time: 55.0
Accumulative iteration time: 1735.0
Weighted Recall: 0.9665959703075292
Weighted FalsePositiveRate: 0.2623610747682858
Kappa statistic: 0.7071096496201386
Training time: 2.0
		
Iteration: 22
Labeled set size: 797
Unlabelled set size: 1089
	
Mean region size: 56.30965005302227
Incorrectly Classified Instances: 3.3404029692470836
Correctly Classified Instances: 96.65959703075292
Weighted Precision: 0.9664613620711472
Weighted AreaUnderROC: 0.9110549186163552
Root mean squared error: 0.16037980691407655
Relative absolute error: 9.427450069231533
Root relative squared error: 32.07596138281531
Weighted TruePositiveRate: 0.9665959703075292
Weighted MatthewsCorrelation: 0.707117291370331
Weighted FMeasure: 0.9665277498331817
Iteration time: 30.0
Weighted AreaUnderPRC: 0.9772889488548914
Mean absolute error: 0.047137250346157664
Coverage of cases: 99.2576882290562
Instances selection time: 28.0
Test time: 60.0
Accumulative iteration time: 1765.0
Weighted Recall: 0.9665959703075292
Weighted FalsePositiveRate: 0.2623610747682858
Kappa statistic: 0.7071096496201386
Training time: 2.0
		
Iteration: 23
Labeled set size: 817
Unlabelled set size: 1069
	
Mean region size: 56.283138918345706
Incorrectly Classified Instances: 3.2343584305408273
Correctly Classified Instances: 96.76564156945918
Weighted Precision: 0.967273239278938
Weighted AreaUnderROC: 0.9111776692116956
Root mean squared error: 0.15972255808509825
Relative absolute error: 9.325496859366094
Root relative squared error: 31.94451161701965
Weighted TruePositiveRate: 0.9676564156945917
Weighted MatthewsCorrelation: 0.7141440070856786
Weighted FMeasure: 0.9674563771479162
Iteration time: 18.0
Weighted AreaUnderPRC: 0.9772204053385992
Mean absolute error: 0.046627484296830474
Coverage of cases: 99.2576882290562
Instances selection time: 15.0
Test time: 31.0
Accumulative iteration time: 1783.0
Weighted Recall: 0.9676564156945917
Weighted FalsePositiveRate: 0.2622922146782168
Kappa statistic: 0.7140733965931175
Training time: 3.0
		
Iteration: 24
Labeled set size: 837
Unlabelled set size: 1049
	
Mean region size: 56.20360551431601
Incorrectly Classified Instances: 3.1813361611876987
Correctly Classified Instances: 96.8186638388123
Weighted Precision: 0.9679330300333236
Weighted AreaUnderROC: 0.911187489259323
Root mean squared error: 0.1597851452161365
Relative absolute error: 9.277333577565754
Root relative squared error: 31.957029043227298
Weighted TruePositiveRate: 0.968186638388123
Weighted MatthewsCorrelation: 0.719944846867824
Weighted FMeasure: 0.9680560827825219
Iteration time: 19.0
Weighted AreaUnderPRC: 0.9769821881450876
Mean absolute error: 0.04638666788782877
Coverage of cases: 99.2576882290562
Instances selection time: 16.0
Test time: 62.0
Accumulative iteration time: 1802.0
Weighted Recall: 0.968186638388123
Weighted FalsePositiveRate: 0.25412678519783505
Kappa statistic: 0.7199134692018673
Training time: 3.0
		
Iteration: 25
Labeled set size: 857
Unlabelled set size: 1029
	
Mean region size: 56.12407211028632
Incorrectly Classified Instances: 3.1813361611876987
Correctly Classified Instances: 96.8186638388123
Weighted Precision: 0.9679330300333236
Weighted AreaUnderROC: 0.9114329904500036
Root mean squared error: 0.15956423136588926
Relative absolute error: 9.208370521616875
Root relative squared error: 31.912846273177852
Weighted TruePositiveRate: 0.968186638388123
Weighted MatthewsCorrelation: 0.719944846867824
Weighted FMeasure: 0.9680560827825219
Iteration time: 29.0
Weighted AreaUnderPRC: 0.9769514601766675
Mean absolute error: 0.046041852608084376
Coverage of cases: 99.2576882290562
Instances selection time: 26.0
Test time: 52.0
Accumulative iteration time: 1831.0
Weighted Recall: 0.968186638388123
Weighted FalsePositiveRate: 0.25412678519783505
Kappa statistic: 0.7199134692018673
Training time: 3.0
		
Iteration: 26
Labeled set size: 877
Unlabelled set size: 1009
	
Mean region size: 56.07104984093319
Incorrectly Classified Instances: 3.0752916224814424
Correctly Classified Instances: 96.92470837751856
Weighted Precision: 0.9687682323340173
Weighted AreaUnderROC: 0.9116539415216165
Root mean squared error: 0.15890346818360188
Relative absolute error: 9.133028117250513
Root relative squared error: 31.780693636720375
Weighted TruePositiveRate: 0.9692470837751855
Weighted MatthewsCorrelation: 0.7271407020796763
Weighted FMeasure: 0.9689922792044956
Iteration time: 25.0
Weighted AreaUnderPRC: 0.9769104952711486
Mean absolute error: 0.04566514058625256
Coverage of cases: 99.2576882290562
Instances selection time: 22.0
Test time: 36.0
Accumulative iteration time: 1856.0
Weighted Recall: 0.9692470837751855
Weighted FalsePositiveRate: 0.25405792510776604
Kappa statistic: 0.7270118241304095
Training time: 3.0
		
Iteration: 27
Labeled set size: 897
Unlabelled set size: 989
	
Mean region size: 56.04453870625663
Incorrectly Classified Instances: 3.0752916224814424
Correctly Classified Instances: 96.92470837751856
Weighted Precision: 0.9687682323340173
Weighted AreaUnderROC: 0.9097930424962561
Root mean squared error: 0.15849578838916428
Relative absolute error: 9.104984256431099
Root relative squared error: 31.699157677832858
Weighted TruePositiveRate: 0.9692470837751855
Weighted MatthewsCorrelation: 0.7271407020796763
Weighted FMeasure: 0.9689922792044956
Iteration time: 33.0
Weighted AreaUnderPRC: 0.9769579998539504
Mean absolute error: 0.04552492128215549
Coverage of cases: 99.20466595970308
Instances selection time: 30.0
Test time: 52.0
Accumulative iteration time: 1889.0
Weighted Recall: 0.9692470837751855
Weighted FalsePositiveRate: 0.25405792510776604
Kappa statistic: 0.7270118241304095
Training time: 3.0
		
Iteration: 28
Labeled set size: 917
Unlabelled set size: 969
	
Mean region size: 55.911983032873806
Incorrectly Classified Instances: 3.0752916224814424
Correctly Classified Instances: 96.92470837751856
Weighted Precision: 0.9687682323340173
Weighted AreaUnderROC: 0.9099845334249871
Root mean squared error: 0.15838957938992235
Relative absolute error: 9.03965480695242
Root relative squared error: 31.677915877984468
Weighted TruePositiveRate: 0.9692470837751855
Weighted MatthewsCorrelation: 0.7271407020796763
Weighted FMeasure: 0.9689922792044956
Iteration time: 32.0
Weighted AreaUnderPRC: 0.9768590958699955
Mean absolute error: 0.0451982740347621
Coverage of cases: 99.20466595970308
Instances selection time: 29.0
Test time: 55.0
Accumulative iteration time: 1921.0
Weighted Recall: 0.9692470837751855
Weighted FalsePositiveRate: 0.25405792510776604
Kappa statistic: 0.7270118241304095
Training time: 3.0
		
Iteration: 29
Labeled set size: 937
Unlabelled set size: 949
	
Mean region size: 55.885471898197245
Incorrectly Classified Instances: 3.1283138918345705
Correctly Classified Instances: 96.87168610816543
Weighted Precision: 0.9681139010407303
Weighted AreaUnderROC: 0.9103675152824491
Root mean squared error: 0.15835299243125817
Relative absolute error: 8.994746343747325
Root relative squared error: 31.670598486251635
Weighted TruePositiveRate: 0.9687168610816543
Weighted MatthewsCorrelation: 0.7213541787921813
Weighted FMeasure: 0.9683913196617164
Iteration time: 30.0
Weighted AreaUnderPRC: 0.9768632499861463
Mean absolute error: 0.04497373171873663
Coverage of cases: 99.20466595970308
Instances selection time: 27.0
Test time: 56.0
Accumulative iteration time: 1951.0
Weighted Recall: 0.9687168610816543
Weighted FalsePositiveRate: 0.26222335458814783
Kappa statistic: 0.7211527377521618
Training time: 3.0
		
Iteration: 30
Labeled set size: 957
Unlabelled set size: 929
	
Mean region size: 55.80593849416755
Incorrectly Classified Instances: 2.863202545068929
Correctly Classified Instances: 97.13679745493107
Weighted Precision: 0.9705301049795418
Weighted AreaUnderROC: 0.9121596739744189
Root mean squared error: 0.15252675259496734
Relative absolute error: 8.622102307303662
Root relative squared error: 30.505350518993467
Weighted TruePositiveRate: 0.9713679745493107
Weighted MatthewsCorrelation: 0.7421105876643299
Weighted FMeasure: 0.9708843436359753
Iteration time: 32.0
Weighted AreaUnderPRC: 0.978082859305314
Mean absolute error: 0.043110511536518306
Coverage of cases: 99.20466595970308
Instances selection time: 25.0
Test time: 63.0
Accumulative iteration time: 1983.0
Weighted Recall: 0.9713679745493107
Weighted FalsePositiveRate: 0.25392020492762807
Kappa statistic: 0.7415664760126063
Training time: 7.0
		
Iteration: 31
Labeled set size: 977
Unlabelled set size: 909
	
Mean region size: 55.80593849416755
Incorrectly Classified Instances: 2.757158006362672
Correctly Classified Instances: 97.24284199363733
Weighted Precision: 0.9714602648553156
Weighted AreaUnderROC: 0.9120614734981465
Root mean squared error: 0.152144004556282
Relative absolute error: 8.552772291090829
Root relative squared error: 30.4288009112564
Weighted TruePositiveRate: 0.9724284199363733
Weighted MatthewsCorrelation: 0.7499027551677327
Weighted FMeasure: 0.9718406044625557
Iteration time: 30.0
Weighted AreaUnderPRC: 0.9779392041739051
Mean absolute error: 0.04276386145545415
Coverage of cases: 99.20466595970308
Instances selection time: 27.0
Test time: 61.0
Accumulative iteration time: 2013.0
Weighted Recall: 0.9724284199363733
Weighted FalsePositiveRate: 0.25385134483755906
Kappa statistic: 0.7490288404944087
Training time: 3.0
		
Iteration: 32
Labeled set size: 997
Unlabelled set size: 889
	
Mean region size: 55.85896076352068
Incorrectly Classified Instances: 2.651113467656416
Correctly Classified Instances: 97.34888653234358
Weighted Precision: 0.9725682305351168
Weighted AreaUnderROC: 0.9128618073797657
Root mean squared error: 0.1513557194200599
Relative absolute error: 8.549744898366537
Root relative squared error: 30.27114388401198
Weighted TruePositiveRate: 0.9734888653234358
Weighted MatthewsCorrelation: 0.7595667542127988
Weighted FMeasure: 0.9729236581370728
Iteration time: 26.0
Weighted AreaUnderPRC: 0.9781118538744404
Mean absolute error: 0.04274872449183269
Coverage of cases: 99.20466595970308
Instances selection time: 22.0
Test time: 37.0
Accumulative iteration time: 2039.0
Weighted Recall: 0.9734888653234358
Weighted FalsePositiveRate: 0.2456514853121428
Kappa statistic: 0.7586815773984693
Training time: 4.0
		
Iteration: 33
Labeled set size: 1017
Unlabelled set size: 869
	
Mean region size: 55.83244962884412
Incorrectly Classified Instances: 2.757158006362672
Correctly Classified Instances: 97.24284199363733
Weighted Precision: 0.9716278088219409
Weighted AreaUnderROC: 0.9128372572606978
Root mean squared error: 0.1515736265092938
Relative absolute error: 8.54043723706538
Root relative squared error: 30.314725301858758
Weighted TruePositiveRate: 0.9724284199363733
Weighted MatthewsCorrelation: 0.751689222669599
Weighted FMeasure: 0.9719627012790872
Iteration time: 26.0
Weighted AreaUnderPRC: 0.9779794411396723
Mean absolute error: 0.042702186185326896
Coverage of cases: 99.20466595970308
Instances selection time: 23.0
Test time: 62.0
Accumulative iteration time: 2065.0
Weighted Recall: 0.9724284199363733
Weighted FalsePositiveRate: 0.2457203454022118
Kappa statistic: 0.7511380880121399
Training time: 3.0
		
Iteration: 34
Labeled set size: 1037
Unlabelled set size: 849
	
Mean region size: 56.04453870625663
Incorrectly Classified Instances: 2.704135737009544
Correctly Classified Instances: 97.29586426299046
Weighted Precision: 0.9720936726009193
Weighted AreaUnderROC: 0.9152137087864877
Root mean squared error: 0.1532795985954971
Relative absolute error: 8.806603079464995
Root relative squared error: 30.655919719099423
Weighted TruePositiveRate: 0.9729586426299046
Weighted MatthewsCorrelation: 0.755601077947429
Weighted FMeasure: 0.9724422948798082
Iteration time: 28.0
Weighted AreaUnderPRC: 0.9781027713561801
Mean absolute error: 0.04403301539732498
Coverage of cases: 99.20466595970308
Instances selection time: 25.0
Test time: 52.0
Accumulative iteration time: 2093.0
Weighted Recall: 0.9729586426299046
Weighted FalsePositiveRate: 0.2456859153571773
Kappa statistic: 0.75489391630524
Training time: 3.0
		
Iteration: 35
Labeled set size: 1057
Unlabelled set size: 829
	
Mean region size: 56.04453870625663
Incorrectly Classified Instances: 2.757158006362672
Correctly Classified Instances: 97.24284199363733
Weighted Precision: 0.9716278088219409
Weighted AreaUnderROC: 0.9153511894532689
Root mean squared error: 0.15350348207841563
Relative absolute error: 8.785618845639073
Root relative squared error: 30.700696415683126
Weighted TruePositiveRate: 0.9724284199363733
Weighted MatthewsCorrelation: 0.751689222669599
Weighted FMeasure: 0.9719627012790872
Iteration time: 26.0
Weighted AreaUnderPRC: 0.9779484127588723
Mean absolute error: 0.043928094228195366
Coverage of cases: 99.20466595970308
Instances selection time: 23.0
Test time: 36.0
Accumulative iteration time: 2119.0
Weighted Recall: 0.9724284199363733
Weighted FalsePositiveRate: 0.2457203454022118
Kappa statistic: 0.7511380880121399
Training time: 3.0
		
Iteration: 36
Labeled set size: 1077
Unlabelled set size: 809
	
Mean region size: 55.965005302226935
Incorrectly Classified Instances: 2.704135737009544
Correctly Classified Instances: 97.29586426299046
Weighted Precision: 0.9720936726009193
Weighted AreaUnderROC: 0.9151302383816562
Root mean squared error: 0.15343281128895248
Relative absolute error: 8.762565318911703
Root relative squared error: 30.686562257790495
Weighted TruePositiveRate: 0.9729586426299046
Weighted MatthewsCorrelation: 0.755601077947429
Weighted FMeasure: 0.9724422948798082
Iteration time: 16.0
Weighted AreaUnderPRC: 0.9778548689251975
Mean absolute error: 0.04381282659455851
Coverage of cases: 99.20466595970308
Instances selection time: 12.0
Test time: 34.0
Accumulative iteration time: 2135.0
Weighted Recall: 0.9729586426299046
Weighted FalsePositiveRate: 0.2456859153571773
Kappa statistic: 0.75489391630524
Training time: 4.0
		
Iteration: 37
Labeled set size: 1097
Unlabelled set size: 789
	
Mean region size: 55.911983032873806
Incorrectly Classified Instances: 2.757158006362672
Correctly Classified Instances: 97.24284199363733
Weighted Precision: 0.9716278088219409
Weighted AreaUnderROC: 0.9151547885007242
Root mean squared error: 0.15400204464771583
Relative absolute error: 8.752706951645289
Root relative squared error: 30.800408929543167
Weighted TruePositiveRate: 0.9724284199363733
Weighted MatthewsCorrelation: 0.751689222669599
Weighted FMeasure: 0.9719627012790872
Iteration time: 26.0
Weighted AreaUnderPRC: 0.9777028875454147
Mean absolute error: 0.04376353475822644
Coverage of cases: 99.15164369034994
Instances selection time: 23.0
Test time: 45.0
Accumulative iteration time: 2161.0
Weighted Recall: 0.9724284199363733
Weighted FalsePositiveRate: 0.2457203454022118
Kappa statistic: 0.7511380880121399
Training time: 3.0
		
Iteration: 38
Labeled set size: 1117
Unlabelled set size: 769
	
Mean region size: 55.911983032873806
Incorrectly Classified Instances: 2.916224814422057
Correctly Classified Instances: 97.08377518557795
Weighted Precision: 0.9700776732176769
Weighted AreaUnderROC: 0.9156507009058994
Root mean squared error: 0.15431457965906217
Relative absolute error: 8.766527479577409
Root relative squared error: 30.862915931812434
Weighted TruePositiveRate: 0.9708377518557795
Weighted MatthewsCorrelation: 0.738293079075633
Weighted FMeasure: 0.970408808023124
Iteration time: 15.0
Weighted AreaUnderPRC: 0.9777141524644894
Mean absolute error: 0.04383263739788704
Coverage of cases: 99.15164369034994
Instances selection time: 11.0
Test time: 53.0
Accumulative iteration time: 2176.0
Weighted Recall: 0.9708377518557795
Weighted FalsePositiveRate: 0.2539546349726626
Kappa statistic: 0.7378821341392543
Training time: 4.0
		
Iteration: 39
Labeled set size: 1137
Unlabelled set size: 749
	
Mean region size: 55.85896076352068
Incorrectly Classified Instances: 2.8101802757158008
Correctly Classified Instances: 97.1898197242842
Weighted Precision: 0.9709908892071749
Weighted AreaUnderROC: 0.9153806495961505
Root mean squared error: 0.15412736004166822
Relative absolute error: 8.717739755186312
Root relative squared error: 30.825472008333644
Weighted TruePositiveRate: 0.971898197242842
Weighted MatthewsCorrelation: 0.7459800704331916
Weighted FMeasure: 0.9713616005613692
Iteration time: 18.0
Weighted AreaUnderPRC: 0.9775174732390487
Mean absolute error: 0.04358869877593156
Coverage of cases: 99.15164369034994
Instances selection time: 10.0
Test time: 28.0
Accumulative iteration time: 2194.0
Weighted Recall: 0.971898197242842
Weighted FalsePositiveRate: 0.25388577488259356
Kappa statistic: 0.7452819130230921
Training time: 8.0
		
Iteration: 40
Labeled set size: 1157
Unlabelled set size: 729
	
Mean region size: 55.85896076352068
Incorrectly Classified Instances: 2.8101802757158008
Correctly Classified Instances: 97.1898197242842
Weighted Precision: 0.9709908892071749
Weighted AreaUnderROC: 0.9152628090246238
Root mean squared error: 0.15397706896052687
Relative absolute error: 8.703398106955184
Root relative squared error: 30.795413792105375
Weighted TruePositiveRate: 0.971898197242842
Weighted MatthewsCorrelation: 0.7459800704331916
Weighted FMeasure: 0.9713616005613692
Iteration time: 14.0
Weighted AreaUnderPRC: 0.9775483852966905
Mean absolute error: 0.04351699053477592
Coverage of cases: 99.15164369034994
Instances selection time: 11.0
Test time: 47.0
Accumulative iteration time: 2208.0
Weighted Recall: 0.971898197242842
Weighted FalsePositiveRate: 0.25388577488259356
Kappa statistic: 0.7452819130230921
Training time: 3.0
		
Iteration: 41
Labeled set size: 1177
Unlabelled set size: 709
	
Mean region size: 56.09756097560975
Incorrectly Classified Instances: 2.757158006362672
Correctly Classified Instances: 97.24284199363733
Weighted Precision: 0.9718090470801607
Weighted AreaUnderROC: 0.9177620111457541
Root mean squared error: 0.15569262675227302
Relative absolute error: 8.973674827686228
Root relative squared error: 31.138525350454604
Weighted TruePositiveRate: 0.9724284199363733
Weighted MatthewsCorrelation: 0.7535177361480844
Weighted FMeasure: 0.9720824707643112
Iteration time: 14.0
Weighted AreaUnderPRC: 0.9773786205173762
Mean absolute error: 0.04486837413843114
Coverage of cases: 99.15164369034994
Instances selection time: 10.0
Test time: 28.0
Accumulative iteration time: 2222.0
Weighted Recall: 0.9724284199363733
Weighted FalsePositiveRate: 0.2375893459668645
Kappa statistic: 0.7532121773353401
Training time: 4.0
		
Iteration: 42
Labeled set size: 1197
Unlabelled set size: 689
	
Mean region size: 56.01802757158006
Incorrectly Classified Instances: 2.9692470837751856
Correctly Classified Instances: 97.03075291622481
Weighted Precision: 0.9700714935364618
Weighted AreaUnderROC: 0.9181204428841481
Root mean squared error: 0.1573172533163927
Relative absolute error: 9.151116267143328
Root relative squared error: 31.463450663278543
Weighted TruePositiveRate: 0.9703075291622482
Weighted MatthewsCorrelation: 0.73861809609862
Weighted FMeasure: 0.9701856772636872
Iteration time: 14.0
Weighted AreaUnderPRC: 0.977773760746327
Mean absolute error: 0.04575558133571664
Coverage of cases: 99.15164369034994
Instances selection time: 11.0
Test time: 28.0
Accumulative iteration time: 2236.0
Weighted Recall: 0.9703075291622482
Weighted FalsePositiveRate: 0.2377270661470025
Kappa statistic: 0.7385859045884096
Training time: 3.0
		
Iteration: 43
Labeled set size: 1217
Unlabelled set size: 669
	
Mean region size: 55.938494167550374
Incorrectly Classified Instances: 2.916224814422057
Correctly Classified Instances: 97.08377518557795
Weighted Precision: 0.9704944926522867
Weighted AreaUnderROC: 0.9179240419316035
Root mean squared error: 0.15699666267467513
Relative absolute error: 9.095827735289422
Root relative squared error: 31.399332534935027
Weighted TruePositiveRate: 0.9708377518557795
Weighted MatthewsCorrelation: 0.7422707162984672
Weighted FMeasure: 0.9706573892317277
Iteration time: 18.0
Weighted AreaUnderPRC: 0.9776477178656318
Mean absolute error: 0.04547913867644711
Coverage of cases: 99.09862142099682
Instances selection time: 12.0
Test time: 51.0
Accumulative iteration time: 2254.0
Weighted Recall: 0.9708377518557795
Weighted FalsePositiveRate: 0.237692636101968
Kappa statistic: 0.7421973247970737
Training time: 6.0
		
Iteration: 44
Labeled set size: 1237
Unlabelled set size: 649
	
Mean region size: 55.83244962884412
Incorrectly Classified Instances: 2.916224814422057
Correctly Classified Instances: 97.08377518557795
Weighted Precision: 0.9704944926522867
Weighted AreaUnderROC: 0.9187047357179681
Root mean squared error: 0.15750066805860183
Relative absolute error: 9.110994159564372
Root relative squared error: 31.500133611720365
Weighted TruePositiveRate: 0.9708377518557795
Weighted MatthewsCorrelation: 0.7422707162984672
Weighted FMeasure: 0.9706573892317277
Iteration time: 17.0
Weighted AreaUnderPRC: 0.9776063703872389
Mean absolute error: 0.045554970797821864
Coverage of cases: 99.04559915164369
Instances selection time: 10.0
Test time: 28.0
Accumulative iteration time: 2271.0
Weighted Recall: 0.9708377518557795
Weighted FalsePositiveRate: 0.237692636101968
Kappa statistic: 0.7421973247970737
Training time: 7.0
		
Iteration: 45
Labeled set size: 1257
Unlabelled set size: 629
	
Mean region size: 55.80593849416755
Incorrectly Classified Instances: 2.916224814422057
Correctly Classified Instances: 97.08377518557795
Weighted Precision: 0.9704944926522867
Weighted AreaUnderROC: 0.9186605455036457
Root mean squared error: 0.15727620787686972
Relative absolute error: 9.062668032118992
Root relative squared error: 31.455241575373943
Weighted TruePositiveRate: 0.9708377518557795
Weighted MatthewsCorrelation: 0.7422707162984672
Weighted FMeasure: 0.9706573892317277
Iteration time: 13.0
Weighted AreaUnderPRC: 0.9774478723050503
Mean absolute error: 0.04531334016059496
Coverage of cases: 99.04559915164369
Instances selection time: 8.0
Test time: 29.0
Accumulative iteration time: 2284.0
Weighted Recall: 0.9708377518557795
Weighted FalsePositiveRate: 0.237692636101968
Kappa statistic: 0.7421973247970737
Training time: 5.0
		
Iteration: 46
Labeled set size: 1277
Unlabelled set size: 609
	
Mean region size: 55.75291622481442
Incorrectly Classified Instances: 2.9692470837751856
Correctly Classified Instances: 97.03075291622481
Weighted Precision: 0.9698465899771294
Weighted AreaUnderROC: 0.9191466378611937
Root mean squared error: 0.1579224157145855
Relative absolute error: 9.102582237693419
Root relative squared error: 31.5844831429171
Weighted TruePositiveRate: 0.9703075291622482
Weighted MatthewsCorrelation: 0.7365557561726075
Weighted FMeasure: 0.9700615109560646
Iteration time: 12.0
Weighted AreaUnderPRC: 0.97733334119466
Mean absolute error: 0.04551291118846709
Coverage of cases: 98.99257688229056
Instances selection time: 9.0
Test time: 28.0
Accumulative iteration time: 2296.0
Weighted Recall: 0.9703075291622482
Weighted FalsePositiveRate: 0.24585806558234977
Kappa statistic: 0.7364252095052235
Training time: 3.0
		
Time end:Sun Oct 08 05.15.59 EEST 2017