Sun Oct 08 05.39.06 EEST 2017
Dataset: sick
Test set size: 1886
Initial Labelled set size: 377
Initial Unlabelled set size: 1509
Batch mode: QBestBatchMode
Batch size: 20
Classifiers: J48-1cores
Scenario: PoolBasedSamplingScenario
Query strategy: LeastConfidentSamplingQueryStrategy-1cores
Time begining: Sun Oct 08 05.39.06 EEST 2017
		
Iteration: 1
Labeled set size: 377
Unlabelled set size: 1509
	
Mean region size: 53.552492046659594
Incorrectly Classified Instances: 2.2269353128313893
Correctly Classified Instances: 97.77306468716861
Weighted Precision: 0.9798019952677814
Weighted AreaUnderROC: 0.9371931618936294
Root mean squared error: 0.14386780064198068
Relative absolute error: 5.410405168364103
Root relative squared error: 28.773560128396134
Weighted TruePositiveRate: 0.9777306468716861
Weighted MatthewsCorrelation: 0.8225885651909868
Weighted FMeasure: 0.9784754372304851
Iteration time: 5.0
Weighted AreaUnderPRC: 0.9734737523151896
Mean absolute error: 0.027052025841820516
Coverage of cases: 99.36373276776246
Instances selection time: 2.0
Test time: 3.0
Accumulative iteration time: 5.0
Weighted Recall: 0.9777306468716861
Weighted FalsePositiveRate: 0.09812807527612796
Kappa statistic: 0.8201411405683768
Training time: 3.0
		
Iteration: 2
Labeled set size: 397
Unlabelled set size: 1489
	
Mean region size: 50.662778366914104
Incorrectly Classified Instances: 2.4390243902439024
Correctly Classified Instances: 97.5609756097561
Weighted Precision: 0.9743543315165891
Weighted AreaUnderROC: 0.7492840444184689
Root mean squared error: 0.14849332954221472
Relative absolute error: 5.5022669224564185
Root relative squared error: 29.698665908442944
Weighted TruePositiveRate: 0.975609756097561
Weighted MatthewsCorrelation: 0.7709048396220631
Weighted FMeasure: 0.974159481587955
Iteration time: 6.0
Weighted AreaUnderPRC: 0.9477662957247136
Mean absolute error: 0.02751133461228209
Coverage of cases: 98.09119830328738
Instances selection time: 2.0
Test time: 3.0
Accumulative iteration time: 11.0
Weighted Recall: 0.975609756097561
Weighted FalsePositiveRate: 0.29160430119789216
Kappa statistic: 0.764016581618775
Training time: 4.0
		
Iteration: 3
Labeled set size: 417
Unlabelled set size: 1469
	
Mean region size: 50.79533404029692
Incorrectly Classified Instances: 2.2269353128313893
Correctly Classified Instances: 97.77306468716861
Weighted Precision: 0.9767662215210319
Weighted AreaUnderROC: 0.8664669783752191
Root mean squared error: 0.14383913601529205
Relative absolute error: 4.971954327151692
Root relative squared error: 28.76782720305841
Weighted TruePositiveRate: 0.9777306468716861
Weighted MatthewsCorrelation: 0.7916101447705566
Weighted FMeasure: 0.9764064831890023
Iteration time: 6.0
Weighted AreaUnderPRC: 0.9666052131491112
Mean absolute error: 0.02485977163575846
Coverage of cases: 98.56839872746554
Instances selection time: 1.0
Test time: 4.0
Accumulative iteration time: 17.0
Weighted Recall: 0.9777306468716861
Weighted FalsePositiveRate: 0.2753538691588476
Kappa statistic: 0.7845368788693162
Training time: 5.0
		
Iteration: 4
Labeled set size: 437
Unlabelled set size: 1449
	
Mean region size: 50.583244962884415
Incorrectly Classified Instances: 1.6436903499469777
Correctly Classified Instances: 98.35630965005302
Weighted Precision: 0.9830807283812073
Weighted AreaUnderROC: 0.8413720046756283
Root mean squared error: 0.12933609548956398
Relative absolute error: 4.197241915529055
Root relative squared error: 25.8672190979128
Weighted TruePositiveRate: 0.9835630965005302
Weighted MatthewsCorrelation: 0.8496250259006886
Weighted FMeasure: 0.9828738700185206
Iteration time: 6.0
Weighted AreaUnderPRC: 0.962701520825075
Mean absolute error: 0.020986209577645278
Coverage of cases: 98.40933191940616
Instances selection time: 1.0
Test time: 4.0
Accumulative iteration time: 23.0
Weighted Recall: 0.9835630965005302
Weighted FalsePositiveRate: 0.20247016838831514
Kappa statistic: 0.8458232027298568
Training time: 5.0
		
Iteration: 5
Labeled set size: 457
Unlabelled set size: 1429
	
Mean region size: 50.583244962884415
Incorrectly Classified Instances: 1.6436903499469777
Correctly Classified Instances: 98.35630965005302
Weighted Precision: 0.9830807283812073
Weighted AreaUnderROC: 0.8413720046756283
Root mean squared error: 0.1293394939001524
Relative absolute error: 4.171874873144474
Root relative squared error: 25.86789878003048
Weighted TruePositiveRate: 0.9835630965005302
Weighted MatthewsCorrelation: 0.8496250259006886
Weighted FMeasure: 0.9828738700185206
Iteration time: 6.0
Weighted AreaUnderPRC: 0.962701520825075
Mean absolute error: 0.02085937436572237
Coverage of cases: 98.40933191940616
Instances selection time: 1.0
Test time: 4.0
Accumulative iteration time: 29.0
Weighted Recall: 0.9835630965005302
Weighted FalsePositiveRate: 0.20247016838831514
Kappa statistic: 0.8458232027298568
Training time: 5.0
		
Iteration: 6
Labeled set size: 477
Unlabelled set size: 1409
	
Mean region size: 50.583244962884415
Incorrectly Classified Instances: 1.6436903499469777
Correctly Classified Instances: 98.35630965005302
Weighted Precision: 0.9830807283812073
Weighted AreaUnderROC: 0.8413720046756283
Root mean squared error: 0.12934265201705195
Relative absolute error: 4.149120450910875
Root relative squared error: 25.86853040341039
Weighted TruePositiveRate: 0.9835630965005302
Weighted MatthewsCorrelation: 0.8496250259006886
Weighted FMeasure: 0.9828738700185206
Iteration time: 7.0
Weighted AreaUnderPRC: 0.962701520825075
Mean absolute error: 0.020745602254554373
Coverage of cases: 98.40933191940616
Instances selection time: 2.0
Test time: 4.0
Accumulative iteration time: 36.0
Weighted Recall: 0.9835630965005302
Weighted FalsePositiveRate: 0.20247016838831514
Kappa statistic: 0.8458232027298568
Training time: 5.0
		
Iteration: 7
Labeled set size: 497
Unlabelled set size: 1389
	
Mean region size: 50.583244962884415
Incorrectly Classified Instances: 1.6436903499469777
Correctly Classified Instances: 98.35630965005302
Weighted Precision: 0.9830807283812073
Weighted AreaUnderROC: 0.8413720046756283
Root mean squared error: 0.1293455910124326
Relative absolute error: 4.1285840570179175
Root relative squared error: 25.86911820248652
Weighted TruePositiveRate: 0.9835630965005302
Weighted MatthewsCorrelation: 0.8496250259006886
Weighted FMeasure: 0.9828738700185206
Iteration time: 6.0
Weighted AreaUnderPRC: 0.962701520825075
Mean absolute error: 0.020642920285089586
Coverage of cases: 98.40933191940616
Instances selection time: 1.0
Test time: 4.0
Accumulative iteration time: 42.0
Weighted Recall: 0.9835630965005302
Weighted FalsePositiveRate: 0.20247016838831514
Kappa statistic: 0.8458232027298568
Training time: 5.0
		
Iteration: 8
Labeled set size: 517
Unlabelled set size: 1369
	
Mean region size: 50.583244962884415
Incorrectly Classified Instances: 1.6436903499469777
Correctly Classified Instances: 98.35630965005302
Weighted Precision: 0.9830807283812073
Weighted AreaUnderROC: 0.8413720046756283
Root mean squared error: 0.12934833057968528
Relative absolute error: 4.109948484720259
Root relative squared error: 25.869666115937058
Weighted TruePositiveRate: 0.9835630965005302
Weighted MatthewsCorrelation: 0.8496250259006886
Weighted FMeasure: 0.9828738700185206
Iteration time: 6.0
Weighted AreaUnderPRC: 0.962701520825075
Mean absolute error: 0.020549742423601292
Coverage of cases: 98.40933191940616
Instances selection time: 1.0
Test time: 4.0
Accumulative iteration time: 48.0
Weighted Recall: 0.9835630965005302
Weighted FalsePositiveRate: 0.20247016838831514
Kappa statistic: 0.8458232027298568
Training time: 5.0
		
Iteration: 9
Labeled set size: 537
Unlabelled set size: 1349
	
Mean region size: 50.583244962884415
Incorrectly Classified Instances: 1.6436903499469777
Correctly Classified Instances: 98.35630965005302
Weighted Precision: 0.9830807283812073
Weighted AreaUnderROC: 0.8413720046756283
Root mean squared error: 0.12935088871419748
Relative absolute error: 4.09295550213979
Root relative squared error: 25.870177742839495
Weighted TruePositiveRate: 0.9835630965005302
Weighted MatthewsCorrelation: 0.8496250259006886
Weighted FMeasure: 0.9828738700185206
Iteration time: 7.0
Weighted AreaUnderPRC: 0.962701520825075
Mean absolute error: 0.02046477751069895
Coverage of cases: 98.40933191940616
Instances selection time: 2.0
Test time: 3.0
Accumulative iteration time: 55.0
Weighted Recall: 0.9835630965005302
Weighted FalsePositiveRate: 0.20247016838831514
Kappa statistic: 0.8458232027298568
Training time: 5.0
		
Iteration: 10
Labeled set size: 557
Unlabelled set size: 1329
	
Mean region size: 50.583244962884415
Incorrectly Classified Instances: 1.6436903499469777
Correctly Classified Instances: 98.35630965005302
Weighted Precision: 0.9830807283812073
Weighted AreaUnderROC: 0.8413720046756283
Root mean squared error: 0.12935328169665603
Relative absolute error: 4.077392528735046
Root relative squared error: 25.870656339331205
Weighted TruePositiveRate: 0.9835630965005302
Weighted MatthewsCorrelation: 0.8496250259006886
Weighted FMeasure: 0.9828738700185206
Iteration time: 7.0
Weighted AreaUnderPRC: 0.962701520825075
Mean absolute error: 0.02038696264367523
Coverage of cases: 98.40933191940616
Instances selection time: 2.0
Test time: 3.0
Accumulative iteration time: 62.0
Weighted Recall: 0.9835630965005302
Weighted FalsePositiveRate: 0.20247016838831514
Kappa statistic: 0.8458232027298568
Training time: 5.0
		
Iteration: 11
Labeled set size: 577
Unlabelled set size: 1309
	
Mean region size: 50.583244962884415
Incorrectly Classified Instances: 1.6436903499469777
Correctly Classified Instances: 98.35630965005302
Weighted Precision: 0.9830807283812073
Weighted AreaUnderROC: 0.8413720046756283
Root mean squared error: 0.1293555241757854
Relative absolute error: 4.063082814545509
Root relative squared error: 25.871104835157084
Weighted TruePositiveRate: 0.9835630965005302
Weighted MatthewsCorrelation: 0.8496250259006886
Weighted FMeasure: 0.9828738700185206
Iteration time: 8.0
Weighted AreaUnderPRC: 0.962701520825075
Mean absolute error: 0.020315414072727543
Coverage of cases: 98.40933191940616
Instances selection time: 2.0
Test time: 3.0
Accumulative iteration time: 70.0
Weighted Recall: 0.9835630965005302
Weighted FalsePositiveRate: 0.20247016838831514
Kappa statistic: 0.8458232027298568
Training time: 6.0
		
Iteration: 12
Labeled set size: 597
Unlabelled set size: 1289
	
Mean region size: 50.583244962884415
Incorrectly Classified Instances: 1.6436903499469777
Correctly Classified Instances: 98.35630965005302
Weighted Precision: 0.9830807283812073
Weighted AreaUnderROC: 0.8413720046756283
Root mean squared error: 0.12935762929540318
Relative absolute error: 4.049878082189736
Root relative squared error: 25.871525859080634
Weighted TruePositiveRate: 0.9835630965005302
Weighted MatthewsCorrelation: 0.8496250259006886
Weighted FMeasure: 0.9828738700185206
Iteration time: 8.0
Weighted AreaUnderPRC: 0.962701520825075
Mean absolute error: 0.020249390410948684
Coverage of cases: 98.40933191940616
Instances selection time: 2.0
Test time: 3.0
Accumulative iteration time: 78.0
Weighted Recall: 0.9835630965005302
Weighted FalsePositiveRate: 0.20247016838831514
Kappa statistic: 0.8458232027298568
Training time: 6.0
		
Iteration: 13
Labeled set size: 617
Unlabelled set size: 1269
	
Mean region size: 50.583244962884415
Incorrectly Classified Instances: 1.6436903499469777
Correctly Classified Instances: 98.35630965005302
Weighted Precision: 0.9830807283812073
Weighted AreaUnderROC: 0.8413720046756283
Root mean squared error: 0.1293596088364024
Relative absolute error: 4.037652932838883
Root relative squared error: 25.871921767280483
Weighted TruePositiveRate: 0.9835630965005302
Weighted MatthewsCorrelation: 0.8496250259006886
Weighted FMeasure: 0.9828738700185206
Iteration time: 7.0
Weighted AreaUnderPRC: 0.962701520825075
Mean absolute error: 0.020188264664194416
Coverage of cases: 98.40933191940616
Instances selection time: 1.0
Test time: 4.0
Accumulative iteration time: 85.0
Weighted Recall: 0.9835630965005302
Weighted FalsePositiveRate: 0.20247016838831514
Kappa statistic: 0.8458232027298568
Training time: 6.0
		
Iteration: 14
Labeled set size: 637
Unlabelled set size: 1249
	
Mean region size: 50.583244962884415
Incorrectly Classified Instances: 1.6436903499469777
Correctly Classified Instances: 98.35630965005302
Weighted Precision: 0.9830807283812073
Weighted AreaUnderROC: 0.8413720046756283
Root mean squared error: 0.129361473358368
Relative absolute error: 4.026300536905087
Root relative squared error: 25.8722946716736
Weighted TruePositiveRate: 0.9835630965005302
Weighted MatthewsCorrelation: 0.8496250259006886
Weighted FMeasure: 0.9828738700185206
Iteration time: 8.0
Weighted AreaUnderPRC: 0.962701520825075
Mean absolute error: 0.020131502684525432
Coverage of cases: 98.40933191940616
Instances selection time: 2.0
Test time: 3.0
Accumulative iteration time: 93.0
Weighted Recall: 0.9835630965005302
Weighted FalsePositiveRate: 0.20247016838831514
Kappa statistic: 0.8458232027298568
Training time: 6.0
		
Iteration: 15
Labeled set size: 657
Unlabelled set size: 1229
	
Mean region size: 50.583244962884415
Incorrectly Classified Instances: 1.6436903499469777
Correctly Classified Instances: 98.35630965005302
Weighted Precision: 0.9830807283812073
Weighted AreaUnderROC: 0.8413720046756283
Root mean squared error: 0.12936323233323135
Relative absolute error: 4.015729274593726
Root relative squared error: 25.87264646664627
Weighted TruePositiveRate: 0.9835630965005302
Weighted MatthewsCorrelation: 0.8496250259006886
Weighted FMeasure: 0.9828738700185206
Iteration time: 8.0
Weighted AreaUnderPRC: 0.962701520825075
Mean absolute error: 0.02007864637296863
Coverage of cases: 98.40933191940616
Instances selection time: 2.0
Test time: 3.0
Accumulative iteration time: 101.0
Weighted Recall: 0.9835630965005302
Weighted FalsePositiveRate: 0.20247016838831514
Kappa statistic: 0.8458232027298568
Training time: 6.0
		
Iteration: 16
Labeled set size: 677
Unlabelled set size: 1209
	
Mean region size: 50.583244962884415
Incorrectly Classified Instances: 1.6436903499469777
Correctly Classified Instances: 98.35630965005302
Weighted Precision: 0.9830807283812073
Weighted AreaUnderROC: 0.8413720046756283
Root mean squared error: 0.12936489426761097
Relative absolute error: 4.005860088396028
Root relative squared error: 25.872978853522195
Weighted TruePositiveRate: 0.9835630965005302
Weighted MatthewsCorrelation: 0.8496250259006886
Weighted FMeasure: 0.9828738700185206
Iteration time: 8.0
Weighted AreaUnderPRC: 0.962701520825075
Mean absolute error: 0.02002930044198014
Coverage of cases: 98.40933191940616
Instances selection time: 1.0
Test time: 4.0
Accumulative iteration time: 109.0
Weighted Recall: 0.9835630965005302
Weighted FalsePositiveRate: 0.20247016838831514
Kappa statistic: 0.8458232027298568
Training time: 7.0
		
Iteration: 17
Labeled set size: 697
Unlabelled set size: 1189
	
Mean region size: 50.583244962884415
Incorrectly Classified Instances: 1.6436903499469777
Correctly Classified Instances: 98.35630965005302
Weighted Precision: 0.9830807283812073
Weighted AreaUnderROC: 0.8413720046756283
Root mean squared error: 0.12936646681279976
Relative absolute error: 3.99662437588643
Root relative squared error: 25.873293362559952
Weighted TruePositiveRate: 0.9835630965005302
Weighted MatthewsCorrelation: 0.8496250259006886
Weighted FMeasure: 0.9828738700185206
Iteration time: 8.0
Weighted AreaUnderPRC: 0.962701520825075
Mean absolute error: 0.01998312187943215
Coverage of cases: 98.40933191940616
Instances selection time: 1.0
Test time: 4.0
Accumulative iteration time: 117.0
Weighted Recall: 0.9835630965005302
Weighted FalsePositiveRate: 0.20247016838831514
Kappa statistic: 0.8458232027298568
Training time: 7.0
		
Iteration: 18
Labeled set size: 717
Unlabelled set size: 1169
	
Mean region size: 50.583244962884415
Incorrectly Classified Instances: 1.6436903499469777
Correctly Classified Instances: 98.35630965005302
Weighted Precision: 0.9830807283812073
Weighted AreaUnderROC: 0.8413720046756283
Root mean squared error: 0.12936795686256594
Relative absolute error: 3.9879622972527007
Root relative squared error: 25.87359137251319
Weighted TruePositiveRate: 0.9835630965005302
Weighted MatthewsCorrelation: 0.8496250259006886
Weighted FMeasure: 0.9828738700185206
Iteration time: 8.0
Weighted AreaUnderPRC: 0.962701520825075
Mean absolute error: 0.019939811486263503
Coverage of cases: 98.40933191940616
Instances selection time: 1.0
Test time: 4.0
Accumulative iteration time: 125.0
Weighted Recall: 0.9835630965005302
Weighted FalsePositiveRate: 0.20247016838831514
Kappa statistic: 0.8458232027298568
Training time: 7.0
		
Iteration: 19
Labeled set size: 737
Unlabelled set size: 1149
	
Mean region size: 50.583244962884415
Incorrectly Classified Instances: 1.6436903499469777
Correctly Classified Instances: 98.35630965005302
Weighted Precision: 0.9830807283812073
Weighted AreaUnderROC: 0.8413720046756283
Root mean squared error: 0.12936937063953455
Relative absolute error: 3.9798214045265423
Root relative squared error: 25.87387412790691
Weighted TruePositiveRate: 0.9835630965005302
Weighted MatthewsCorrelation: 0.8496250259006886
Weighted FMeasure: 0.9828738700185206
Iteration time: 9.0
Weighted AreaUnderPRC: 0.962701520825075
Mean absolute error: 0.01989910702263271
Coverage of cases: 98.40933191940616
Instances selection time: 2.0
Test time: 3.0
Accumulative iteration time: 134.0
Weighted Recall: 0.9835630965005302
Weighted FalsePositiveRate: 0.20247016838831514
Kappa statistic: 0.8458232027298568
Training time: 7.0
		
Iteration: 20
Labeled set size: 757
Unlabelled set size: 1129
	
Mean region size: 50.583244962884415
Incorrectly Classified Instances: 1.6436903499469777
Correctly Classified Instances: 98.35630965005302
Weighted Precision: 0.9830807283812073
Weighted AreaUnderROC: 0.8413720046756283
Root mean squared error: 0.1293707137711894
Relative absolute error: 3.9721555227583893
Root relative squared error: 25.874142754237877
Weighted TruePositiveRate: 0.9835630965005302
Weighted MatthewsCorrelation: 0.8496250259006886
Weighted FMeasure: 0.9828738700185206
Iteration time: 9.0
Weighted AreaUnderPRC: 0.962701520825075
Mean absolute error: 0.019860777613791947
Coverage of cases: 98.40933191940616
Instances selection time: 2.0
Test time: 3.0
Accumulative iteration time: 143.0
Weighted Recall: 0.9835630965005302
Weighted FalsePositiveRate: 0.20247016838831514
Kappa statistic: 0.8458232027298568
Training time: 7.0
		
Iteration: 21
Labeled set size: 777
Unlabelled set size: 1109
	
Mean region size: 50.583244962884415
Incorrectly Classified Instances: 1.6436903499469777
Correctly Classified Instances: 98.35630965005302
Weighted Precision: 0.9830807283812073
Weighted AreaUnderROC: 0.8413720046756283
Root mean squared error: 0.12937199135659885
Relative absolute error: 3.9649238302771304
Root relative squared error: 25.87439827131977
Weighted TruePositiveRate: 0.9835630965005302
Weighted MatthewsCorrelation: 0.8496250259006886
Weighted FMeasure: 0.9828738700185206
Iteration time: 9.0
Weighted AreaUnderPRC: 0.962701520825075
Mean absolute error: 0.019824619151385652
Coverage of cases: 98.40933191940616
Instances selection time: 1.0
Test time: 3.0
Accumulative iteration time: 152.0
Weighted Recall: 0.9835630965005302
Weighted FalsePositiveRate: 0.20247016838831514
Kappa statistic: 0.8458232027298568
Training time: 8.0
		
Iteration: 22
Labeled set size: 797
Unlabelled set size: 1089
	
Mean region size: 50.583244962884415
Incorrectly Classified Instances: 1.6436903499469777
Correctly Classified Instances: 98.35630965005302
Weighted Precision: 0.9830807283812073
Weighted AreaUnderROC: 0.8413720046756283
Root mean squared error: 0.12937320802494678
Relative absolute error: 3.958090097568914
Root relative squared error: 25.874641604989357
Weighted TruePositiveRate: 0.9835630965005302
Weighted MatthewsCorrelation: 0.8496250259006886
Weighted FMeasure: 0.9828738700185206
Iteration time: 8.0
Weighted AreaUnderPRC: 0.962701520825075
Mean absolute error: 0.01979045048784457
Coverage of cases: 98.40933191940616
Instances selection time: 1.0
Test time: 4.0
Accumulative iteration time: 160.0
Weighted Recall: 0.9835630965005302
Weighted FalsePositiveRate: 0.20247016838831514
Kappa statistic: 0.8458232027298568
Training time: 7.0
		
Iteration: 23
Labeled set size: 817
Unlabelled set size: 1069
	
Mean region size: 50.583244962884415
Incorrectly Classified Instances: 1.6436903499469777
Correctly Classified Instances: 98.35630965005302
Weighted Precision: 0.9830807283812073
Weighted AreaUnderROC: 0.8413720046756283
Root mean squared error: 0.12937436798687582
Relative absolute error: 3.9516220535045736
Root relative squared error: 25.874873597375164
Weighted TruePositiveRate: 0.9835630965005302
Weighted MatthewsCorrelation: 0.8496250259006886
Weighted FMeasure: 0.9828738700185206
Iteration time: 9.0
Weighted AreaUnderPRC: 0.962701520825075
Mean absolute error: 0.019758110267522867
Coverage of cases: 98.40933191940616
Instances selection time: 2.0
Test time: 3.0
Accumulative iteration time: 169.0
Weighted Recall: 0.9835630965005302
Weighted FalsePositiveRate: 0.20247016838831514
Kappa statistic: 0.8458232027298568
Training time: 7.0
		
Iteration: 24
Labeled set size: 837
Unlabelled set size: 1049
	
Mean region size: 50.583244962884415
Incorrectly Classified Instances: 1.6436903499469777
Correctly Classified Instances: 98.35630965005302
Weighted Precision: 0.9830807283812073
Weighted AreaUnderROC: 0.8413720046756283
Root mean squared error: 0.1293754750795466
Relative absolute error: 3.945490854549193
Root relative squared error: 25.875095015909324
Weighted TruePositiveRate: 0.9835630965005302
Weighted MatthewsCorrelation: 0.8496250259006886
Weighted FMeasure: 0.9828738700185206
Iteration time: 9.0
Weighted AreaUnderPRC: 0.962701520825075
Mean absolute error: 0.019727454272745967
Coverage of cases: 98.40933191940616
Instances selection time: 1.0
Test time: 4.0
Accumulative iteration time: 178.0
Weighted Recall: 0.9835630965005302
Weighted FalsePositiveRate: 0.20247016838831514
Kappa statistic: 0.8458232027298568
Training time: 8.0
		
Iteration: 25
Labeled set size: 857
Unlabelled set size: 1029
	
Mean region size: 50.583244962884415
Incorrectly Classified Instances: 1.6436903499469777
Correctly Classified Instances: 98.35630965005302
Weighted Precision: 0.9830807283812073
Weighted AreaUnderROC: 0.8413720046756283
Root mean squared error: 0.12937653280623493
Relative absolute error: 3.9396706378074846
Root relative squared error: 25.875306561246987
Weighted TruePositiveRate: 0.9835630965005302
Weighted MatthewsCorrelation: 0.8496250259006886
Weighted FMeasure: 0.9828738700185206
Iteration time: 9.0
Weighted AreaUnderPRC: 0.962701520825075
Mean absolute error: 0.019698353189037423
Coverage of cases: 98.40933191940616
Instances selection time: 1.0
Test time: 4.0
Accumulative iteration time: 187.0
Weighted Recall: 0.9835630965005302
Weighted FalsePositiveRate: 0.20247016838831514
Kappa statistic: 0.8458232027298568
Training time: 8.0
		
Iteration: 26
Labeled set size: 877
Unlabelled set size: 1009
	
Mean region size: 50.583244962884415
Incorrectly Classified Instances: 1.6436903499469777
Correctly Classified Instances: 98.35630965005302
Weighted Precision: 0.9830807283812073
Weighted AreaUnderROC: 0.8413720046756283
Root mean squared error: 0.12937754437115312
Relative absolute error: 3.934138142744572
Root relative squared error: 25.875508874230626
Weighted TruePositiveRate: 0.9835630965005302
Weighted MatthewsCorrelation: 0.8496250259006886
Weighted FMeasure: 0.9828738700185206
Iteration time: 9.0
Weighted AreaUnderPRC: 0.962701520825075
Mean absolute error: 0.01967069071372286
Coverage of cases: 98.40933191940616
Instances selection time: 1.0
Test time: 4.0
Accumulative iteration time: 196.0
Weighted Recall: 0.9835630965005302
Weighted FalsePositiveRate: 0.20247016838831514
Kappa statistic: 0.8458232027298568
Training time: 8.0
		
Iteration: 27
Labeled set size: 897
Unlabelled set size: 989
	
Mean region size: 50.583244962884415
Incorrectly Classified Instances: 1.6436903499469777
Correctly Classified Instances: 98.35630965005302
Weighted Precision: 0.9830807283812073
Weighted AreaUnderROC: 0.8413720046756283
Root mean squared error: 0.1293785127101429
Relative absolute error: 3.928872389496784
Root relative squared error: 25.875702542028577
Weighted TruePositiveRate: 0.9835630965005302
Weighted MatthewsCorrelation: 0.8496250259006886
Weighted FMeasure: 0.9828738700185206
Iteration time: 10.0
Weighted AreaUnderPRC: 0.962701520825075
Mean absolute error: 0.01964436194748392
Coverage of cases: 98.40933191940616
Instances selection time: 1.0
Test time: 3.0
Accumulative iteration time: 206.0
Weighted Recall: 0.9835630965005302
Weighted FalsePositiveRate: 0.20247016838831514
Kappa statistic: 0.8458232027298568
Training time: 9.0
		
Iteration: 28
Labeled set size: 917
Unlabelled set size: 969
	
Mean region size: 50.583244962884415
Incorrectly Classified Instances: 1.6436903499469777
Correctly Classified Instances: 98.35630965005302
Weighted Precision: 0.9830807283812073
Weighted AreaUnderROC: 0.8413720046756283
Root mean squared error: 0.12937944051775227
Relative absolute error: 3.9238544040746373
Root relative squared error: 25.875888103550455
Weighted TruePositiveRate: 0.9835630965005302
Weighted MatthewsCorrelation: 0.8496250259006886
Weighted FMeasure: 0.9828738700185206
Iteration time: 10.0
Weighted AreaUnderPRC: 0.962701520825075
Mean absolute error: 0.019619272020373186
Coverage of cases: 98.40933191940616
Instances selection time: 1.0
Test time: 3.0
Accumulative iteration time: 216.0
Weighted Recall: 0.9835630965005302
Weighted FalsePositiveRate: 0.20247016838831514
Kappa statistic: 0.8458232027298568
Training time: 9.0
		
Iteration: 29
Labeled set size: 937
Unlabelled set size: 949
	
Mean region size: 50.583244962884415
Incorrectly Classified Instances: 1.6436903499469777
Correctly Classified Instances: 98.35630965005302
Weighted Precision: 0.9830807283812073
Weighted AreaUnderROC: 0.8413720046756283
Root mean squared error: 0.12938033027117718
Relative absolute error: 3.919066982620936
Root relative squared error: 25.876066054235437
Weighted TruePositiveRate: 0.9835630965005302
Weighted MatthewsCorrelation: 0.8496250259006886
Weighted FMeasure: 0.9828738700185206
Iteration time: 10.0
Weighted AreaUnderPRC: 0.962701520825075
Mean absolute error: 0.01959533491310468
Coverage of cases: 98.40933191940616
Instances selection time: 2.0
Test time: 3.0
Accumulative iteration time: 226.0
Weighted Recall: 0.9835630965005302
Weighted FalsePositiveRate: 0.20247016838831514
Kappa statistic: 0.8458232027298568
Training time: 8.0
		
Iteration: 30
Labeled set size: 957
Unlabelled set size: 929
	
Mean region size: 50.583244962884415
Incorrectly Classified Instances: 1.6436903499469777
Correctly Classified Instances: 98.35630965005302
Weighted Precision: 0.9830807283812073
Weighted AreaUnderROC: 0.8413720046756283
Root mean squared error: 0.12938118425146355
Relative absolute error: 3.9144944883613455
Root relative squared error: 25.87623685029271
Weighted TruePositiveRate: 0.9835630965005302
Weighted MatthewsCorrelation: 0.8496250259006886
Weighted FMeasure: 0.9828738700185206
Iteration time: 9.0
Weighted AreaUnderPRC: 0.962701520825075
Mean absolute error: 0.019572472441806727
Coverage of cases: 98.40933191940616
Instances selection time: 1.0
Test time: 4.0
Accumulative iteration time: 235.0
Weighted Recall: 0.9835630965005302
Weighted FalsePositiveRate: 0.20247016838831514
Kappa statistic: 0.8458232027298568
Training time: 8.0
		
Iteration: 31
Labeled set size: 977
Unlabelled set size: 909
	
Mean region size: 50.583244962884415
Incorrectly Classified Instances: 1.8027571580063626
Correctly Classified Instances: 98.19724284199364
Weighted Precision: 0.981410124433113
Weighted AreaUnderROC: 0.8157948568088835
Root mean squared error: 0.1353842870735097
Relative absolute error: 4.227725498977849
Root relative squared error: 27.076857414701937
Weighted TruePositiveRate: 0.9819724284199364
Weighted MatthewsCorrelation: 0.8338010265768528
Weighted FMeasure: 0.9810837989457243
Iteration time: 10.0
Weighted AreaUnderPRC: 0.9579152152276141
Mean absolute error: 0.021138627494889244
Coverage of cases: 98.25026511134676
Instances selection time: 2.0
Test time: 3.0
Accumulative iteration time: 245.0
Weighted Recall: 0.9819724284199364
Weighted FalsePositiveRate: 0.22674156927323852
Kappa statistic: 0.8286609022797473
Training time: 8.0
		
Iteration: 32
Labeled set size: 997
Unlabelled set size: 889
	
Mean region size: 50.583244962884415
Incorrectly Classified Instances: 1.8027571580063626
Correctly Classified Instances: 98.19724284199364
Weighted Precision: 0.981410124433113
Weighted AreaUnderROC: 0.8161239605496962
Root mean squared error: 0.13538515041002738
Relative absolute error: 4.223552261783638
Root relative squared error: 27.077030082005475
Weighted TruePositiveRate: 0.9819724284199364
Weighted MatthewsCorrelation: 0.8338010265768528
Weighted FMeasure: 0.9810837989457243
Iteration time: 10.0
Weighted AreaUnderPRC: 0.9543739364024942
Mean absolute error: 0.021117761308918192
Coverage of cases: 98.25026511134676
Instances selection time: 1.0
Test time: 4.0
Accumulative iteration time: 255.0
Weighted Recall: 0.9819724284199364
Weighted FalsePositiveRate: 0.22674156927323852
Kappa statistic: 0.8286609022797473
Training time: 9.0
		
Iteration: 33
Labeled set size: 1017
Unlabelled set size: 869
	
Mean region size: 50.583244962884415
Incorrectly Classified Instances: 1.8027571580063626
Correctly Classified Instances: 98.19724284199364
Weighted Precision: 0.981410124433113
Weighted AreaUnderROC: 0.8157948568088835
Root mean squared error: 0.13538598078617134
Relative absolute error: 4.219554362343512
Root relative squared error: 27.07719615723427
Weighted TruePositiveRate: 0.9819724284199364
Weighted MatthewsCorrelation: 0.8338010265768528
Weighted FMeasure: 0.9810837989457243
Iteration time: 10.0
Weighted AreaUnderPRC: 0.9579152152276141
Mean absolute error: 0.02109777181171756
Coverage of cases: 98.25026511134676
Instances selection time: 1.0
Test time: 4.0
Accumulative iteration time: 265.0
Weighted Recall: 0.9819724284199364
Weighted FalsePositiveRate: 0.22674156927323852
Kappa statistic: 0.8286609022797473
Training time: 9.0
		
Iteration: 34
Labeled set size: 1037
Unlabelled set size: 849
	
Mean region size: 50.583244962884415
Incorrectly Classified Instances: 1.8027571580063626
Correctly Classified Instances: 98.19724284199364
Weighted Precision: 0.981410124433113
Weighted AreaUnderROC: 0.8154657530680712
Root mean squared error: 0.13538678004766874
Relative absolute error: 4.215720917759654
Root relative squared error: 27.077356009533748
Weighted TruePositiveRate: 0.9819724284199364
Weighted MatthewsCorrelation: 0.8338010265768528
Weighted FMeasure: 0.9810837989457243
Iteration time: 10.0
Weighted AreaUnderPRC: 0.955322818621442
Mean absolute error: 0.02107860458879827
Coverage of cases: 98.25026511134676
Instances selection time: 1.0
Test time: 4.0
Accumulative iteration time: 275.0
Weighted Recall: 0.9819724284199364
Weighted FalsePositiveRate: 0.22674156927323852
Kappa statistic: 0.8286609022797473
Training time: 9.0
		
Iteration: 35
Labeled set size: 1057
Unlabelled set size: 829
	
Mean region size: 50.583244962884415
Incorrectly Classified Instances: 1.8027571580063626
Correctly Classified Instances: 98.19724284199364
Weighted Precision: 0.981410124433113
Weighted AreaUnderROC: 0.8154657530680712
Root mean squared error: 0.13538754990559204
Relative absolute error: 4.212041932263826
Root relative squared error: 27.077509981118407
Weighted TruePositiveRate: 0.9819724284199364
Weighted MatthewsCorrelation: 0.8338010265768528
Weighted FMeasure: 0.9810837989457243
Iteration time: 11.0
Weighted AreaUnderPRC: 0.955322818621442
Mean absolute error: 0.02106020966131913
Coverage of cases: 98.25026511134676
Instances selection time: 2.0
Test time: 3.0
Accumulative iteration time: 286.0
Weighted Recall: 0.9819724284199364
Weighted FalsePositiveRate: 0.22674156927323852
Kappa statistic: 0.8286609022797473
Training time: 9.0
		
Iteration: 36
Labeled set size: 1077
Unlabelled set size: 809
	
Mean region size: 50.583244962884415
Incorrectly Classified Instances: 1.8027571580063626
Correctly Classified Instances: 98.19724284199364
Weighted Precision: 0.981410124433113
Weighted AreaUnderROC: 0.8157948568088835
Root mean squared error: 0.13538829194834023
Relative absolute error: 4.208508208172514
Root relative squared error: 27.077658389668045
Weighted TruePositiveRate: 0.9819724284199364
Weighted MatthewsCorrelation: 0.8338010265768528
Weighted FMeasure: 0.9810837989457243
Iteration time: 10.0
Weighted AreaUnderPRC: 0.9579152152276141
Mean absolute error: 0.02104254104086257
Coverage of cases: 98.25026511134676
Instances selection time: 1.0
Test time: 4.0
Accumulative iteration time: 296.0
Weighted Recall: 0.9819724284199364
Weighted FalsePositiveRate: 0.22674156927323852
Kappa statistic: 0.8286609022797473
Training time: 9.0
		
Iteration: 37
Labeled set size: 1097
Unlabelled set size: 789
	
Mean region size: 50.583244962884415
Incorrectly Classified Instances: 1.8027571580063626
Correctly Classified Instances: 98.19724284199364
Weighted Precision: 0.981410124433113
Weighted AreaUnderROC: 0.8157948568088835
Root mean squared error: 0.1353890076523814
Relative absolute error: 4.205111267406978
Root relative squared error: 27.077801530476282
Weighted TruePositiveRate: 0.9819724284199364
Weighted MatthewsCorrelation: 0.8338010265768528
Weighted FMeasure: 0.9810837989457243
Iteration time: 10.0
Weighted AreaUnderPRC: 0.9579152152276141
Mean absolute error: 0.02102555633703489
Coverage of cases: 98.25026511134676
Instances selection time: 1.0
Test time: 4.0
Accumulative iteration time: 306.0
Weighted Recall: 0.9819724284199364
Weighted FalsePositiveRate: 0.22674156927323852
Kappa statistic: 0.8286609022797473
Training time: 9.0
		
Iteration: 38
Labeled set size: 1117
Unlabelled set size: 769
	
Mean region size: 52.67762460233298
Incorrectly Classified Instances: 1.8027571580063626
Correctly Classified Instances: 98.19724284199364
Weighted Precision: 0.981410124433113
Weighted AreaUnderROC: 0.8032443937188082
Root mean squared error: 0.13387499164431266
Relative absolute error: 4.904182604577642
Root relative squared error: 26.77499832886253
Weighted TruePositiveRate: 0.9819724284199364
Weighted MatthewsCorrelation: 0.8338010265768528
Weighted FMeasure: 0.9810837989457243
Iteration time: 12.0
Weighted AreaUnderPRC: 0.9564503542856108
Mean absolute error: 0.024520913022888207
Coverage of cases: 98.51537645811241
Instances selection time: 2.0
Test time: 4.0
Accumulative iteration time: 318.0
Weighted Recall: 0.9819724284199364
Weighted FalsePositiveRate: 0.22674156927323852
Kappa statistic: 0.8286609022797473
Training time: 10.0
		
Iteration: 39
Labeled set size: 1137
Unlabelled set size: 749
	
Mean region size: 50.238600212089075
Incorrectly Classified Instances: 1.9618239660657477
Correctly Classified Instances: 98.03817603393425
Weighted Precision: 0.9799169460035693
Weighted AreaUnderROC: 0.8650180206506916
Root mean squared error: 0.13901786239977343
Relative absolute error: 4.2099709954721245
Root relative squared error: 27.803572479954685
Weighted TruePositiveRate: 0.9803817603393425
Weighted MatthewsCorrelation: 0.8255868497776071
Weighted FMeasure: 0.9800959460079395
Iteration time: 11.0
Weighted AreaUnderPRC: 0.9641510302756806
Mean absolute error: 0.021049854977360623
Coverage of cases: 98.1442205726405
Instances selection time: 1.0
Test time: 3.0
Accumulative iteration time: 329.0
Weighted Recall: 0.9803817603393425
Weighted FalsePositiveRate: 0.17851150902432206
Kappa statistic: 0.8251349414376714
Training time: 10.0
		
Iteration: 40
Labeled set size: 1157
Unlabelled set size: 729
	
Mean region size: 50.238600212089075
Incorrectly Classified Instances: 2.1208907741251326
Correctly Classified Instances: 97.87910922587487
Weighted Precision: 0.9781152466058217
Weighted AreaUnderROC: 0.8398682118221583
Root mean squared error: 0.14461742461606664
Relative absolute error: 4.523855807441178
Root relative squared error: 28.923484923213326
Weighted TruePositiveRate: 0.9787910922587487
Weighted MatthewsCorrelation: 0.8095039915837389
Weighted FMeasure: 0.9783432858575123
Iteration time: 11.0
Weighted AreaUnderPRC: 0.9566032738892042
Mean absolute error: 0.02261927903720589
Coverage of cases: 97.98515376458113
Instances selection time: 1.0
Test time: 4.0
Accumulative iteration time: 340.0
Weighted Recall: 0.9787910922587487
Weighted FalsePositiveRate: 0.20278290990924544
Kappa statistic: 0.808576503425527
Training time: 10.0
		
Iteration: 41
Labeled set size: 1177
Unlabelled set size: 709
	
Mean region size: 50.238600212089075
Incorrectly Classified Instances: 2.1208907741251326
Correctly Classified Instances: 97.87910922587487
Weighted Precision: 0.9781152466058217
Weighted AreaUnderROC: 0.8390865904377286
Root mean squared error: 0.1446180971621118
Relative absolute error: 4.520897309057962
Root relative squared error: 28.92361943242236
Weighted TruePositiveRate: 0.9787910922587487
Weighted MatthewsCorrelation: 0.8095039915837389
Weighted FMeasure: 0.9783432858575123
Iteration time: 12.0
Weighted AreaUnderPRC: 0.9568410176201061
Mean absolute error: 0.02260448654528981
Coverage of cases: 97.98515376458113
Instances selection time: 1.0
Test time: 4.0
Accumulative iteration time: 352.0
Weighted Recall: 0.9787910922587487
Weighted FalsePositiveRate: 0.20278290990924544
Kappa statistic: 0.808576503425527
Training time: 11.0
		
Iteration: 42
Labeled set size: 1197
Unlabelled set size: 689
	
Mean region size: 50.238600212089075
Incorrectly Classified Instances: 2.1208907741251326
Correctly Classified Instances: 97.87910922587487
Weighted Precision: 0.9781152466058217
Weighted AreaUnderROC: 0.8394774011299435
Root mean squared error: 0.14461874750660889
Relative absolute error: 4.518044158374969
Root relative squared error: 28.923749501321776
Weighted TruePositiveRate: 0.9787910922587487
Weighted MatthewsCorrelation: 0.8095039915837389
Weighted FMeasure: 0.9783432858575123
Iteration time: 11.0
Weighted AreaUnderPRC: 0.959280853848981
Mean absolute error: 0.022590220791874845
Coverage of cases: 97.98515376458113
Instances selection time: 1.0
Test time: 4.0
Accumulative iteration time: 363.0
Weighted Recall: 0.9787910922587487
Weighted FalsePositiveRate: 0.20278290990924544
Kappa statistic: 0.808576503425527
Training time: 10.0
		
Iteration: 43
Labeled set size: 1217
Unlabelled set size: 669
	
Mean region size: 50.238600212089075
Incorrectly Classified Instances: 2.1208907741251326
Correctly Classified Instances: 97.87910922587487
Weighted Precision: 0.9781152466058217
Weighted AreaUnderROC: 0.8398682118221583
Root mean squared error: 0.1446193767304468
Relative absolute error: 4.515290798115984
Root relative squared error: 28.92387534608936
Weighted TruePositiveRate: 0.9787910922587487
Weighted MatthewsCorrelation: 0.8095039915837389
Weighted FMeasure: 0.9783432858575123
Iteration time: 11.0
Weighted AreaUnderPRC: 0.9566032738892042
Mean absolute error: 0.02257645399057992
Coverage of cases: 97.98515376458113
Instances selection time: 1.0
Test time: 4.0
Accumulative iteration time: 374.0
Weighted Recall: 0.9787910922587487
Weighted FalsePositiveRate: 0.20278290990924544
Kappa statistic: 0.808576503425527
Training time: 10.0
		
Iteration: 44
Labeled set size: 1237
Unlabelled set size: 649
	
Mean region size: 50.238600212089075
Incorrectly Classified Instances: 2.1208907741251326
Correctly Classified Instances: 97.87910922587487
Weighted Precision: 0.9781152466058217
Weighted AreaUnderROC: 0.8394774011299435
Root mean squared error: 0.1446199858455371
Relative absolute error: 4.512632057074815
Root relative squared error: 28.92399716910742
Weighted TruePositiveRate: 0.9787910922587487
Weighted MatthewsCorrelation: 0.8095039915837389
Weighted FMeasure: 0.9783432858575123
Iteration time: 12.0
Weighted AreaUnderPRC: 0.959280853848981
Mean absolute error: 0.022563160285374077
Coverage of cases: 97.98515376458113
Instances selection time: 1.0
Test time: 4.0
Accumulative iteration time: 386.0
Weighted Recall: 0.9787910922587487
Weighted FalsePositiveRate: 0.20278290990924544
Kappa statistic: 0.808576503425527
Training time: 11.0
		
Iteration: 45
Labeled set size: 1257
Unlabelled set size: 629
	
Mean region size: 50.238600212089075
Incorrectly Classified Instances: 2.1208907741251326
Correctly Classified Instances: 97.87910922587487
Weighted Precision: 0.9781152466058217
Weighted AreaUnderROC: 0.8394774011299435
Root mean squared error: 0.1446205758002233
Relative absolute error: 4.510063117001419
Root relative squared error: 28.92411516004466
Weighted TruePositiveRate: 0.9787910922587487
Weighted MatthewsCorrelation: 0.8095039915837389
Weighted FMeasure: 0.9783432858575123
Iteration time: 11.0
Weighted AreaUnderPRC: 0.959280853848981
Mean absolute error: 0.022550315585007096
Coverage of cases: 97.98515376458113
Instances selection time: 1.0
Test time: 4.0
Accumulative iteration time: 397.0
Weighted Recall: 0.9787910922587487
Weighted FalsePositiveRate: 0.20278290990924544
Kappa statistic: 0.808576503425527
Training time: 10.0
		
Iteration: 46
Labeled set size: 1277
Unlabelled set size: 609
	
Mean region size: 50.238600212089075
Incorrectly Classified Instances: 2.1208907741251326
Correctly Classified Instances: 97.87910922587487
Weighted Precision: 0.9781152466058217
Weighted AreaUnderROC: 0.8394774011299435
Root mean squared error: 0.1446211474841928
Relative absolute error: 4.507579482851542
Root relative squared error: 28.92422949683856
Weighted TruePositiveRate: 0.9787910922587487
Weighted MatthewsCorrelation: 0.8095039915837389
Weighted FMeasure: 0.9783432858575123
Iteration time: 12.0
Weighted AreaUnderPRC: 0.959280853848981
Mean absolute error: 0.02253789741425771
Coverage of cases: 97.98515376458113
Instances selection time: 1.0
Test time: 4.0
Accumulative iteration time: 409.0
Weighted Recall: 0.9787910922587487
Weighted FalsePositiveRate: 0.20278290990924544
Kappa statistic: 0.808576503425527
Training time: 11.0
		
Time end:Sun Oct 08 05.39.10 EEST 2017