Sun Oct 08 05.59.06 EEST 2017
Dataset: sick
Test set size: 1886
Initial Labelled set size: 377
Initial Unlabelled set size: 1509
Batch mode: QBestBatchMode
Batch size: 20
Classifiers: J48-1cores
Scenario: PoolBasedSamplingScenario
Query strategy: RandomSelectionQueryStrategy-1cores
Time begining: Sun Oct 08 05.59.06 EEST 2017
		
Iteration: 1
Labeled set size: 377
Unlabelled set size: 1509
	
Mean region size: 51.21951219512195
Incorrectly Classified Instances: 2.014846235418876
Correctly Classified Instances: 97.98515376458113
Weighted Precision: 0.9790271179749487
Weighted AreaUnderROC: 0.894503701539061
Root mean squared error: 0.13873739314141031
Relative absolute error: 5.611027108074708
Root relative squared error: 27.747478628282064
Weighted TruePositiveRate: 0.9798515376458112
Weighted MatthewsCorrelation: 0.8150740504640309
Weighted FMeasure: 0.979055138162993
Iteration time: 9.0
Weighted AreaUnderPRC: 0.9710478108744206
Mean absolute error: 0.028055135540373543
Coverage of cases: 98.09119830328738
Instances selection time: 5.0
Test time: 3.0
Accumulative iteration time: 9.0
Weighted Recall: 0.9798515376458112
Weighted FalsePositiveRate: 0.22688056550476313
Kappa statistic: 0.8118298203051976
Training time: 4.0
		
Iteration: 2
Labeled set size: 397
Unlabelled set size: 1489
	
Mean region size: 53.71155885471898
Incorrectly Classified Instances: 1.9088016967126193
Correctly Classified Instances: 98.09119830328738
Weighted Precision: 0.9801871276417619
Weighted AreaUnderROC: 0.9116744593804793
Root mean squared error: 0.13415515731984115
Relative absolute error: 5.7982702027361945
Root relative squared error: 26.83103146396823
Weighted TruePositiveRate: 0.9809119830328739
Weighted MatthewsCorrelation: 0.8258199673468639
Weighted FMeasure: 0.9802479621118411
Iteration time: 9.0
Weighted AreaUnderPRC: 0.9747380377623973
Mean absolute error: 0.02899135101368097
Coverage of cases: 98.72746553552491
Instances selection time: 4.0
Test time: 4.0
Accumulative iteration time: 18.0
Weighted Recall: 0.9809119830328739
Weighted FalsePositiveRate: 0.21069963158148086
Kappa statistic: 0.8232685019366129
Training time: 5.0
		
Iteration: 3
Labeled set size: 417
Unlabelled set size: 1469
	
Mean region size: 53.71155885471898
Incorrectly Classified Instances: 1.9088016967126193
Correctly Classified Instances: 98.09119830328738
Weighted Precision: 0.9801871276417619
Weighted AreaUnderROC: 0.9116744593804793
Root mean squared error: 0.13447028438167327
Relative absolute error: 5.714480673206749
Root relative squared error: 26.894056876334655
Weighted TruePositiveRate: 0.9809119830328739
Weighted MatthewsCorrelation: 0.8258199673468639
Weighted FMeasure: 0.9802479621118411
Iteration time: 9.0
Weighted AreaUnderPRC: 0.9747380377623973
Mean absolute error: 0.028572403366033745
Coverage of cases: 98.72746553552491
Instances selection time: 4.0
Test time: 4.0
Accumulative iteration time: 27.0
Weighted Recall: 0.9809119830328739
Weighted FalsePositiveRate: 0.21069963158148086
Kappa statistic: 0.8232685019366129
Training time: 5.0
		
Iteration: 4
Labeled set size: 437
Unlabelled set size: 1449
	
Mean region size: 53.71155885471898
Incorrectly Classified Instances: 1.9088016967126193
Correctly Classified Instances: 98.09119830328738
Weighted Precision: 0.9801871276417619
Weighted AreaUnderROC: 0.9116744593804793
Root mean squared error: 0.13442994120766627
Relative absolute error: 5.648048821275371
Root relative squared error: 26.885988241533255
Weighted TruePositiveRate: 0.9809119830328739
Weighted MatthewsCorrelation: 0.8258199673468639
Weighted FMeasure: 0.9802479621118411
Iteration time: 10.0
Weighted AreaUnderPRC: 0.9747380377623973
Mean absolute error: 0.028240244106376853
Coverage of cases: 98.72746553552491
Instances selection time: 4.0
Test time: 4.0
Accumulative iteration time: 37.0
Weighted Recall: 0.9809119830328739
Weighted FalsePositiveRate: 0.21069963158148086
Kappa statistic: 0.8232685019366129
Training time: 6.0
		
Iteration: 5
Labeled set size: 457
Unlabelled set size: 1429
	
Mean region size: 53.71155885471898
Incorrectly Classified Instances: 1.9088016967126193
Correctly Classified Instances: 98.09119830328738
Weighted Precision: 0.9801871276417619
Weighted AreaUnderROC: 0.9116744593804793
Root mean squared error: 0.13442687210012555
Relative absolute error: 5.576026615569174
Root relative squared error: 26.88537442002511
Weighted TruePositiveRate: 0.9809119830328739
Weighted MatthewsCorrelation: 0.8258199673468639
Weighted FMeasure: 0.9802479621118411
Iteration time: 9.0
Weighted AreaUnderPRC: 0.9747380377623973
Mean absolute error: 0.02788013307784587
Coverage of cases: 98.72746553552491
Instances selection time: 4.0
Test time: 4.0
Accumulative iteration time: 46.0
Weighted Recall: 0.9809119830328739
Weighted FalsePositiveRate: 0.21069963158148086
Kappa statistic: 0.8232685019366129
Training time: 5.0
		
Iteration: 6
Labeled set size: 477
Unlabelled set size: 1409
	
Mean region size: 53.81760339342524
Incorrectly Classified Instances: 1.9088016967126193
Correctly Classified Instances: 98.09119830328738
Weighted Precision: 0.9801871276417619
Weighted AreaUnderROC: 0.9115186051042276
Root mean squared error: 0.1344271554406948
Relative absolute error: 5.567671237856207
Root relative squared error: 26.88543108813896
Weighted TruePositiveRate: 0.9809119830328739
Weighted MatthewsCorrelation: 0.8258199673468639
Weighted FMeasure: 0.9802479621118411
Iteration time: 9.0
Weighted AreaUnderPRC: 0.9743570579614905
Mean absolute error: 0.027838356189281037
Coverage of cases: 98.72746553552491
Instances selection time: 4.0
Test time: 4.0
Accumulative iteration time: 55.0
Weighted Recall: 0.9809119830328739
Weighted FalsePositiveRate: 0.21069963158148086
Kappa statistic: 0.8232685019366129
Training time: 5.0
		
Iteration: 7
Labeled set size: 497
Unlabelled set size: 1389
	
Mean region size: 53.81760339342524
Incorrectly Classified Instances: 1.9088016967126193
Correctly Classified Instances: 98.09119830328738
Weighted Precision: 0.9801871276417619
Weighted AreaUnderROC: 0.9113822326125073
Root mean squared error: 0.1344919030943293
Relative absolute error: 5.5665667693799925
Root relative squared error: 26.898380618865858
Weighted TruePositiveRate: 0.9809119830328739
Weighted MatthewsCorrelation: 0.8258199673468639
Weighted FMeasure: 0.9802479621118411
Iteration time: 10.0
Weighted AreaUnderPRC: 0.973968396377712
Mean absolute error: 0.02783283384689996
Coverage of cases: 98.72746553552491
Instances selection time: 4.0
Test time: 4.0
Accumulative iteration time: 65.0
Weighted Recall: 0.9809119830328739
Weighted FalsePositiveRate: 0.21069963158148086
Kappa statistic: 0.8232685019366129
Training time: 6.0
		
Iteration: 8
Labeled set size: 517
Unlabelled set size: 1369
	
Mean region size: 53.76458112407211
Incorrectly Classified Instances: 2.5980911983032873
Correctly Classified Instances: 97.4019088016967
Weighted Precision: 0.9728229878514196
Weighted AreaUnderROC: 0.9213788233002143
Root mean squared error: 0.15395536354337214
Relative absolute error: 6.446047559343987
Root relative squared error: 30.791072708674427
Weighted TruePositiveRate: 0.9740190880169671
Weighted MatthewsCorrelation: 0.7625325231034629
Weighted FMeasure: 0.973175942280132
Iteration time: 9.0
Weighted AreaUnderPRC: 0.9725902029432608
Mean absolute error: 0.032230237796719935
Coverage of cases: 98.99257688229056
Instances selection time: 4.0
Test time: 4.0
Accumulative iteration time: 74.0
Weighted Recall: 0.9740190880169671
Weighted FalsePositiveRate: 0.2594856767564957
Kappa statistic: 0.7604800041469042
Training time: 5.0
		
Iteration: 9
Labeled set size: 537
Unlabelled set size: 1349
	
Mean region size: 53.81760339342524
Incorrectly Classified Instances: 1.9088016967126193
Correctly Classified Instances: 98.09119830328738
Weighted Precision: 0.9801871276417619
Weighted AreaUnderROC: 0.9113822326125073
Root mean squared error: 0.1346157671788341
Relative absolute error: 5.895015508537933
Root relative squared error: 26.92315343576682
Weighted TruePositiveRate: 0.9809119830328739
Weighted MatthewsCorrelation: 0.8258199673468639
Weighted FMeasure: 0.9802479621118411
Iteration time: 10.0
Weighted AreaUnderPRC: 0.9739772334226042
Mean absolute error: 0.029475077542689666
Coverage of cases: 98.72746553552491
Instances selection time: 4.0
Test time: 3.0
Accumulative iteration time: 84.0
Weighted Recall: 0.9809119830328739
Weighted FalsePositiveRate: 0.21069963158148086
Kappa statistic: 0.8232685019366129
Training time: 6.0
		
Iteration: 10
Labeled set size: 557
Unlabelled set size: 1329
	
Mean region size: 53.76458112407211
Incorrectly Classified Instances: 2.5980911983032873
Correctly Classified Instances: 97.4019088016967
Weighted Precision: 0.9728229878514196
Weighted AreaUnderROC: 0.9213788233002143
Root mean squared error: 0.15424254561944845
Relative absolute error: 6.67352990147807
Root relative squared error: 30.848509123889688
Weighted TruePositiveRate: 0.9740190880169671
Weighted MatthewsCorrelation: 0.7625325231034629
Weighted FMeasure: 0.973175942280132
Iteration time: 9.0
Weighted AreaUnderPRC: 0.9725902029432608
Mean absolute error: 0.03336764950739035
Coverage of cases: 98.99257688229056
Instances selection time: 4.0
Test time: 3.0
Accumulative iteration time: 93.0
Weighted Recall: 0.9740190880169671
Weighted FalsePositiveRate: 0.2594856767564957
Kappa statistic: 0.7604800041469042
Training time: 5.0
		
Iteration: 11
Labeled set size: 577
Unlabelled set size: 1309
	
Mean region size: 53.73806998939555
Incorrectly Classified Instances: 2.545068928950159
Correctly Classified Instances: 97.45493107104984
Weighted Precision: 0.9733439417455667
Weighted AreaUnderROC: 0.9217514124293785
Root mean squared error: 0.15272523010548916
Relative absolute error: 6.8989768639382945
Root relative squared error: 30.545046021097832
Weighted TruePositiveRate: 0.9745493107104984
Weighted MatthewsCorrelation: 0.7667268931689385
Weighted FMeasure: 0.9736639494824546
Iteration time: 15.0
Weighted AreaUnderPRC: 0.9730552808916603
Mean absolute error: 0.03449488431969147
Coverage of cases: 98.99257688229056
Instances selection time: 3.0
Test time: 4.0
Accumulative iteration time: 108.0
Weighted Recall: 0.9745493107104984
Weighted FalsePositiveRate: 0.2594509276986145
Kappa statistic: 0.7643580025821503
Training time: 12.0
		
Iteration: 12
Labeled set size: 597
Unlabelled set size: 1289
	
Mean region size: 53.73806998939555
Incorrectly Classified Instances: 2.545068928950159
Correctly Classified Instances: 97.45493107104984
Weighted Precision: 0.9733439417455667
Weighted AreaUnderROC: 0.9217514124293785
Root mean squared error: 0.15277127816434977
Relative absolute error: 6.844016272532619
Root relative squared error: 30.554255632869953
Weighted TruePositiveRate: 0.9745493107104984
Weighted MatthewsCorrelation: 0.7667268931689385
Weighted FMeasure: 0.9736639494824546
Iteration time: 15.0
Weighted AreaUnderPRC: 0.9730552808916603
Mean absolute error: 0.03422008136266309
Coverage of cases: 98.99257688229056
Instances selection time: 3.0
Test time: 4.0
Accumulative iteration time: 123.0
Weighted Recall: 0.9745493107104984
Weighted FalsePositiveRate: 0.2594509276986145
Kappa statistic: 0.7643580025821503
Training time: 12.0
		
Iteration: 13
Labeled set size: 617
Unlabelled set size: 1269
	
Mean region size: 53.73806998939555
Incorrectly Classified Instances: 2.545068928950159
Correctly Classified Instances: 97.45493107104984
Weighted Precision: 0.9733439417455667
Weighted AreaUnderROC: 0.9217514124293785
Root mean squared error: 0.15277593296317435
Relative absolute error: 6.80813498626776
Root relative squared error: 30.55518659263487
Weighted TruePositiveRate: 0.9745493107104984
Weighted MatthewsCorrelation: 0.7667268931689385
Weighted FMeasure: 0.9736639494824546
Iteration time: 16.0
Weighted AreaUnderPRC: 0.9730552808916603
Mean absolute error: 0.0340406749313388
Coverage of cases: 98.99257688229056
Instances selection time: 3.0
Test time: 4.0
Accumulative iteration time: 139.0
Weighted Recall: 0.9745493107104984
Weighted FalsePositiveRate: 0.2594509276986145
Kappa statistic: 0.7643580025821503
Training time: 13.0
		
Iteration: 14
Labeled set size: 637
Unlabelled set size: 1249
	
Mean region size: 53.73806998939555
Incorrectly Classified Instances: 2.545068928950159
Correctly Classified Instances: 97.45493107104984
Weighted Precision: 0.9733439417455667
Weighted AreaUnderROC: 0.9217514124293785
Root mean squared error: 0.15294396353858888
Relative absolute error: 6.75741522917728
Root relative squared error: 30.588792707717776
Weighted TruePositiveRate: 0.9745493107104984
Weighted MatthewsCorrelation: 0.7667268931689385
Weighted FMeasure: 0.9736639494824546
Iteration time: 16.0
Weighted AreaUnderPRC: 0.9730552808916603
Mean absolute error: 0.0337870761458864
Coverage of cases: 98.99257688229056
Instances selection time: 3.0
Test time: 4.0
Accumulative iteration time: 155.0
Weighted Recall: 0.9745493107104984
Weighted FalsePositiveRate: 0.2594509276986145
Kappa statistic: 0.7643580025821503
Training time: 13.0
		
Iteration: 15
Labeled set size: 657
Unlabelled set size: 1229
	
Mean region size: 53.73806998939555
Incorrectly Classified Instances: 2.545068928950159
Correctly Classified Instances: 97.45493107104984
Weighted Precision: 0.9733439417455667
Weighted AreaUnderROC: 0.9217514124293785
Root mean squared error: 0.1530277924691464
Relative absolute error: 6.697862960387912
Root relative squared error: 30.60555849382928
Weighted TruePositiveRate: 0.9745493107104984
Weighted MatthewsCorrelation: 0.7667268931689385
Weighted FMeasure: 0.9736639494824546
Iteration time: 16.0
Weighted AreaUnderPRC: 0.9730552808916603
Mean absolute error: 0.03348931480193956
Coverage of cases: 98.99257688229056
Instances selection time: 3.0
Test time: 4.0
Accumulative iteration time: 171.0
Weighted Recall: 0.9745493107104984
Weighted FalsePositiveRate: 0.2594509276986145
Kappa statistic: 0.7643580025821503
Training time: 13.0
		
Iteration: 16
Labeled set size: 677
Unlabelled set size: 1209
	
Mean region size: 53.73806998939555
Incorrectly Classified Instances: 2.545068928950159
Correctly Classified Instances: 97.45493107104984
Weighted Precision: 0.9733439417455667
Weighted AreaUnderROC: 0.9217514124293785
Root mean squared error: 0.15303220501019668
Relative absolute error: 6.667829984957796
Root relative squared error: 30.606441002039336
Weighted TruePositiveRate: 0.9745493107104984
Weighted MatthewsCorrelation: 0.7667268931689385
Weighted FMeasure: 0.9736639494824546
Iteration time: 17.0
Weighted AreaUnderPRC: 0.9730552808916603
Mean absolute error: 0.03333914992478898
Coverage of cases: 98.99257688229056
Instances selection time: 3.0
Test time: 4.0
Accumulative iteration time: 188.0
Weighted Recall: 0.9745493107104984
Weighted FalsePositiveRate: 0.2594509276986145
Kappa statistic: 0.7643580025821503
Training time: 14.0
		
Iteration: 17
Labeled set size: 697
Unlabelled set size: 1189
	
Mean region size: 53.73806998939555
Incorrectly Classified Instances: 2.545068928950159
Correctly Classified Instances: 97.45493107104984
Weighted Precision: 0.9733439417455667
Weighted AreaUnderROC: 0.9217514124293785
Root mean squared error: 0.15303645255718912
Relative absolute error: 6.639881234991482
Root relative squared error: 30.607290511437824
Weighted TruePositiveRate: 0.9745493107104984
Weighted MatthewsCorrelation: 0.7667268931689385
Weighted FMeasure: 0.9736639494824546
Iteration time: 17.0
Weighted AreaUnderPRC: 0.9730552808916603
Mean absolute error: 0.03319940617495741
Coverage of cases: 98.99257688229056
Instances selection time: 3.0
Test time: 4.0
Accumulative iteration time: 205.0
Weighted Recall: 0.9745493107104984
Weighted FalsePositiveRate: 0.2594509276986145
Kappa statistic: 0.7643580025821503
Training time: 14.0
		
Iteration: 18
Labeled set size: 717
Unlabelled set size: 1169
	
Mean region size: 53.73806998939555
Incorrectly Classified Instances: 2.545068928950159
Correctly Classified Instances: 97.45493107104984
Weighted Precision: 0.9733439417455667
Weighted AreaUnderROC: 0.9217514124293785
Root mean squared error: 0.1514950366239923
Relative absolute error: 6.635118534348014
Root relative squared error: 30.29900732479846
Weighted TruePositiveRate: 0.9745493107104984
Weighted MatthewsCorrelation: 0.7667268931689385
Weighted FMeasure: 0.9736639494824546
Iteration time: 18.0
Weighted AreaUnderPRC: 0.9730552808916603
Mean absolute error: 0.03317559267174007
Coverage of cases: 98.99257688229056
Instances selection time: 3.0
Test time: 3.0
Accumulative iteration time: 223.0
Weighted Recall: 0.9745493107104984
Weighted FalsePositiveRate: 0.2594509276986145
Kappa statistic: 0.7643580025821503
Training time: 15.0
		
Iteration: 19
Labeled set size: 737
Unlabelled set size: 1149
	
Mean region size: 53.73806998939555
Incorrectly Classified Instances: 2.545068928950159
Correctly Classified Instances: 97.45493107104984
Weighted Precision: 0.9733439417455667
Weighted AreaUnderROC: 0.9217514124293785
Root mean squared error: 0.15158102543545035
Relative absolute error: 6.589746585194415
Root relative squared error: 30.31620508709007
Weighted TruePositiveRate: 0.9745493107104984
Weighted MatthewsCorrelation: 0.7667268931689385
Weighted FMeasure: 0.9736639494824546
Iteration time: 17.0
Weighted AreaUnderPRC: 0.9730552808916603
Mean absolute error: 0.03294873292597207
Coverage of cases: 98.99257688229056
Instances selection time: 2.0
Test time: 4.0
Accumulative iteration time: 240.0
Weighted Recall: 0.9745493107104984
Weighted FalsePositiveRate: 0.2594509276986145
Kappa statistic: 0.7643580025821503
Training time: 15.0
		
Iteration: 20
Labeled set size: 757
Unlabelled set size: 1129
	
Mean region size: 53.73806998939555
Incorrectly Classified Instances: 2.545068928950159
Correctly Classified Instances: 97.45493107104984
Weighted Precision: 0.9733439417455667
Weighted AreaUnderROC: 0.9217514124293785
Root mean squared error: 0.1515847582198368
Relative absolute error: 6.567098459070481
Root relative squared error: 30.31695164396736
Weighted TruePositiveRate: 0.9745493107104984
Weighted MatthewsCorrelation: 0.7667268931689385
Weighted FMeasure: 0.9736639494824546
Iteration time: 18.0
Weighted AreaUnderPRC: 0.9730552808916603
Mean absolute error: 0.0328354922953524
Coverage of cases: 98.99257688229056
Instances selection time: 3.0
Test time: 4.0
Accumulative iteration time: 258.0
Weighted Recall: 0.9745493107104984
Weighted FalsePositiveRate: 0.2594509276986145
Kappa statistic: 0.7643580025821503
Training time: 15.0
		
Iteration: 21
Labeled set size: 777
Unlabelled set size: 1109
	
Mean region size: 53.73806998939555
Incorrectly Classified Instances: 2.545068928950159
Correctly Classified Instances: 97.45493107104984
Weighted Precision: 0.9733439417455667
Weighted AreaUnderROC: 0.9217514124293785
Root mean squared error: 0.1515885904069722
Relative absolute error: 6.544595042992849
Root relative squared error: 30.31771808139444
Weighted TruePositiveRate: 0.9745493107104984
Weighted MatthewsCorrelation: 0.7667268931689385
Weighted FMeasure: 0.9736639494824546
Iteration time: 18.0
Weighted AreaUnderPRC: 0.9730552808916603
Mean absolute error: 0.03272297521496425
Coverage of cases: 98.99257688229056
Instances selection time: 2.0
Test time: 4.0
Accumulative iteration time: 276.0
Weighted Recall: 0.9745493107104984
Weighted FalsePositiveRate: 0.2594509276986145
Kappa statistic: 0.7643580025821503
Training time: 16.0
		
Iteration: 22
Labeled set size: 797
Unlabelled set size: 1089
	
Mean region size: 53.73806998939555
Incorrectly Classified Instances: 2.545068928950159
Correctly Classified Instances: 97.45493107104984
Weighted Precision: 0.9733439417455667
Weighted AreaUnderROC: 0.9217514124293785
Root mean squared error: 0.15159224495427737
Relative absolute error: 6.523581234674694
Root relative squared error: 30.318448990855472
Weighted TruePositiveRate: 0.9745493107104984
Weighted MatthewsCorrelation: 0.7667268931689385
Weighted FMeasure: 0.9736639494824546
Iteration time: 23.0
Weighted AreaUnderPRC: 0.9730552808916603
Mean absolute error: 0.03261790617337347
Coverage of cases: 98.99257688229056
Instances selection time: 3.0
Test time: 3.0
Accumulative iteration time: 299.0
Weighted Recall: 0.9745493107104984
Weighted FalsePositiveRate: 0.2594509276986145
Kappa statistic: 0.7643580025821503
Training time: 20.0
		
Iteration: 23
Labeled set size: 817
Unlabelled set size: 1069
	
Mean region size: 53.73806998939555
Incorrectly Classified Instances: 2.545068928950159
Correctly Classified Instances: 97.45493107104984
Weighted Precision: 0.9733439417455667
Weighted AreaUnderROC: 0.9217514124293785
Root mean squared error: 0.1517462745604462
Relative absolute error: 6.498834853299851
Root relative squared error: 30.34925491208924
Weighted TruePositiveRate: 0.9745493107104984
Weighted MatthewsCorrelation: 0.7667268931689385
Weighted FMeasure: 0.9736639494824546
Iteration time: 18.0
Weighted AreaUnderPRC: 0.9730552808916603
Mean absolute error: 0.032494174266499254
Coverage of cases: 98.99257688229056
Instances selection time: 2.0
Test time: 4.0
Accumulative iteration time: 317.0
Weighted Recall: 0.9745493107104984
Weighted FalsePositiveRate: 0.2594509276986145
Kappa statistic: 0.7643580025821503
Training time: 16.0
		
Iteration: 24
Labeled set size: 837
Unlabelled set size: 1049
	
Mean region size: 53.73806998939555
Incorrectly Classified Instances: 2.545068928950159
Correctly Classified Instances: 97.45493107104984
Weighted Precision: 0.9733439417455667
Weighted AreaUnderROC: 0.9217514124293785
Root mean squared error: 0.1517902179471114
Relative absolute error: 6.4707249419754325
Root relative squared error: 30.35804358942228
Weighted TruePositiveRate: 0.9745493107104984
Weighted MatthewsCorrelation: 0.7667268931689385
Weighted FMeasure: 0.9736639494824546
Iteration time: 19.0
Weighted AreaUnderPRC: 0.9730552808916603
Mean absolute error: 0.03235362470987716
Coverage of cases: 98.99257688229056
Instances selection time: 2.0
Test time: 4.0
Accumulative iteration time: 336.0
Weighted Recall: 0.9745493107104984
Weighted FalsePositiveRate: 0.2594509276986145
Kappa statistic: 0.7643580025821503
Training time: 17.0
		
Iteration: 25
Labeled set size: 857
Unlabelled set size: 1029
	
Mean region size: 53.73806998939555
Incorrectly Classified Instances: 2.545068928950159
Correctly Classified Instances: 97.45493107104984
Weighted Precision: 0.9733439417455667
Weighted AreaUnderROC: 0.9217514124293785
Root mean squared error: 0.15187063626035777
Relative absolute error: 6.434390984467847
Root relative squared error: 30.374127252071553
Weighted TruePositiveRate: 0.9745493107104984
Weighted MatthewsCorrelation: 0.7667268931689385
Weighted FMeasure: 0.9736639494824546
Iteration time: 19.0
Weighted AreaUnderPRC: 0.9730552808916603
Mean absolute error: 0.032171954922339235
Coverage of cases: 98.99257688229056
Instances selection time: 3.0
Test time: 4.0
Accumulative iteration time: 355.0
Weighted Recall: 0.9745493107104984
Weighted FalsePositiveRate: 0.2594509276986145
Kappa statistic: 0.7643580025821503
Training time: 16.0
		
Iteration: 26
Labeled set size: 877
Unlabelled set size: 1009
	
Mean region size: 53.71155885471898
Incorrectly Classified Instances: 2.545068928950159
Correctly Classified Instances: 97.45493107104984
Weighted Precision: 0.9738305953183918
Weighted AreaUnderROC: 0.9127508279758426
Root mean squared error: 0.1523294479782926
Relative absolute error: 6.601120997887914
Root relative squared error: 30.465889595658517
Weighted TruePositiveRate: 0.9745493107104984
Weighted MatthewsCorrelation: 0.7727610180647506
Weighted FMeasure: 0.9741235271141147
Iteration time: 20.0
Weighted AreaUnderPRC: 0.9704646308838758
Mean absolute error: 0.03300560498943957
Coverage of cases: 98.93955461293743
Instances selection time: 2.0
Test time: 4.0
Accumulative iteration time: 375.0
Weighted Recall: 0.9745493107104984
Weighted FalsePositiveRate: 0.22722805608357458
Kappa statistic: 0.7722038811498512
Training time: 18.0
		
Iteration: 27
Labeled set size: 897
Unlabelled set size: 989
	
Mean region size: 53.71155885471898
Incorrectly Classified Instances: 2.545068928950159
Correctly Classified Instances: 97.45493107104984
Weighted Precision: 0.9738305953183918
Weighted AreaUnderROC: 0.9127508279758426
Root mean squared error: 0.15233256588714864
Relative absolute error: 6.58463225349564
Root relative squared error: 30.46651317742973
Weighted TruePositiveRate: 0.9745493107104984
Weighted MatthewsCorrelation: 0.7727610180647506
Weighted FMeasure: 0.9741235271141147
Iteration time: 20.0
Weighted AreaUnderPRC: 0.9704646308838758
Mean absolute error: 0.0329231612674782
Coverage of cases: 98.93955461293743
Instances selection time: 2.0
Test time: 4.0
Accumulative iteration time: 395.0
Weighted Recall: 0.9745493107104984
Weighted FalsePositiveRate: 0.22722805608357458
Kappa statistic: 0.7722038811498512
Training time: 18.0
		
Iteration: 28
Labeled set size: 917
Unlabelled set size: 969
	
Mean region size: 51.4050901378579
Incorrectly Classified Instances: 2.4920466595970305
Correctly Classified Instances: 97.50795334040296
Weighted Precision: 0.9737672193828064
Weighted AreaUnderROC: 0.8811367621274108
Root mean squared error: 0.15324014120129034
Relative absolute error: 5.809987523000274
Root relative squared error: 30.648028240258068
Weighted TruePositiveRate: 0.9750795334040296
Weighted MatthewsCorrelation: 0.7684683483133795
Weighted FMeasure: 0.9739128961336091
Iteration time: 22.0
Weighted AreaUnderPRC: 0.9676606845758203
Mean absolute error: 0.02904993761500137
Coverage of cases: 98.35630965005302
Instances selection time: 3.0
Test time: 3.0
Accumulative iteration time: 417.0
Weighted Recall: 0.9750795334040296
Weighted FalsePositiveRate: 0.2755276144482533
Kappa statistic: 0.76419104776194
Training time: 19.0
		
Iteration: 29
Labeled set size: 937
Unlabelled set size: 949
	
Mean region size: 51.4050901378579
Incorrectly Classified Instances: 2.4920466595970305
Correctly Classified Instances: 97.50795334040296
Weighted Precision: 0.9737672193828064
Weighted AreaUnderROC: 0.8811367621274108
Root mean squared error: 0.1532495327873197
Relative absolute error: 5.794025401999439
Root relative squared error: 30.64990655746394
Weighted TruePositiveRate: 0.9750795334040296
Weighted MatthewsCorrelation: 0.7684683483133795
Weighted FMeasure: 0.9739128961336091
Iteration time: 22.0
Weighted AreaUnderPRC: 0.9676606845758203
Mean absolute error: 0.028970127009997192
Coverage of cases: 98.35630965005302
Instances selection time: 3.0
Test time: 3.0
Accumulative iteration time: 439.0
Weighted Recall: 0.9750795334040296
Weighted FalsePositiveRate: 0.2755276144482533
Kappa statistic: 0.76419104776194
Training time: 19.0
		
Iteration: 30
Labeled set size: 957
Unlabelled set size: 929
	
Mean region size: 51.4050901378579
Incorrectly Classified Instances: 2.4920466595970305
Correctly Classified Instances: 97.50795334040296
Weighted Precision: 0.9737672193828064
Weighted AreaUnderROC: 0.8811367621274108
Root mean squared error: 0.15325918300757188
Relative absolute error: 5.778297172709365
Root relative squared error: 30.651836601514376
Weighted TruePositiveRate: 0.9750795334040296
Weighted MatthewsCorrelation: 0.7684683483133795
Weighted FMeasure: 0.9739128961336091
Iteration time: 22.0
Weighted AreaUnderPRC: 0.9676606845758203
Mean absolute error: 0.028891485863546826
Coverage of cases: 98.35630965005302
Instances selection time: 2.0
Test time: 4.0
Accumulative iteration time: 461.0
Weighted Recall: 0.9750795334040296
Weighted FalsePositiveRate: 0.2755276144482533
Kappa statistic: 0.76419104776194
Training time: 20.0
		
Iteration: 31
Labeled set size: 977
Unlabelled set size: 909
	
Mean region size: 51.32555673382821
Incorrectly Classified Instances: 2.3329798515376456
Correctly Classified Instances: 97.66702014846236
Weighted Precision: 0.9755696317258069
Weighted AreaUnderROC: 0.8815337034872395
Root mean squared error: 0.1480566762834845
Relative absolute error: 5.617970519265011
Root relative squared error: 29.611335256696904
Weighted TruePositiveRate: 0.9766702014846236
Weighted MatthewsCorrelation: 0.7852442381902569
Weighted FMeasure: 0.9757480547150444
Iteration time: 23.0
Weighted AreaUnderPRC: 0.9683645112844191
Mean absolute error: 0.028089852596325054
Coverage of cases: 98.35630965005302
Instances selection time: 2.0
Test time: 4.0
Accumulative iteration time: 484.0
Weighted Recall: 0.9766702014846236
Weighted FalsePositiveRate: 0.25125621356332994
Kappa statistic: 0.7821187393007555
Training time: 21.0
		
Iteration: 32
Labeled set size: 997
Unlabelled set size: 889
	
Mean region size: 51.35206786850477
Incorrectly Classified Instances: 2.3860021208907742
Correctly Classified Instances: 97.61399787910922
Weighted Precision: 0.9749700227544192
Weighted AreaUnderROC: 0.88142411844925
Root mean squared error: 0.1496493421791606
Relative absolute error: 5.70243501446301
Root relative squared error: 29.92986843583212
Weighted TruePositiveRate: 0.9761399787910923
Weighted MatthewsCorrelation: 0.7796838284999821
Weighted FMeasure: 0.9751394887365621
Iteration time: 24.0
Weighted AreaUnderPRC: 0.9681966866382266
Mean absolute error: 0.028512175072315047
Coverage of cases: 98.35630965005302
Instances selection time: 2.0
Test time: 4.0
Accumulative iteration time: 508.0
Weighted Recall: 0.9761399787910923
Weighted FalsePositiveRate: 0.25934668052497106
Kappa statistic: 0.7761949717046313
Training time: 22.0
		
Iteration: 33
Labeled set size: 1017
Unlabelled set size: 869
	
Mean region size: 51.35206786850477
Incorrectly Classified Instances: 2.3860021208907742
Correctly Classified Instances: 97.61399787910922
Weighted Precision: 0.9749700227544192
Weighted AreaUnderROC: 0.88142411844925
Root mean squared error: 0.14966300357650436
Relative absolute error: 5.686063928592996
Root relative squared error: 29.93260071530087
Weighted TruePositiveRate: 0.9761399787910923
Weighted MatthewsCorrelation: 0.7796838284999821
Weighted FMeasure: 0.9751394887365621
Iteration time: 23.0
Weighted AreaUnderPRC: 0.9681966866382266
Mean absolute error: 0.02843031964296498
Coverage of cases: 98.35630965005302
Instances selection time: 2.0
Test time: 4.0
Accumulative iteration time: 531.0
Weighted Recall: 0.9761399787910923
Weighted FalsePositiveRate: 0.25934668052497106
Kappa statistic: 0.7761949717046313
Training time: 21.0
		
Iteration: 34
Labeled set size: 1037
Unlabelled set size: 849
	
Mean region size: 51.35206786850477
Incorrectly Classified Instances: 2.3860021208907742
Correctly Classified Instances: 97.61399787910922
Weighted Precision: 0.9749700227544192
Weighted AreaUnderROC: 0.88142411844925
Root mean squared error: 0.1497252110346554
Relative absolute error: 5.664911978770258
Root relative squared error: 29.945042206931078
Weighted TruePositiveRate: 0.9761399787910923
Weighted MatthewsCorrelation: 0.7796838284999821
Weighted FMeasure: 0.9751394887365621
Iteration time: 24.0
Weighted AreaUnderPRC: 0.9681966866382266
Mean absolute error: 0.02832455989385129
Coverage of cases: 98.35630965005302
Instances selection time: 2.0
Test time: 4.0
Accumulative iteration time: 555.0
Weighted Recall: 0.9761399787910923
Weighted FalsePositiveRate: 0.25934668052497106
Kappa statistic: 0.7761949717046313
Training time: 22.0
		
Iteration: 35
Labeled set size: 1057
Unlabelled set size: 829
	
Mean region size: 51.35206786850477
Incorrectly Classified Instances: 2.3860021208907742
Correctly Classified Instances: 97.61399787910922
Weighted Precision: 0.9749700227544192
Weighted AreaUnderROC: 0.88142411844925
Root mean squared error: 0.14973019266569182
Relative absolute error: 5.6527447674571745
Root relative squared error: 29.946038533138363
Weighted TruePositiveRate: 0.9761399787910923
Weighted MatthewsCorrelation: 0.7796838284999821
Weighted FMeasure: 0.9751394887365621
Iteration time: 25.0
Weighted AreaUnderPRC: 0.9681966866382266
Mean absolute error: 0.028263723837285874
Coverage of cases: 98.35630965005302
Instances selection time: 2.0
Test time: 4.0
Accumulative iteration time: 580.0
Weighted Recall: 0.9761399787910923
Weighted FalsePositiveRate: 0.25934668052497106
Kappa statistic: 0.7761949717046313
Training time: 23.0
		
Iteration: 36
Labeled set size: 1077
Unlabelled set size: 809
	
Mean region size: 53.71155885471898
Incorrectly Classified Instances: 2.4390243902439024
Correctly Classified Instances: 97.5609756097561
Weighted Precision: 0.9750779049559537
Weighted AreaUnderROC: 0.9129797389440872
Root mean squared error: 0.149099331036321
Relative absolute error: 6.351047254301821
Root relative squared error: 29.8198662072642
Weighted TruePositiveRate: 0.975609756097561
Weighted MatthewsCorrelation: 0.7838101329441328
Weighted FMeasure: 0.9753066265220849
Iteration time: 24.0
Weighted AreaUnderPRC: 0.970793828372388
Mean absolute error: 0.031755236271509106
Coverage of cases: 98.93955461293743
Instances selection time: 1.0
Test time: 4.0
Accumulative iteration time: 604.0
Weighted Recall: 0.975609756097561
Weighted FalsePositiveRate: 0.2110471221602923
Kappa statistic: 0.7834975394044658
Training time: 23.0
		
Iteration: 37
Labeled set size: 1097
Unlabelled set size: 789
	
Mean region size: 53.71155885471898
Incorrectly Classified Instances: 2.4390243902439024
Correctly Classified Instances: 97.5609756097561
Weighted Precision: 0.9750779049559537
Weighted AreaUnderROC: 0.9129797389440872
Root mean squared error: 0.14914394780886853
Relative absolute error: 6.328564040999139
Root relative squared error: 29.828789561773704
Weighted TruePositiveRate: 0.975609756097561
Weighted MatthewsCorrelation: 0.7838101329441328
Weighted FMeasure: 0.9753066265220849
Iteration time: 25.0
Weighted AreaUnderPRC: 0.970793828372388
Mean absolute error: 0.031642820204995696
Coverage of cases: 98.93955461293743
Instances selection time: 1.0
Test time: 4.0
Accumulative iteration time: 629.0
Weighted Recall: 0.975609756097561
Weighted FalsePositiveRate: 0.2110471221602923
Kappa statistic: 0.7834975394044658
Training time: 24.0
		
Iteration: 38
Labeled set size: 1117
Unlabelled set size: 769
	
Mean region size: 53.71155885471898
Incorrectly Classified Instances: 2.4390243902439024
Correctly Classified Instances: 97.5609756097561
Weighted Precision: 0.9750779049559537
Weighted AreaUnderROC: 0.9129797389440872
Root mean squared error: 0.1491462484963289
Relative absolute error: 6.318022231509983
Root relative squared error: 29.82924969926578
Weighted TruePositiveRate: 0.975609756097561
Weighted MatthewsCorrelation: 0.7838101329441328
Weighted FMeasure: 0.9753066265220849
Iteration time: 26.0
Weighted AreaUnderPRC: 0.970793828372388
Mean absolute error: 0.031590111157549915
Coverage of cases: 98.93955461293743
Instances selection time: 1.0
Test time: 4.0
Accumulative iteration time: 655.0
Weighted Recall: 0.975609756097561
Weighted FalsePositiveRate: 0.2110471221602923
Kappa statistic: 0.7834975394044658
Training time: 25.0
		
Iteration: 39
Labeled set size: 1137
Unlabelled set size: 749
	
Mean region size: 52.91622481442206
Incorrectly Classified Instances: 2.4390243902439024
Correctly Classified Instances: 97.5609756097561
Weighted Precision: 0.9750779049559537
Weighted AreaUnderROC: 0.9129797389440872
Root mean squared error: 0.1489809266379332
Relative absolute error: 6.370289684423147
Root relative squared error: 29.796185327586638
Weighted TruePositiveRate: 0.975609756097561
Weighted MatthewsCorrelation: 0.7838101329441328
Weighted FMeasure: 0.9753066265220849
Iteration time: 26.0
Weighted AreaUnderPRC: 0.970793828372388
Mean absolute error: 0.031851448422115736
Coverage of cases: 98.62142099681867
Instances selection time: 2.0
Test time: 4.0
Accumulative iteration time: 681.0
Weighted Recall: 0.975609756097561
Weighted FalsePositiveRate: 0.2110471221602923
Kappa statistic: 0.7834975394044658
Training time: 24.0
		
Iteration: 40
Labeled set size: 1157
Unlabelled set size: 729
	
Mean region size: 52.91622481442206
Incorrectly Classified Instances: 2.2799575821845175
Correctly Classified Instances: 97.72004241781548
Weighted Precision: 0.9763048496420859
Weighted AreaUnderROC: 0.8900667251120202
Root mean squared error: 0.14712803744428382
Relative absolute error: 5.486948026355433
Root relative squared error: 29.425607488856762
Weighted TruePositiveRate: 0.9772004241781548
Weighted MatthewsCorrelation: 0.7931716944065282
Weighted FMeasure: 0.9765654348930883
Iteration time: 28.0
Weighted AreaUnderPRC: 0.967238630904317
Mean absolute error: 0.027434740131777168
Coverage of cases: 98.78048780487805
Instances selection time: 2.0
Test time: 3.0
Accumulative iteration time: 709.0
Weighted Recall: 0.9772004241781548
Weighted FalsePositiveRate: 0.22705431079416885
Kappa statistic: 0.7915957835009685
Training time: 26.0
		
Iteration: 41
Labeled set size: 1177
Unlabelled set size: 709
	
Mean region size: 52.91622481442206
Incorrectly Classified Instances: 2.2799575821845175
Correctly Classified Instances: 97.72004241781548
Weighted Precision: 0.9763048496420859
Weighted AreaUnderROC: 0.8900667251120202
Root mean squared error: 0.14718462281175013
Relative absolute error: 5.46550852419039
Root relative squared error: 29.436924562350026
Weighted TruePositiveRate: 0.9772004241781548
Weighted MatthewsCorrelation: 0.7931716944065282
Weighted FMeasure: 0.9765654348930883
Iteration time: 28.0
Weighted AreaUnderPRC: 0.967238630904317
Mean absolute error: 0.027327542620951946
Coverage of cases: 98.78048780487805
Instances selection time: 2.0
Test time: 3.0
Accumulative iteration time: 737.0
Weighted Recall: 0.9772004241781548
Weighted FalsePositiveRate: 0.22705431079416885
Kappa statistic: 0.7915957835009685
Training time: 26.0
		
Iteration: 42
Labeled set size: 1197
Unlabelled set size: 689
	
Mean region size: 52.91622481442206
Incorrectly Classified Instances: 2.2799575821845175
Correctly Classified Instances: 97.72004241781548
Weighted Precision: 0.9763048496420859
Weighted AreaUnderROC: 0.8900667251120202
Root mean squared error: 0.14717795719772403
Relative absolute error: 5.6170139285749565
Root relative squared error: 29.435591439544805
Weighted TruePositiveRate: 0.9772004241781548
Weighted MatthewsCorrelation: 0.7931716944065282
Weighted FMeasure: 0.9765654348930883
Iteration time: 19.0
Weighted AreaUnderPRC: 0.967238630904317
Mean absolute error: 0.028085069642874782
Coverage of cases: 98.78048780487805
Instances selection time: 1.0
Test time: 4.0
Accumulative iteration time: 756.0
Weighted Recall: 0.9772004241781548
Weighted FalsePositiveRate: 0.22705431079416885
Kappa statistic: 0.7915957835009685
Training time: 18.0
		
Iteration: 43
Labeled set size: 1217
Unlabelled set size: 669
	
Mean region size: 52.651113467656415
Incorrectly Classified Instances: 2.4920466595970305
Correctly Classified Instances: 97.50795334040296
Weighted Precision: 0.9737672193828064
Weighted AreaUnderROC: 0.8463276836158192
Root mean squared error: 0.15369546887888125
Relative absolute error: 6.168087756404302
Root relative squared error: 30.73909377577625
Weighted TruePositiveRate: 0.9750795334040296
Weighted MatthewsCorrelation: 0.7684683483133795
Weighted FMeasure: 0.9739128961336091
Iteration time: 20.0
Weighted AreaUnderPRC: 0.9603438805241131
Mean absolute error: 0.030840438782021508
Coverage of cases: 98.3032873806999
Instances selection time: 2.0
Test time: 3.0
Accumulative iteration time: 776.0
Weighted Recall: 0.9750795334040296
Weighted FalsePositiveRate: 0.2755276144482533
Kappa statistic: 0.76419104776194
Training time: 18.0
		
Iteration: 44
Labeled set size: 1237
Unlabelled set size: 649
	
Mean region size: 52.651113467656415
Incorrectly Classified Instances: 2.4920466595970305
Correctly Classified Instances: 97.50795334040296
Weighted Precision: 0.9737672193828064
Weighted AreaUnderROC: 0.8463276836158192
Root mean squared error: 0.15371035405744968
Relative absolute error: 6.307209670446225
Root relative squared error: 30.742070811489935
Weighted TruePositiveRate: 0.9750795334040296
Weighted MatthewsCorrelation: 0.7684683483133795
Weighted FMeasure: 0.9739128961336091
Iteration time: 19.0
Weighted AreaUnderPRC: 0.9603438805241131
Mean absolute error: 0.03153604835223112
Coverage of cases: 98.3032873806999
Instances selection time: 1.0
Test time: 4.0
Accumulative iteration time: 795.0
Weighted Recall: 0.9750795334040296
Weighted FalsePositiveRate: 0.2755276144482533
Kappa statistic: 0.76419104776194
Training time: 18.0
		
Iteration: 45
Labeled set size: 1257
Unlabelled set size: 629
	
Mean region size: 52.651113467656415
Incorrectly Classified Instances: 2.4920466595970305
Correctly Classified Instances: 97.50795334040296
Weighted Precision: 0.9737672193828064
Weighted AreaUnderROC: 0.8463276836158192
Root mean squared error: 0.15373252186192174
Relative absolute error: 6.288466224551632
Root relative squared error: 30.746504372384347
Weighted TruePositiveRate: 0.9750795334040296
Weighted MatthewsCorrelation: 0.7684683483133795
Weighted FMeasure: 0.9739128961336091
Iteration time: 19.0
Weighted AreaUnderPRC: 0.9603438805241131
Mean absolute error: 0.03144233112275816
Coverage of cases: 98.3032873806999
Instances selection time: 1.0
Test time: 4.0
Accumulative iteration time: 814.0
Weighted Recall: 0.9750795334040296
Weighted FalsePositiveRate: 0.2755276144482533
Kappa statistic: 0.76419104776194
Training time: 18.0
		
Iteration: 46
Labeled set size: 1277
Unlabelled set size: 609
	
Mean region size: 52.651113467656415
Incorrectly Classified Instances: 2.4920466595970305
Correctly Classified Instances: 97.50795334040296
Weighted Precision: 0.9737672193828064
Weighted AreaUnderROC: 0.8463276836158192
Root mean squared error: 0.1537542858335162
Relative absolute error: 6.270301021388547
Root relative squared error: 30.750857166703238
Weighted TruePositiveRate: 0.9750795334040296
Weighted MatthewsCorrelation: 0.7684683483133795
Weighted FMeasure: 0.9739128961336091
Iteration time: 20.0
Weighted AreaUnderPRC: 0.9603438805241131
Mean absolute error: 0.031351505106942734
Coverage of cases: 98.3032873806999
Instances selection time: 1.0
Test time: 4.0
Accumulative iteration time: 834.0
Weighted Recall: 0.9750795334040296
Weighted FalsePositiveRate: 0.2755276144482533
Kappa statistic: 0.76419104776194
Training time: 19.0
		
Time end:Sun Oct 08 05.59.10 EEST 2017