==> General results-EntropySamplingQueryStrategy.functions.SMOsync.report.txt <==
==> General results-KullbackLeiblerDivergenceQueryStrategy.functions.SMOsync.report.txt <==
==> General results-LeastConfidentSamplingQueryStrategy.functions.SMOsync.report.txt <==
==> General results-MarginSamplingQueryStrategy.functions.SMOsync.report.txt <==
==> General results-RandomSelectionQueryStrategy.functions.SMOsync.report.txt <==
==> General results-VoteEntropyQueryStrategy.functions.SMOsync.report.txt <==
