Wed Nov 01 17.05.54 EET 2017
Dataset: waveform
Test set size: 2500
Initial Labelled set size: 500
Initial Unlabelled set size: 2000
Batch mode: QBestBatchMode
Batch size: 20
Classifiers: RandomForest-1cores
Scenario: PoolBasedSamplingScenario
Query strategy: MarginSamplingQueryStrategy-1cores
Time begining: Wed Nov 01 17.05.54 EET 2017
		
Iteration: 1
Labeled set size: 500
Unlabelled set size: 2000
	
Mean region size: 71.52933333333472
Incorrectly Classified Instances: 21.176
Correctly Classified Instances: 78.824
Weighted Precision: 0.7889525590340799
Weighted AreaUnderROC: 0.9292815641826244
Root mean squared error: 0.32066144184995016
Relative absolute error: 50.85419999999906
Root relative squared error: 68.02256399914651
Weighted TruePositiveRate: 0.78824
Weighted MatthewsCorrelation: 0.6826495628762136
Weighted FMeasure: 0.7879963002048149
Iteration time: 96.6
Weighted AreaUnderPRC: 0.8387089208006895
Mean absolute error: 0.22601866666666362
Coverage of cases: 99.72
Instances selection time: 8.5
Test time: 12.7
Accumulative iteration time: 96.6
Weighted Recall: 0.78824
Weighted FalsePositiveRate: 0.1060139599855203
Kappa statistic: 0.6823556766743644
Training time: 88.1
		
Iteration: 2
Labeled set size: 520
Unlabelled set size: 1980
	
Mean region size: 71.48133333333479
Incorrectly Classified Instances: 20.883999999999997
Correctly Classified Instances: 79.11599999999999
Weighted Precision: 0.7925875243072482
Weighted AreaUnderROC: 0.9316014261901954
Root mean squared error: 0.3185529346438166
Relative absolute error: 50.67659999999903
Root relative squared error: 67.57528207605517
Weighted TruePositiveRate: 0.7911599999999999
Weighted MatthewsCorrelation: 0.6873459601176428
Weighted FMeasure: 0.7910970579846438
Iteration time: 99.8
Weighted AreaUnderPRC: 0.8436095188456288
Mean absolute error: 0.22522933333333003
Coverage of cases: 99.712
Instances selection time: 7.9
Test time: 12.9
Accumulative iteration time: 196.4
Weighted Recall: 0.7911599999999999
Weighted FalsePositiveRate: 0.10468979470609693
Kappa statistic: 0.6866784851934089
Training time: 91.9
		
Iteration: 3
Labeled set size: 540
Unlabelled set size: 1960
	
Mean region size: 71.43066666666809
Incorrectly Classified Instances: 21.163999999999998
Correctly Classified Instances: 78.836
Weighted Precision: 0.7910597411434173
Weighted AreaUnderROC: 0.9302328518344046
Root mean squared error: 0.32030960425324295
Relative absolute error: 50.89079999999908
Root relative squared error: 67.94792797399408
Weighted TruePositiveRate: 0.7883600000000001
Weighted MatthewsCorrelation: 0.6838692250099788
Weighted FMeasure: 0.7882297148909773
Iteration time: 114.4
Weighted AreaUnderPRC: 0.840147679916598
Mean absolute error: 0.22618133333333032
Coverage of cases: 99.67999999999999
Instances selection time: 9.1
Test time: 14.9
Accumulative iteration time: 310.8
Weighted Recall: 0.7883600000000001
Weighted FalsePositiveRate: 0.1061326789097811
Kappa statistic: 0.6824557425233324
Training time: 105.3
		
Iteration: 4
Labeled set size: 560
Unlabelled set size: 1940
	
Mean region size: 71.10933333333476
Incorrectly Classified Instances: 21.5
Correctly Classified Instances: 78.5
Weighted Precision: 0.7901619623144542
Weighted AreaUnderROC: 0.9294314809432598
Root mean squared error: 0.32098560339036186
Relative absolute error: 50.55359999999904
Root relative squared error: 68.091329046174
Weighted TruePositiveRate: 0.7849999999999999
Weighted MatthewsCorrelation: 0.6802776085292456
Weighted FMeasure: 0.7844441185639468
Iteration time: 108.7
Weighted AreaUnderPRC: 0.839615235005545
Mean absolute error: 0.22468266666666342
Coverage of cases: 99.65599999999999
Instances selection time: 8.0
Test time: 13.4
Accumulative iteration time: 419.5
Weighted Recall: 0.7849999999999999
Weighted FalsePositiveRate: 0.10790374915600602
Kappa statistic: 0.6773801243482056
Training time: 100.7
		
Iteration: 5
Labeled set size: 580
Unlabelled set size: 1920
	
Mean region size: 71.09333333333477
Incorrectly Classified Instances: 22.752
Correctly Classified Instances: 77.248
Weighted Precision: 0.7818281770585122
Weighted AreaUnderROC: 0.9265862162789336
Root mean squared error: 0.32573659723625087
Relative absolute error: 51.422999999999114
Root relative squared error: 69.0991670359151
Weighted TruePositiveRate: 0.77248
Weighted MatthewsCorrelation: 0.663943395359416
Weighted FMeasure: 0.7714204338779993
Iteration time: 112.9
Weighted AreaUnderPRC: 0.8335245495919669
Mean absolute error: 0.22854666666666384
Coverage of cases: 99.61999999999999
Instances selection time: 7.8
Test time: 13.1
Accumulative iteration time: 532.4
Weighted Recall: 0.77248
Weighted FalsePositiveRate: 0.11428750743697258
Kappa statistic: 0.6585511697018882
Training time: 105.1
		
Iteration: 6
Labeled set size: 600
Unlabelled set size: 1900
	
Mean region size: 70.97600000000139
Incorrectly Classified Instances: 22.136000000000003
Correctly Classified Instances: 77.864
Weighted Precision: 0.7904808274272543
Weighted AreaUnderROC: 0.9303602085261945
Root mean squared error: 0.323283342062698
Relative absolute error: 50.85419999999911
Root relative squared error: 68.57875302515502
Weighted TruePositiveRate: 0.77864
Weighted MatthewsCorrelation: 0.674628707089122
Weighted FMeasure: 0.7776384834113298
Iteration time: 117.7
Weighted AreaUnderPRC: 0.8409372109997557
Mean absolute error: 0.22601866666666376
Coverage of cases: 99.58399999999999
Instances selection time: 8.0
Test time: 13.6
Accumulative iteration time: 650.1
Weighted Recall: 0.77864
Weighted FalsePositiveRate: 0.11122698426041355
Kappa statistic: 0.6677696523261039
Training time: 109.7
		
Iteration: 7
Labeled set size: 620
Unlabelled set size: 1880
	
Mean region size: 71.08533333333476
Incorrectly Classified Instances: 23.004000000000005
Correctly Classified Instances: 76.996
Weighted Precision: 0.7868028108698173
Weighted AreaUnderROC: 0.9265676415444407
Root mean squared error: 0.3285242636411715
Relative absolute error: 51.64079999999916
Root relative squared error: 69.69052038149667
Weighted TruePositiveRate: 0.76996
Weighted MatthewsCorrelation: 0.6646063494254002
Weighted FMeasure: 0.7683499975542054
Iteration time: 121.2
Weighted AreaUnderPRC: 0.8328938270346921
Mean absolute error: 0.22951466666666395
Coverage of cases: 99.572
Instances selection time: 7.8
Test time: 13.5
Accumulative iteration time: 771.3
Weighted Recall: 0.76996
Weighted FalsePositiveRate: 0.11574312717937929
Kappa statistic: 0.654668518247522
Training time: 113.4
		
Iteration: 8
Labeled set size: 640
Unlabelled set size: 1860
	
Mean region size: 71.21866666666806
Incorrectly Classified Instances: 23.659999999999997
Correctly Classified Instances: 76.34
Weighted Precision: 0.7838115700452509
Weighted AreaUnderROC: 0.9254272585381423
Root mean squared error: 0.3310978767992412
Relative absolute error: 52.152599999999154
Root relative squared error: 70.2364661763633
Weighted TruePositiveRate: 0.7634000000000001
Weighted MatthewsCorrelation: 0.6568386587104825
Weighted FMeasure: 0.7615059464258807
Iteration time: 127.0
Weighted AreaUnderPRC: 0.830288019843632
Mean absolute error: 0.2317893333333306
Coverage of cases: 99.512
Instances selection time: 7.8
Test time: 13.8
Accumulative iteration time: 898.3
Weighted Recall: 0.7634000000000001
Weighted FalsePositiveRate: 0.11915133851598378
Kappa statistic: 0.6447623097108699
Training time: 119.2
		
Iteration: 9
Labeled set size: 660
Unlabelled set size: 1840
	
Mean region size: 70.79333333333476
Incorrectly Classified Instances: 24.048
Correctly Classified Instances: 75.952
Weighted Precision: 0.7819875431066005
Weighted AreaUnderROC: 0.9250654386564712
Root mean squared error: 0.33262809796653
Relative absolute error: 52.24799999999921
Root relative squared error: 70.5610751055948
Weighted TruePositiveRate: 0.7595200000000001
Weighted MatthewsCorrelation: 0.6521727272079374
Weighted FMeasure: 0.7575291857334061
Iteration time: 131.1
Weighted AreaUnderPRC: 0.8287672239667533
Mean absolute error: 0.23221333333333088
Coverage of cases: 99.508
Instances selection time: 7.7
Test time: 14.1
Accumulative iteration time: 1029.4
Weighted Recall: 0.7595200000000001
Weighted FalsePositiveRate: 0.12117483910681918
Kappa statistic: 0.6388986509802194
Training time: 123.4
		
Iteration: 10
Labeled set size: 680
Unlabelled set size: 1820
	
Mean region size: 70.87466666666806
Incorrectly Classified Instances: 24.488
Correctly Classified Instances: 75.51200000000001
Weighted Precision: 0.7815725308957392
Weighted AreaUnderROC: 0.9229570404123143
Root mean squared error: 0.3362067934588962
Relative absolute error: 52.63079999999924
Root relative squared error: 71.32023106073098
Weighted TruePositiveRate: 0.75512
Weighted MatthewsCorrelation: 0.64795890160053
Weighted FMeasure: 0.7527257662857881
Iteration time: 136.0
Weighted AreaUnderPRC: 0.8255680455916607
Mean absolute error: 0.23391466666666436
Coverage of cases: 99.36
Instances selection time: 8.1
Test time: 14.1
Accumulative iteration time: 1165.4
Weighted Recall: 0.75512
Weighted FalsePositiveRate: 0.12341180599400221
Kappa statistic: 0.6322728031148721
Training time: 127.9
		
Iteration: 11
Labeled set size: 700
Unlabelled set size: 1800
	
Mean region size: 70.62266666666805
Incorrectly Classified Instances: 25.259999999999998
Correctly Classified Instances: 74.74000000000001
Weighted Precision: 0.7780168339830393
Weighted AreaUnderROC: 0.9232095952338769
Root mean squared error: 0.3376272481395283
Relative absolute error: 52.589999999999215
Root relative squared error: 71.62155500184392
Weighted TruePositiveRate: 0.7474000000000001
Weighted MatthewsCorrelation: 0.6386422706652107
Weighted FMeasure: 0.7443614008995992
Iteration time: 142.6
Weighted AreaUnderPRC: 0.8253042560167957
Mean absolute error: 0.23373333333333096
Coverage of cases: 99.356
Instances selection time: 7.8
Test time: 14.4
Accumulative iteration time: 1308.0
Weighted Recall: 0.7474000000000001
Weighted FalsePositiveRate: 0.12742178371400262
Kappa statistic: 0.6206219231595004
Training time: 134.8
		
Iteration: 12
Labeled set size: 720
Unlabelled set size: 1780
	
Mean region size: 70.66266666666803
Incorrectly Classified Instances: 25.012
Correctly Classified Instances: 74.988
Weighted Precision: 0.78029809791756
Weighted AreaUnderROC: 0.9231200270898988
Root mean squared error: 0.33690356414404266
Relative absolute error: 52.4867999999992
Root relative squared error: 71.4680384436507
Weighted TruePositiveRate: 0.74988
Weighted MatthewsCorrelation: 0.6421913546699936
Weighted FMeasure: 0.7468263789981756
Iteration time: 147.0
Weighted AreaUnderPRC: 0.8258043152393318
Mean absolute error: 0.23327466666666422
Coverage of cases: 99.33199999999998
Instances selection time: 7.9
Test time: 14.5
Accumulative iteration time: 1455.0
Weighted Recall: 0.74988
Weighted FalsePositiveRate: 0.1261928690548316
Kappa statistic: 0.6243268780441267
Training time: 139.1
		
Iteration: 13
Labeled set size: 740
Unlabelled set size: 1760
	
Mean region size: 70.98666666666807
Incorrectly Classified Instances: 25.028
Correctly Classified Instances: 74.97200000000001
Weighted Precision: 0.7819538196986531
Weighted AreaUnderROC: 0.9242315952839062
Root mean squared error: 0.3374627766668047
Relative absolute error: 52.76639999999918
Root relative squared error: 71.58666533374154
Weighted TruePositiveRate: 0.7497199999999999
Weighted MatthewsCorrelation: 0.6430791342858146
Weighted FMeasure: 0.7467384067338091
Iteration time: 151.2
Weighted AreaUnderPRC: 0.8279075503442375
Mean absolute error: 0.23451733333333086
Coverage of cases: 99.38000000000001
Instances selection time: 7.7
Test time: 14.5
Accumulative iteration time: 1606.2
Weighted Recall: 0.7497199999999999
Weighted FalsePositiveRate: 0.1263443567349063
Kappa statistic: 0.6240556097438875
Training time: 143.5
		
Iteration: 14
Labeled set size: 760
Unlabelled set size: 1740
	
Mean region size: 71.05466666666807
Incorrectly Classified Instances: 25.311999999999998
Correctly Classified Instances: 74.68800000000002
Weighted Precision: 0.7826647430894387
Weighted AreaUnderROC: 0.9240992684125627
Root mean squared error: 0.3393202328866253
Relative absolute error: 53.117999999999235
Root relative squared error: 71.9806913003792
Weighted TruePositiveRate: 0.74688
Weighted MatthewsCorrelation: 0.6408033758901086
Weighted FMeasure: 0.7430847820461375
Iteration time: 156.4
Weighted AreaUnderPRC: 0.8269907674963785
Mean absolute error: 0.23607999999999763
Coverage of cases: 99.36
Instances selection time: 8.0
Test time: 14.4
Accumulative iteration time: 1762.6
Weighted Recall: 0.74688
Weighted FalsePositiveRate: 0.1278353325157949
Kappa statistic: 0.619750771465733
Training time: 148.4
		
Iteration: 15
Labeled set size: 780
Unlabelled set size: 1720
	
Mean region size: 71.06400000000134
Incorrectly Classified Instances: 25.636000000000003
Correctly Classified Instances: 74.364
Weighted Precision: 0.779360913525608
Weighted AreaUnderROC: 0.9220338575397837
Root mean squared error: 0.3403975833503556
Relative absolute error: 53.12879999999924
Root relative squared error: 72.20923184596468
Weighted TruePositiveRate: 0.74364
Weighted MatthewsCorrelation: 0.6358223928946557
Weighted FMeasure: 0.7397770973311023
Iteration time: 171.3
Weighted AreaUnderPRC: 0.8234970464231678
Mean absolute error: 0.23612799999999767
Coverage of cases: 99.33599999999998
Instances selection time: 8.5
Test time: 16.3
Accumulative iteration time: 1933.9
Weighted Recall: 0.74364
Weighted FalsePositiveRate: 0.1294520167671027
Kappa statistic: 0.6148806998762875
Training time: 162.8
		
Iteration: 16
Labeled set size: 800
Unlabelled set size: 1700
	
Mean region size: 70.83333333333472
Incorrectly Classified Instances: 25.828000000000003
Correctly Classified Instances: 74.172
Weighted Precision: 0.777213654148233
Weighted AreaUnderROC: 0.9207797907827011
Root mean squared error: 0.3416954521053331
Relative absolute error: 53.39639999999923
Root relative squared error: 72.4845513852851
Weighted TruePositiveRate: 0.74172
Weighted MatthewsCorrelation: 0.6326896561590565
Weighted FMeasure: 0.7376410145470549
Iteration time: 164.8
Weighted AreaUnderPRC: 0.8210013069961427
Mean absolute error: 0.23731733333333102
Coverage of cases: 99.28000000000002
Instances selection time: 7.8
Test time: 14.4
Accumulative iteration time: 2098.7
Weighted Recall: 0.74172
Weighted FalsePositiveRate: 0.13045864786643466
Kappa statistic: 0.6119850937206108
Training time: 157.0
		
Iteration: 17
Labeled set size: 820
Unlabelled set size: 1680
	
Mean region size: 70.6080000000014
Incorrectly Classified Instances: 25.588000000000005
Correctly Classified Instances: 74.412
Weighted Precision: 0.7787969859349805
Weighted AreaUnderROC: 0.922865554590955
Root mean squared error: 0.339244766470833
Relative absolute error: 52.96499999999916
Root relative squared error: 71.96468245607164
Weighted TruePositiveRate: 0.7441199999999999
Weighted MatthewsCorrelation: 0.6355967689003269
Weighted FMeasure: 0.7398645765209496
Iteration time: 170.3
Weighted AreaUnderPRC: 0.8247595428927538
Mean absolute error: 0.2353999999999974
Coverage of cases: 99.304
Instances selection time: 7.5
Test time: 14.4
Accumulative iteration time: 2269.0
Weighted Recall: 0.7441199999999999
Weighted FalsePositiveRate: 0.12921233353183195
Kappa statistic: 0.6156200621982953
Training time: 162.8
		
Iteration: 18
Labeled set size: 840
Unlabelled set size: 1660
	
Mean region size: 70.23866666666804
Incorrectly Classified Instances: 26.296000000000003
Correctly Classified Instances: 73.704
Weighted Precision: 0.7739908473463883
Weighted AreaUnderROC: 0.9225635811093899
Root mean squared error: 0.3418942560090792
Relative absolute error: 53.15219999999924
Root relative squared error: 72.52672406182467
Weighted TruePositiveRate: 0.73704
Weighted MatthewsCorrelation: 0.6264967756481289
Weighted FMeasure: 0.7315724537257633
Iteration time: 174.4
Weighted AreaUnderPRC: 0.8231484935458562
Mean absolute error: 0.23623199999999772
Coverage of cases: 99.30399999999999
Instances selection time: 7.3
Test time: 14.4
Accumulative iteration time: 2443.4
Weighted Recall: 0.73704
Weighted FalsePositiveRate: 0.1328199081583476
Kappa statistic: 0.604934524374101
Training time: 167.1
		
Iteration: 19
Labeled set size: 860
Unlabelled set size: 1640
	
Mean region size: 70.42666666666803
Incorrectly Classified Instances: 26.412
Correctly Classified Instances: 73.58800000000001
Weighted Precision: 0.7760255886871834
Weighted AreaUnderROC: 0.922399058682679
Root mean squared error: 0.3426774973387118
Relative absolute error: 53.31299999999926
Root relative squared error: 72.6928746384713
Weighted TruePositiveRate: 0.7358800000000001
Weighted MatthewsCorrelation: 0.6258105043159725
Weighted FMeasure: 0.7294866280545873
Iteration time: 178.3
Weighted AreaUnderPRC: 0.8232775409194405
Mean absolute error: 0.23694666666666442
Coverage of cases: 99.388
Instances selection time: 7.1
Test time: 14.5
Accumulative iteration time: 2621.7
Weighted Recall: 0.7358800000000001
Weighted FalsePositiveRate: 0.13347798436012892
Kappa statistic: 0.6031671045221596
Training time: 171.2
		
Iteration: 20
Labeled set size: 880
Unlabelled set size: 1620
	
Mean region size: 70.64133333333461
Incorrectly Classified Instances: 26.060000000000002
Correctly Classified Instances: 73.94000000000001
Weighted Precision: 0.778115226577503
Weighted AreaUnderROC: 0.9222160031862956
Root mean squared error: 0.34230923676885744
Relative absolute error: 53.464799999999215
Root relative squared error: 72.614754774615
Weighted TruePositiveRate: 0.7394
Weighted MatthewsCorrelation: 0.6301805552400424
Weighted FMeasure: 0.7331195824313755
Iteration time: 183.3
Weighted AreaUnderPRC: 0.821937785760673
Mean absolute error: 0.23762133333333102
Coverage of cases: 99.32800000000002
Instances selection time: 7.1
Test time: 15.5
Accumulative iteration time: 2805.0
Weighted Recall: 0.7394
Weighted FalsePositiveRate: 0.13166151897293715
Kappa statistic: 0.6084834487471251
Training time: 176.2
		
Iteration: 21
Labeled set size: 900
Unlabelled set size: 1600
	
Mean region size: 70.61066666666798
Incorrectly Classified Instances: 25.812
Correctly Classified Instances: 74.188
Weighted Precision: 0.7806943749115565
Weighted AreaUnderROC: 0.923484890466329
Root mean squared error: 0.3407574808975088
Relative absolute error: 53.108999999999206
Root relative squared error: 72.285577644802
Weighted TruePositiveRate: 0.74188
Weighted MatthewsCorrelation: 0.6338804919050267
Weighted FMeasure: 0.7352541349064292
Iteration time: 189.1
Weighted AreaUnderPRC: 0.8245895121779
Mean absolute error: 0.23603999999999764
Coverage of cases: 99.30000000000003
Instances selection time: 7.1
Test time: 14.9
Accumulative iteration time: 2994.1
Weighted Recall: 0.74188
Weighted FalsePositiveRate: 0.1304217893905489
Kappa statistic: 0.6122018266140901
Training time: 182.0
		
Iteration: 22
Labeled set size: 920
Unlabelled set size: 1580
	
Mean region size: 70.65866666666797
Incorrectly Classified Instances: 26.02
Correctly Classified Instances: 73.97999999999999
Weighted Precision: 0.7783898738260366
Weighted AreaUnderROC: 0.9233939159882991
Root mean squared error: 0.34093590167565224
Relative absolute error: 53.13479999999913
Root relative squared error: 72.32342640744093
Weighted TruePositiveRate: 0.7398
Weighted MatthewsCorrelation: 0.6304408965388941
Weighted FMeasure: 0.7327656138114036
Iteration time: 194.1
Weighted AreaUnderPRC: 0.8250823756972261
Mean absolute error: 0.23615466666666393
Coverage of cases: 99.36
Instances selection time: 7.0
Test time: 16.2
Accumulative iteration time: 3188.2
Weighted Recall: 0.7398
Weighted FalsePositiveRate: 0.13146326694934607
Kappa statistic: 0.6090763530330822
Training time: 187.1
		
Iteration: 23
Labeled set size: 940
Unlabelled set size: 1560
	
Mean region size: 70.63466666666798
Incorrectly Classified Instances: 26.235999999999997
Correctly Classified Instances: 73.764
Weighted Precision: 0.7783608786059285
Weighted AreaUnderROC: 0.9227099559284891
Root mean squared error: 0.34229044392255564
Relative absolute error: 53.46839999999919
Root relative squared error: 72.61076820989766
Weighted TruePositiveRate: 0.7376400000000001
Weighted MatthewsCorrelation: 0.6281151686094046
Weighted FMeasure: 0.730034166379842
Iteration time: 201.5
Weighted AreaUnderPRC: 0.8231558661469485
Mean absolute error: 0.23763733333333087
Coverage of cases: 99.292
Instances selection time: 7.0
Test time: 17.7
Accumulative iteration time: 3389.7
Weighted Recall: 0.7376400000000001
Weighted FalsePositiveRate: 0.13259514079074938
Kappa statistic: 0.6058157845367209
Training time: 194.5
		
Iteration: 24
Labeled set size: 960
Unlabelled set size: 1540
	
Mean region size: 70.80133333333461
Incorrectly Classified Instances: 26.372000000000003
Correctly Classified Instances: 73.628
Weighted Precision: 0.7767199523498933
Weighted AreaUnderROC: 0.9224446862475183
Root mean squared error: 0.3423742112121944
Relative absolute error: 53.62439999999917
Root relative squared error: 72.6285379354612
Weighted TruePositiveRate: 0.7362799999999999
Weighted MatthewsCorrelation: 0.6259500393261652
Weighted FMeasure: 0.7280483798719898
Iteration time: 205.0
Weighted AreaUnderPRC: 0.8221489097020586
Mean absolute error: 0.23833066666666408
Coverage of cases: 99.29599999999999
Instances selection time: 6.9
Test time: 17.7
Accumulative iteration time: 3594.7
Weighted Recall: 0.7362799999999999
Weighted FalsePositiveRate: 0.13324523971572308
Kappa statistic: 0.6037761604258451
Training time: 198.1
		
Iteration: 25
Labeled set size: 980
Unlabelled set size: 1520
	
Mean region size: 69.87600000000126
Incorrectly Classified Instances: 25.683999999999997
Correctly Classified Instances: 74.316
Weighted Precision: 0.7804327780122127
Weighted AreaUnderROC: 0.9240228350556661
Root mean squared error: 0.33991476192022296
Relative absolute error: 52.54499999999918
Root relative squared error: 72.10680995375996
Weighted TruePositiveRate: 0.74316
Weighted MatthewsCorrelation: 0.6342644260363239
Weighted FMeasure: 0.7357804598151289
Iteration time: 208.0
Weighted AreaUnderPRC: 0.8275106663076885
Mean absolute error: 0.23353333333333076
Coverage of cases: 99.244
Instances selection time: 7.0
Test time: 17.7
Accumulative iteration time: 3802.7
Weighted Recall: 0.74316
Weighted FalsePositiveRate: 0.12973569999206408
Kappa statistic: 0.6141488750658374
Training time: 201.0
		
Iteration: 26
Labeled set size: 1000
Unlabelled set size: 1500
	
Mean region size: 70.4080000000013
Incorrectly Classified Instances: 25.924
Correctly Classified Instances: 74.07600000000001
Weighted Precision: 0.7803791797526094
Weighted AreaUnderROC: 0.9238056085363929
Root mean squared error: 0.3408724486145745
Relative absolute error: 53.0939999999992
Root relative squared error: 72.3099659805084
Weighted TruePositiveRate: 0.7407600000000001
Weighted MatthewsCorrelation: 0.6317997367638766
Weighted FMeasure: 0.7325575152444845
Iteration time: 212.5
Weighted AreaUnderPRC: 0.8256648220260248
Mean absolute error: 0.23597333333333087
Coverage of cases: 99.316
Instances selection time: 6.9
Test time: 17.8
Accumulative iteration time: 4015.2
Weighted Recall: 0.7407600000000001
Weighted FalsePositiveRate: 0.13096999809802795
Kappa statistic: 0.6105299776759476
Training time: 205.6
		
Iteration: 27
Labeled set size: 1020
Unlabelled set size: 1480
	
Mean region size: 70.4293333333346
Incorrectly Classified Instances: 25.988
Correctly Classified Instances: 74.012
Weighted Precision: 0.7800880248181307
Weighted AreaUnderROC: 0.9218035502132166
Root mean squared error: 0.34227497061113776
Relative absolute error: 53.36219999999919
Root relative squared error: 72.60748582486835
Weighted TruePositiveRate: 0.7401199999999999
Weighted MatthewsCorrelation: 0.6308429893735892
Weighted FMeasure: 0.7313625658415629
Iteration time: 218.5
Weighted AreaUnderPRC: 0.8216577589102261
Mean absolute error: 0.23716533333333079
Coverage of cases: 99.26000000000002
Instances selection time: 6.8
Test time: 17.6
Accumulative iteration time: 4233.7
Weighted Recall: 0.7401199999999999
Weighted FalsePositiveRate: 0.13131749046858435
Kappa statistic: 0.6095664941761633
Training time: 211.7
		
Iteration: 28
Labeled set size: 1040
Unlabelled set size: 1460
	
Mean region size: 70.50666666666794
Incorrectly Classified Instances: 26.212
Correctly Classified Instances: 73.78799999999998
Weighted Precision: 0.7761229343352654
Weighted AreaUnderROC: 0.9211088233827592
Root mean squared error: 0.34274058909193816
Relative absolute error: 53.53679999999919
Root relative squared error: 72.70625842043427
Weighted TruePositiveRate: 0.7378799999999999
Weighted MatthewsCorrelation: 0.6264912106912414
Weighted FMeasure: 0.7288705549937686
Iteration time: 225.9
Weighted AreaUnderPRC: 0.8187994194036176
Mean absolute error: 0.2379413333333309
Coverage of cases: 99.312
Instances selection time: 7.6
Test time: 16.9
Accumulative iteration time: 4459.6
Weighted Recall: 0.7378799999999999
Weighted FalsePositiveRate: 0.13238730980458727
Kappa statistic: 0.6062146727714912
Training time: 218.3
		
Iteration: 29
Labeled set size: 1060
Unlabelled set size: 1440
	
Mean region size: 70.08000000000126
Incorrectly Classified Instances: 25.816000000000003
Correctly Classified Instances: 74.184
Weighted Precision: 0.7796373384688068
Weighted AreaUnderROC: 0.923644990627591
Root mean squared error: 0.33965340841408875
Relative absolute error: 52.74899999999915
Root relative squared error: 72.05136850281765
Weighted TruePositiveRate: 0.74184
Weighted MatthewsCorrelation: 0.632083275346898
Weighted FMeasure: 0.7325476971576221
Iteration time: 228.5
Weighted AreaUnderPRC: 0.8250660735830138
Mean absolute error: 0.23443999999999732
Coverage of cases: 99.248
Instances selection time: 7.3
Test time: 16.3
Accumulative iteration time: 4688.1
Weighted Recall: 0.74184
Weighted FalsePositiveRate: 0.13035325088610478
Kappa statistic: 0.6121842053386912
Training time: 221.2
		
Iteration: 30
Labeled set size: 1080
Unlabelled set size: 1420
	
Mean region size: 70.20400000000129
Incorrectly Classified Instances: 25.776
Correctly Classified Instances: 74.224
Weighted Precision: 0.7824913977897693
Weighted AreaUnderROC: 0.9236073001182366
Root mean squared error: 0.34096631662740007
Relative absolute error: 52.8503999999992
Root relative squared error: 72.32987839303004
Weighted TruePositiveRate: 0.74224
Weighted MatthewsCorrelation: 0.6336846002874087
Weighted FMeasure: 0.7327600689865741
Iteration time: 236.2
Weighted AreaUnderPRC: 0.8254692449051488
Mean absolute error: 0.23489066666666422
Coverage of cases: 99.20800000000001
Instances selection time: 8.4
Test time: 14.9
Accumulative iteration time: 4924.3
Weighted Recall: 0.74224
Weighted FalsePositiveRate: 0.1302001368197277
Kappa statistic: 0.612769428363866
Training time: 227.8
		
Iteration: 31
Labeled set size: 1100
Unlabelled set size: 1400
	
Mean region size: 70.4933333333346
Incorrectly Classified Instances: 26.156
Correctly Classified Instances: 73.84400000000001
Weighted Precision: 0.7789796354740994
Weighted AreaUnderROC: 0.9238123074702613
Root mean squared error: 0.34101035646197275
Relative absolute error: 53.25359999999914
Root relative squared error: 72.33922065273065
Weighted TruePositiveRate: 0.73844
Weighted MatthewsCorrelation: 0.6280632178875776
Weighted FMeasure: 0.7287518082292528
Iteration time: 243.3
Weighted AreaUnderPRC: 0.8263907929300393
Mean absolute error: 0.23668266666666393
Coverage of cases: 99.34800000000001
Instances selection time: 8.5
Test time: 14.2
Accumulative iteration time: 5167.6
Weighted Recall: 0.73844
Weighted FalsePositiveRate: 0.13211594610680982
Kappa statistic: 0.607054967325746
Training time: 234.8
		
Iteration: 32
Labeled set size: 1120
Unlabelled set size: 1380
	
Mean region size: 70.77600000000128
Incorrectly Classified Instances: 25.727999999999998
Correctly Classified Instances: 74.272
Weighted Precision: 0.7836122057121291
Weighted AreaUnderROC: 0.9240444402977728
Root mean squared error: 0.34100512743193917
Relative absolute error: 53.26319999999912
Root relative squared error: 72.33811140795191
Weighted TruePositiveRate: 0.74272
Weighted MatthewsCorrelation: 0.634497740990484
Weighted FMeasure: 0.7320757062957804
Iteration time: 246.1
Weighted AreaUnderPRC: 0.8255913784998627
Mean absolute error: 0.23672533333333057
Coverage of cases: 99.292
Instances selection time: 7.6
Test time: 13.9
Accumulative iteration time: 5413.7
Weighted Recall: 0.74272
Weighted FalsePositiveRate: 0.12991315567060538
Kappa statistic: 0.6135089682208082
Training time: 238.5
		
Iteration: 33
Labeled set size: 1140
Unlabelled set size: 1360
	
Mean region size: 70.34666666666791
Incorrectly Classified Instances: 25.844
Correctly Classified Instances: 74.156
Weighted Precision: 0.78261828980834
Weighted AreaUnderROC: 0.9227651925404592
Root mean squared error: 0.34172845770706345
Relative absolute error: 53.10239999999918
Root relative squared error: 72.49155293072529
Weighted TruePositiveRate: 0.74156
Weighted MatthewsCorrelation: 0.6327612625074518
Weighted FMeasure: 0.7313541764459832
Iteration time: 252.1
Weighted AreaUnderPRC: 0.8239025553510739
Mean absolute error: 0.2360106666666641
Coverage of cases: 99.288
Instances selection time: 5.5
Test time: 14.2
Accumulative iteration time: 5665.8
Weighted Recall: 0.74156
Weighted FalsePositiveRate: 0.1305066149676977
Kappa statistic: 0.6117658170663807
Training time: 246.6
		
Iteration: 34
Labeled set size: 1160
Unlabelled set size: 1340
	
Mean region size: 70.28933333333455
Incorrectly Classified Instances: 25.727999999999998
Correctly Classified Instances: 74.27199999999999
Weighted Precision: 0.7816365372193173
Weighted AreaUnderROC: 0.925024557803001
Root mean squared error: 0.34007504586895465
Relative absolute error: 52.84499999999915
Root relative squared error: 72.14081131387906
Weighted TruePositiveRate: 0.7427199999999999
Weighted MatthewsCorrelation: 0.63349022129029
Weighted FMeasure: 0.7324617260756189
Iteration time: 255.6
Weighted AreaUnderPRC: 0.828479816101015
Mean absolute error: 0.23486666666666398
Coverage of cases: 99.276
Instances selection time: 5.6
Test time: 14.0
Accumulative iteration time: 5921.4
Weighted Recall: 0.7427199999999999
Weighted FalsePositiveRate: 0.1298648471484071
Kappa statistic: 0.6135254381554273
Training time: 250.0
		
Iteration: 35
Labeled set size: 1180
Unlabelled set size: 1320
	
Mean region size: 70.1720000000013
Incorrectly Classified Instances: 25.368000000000002
Correctly Classified Instances: 74.63199999999999
Weighted Precision: 0.783190186050996
Weighted AreaUnderROC: 0.9241520586985551
Root mean squared error: 0.3396165951369582
Relative absolute error: 52.71719999999916
Root relative squared error: 72.04355922744865
Weighted TruePositiveRate: 0.7463200000000001
Weighted MatthewsCorrelation: 0.6380557459775232
Weighted FMeasure: 0.7363279290147349
Iteration time: 263.8
Weighted AreaUnderPRC: 0.8260731759412538
Mean absolute error: 0.23429866666666405
Coverage of cases: 99.29599999999999
Instances selection time: 5.5
Test time: 13.7
Accumulative iteration time: 6185.2
Weighted Recall: 0.7463200000000001
Weighted FalsePositiveRate: 0.12800980311766122
Kappa statistic: 0.6189537725691383
Training time: 258.3
		
Iteration: 36
Labeled set size: 1200
Unlabelled set size: 1300
	
Mean region size: 70.30933333333459
Incorrectly Classified Instances: 24.927999999999997
Correctly Classified Instances: 75.072
Weighted Precision: 0.783720972917479
Weighted AreaUnderROC: 0.9252738050748333
Root mean squared error: 0.33722120942927614
Relative absolute error: 52.499999999999076
Root relative squared error: 71.53542118421085
Weighted TruePositiveRate: 0.75072
Weighted MatthewsCorrelation: 0.6427824922595726
Weighted FMeasure: 0.7419960662727262
Iteration time: 267.2
Weighted AreaUnderPRC: 0.8285016739172262
Mean absolute error: 0.23333333333333034
Coverage of cases: 99.28
Instances selection time: 5.7
Test time: 13.9
Accumulative iteration time: 6452.4
Weighted Recall: 0.75072
Weighted FalsePositiveRate: 0.12575821025876455
Kappa statistic: 0.625591805475342
Training time: 261.5
		
Iteration: 37
Labeled set size: 1220
Unlabelled set size: 1280
	
Mean region size: 70.44000000000133
Incorrectly Classified Instances: 25.016000000000002
Correctly Classified Instances: 74.98400000000001
Weighted Precision: 0.7852419223511178
Weighted AreaUnderROC: 0.9268862093423651
Root mean squared error: 0.33644011565366794
Relative absolute error: 52.528799999999066
Root relative squared error: 71.3697261725683
Weighted TruePositiveRate: 0.74984
Weighted MatthewsCorrelation: 0.6425762527124524
Weighted FMeasure: 0.7411038905316245
Iteration time: 270.4
Weighted AreaUnderPRC: 0.8324431621748218
Mean absolute error: 0.23346133333333033
Coverage of cases: 99.46399999999998
Instances selection time: 5.5
Test time: 13.9
Accumulative iteration time: 6722.8
Weighted Recall: 0.74984
Weighted FalsePositiveRate: 0.12622035610908586
Kappa statistic: 0.6242604988968617
Training time: 264.9
		
Iteration: 38
Labeled set size: 1240
Unlabelled set size: 1260
	
Mean region size: 69.85333333333467
Incorrectly Classified Instances: 24.484
Correctly Classified Instances: 75.516
Weighted Precision: 0.7874810906540081
Weighted AreaUnderROC: 0.927026852505685
Root mean squared error: 0.3341774795622492
Relative absolute error: 51.903599999999116
Root relative squared error: 70.88974857548843
Weighted TruePositiveRate: 0.7551599999999999
Weighted MatthewsCorrelation: 0.6489946269697984
Weighted FMeasure: 0.7485292715724754
Iteration time: 276.9
Weighted AreaUnderPRC: 0.8330061222097781
Mean absolute error: 0.2306826666666638
Coverage of cases: 99.356
Instances selection time: 5.5
Test time: 14.0
Accumulative iteration time: 6999.7
Weighted Recall: 0.7551599999999999
Weighted FalsePositiveRate: 0.12356313121595267
Kappa statistic: 0.6322642533723521
Training time: 271.4
		
Iteration: 39
Labeled set size: 1260
Unlabelled set size: 1240
	
Mean region size: 70.16533333333469
Incorrectly Classified Instances: 23.7
Correctly Classified Instances: 76.3
Weighted Precision: 0.7906565078496299
Weighted AreaUnderROC: 0.930180694458221
Root mean squared error: 0.3301473545187886
Relative absolute error: 51.529199999999015
Root relative squared error: 70.03482995131021
Weighted TruePositiveRate: 0.763
Weighted MatthewsCorrelation: 0.6586111206819092
Weighted FMeasure: 0.7573276015479559
Iteration time: 281.4
Weighted AreaUnderPRC: 0.8393333091026939
Mean absolute error: 0.22901866666666343
Coverage of cases: 99.548
Instances selection time: 5.4
Test time: 14.1
Accumulative iteration time: 7281.1
Weighted Recall: 0.763
Weighted FalsePositiveRate: 0.11953693432658836
Kappa statistic: 0.6440736319945557
Training time: 276.0
		
Iteration: 40
Labeled set size: 1280
Unlabelled set size: 1220
	
Mean region size: 70.1600000000013
Incorrectly Classified Instances: 23.86
Correctly Classified Instances: 76.14
Weighted Precision: 0.7878544188883645
Weighted AreaUnderROC: 0.9288668037043333
Root mean squared error: 0.3301927169608636
Relative absolute error: 51.408599999999026
Root relative squared error: 70.04445277843092
Weighted TruePositiveRate: 0.7614
Weighted MatthewsCorrelation: 0.6556355856508412
Weighted FMeasure: 0.7559469415982497
Iteration time: 285.9
Weighted AreaUnderPRC: 0.8362873885504696
Mean absolute error: 0.22848266666666334
Coverage of cases: 99.47599999999998
Instances selection time: 5.1
Test time: 14.4
Accumulative iteration time: 7567.0
Weighted Recall: 0.7614
Weighted FalsePositiveRate: 0.12033500354244683
Kappa statistic: 0.6416758604031637
Training time: 280.8
		
Iteration: 41
Labeled set size: 1300
Unlabelled set size: 1200
	
Mean region size: 70.04933333333472
Incorrectly Classified Instances: 24.02
Correctly Classified Instances: 75.98
Weighted Precision: 0.7871024032441137
Weighted AreaUnderROC: 0.9291067946228362
Root mean squared error: 0.33036441944277783
Relative absolute error: 51.49379999999902
Root relative squared error: 70.08087637522337
Weighted TruePositiveRate: 0.7598
Weighted MatthewsCorrelation: 0.6535901579030217
Weighted FMeasure: 0.7547851427360738
Iteration time: 292.0
Weighted AreaUnderPRC: 0.8375763033129328
Mean absolute error: 0.22886133333333009
Coverage of cases: 99.49199999999999
Instances selection time: 5.5
Test time: 14.2
Accumulative iteration time: 7859.0
Weighted Recall: 0.7598
Weighted FalsePositiveRate: 0.12116594115196895
Kappa statistic: 0.6392670481721454
Training time: 286.5
		
Iteration: 42
Labeled set size: 1320
Unlabelled set size: 1180
	
Mean region size: 69.57066666666802
Incorrectly Classified Instances: 23.32
Correctly Classified Instances: 76.67999999999999
Weighted Precision: 0.7919469367130783
Weighted AreaUnderROC: 0.9315605076613261
Root mean squared error: 0.3266940758655888
Relative absolute error: 50.68439999999903
Root relative squared error: 69.3022789254089
Weighted TruePositiveRate: 0.7667999999999999
Weighted MatthewsCorrelation: 0.6630814485785481
Weighted FMeasure: 0.76172054613436
Iteration time: 296.1
Weighted AreaUnderPRC: 0.842738506590942
Mean absolute error: 0.22526399999999674
Coverage of cases: 99.52000000000001
Instances selection time: 5.2
Test time: 14.2
Accumulative iteration time: 8155.1
Weighted Recall: 0.7667999999999999
Weighted FalsePositiveRate: 0.11757126945338352
Kappa statistic: 0.6498104927232948
Training time: 290.9
		
Iteration: 43
Labeled set size: 1340
Unlabelled set size: 1160
	
Mean region size: 70.10533333333471
Incorrectly Classified Instances: 22.871999999999996
Correctly Classified Instances: 77.128
Weighted Precision: 0.7927087572728796
Weighted AreaUnderROC: 0.9315477526831029
Root mean squared error: 0.3254914569601234
Relative absolute error: 50.72039999999902
Root relative squared error: 69.0471649304376
Weighted TruePositiveRate: 0.7712800000000001
Weighted MatthewsCorrelation: 0.6678460758843537
Weighted FMeasure: 0.76747636766413
Iteration time: 301.9
Weighted AreaUnderPRC: 0.8425948602874922
Mean absolute error: 0.22542399999999674
Coverage of cases: 99.624
Instances selection time: 5.0
Test time: 14.5
Accumulative iteration time: 8457.0
Weighted Recall: 0.7712800000000001
Weighted FalsePositiveRate: 0.11525084170885576
Kappa statistic: 0.6565729463569007
Training time: 296.9
		
Iteration: 44
Labeled set size: 1360
Unlabelled set size: 1140
	
Mean region size: 70.04933333333476
Incorrectly Classified Instances: 22.712
Correctly Classified Instances: 77.28799999999998
Weighted Precision: 0.7919450610385739
Weighted AreaUnderROC: 0.9319862724911403
Root mean squared error: 0.3242267955613455
Relative absolute error: 50.66999999999897
Root relative squared error: 68.77888973514335
Weighted TruePositiveRate: 0.77288
Weighted MatthewsCorrelation: 0.6690869663749094
Weighted FMeasure: 0.769589955743879
Iteration time: 307.7
Weighted AreaUnderPRC: 0.8431409141419108
Mean absolute error: 0.22519999999999651
Coverage of cases: 99.64
Instances selection time: 5.1
Test time: 14.3
Accumulative iteration time: 8764.7
Weighted Recall: 0.77288
Weighted FalsePositiveRate: 0.11443980078823623
Kappa statistic: 0.658990897819353
Training time: 302.6
		
Iteration: 45
Labeled set size: 1380
Unlabelled set size: 1120
	
Mean region size: 70.57866666666807
Incorrectly Classified Instances: 22.768
Correctly Classified Instances: 77.232
Weighted Precision: 0.7898444763973828
Weighted AreaUnderROC: 0.9303681638683499
Root mean squared error: 0.3258371474512998
Relative absolute error: 51.34079999999902
Root relative squared error: 69.12049695758836
Weighted TruePositiveRate: 0.7723199999999999
Weighted MatthewsCorrelation: 0.6675023248205829
Weighted FMeasure: 0.7694923344757225
Iteration time: 314.5
Weighted AreaUnderPRC: 0.8389949278869357
Mean absolute error: 0.22818133333333007
Coverage of cases: 99.65600000000002
Instances selection time: 5.1
Test time: 14.5
Accumulative iteration time: 9079.2
Weighted Recall: 0.7723199999999999
Weighted FalsePositiveRate: 0.11470835288087342
Kappa statistic: 0.6581499725132627
Training time: 309.4
		
Iteration: 46
Labeled set size: 1400
Unlabelled set size: 1100
	
Mean region size: 70.10800000000143
Incorrectly Classified Instances: 22.476
Correctly Classified Instances: 77.52400000000002
Weighted Precision: 0.7917107551623955
Weighted AreaUnderROC: 0.9324991416361094
Root mean squared error: 0.32298402553719474
Relative absolute error: 50.62859999999897
Root relative squared error: 68.51525840168367
Weighted TruePositiveRate: 0.77524
Weighted MatthewsCorrelation: 0.6713533946762634
Weighted FMeasure: 0.7725494477160942
Iteration time: 318.4
Weighted AreaUnderPRC: 0.8440580655111569
Mean absolute error: 0.22501599999999647
Coverage of cases: 99.60800000000002
Instances selection time: 4.9
Test time: 14.2
Accumulative iteration time: 9397.6
Weighted Recall: 0.77524
Weighted FalsePositiveRate: 0.11318979817967752
Kappa statistic: 0.6625550409590937
Training time: 313.5
		
Time end:Wed Nov 01 17.08.10 EET 2017