Wed Nov 01 15.07.23 EET 2017
Dataset: waveform
Test set size: 2500
Initial Labelled set size: 500
Initial Unlabelled set size: 2000
Batch mode: QBestBatchMode
Batch size: 20
Classifiers: SMO-1cores
Scenario: PoolBasedSamplingScenario
Query strategy: EntropySamplingQueryStrategy-1cores
Time begining: Wed Nov 01 15.07.23 EET 2017
		
Iteration: 1
Labeled set size: 500
Unlabelled set size: 2000
	
Mean region size: 66.70000000000199
Incorrectly Classified Instances: 16.212000000000003
Correctly Classified Instances: 83.78799999999998
Weighted Precision: 0.8392508947504762
Weighted AreaUnderROC: 0.9173538993985584
Root mean squared error: 0.3319709443349755
Relative absolute error: 58.14799999999882
Root relative squared error: 70.42167176884875
Weighted TruePositiveRate: 0.83788
Weighted MatthewsCorrelation: 0.7576877212298505
Weighted FMeasure: 0.8373179743813125
Iteration time: 121.0
Weighted AreaUnderPRC: 0.7826742049356621
Mean absolute error: 0.25843555555555153
Coverage of cases: 99.964
Instances selection time: 18.5
Test time: 26.3
Accumulative iteration time: 121.0
Weighted Recall: 0.83788
Weighted FalsePositiveRate: 0.08092380730631409
Kappa statistic: 0.7568822317276045
Training time: 102.5
		
Iteration: 2
Labeled set size: 520
Unlabelled set size: 1980
	
Mean region size: 66.70400000000198
Incorrectly Classified Instances: 16.12
Correctly Classified Instances: 83.88
Weighted Precision: 0.8401307821831072
Weighted AreaUnderROC: 0.9179703664749963
Root mean squared error: 0.33162671348517564
Relative absolute error: 58.09799999999886
Root relative squared error: 70.34864937839264
Weighted TruePositiveRate: 0.8388
Weighted MatthewsCorrelation: 0.759016496369113
Weighted FMeasure: 0.8383538517089122
Iteration time: 81.9
Weighted AreaUnderPRC: 0.7840944844068055
Mean absolute error: 0.2582133333333295
Coverage of cases: 99.95599999999999
Instances selection time: 11.0
Test time: 18.8
Accumulative iteration time: 202.9
Weighted Recall: 0.8388
Weighted FalsePositiveRate: 0.08050996254361169
Kappa statistic: 0.7582460357411339
Training time: 70.9
		
Iteration: 3
Labeled set size: 540
Unlabelled set size: 1960
	
Mean region size: 66.69466666666867
Incorrectly Classified Instances: 16.08
Correctly Classified Instances: 83.92
Weighted Precision: 0.840882812367516
Weighted AreaUnderROC: 0.9183186219739484
Root mean squared error: 0.3314809926081991
Relative absolute error: 58.07199999999892
Root relative squared error: 70.31773731231144
Weighted TruePositiveRate: 0.8392
Weighted MatthewsCorrelation: 0.7597728351688366
Weighted FMeasure: 0.8388267961912804
Iteration time: 84.1
Weighted AreaUnderPRC: 0.7847527442130149
Mean absolute error: 0.25809777777777415
Coverage of cases: 99.964
Instances selection time: 11.7
Test time: 19.1
Accumulative iteration time: 287.0
Weighted Recall: 0.8392
Weighted FalsePositiveRate: 0.08038253872046945
Kappa statistic: 0.7588226278700637
Training time: 72.4
		
Iteration: 4
Labeled set size: 560
Unlabelled set size: 1940
	
Mean region size: 66.69333333333532
Incorrectly Classified Instances: 15.911999999999997
Correctly Classified Instances: 84.08800000000001
Weighted Precision: 0.8429835991536916
Weighted AreaUnderROC: 0.9193668842643288
Root mean squared error: 0.3309240864572711
Relative absolute error: 57.98799999999896
Root relative squared error: 70.19959967756975
Weighted TruePositiveRate: 0.84088
Weighted MatthewsCorrelation: 0.7625171607753659
Weighted FMeasure: 0.8405015935933179
Iteration time: 77.7
Weighted AreaUnderPRC: 0.7870821935425899
Mean absolute error: 0.257724444444441
Coverage of cases: 99.96000000000001
Instances selection time: 8.7
Test time: 14.8
Accumulative iteration time: 364.7
Weighted Recall: 0.84088
Weighted FalsePositiveRate: 0.07959266005518063
Kappa statistic: 0.7613259822589047
Training time: 69.0
		
Iteration: 5
Labeled set size: 580
Unlabelled set size: 1920
	
Mean region size: 66.69466666666865
Incorrectly Classified Instances: 16.176
Correctly Classified Instances: 83.82400000000001
Weighted Precision: 0.8415397173191718
Weighted AreaUnderROC: 0.9178752304980806
Root mean squared error: 0.3318317327311314
Relative absolute error: 58.12399999999898
Root relative squared error: 70.39214052811937
Weighted TruePositiveRate: 0.8382400000000001
Weighted MatthewsCorrelation: 0.7592256993018757
Weighted FMeasure: 0.8378179799615971
Iteration time: 68.7
Weighted AreaUnderPRC: 0.7842356868839553
Mean absolute error: 0.2583288888888855
Coverage of cases: 99.96000000000001
Instances selection time: 7.6
Test time: 13.4
Accumulative iteration time: 433.4
Weighted Recall: 0.8382400000000001
Weighted FalsePositiveRate: 0.08094570972349718
Kappa statistic: 0.7573564704461887
Training time: 61.1
		
Iteration: 6
Labeled set size: 600
Unlabelled set size: 1900
	
Mean region size: 66.68800000000199
Incorrectly Classified Instances: 16.300000000000004
Correctly Classified Instances: 83.7
Weighted Precision: 0.8415061146019877
Weighted AreaUnderROC: 0.917338571715009
Root mean squared error: 0.33225434214286076
Relative absolute error: 58.183999999999
Root relative squared error: 70.48178952236749
Weighted TruePositiveRate: 0.837
Weighted MatthewsCorrelation: 0.7580487409488176
Weighted FMeasure: 0.8365048639227048
Iteration time: 69.8
Weighted AreaUnderPRC: 0.7832751533792784
Mean absolute error: 0.25859555555555236
Coverage of cases: 99.956
Instances selection time: 7.3
Test time: 13.5
Accumulative iteration time: 503.2
Weighted Recall: 0.837
Weighted FalsePositiveRate: 0.08163280770851
Kappa statistic: 0.7554749123428828
Training time: 62.5
		
Iteration: 7
Labeled set size: 620
Unlabelled set size: 1880
	
Mean region size: 66.68933333333533
Incorrectly Classified Instances: 16.503999999999998
Correctly Classified Instances: 83.496
Weighted Precision: 0.8407664811172278
Weighted AreaUnderROC: 0.9163142855377915
Root mean squared error: 0.3329012411776312
Relative absolute error: 58.28199999999904
Root relative squared error: 70.61901753063624
Weighted TruePositiveRate: 0.83496
Weighted MatthewsCorrelation: 0.7557441931257453
Weighted FMeasure: 0.8343617159554387
Iteration time: 72.5
Weighted AreaUnderPRC: 0.7813197404764805
Mean absolute error: 0.25903111111110805
Coverage of cases: 99.968
Instances selection time: 7.6
Test time: 14.4
Accumulative iteration time: 575.7
Weighted Recall: 0.83496
Weighted FalsePositiveRate: 0.08269611787281453
Kappa statistic: 0.7524008700983384
Training time: 64.9
		
Iteration: 8
Labeled set size: 640
Unlabelled set size: 1860
	
Mean region size: 66.69200000000198
Incorrectly Classified Instances: 16.68
Correctly Classified Instances: 83.32000000000001
Weighted Precision: 0.8403186371416119
Weighted AreaUnderROC: 0.9154166164971524
Root mean squared error: 0.33347033321897
Relative absolute error: 58.36999999999906
Root relative squared error: 70.73974018310125
Weighted TruePositiveRate: 0.8331999999999999
Weighted MatthewsCorrelation: 0.7538664493795499
Weighted FMeasure: 0.8325654220894823
Iteration time: 78.7
Weighted AreaUnderPRC: 0.7798725013366097
Mean absolute error: 0.2594222222222192
Coverage of cases: 99.964
Instances selection time: 7.6
Test time: 14.7
Accumulative iteration time: 654.4
Weighted Recall: 0.8331999999999999
Weighted FalsePositiveRate: 0.0836083294516737
Kappa statistic: 0.7497495606406746
Training time: 71.1
		
Iteration: 9
Labeled set size: 660
Unlabelled set size: 1840
	
Mean region size: 66.68933333333533
Incorrectly Classified Instances: 17.084
Correctly Classified Instances: 82.916
Weighted Precision: 0.8376577239007673
Weighted AreaUnderROC: 0.9133948413537849
Root mean squared error: 0.33484271770037444
Relative absolute error: 58.57399999999907
Root relative squared error: 71.0308668950601
Weighted TruePositiveRate: 0.8291599999999999
Weighted MatthewsCorrelation: 0.7485962406857037
Weighted FMeasure: 0.8284486991825692
Iteration time: 79.8
Weighted AreaUnderPRC: 0.7755958969685924
Mean absolute error: 0.260328888888886
Coverage of cases: 99.964
Instances selection time: 8.4
Test time: 14.7
Accumulative iteration time: 734.2
Weighted Recall: 0.8291599999999999
Weighted FalsePositiveRate: 0.08567577454643191
Kappa statistic: 0.7436737556696951
Training time: 71.4
		
Iteration: 10
Labeled set size: 680
Unlabelled set size: 1820
	
Mean region size: 66.68933333333533
Incorrectly Classified Instances: 17.104000000000003
Correctly Classified Instances: 82.89599999999999
Weighted Precision: 0.838243840160518
Weighted AreaUnderROC: 0.9133171876499487
Root mean squared error: 0.33489576380324126
Relative absolute error: 58.581999999999084
Root relative squared error: 71.0421196727759
Weighted TruePositiveRate: 0.82896
Weighted MatthewsCorrelation: 0.7487560453822696
Weighted FMeasure: 0.8281975227831067
Iteration time: 77.1
Weighted AreaUnderPRC: 0.7757292257225011
Mean absolute error: 0.2603644444444416
Coverage of cases: 99.964
Instances selection time: 6.8
Test time: 13.6
Accumulative iteration time: 811.3
Weighted Recall: 0.82896
Weighted FalsePositiveRate: 0.08579256250163962
Kappa statistic: 0.7433703421211986
Training time: 70.3
		
Iteration: 11
Labeled set size: 700
Unlabelled set size: 1800
	
Mean region size: 66.69066666666865
Incorrectly Classified Instances: 17.4
Correctly Classified Instances: 82.6
Weighted Precision: 0.8364282536034444
Weighted AreaUnderROC: 0.911954473065155
Root mean squared error: 0.33583127972032634
Relative absolute error: 58.72399999999908
Root relative squared error: 71.24057256743956
Weighted TruePositiveRate: 0.826
Weighted MatthewsCorrelation: 0.7449681327258457
Weighted FMeasure: 0.8252109353132541
Iteration time: 85.4
Weighted AreaUnderPRC: 0.7729273697639354
Mean absolute error: 0.2609955555555527
Coverage of cases: 99.96799999999999
Instances selection time: 6.8
Test time: 13.6
Accumulative iteration time: 896.7
Weighted Recall: 0.826
Weighted FalsePositiveRate: 0.08731074841643963
Kappa statistic: 0.738915721041486
Training time: 78.6
		
Iteration: 12
Labeled set size: 720
Unlabelled set size: 1780
	
Mean region size: 66.68666666666866
Incorrectly Classified Instances: 17.556
Correctly Classified Instances: 82.44399999999999
Weighted Precision: 0.8355975849826868
Weighted AreaUnderROC: 0.9112995464394167
Root mean squared error: 0.33636482294320014
Relative absolute error: 58.80199999999907
Root relative squared error: 71.3537541767246
Weighted TruePositiveRate: 0.8244400000000001
Weighted MatthewsCorrelation: 0.7430423600077766
Weighted FMeasure: 0.8236571957248868
Iteration time: 79.7
Weighted AreaUnderPRC: 0.7714508662943412
Mean absolute error: 0.2613422222222193
Coverage of cases: 99.96799999999999
Instances selection time: 6.5
Test time: 14.0
Accumulative iteration time: 976.4
Weighted Recall: 0.8244400000000001
Weighted FalsePositiveRate: 0.0881109072862819
Kappa statistic: 0.7365687408405994
Training time: 73.2
		
Iteration: 13
Labeled set size: 740
Unlabelled set size: 1760
	
Mean region size: 66.68400000000199
Incorrectly Classified Instances: 17.723999999999997
Correctly Classified Instances: 82.276
Weighted Precision: 0.8352241035842027
Weighted AreaUnderROC: 0.9104477926302639
Root mean squared error: 0.33689721153875507
Relative absolute error: 58.88199999999908
Root relative squared error: 71.46669085256761
Weighted TruePositiveRate: 0.8227600000000003
Weighted MatthewsCorrelation: 0.7413048406226854
Weighted FMeasure: 0.8218905899399701
Iteration time: 81.4
Weighted AreaUnderPRC: 0.7700213835279424
Mean absolute error: 0.2616977777777749
Coverage of cases: 99.968
Instances selection time: 6.0
Test time: 13.4
Accumulative iteration time: 1057.8
Weighted Recall: 0.8227600000000003
Weighted FalsePositiveRate: 0.08898675633773981
Kappa statistic: 0.7340367525906002
Training time: 75.4
		
Iteration: 14
Labeled set size: 760
Unlabelled set size: 1740
	
Mean region size: 66.68933333333533
Incorrectly Classified Instances: 17.808
Correctly Classified Instances: 82.192
Weighted Precision: 0.8353001787119265
Weighted AreaUnderROC: 0.9101114954556598
Root mean squared error: 0.33718262546670646
Relative absolute error: 58.92799999999909
Root relative squared error: 71.52723628973744
Weighted TruePositiveRate: 0.8219200000000001
Weighted MatthewsCorrelation: 0.7405698651188951
Weighted FMeasure: 0.8210342010462568
Iteration time: 82.6
Weighted AreaUnderPRC: 0.7695183563958083
Mean absolute error: 0.26190222222221937
Coverage of cases: 99.964
Instances selection time: 6.0
Test time: 13.8
Accumulative iteration time: 1140.4
Weighted Recall: 0.8219200000000001
Weighted FalsePositiveRate: 0.0894228710294481
Kappa statistic: 0.7327706507910549
Training time: 76.6
		
Iteration: 15
Labeled set size: 780
Unlabelled set size: 1720
	
Mean region size: 66.68666666666864
Incorrectly Classified Instances: 18.016000000000002
Correctly Classified Instances: 81.98400000000001
Weighted Precision: 0.8346865785425823
Weighted AreaUnderROC: 0.9089973180959472
Root mean squared error: 0.33787299532636234
Relative absolute error: 59.031999999999094
Root relative squared error: 71.67368585252429
Weighted TruePositiveRate: 0.8198399999999999
Weighted MatthewsCorrelation: 0.7382988697659129
Weighted FMeasure: 0.8188891128500367
Iteration time: 80.9
Weighted AreaUnderPRC: 0.7675321071357899
Mean absolute error: 0.2623644444444416
Coverage of cases: 99.968
Instances selection time: 5.9
Test time: 14.0
Accumulative iteration time: 1221.3
Weighted Recall: 0.8198399999999999
Weighted FalsePositiveRate: 0.09049800063132546
Kappa statistic: 0.7296361896297049
Training time: 75.0
		
Iteration: 16
Labeled set size: 800
Unlabelled set size: 1700
	
Mean region size: 66.68666666666866
Incorrectly Classified Instances: 18.156
Correctly Classified Instances: 81.844
Weighted Precision: 0.834048896252277
Weighted AreaUnderROC: 0.9083020956992472
Root mean squared error: 0.33832457334220994
Relative absolute error: 59.09999999999911
Root relative squared error: 71.76948001569647
Weighted TruePositiveRate: 0.8184400000000001
Weighted MatthewsCorrelation: 0.7366328084902062
Weighted FMeasure: 0.8174788024778611
Iteration time: 89.8
Weighted AreaUnderPRC: 0.7662135215434961
Mean absolute error: 0.2626666666666639
Coverage of cases: 99.97200000000001
Instances selection time: 5.5
Test time: 13.0
Accumulative iteration time: 1311.1
Weighted Recall: 0.8184400000000001
Weighted FalsePositiveRate: 0.09122386620566367
Kappa statistic: 0.7275276481774517
Training time: 84.3
		
Iteration: 17
Labeled set size: 820
Unlabelled set size: 1680
	
Mean region size: 66.68800000000199
Incorrectly Classified Instances: 18.344
Correctly Classified Instances: 81.656
Weighted Precision: 0.8336694537619456
Weighted AreaUnderROC: 0.9073336658273791
Root mean squared error: 0.33894683543323434
Relative absolute error: 59.195999999999096
Root relative squared error: 71.90148173896806
Weighted TruePositiveRate: 0.81656
Weighted MatthewsCorrelation: 0.7346937564034596
Weighted FMeasure: 0.8155247449576079
Iteration time: 78.5
Weighted AreaUnderPRC: 0.7646433604522231
Mean absolute error: 0.26309333333333057
Coverage of cases: 99.968
Instances selection time: 4.8
Test time: 13.4
Accumulative iteration time: 1389.6
Weighted Recall: 0.81656
Weighted FalsePositiveRate: 0.09220500922287625
Kappa statistic: 0.7246914570933862
Training time: 73.7
		
Iteration: 18
Labeled set size: 840
Unlabelled set size: 1660
	
Mean region size: 66.68933333333533
Incorrectly Classified Instances: 18.439999999999998
Correctly Classified Instances: 81.55999999999999
Weighted Precision: 0.8334766448729098
Weighted AreaUnderROC: 0.9068800334809811
Root mean squared error: 0.33924694064356686
Relative absolute error: 59.24199999999911
Root relative squared error: 71.96514366775673
Weighted TruePositiveRate: 0.8156000000000001
Weighted MatthewsCorrelation: 0.7337406601721373
Weighted FMeasure: 0.814474881975161
Iteration time: 77.9
Weighted AreaUnderPRC: 0.7638435851368379
Mean absolute error: 0.2632977777777751
Coverage of cases: 99.968
Instances selection time: 4.8
Test time: 12.0
Accumulative iteration time: 1467.5
Weighted Recall: 0.8156000000000001
Weighted FalsePositiveRate: 0.09270113712286186
Kappa statistic: 0.7232454707392519
Training time: 73.1
		
Iteration: 19
Labeled set size: 860
Unlabelled set size: 1640
	
Mean region size: 66.68800000000199
Incorrectly Classified Instances: 18.66
Correctly Classified Instances: 81.34
Weighted Precision: 0.8319458024475829
Weighted AreaUnderROC: 0.9057920071160547
Root mean squared error: 0.33997115862167465
Relative absolute error: 59.35199999999911
Root relative squared error: 72.1187735007699
Weighted TruePositiveRate: 0.8134
Weighted MatthewsCorrelation: 0.730817365579141
Weighted FMeasure: 0.8122361189574928
Iteration time: 79.6
Weighted AreaUnderPRC: 0.7616068822500645
Mean absolute error: 0.263786666666664
Coverage of cases: 99.968
Instances selection time: 5.1
Test time: 12.7
Accumulative iteration time: 1547.1
Weighted Recall: 0.8134
Weighted FalsePositiveRate: 0.09380822000931567
Kappa statistic: 0.7199424694621611
Training time: 74.5
		
Iteration: 20
Labeled set size: 880
Unlabelled set size: 1620
	
Mean region size: 66.68933333333533
Incorrectly Classified Instances: 18.759999999999998
Correctly Classified Instances: 81.24
Weighted Precision: 0.8321442576299987
Weighted AreaUnderROC: 0.9052635634411448
Root mean squared error: 0.3403051686747608
Relative absolute error: 59.40399999999913
Root relative squared error: 72.1896277328264
Weighted TruePositiveRate: 0.8123999999999999
Weighted MatthewsCorrelation: 0.7300540020335664
Weighted FMeasure: 0.8111651921699321
Iteration time: 77.4
Weighted AreaUnderPRC: 0.7608944536516966
Mean absolute error: 0.26401777777777513
Coverage of cases: 99.96400000000001
Instances selection time: 4.4
Test time: 11.7
Accumulative iteration time: 1624.5
Weighted Recall: 0.8123999999999999
Weighted FalsePositiveRate: 0.0943419728706771
Kappa statistic: 0.7184289592461767
Training time: 73.0
		
Iteration: 21
Labeled set size: 900
Unlabelled set size: 1600
	
Mean region size: 66.68666666666866
Incorrectly Classified Instances: 18.892000000000003
Correctly Classified Instances: 81.108
Weighted Precision: 0.8315550187085394
Weighted AreaUnderROC: 0.9044647230583912
Root mean squared error: 0.34075870519580925
Relative absolute error: 59.47199999999915
Root relative squared error: 72.28583735769112
Weighted TruePositiveRate: 0.8110799999999999
Weighted MatthewsCorrelation: 0.7285216954799024
Weighted FMeasure: 0.8098202105200638
Iteration time: 90.7
Weighted AreaUnderPRC: 0.7594961173418573
Mean absolute error: 0.2643199999999974
Coverage of cases: 99.96000000000001
Instances selection time: 4.7
Test time: 11.5
Accumulative iteration time: 1715.2
Weighted Recall: 0.8110799999999999
Weighted FalsePositiveRate: 0.09500288800027679
Kappa statistic: 0.7164474378862143
Training time: 86.0
		
Iteration: 22
Labeled set size: 920
Unlabelled set size: 1580
	
Mean region size: 66.68533333333532
Incorrectly Classified Instances: 19.008
Correctly Classified Instances: 80.992
Weighted Precision: 0.831562419523754
Weighted AreaUnderROC: 0.903853805586498
Root mean squared error: 0.3411312392029627
Relative absolute error: 59.52799999999915
Root relative squared error: 72.36486375449536
Weighted TruePositiveRate: 0.8099200000000002
Weighted MatthewsCorrelation: 0.7274746259558952
Weighted FMeasure: 0.8085963279042655
Iteration time: 80.9
Weighted AreaUnderPRC: 0.7585409234678837
Mean absolute error: 0.2645688888888863
Coverage of cases: 99.96400000000001
Instances selection time: 4.5
Test time: 12.0
Accumulative iteration time: 1796.1
Weighted Recall: 0.8099200000000002
Weighted FalsePositiveRate: 0.0955979794739265
Kappa statistic: 0.7147011365649134
Training time: 76.4
		
Iteration: 23
Labeled set size: 940
Unlabelled set size: 1560
	
Mean region size: 66.68533333333532
Incorrectly Classified Instances: 19.076
Correctly Classified Instances: 80.924
Weighted Precision: 0.8313664384152666
Weighted AreaUnderROC: 0.9034594711104699
Root mean squared error: 0.34134784093082615
Relative absolute error: 59.561999999999145
Root relative squared error: 72.41081191967207
Weighted TruePositiveRate: 0.80924
Weighted MatthewsCorrelation: 0.7267331899309828
Weighted FMeasure: 0.8078720684965935
Iteration time: 83.9
Weighted AreaUnderPRC: 0.7578961963114106
Mean absolute error: 0.2647199999999975
Coverage of cases: 99.96400000000001
Instances selection time: 4.5
Test time: 11.9
Accumulative iteration time: 1880.0
Weighted Recall: 0.80924
Weighted FalsePositiveRate: 0.09595002551059864
Kappa statistic: 0.7136756860426654
Training time: 79.4
		
Iteration: 24
Labeled set size: 960
Unlabelled set size: 1540
	
Mean region size: 66.68133333333533
Incorrectly Classified Instances: 19.248
Correctly Classified Instances: 80.752
Weighted Precision: 0.8308502503948956
Weighted AreaUnderROC: 0.9025767906497644
Root mean squared error: 0.34192160371807934
Relative absolute error: 59.647999999999136
Root relative squared error: 72.53252538696981
Weighted TruePositiveRate: 0.80752
Weighted MatthewsCorrelation: 0.724876040268306
Weighted FMeasure: 0.8060787134548961
Iteration time: 82.5
Weighted AreaUnderPRC: 0.7563154008957123
Mean absolute error: 0.26510222222221963
Coverage of cases: 99.96400000000001
Instances selection time: 4.3
Test time: 12.7
Accumulative iteration time: 1962.5
Weighted Recall: 0.80752
Weighted FalsePositiveRate: 0.09682702950834285
Kappa statistic: 0.7110870610050872
Training time: 78.2
		
Iteration: 25
Labeled set size: 980
Unlabelled set size: 1520
	
Mean region size: 66.67866666666866
Incorrectly Classified Instances: 19.412
Correctly Classified Instances: 80.58800000000001
Weighted Precision: 0.8301207937913355
Weighted AreaUnderROC: 0.9016769770250914
Root mean squared error: 0.34247493672890916
Relative absolute error: 59.731999999999154
Root relative squared error: 72.64990504423346
Weighted TruePositiveRate: 0.8058799999999999
Weighted MatthewsCorrelation: 0.7229628928362224
Weighted FMeasure: 0.8044070431775939
Iteration time: 84.0
Weighted AreaUnderPRC: 0.7546955183725472
Mean absolute error: 0.265475555555553
Coverage of cases: 99.96400000000001
Instances selection time: 5.1
Test time: 12.4
Accumulative iteration time: 2046.5
Weighted Recall: 0.8058799999999999
Weighted FalsePositiveRate: 0.09766171311994172
Kappa statistic: 0.7086200640101978
Training time: 78.9
		
Iteration: 26
Labeled set size: 1000
Unlabelled set size: 1500
	
Mean region size: 66.68133333333533
Incorrectly Classified Instances: 19.604000000000003
Correctly Classified Instances: 80.39600000000002
Weighted Precision: 0.8289532961449531
Weighted AreaUnderROC: 0.9007162630275947
Root mean squared error: 0.34307228956310953
Relative absolute error: 59.82599999999917
Root relative squared error: 72.7766227161807
Weighted TruePositiveRate: 0.80396
Weighted MatthewsCorrelation: 0.7205038815399226
Weighted FMeasure: 0.8024828512909725
Iteration time: 86.5
Weighted AreaUnderPRC: 0.7528959928898534
Mean absolute error: 0.2658933333333308
Coverage of cases: 99.96400000000001
Instances selection time: 4.3
Test time: 11.7
Accumulative iteration time: 2133.0
Weighted Recall: 0.80396
Weighted FalsePositiveRate: 0.09864709455439244
Kappa statistic: 0.7057281453349529
Training time: 82.2
		
Iteration: 27
Labeled set size: 1020
Unlabelled set size: 1480
	
Mean region size: 66.680000000002
Incorrectly Classified Instances: 19.684000000000005
Correctly Classified Instances: 80.316
Weighted Precision: 0.8288945292877781
Weighted AreaUnderROC: 0.9003418472664915
Root mean squared error: 0.3433347245411282
Relative absolute error: 59.86599999999917
Root relative squared error: 72.83229358195395
Weighted TruePositiveRate: 0.8031599999999999
Weighted MatthewsCorrelation: 0.7197414957200838
Weighted FMeasure: 0.8016315162291103
Iteration time: 84.5
Weighted AreaUnderPRC: 0.7522732581529832
Mean absolute error: 0.2660711111111087
Coverage of cases: 99.96400000000001
Instances selection time: 4.3
Test time: 13.5
Accumulative iteration time: 2217.5
Weighted Recall: 0.8031599999999999
Weighted FalsePositiveRate: 0.09906108302399813
Kappa statistic: 0.70452158807123
Training time: 80.2
		
Iteration: 28
Labeled set size: 1040
Unlabelled set size: 1460
	
Mean region size: 66.680000000002
Incorrectly Classified Instances: 19.792
Correctly Classified Instances: 80.208
Weighted Precision: 0.8282829680191398
Weighted AreaUnderROC: 0.8996748707638501
Root mean squared error: 0.3436819898413956
Relative absolute error: 59.91999999999918
Root relative squared error: 72.90595967656091
Weighted TruePositiveRate: 0.8020800000000001
Weighted MatthewsCorrelation: 0.7184081043029305
Weighted FMeasure: 0.8005085698943718
Iteration time: 84.4
Weighted AreaUnderPRC: 0.7511222212372893
Mean absolute error: 0.26631111111110867
Coverage of cases: 99.96400000000001
Instances selection time: 4.1
Test time: 12.1
Accumulative iteration time: 2301.9
Weighted Recall: 0.8020800000000001
Weighted FalsePositiveRate: 0.09961204455510497
Kappa statistic: 0.7028964386609902
Training time: 80.3
		
Iteration: 29
Labeled set size: 1060
Unlabelled set size: 1440
	
Mean region size: 66.68266666666867
Incorrectly Classified Instances: 20.107999999999997
Correctly Classified Instances: 79.892
Weighted Precision: 0.826550815706147
Weighted AreaUnderROC: 0.8980842740895113
Root mean squared error: 0.34469304547039414
Relative absolute error: 60.07799999999918
Root relative squared error: 73.12043696398743
Weighted TruePositiveRate: 0.7989200000000001
Weighted MatthewsCorrelation: 0.714491144456293
Weighted FMeasure: 0.7972567074353518
Iteration time: 94.3
Weighted AreaUnderPRC: 0.7481385087021023
Mean absolute error: 0.26701333333333094
Coverage of cases: 99.96400000000001
Instances selection time: 4.4
Test time: 12.7
Accumulative iteration time: 2396.2
Weighted Recall: 0.7989200000000001
Weighted FalsePositiveRate: 0.10122056962710513
Kappa statistic: 0.6981432437478381
Training time: 89.9
		
Iteration: 30
Labeled set size: 1080
Unlabelled set size: 1420
	
Mean region size: 66.68133333333533
Incorrectly Classified Instances: 20.14
Correctly Classified Instances: 79.85999999999999
Weighted Precision: 0.8265570393944663
Weighted AreaUnderROC: 0.8980005384544174
Root mean squared error: 0.3448004813588583
Relative absolute error: 60.09399999999918
Root relative squared error: 73.14322755757017
Weighted TruePositiveRate: 0.7986000000000001
Weighted MatthewsCorrelation: 0.714206552545009
Weighted FMeasure: 0.7969104239212587
Iteration time: 95.9
Weighted AreaUnderPRC: 0.7479583849363024
Mean absolute error: 0.267084444444442
Coverage of cases: 99.96400000000001
Instances selection time: 4.8
Test time: 12.2
Accumulative iteration time: 2492.1
Weighted Recall: 0.7986000000000001
Weighted FalsePositiveRate: 0.10138099120843816
Kappa statistic: 0.6976633576570641
Training time: 91.1
		
Iteration: 31
Labeled set size: 1100
Unlabelled set size: 1400
	
Mean region size: 66.68400000000199
Incorrectly Classified Instances: 20.244
Correctly Classified Instances: 79.756
Weighted Precision: 0.8261891933456788
Weighted AreaUnderROC: 0.8974781621760144
Root mean squared error: 0.34510313418029526
Relative absolute error: 60.141999999999186
Root relative squared error: 73.20742991628516
Weighted TruePositiveRate: 0.7975599999999999
Weighted MatthewsCorrelation: 0.7130526643559041
Weighted FMeasure: 0.7958470482734726
Iteration time: 97.2
Weighted AreaUnderPRC: 0.7470321446978481
Mean absolute error: 0.26729777777777547
Coverage of cases: 99.97200000000001
Instances selection time: 4.3
Test time: 12.3
Accumulative iteration time: 2589.3
Weighted Recall: 0.7975599999999999
Weighted FalsePositiveRate: 0.1019077308383507
Kappa statistic: 0.6960991738681008
Training time: 92.9
		
Iteration: 32
Labeled set size: 1120
Unlabelled set size: 1380
	
Mean region size: 66.68133333333533
Incorrectly Classified Instances: 20.380000000000003
Correctly Classified Instances: 79.61999999999999
Weighted Precision: 0.8255873872096855
Weighted AreaUnderROC: 0.8967253478178634
Root mean squared error: 0.34553810248699435
Relative absolute error: 60.207999999999174
Root relative squared error: 73.29970062806561
Weighted TruePositiveRate: 0.7962
Weighted MatthewsCorrelation: 0.71146640353432
Weighted FMeasure: 0.7944683370284367
Iteration time: 99.2
Weighted AreaUnderPRC: 0.7456926173556806
Mean absolute error: 0.2675911111111087
Coverage of cases: 99.97600000000001
Instances selection time: 4.4
Test time: 12.6
Accumulative iteration time: 2688.5
Weighted Recall: 0.7962
Weighted FalsePositiveRate: 0.10259897598897445
Kappa statistic: 0.6940533272027932
Training time: 94.8
		
Iteration: 33
Labeled set size: 1140
Unlabelled set size: 1360
	
Mean region size: 66.67866666666866
Incorrectly Classified Instances: 20.604
Correctly Classified Instances: 79.396
Weighted Precision: 0.8239486584877506
Weighted AreaUnderROC: 0.8955992924852397
Root mean squared error: 0.3462753900079856
Relative absolute error: 60.321999999999186
Root relative squared error: 73.45610292979873
Weighted TruePositiveRate: 0.79396
Weighted MatthewsCorrelation: 0.7084530064486279
Weighted FMeasure: 0.7921783358568238
Iteration time: 105.9
Weighted AreaUnderPRC: 0.743430482375097
Mean absolute error: 0.26809777777777544
Coverage of cases: 99.97200000000001
Instances selection time: 4.9
Test time: 13.9
Accumulative iteration time: 2794.4
Weighted Recall: 0.79396
Weighted FalsePositiveRate: 0.10373643246482411
Kappa statistic: 0.6906835807425826
Training time: 101.0
		
Iteration: 34
Labeled set size: 1160
Unlabelled set size: 1340
	
Mean region size: 66.680000000002
Incorrectly Classified Instances: 20.708
Correctly Classified Instances: 79.292
Weighted Precision: 0.8239765777833382
Weighted AreaUnderROC: 0.8950077302254019
Root mean squared error: 0.3466266056404393
Relative absolute error: 60.37799999999919
Root relative squared error: 73.53060701640877
Weighted TruePositiveRate: 0.79292
Weighted MatthewsCorrelation: 0.7075000880871332
Weighted FMeasure: 0.7911186383918205
Iteration time: 110.2
Weighted AreaUnderPRC: 0.7426808575797327
Mean absolute error: 0.26834666666666435
Coverage of cases: 99.96400000000001
Instances selection time: 4.9
Test time: 13.2
Accumulative iteration time: 2904.6
Weighted Recall: 0.79292
Weighted FalsePositiveRate: 0.10428550910852026
Kappa statistic: 0.6891096698849096
Training time: 105.3
		
Iteration: 35
Labeled set size: 1180
Unlabelled set size: 1320
	
Mean region size: 66.68533333333532
Incorrectly Classified Instances: 20.663999999999998
Correctly Classified Instances: 79.336
Weighted Precision: 0.8246335615124172
Weighted AreaUnderROC: 0.8953769168854985
Root mean squared error: 0.3464374473226612
Relative absolute error: 60.351999999999215
Root relative squared error: 73.49048047764316
Weighted TruePositiveRate: 0.7933600000000001
Weighted MatthewsCorrelation: 0.7082763819922138
Weighted FMeasure: 0.7916945537543882
Iteration time: 114.1
Weighted AreaUnderPRC: 0.7435222896617286
Mean absolute error: 0.268231111111109
Coverage of cases: 99.97200000000001
Instances selection time: 4.8
Test time: 13.6
Accumulative iteration time: 3018.7
Weighted Recall: 0.7933600000000001
Weighted FalsePositiveRate: 0.10411136368901594
Kappa statistic: 0.6897507976895249
Training time: 109.3
		
Iteration: 36
Labeled set size: 1200
Unlabelled set size: 1300
	
Mean region size: 66.68533333333532
Incorrectly Classified Instances: 20.503999999999998
Correctly Classified Instances: 79.49600000000001
Weighted Precision: 0.8254125011933796
Weighted AreaUnderROC: 0.8963208452427542
Root mean squared error: 0.34593952303783254
Relative absolute error: 60.275999999999236
Root relative squared error: 73.3848547861472
Weighted TruePositiveRate: 0.79496
Weighted MatthewsCorrelation: 0.7101971412390753
Weighted FMeasure: 0.7933973444638382
Iteration time: 116.6
Weighted AreaUnderPRC: 0.745232456594741
Mean absolute error: 0.26789333333333126
Coverage of cases: 99.964
Instances selection time: 4.6
Test time: 13.4
Accumulative iteration time: 3135.3
Weighted Recall: 0.79496
Weighted FalsePositiveRate: 0.10332968845478663
Kappa statistic: 0.6921412027489184
Training time: 112.0
		
Iteration: 37
Labeled set size: 1220
Unlabelled set size: 1280
	
Mean region size: 66.68133333333532
Incorrectly Classified Instances: 20.14
Correctly Classified Instances: 79.86
Weighted Precision: 0.827135779861617
Weighted AreaUnderROC: 0.8981924718036449
Root mean squared error: 0.3447883266854933
Relative absolute error: 60.0939999999993
Root relative squared error: 73.14064916198234
Weighted TruePositiveRate: 0.7986
Weighted MatthewsCorrelation: 0.714505550901545
Weighted FMeasure: 0.7971097832563613
Iteration time: 114.7
Weighted AreaUnderPRC: 0.7485470831421096
Mean absolute error: 0.26708444444444257
Coverage of cases: 99.96
Instances selection time: 4.2
Test time: 12.6
Accumulative iteration time: 3250.0
Weighted Recall: 0.7986
Weighted FalsePositiveRate: 0.10149486688621365
Kappa statistic: 0.6976101870384699
Training time: 110.5
		
Iteration: 38
Labeled set size: 1240
Unlabelled set size: 1260
	
Mean region size: 66.68666666666866
Incorrectly Classified Instances: 19.988
Correctly Classified Instances: 80.01199999999999
Weighted Precision: 0.8271011198755474
Weighted AreaUnderROC: 0.89920887673317
Root mean squared error: 0.344277328058861
Relative absolute error: 60.01599999999934
Root relative squared error: 73.0322499837617
Weighted TruePositiveRate: 0.80012
Weighted MatthewsCorrelation: 0.7158299196198483
Weighted FMeasure: 0.7986019772113604
Iteration time: 115.1
Weighted AreaUnderPRC: 0.7498327540993939
Mean absolute error: 0.2667377777777761
Coverage of cases: 99.964
Instances selection time: 4.3
Test time: 13.0
Accumulative iteration time: 3365.1
Weighted Recall: 0.80012
Weighted FalsePositiveRate: 0.10071809277119241
Kappa statistic: 0.6999008633037942
Training time: 110.8
		
Iteration: 39
Labeled set size: 1260
Unlabelled set size: 1240
	
Mean region size: 66.68400000000199
Incorrectly Classified Instances: 19.728
Correctly Classified Instances: 80.272
Weighted Precision: 0.8289104348746532
Weighted AreaUnderROC: 0.9005768311963127
Root mean squared error: 0.34343471678465326
Relative absolute error: 59.883999999999375
Root relative squared error: 72.85350513999275
Weighted TruePositiveRate: 0.8027200000000001
Weighted MatthewsCorrelation: 0.7191832747201492
Weighted FMeasure: 0.8011405732743906
Iteration time: 124.1
Weighted AreaUnderPRC: 0.7523830064019642
Mean absolute error: 0.2661511111111096
Coverage of cases: 99.96799999999999
Instances selection time: 5.5
Test time: 13.9
Accumulative iteration time: 3489.2
Weighted Recall: 0.8027200000000001
Weighted FalsePositiveRate: 0.099407450967526
Kappa statistic: 0.7038081972644726
Training time: 118.6
		
Iteration: 40
Labeled set size: 1280
Unlabelled set size: 1220
	
Mean region size: 66.68133333333532
Incorrectly Classified Instances: 19.596
Correctly Classified Instances: 80.404
Weighted Precision: 0.8298215389848048
Weighted AreaUnderROC: 0.9013178174531742
Root mean squared error: 0.34303267519183334
Relative absolute error: 59.8199999999994
Root relative squared error: 72.76821923901215
Weighted TruePositiveRate: 0.80404
Weighted MatthewsCorrelation: 0.7207754381387709
Weighted FMeasure: 0.802411969180112
Iteration time: 128.6
Weighted AreaUnderPRC: 0.7537626840083546
Mean absolute error: 0.26586666666666525
Coverage of cases: 99.96000000000001
Instances selection time: 4.3
Test time: 14.1
Accumulative iteration time: 3617.8
Weighted Recall: 0.80404
Weighted FalsePositiveRate: 0.09874923105200575
Kappa statistic: 0.7057917314487908
Training time: 124.3
		
Iteration: 41
Labeled set size: 1300
Unlabelled set size: 1200
	
Mean region size: 66.68133333333532
Incorrectly Classified Instances: 19.4
Correctly Classified Instances: 80.60000000000001
Weighted Precision: 0.8312357444855676
Weighted AreaUnderROC: 0.9023762799136719
Root mean squared error: 0.3423691120664023
Relative absolute error: 59.717999999999435
Root relative squared error: 72.62745624329085
Weighted TruePositiveRate: 0.806
Weighted MatthewsCorrelation: 0.7232916410069892
Weighted FMeasure: 0.8042226689724405
Iteration time: 127.9
Weighted AreaUnderPRC: 0.7557308308244359
Mean absolute error: 0.26541333333333206
Coverage of cases: 99.964
Instances selection time: 4.4
Test time: 13.5
Accumulative iteration time: 3745.7
Weighted Recall: 0.806
Weighted FalsePositiveRate: 0.09775393946426689
Kappa statistic: 0.7087374267343733
Training time: 123.5
		
Iteration: 42
Labeled set size: 1320
Unlabelled set size: 1180
	
Mean region size: 66.68266666666865
Incorrectly Classified Instances: 19.168
Correctly Classified Instances: 80.832
Weighted Precision: 0.8329627787031757
Weighted AreaUnderROC: 0.9035865946969052
Root mean squared error: 0.34159843966475967
Relative absolute error: 59.599999999999476
Root relative squared error: 72.46397193890841
Weighted TruePositiveRate: 0.8083199999999999
Weighted MatthewsCorrelation: 0.7263434314214722
Weighted FMeasure: 0.8063599716641399
Iteration time: 140.2
Weighted AreaUnderPRC: 0.7579924328975791
Mean absolute error: 0.26488888888888784
Coverage of cases: 99.97200000000001
Instances selection time: 4.7
Test time: 13.3
Accumulative iteration time: 3885.9
Weighted Recall: 0.8083199999999999
Weighted FalsePositiveRate: 0.09657690164099067
Kappa statistic: 0.7122246756277166
Training time: 135.5
		
Iteration: 43
Labeled set size: 1340
Unlabelled set size: 1160
	
Mean region size: 66.68400000000199
Incorrectly Classified Instances: 19.072
Correctly Classified Instances: 80.928
Weighted Precision: 0.8333941132527392
Weighted AreaUnderROC: 0.9039381565163234
Root mean squared error: 0.3413099521881118
Relative absolute error: 59.55599999999949
Root relative squared error: 72.40277450360088
Weighted TruePositiveRate: 0.80928
Weighted MatthewsCorrelation: 0.7274228954632125
Weighted FMeasure: 0.8070425969060292
Iteration time: 138.3
Weighted AreaUnderPRC: 0.7585837618934443
Mean absolute error: 0.26469333333333234
Coverage of cases: 99.96399999999998
Instances selection time: 5.1
Test time: 14.0
Accumulative iteration time: 4024.2
Weighted Recall: 0.80928
Weighted FalsePositiveRate: 0.09608255545255678
Kappa statistic: 0.7136715730150547
Training time: 133.2
		
Iteration: 44
Labeled set size: 1360
Unlabelled set size: 1140
	
Mean region size: 66.68133333333532
Incorrectly Classified Instances: 18.964
Correctly Classified Instances: 81.036
Weighted Precision: 0.8341258292656916
Weighted AreaUnderROC: 0.9045751806876778
Root mean squared error: 0.34091521457697294
Relative absolute error: 59.49399999999953
Root relative squared error: 72.31903801111318
Weighted TruePositiveRate: 0.81036
Weighted MatthewsCorrelation: 0.7287448757796413
Weighted FMeasure: 0.8079136298541348
Iteration time: 141.5
Weighted AreaUnderPRC: 0.7595900105280083
Mean absolute error: 0.2644177777777769
Coverage of cases: 99.97600000000001
Instances selection time: 4.4
Test time: 13.0
Accumulative iteration time: 4165.7
Weighted Recall: 0.81036
Weighted FalsePositiveRate: 0.09552656537418207
Kappa statistic: 0.7152973076320982
Training time: 137.1
		
Iteration: 45
Labeled set size: 1380
Unlabelled set size: 1120
	
Mean region size: 66.68133333333532
Incorrectly Classified Instances: 18.848000000000003
Correctly Classified Instances: 81.152
Weighted Precision: 0.8351162100535792
Weighted AreaUnderROC: 0.9052184859166683
Root mean squared error: 0.34056582803517993
Relative absolute error: 59.43999999999954
Root relative squared error: 72.24492193322604
Weighted TruePositiveRate: 0.8115199999999998
Weighted MatthewsCorrelation: 0.7302871056496051
Weighted FMeasure: 0.8089552481725804
Iteration time: 147.2
Weighted AreaUnderPRC: 0.7608208104611367
Mean absolute error: 0.26417777777777696
Coverage of cases: 99.96799999999999
Instances selection time: 4.0
Test time: 12.2
Accumulative iteration time: 4312.9
Weighted Recall: 0.8115199999999998
Weighted FalsePositiveRate: 0.09494617077292851
Kappa statistic: 0.717038501740457
Training time: 143.2
		
Iteration: 46
Labeled set size: 1400
Unlabelled set size: 1100
	
Mean region size: 66.68400000000199
Incorrectly Classified Instances: 18.884
Correctly Classified Instances: 81.116
Weighted Precision: 0.8346381941040896
Weighted AreaUnderROC: 0.9050706295131539
Root mean squared error: 0.3406517715404229
Relative absolute error: 59.453999999999574
Root relative squared error: 72.26315330383291
Weighted TruePositiveRate: 0.8111599999999999
Weighted MatthewsCorrelation: 0.7295953234116441
Weighted FMeasure: 0.8081636567403102
Iteration time: 121.3
Weighted AreaUnderPRC: 0.7601097138674634
Mean absolute error: 0.26423999999999936
Coverage of cases: 99.98
Instances selection time: 3.8
Test time: 11.9
Accumulative iteration time: 4434.2
Weighted Recall: 0.8111599999999999
Weighted FalsePositiveRate: 0.09512351158147478
Kappa statistic: 0.7164976703904755
Training time: 117.5
		
Time end:Wed Nov 01 15.08.47 EET 2017